{"data":[{"id":3211,"common_name":"maidenhair tree","scientific_name":["Ginkgo biloba 'Troll'"],"other_name":["Maidenhair Tree","ginkgo"],"cycle":"Perennial","watering":"Average","sunlight":["Full sun"],"default_image":{"image_id":9,"license":5,"license_name":"Attribution-ShareAlike License","license_url":"https://creativecommons.org/licenses/by-sa/2.0/","original_url":"https://perenual.com/storage/species_image/2_abies_alba_pyramidalis/og/49255769768_df55596553_b.jpg","regular_url":"https://perenual.com/storage/species_image/2_abies_alba_pyramidalis/regular/49255769768_df55596553_b.jpg","medium_url":"https://perenual.com/storage/species_image/2_abies_alba_pyramidalis/medium/49255769768_df55596553_b.jpg","small_url":"https://perenual.com/storage/species_image/2_abies_alba_pyramidalis/small/49255769768_df55596553_b.jpg","thumbnail":"https://perenual.com/storage/species_image/2_abies_alba_pyramidalis/thumbnail/49255769768_df55596553_b.jpg"}},{"id":3212,"common_name":"maidenhair tree","scientific_name":["Ginkgo biloba 'Tubifolia'"],"other_name":["Maidenhair Tree","ginkgo"],"cycle":"Perennial","watering":"Average","sunlight":["Full sun"],"default_image":{"image_id":6874,"license":5,"license_name":"Attribution-ShareAlike License","license_url":"https://creativecommons.org/licenses/by-sa/2.0/","original_url":"https://perenual.com/storage/species_image/3212_ginkgo_biloba_tubifolia/og/10447399215_3c11b46d0b_b.jpg","regular_url":"https://perenual.com/storage/species_image/3212_ginkgo_biloba_tubifolia/regular/10447399215_3c11b46d0b_b.jpg","medium_url":"https://perenual.com/storage/species_image/3212_ginkgo_biloba_tubifolia/medium/10447399215_3c11b46d0b_b.jpg","small_url":"https://perenual.com/storage/species_image/3212_ginkgo_biloba_tubifolia/small/10447399215_3c11b46d0b_b.jpg","thumbnail":"https://perenual.com/storage/species_image/3212_ginkgo_biloba_tubifolia/thumbnail/10447399215_3c11b46d0b_b.jpg"}},{"id":3213,"common_name":"gladiolus","scientific_name":["Gladiolus 'Atom'"],"other_name":null,"cycle":"Perennial","watering":"Average","sunlight":["Full sun"],"default_image":{"image_id":9,"license":5,"license_name":"Attribution-ShareAlike License","license_url":"https://creativecommons.org/licenses/by-sa/2.0/","original_url":"https://perenual.com/storage/species_image/2_abies_alba_pyramidalis/og/49255769768_df55596553_b.jpg","regular_url":"https://perenual.com/storage/species_image/2_abies_alba_pyramidalis/regular/49255769768_df55596553_b.jpg","medium_url":"https://perenual.com/storage/species_image/2_abies_alba_pyramidalis/medium/49255769768_df55596553_b.jpg","small_url":"https://perenual.com/storage/species_image/2_abies_alba_pyramidalis/small/49255769768_df55596553_b.jpg","thumbnail":"https://perenual.com/storage/species_image/2_abies_alba_pyramidalis/thumbnail/49255769768_df55596553_b.jpg"}},{"id":3214,"common_name":"waterfall gladiolus","scientific_name":["Gladiolus cardinalis"],"other_name":null,"cycle":"Perennial","watering":"Average","sunlight":["Full sun","part shade"],"default_image":{"image_id":9,"license":5,"license_name":"Attribution-ShareAlike License","license_url":"https://creativecommons.org/licenses/by-sa/2.0/","original_url":"https://perenual.com/storage/species_image/2_abies_alba_pyramidalis/og/49255769768_df55596553_b.jpg","regular_url":"https://perenual.com/storage/species_image/2_abies_alba_pyramidalis/regular/49255769768_df55596553_b.jpg","medium_url":"https://perenual.com/storage/species_image/2_abies_alba_pyramidalis/medium/49255769768_df55596553_b.jpg","small_url":"https://perenual.com/storage/species_image/2_abies_alba_pyramidalis/small/49255769768_df55596553_b.jpg","thumbnail":"https://perenual.com/storage/species_image/2_abies_alba_pyramidalis/thumbnail/49255769768_df55596553_b.jpg"}},{"id":3215,"common_name":"gladiolus","scientific_name":["Gladiolus 'Caribbean'"],"other_name":null,"cycle":"Perennial","watering":"Average","sunlight":["Full sun"],"default_image":{"image_id":9,"license":5,"license_name":"Attribution-ShareAlike License","license_url":"https://creativecommons.org/licenses/by-sa/2.0/","original_url":"https://perenual.com/storage/species_image/2_abies_alba_pyramidalis/og/49255769768_df55596553_b.jpg","regular_url":"https://perenual.com/storage/species_image/2_abies_alba_pyramidalis/regular/49255769768_df55596553_b.jpg","medium_url":"https://perenual.com/storage/species_image/2_abies_alba_pyramidalis/medium/49255769768_df55596553_b.jpg","small_url":"https://perenual.com/storage/species_image/2_abies_alba_pyramidalis/small/49255769768_df55596553_b.jpg","thumbnail":"https://perenual.com/storage/species_image/2_abies_alba_pyramidalis/thumbnail/49255769768_df55596553_b.jpg"}},{"id":3216,"common_name":"Byzantine gladiolus","scientific_name":["Gladiolus communis var. byzantinus"],"other_name":null,"cycle":"Perennial","watering":"Average","sunlight":["Full sun"],"default_image":{"image_id":6880,"license":5,"license_name":"Attribution-ShareAlike License","license_url":"https://creativecommons.org/licenses/by-sa/2.0/","original_url":"https://perenual.com/storage/species_image/3216_gladiolus_communis_var_byzantinus/og/14312618642_5a9800c7bb_b.jpg","regular_url":"https://perenual.com/storage/species_image/3216_gladiolus_communis_var_byzantinus/regular/14312618642_5a9800c7bb_b.jpg","medium_url":"https://perenual.com/storage/species_image/3216_gladiolus_communis_var_byzantinus/medium/14312618642_5a9800c7bb_b.jpg","small_url":"https://perenual.com/storage/species_image/3216_gladiolus_communis_var_byzantinus/small/14312618642_5a9800c7bb_b.jpg","thumbnail":"https://perenual.com/storage/species_image/3216_gladiolus_communis_var_byzantinus/thumbnail/14312618642_5a9800c7bb_b.jpg"}},{"id":3217,"common_name":"gladiolus","scientific_name":["Gladiolus 'Flevo Jive'"],"other_name":null,"cycle":"Perennial","watering":"Average","sunlight":["Full sun"],"default_image":{"image_id":9,"license":5,"license_name":"Attribution-ShareAlike License","license_url":"https://creativecommons.org/licenses/by-sa/2.0/","original_url":"https://perenual.com/storage/species_image/2_abies_alba_pyramidalis/og/49255769768_df55596553_b.jpg","regular_url":"https://perenual.com/storage/species_image/2_abies_alba_pyramidalis/regular/49255769768_df55596553_b.jpg","medium_url":"https://perenual.com/storage/species_image/2_abies_alba_pyramidalis/medium/49255769768_df55596553_b.jpg","small_url":"https://perenual.com/storage/species_image/2_abies_alba_pyramidalis/small/49255769768_df55596553_b.jpg","thumbnail":"https://perenual.com/storage/species_image/2_abies_alba_pyramidalis/thumbnail/49255769768_df55596553_b.jpg"}},{"id":3218,"common_name":"gladiolus","scientific_name":["Gladiolus 'Flevo Ocean'"],"other_name":null,"cycle":"Perennial","watering":"Average","sunlight":["Full sun"],"default_image":{"image_id":6885,"license":451,"license_name":"CC0 1.0 Universal (CC0 1.0) Public Domain Dedication","license_url":"https://creativecommons.org/publicdomain/zero/1.0/","original_url":"https://perenual.com/storage/species_image/3218_gladiolus_flevo_ocean/og/gba39ffed1b02139823839809a4926d9d536e3ed36a2aad2295f2affa3b58220cb1665d579320489fb0eae6f3440044e074be1f58ad2affecde6c43e5c2b00f96_1280.jpg","regular_url":"https://perenual.com/storage/species_image/3218_gladiolus_flevo_ocean/regular/gba39ffed1b02139823839809a4926d9d536e3ed36a2aad2295f2affa3b58220cb1665d579320489fb0eae6f3440044e074be1f58ad2affecde6c43e5c2b00f96_1280.jpg","medium_url":"https://perenual.com/storage/species_image/3218_gladiolus_flevo_ocean/medium/gba39ffed1b02139823839809a4926d9d536e3ed36a2aad2295f2affa3b58220cb1665d579320489fb0eae6f3440044e074be1f58ad2affecde6c43e5c2b00f96_1280.jpg","small_url":"https://perenual.com/storage/species_image/3218_gladiolus_flevo_ocean/small/gba39ffed1b02139823839809a4926d9d536e3ed36a2aad2295f2affa3b58220cb1665d579320489fb0eae6f3440044e074be1f58ad2affecde6c43e5c2b00f96_1280.jpg","thumbnail":"https://perenual.com/storage/species_image/3218_gladiolus_flevo_ocean/thumbnail/gba39ffed1b02139823839809a4926d9d536e3ed36a2aad2295f2affa3b58220cb1665d579320489fb0eae6f3440044e074be1f58ad2affecde6c43e5c2b00f96_1280.jpg"}},{"id":3219,"common_name":"gladiolus","scientific_name":["Gladiolus gandavensis"],"other_name":null,"cycle":"Perennial","watering":"Average","sunlight":["Full sun","part shade"],"default_image":{"image_id":9,"license":5,"license_name":"Attribution-ShareAlike License","license_url":"https://creativecommons.org/licenses/by-sa/2.0/","original_url":"https://perenual.com/storage/species_image/2_abies_alba_pyramidalis/og/49255769768_df55596553_b.jpg","regular_url":"https://perenual.com/storage/species_image/2_abies_alba_pyramidalis/regular/49255769768_df55596553_b.jpg","medium_url":"https://perenual.com/storage/species_image/2_abies_alba_pyramidalis/medium/49255769768_df55596553_b.jpg","small_url":"https://perenual.com/storage/species_image/2_abies_alba_pyramidalis/small/49255769768_df55596553_b.jpg","thumbnail":"https://perenual.com/storage/species_image/2_abies_alba_pyramidalis/thumbnail/49255769768_df55596553_b.jpg"}},{"id":3220,"common_name":"gladiolus","scientific_name":["Gladiolus (group)"],"other_name":null,"cycle":"Perennial","watering":"Average","sunlight":["Full sun"],"default_image":{"image_id":9,"license":5,"license_name":"Attribution-ShareAlike License","license_url":"https://creativecommons.org/licenses/by-sa/2.0/","original_url":"https://perenual.com/storage/species_image/2_abies_alba_pyramidalis/og/49255769768_df55596553_b.jpg","regular_url":"https://perenual.com/storage/species_image/2_abies_alba_pyramidalis/regular/49255769768_df55596553_b.jpg","medium_url":"https://perenual.com/storage/species_image/2_abies_alba_pyramidalis/medium/49255769768_df55596553_b.jpg","small_url":"https://perenual.com/storage/species_image/2_abies_alba_pyramidalis/small/49255769768_df55596553_b.jpg","thumbnail":"https://perenual.com/storage/species_image/2_abies_alba_pyramidalis/thumbnail/49255769768_df55596553_b.jpg"}},{"id":3221,"common_name":"gladiolus","scientific_name":["Gladiolus (hardy mix)"],"other_name":null,"cycle":"Perennial","watering":"Average","sunlight":["Full sun"],"default_image":{"image_id":6892,"license":5,"license_name":"Attribution-ShareAlike License","license_url":"https://creativecommons.org/licenses/by-sa/2.0/","original_url":"https://perenual.com/storage/species_image/3221_gladiolus_hardy_mix/og/52387869371_f18074bcdf_b.jpg","regular_url":"https://perenual.com/storage/species_image/3221_gladiolus_hardy_mix/regular/52387869371_f18074bcdf_b.jpg","medium_url":"https://perenual.com/storage/species_image/3221_gladiolus_hardy_mix/medium/52387869371_f18074bcdf_b.jpg","small_url":"https://perenual.com/storage/species_image/3221_gladiolus_hardy_mix/small/52387869371_f18074bcdf_b.jpg","thumbnail":"https://perenual.com/storage/species_image/3221_gladiolus_hardy_mix/thumbnail/52387869371_f18074bcdf_b.jpg"}},{"id":3222,"common_name":"peacock gladiolus","scientific_name":["Gladiolus murielae"],"other_name":null,"cycle":"Perennial","watering":"Average","sunlight":["Full sun"],"default_image":{"image_id":9,"license":5,"license_name":"Attribution-ShareAlike License","license_url":"https://creativecommons.org/licenses/by-sa/2.0/","original_url":"https://perenual.com/storage/species_image/2_abies_alba_pyramidalis/og/49255769768_df55596553_b.jpg","regular_url":"https://perenual.com/storage/species_image/2_abies_alba_pyramidalis/regular/49255769768_df55596553_b.jpg","medium_url":"https://perenual.com/storage/species_image/2_abies_alba_pyramidalis/medium/49255769768_df55596553_b.jpg","small_url":"https://perenual.com/storage/species_image/2_abies_alba_pyramidalis/small/49255769768_df55596553_b.jpg","thumbnail":"https://perenual.com/storage/species_image/2_abies_alba_pyramidalis/thumbnail/49255769768_df55596553_b.jpg"}},{"id":3223,"common_name":"gladiolus","scientific_name":["Gladiolus 'Sapporo'"],"other_name":null,"cycle":"Perennial","watering":"Average","sunlight":["Full sun"],"default_image":{"image_id":9,"license":5,"license_name":"Attribution-ShareAlike License","license_url":"https://creativecommons.org/licenses/by-sa/2.0/","original_url":"https://perenual.com/storage/species_image/2_abies_alba_pyramidalis/og/49255769768_df55596553_b.jpg","regular_url":"https://perenual.com/storage/species_image/2_abies_alba_pyramidalis/regular/49255769768_df55596553_b.jpg","medium_url":"https://perenual.com/storage/species_image/2_abies_alba_pyramidalis/medium/49255769768_df55596553_b.jpg","small_url":"https://perenual.com/storage/species_image/2_abies_alba_pyramidalis/small/49255769768_df55596553_b.jpg","thumbnail":"https://perenual.com/storage/species_image/2_abies_alba_pyramidalis/thumbnail/49255769768_df55596553_b.jpg"}},{"id":3224,"common_name":"rose verbena","scientific_name":["Glandularia canadensis"],"other_name":null,"cycle":"Perennial","watering":"Minimum","sunlight":["Full sun"],"default_image":{"image_id":6895,"license":4,"license_name":"Attribution License","license_url":"https://creativecommons.org/licenses/by/2.0/","original_url":"https://perenual.com/storage/species_image/3226_glandularia_canadensis_shauna_ann/og/51168084846_4cd2eff7c1_b.jpg","regular_url":"https://perenual.com/storage/species_image/3226_glandularia_canadensis_shauna_ann/regular/51168084846_4cd2eff7c1_b.jpg","medium_url":"https://perenual.com/storage/species_image/3226_glandularia_canadensis_shauna_ann/medium/51168084846_4cd2eff7c1_b.jpg","small_url":"https://perenual.com/storage/species_image/3226_glandularia_canadensis_shauna_ann/small/51168084846_4cd2eff7c1_b.jpg","thumbnail":"https://perenual.com/storage/species_image/3226_glandularia_canadensis_shauna_ann/thumbnail/51168084846_4cd2eff7c1_b.jpg"}},{"id":3225,"common_name":"verbena","scientific_name":["Glandularia canadensis 'Greystone Daphne'"],"other_name":null,"cycle":"Perennial","watering":"Minimum","sunlight":["Full sun"],"default_image":{"image_id":6897,"license":4,"license_name":"Attribution License","license_url":"https://creativecommons.org/licenses/by/2.0/","original_url":"https://perenual.com/storage/species_image/3225_glandularia_canadensis_greystone_daphne/og/52609076110_04192bb35a_b.jpg","regular_url":"https://perenual.com/storage/species_image/3225_glandularia_canadensis_greystone_daphne/regular/52609076110_04192bb35a_b.jpg","medium_url":"https://perenual.com/storage/species_image/3225_glandularia_canadensis_greystone_daphne/medium/52609076110_04192bb35a_b.jpg","small_url":"https://perenual.com/storage/species_image/3225_glandularia_canadensis_greystone_daphne/small/52609076110_04192bb35a_b.jpg","thumbnail":"https://perenual.com/storage/species_image/3225_glandularia_canadensis_greystone_daphne/thumbnail/52609076110_04192bb35a_b.jpg"}},{"id":3226,"common_name":"rose vervain","scientific_name":["Glandularia canadensis 'Shauna Ann'"],"other_name":null,"cycle":"Perennial","watering":"Minimum","sunlight":["Full sun"],"default_image":{"image_id":6895,"license":4,"license_name":"Attribution License","license_url":"https://creativecommons.org/licenses/by/2.0/","original_url":"https://perenual.com/storage/species_image/3226_glandularia_canadensis_shauna_ann/og/51168084846_4cd2eff7c1_b.jpg","regular_url":"https://perenual.com/storage/species_image/3226_glandularia_canadensis_shauna_ann/regular/51168084846_4cd2eff7c1_b.jpg","medium_url":"https://perenual.com/storage/species_image/3226_glandularia_canadensis_shauna_ann/medium/51168084846_4cd2eff7c1_b.jpg","small_url":"https://perenual.com/storage/species_image/3226_glandularia_canadensis_shauna_ann/small/51168084846_4cd2eff7c1_b.jpg","thumbnail":"https://perenual.com/storage/species_image/3226_glandularia_canadensis_shauna_ann/thumbnail/51168084846_4cd2eff7c1_b.jpg"}},{"id":3227,"common_name":"imperial honey locust","scientific_name":["Gleditsia triacanthos f. inermis"],"other_name":null,"cycle":"Perennial","watering":"Average","sunlight":["Full sun"],"default_image":{"image_id":6899,"license":4,"license_name":"Attribution License","license_url":"https://creativecommons.org/licenses/by/2.0/","original_url":"https://perenual.com/storage/species_image/3227_gleditsia_triacanthos_f_inermis/og/30677513081_428687309c_b.jpg","regular_url":"https://perenual.com/storage/species_image/3227_gleditsia_triacanthos_f_inermis/regular/30677513081_428687309c_b.jpg","medium_url":"https://perenual.com/storage/species_image/3227_gleditsia_triacanthos_f_inermis/medium/30677513081_428687309c_b.jpg","small_url":"https://perenual.com/storage/species_image/3227_gleditsia_triacanthos_f_inermis/small/30677513081_428687309c_b.jpg","thumbnail":"https://perenual.com/storage/species_image/3227_gleditsia_triacanthos_f_inermis/thumbnail/30677513081_428687309c_b.jpg"}},{"id":3228,"common_name":"imperial honey locust","scientific_name":["Gleditsia triacanthos f. inermis 'Harve' NORTHERN ACCLAIM"],"other_name":null,"cycle":"Perennial","watering":"Average","sunlight":["Full sun"],"default_image":{"image_id":9,"license":5,"license_name":"Attribution-ShareAlike License","license_url":"https://creativecommons.org/licenses/by-sa/2.0/","original_url":"https://perenual.com/storage/species_image/2_abies_alba_pyramidalis/og/49255769768_df55596553_b.jpg","regular_url":"https://perenual.com/storage/species_image/2_abies_alba_pyramidalis/regular/49255769768_df55596553_b.jpg","medium_url":"https://perenual.com/storage/species_image/2_abies_alba_pyramidalis/medium/49255769768_df55596553_b.jpg","small_url":"https://perenual.com/storage/species_image/2_abies_alba_pyramidalis/small/49255769768_df55596553_b.jpg","thumbnail":"https://perenual.com/storage/species_image/2_abies_alba_pyramidalis/thumbnail/49255769768_df55596553_b.jpg"}},{"id":3229,"common_name":"imperial honey locust","scientific_name":["Gleditsia triacanthos f. inermis 'Impcole' IMPERIAL"],"other_name":null,"cycle":"Perennial","watering":"Average","sunlight":["Full sun"],"default_image":{"image_id":9,"license":5,"license_name":"Attribution-ShareAlike License","license_url":"https://creativecommons.org/licenses/by-sa/2.0/","original_url":"https://perenual.com/storage/species_image/2_abies_alba_pyramidalis/og/49255769768_df55596553_b.jpg","regular_url":"https://perenual.com/storage/species_image/2_abies_alba_pyramidalis/regular/49255769768_df55596553_b.jpg","medium_url":"https://perenual.com/storage/species_image/2_abies_alba_pyramidalis/medium/49255769768_df55596553_b.jpg","small_url":"https://perenual.com/storage/species_image/2_abies_alba_pyramidalis/small/49255769768_df55596553_b.jpg","thumbnail":"https://perenual.com/storage/species_image/2_abies_alba_pyramidalis/thumbnail/49255769768_df55596553_b.jpg"}},{"id":3230,"common_name":"honey locust","scientific_name":["Gleditsia triacanthos f. inermis 'Skycole' SKYLINE"],"other_name":null,"cycle":"Perennial","watering":"Average","sunlight":["Full sun"],"default_image":{"image_id":9,"license":5,"license_name":"Attribution-ShareAlike License","license_url":"https://creativecommons.org/licenses/by-sa/2.0/","original_url":"https://perenual.com/storage/species_image/2_abies_alba_pyramidalis/og/49255769768_df55596553_b.jpg","regular_url":"https://perenual.com/storage/species_image/2_abies_alba_pyramidalis/regular/49255769768_df55596553_b.jpg","medium_url":"https://perenual.com/storage/species_image/2_abies_alba_pyramidalis/medium/49255769768_df55596553_b.jpg","small_url":"https://perenual.com/storage/species_image/2_abies_alba_pyramidalis/small/49255769768_df55596553_b.jpg","thumbnail":"https://perenual.com/storage/species_image/2_abies_alba_pyramidalis/thumbnail/49255769768_df55596553_b.jpg"}},{"id":3231,"common_name":"globularia","scientific_name":["Globularia bisnagarica"],"other_name":null,"cycle":"Perennial","watering":"Average","sunlight":["Full sun"],"default_image":{"image_id":6901,"license":5,"license_name":"Attribution-ShareAlike License","license_url":"https://creativecommons.org/licenses/by-sa/2.0/","original_url":"https://perenual.com/storage/species_image/3231_globularia_bisnagarica/og/26817502711_e94f74b498_b.jpg","regular_url":"https://perenual.com/storage/species_image/3231_globularia_bisnagarica/regular/26817502711_e94f74b498_b.jpg","medium_url":"https://perenual.com/storage/species_image/3231_globularia_bisnagarica/medium/26817502711_e94f74b498_b.jpg","small_url":"https://perenual.com/storage/species_image/3231_globularia_bisnagarica/small/26817502711_e94f74b498_b.jpg","thumbnail":"https://perenual.com/storage/species_image/3231_globularia_bisnagarica/thumbnail/26817502711_e94f74b498_b.jpg"}},{"id":3232,"common_name":"gloriosa lily","scientific_name":["Gloriosa superba 'Rothschildiana'"],"other_name":null,"cycle":"Perennial","watering":"Average","sunlight":["Full sun","part shade"],"default_image":{"image_id":9,"license":5,"license_name":"Attribution-ShareAlike License","license_url":"https://creativecommons.org/licenses/by-sa/2.0/","original_url":"https://perenual.com/storage/species_image/2_abies_alba_pyramidalis/og/49255769768_df55596553_b.jpg","regular_url":"https://perenual.com/storage/species_image/2_abies_alba_pyramidalis/regular/49255769768_df55596553_b.jpg","medium_url":"https://perenual.com/storage/species_image/2_abies_alba_pyramidalis/medium/49255769768_df55596553_b.jpg","small_url":"https://perenual.com/storage/species_image/2_abies_alba_pyramidalis/small/49255769768_df55596553_b.jpg","thumbnail":"https://perenual.com/storage/species_image/2_abies_alba_pyramidalis/thumbnail/49255769768_df55596553_b.jpg"}},{"id":3233,"common_name":"glumicalyx","scientific_name":["Glumicalyx goseloides"],"other_name":null,"cycle":"Perennial","watering":"Minimum","sunlight":["Full sun","part shade"],"default_image":{"image_id":9,"license":5,"license_name":"Attribution-ShareAlike License","license_url":"https://creativecommons.org/licenses/by-sa/2.0/","original_url":"https://perenual.com/storage/species_image/2_abies_alba_pyramidalis/og/49255769768_df55596553_b.jpg","regular_url":"https://perenual.com/storage/species_image/2_abies_alba_pyramidalis/regular/49255769768_df55596553_b.jpg","medium_url":"https://perenual.com/storage/species_image/2_abies_alba_pyramidalis/medium/49255769768_df55596553_b.jpg","small_url":"https://perenual.com/storage/species_image/2_abies_alba_pyramidalis/small/49255769768_df55596553_b.jpg","thumbnail":"https://perenual.com/storage/species_image/2_abies_alba_pyramidalis/thumbnail/49255769768_df55596553_b.jpg"}},{"id":3234,"common_name":"soy bean","scientific_name":["Glycine max"],"other_name":null,"cycle":"Annual","watering":"Average","sunlight":["Full sun"],"default_image":null},{"id":3235,"common_name":"Chinese water-pine","scientific_name":["Glyptostrobus pensilis"],"other_name":null,"cycle":"Perennial","watering":"Frequent","sunlight":["Full sun","part shade"],"default_image":{"image_id":6907,"license":5,"license_name":"Attribution-ShareAlike License","license_url":"https://creativecommons.org/licenses/by-sa/2.0/","original_url":"https://perenual.com/storage/species_image/3235_glyptostrobus_pensilis/og/6084806401_06f666f34c_b.jpg","regular_url":"https://perenual.com/storage/species_image/3235_glyptostrobus_pensilis/regular/6084806401_06f666f34c_b.jpg","medium_url":"https://perenual.com/storage/species_image/3235_glyptostrobus_pensilis/medium/6084806401_06f666f34c_b.jpg","small_url":"https://perenual.com/storage/species_image/3235_glyptostrobus_pensilis/small/6084806401_06f666f34c_b.jpg","thumbnail":"https://perenual.com/storage/species_image/3235_glyptostrobus_pensilis/thumbnail/6084806401_06f666f34c_b.jpg"}},{"id":3236,"common_name":"goeppertia","scientific_name":["Goeppertia roseopicta"],"other_name":null,"cycle":"Perennial","watering":"Average","sunlight":["Part shade","full shade"],"default_image":{"image_id":6908,"license":5,"license_name":"Attribution-ShareAlike License","license_url":"https://creativecommons.org/licenses/by-sa/2.0/","original_url":"https://perenual.com/storage/species_image/3236_goeppertia_roseopicta/og/52317384045_458564783c_b.jpg","regular_url":"https://perenual.com/storage/species_image/3236_goeppertia_roseopicta/regular/52317384045_458564783c_b.jpg","medium_url":"https://perenual.com/storage/species_image/3236_goeppertia_roseopicta/medium/52317384045_458564783c_b.jpg","small_url":"https://perenual.com/storage/species_image/3236_goeppertia_roseopicta/small/52317384045_458564783c_b.jpg","thumbnail":"https://perenual.com/storage/species_image/3236_goeppertia_roseopicta/thumbnail/52317384045_458564783c_b.jpg"}},{"id":3237,"common_name":"balloon plant","scientific_name":["Gomphocarpus physocarpus"],"other_name":null,"cycle":"Perennial","watering":"Minimum","sunlight":["Full sun"],"default_image":{"image_id":9,"license":5,"license_name":"Attribution-ShareAlike License","license_url":"https://creativecommons.org/licenses/by-sa/2.0/","original_url":"https://perenual.com/storage/species_image/2_abies_alba_pyramidalis/og/49255769768_df55596553_b.jpg","regular_url":"https://perenual.com/storage/species_image/2_abies_alba_pyramidalis/regular/49255769768_df55596553_b.jpg","medium_url":"https://perenual.com/storage/species_image/2_abies_alba_pyramidalis/medium/49255769768_df55596553_b.jpg","small_url":"https://perenual.com/storage/species_image/2_abies_alba_pyramidalis/small/49255769768_df55596553_b.jpg","thumbnail":"https://perenual.com/storage/species_image/2_abies_alba_pyramidalis/thumbnail/49255769768_df55596553_b.jpg"}},{"id":3238,"common_name":"globe amaranth","scientific_name":["Gomphrena FOREST PINK"],"other_name":null,"cycle":"Perennial","watering":"Average","sunlight":["Full sun"],"default_image":{"image_id":9,"license":5,"license_name":"Attribution-ShareAlike License","license_url":"https://creativecommons.org/licenses/by-sa/2.0/","original_url":"https://perenual.com/storage/species_image/2_abies_alba_pyramidalis/og/49255769768_df55596553_b.jpg","regular_url":"https://perenual.com/storage/species_image/2_abies_alba_pyramidalis/regular/49255769768_df55596553_b.jpg","medium_url":"https://perenual.com/storage/species_image/2_abies_alba_pyramidalis/medium/49255769768_df55596553_b.jpg","small_url":"https://perenual.com/storage/species_image/2_abies_alba_pyramidalis/small/49255769768_df55596553_b.jpg","thumbnail":"https://perenual.com/storage/species_image/2_abies_alba_pyramidalis/thumbnail/49255769768_df55596553_b.jpg"}},{"id":3239,"common_name":"common globe amaranth","scientific_name":["Gomphrena globosa"],"other_name":null,"cycle":"Perennial","watering":"Average","sunlight":["Full sun"],"default_image":{"image_id":6912,"license":4,"license_name":"Attribution License","license_url":"https://creativecommons.org/licenses/by/2.0/","original_url":"https://perenual.com/storage/species_image/3239_gomphrena_globosa/og/49908263131_9734f78bba_b.jpg","regular_url":"https://perenual.com/storage/species_image/3239_gomphrena_globosa/regular/49908263131_9734f78bba_b.jpg","medium_url":"https://perenual.com/storage/species_image/3239_gomphrena_globosa/medium/49908263131_9734f78bba_b.jpg","small_url":"https://perenual.com/storage/species_image/3239_gomphrena_globosa/small/49908263131_9734f78bba_b.jpg","thumbnail":"https://perenual.com/storage/species_image/3239_gomphrena_globosa/thumbnail/49908263131_9734f78bba_b.jpg"}},{"id":3240,"common_name":"globe amaranth","scientific_name":["Gomphrena globosa 'Buddy Purple'"],"other_name":null,"cycle":"Perennial","watering":"Average","sunlight":["Full sun"],"default_image":{"image_id":6916,"license":4,"license_name":"Attribution License","license_url":"https://creativecommons.org/licenses/by/2.0/","original_url":"https://perenual.com/storage/species_image/3240_gomphrena_globosa_buddy_purple/og/52329025824_596b13db78_b.jpg","regular_url":"https://perenual.com/storage/species_image/3240_gomphrena_globosa_buddy_purple/regular/52329025824_596b13db78_b.jpg","medium_url":"https://perenual.com/storage/species_image/3240_gomphrena_globosa_buddy_purple/medium/52329025824_596b13db78_b.jpg","small_url":"https://perenual.com/storage/species_image/3240_gomphrena_globosa_buddy_purple/small/52329025824_596b13db78_b.jpg","thumbnail":"https://perenual.com/storage/species_image/3240_gomphrena_globosa_buddy_purple/thumbnail/52329025824_596b13db78_b.jpg"}}],"to":3240,"per_page":30,"current_page":108,"from":3211,"last_page":200,"total":6000}