{"data":[{"id":5881,"common_name":"wild sweet William","scientific_name":["Phlox divaricata 'Fuller's White'"],"other_name":null,"cycle":"Perennial","watering":"Average","sunlight":["Part shade","full shade"],"default_image":{"image_id":11757,"license":45,"license_name":"Attribution-ShareAlike 3.0 Unported (CC BY-SA 3.0)","license_url":"https://creativecommons.org/licenses/by-sa/3.0/deed.en","original_url":"https://perenual.com/storage/species_image/5881_phlox_divaricata_fullers_white/og/White_Phlox.jpg","regular_url":"https://perenual.com/storage/species_image/5881_phlox_divaricata_fullers_white/regular/White_Phlox.jpg","medium_url":"https://perenual.com/storage/species_image/5881_phlox_divaricata_fullers_white/medium/White_Phlox.jpg","small_url":"https://perenual.com/storage/species_image/5881_phlox_divaricata_fullers_white/small/White_Phlox.jpg","thumbnail":"https://perenual.com/storage/species_image/5881_phlox_divaricata_fullers_white/thumbnail/White_Phlox.jpg"}},{"id":5882,"common_name":"wild sweet William","scientific_name":["Phlox divaricata subsp. laphamii"],"other_name":null,"cycle":"Perennial","watering":"Average","sunlight":["Part shade","full shade"],"default_image":{"image_id":11758,"license":5,"license_name":"Attribution-ShareAlike License","license_url":"https://creativecommons.org/licenses/by-sa/2.0/","original_url":"https://perenual.com/storage/species_image/5882_phlox_divaricata_subsp_laphamii/og/17178526873_7eba30db16_b.jpg","regular_url":"https://perenual.com/storage/species_image/5882_phlox_divaricata_subsp_laphamii/regular/17178526873_7eba30db16_b.jpg","medium_url":"https://perenual.com/storage/species_image/5882_phlox_divaricata_subsp_laphamii/medium/17178526873_7eba30db16_b.jpg","small_url":"https://perenual.com/storage/species_image/5882_phlox_divaricata_subsp_laphamii/small/17178526873_7eba30db16_b.jpg","thumbnail":"https://perenual.com/storage/species_image/5882_phlox_divaricata_subsp_laphamii/thumbnail/17178526873_7eba30db16_b.jpg"}},{"id":5888,"common_name":"phlox","scientific_name":["Phlox 'Green Spring'"],"other_name":null,"cycle":"Perennial","watering":"Average","sunlight":["Full sun","part shade"],"default_image":{"image_id":9,"license":5,"license_name":"Attribution-ShareAlike License","license_url":"https://creativecommons.org/licenses/by-sa/2.0/","original_url":"https://perenual.com/storage/species_image/2_abies_alba_pyramidalis/og/49255769768_df55596553_b.jpg","regular_url":"https://perenual.com/storage/species_image/2_abies_alba_pyramidalis/regular/49255769768_df55596553_b.jpg","medium_url":"https://perenual.com/storage/species_image/2_abies_alba_pyramidalis/medium/49255769768_df55596553_b.jpg","small_url":"https://perenual.com/storage/species_image/2_abies_alba_pyramidalis/small/49255769768_df55596553_b.jpg","thumbnail":"https://perenual.com/storage/species_image/2_abies_alba_pyramidalis/thumbnail/49255769768_df55596553_b.jpg"}},{"id":5883,"common_name":"wild sweet William","scientific_name":["Phlox divaricata subsp. laphamii 'Chattahoochee'"],"other_name":null,"cycle":"Perennial","watering":"Minimum","sunlight":["Part shade","full shade"],"default_image":{"image_id":9,"license":5,"license_name":"Attribution-ShareAlike License","license_url":"https://creativecommons.org/licenses/by-sa/2.0/","original_url":"https://perenual.com/storage/species_image/2_abies_alba_pyramidalis/og/49255769768_df55596553_b.jpg","regular_url":"https://perenual.com/storage/species_image/2_abies_alba_pyramidalis/regular/49255769768_df55596553_b.jpg","medium_url":"https://perenual.com/storage/species_image/2_abies_alba_pyramidalis/medium/49255769768_df55596553_b.jpg","small_url":"https://perenual.com/storage/species_image/2_abies_alba_pyramidalis/small/49255769768_df55596553_b.jpg","thumbnail":"https://perenual.com/storage/species_image/2_abies_alba_pyramidalis/thumbnail/49255769768_df55596553_b.jpg"}},{"id":5884,"common_name":"phlox","scientific_name":["Phlox drummondii"],"other_name":null,"cycle":"Perennial","watering":"Average","sunlight":["Full sun","part shade"],"default_image":{"image_id":11760,"license":4,"license_name":"Attribution License","license_url":"https://creativecommons.org/licenses/by/2.0/","original_url":"https://perenual.com/storage/species_image/5884_phlox_drummondii/og/40920197924_10d2d3eb74_b.jpg","regular_url":"https://perenual.com/storage/species_image/5884_phlox_drummondii/regular/40920197924_10d2d3eb74_b.jpg","medium_url":"https://perenual.com/storage/species_image/5884_phlox_drummondii/medium/40920197924_10d2d3eb74_b.jpg","small_url":"https://perenual.com/storage/species_image/5884_phlox_drummondii/small/40920197924_10d2d3eb74_b.jpg","thumbnail":"https://perenual.com/storage/species_image/5884_phlox_drummondii/thumbnail/40920197924_10d2d3eb74_b.jpg"}},{"id":5885,"common_name":"smooth phlox","scientific_name":["Phlox glaberrima"],"other_name":null,"cycle":"Perennial","watering":"Average","sunlight":["Full sun","part shade"],"default_image":{"image_id":9,"license":5,"license_name":"Attribution-ShareAlike License","license_url":"https://creativecommons.org/licenses/by-sa/2.0/","original_url":"https://perenual.com/storage/species_image/2_abies_alba_pyramidalis/og/49255769768_df55596553_b.jpg","regular_url":"https://perenual.com/storage/species_image/2_abies_alba_pyramidalis/regular/49255769768_df55596553_b.jpg","medium_url":"https://perenual.com/storage/species_image/2_abies_alba_pyramidalis/medium/49255769768_df55596553_b.jpg","small_url":"https://perenual.com/storage/species_image/2_abies_alba_pyramidalis/small/49255769768_df55596553_b.jpg","thumbnail":"https://perenual.com/storage/species_image/2_abies_alba_pyramidalis/thumbnail/49255769768_df55596553_b.jpg"}},{"id":5886,"common_name":"smooth phlox","scientific_name":["Phlox glaberrima 'Morris Berd'"],"other_name":null,"cycle":"Perennial","watering":"Average","sunlight":["Full sun","part shade"],"default_image":{"image_id":9,"license":5,"license_name":"Attribution-ShareAlike License","license_url":"https://creativecommons.org/licenses/by-sa/2.0/","original_url":"https://perenual.com/storage/species_image/2_abies_alba_pyramidalis/og/49255769768_df55596553_b.jpg","regular_url":"https://perenual.com/storage/species_image/2_abies_alba_pyramidalis/regular/49255769768_df55596553_b.jpg","medium_url":"https://perenual.com/storage/species_image/2_abies_alba_pyramidalis/medium/49255769768_df55596553_b.jpg","small_url":"https://perenual.com/storage/species_image/2_abies_alba_pyramidalis/small/49255769768_df55596553_b.jpg","thumbnail":"https://perenual.com/storage/species_image/2_abies_alba_pyramidalis/thumbnail/49255769768_df55596553_b.jpg"}},{"id":5887,"common_name":"smooth phlox","scientific_name":["Phlox glaberrima var. triflora 'Forever Pink'"],"other_name":null,"cycle":"Perennial","watering":"Average","sunlight":["Full sun","part shade"],"default_image":{"image_id":9,"license":5,"license_name":"Attribution-ShareAlike License","license_url":"https://creativecommons.org/licenses/by-sa/2.0/","original_url":"https://perenual.com/storage/species_image/2_abies_alba_pyramidalis/og/49255769768_df55596553_b.jpg","regular_url":"https://perenual.com/storage/species_image/2_abies_alba_pyramidalis/regular/49255769768_df55596553_b.jpg","medium_url":"https://perenual.com/storage/species_image/2_abies_alba_pyramidalis/medium/49255769768_df55596553_b.jpg","small_url":"https://perenual.com/storage/species_image/2_abies_alba_pyramidalis/small/49255769768_df55596553_b.jpg","thumbnail":"https://perenual.com/storage/species_image/2_abies_alba_pyramidalis/thumbnail/49255769768_df55596553_b.jpg"}},{"id":5889,"common_name":"spotted phlox","scientific_name":["Phlox maculata"],"other_name":null,"cycle":"Perennial","watering":"Average","sunlight":["Full sun","part shade"],"default_image":{"image_id":11767,"license":4,"license_name":"Attribution License","license_url":"https://creativecommons.org/licenses/by/2.0/","original_url":"https://perenual.com/storage/species_image/5889_phlox_maculata/og/48384158666_f43c868c4a_b.jpg","regular_url":"https://perenual.com/storage/species_image/5889_phlox_maculata/regular/48384158666_f43c868c4a_b.jpg","medium_url":"https://perenual.com/storage/species_image/5889_phlox_maculata/medium/48384158666_f43c868c4a_b.jpg","small_url":"https://perenual.com/storage/species_image/5889_phlox_maculata/small/48384158666_f43c868c4a_b.jpg","thumbnail":"https://perenual.com/storage/species_image/5889_phlox_maculata/thumbnail/48384158666_f43c868c4a_b.jpg"}},{"id":5890,"common_name":"wild sweet William","scientific_name":["Phlox maculata 'Natascha'"],"other_name":null,"cycle":"Perennial","watering":"Average","sunlight":["Full sun","part shade"],"default_image":{"image_id":11768,"license":5,"license_name":"Attribution-ShareAlike License","license_url":"https://creativecommons.org/licenses/by-sa/2.0/","original_url":"https://perenual.com/storage/species_image/5890_phlox_maculata_natascha/og/5933122114_bc20fa9222_b.jpg","regular_url":"https://perenual.com/storage/species_image/5890_phlox_maculata_natascha/regular/5933122114_bc20fa9222_b.jpg","medium_url":"https://perenual.com/storage/species_image/5890_phlox_maculata_natascha/medium/5933122114_bc20fa9222_b.jpg","small_url":"https://perenual.com/storage/species_image/5890_phlox_maculata_natascha/small/5933122114_bc20fa9222_b.jpg","thumbnail":"https://perenual.com/storage/species_image/5890_phlox_maculata_natascha/thumbnail/5933122114_bc20fa9222_b.jpg"}},{"id":5891,"common_name":"garden phlox","scientific_name":["Phlox paniculata"],"other_name":["border phlox","common phlox","common phlox"],"cycle":"Perennial","watering":"Average","sunlight":["Full sun"," Part sun/part shade"],"default_image":{"image_id":9,"license":5,"license_name":"Attribution-ShareAlike License","license_url":"https://creativecommons.org/licenses/by-sa/2.0/","original_url":"https://perenual.com/storage/species_image/2_abies_alba_pyramidalis/og/49255769768_df55596553_b.jpg","regular_url":"https://perenual.com/storage/species_image/2_abies_alba_pyramidalis/regular/49255769768_df55596553_b.jpg","medium_url":"https://perenual.com/storage/species_image/2_abies_alba_pyramidalis/medium/49255769768_df55596553_b.jpg","small_url":"https://perenual.com/storage/species_image/2_abies_alba_pyramidalis/small/49255769768_df55596553_b.jpg","thumbnail":"https://perenual.com/storage/species_image/2_abies_alba_pyramidalis/thumbnail/49255769768_df55596553_b.jpg"}},{"id":5892,"common_name":"garden phlox","scientific_name":["Phlox paniculata 'Balsukafus' SUPER KA-POW FUCHSIA"],"other_name":["border phlox","common phlox","common phlox"],"cycle":"Perennial","watering":"Average","sunlight":["Full sun"," Part sun/part shade"],"default_image":{"image_id":9,"license":5,"license_name":"Attribution-ShareAlike License","license_url":"https://creativecommons.org/licenses/by-sa/2.0/","original_url":"https://perenual.com/storage/species_image/2_abies_alba_pyramidalis/og/49255769768_df55596553_b.jpg","regular_url":"https://perenual.com/storage/species_image/2_abies_alba_pyramidalis/regular/49255769768_df55596553_b.jpg","medium_url":"https://perenual.com/storage/species_image/2_abies_alba_pyramidalis/medium/49255769768_df55596553_b.jpg","small_url":"https://perenual.com/storage/species_image/2_abies_alba_pyramidalis/small/49255769768_df55596553_b.jpg","thumbnail":"https://perenual.com/storage/species_image/2_abies_alba_pyramidalis/thumbnail/49255769768_df55596553_b.jpg"}},{"id":5893,"common_name":"garden phlox","scientific_name":["Phlox paniculata 'Barfourteen' PURPLE FLAME"],"other_name":["border phlox","common phlox","common phlox"],"cycle":"Perennial","watering":"Average","sunlight":["Full sun"," Part sun/part shade"],"default_image":{"image_id":9,"license":5,"license_name":"Attribution-ShareAlike License","license_url":"https://creativecommons.org/licenses/by-sa/2.0/","original_url":"https://perenual.com/storage/species_image/2_abies_alba_pyramidalis/og/49255769768_df55596553_b.jpg","regular_url":"https://perenual.com/storage/species_image/2_abies_alba_pyramidalis/regular/49255769768_df55596553_b.jpg","medium_url":"https://perenual.com/storage/species_image/2_abies_alba_pyramidalis/medium/49255769768_df55596553_b.jpg","small_url":"https://perenual.com/storage/species_image/2_abies_alba_pyramidalis/small/49255769768_df55596553_b.jpg","thumbnail":"https://perenual.com/storage/species_image/2_abies_alba_pyramidalis/thumbnail/49255769768_df55596553_b.jpg"}},{"id":5894,"common_name":"garden phlox","scientific_name":["Phlox paniculata 'Barten' LILAC FLAME"],"other_name":["border phlox","common phlox","common phlox"],"cycle":"Perennial","watering":"Average","sunlight":["Full sun"," Part sun/part shade"],"default_image":{"image_id":9,"license":5,"license_name":"Attribution-ShareAlike License","license_url":"https://creativecommons.org/licenses/by-sa/2.0/","original_url":"https://perenual.com/storage/species_image/2_abies_alba_pyramidalis/og/49255769768_df55596553_b.jpg","regular_url":"https://perenual.com/storage/species_image/2_abies_alba_pyramidalis/regular/49255769768_df55596553_b.jpg","medium_url":"https://perenual.com/storage/species_image/2_abies_alba_pyramidalis/medium/49255769768_df55596553_b.jpg","small_url":"https://perenual.com/storage/species_image/2_abies_alba_pyramidalis/small/49255769768_df55596553_b.jpg","thumbnail":"https://perenual.com/storage/species_image/2_abies_alba_pyramidalis/thumbnail/49255769768_df55596553_b.jpg"}},{"id":5895,"common_name":"garden phlox","scientific_name":["Phlox paniculata 'Bartwelve' PINK FLAME"],"other_name":["border phlox","common phlox","common phlox"],"cycle":"Perennial","watering":"Average","sunlight":["Full sun"," Part sun/part shade"],"default_image":{"image_id":9,"license":5,"license_name":"Attribution-ShareAlike License","license_url":"https://creativecommons.org/licenses/by-sa/2.0/","original_url":"https://perenual.com/storage/species_image/2_abies_alba_pyramidalis/og/49255769768_df55596553_b.jpg","regular_url":"https://perenual.com/storage/species_image/2_abies_alba_pyramidalis/regular/49255769768_df55596553_b.jpg","medium_url":"https://perenual.com/storage/species_image/2_abies_alba_pyramidalis/medium/49255769768_df55596553_b.jpg","small_url":"https://perenual.com/storage/species_image/2_abies_alba_pyramidalis/small/49255769768_df55596553_b.jpg","thumbnail":"https://perenual.com/storage/species_image/2_abies_alba_pyramidalis/thumbnail/49255769768_df55596553_b.jpg"}},{"id":5896,"common_name":"garden phlox","scientific_name":["Phlox paniculata 'Becky Towe'"],"other_name":["border phlox","common phlox","common phlox"],"cycle":"Perennial","watering":"Average","sunlight":["Full sun"," Part sun/part shade"],"default_image":{"image_id":9,"license":5,"license_name":"Attribution-ShareAlike License","license_url":"https://creativecommons.org/licenses/by-sa/2.0/","original_url":"https://perenual.com/storage/species_image/2_abies_alba_pyramidalis/og/49255769768_df55596553_b.jpg","regular_url":"https://perenual.com/storage/species_image/2_abies_alba_pyramidalis/regular/49255769768_df55596553_b.jpg","medium_url":"https://perenual.com/storage/species_image/2_abies_alba_pyramidalis/medium/49255769768_df55596553_b.jpg","small_url":"https://perenual.com/storage/species_image/2_abies_alba_pyramidalis/small/49255769768_df55596553_b.jpg","thumbnail":"https://perenual.com/storage/species_image/2_abies_alba_pyramidalis/thumbnail/49255769768_df55596553_b.jpg"}},{"id":5897,"common_name":"garden phlox","scientific_name":["Phlox paniculata 'Blue Paradise'"],"other_name":["border phlox","common phlox","common phlox"],"cycle":"Perennial","watering":"Average","sunlight":["Full sun"," Part sun/part shade"],"default_image":{"image_id":11770,"license":5,"license_name":"Attribution-ShareAlike License","license_url":"https://creativecommons.org/licenses/by-sa/2.0/","original_url":"https://perenual.com/storage/species_image/5897_phlox_paniculata_blue_paradise/og/19209234093_1e64bd8947_b.jpg","regular_url":"https://perenual.com/storage/species_image/5897_phlox_paniculata_blue_paradise/regular/19209234093_1e64bd8947_b.jpg","medium_url":"https://perenual.com/storage/species_image/5897_phlox_paniculata_blue_paradise/medium/19209234093_1e64bd8947_b.jpg","small_url":"https://perenual.com/storage/species_image/5897_phlox_paniculata_blue_paradise/small/19209234093_1e64bd8947_b.jpg","thumbnail":"https://perenual.com/storage/species_image/5897_phlox_paniculata_blue_paradise/thumbnail/19209234093_1e64bd8947_b.jpg"}},{"id":5898,"common_name":"garden phlox","scientific_name":["Phlox paniculata 'Bright Eyes'"],"other_name":["border phlox","common phlox","common phlox"],"cycle":"Perennial","watering":"Average","sunlight":["Full sun"," Part sun/part shade"],"default_image":{"image_id":9,"license":5,"license_name":"Attribution-ShareAlike License","license_url":"https://creativecommons.org/licenses/by-sa/2.0/","original_url":"https://perenual.com/storage/species_image/2_abies_alba_pyramidalis/og/49255769768_df55596553_b.jpg","regular_url":"https://perenual.com/storage/species_image/2_abies_alba_pyramidalis/regular/49255769768_df55596553_b.jpg","medium_url":"https://perenual.com/storage/species_image/2_abies_alba_pyramidalis/medium/49255769768_df55596553_b.jpg","small_url":"https://perenual.com/storage/species_image/2_abies_alba_pyramidalis/small/49255769768_df55596553_b.jpg","thumbnail":"https://perenual.com/storage/species_image/2_abies_alba_pyramidalis/thumbnail/49255769768_df55596553_b.jpg"}},{"id":5899,"common_name":"garden phlox","scientific_name":["Phlox paniculata 'Candy Twist'"],"other_name":["border phlox","common phlox","common phlox"],"cycle":"Perennial","watering":"Average","sunlight":["Full sun"," Part sun/part shade"],"default_image":{"image_id":9,"license":5,"license_name":"Attribution-ShareAlike License","license_url":"https://creativecommons.org/licenses/by-sa/2.0/","original_url":"https://perenual.com/storage/species_image/2_abies_alba_pyramidalis/og/49255769768_df55596553_b.jpg","regular_url":"https://perenual.com/storage/species_image/2_abies_alba_pyramidalis/regular/49255769768_df55596553_b.jpg","medium_url":"https://perenual.com/storage/species_image/2_abies_alba_pyramidalis/medium/49255769768_df55596553_b.jpg","small_url":"https://perenual.com/storage/species_image/2_abies_alba_pyramidalis/small/49255769768_df55596553_b.jpg","thumbnail":"https://perenual.com/storage/species_image/2_abies_alba_pyramidalis/thumbnail/49255769768_df55596553_b.jpg"}},{"id":5900,"common_name":"garden phlox","scientific_name":["Phlox paniculata 'David'"],"other_name":["border phlox","common phlox","common phlox"],"cycle":"Perennial","watering":"Average","sunlight":["Full sun"," Part sun/part shade"],"default_image":{"image_id":9,"license":5,"license_name":"Attribution-ShareAlike License","license_url":"https://creativecommons.org/licenses/by-sa/2.0/","original_url":"https://perenual.com/storage/species_image/2_abies_alba_pyramidalis/og/49255769768_df55596553_b.jpg","regular_url":"https://perenual.com/storage/species_image/2_abies_alba_pyramidalis/regular/49255769768_df55596553_b.jpg","medium_url":"https://perenual.com/storage/species_image/2_abies_alba_pyramidalis/medium/49255769768_df55596553_b.jpg","small_url":"https://perenual.com/storage/species_image/2_abies_alba_pyramidalis/small/49255769768_df55596553_b.jpg","thumbnail":"https://perenual.com/storage/species_image/2_abies_alba_pyramidalis/thumbnail/49255769768_df55596553_b.jpg"}},{"id":5901,"common_name":"garden phlox","scientific_name":["Phlox paniculata 'David's Lavender'"],"other_name":["border phlox","common phlox","common phlox"],"cycle":"Perennial","watering":"Average","sunlight":["Full sun"," Part sun/part shade"],"default_image":{"image_id":9,"license":5,"license_name":"Attribution-ShareAlike License","license_url":"https://creativecommons.org/licenses/by-sa/2.0/","original_url":"https://perenual.com/storage/species_image/2_abies_alba_pyramidalis/og/49255769768_df55596553_b.jpg","regular_url":"https://perenual.com/storage/species_image/2_abies_alba_pyramidalis/regular/49255769768_df55596553_b.jpg","medium_url":"https://perenual.com/storage/species_image/2_abies_alba_pyramidalis/medium/49255769768_df55596553_b.jpg","small_url":"https://perenual.com/storage/species_image/2_abies_alba_pyramidalis/small/49255769768_df55596553_b.jpg","thumbnail":"https://perenual.com/storage/species_image/2_abies_alba_pyramidalis/thumbnail/49255769768_df55596553_b.jpg"}},{"id":5902,"common_name":"garden phlox","scientific_name":["Phlox paniculata 'Delta Snow'"],"other_name":["border phlox","common phlox","common phlox"],"cycle":"Perennial","watering":"Average","sunlight":["Full sun"," Part sun/part shade"],"default_image":{"image_id":9,"license":5,"license_name":"Attribution-ShareAlike License","license_url":"https://creativecommons.org/licenses/by-sa/2.0/","original_url":"https://perenual.com/storage/species_image/2_abies_alba_pyramidalis/og/49255769768_df55596553_b.jpg","regular_url":"https://perenual.com/storage/species_image/2_abies_alba_pyramidalis/regular/49255769768_df55596553_b.jpg","medium_url":"https://perenual.com/storage/species_image/2_abies_alba_pyramidalis/medium/49255769768_df55596553_b.jpg","small_url":"https://perenual.com/storage/species_image/2_abies_alba_pyramidalis/small/49255769768_df55596553_b.jpg","thumbnail":"https://perenual.com/storage/species_image/2_abies_alba_pyramidalis/thumbnail/49255769768_df55596553_b.jpg"}},{"id":5903,"common_name":"garden phlox","scientific_name":["Phlox paniculata 'Dusterlohe' NICKY"],"other_name":["border phlox","common phlox","common phlox"],"cycle":"Perennial","watering":"Average","sunlight":["Full sun"," Part sun/part shade"],"default_image":{"image_id":9,"license":5,"license_name":"Attribution-ShareAlike License","license_url":"https://creativecommons.org/licenses/by-sa/2.0/","original_url":"https://perenual.com/storage/species_image/2_abies_alba_pyramidalis/og/49255769768_df55596553_b.jpg","regular_url":"https://perenual.com/storage/species_image/2_abies_alba_pyramidalis/regular/49255769768_df55596553_b.jpg","medium_url":"https://perenual.com/storage/species_image/2_abies_alba_pyramidalis/medium/49255769768_df55596553_b.jpg","small_url":"https://perenual.com/storage/species_image/2_abies_alba_pyramidalis/small/49255769768_df55596553_b.jpg","thumbnail":"https://perenual.com/storage/species_image/2_abies_alba_pyramidalis/thumbnail/49255769768_df55596553_b.jpg"}},{"id":5904,"common_name":"garden phlox","scientific_name":["Phlox paniculata 'Eden's Crush'"],"other_name":["border phlox","common phlox","common phlox"],"cycle":"Perennial","watering":"Average","sunlight":["Full sun"," Part sun/part shade"],"default_image":{"image_id":9,"license":5,"license_name":"Attribution-ShareAlike License","license_url":"https://creativecommons.org/licenses/by-sa/2.0/","original_url":"https://perenual.com/storage/species_image/2_abies_alba_pyramidalis/og/49255769768_df55596553_b.jpg","regular_url":"https://perenual.com/storage/species_image/2_abies_alba_pyramidalis/regular/49255769768_df55596553_b.jpg","medium_url":"https://perenual.com/storage/species_image/2_abies_alba_pyramidalis/medium/49255769768_df55596553_b.jpg","small_url":"https://perenual.com/storage/species_image/2_abies_alba_pyramidalis/small/49255769768_df55596553_b.jpg","thumbnail":"https://perenual.com/storage/species_image/2_abies_alba_pyramidalis/thumbnail/49255769768_df55596553_b.jpg"}},{"id":5905,"common_name":"garden phlox","scientific_name":["Phlox paniculata 'Eden's Glory'"],"other_name":["border phlox","common phlox","common phlox"],"cycle":"Perennial","watering":"Average","sunlight":["Full sun"," Part sun/part shade"],"default_image":{"image_id":9,"license":5,"license_name":"Attribution-ShareAlike License","license_url":"https://creativecommons.org/licenses/by-sa/2.0/","original_url":"https://perenual.com/storage/species_image/2_abies_alba_pyramidalis/og/49255769768_df55596553_b.jpg","regular_url":"https://perenual.com/storage/species_image/2_abies_alba_pyramidalis/regular/49255769768_df55596553_b.jpg","medium_url":"https://perenual.com/storage/species_image/2_abies_alba_pyramidalis/medium/49255769768_df55596553_b.jpg","small_url":"https://perenual.com/storage/species_image/2_abies_alba_pyramidalis/small/49255769768_df55596553_b.jpg","thumbnail":"https://perenual.com/storage/species_image/2_abies_alba_pyramidalis/thumbnail/49255769768_df55596553_b.jpg"}},{"id":5906,"common_name":"garden phlox","scientific_name":["Phlox paniculata 'Eden's Glow'"],"other_name":["border phlox","common phlox","common phlox"],"cycle":"Perennial","watering":"Average","sunlight":["Full sun"," Part sun/part shade"],"default_image":{"image_id":11774,"license":5,"license_name":"Attribution-ShareAlike License","license_url":"https://creativecommons.org/licenses/by-sa/2.0/","original_url":"https://perenual.com/storage/species_image/5906_phlox_paniculata_edens_glow/og/52647946179_c8958e5392_b.jpg","regular_url":"https://perenual.com/storage/species_image/5906_phlox_paniculata_edens_glow/regular/52647946179_c8958e5392_b.jpg","medium_url":"https://perenual.com/storage/species_image/5906_phlox_paniculata_edens_glow/medium/52647946179_c8958e5392_b.jpg","small_url":"https://perenual.com/storage/species_image/5906_phlox_paniculata_edens_glow/small/52647946179_c8958e5392_b.jpg","thumbnail":"https://perenual.com/storage/species_image/5906_phlox_paniculata_edens_glow/thumbnail/52647946179_c8958e5392_b.jpg"}},{"id":5907,"common_name":"garden phlox","scientific_name":["Phlox paniculata 'Empty Feelings'"],"other_name":["border phlox","common phlox","common phlox"],"cycle":"Perennial","watering":"Average","sunlight":["Full sun"," Part sun/part shade"],"default_image":{"image_id":9,"license":5,"license_name":"Attribution-ShareAlike License","license_url":"https://creativecommons.org/licenses/by-sa/2.0/","original_url":"https://perenual.com/storage/species_image/2_abies_alba_pyramidalis/og/49255769768_df55596553_b.jpg","regular_url":"https://perenual.com/storage/species_image/2_abies_alba_pyramidalis/regular/49255769768_df55596553_b.jpg","medium_url":"https://perenual.com/storage/species_image/2_abies_alba_pyramidalis/medium/49255769768_df55596553_b.jpg","small_url":"https://perenual.com/storage/species_image/2_abies_alba_pyramidalis/small/49255769768_df55596553_b.jpg","thumbnail":"https://perenual.com/storage/species_image/2_abies_alba_pyramidalis/thumbnail/49255769768_df55596553_b.jpg"}},{"id":5908,"common_name":"garden phlox","scientific_name":["Phlox paniculata 'Eva Cullum'"],"other_name":["border phlox","common phlox","common phlox"],"cycle":"Perennial","watering":"Average","sunlight":["Full sun"," Part sun/part shade"],"default_image":{"image_id":9,"license":5,"license_name":"Attribution-ShareAlike License","license_url":"https://creativecommons.org/licenses/by-sa/2.0/","original_url":"https://perenual.com/storage/species_image/2_abies_alba_pyramidalis/og/49255769768_df55596553_b.jpg","regular_url":"https://perenual.com/storage/species_image/2_abies_alba_pyramidalis/regular/49255769768_df55596553_b.jpg","medium_url":"https://perenual.com/storage/species_image/2_abies_alba_pyramidalis/medium/49255769768_df55596553_b.jpg","small_url":"https://perenual.com/storage/species_image/2_abies_alba_pyramidalis/small/49255769768_df55596553_b.jpg","thumbnail":"https://perenual.com/storage/species_image/2_abies_alba_pyramidalis/thumbnail/49255769768_df55596553_b.jpg"}},{"id":5909,"common_name":"garden phlox","scientific_name":["Phlox paniculata f. alba"],"other_name":["border phlox","common phlox","common phlox"],"cycle":"Perennial","watering":"Average","sunlight":["Full sun"," Part sun/part shade"],"default_image":{"image_id":11776,"license":5,"license_name":"Attribution-ShareAlike License","license_url":"https://creativecommons.org/licenses/by-sa/2.0/","original_url":"https://perenual.com/storage/species_image/5909_phlox_paniculata_f_alba/og/52317186199_5023712406_b.jpg","regular_url":"https://perenual.com/storage/species_image/5909_phlox_paniculata_f_alba/regular/52317186199_5023712406_b.jpg","medium_url":"https://perenual.com/storage/species_image/5909_phlox_paniculata_f_alba/medium/52317186199_5023712406_b.jpg","small_url":"https://perenual.com/storage/species_image/5909_phlox_paniculata_f_alba/small/52317186199_5023712406_b.jpg","thumbnail":"https://perenual.com/storage/species_image/5909_phlox_paniculata_f_alba/thumbnail/52317186199_5023712406_b.jpg"}},{"id":5910,"common_name":"garden phlox","scientific_name":["Phlox paniculata 'Franz Schubert'"],"other_name":["border phlox","common phlox","common phlox"],"cycle":"Perennial","watering":"Average","sunlight":["Full sun"," Part sun/part shade"],"default_image":{"image_id":11778,"license":5,"license_name":"Attribution-ShareAlike License","license_url":"https://creativecommons.org/licenses/by-sa/2.0/","original_url":"https://perenual.com/storage/species_image/5910_phlox_paniculata_franz_schubert/og/19559316762_f43124cba7_b.jpg","regular_url":"https://perenual.com/storage/species_image/5910_phlox_paniculata_franz_schubert/regular/19559316762_f43124cba7_b.jpg","medium_url":"https://perenual.com/storage/species_image/5910_phlox_paniculata_franz_schubert/medium/19559316762_f43124cba7_b.jpg","small_url":"https://perenual.com/storage/species_image/5910_phlox_paniculata_franz_schubert/small/19559316762_f43124cba7_b.jpg","thumbnail":"https://perenual.com/storage/species_image/5910_phlox_paniculata_franz_schubert/thumbnail/19559316762_f43124cba7_b.jpg"}}],"to":5910,"per_page":30,"current_page":197,"from":5881,"last_page":200,"total":6000}