{"data":[{"id":3091,"common_name":"gardenia","scientific_name":["Gardenia jasminoides 'Kleim's Hardy'"],"other_name":null,"cycle":"Perennial","watering":"Average","sunlight":["Part sun/part shade"],"default_image":{"image_id":9,"license":5,"license_name":"Attribution-ShareAlike License","license_url":"https://creativecommons.org/licenses/by-sa/2.0/","original_url":"https://perenual.com/storage/species_image/2_abies_alba_pyramidalis/og/49255769768_df55596553_b.jpg","regular_url":"https://perenual.com/storage/species_image/2_abies_alba_pyramidalis/regular/49255769768_df55596553_b.jpg","medium_url":"https://perenual.com/storage/species_image/2_abies_alba_pyramidalis/medium/49255769768_df55596553_b.jpg","small_url":"https://perenual.com/storage/species_image/2_abies_alba_pyramidalis/small/49255769768_df55596553_b.jpg","thumbnail":"https://perenual.com/storage/species_image/2_abies_alba_pyramidalis/thumbnail/49255769768_df55596553_b.jpg"}},{"id":3092,"common_name":"gardenia","scientific_name":["Gardenia jasminoides 'Shooting Star'"],"other_name":null,"cycle":"Perennial","watering":"Average","sunlight":["Part sun/part shade"],"default_image":{"image_id":6672,"license":6,"license_name":"Attribution-NoDerivs License","license_url":"https://creativecommons.org/licenses/by-nd/2.0/","original_url":"https://perenual.com/storage/species_image/3092_gardenia_jasminoides_shooting_star/og/5645686014_a706928556_b.jpg"}},{"id":3093,"common_name":"Thunberg's gardenia","scientific_name":["Gardenia thunbergia"],"other_name":null,"cycle":"Perennial","watering":"Average","sunlight":["Part shade"],"default_image":{"image_id":6675,"license":5,"license_name":"Attribution-ShareAlike License","license_url":"https://creativecommons.org/licenses/by-sa/2.0/","original_url":"https://perenual.com/storage/species_image/3093_gardenia_thunbergia/og/3383637018_1e1a11e856_b.jpg","regular_url":"https://perenual.com/storage/species_image/3093_gardenia_thunbergia/regular/3383637018_1e1a11e856_b.jpg","medium_url":"https://perenual.com/storage/species_image/3093_gardenia_thunbergia/medium/3383637018_1e1a11e856_b.jpg","small_url":"https://perenual.com/storage/species_image/3093_gardenia_thunbergia/small/3383637018_1e1a11e856_b.jpg","thumbnail":"https://perenual.com/storage/species_image/3093_gardenia_thunbergia/thumbnail/3383637018_1e1a11e856_b.jpg"}},{"id":3094,"common_name":"tassel bush","scientific_name":["Garrya issaquahensis"],"other_name":null,"cycle":"Perennial","watering":"Minimum","sunlight":["Full sun","part shade"],"default_image":{"image_id":6677,"license":5,"license_name":"Attribution-ShareAlike License","license_url":"https://creativecommons.org/licenses/by-sa/2.0/","original_url":"https://perenual.com/storage/species_image/3094_garrya_issaquahensis/og/46276348154_310c404b9f_b.jpg","regular_url":"https://perenual.com/storage/species_image/3094_garrya_issaquahensis/regular/46276348154_310c404b9f_b.jpg","medium_url":"https://perenual.com/storage/species_image/3094_garrya_issaquahensis/medium/46276348154_310c404b9f_b.jpg","small_url":"https://perenual.com/storage/species_image/3094_garrya_issaquahensis/small/46276348154_310c404b9f_b.jpg","thumbnail":"https://perenual.com/storage/species_image/3094_garrya_issaquahensis/thumbnail/46276348154_310c404b9f_b.jpg"}},{"id":3095,"common_name":"wintergreen","scientific_name":["Gaultheria procumbens"],"other_name":null,"cycle":"Perennial","watering":"Average","sunlight":["Part shade","full shade"],"default_image":{"image_id":9,"license":5,"license_name":"Attribution-ShareAlike License","license_url":"https://creativecommons.org/licenses/by-sa/2.0/","original_url":"https://perenual.com/storage/species_image/2_abies_alba_pyramidalis/og/49255769768_df55596553_b.jpg","regular_url":"https://perenual.com/storage/species_image/2_abies_alba_pyramidalis/regular/49255769768_df55596553_b.jpg","medium_url":"https://perenual.com/storage/species_image/2_abies_alba_pyramidalis/medium/49255769768_df55596553_b.jpg","small_url":"https://perenual.com/storage/species_image/2_abies_alba_pyramidalis/small/49255769768_df55596553_b.jpg","thumbnail":"https://perenual.com/storage/species_image/2_abies_alba_pyramidalis/thumbnail/49255769768_df55596553_b.jpg"}},{"id":3096,"common_name":"Lindheimer's beeblossom","scientific_name":["Gaura 'Florgaure' GAUDI RED"],"other_name":null,"cycle":"Perennial","watering":"Average","sunlight":["Full sun"],"default_image":{"image_id":6683,"license":4,"license_name":"Attribution License","license_url":"https://creativecommons.org/licenses/by/2.0/","original_url":"https://perenual.com/storage/species_image/3096_gaura_florgaure_gaudi_red/og/6985811388_b7571d3885_b.jpg","regular_url":"https://perenual.com/storage/species_image/3096_gaura_florgaure_gaudi_red/regular/6985811388_b7571d3885_b.jpg","medium_url":"https://perenual.com/storage/species_image/3096_gaura_florgaure_gaudi_red/medium/6985811388_b7571d3885_b.jpg","small_url":"https://perenual.com/storage/species_image/3096_gaura_florgaure_gaudi_red/small/6985811388_b7571d3885_b.jpg","thumbnail":"https://perenual.com/storage/species_image/3096_gaura_florgaure_gaudi_red/thumbnail/6985811388_b7571d3885_b.jpg"}},{"id":3097,"common_name":"Lindheimer's beeblossom","scientific_name":["Gaura lindheimeri"],"other_name":["bee blossom"],"cycle":"Perennial","watering":"Average","sunlight":["Full sun"],"default_image":{"image_id":9,"license":5,"license_name":"Attribution-ShareAlike License","license_url":"https://creativecommons.org/licenses/by-sa/2.0/","original_url":"https://perenual.com/storage/species_image/2_abies_alba_pyramidalis/og/49255769768_df55596553_b.jpg","regular_url":"https://perenual.com/storage/species_image/2_abies_alba_pyramidalis/regular/49255769768_df55596553_b.jpg","medium_url":"https://perenual.com/storage/species_image/2_abies_alba_pyramidalis/medium/49255769768_df55596553_b.jpg","small_url":"https://perenual.com/storage/species_image/2_abies_alba_pyramidalis/small/49255769768_df55596553_b.jpg","thumbnail":"https://perenual.com/storage/species_image/2_abies_alba_pyramidalis/thumbnail/49255769768_df55596553_b.jpg"}},{"id":3098,"common_name":"gaura","scientific_name":["Gaura lindheimeri 'Baltinblus' BALLERINA BLUSH"],"other_name":null,"cycle":"Perennial","watering":"Average","sunlight":["Full sun"],"default_image":{"image_id":9,"license":5,"license_name":"Attribution-ShareAlike License","license_url":"https://creativecommons.org/licenses/by-sa/2.0/","original_url":"https://perenual.com/storage/species_image/2_abies_alba_pyramidalis/og/49255769768_df55596553_b.jpg","regular_url":"https://perenual.com/storage/species_image/2_abies_alba_pyramidalis/regular/49255769768_df55596553_b.jpg","medium_url":"https://perenual.com/storage/species_image/2_abies_alba_pyramidalis/medium/49255769768_df55596553_b.jpg","small_url":"https://perenual.com/storage/species_image/2_abies_alba_pyramidalis/small/49255769768_df55596553_b.jpg","thumbnail":"https://perenual.com/storage/species_image/2_abies_alba_pyramidalis/thumbnail/49255769768_df55596553_b.jpg"}},{"id":3099,"common_name":"gaura","scientific_name":["Gaura lindheimeri 'Crimson Butterflies'"],"other_name":null,"cycle":"Perennial","watering":"Average","sunlight":["Full sun"],"default_image":{"image_id":9,"license":5,"license_name":"Attribution-ShareAlike License","license_url":"https://creativecommons.org/licenses/by-sa/2.0/","original_url":"https://perenual.com/storage/species_image/2_abies_alba_pyramidalis/og/49255769768_df55596553_b.jpg","regular_url":"https://perenual.com/storage/species_image/2_abies_alba_pyramidalis/regular/49255769768_df55596553_b.jpg","medium_url":"https://perenual.com/storage/species_image/2_abies_alba_pyramidalis/medium/49255769768_df55596553_b.jpg","small_url":"https://perenual.com/storage/species_image/2_abies_alba_pyramidalis/small/49255769768_df55596553_b.jpg","thumbnail":"https://perenual.com/storage/species_image/2_abies_alba_pyramidalis/thumbnail/49255769768_df55596553_b.jpg"}},{"id":3100,"common_name":"gaura","scientific_name":["Gaura lindheimeri 'Dauphine'"],"other_name":null,"cycle":"Perennial","watering":"Average","sunlight":["Full sun"],"default_image":{"image_id":6691,"license":4,"license_name":"Attribution License","license_url":"https://creativecommons.org/licenses/by/2.0/","original_url":"https://perenual.com/storage/species_image/3100_gaura_lindheimeri_dauphine/og/52208472697_01fa179a5b_b.jpg","regular_url":"https://perenual.com/storage/species_image/3100_gaura_lindheimeri_dauphine/regular/52208472697_01fa179a5b_b.jpg","medium_url":"https://perenual.com/storage/species_image/3100_gaura_lindheimeri_dauphine/medium/52208472697_01fa179a5b_b.jpg","small_url":"https://perenual.com/storage/species_image/3100_gaura_lindheimeri_dauphine/small/52208472697_01fa179a5b_b.jpg","thumbnail":"https://perenual.com/storage/species_image/3100_gaura_lindheimeri_dauphine/thumbnail/52208472697_01fa179a5b_b.jpg"}},{"id":3101,"common_name":"gaura","scientific_name":["Gaura lindheimeri 'Gaudpin' STRATOSPHERE PINK PICOTEE"],"other_name":null,"cycle":"Perennial","watering":"Average","sunlight":["Full sun"],"default_image":{"image_id":9,"license":5,"license_name":"Attribution-ShareAlike License","license_url":"https://creativecommons.org/licenses/by-sa/2.0/","original_url":"https://perenual.com/storage/species_image/2_abies_alba_pyramidalis/og/49255769768_df55596553_b.jpg","regular_url":"https://perenual.com/storage/species_image/2_abies_alba_pyramidalis/regular/49255769768_df55596553_b.jpg","medium_url":"https://perenual.com/storage/species_image/2_abies_alba_pyramidalis/medium/49255769768_df55596553_b.jpg","small_url":"https://perenual.com/storage/species_image/2_abies_alba_pyramidalis/small/49255769768_df55596553_b.jpg","thumbnail":"https://perenual.com/storage/species_image/2_abies_alba_pyramidalis/thumbnail/49255769768_df55596553_b.jpg"}},{"id":3102,"common_name":"gaura","scientific_name":["Gaura lindheimeri KARALEE PETITE PINK"],"other_name":null,"cycle":"Perennial","watering":"Average","sunlight":["Full sun"],"default_image":{"image_id":9,"license":5,"license_name":"Attribution-ShareAlike License","license_url":"https://creativecommons.org/licenses/by-sa/2.0/","original_url":"https://perenual.com/storage/species_image/2_abies_alba_pyramidalis/og/49255769768_df55596553_b.jpg","regular_url":"https://perenual.com/storage/species_image/2_abies_alba_pyramidalis/regular/49255769768_df55596553_b.jpg","medium_url":"https://perenual.com/storage/species_image/2_abies_alba_pyramidalis/medium/49255769768_df55596553_b.jpg","small_url":"https://perenual.com/storage/species_image/2_abies_alba_pyramidalis/small/49255769768_df55596553_b.jpg","thumbnail":"https://perenual.com/storage/species_image/2_abies_alba_pyramidalis/thumbnail/49255769768_df55596553_b.jpg"}},{"id":3103,"common_name":"gaura","scientific_name":["Gaura lindheimeri KARALEE PINK PICOTEE"],"other_name":null,"cycle":"Perennial","watering":"Average","sunlight":["Full sun"],"default_image":{"image_id":9,"license":5,"license_name":"Attribution-ShareAlike License","license_url":"https://creativecommons.org/licenses/by-sa/2.0/","original_url":"https://perenual.com/storage/species_image/2_abies_alba_pyramidalis/og/49255769768_df55596553_b.jpg","regular_url":"https://perenual.com/storage/species_image/2_abies_alba_pyramidalis/regular/49255769768_df55596553_b.jpg","medium_url":"https://perenual.com/storage/species_image/2_abies_alba_pyramidalis/medium/49255769768_df55596553_b.jpg","small_url":"https://perenual.com/storage/species_image/2_abies_alba_pyramidalis/small/49255769768_df55596553_b.jpg","thumbnail":"https://perenual.com/storage/species_image/2_abies_alba_pyramidalis/thumbnail/49255769768_df55596553_b.jpg"}},{"id":3104,"common_name":"gaura","scientific_name":["Gaura lindheimeri 'Nugauwhite' KARALEE WHITE"],"other_name":null,"cycle":"Perennial","watering":"Average","sunlight":["Full sun"],"default_image":{"image_id":9,"license":5,"license_name":"Attribution-ShareAlike License","license_url":"https://creativecommons.org/licenses/by-sa/2.0/","original_url":"https://perenual.com/storage/species_image/2_abies_alba_pyramidalis/og/49255769768_df55596553_b.jpg","regular_url":"https://perenual.com/storage/species_image/2_abies_alba_pyramidalis/regular/49255769768_df55596553_b.jpg","medium_url":"https://perenual.com/storage/species_image/2_abies_alba_pyramidalis/medium/49255769768_df55596553_b.jpg","small_url":"https://perenual.com/storage/species_image/2_abies_alba_pyramidalis/small/49255769768_df55596553_b.jpg","thumbnail":"https://perenual.com/storage/species_image/2_abies_alba_pyramidalis/thumbnail/49255769768_df55596553_b.jpg"}},{"id":3105,"common_name":"gaura","scientific_name":["Gaura lindheimeri 'Passionate Rainbow'"],"other_name":null,"cycle":"Perennial","watering":"Average","sunlight":["Full sun"],"default_image":{"image_id":9,"license":5,"license_name":"Attribution-ShareAlike License","license_url":"https://creativecommons.org/licenses/by-sa/2.0/","original_url":"https://perenual.com/storage/species_image/2_abies_alba_pyramidalis/og/49255769768_df55596553_b.jpg","regular_url":"https://perenual.com/storage/species_image/2_abies_alba_pyramidalis/regular/49255769768_df55596553_b.jpg","medium_url":"https://perenual.com/storage/species_image/2_abies_alba_pyramidalis/medium/49255769768_df55596553_b.jpg","small_url":"https://perenual.com/storage/species_image/2_abies_alba_pyramidalis/small/49255769768_df55596553_b.jpg","thumbnail":"https://perenual.com/storage/species_image/2_abies_alba_pyramidalis/thumbnail/49255769768_df55596553_b.jpg"}},{"id":3106,"common_name":"gaura","scientific_name":["Gaura lindheimeri 'Pink Cloud'"],"other_name":null,"cycle":"Perennial","watering":"Average","sunlight":["Full sun"],"default_image":{"image_id":6683,"license":4,"license_name":"Attribution License","license_url":"https://creativecommons.org/licenses/by/2.0/","original_url":"https://perenual.com/storage/species_image/3096_gaura_florgaure_gaudi_red/og/6985811388_b7571d3885_b.jpg","regular_url":"https://perenual.com/storage/species_image/3096_gaura_florgaure_gaudi_red/regular/6985811388_b7571d3885_b.jpg","medium_url":"https://perenual.com/storage/species_image/3096_gaura_florgaure_gaudi_red/medium/6985811388_b7571d3885_b.jpg","small_url":"https://perenual.com/storage/species_image/3096_gaura_florgaure_gaudi_red/small/6985811388_b7571d3885_b.jpg","thumbnail":"https://perenual.com/storage/species_image/3096_gaura_florgaure_gaudi_red/thumbnail/6985811388_b7571d3885_b.jpg"}},{"id":3107,"common_name":"gaura","scientific_name":["Gaura lindheimeri 'Summer Breeze'"],"other_name":null,"cycle":"Perennial","watering":"Average","sunlight":["Full sun"],"default_image":{"image_id":9,"license":5,"license_name":"Attribution-ShareAlike License","license_url":"https://creativecommons.org/licenses/by-sa/2.0/","original_url":"https://perenual.com/storage/species_image/2_abies_alba_pyramidalis/og/49255769768_df55596553_b.jpg","regular_url":"https://perenual.com/storage/species_image/2_abies_alba_pyramidalis/regular/49255769768_df55596553_b.jpg","medium_url":"https://perenual.com/storage/species_image/2_abies_alba_pyramidalis/medium/49255769768_df55596553_b.jpg","small_url":"https://perenual.com/storage/species_image/2_abies_alba_pyramidalis/small/49255769768_df55596553_b.jpg","thumbnail":"https://perenual.com/storage/species_image/2_abies_alba_pyramidalis/thumbnail/49255769768_df55596553_b.jpg"}},{"id":3108,"common_name":"gaura","scientific_name":["Gaura lindheimeri 'Walgaupf' PINK FOUNTAIN"],"other_name":null,"cycle":"Perennial","watering":"Average","sunlight":["Full sun"],"default_image":{"image_id":9,"license":5,"license_name":"Attribution-ShareAlike License","license_url":"https://creativecommons.org/licenses/by-sa/2.0/","original_url":"https://perenual.com/storage/species_image/2_abies_alba_pyramidalis/og/49255769768_df55596553_b.jpg","regular_url":"https://perenual.com/storage/species_image/2_abies_alba_pyramidalis/regular/49255769768_df55596553_b.jpg","medium_url":"https://perenual.com/storage/species_image/2_abies_alba_pyramidalis/medium/49255769768_df55596553_b.jpg","small_url":"https://perenual.com/storage/species_image/2_abies_alba_pyramidalis/small/49255769768_df55596553_b.jpg","thumbnail":"https://perenual.com/storage/species_image/2_abies_alba_pyramidalis/thumbnail/49255769768_df55596553_b.jpg"}},{"id":3109,"common_name":"gaura","scientific_name":["Gaura lindheimeri 'Whirling Butterflies'"],"other_name":null,"cycle":"Perennial","watering":"Average","sunlight":["Full sun"],"default_image":{"image_id":6700,"license":4,"license_name":"Attribution License","license_url":"https://creativecommons.org/licenses/by/2.0/","original_url":"https://perenual.com/storage/species_image/3109_gaura_lindheimeri_whirling_butterflies/og/1556569457_875947b520_b.jpg","regular_url":"https://perenual.com/storage/species_image/3109_gaura_lindheimeri_whirling_butterflies/regular/1556569457_875947b520_b.jpg","medium_url":"https://perenual.com/storage/species_image/3109_gaura_lindheimeri_whirling_butterflies/medium/1556569457_875947b520_b.jpg","small_url":"https://perenual.com/storage/species_image/3109_gaura_lindheimeri_whirling_butterflies/small/1556569457_875947b520_b.jpg","thumbnail":"https://perenual.com/storage/species_image/3109_gaura_lindheimeri_whirling_butterflies/thumbnail/1556569457_875947b520_b.jpg"}},{"id":3110,"common_name":"gaura","scientific_name":["Gaura 'So White'"],"other_name":null,"cycle":"Perennial","watering":"Average","sunlight":["Full sun"],"default_image":{"image_id":6702,"license":5,"license_name":"Attribution-ShareAlike License","license_url":"https://creativecommons.org/licenses/by-sa/2.0/","original_url":"https://perenual.com/storage/species_image/3110_gaura_so_white/og/3971440574_b460c0048b_b.jpg","regular_url":"https://perenual.com/storage/species_image/3110_gaura_so_white/regular/3971440574_b460c0048b_b.jpg","medium_url":"https://perenual.com/storage/species_image/3110_gaura_so_white/medium/3971440574_b460c0048b_b.jpg","small_url":"https://perenual.com/storage/species_image/3110_gaura_so_white/small/3971440574_b460c0048b_b.jpg","thumbnail":"https://perenual.com/storage/species_image/3110_gaura_so_white/thumbnail/3971440574_b460c0048b_b.jpg"}},{"id":3111,"common_name":"treasure flower","scientific_name":["Gazania (group)"],"other_name":null,"cycle":"Perennial","watering":"Average","sunlight":["Full sun"],"default_image":{"image_id":9,"license":5,"license_name":"Attribution-ShareAlike License","license_url":"https://creativecommons.org/licenses/by-sa/2.0/","original_url":"https://perenual.com/storage/species_image/2_abies_alba_pyramidalis/og/49255769768_df55596553_b.jpg","regular_url":"https://perenual.com/storage/species_image/2_abies_alba_pyramidalis/regular/49255769768_df55596553_b.jpg","medium_url":"https://perenual.com/storage/species_image/2_abies_alba_pyramidalis/medium/49255769768_df55596553_b.jpg","small_url":"https://perenual.com/storage/species_image/2_abies_alba_pyramidalis/small/49255769768_df55596553_b.jpg","thumbnail":"https://perenual.com/storage/species_image/2_abies_alba_pyramidalis/thumbnail/49255769768_df55596553_b.jpg"}},{"id":3112,"common_name":"treasure flower","scientific_name":["Gazania linearis 'Colorado Gold'"],"other_name":null,"cycle":"Perennial","watering":"Average","sunlight":["Full sun"],"default_image":{"image_id":6708,"license":4,"license_name":"Attribution License","license_url":"https://creativecommons.org/licenses/by/2.0/","original_url":"https://perenual.com/storage/species_image/3112_gazania_linearis_colorado_gold/og/1972119390_b27303c7ce_b.jpg","regular_url":"https://perenual.com/storage/species_image/3112_gazania_linearis_colorado_gold/regular/1972119390_b27303c7ce_b.jpg","medium_url":"https://perenual.com/storage/species_image/3112_gazania_linearis_colorado_gold/medium/1972119390_b27303c7ce_b.jpg","small_url":"https://perenual.com/storage/species_image/3112_gazania_linearis_colorado_gold/small/1972119390_b27303c7ce_b.jpg","thumbnail":"https://perenual.com/storage/species_image/3112_gazania_linearis_colorado_gold/thumbnail/1972119390_b27303c7ce_b.jpg"}},{"id":3113,"common_name":"broom","scientific_name":["Genista sagittalis"],"other_name":null,"cycle":"Perennial","watering":"Minimum","sunlight":["Full sun"],"default_image":{"image_id":9,"license":5,"license_name":"Attribution-ShareAlike License","license_url":"https://creativecommons.org/licenses/by-sa/2.0/","original_url":"https://perenual.com/storage/species_image/2_abies_alba_pyramidalis/og/49255769768_df55596553_b.jpg","regular_url":"https://perenual.com/storage/species_image/2_abies_alba_pyramidalis/regular/49255769768_df55596553_b.jpg","medium_url":"https://perenual.com/storage/species_image/2_abies_alba_pyramidalis/medium/49255769768_df55596553_b.jpg","small_url":"https://perenual.com/storage/species_image/2_abies_alba_pyramidalis/small/49255769768_df55596553_b.jpg","thumbnail":"https://perenual.com/storage/species_image/2_abies_alba_pyramidalis/thumbnail/49255769768_df55596553_b.jpg"}},{"id":3114,"common_name":"broom","scientific_name":["Genista spachiana"],"other_name":null,"cycle":"Perennial","watering":"Average","sunlight":["Full sun"],"default_image":{"image_id":9,"license":5,"license_name":"Attribution-ShareAlike License","license_url":"https://creativecommons.org/licenses/by-sa/2.0/","original_url":"https://perenual.com/storage/species_image/2_abies_alba_pyramidalis/og/49255769768_df55596553_b.jpg","regular_url":"https://perenual.com/storage/species_image/2_abies_alba_pyramidalis/regular/49255769768_df55596553_b.jpg","medium_url":"https://perenual.com/storage/species_image/2_abies_alba_pyramidalis/medium/49255769768_df55596553_b.jpg","small_url":"https://perenual.com/storage/species_image/2_abies_alba_pyramidalis/small/49255769768_df55596553_b.jpg","thumbnail":"https://perenual.com/storage/species_image/2_abies_alba_pyramidalis/thumbnail/49255769768_df55596553_b.jpg"}},{"id":3115,"common_name":"Dyer's broom","scientific_name":["Genista tinctoria"],"other_name":null,"cycle":"Perennial","watering":"Minimum","sunlight":["Full sun"],"default_image":{"image_id":6713,"license":4,"license_name":"Attribution License","license_url":"https://creativecommons.org/licenses/by/2.0/","original_url":"https://perenual.com/storage/species_image/3115_genista_tinctoria/og/49208983866_c4de894897_b.jpg","regular_url":"https://perenual.com/storage/species_image/3115_genista_tinctoria/regular/49208983866_c4de894897_b.jpg","medium_url":"https://perenual.com/storage/species_image/3115_genista_tinctoria/medium/49208983866_c4de894897_b.jpg","small_url":"https://perenual.com/storage/species_image/3115_genista_tinctoria/small/49208983866_c4de894897_b.jpg","thumbnail":"https://perenual.com/storage/species_image/3115_genista_tinctoria/thumbnail/49208983866_c4de894897_b.jpg"}},{"id":3116,"common_name":"gentian","scientific_name":["Gentiana acaulis"],"other_name":null,"cycle":"Perennial","watering":"Average","sunlight":["Full sun","part shade"],"default_image":{"image_id":9,"license":5,"license_name":"Attribution-ShareAlike License","license_url":"https://creativecommons.org/licenses/by-sa/2.0/","original_url":"https://perenual.com/storage/species_image/2_abies_alba_pyramidalis/og/49255769768_df55596553_b.jpg","regular_url":"https://perenual.com/storage/species_image/2_abies_alba_pyramidalis/regular/49255769768_df55596553_b.jpg","medium_url":"https://perenual.com/storage/species_image/2_abies_alba_pyramidalis/medium/49255769768_df55596553_b.jpg","small_url":"https://perenual.com/storage/species_image/2_abies_alba_pyramidalis/small/49255769768_df55596553_b.jpg","thumbnail":"https://perenual.com/storage/species_image/2_abies_alba_pyramidalis/thumbnail/49255769768_df55596553_b.jpg"}},{"id":3117,"common_name":"gentian","scientific_name":["Gentiana alba"],"other_name":null,"cycle":"Perennial","watering":"Average","sunlight":["Full sun","part shade"],"default_image":{"image_id":6721,"license":5,"license_name":"Attribution-ShareAlike License","license_url":"https://creativecommons.org/licenses/by-sa/2.0/","original_url":"https://perenual.com/storage/species_image/3117_gentiana_alba/og/20451430481_d9944acba0_b.jpg","regular_url":"https://perenual.com/storage/species_image/3117_gentiana_alba/regular/20451430481_d9944acba0_b.jpg","medium_url":"https://perenual.com/storage/species_image/3117_gentiana_alba/medium/20451430481_d9944acba0_b.jpg","small_url":"https://perenual.com/storage/species_image/3117_gentiana_alba/small/20451430481_d9944acba0_b.jpg","thumbnail":"https://perenual.com/storage/species_image/3117_gentiana_alba/thumbnail/20451430481_d9944acba0_b.jpg"}},{"id":3118,"common_name":"closed gentian","scientific_name":["Gentiana andrewsii"],"other_name":null,"cycle":"Perennial","watering":"Average","sunlight":["Full sun Partial sun"],"default_image":{"image_id":6723,"license":5,"license_name":"Attribution-ShareAlike License","license_url":"https://creativecommons.org/licenses/by-sa/2.0/","original_url":"https://perenual.com/storage/species_image/3118_gentiana_andrewsii/og/43293397605_08cefc3f5f_b.jpg","regular_url":"https://perenual.com/storage/species_image/3118_gentiana_andrewsii/regular/43293397605_08cefc3f5f_b.jpg","medium_url":"https://perenual.com/storage/species_image/3118_gentiana_andrewsii/medium/43293397605_08cefc3f5f_b.jpg","small_url":"https://perenual.com/storage/species_image/3118_gentiana_andrewsii/small/43293397605_08cefc3f5f_b.jpg","thumbnail":"https://perenual.com/storage/species_image/3118_gentiana_andrewsii/thumbnail/43293397605_08cefc3f5f_b.jpg"}},{"id":3119,"common_name":"gentian","scientific_name":["Gentiana angustifolia"],"other_name":null,"cycle":"Perennial","watering":"Average","sunlight":["Full sun","part shade"],"default_image":{"image_id":6729,"license":4,"license_name":"Attribution License","license_url":"https://creativecommons.org/licenses/by/2.0/","original_url":"https://perenual.com/storage/species_image/3119_gentiana_angustifolia/og/17160839891_1523a96516_b.jpg","regular_url":"https://perenual.com/storage/species_image/3119_gentiana_angustifolia/regular/17160839891_1523a96516_b.jpg","medium_url":"https://perenual.com/storage/species_image/3119_gentiana_angustifolia/medium/17160839891_1523a96516_b.jpg","small_url":"https://perenual.com/storage/species_image/3119_gentiana_angustifolia/small/17160839891_1523a96516_b.jpg","thumbnail":"https://perenual.com/storage/species_image/3119_gentiana_angustifolia/thumbnail/17160839891_1523a96516_b.jpg"}},{"id":3120,"common_name":"cross gentian","scientific_name":["Gentiana cruciata 'Blue Cross'"],"other_name":null,"cycle":"Perennial","watering":"Average","sunlight":["Full sun","part shade"],"default_image":{"image_id":6733,"license":5,"license_name":"Attribution-ShareAlike License","license_url":"https://creativecommons.org/licenses/by-sa/2.0/","original_url":"https://perenual.com/storage/species_image/3120_gentiana_cruciata_blue_cross/og/26162789617_8099312166_b.jpg","regular_url":"https://perenual.com/storage/species_image/3120_gentiana_cruciata_blue_cross/regular/26162789617_8099312166_b.jpg","medium_url":"https://perenual.com/storage/species_image/3120_gentiana_cruciata_blue_cross/medium/26162789617_8099312166_b.jpg","small_url":"https://perenual.com/storage/species_image/3120_gentiana_cruciata_blue_cross/small/26162789617_8099312166_b.jpg","thumbnail":"https://perenual.com/storage/species_image/3120_gentiana_cruciata_blue_cross/thumbnail/26162789617_8099312166_b.jpg"}}],"to":3120,"per_page":30,"current_page":104,"from":3091,"last_page":200,"total":6000}