{"data":[{"id":1981,"common_name":"sweet pepperbush","scientific_name":["Clethra alnifolia 'September Beauty'"],"other_name":null,"cycle":"Perennial","watering":"Frequent","sunlight":["Full sun","part shade"],"default_image":{"image_id":4797,"license":4,"license_name":"Attribution License","license_url":"https://creativecommons.org/licenses/by/2.0/","original_url":"https://perenual.com/storage/species_image/1981_clethra_alnifolia_september_beauty/og/31324620914_311cdac3ac_b.jpg","regular_url":"https://perenual.com/storage/species_image/1981_clethra_alnifolia_september_beauty/regular/31324620914_311cdac3ac_b.jpg","medium_url":"https://perenual.com/storage/species_image/1981_clethra_alnifolia_september_beauty/medium/31324620914_311cdac3ac_b.jpg","small_url":"https://perenual.com/storage/species_image/1981_clethra_alnifolia_september_beauty/small/31324620914_311cdac3ac_b.jpg","thumbnail":"https://perenual.com/storage/species_image/1981_clethra_alnifolia_september_beauty/thumbnail/31324620914_311cdac3ac_b.jpg"}},{"id":1982,"common_name":"sweet pepperbush","scientific_name":["Clethra alnifolia SHERRY SUE"],"other_name":null,"cycle":"Perennial","watering":"Frequent","sunlight":["Full sun","part shade"],"default_image":{"image_id":9,"license":5,"license_name":"Attribution-ShareAlike License","license_url":"https://creativecommons.org/licenses/by-sa/2.0/","original_url":"https://perenual.com/storage/species_image/2_abies_alba_pyramidalis/og/49255769768_df55596553_b.jpg","regular_url":"https://perenual.com/storage/species_image/2_abies_alba_pyramidalis/regular/49255769768_df55596553_b.jpg","medium_url":"https://perenual.com/storage/species_image/2_abies_alba_pyramidalis/medium/49255769768_df55596553_b.jpg","small_url":"https://perenual.com/storage/species_image/2_abies_alba_pyramidalis/small/49255769768_df55596553_b.jpg","thumbnail":"https://perenual.com/storage/species_image/2_abies_alba_pyramidalis/thumbnail/49255769768_df55596553_b.jpg"}},{"id":1983,"common_name":"summersweet","scientific_name":["Clethra alnifolia 'Sixteen Candles'"],"other_name":null,"cycle":"Perennial","watering":"Frequent","sunlight":["Full sun","part shade"],"default_image":{"image_id":4793,"license":5,"license_name":"Attribution-ShareAlike License","license_url":"https://creativecommons.org/licenses/by-sa/2.0/","original_url":"https://perenual.com/storage/species_image/1983_clethra_alnifolia_sixteen_candles/og/36488327072_3d824459e1_b.jpg","regular_url":"https://perenual.com/storage/species_image/1983_clethra_alnifolia_sixteen_candles/regular/36488327072_3d824459e1_b.jpg","medium_url":"https://perenual.com/storage/species_image/1983_clethra_alnifolia_sixteen_candles/medium/36488327072_3d824459e1_b.jpg","small_url":"https://perenual.com/storage/species_image/1983_clethra_alnifolia_sixteen_candles/small/36488327072_3d824459e1_b.jpg","thumbnail":"https://perenual.com/storage/species_image/1983_clethra_alnifolia_sixteen_candles/thumbnail/36488327072_3d824459e1_b.jpg"}},{"id":1984,"common_name":"sweet pepperbush","scientific_name":["Clethra alnifolia 'Sotite' WHITE DOVE"],"other_name":null,"cycle":"Perennial","watering":"Frequent","sunlight":["Full sun","part shade"],"default_image":{"image_id":9,"license":5,"license_name":"Attribution-ShareAlike License","license_url":"https://creativecommons.org/licenses/by-sa/2.0/","original_url":"https://perenual.com/storage/species_image/2_abies_alba_pyramidalis/og/49255769768_df55596553_b.jpg","regular_url":"https://perenual.com/storage/species_image/2_abies_alba_pyramidalis/regular/49255769768_df55596553_b.jpg","medium_url":"https://perenual.com/storage/species_image/2_abies_alba_pyramidalis/medium/49255769768_df55596553_b.jpg","small_url":"https://perenual.com/storage/species_image/2_abies_alba_pyramidalis/small/49255769768_df55596553_b.jpg","thumbnail":"https://perenual.com/storage/species_image/2_abies_alba_pyramidalis/thumbnail/49255769768_df55596553_b.jpg"}},{"id":1985,"common_name":"sweet pepperbush","scientific_name":["Clethra alnifolia 'Tom's Compact'"],"other_name":null,"cycle":"Perennial","watering":"Frequent","sunlight":["Full sun","part shade"],"default_image":{"image_id":9,"license":5,"license_name":"Attribution-ShareAlike License","license_url":"https://creativecommons.org/licenses/by-sa/2.0/","original_url":"https://perenual.com/storage/species_image/2_abies_alba_pyramidalis/og/49255769768_df55596553_b.jpg","regular_url":"https://perenual.com/storage/species_image/2_abies_alba_pyramidalis/regular/49255769768_df55596553_b.jpg","medium_url":"https://perenual.com/storage/species_image/2_abies_alba_pyramidalis/medium/49255769768_df55596553_b.jpg","small_url":"https://perenual.com/storage/species_image/2_abies_alba_pyramidalis/small/49255769768_df55596553_b.jpg","thumbnail":"https://perenual.com/storage/species_image/2_abies_alba_pyramidalis/thumbnail/49255769768_df55596553_b.jpg"}},{"id":1986,"common_name":"Japanese clethra","scientific_name":["Clethra barbinervis"],"other_name":["Chinese summersweet"],"cycle":"Perennial","watering":"Frequent","sunlight":["Full sun"," Part sun/part shade"],"default_image":{"image_id":4801,"license":5,"license_name":"Attribution-ShareAlike License","license_url":"https://creativecommons.org/licenses/by-sa/2.0/","original_url":"https://perenual.com/storage/species_image/1986_clethra_barbinervis/og/36564490326_6f5d25e4aa_b.jpg","regular_url":"https://perenual.com/storage/species_image/1986_clethra_barbinervis/regular/36564490326_6f5d25e4aa_b.jpg","medium_url":"https://perenual.com/storage/species_image/1986_clethra_barbinervis/medium/36564490326_6f5d25e4aa_b.jpg","small_url":"https://perenual.com/storage/species_image/1986_clethra_barbinervis/small/36564490326_6f5d25e4aa_b.jpg","thumbnail":"https://perenual.com/storage/species_image/1986_clethra_barbinervis/thumbnail/36564490326_6f5d25e4aa_b.jpg"}},{"id":1987,"common_name":"Japanese clethra","scientific_name":["Clethra barbinervis 'Takeda Nishiki' FIRST SNOW"],"other_name":["Chinese summersweet"],"cycle":"Perennial","watering":"Frequent","sunlight":["Full sun"," Part sun/part shade"],"default_image":{"image_id":9,"license":5,"license_name":"Attribution-ShareAlike License","license_url":"https://creativecommons.org/licenses/by-sa/2.0/","original_url":"https://perenual.com/storage/species_image/2_abies_alba_pyramidalis/og/49255769768_df55596553_b.jpg","regular_url":"https://perenual.com/storage/species_image/2_abies_alba_pyramidalis/regular/49255769768_df55596553_b.jpg","medium_url":"https://perenual.com/storage/species_image/2_abies_alba_pyramidalis/medium/49255769768_df55596553_b.jpg","small_url":"https://perenual.com/storage/species_image/2_abies_alba_pyramidalis/small/49255769768_df55596553_b.jpg","thumbnail":"https://perenual.com/storage/species_image/2_abies_alba_pyramidalis/thumbnail/49255769768_df55596553_b.jpg"}},{"id":1988,"common_name":"clethra","scientific_name":["Clethra pringlei"],"other_name":null,"cycle":"Perennial","watering":"Average","sunlight":["Full sun","part shade"],"default_image":{"image_id":21997,"license":1,"license_name":null,"license_url":null,"original_url":"https://perenual.com/storage/species_image/1988_clethra_pringlei/og/52617095282_8b3e9a0383_b.jpg","regular_url":"https://perenual.com/storage/species_image/1988_clethra_pringlei/regular/52617095282_8b3e9a0383_b.jpg","medium_url":"https://perenual.com/storage/species_image/1988_clethra_pringlei/medium/52617095282_8b3e9a0383_b.jpg","small_url":"https://perenual.com/storage/species_image/1988_clethra_pringlei/small/52617095282_8b3e9a0383_b.jpg","thumbnail":"https://perenual.com/storage/species_image/1988_clethra_pringlei/thumbnail/52617095282_8b3e9a0383_b.jpg"}},{"id":1989,"common_name":"woolly white alder","scientific_name":["Clethra tomentosa 'Cottondale'"],"other_name":null,"cycle":"Perennial","watering":"Frequent","sunlight":["Full sun","part shade"],"default_image":{"image_id":9,"license":5,"license_name":"Attribution-ShareAlike License","license_url":"https://creativecommons.org/licenses/by-sa/2.0/","original_url":"https://perenual.com/storage/species_image/2_abies_alba_pyramidalis/og/49255769768_df55596553_b.jpg","regular_url":"https://perenual.com/storage/species_image/2_abies_alba_pyramidalis/regular/49255769768_df55596553_b.jpg","medium_url":"https://perenual.com/storage/species_image/2_abies_alba_pyramidalis/medium/49255769768_df55596553_b.jpg","small_url":"https://perenual.com/storage/species_image/2_abies_alba_pyramidalis/small/49255769768_df55596553_b.jpg","thumbnail":"https://perenual.com/storage/species_image/2_abies_alba_pyramidalis/thumbnail/49255769768_df55596553_b.jpg"}},{"id":1990,"common_name":"sakaki","scientific_name":["Cleyera japonica"],"other_name":null,"cycle":"Perennial","watering":"Average","sunlight":["Full sun","part shade"],"default_image":{"image_id":9,"license":5,"license_name":"Attribution-ShareAlike License","license_url":"https://creativecommons.org/licenses/by-sa/2.0/","original_url":"https://perenual.com/storage/species_image/2_abies_alba_pyramidalis/og/49255769768_df55596553_b.jpg","regular_url":"https://perenual.com/storage/species_image/2_abies_alba_pyramidalis/regular/49255769768_df55596553_b.jpg","medium_url":"https://perenual.com/storage/species_image/2_abies_alba_pyramidalis/medium/49255769768_df55596553_b.jpg","small_url":"https://perenual.com/storage/species_image/2_abies_alba_pyramidalis/small/49255769768_df55596553_b.jpg","thumbnail":"https://perenual.com/storage/species_image/2_abies_alba_pyramidalis/thumbnail/49255769768_df55596553_b.jpg"}},{"id":1991,"common_name":"limestone calamint","scientific_name":["Clinopodium arkansanum"],"other_name":null,"cycle":"Perennial","watering":"Average","sunlight":["Full sun"],"default_image":{"image_id":9,"license":5,"license_name":"Attribution-ShareAlike License","license_url":"https://creativecommons.org/licenses/by-sa/2.0/","original_url":"https://perenual.com/storage/species_image/2_abies_alba_pyramidalis/og/49255769768_df55596553_b.jpg","regular_url":"https://perenual.com/storage/species_image/2_abies_alba_pyramidalis/regular/49255769768_df55596553_b.jpg","medium_url":"https://perenual.com/storage/species_image/2_abies_alba_pyramidalis/medium/49255769768_df55596553_b.jpg","small_url":"https://perenual.com/storage/species_image/2_abies_alba_pyramidalis/small/49255769768_df55596553_b.jpg","thumbnail":"https://perenual.com/storage/species_image/2_abies_alba_pyramidalis/thumbnail/49255769768_df55596553_b.jpg"}},{"id":1992,"common_name":"butterfly pea","scientific_name":["Clitoria ternatea"],"other_name":null,"cycle":"Perennial","watering":"Average","sunlight":["Full sun"],"default_image":{"image_id":4821,"license":5,"license_name":"Attribution-ShareAlike License","license_url":"https://creativecommons.org/licenses/by-sa/2.0/","original_url":"https://perenual.com/storage/species_image/1992_clitoria_ternatea/og/40124513630_db23a59476_b.jpg","regular_url":"https://perenual.com/storage/species_image/1992_clitoria_ternatea/regular/40124513630_db23a59476_b.jpg","medium_url":"https://perenual.com/storage/species_image/1992_clitoria_ternatea/medium/40124513630_db23a59476_b.jpg","small_url":"https://perenual.com/storage/species_image/1992_clitoria_ternatea/small/40124513630_db23a59476_b.jpg","thumbnail":"https://perenual.com/storage/species_image/1992_clitoria_ternatea/thumbnail/40124513630_db23a59476_b.jpg"}},{"id":1993,"common_name":"Natal lily","scientific_name":["Clivia miniata"],"other_name":null,"cycle":"Perennial","watering":"Average","sunlight":["Part shade"],"default_image":{"image_id":4826,"license":4,"license_name":"Attribution License","license_url":"https://creativecommons.org/licenses/by/2.0/","original_url":"https://perenual.com/storage/species_image/1993_clivia_miniata/og/41360263231_d0922e6f41_b.jpg","regular_url":"https://perenual.com/storage/species_image/1993_clivia_miniata/regular/41360263231_d0922e6f41_b.jpg","medium_url":"https://perenual.com/storage/species_image/1993_clivia_miniata/medium/41360263231_d0922e6f41_b.jpg","small_url":"https://perenual.com/storage/species_image/1993_clivia_miniata/small/41360263231_d0922e6f41_b.jpg","thumbnail":"https://perenual.com/storage/species_image/1993_clivia_miniata/thumbnail/41360263231_d0922e6f41_b.jpg"}},{"id":1994,"common_name":"clusia","scientific_name":["Clusia orthoneura"],"other_name":null,"cycle":"Perennial","watering":"Average","sunlight":["Part shade"],"default_image":{"image_id":4830,"license":5,"license_name":"Attribution-ShareAlike License","license_url":"https://creativecommons.org/licenses/by-sa/2.0/","original_url":"https://perenual.com/storage/species_image/1994_clusia_orthoneura/og/6225957058_7848701d0f_b.jpg","regular_url":"https://perenual.com/storage/species_image/1994_clusia_orthoneura/regular/6225957058_7848701d0f_b.jpg","medium_url":"https://perenual.com/storage/species_image/1994_clusia_orthoneura/medium/6225957058_7848701d0f_b.jpg","small_url":"https://perenual.com/storage/species_image/1994_clusia_orthoneura/small/6225957058_7848701d0f_b.jpg","thumbnail":"https://perenual.com/storage/species_image/1994_clusia_orthoneura/thumbnail/6225957058_7848701d0f_b.jpg"}},{"id":1995,"common_name":"cup and saucer vine","scientific_name":["Cobaea scandens"],"other_name":null,"cycle":"Perennial","watering":"Average","sunlight":["Full sun"],"default_image":{"image_id":4832,"license":5,"license_name":"Attribution-ShareAlike License","license_url":"https://creativecommons.org/licenses/by-sa/2.0/","original_url":"https://perenual.com/storage/species_image/1995_cobaea_scandens/og/24415731154_7a5cb26790_b.jpg","regular_url":"https://perenual.com/storage/species_image/1995_cobaea_scandens/regular/24415731154_7a5cb26790_b.jpg","medium_url":"https://perenual.com/storage/species_image/1995_cobaea_scandens/medium/24415731154_7a5cb26790_b.jpg","small_url":"https://perenual.com/storage/species_image/1995_cobaea_scandens/small/24415731154_7a5cb26790_b.jpg","thumbnail":"https://perenual.com/storage/species_image/1995_cobaea_scandens/thumbnail/24415731154_7a5cb26790_b.jpg"}},{"id":1996,"common_name":"Carolina moonseed","scientific_name":["Cocculus carolinus"],"other_name":null,"cycle":"Perennial","watering":"Average","sunlight":["Full sun","part shade"],"default_image":{"image_id":4838,"license":4,"license_name":"Attribution License","license_url":"https://creativecommons.org/licenses/by/2.0/","original_url":"https://perenual.com/storage/species_image/1996_cocculus_carolinus/og/49832177482_d8d20c3629_b.jpg","regular_url":"https://perenual.com/storage/species_image/1996_cocculus_carolinus/regular/49832177482_d8d20c3629_b.jpg","medium_url":"https://perenual.com/storage/species_image/1996_cocculus_carolinus/medium/49832177482_d8d20c3629_b.jpg","small_url":"https://perenual.com/storage/species_image/1996_cocculus_carolinus/small/49832177482_d8d20c3629_b.jpg","thumbnail":"https://perenual.com/storage/species_image/1996_cocculus_carolinus/thumbnail/49832177482_d8d20c3629_b.jpg"}},{"id":1997,"common_name":"cocculus","scientific_name":["Cocculus orbiculatus"],"other_name":null,"cycle":"Perennial","watering":"Average","sunlight":["Full sun","part shade"],"default_image":{"image_id":4839,"license":4,"license_name":"Attribution License","license_url":"https://creativecommons.org/licenses/by/2.0/","original_url":"https://perenual.com/storage/species_image/1997_cocculus_orbiculatus/og/52478853953_2b674b459b_b.jpg","regular_url":"https://perenual.com/storage/species_image/1997_cocculus_orbiculatus/regular/52478853953_2b674b459b_b.jpg","medium_url":"https://perenual.com/storage/species_image/1997_cocculus_orbiculatus/medium/52478853953_2b674b459b_b.jpg","small_url":"https://perenual.com/storage/species_image/1997_cocculus_orbiculatus/small/52478853953_2b674b459b_b.jpg","thumbnail":"https://perenual.com/storage/species_image/1997_cocculus_orbiculatus/thumbnail/52478853953_2b674b459b_b.jpg"}},{"id":1998,"common_name":"coconut palm","scientific_name":["Cocos nucifera"],"other_name":null,"cycle":"Perennial","watering":"Average","sunlight":["Full sun"],"default_image":{"image_id":4848,"license":4,"license_name":"Attribution License","license_url":"https://creativecommons.org/licenses/by/2.0/","original_url":"https://perenual.com/storage/species_image/1998_cocos_nucifera/og/52456605277_f34ffbc86b_b.jpg","regular_url":"https://perenual.com/storage/species_image/1998_cocos_nucifera/regular/52456605277_f34ffbc86b_b.jpg","medium_url":"https://perenual.com/storage/species_image/1998_cocos_nucifera/medium/52456605277_f34ffbc86b_b.jpg","small_url":"https://perenual.com/storage/species_image/1998_cocos_nucifera/small/52456605277_f34ffbc86b_b.jpg","thumbnail":"https://perenual.com/storage/species_image/1998_cocos_nucifera/thumbnail/52456605277_f34ffbc86b_b.jpg"}},{"id":1999,"common_name":"croton","scientific_name":["Codiaeum variegatum"],"other_name":null,"cycle":"Perennial","watering":"Average","sunlight":["Part shade"],"default_image":{"image_id":4852,"license":4,"license_name":"Attribution License","license_url":"https://creativecommons.org/licenses/by/2.0/","original_url":"https://perenual.com/storage/species_image/1999_codiaeum_variegatum/og/29041866364_2c535b2297_b.jpg","regular_url":"https://perenual.com/storage/species_image/1999_codiaeum_variegatum/regular/29041866364_2c535b2297_b.jpg","medium_url":"https://perenual.com/storage/species_image/1999_codiaeum_variegatum/medium/29041866364_2c535b2297_b.jpg","small_url":"https://perenual.com/storage/species_image/1999_codiaeum_variegatum/small/29041866364_2c535b2297_b.jpg","thumbnail":"https://perenual.com/storage/species_image/1999_codiaeum_variegatum/thumbnail/29041866364_2c535b2297_b.jpg"}},{"id":2000,"common_name":"croton","scientific_name":["Codiaeum variegatum var. pictum"],"other_name":null,"cycle":"Perennial","watering":"Average","sunlight":[],"default_image":{"image_id":9,"license":5,"license_name":"Attribution-ShareAlike License","license_url":"https://creativecommons.org/licenses/by-sa/2.0/","original_url":"https://perenual.com/storage/species_image/2_abies_alba_pyramidalis/og/49255769768_df55596553_b.jpg","regular_url":"https://perenual.com/storage/species_image/2_abies_alba_pyramidalis/regular/49255769768_df55596553_b.jpg","medium_url":"https://perenual.com/storage/species_image/2_abies_alba_pyramidalis/medium/49255769768_df55596553_b.jpg","small_url":"https://perenual.com/storage/species_image/2_abies_alba_pyramidalis/small/49255769768_df55596553_b.jpg","thumbnail":"https://perenual.com/storage/species_image/2_abies_alba_pyramidalis/thumbnail/49255769768_df55596553_b.jpg"}},{"id":2001,"common_name":"bonnet bellflower","scientific_name":["Codonopsis lanceolata"],"other_name":null,"cycle":"Perennial","watering":"Average","sunlight":["Full sun","part shade"],"default_image":{"image_id":4855,"license":5,"license_name":"Attribution-ShareAlike License","license_url":"https://creativecommons.org/licenses/by-sa/2.0/","original_url":"https://perenual.com/storage/species_image/2001_codonopsis_lanceolata/og/35252249863_3191a1e87d_b.jpg","regular_url":"https://perenual.com/storage/species_image/2001_codonopsis_lanceolata/regular/35252249863_3191a1e87d_b.jpg","medium_url":"https://perenual.com/storage/species_image/2001_codonopsis_lanceolata/medium/35252249863_3191a1e87d_b.jpg","small_url":"https://perenual.com/storage/species_image/2001_codonopsis_lanceolata/small/35252249863_3191a1e87d_b.jpg","thumbnail":"https://perenual.com/storage/species_image/2001_codonopsis_lanceolata/thumbnail/35252249863_3191a1e87d_b.jpg"}},{"id":2002,"common_name":"Arabian coffee","scientific_name":["Coffea arabica"],"other_name":["Arabian coffee"],"cycle":"Perennial","watering":"Average","sunlight":["Part shade"],"default_image":{"image_id":4858,"license":5,"license_name":"Attribution-ShareAlike License","license_url":"https://creativecommons.org/licenses/by-sa/2.0/","original_url":"https://perenual.com/storage/species_image/2002_coffea_arabica/og/32931873737_c7b521ff1c_b.jpg","regular_url":"https://perenual.com/storage/species_image/2002_coffea_arabica/regular/32931873737_c7b521ff1c_b.jpg","medium_url":"https://perenual.com/storage/species_image/2002_coffea_arabica/medium/32931873737_c7b521ff1c_b.jpg","small_url":"https://perenual.com/storage/species_image/2002_coffea_arabica/small/32931873737_c7b521ff1c_b.jpg","thumbnail":"https://perenual.com/storage/species_image/2002_coffea_arabica/thumbnail/32931873737_c7b521ff1c_b.jpg"}},{"id":2003,"common_name":"autumn crocus","scientific_name":["Colchicum autumnale"],"other_name":null,"cycle":"Perennial","watering":"Average","sunlight":["Full sun","part shade"],"default_image":{"image_id":4860,"license":4,"license_name":"Attribution License","license_url":"https://creativecommons.org/licenses/by/2.0/","original_url":"https://perenual.com/storage/species_image/2010_colchicum_tenorei/og/51699808895_3d601ea4cd_b.jpg","regular_url":"https://perenual.com/storage/species_image/2010_colchicum_tenorei/regular/51699808895_3d601ea4cd_b.jpg","medium_url":"https://perenual.com/storage/species_image/2010_colchicum_tenorei/medium/51699808895_3d601ea4cd_b.jpg","small_url":"https://perenual.com/storage/species_image/2010_colchicum_tenorei/small/51699808895_3d601ea4cd_b.jpg","thumbnail":"https://perenual.com/storage/species_image/2010_colchicum_tenorei/thumbnail/51699808895_3d601ea4cd_b.jpg"}},{"id":2004,"common_name":"autumn crocus","scientific_name":["Colchicum autumnale 'Pleniflorum'"],"other_name":null,"cycle":"Perennial","watering":"Average","sunlight":["Full sun","part shade"],"default_image":{"image_id":9,"license":5,"license_name":"Attribution-ShareAlike License","license_url":"https://creativecommons.org/licenses/by-sa/2.0/","original_url":"https://perenual.com/storage/species_image/2_abies_alba_pyramidalis/og/49255769768_df55596553_b.jpg","regular_url":"https://perenual.com/storage/species_image/2_abies_alba_pyramidalis/regular/49255769768_df55596553_b.jpg","medium_url":"https://perenual.com/storage/species_image/2_abies_alba_pyramidalis/medium/49255769768_df55596553_b.jpg","small_url":"https://perenual.com/storage/species_image/2_abies_alba_pyramidalis/small/49255769768_df55596553_b.jpg","thumbnail":"https://perenual.com/storage/species_image/2_abies_alba_pyramidalis/thumbnail/49255769768_df55596553_b.jpg"}},{"id":2005,"common_name":"autumn crocus","scientific_name":["Colchicum byzantinum"],"other_name":null,"cycle":"Perennial","watering":"Average","sunlight":["Full sun","part shade"],"default_image":{"image_id":9,"license":5,"license_name":"Attribution-ShareAlike License","license_url":"https://creativecommons.org/licenses/by-sa/2.0/","original_url":"https://perenual.com/storage/species_image/2_abies_alba_pyramidalis/og/49255769768_df55596553_b.jpg","regular_url":"https://perenual.com/storage/species_image/2_abies_alba_pyramidalis/regular/49255769768_df55596553_b.jpg","medium_url":"https://perenual.com/storage/species_image/2_abies_alba_pyramidalis/medium/49255769768_df55596553_b.jpg","small_url":"https://perenual.com/storage/species_image/2_abies_alba_pyramidalis/small/49255769768_df55596553_b.jpg","thumbnail":"https://perenual.com/storage/species_image/2_abies_alba_pyramidalis/thumbnail/49255769768_df55596553_b.jpg"}},{"id":2006,"common_name":"autumn crocus","scientific_name":["Colchicum byzantinum 'Album'"],"other_name":null,"cycle":"Perennial","watering":"Average","sunlight":["Full sun","part shade"],"default_image":{"image_id":9,"license":5,"license_name":"Attribution-ShareAlike License","license_url":"https://creativecommons.org/licenses/by-sa/2.0/","original_url":"https://perenual.com/storage/species_image/2_abies_alba_pyramidalis/og/49255769768_df55596553_b.jpg","regular_url":"https://perenual.com/storage/species_image/2_abies_alba_pyramidalis/regular/49255769768_df55596553_b.jpg","medium_url":"https://perenual.com/storage/species_image/2_abies_alba_pyramidalis/medium/49255769768_df55596553_b.jpg","small_url":"https://perenual.com/storage/species_image/2_abies_alba_pyramidalis/small/49255769768_df55596553_b.jpg","thumbnail":"https://perenual.com/storage/species_image/2_abies_alba_pyramidalis/thumbnail/49255769768_df55596553_b.jpg"}},{"id":2007,"common_name":"autumn crocus","scientific_name":["Colchicum cilicicum"],"other_name":null,"cycle":"Perennial","watering":"Average","sunlight":["Full sun","part shade"],"default_image":{"image_id":9,"license":5,"license_name":"Attribution-ShareAlike License","license_url":"https://creativecommons.org/licenses/by-sa/2.0/","original_url":"https://perenual.com/storage/species_image/2_abies_alba_pyramidalis/og/49255769768_df55596553_b.jpg","regular_url":"https://perenual.com/storage/species_image/2_abies_alba_pyramidalis/regular/49255769768_df55596553_b.jpg","medium_url":"https://perenual.com/storage/species_image/2_abies_alba_pyramidalis/medium/49255769768_df55596553_b.jpg","small_url":"https://perenual.com/storage/species_image/2_abies_alba_pyramidalis/small/49255769768_df55596553_b.jpg","thumbnail":"https://perenual.com/storage/species_image/2_abies_alba_pyramidalis/thumbnail/49255769768_df55596553_b.jpg"}},{"id":2008,"common_name":"autumn crocus","scientific_name":["Colchicum 'Disraeli'"],"other_name":null,"cycle":"Perennial","watering":"Average","sunlight":["Full sun","part shade"],"default_image":{"image_id":4871,"license":4,"license_name":"Attribution License","license_url":"https://creativecommons.org/licenses/by/2.0/","original_url":"https://perenual.com/storage/species_image/2008_colchicum_disraeli/og/52342611288_a1a59ca38e_b.jpg","regular_url":"https://perenual.com/storage/species_image/2008_colchicum_disraeli/regular/52342611288_a1a59ca38e_b.jpg","medium_url":"https://perenual.com/storage/species_image/2008_colchicum_disraeli/medium/52342611288_a1a59ca38e_b.jpg","small_url":"https://perenual.com/storage/species_image/2008_colchicum_disraeli/small/52342611288_a1a59ca38e_b.jpg","thumbnail":"https://perenual.com/storage/species_image/2008_colchicum_disraeli/thumbnail/52342611288_a1a59ca38e_b.jpg"}},{"id":2009,"common_name":"autumn crocus","scientific_name":["Colchicum (group)"],"other_name":null,"cycle":"Perennial","watering":"Average","sunlight":["Full sun","part shade"],"default_image":{"image_id":9,"license":5,"license_name":"Attribution-ShareAlike License","license_url":"https://creativecommons.org/licenses/by-sa/2.0/","original_url":"https://perenual.com/storage/species_image/2_abies_alba_pyramidalis/og/49255769768_df55596553_b.jpg","regular_url":"https://perenual.com/storage/species_image/2_abies_alba_pyramidalis/regular/49255769768_df55596553_b.jpg","medium_url":"https://perenual.com/storage/species_image/2_abies_alba_pyramidalis/medium/49255769768_df55596553_b.jpg","small_url":"https://perenual.com/storage/species_image/2_abies_alba_pyramidalis/small/49255769768_df55596553_b.jpg","thumbnail":"https://perenual.com/storage/species_image/2_abies_alba_pyramidalis/thumbnail/49255769768_df55596553_b.jpg"}},{"id":2010,"common_name":"autumn crocus","scientific_name":["Colchicum tenorei"],"other_name":null,"cycle":"Perennial","watering":"Average","sunlight":["Full sun","part shade"],"default_image":{"image_id":4860,"license":4,"license_name":"Attribution License","license_url":"https://creativecommons.org/licenses/by/2.0/","original_url":"https://perenual.com/storage/species_image/2010_colchicum_tenorei/og/51699808895_3d601ea4cd_b.jpg","regular_url":"https://perenual.com/storage/species_image/2010_colchicum_tenorei/regular/51699808895_3d601ea4cd_b.jpg","medium_url":"https://perenual.com/storage/species_image/2010_colchicum_tenorei/medium/51699808895_3d601ea4cd_b.jpg","small_url":"https://perenual.com/storage/species_image/2010_colchicum_tenorei/small/51699808895_3d601ea4cd_b.jpg","thumbnail":"https://perenual.com/storage/species_image/2010_colchicum_tenorei/thumbnail/51699808895_3d601ea4cd_b.jpg"}}],"to":2010,"per_page":30,"current_page":67,"from":1981,"last_page":200,"total":6000}