{"data":[{"id":1801,"common_name":"hinoki cypress","scientific_name":["Chamaecyparis obtusa 'Verdon'"],"other_name":null,"cycle":"Perennial","watering":"Average","sunlight":["Full sun","part shade"],"default_image":{"image_id":4326,"license":5,"license_name":"Attribution-ShareAlike License","license_url":"https://creativecommons.org/licenses/by-sa/2.0/","original_url":"https://perenual.com/storage/species_image/1801_chamaecyparis_obtusa_verdon/og/49367860147_6e5a9a5891_b.jpg","regular_url":"https://perenual.com/storage/species_image/1801_chamaecyparis_obtusa_verdon/regular/49367860147_6e5a9a5891_b.jpg","medium_url":"https://perenual.com/storage/species_image/1801_chamaecyparis_obtusa_verdon/medium/49367860147_6e5a9a5891_b.jpg","small_url":"https://perenual.com/storage/species_image/1801_chamaecyparis_obtusa_verdon/small/49367860147_6e5a9a5891_b.jpg","thumbnail":"https://perenual.com/storage/species_image/1801_chamaecyparis_obtusa_verdon/thumbnail/49367860147_6e5a9a5891_b.jpg"}},{"id":1802,"common_name":"Japanese falsecypress","scientific_name":["Chamaecyparis pisifera 'Aurea Pendula'"],"other_name":["Japanese Falsecypress","Sawara Falsecypress","sawara cypress"],"cycle":"Perennial","watering":"Average","sunlight":["Full sun"],"default_image":{"image_id":4328,"license":5,"license_name":"Attribution-ShareAlike License","license_url":"https://creativecommons.org/licenses/by-sa/2.0/","original_url":"https://perenual.com/storage/species_image/1802_chamaecyparis_pisifera_aurea_pendula/og/49235828177_3dbe9eda0f_b.jpg","regular_url":"https://perenual.com/storage/species_image/1802_chamaecyparis_pisifera_aurea_pendula/regular/49235828177_3dbe9eda0f_b.jpg","medium_url":"https://perenual.com/storage/species_image/1802_chamaecyparis_pisifera_aurea_pendula/medium/49235828177_3dbe9eda0f_b.jpg","small_url":"https://perenual.com/storage/species_image/1802_chamaecyparis_pisifera_aurea_pendula/small/49235828177_3dbe9eda0f_b.jpg","thumbnail":"https://perenual.com/storage/species_image/1802_chamaecyparis_pisifera_aurea_pendula/thumbnail/49235828177_3dbe9eda0f_b.jpg"}},{"id":1803,"common_name":"Japanese falsecypress","scientific_name":["Chamaecyparis pisifera 'Cream Ball'"],"other_name":["Japanese Falsecypress","Sawara Falsecypress","sawara cypress"],"cycle":"Perennial","watering":"Average","sunlight":["Full sun"],"default_image":{"image_id":4330,"license":5,"license_name":"Attribution-ShareAlike License","license_url":"https://creativecommons.org/licenses/by-sa/2.0/","original_url":"https://perenual.com/storage/species_image/1803_chamaecyparis_pisifera_cream_ball/og/49585528521_daec898d9f_b.jpg","regular_url":"https://perenual.com/storage/species_image/1803_chamaecyparis_pisifera_cream_ball/regular/49585528521_daec898d9f_b.jpg","medium_url":"https://perenual.com/storage/species_image/1803_chamaecyparis_pisifera_cream_ball/medium/49585528521_daec898d9f_b.jpg","small_url":"https://perenual.com/storage/species_image/1803_chamaecyparis_pisifera_cream_ball/small/49585528521_daec898d9f_b.jpg","thumbnail":"https://perenual.com/storage/species_image/1803_chamaecyparis_pisifera_cream_ball/thumbnail/49585528521_daec898d9f_b.jpg"}},{"id":1804,"common_name":"Japanese falsecypress","scientific_name":["Chamaecyparis pisifera 'Curly Tops'"],"other_name":["Japanese Falsecypress","Sawara Falsecypress","sawara cypress"],"cycle":"Perennial","watering":"Average","sunlight":["Full sun"],"default_image":{"image_id":9,"license":5,"license_name":"Attribution-ShareAlike License","license_url":"https://creativecommons.org/licenses/by-sa/2.0/","original_url":"https://perenual.com/storage/species_image/2_abies_alba_pyramidalis/og/49255769768_df55596553_b.jpg","regular_url":"https://perenual.com/storage/species_image/2_abies_alba_pyramidalis/regular/49255769768_df55596553_b.jpg","medium_url":"https://perenual.com/storage/species_image/2_abies_alba_pyramidalis/medium/49255769768_df55596553_b.jpg","small_url":"https://perenual.com/storage/species_image/2_abies_alba_pyramidalis/small/49255769768_df55596553_b.jpg","thumbnail":"https://perenual.com/storage/species_image/2_abies_alba_pyramidalis/thumbnail/49255769768_df55596553_b.jpg"}},{"id":1805,"common_name":"Japanese falsecypress","scientific_name":["Chamaecyparis pisifera 'Gold Spangle'"],"other_name":["Japanese Falsecypress","Sawara Falsecypress","sawara cypress"],"cycle":"Perennial","watering":"Average","sunlight":["Full sun"],"default_image":{"image_id":4333,"license":5,"license_name":"Attribution-ShareAlike License","license_url":"https://creativecommons.org/licenses/by-sa/2.0/","original_url":"https://perenual.com/storage/species_image/1805_chamaecyparis_pisifera_gold_spangle/og/33332327118_5a2ce479e2_b.jpg","regular_url":"https://perenual.com/storage/species_image/1805_chamaecyparis_pisifera_gold_spangle/regular/33332327118_5a2ce479e2_b.jpg","medium_url":"https://perenual.com/storage/species_image/1805_chamaecyparis_pisifera_gold_spangle/medium/33332327118_5a2ce479e2_b.jpg","small_url":"https://perenual.com/storage/species_image/1805_chamaecyparis_pisifera_gold_spangle/small/33332327118_5a2ce479e2_b.jpg","thumbnail":"https://perenual.com/storage/species_image/1805_chamaecyparis_pisifera_gold_spangle/thumbnail/33332327118_5a2ce479e2_b.jpg"}},{"id":1806,"common_name":"Japanese falsecypress","scientific_name":["Chamaecyparis pisifera 'Golden Charm'"],"other_name":["Japanese Falsecypress","Sawara Falsecypress","sawara cypress"],"cycle":"Perennial","watering":"Average","sunlight":["Full sun"],"default_image":{"image_id":4337,"license":5,"license_name":"Attribution-ShareAlike License","license_url":"https://creativecommons.org/licenses/by-sa/2.0/","original_url":"https://perenual.com/storage/species_image/1806_chamaecyparis_pisifera_golden_charm/og/52567060442_40a165e375_b.jpg","regular_url":"https://perenual.com/storage/species_image/1806_chamaecyparis_pisifera_golden_charm/regular/52567060442_40a165e375_b.jpg","medium_url":"https://perenual.com/storage/species_image/1806_chamaecyparis_pisifera_golden_charm/medium/52567060442_40a165e375_b.jpg","small_url":"https://perenual.com/storage/species_image/1806_chamaecyparis_pisifera_golden_charm/small/52567060442_40a165e375_b.jpg","thumbnail":"https://perenual.com/storage/species_image/1806_chamaecyparis_pisifera_golden_charm/thumbnail/52567060442_40a165e375_b.jpg"}},{"id":1807,"common_name":"Japanese falsecypress","scientific_name":["Chamaecyparis pisifera 'Golden Mop'"],"other_name":["Japanese Falsecypress","Sawara Falsecypress","sawara cypress"],"cycle":"Perennial","watering":"Average","sunlight":["Full sun"],"default_image":{"image_id":4340,"license":5,"license_name":"Attribution-ShareAlike License","license_url":"https://creativecommons.org/licenses/by-sa/2.0/","original_url":"https://perenual.com/storage/species_image/1807_chamaecyparis_pisifera_golden_mop/og/52568048963_c1b3b90869_b.jpg","regular_url":"https://perenual.com/storage/species_image/1807_chamaecyparis_pisifera_golden_mop/regular/52568048963_c1b3b90869_b.jpg","medium_url":"https://perenual.com/storage/species_image/1807_chamaecyparis_pisifera_golden_mop/medium/52568048963_c1b3b90869_b.jpg","small_url":"https://perenual.com/storage/species_image/1807_chamaecyparis_pisifera_golden_mop/small/52568048963_c1b3b90869_b.jpg","thumbnail":"https://perenual.com/storage/species_image/1807_chamaecyparis_pisifera_golden_mop/thumbnail/52568048963_c1b3b90869_b.jpg"}},{"id":1808,"common_name":"Japanese falsecypress","scientific_name":["Chamaecyparis pisifera 'Golden Pincushion'"],"other_name":["Japanese Falsecypress","Sawara Falsecypress","sawara cypress"],"cycle":"Perennial","watering":"Average","sunlight":["Full sun"],"default_image":{"image_id":4342,"license":5,"license_name":"Attribution-ShareAlike License","license_url":"https://creativecommons.org/licenses/by-sa/2.0/","original_url":"https://perenual.com/storage/species_image/1808_chamaecyparis_pisifera_golden_pincushion/og/32237337107_ced1d0fe71_b.jpg","regular_url":"https://perenual.com/storage/species_image/1808_chamaecyparis_pisifera_golden_pincushion/regular/32237337107_ced1d0fe71_b.jpg","medium_url":"https://perenual.com/storage/species_image/1808_chamaecyparis_pisifera_golden_pincushion/medium/32237337107_ced1d0fe71_b.jpg","small_url":"https://perenual.com/storage/species_image/1808_chamaecyparis_pisifera_golden_pincushion/small/32237337107_ced1d0fe71_b.jpg","thumbnail":"https://perenual.com/storage/species_image/1808_chamaecyparis_pisifera_golden_pincushion/thumbnail/32237337107_ced1d0fe71_b.jpg"}},{"id":1809,"common_name":"Japanese falsecypress","scientific_name":["Chamaecyparis pisifera 'Kost Yellow'"],"other_name":["Japanese Falsecypress","Sawara Falsecypress","sawara cypress"],"cycle":"Perennial","watering":"Average","sunlight":["Full sun"],"default_image":{"image_id":4343,"license":5,"license_name":"Attribution-ShareAlike License","license_url":"https://creativecommons.org/licenses/by-sa/2.0/","original_url":"https://perenual.com/storage/species_image/1815_chamaecyparis_pisifera_vintage_gold/og/15215770779_e4014f61e2_b.jpg","regular_url":"https://perenual.com/storage/species_image/1815_chamaecyparis_pisifera_vintage_gold/regular/15215770779_e4014f61e2_b.jpg","medium_url":"https://perenual.com/storage/species_image/1815_chamaecyparis_pisifera_vintage_gold/medium/15215770779_e4014f61e2_b.jpg","small_url":"https://perenual.com/storage/species_image/1815_chamaecyparis_pisifera_vintage_gold/small/15215770779_e4014f61e2_b.jpg","thumbnail":"https://perenual.com/storage/species_image/1815_chamaecyparis_pisifera_vintage_gold/thumbnail/15215770779_e4014f61e2_b.jpg"}},{"id":1810,"common_name":"Japanese falsecypress","scientific_name":["Chamaecyparis pisifera 'Lemon Thread'"],"other_name":["Japanese Falsecypress","Sawara Falsecypress","sawara cypress"],"cycle":"Perennial","watering":"Average","sunlight":["Full sun"],"default_image":{"image_id":4344,"license":5,"license_name":"Attribution-ShareAlike License","license_url":"https://creativecommons.org/licenses/by-sa/2.0/","original_url":"https://perenual.com/storage/species_image/1810_chamaecyparis_pisifera_lemon_thread/og/51929270252_b89dcf342e_b.jpg","regular_url":"https://perenual.com/storage/species_image/1810_chamaecyparis_pisifera_lemon_thread/regular/51929270252_b89dcf342e_b.jpg","medium_url":"https://perenual.com/storage/species_image/1810_chamaecyparis_pisifera_lemon_thread/medium/51929270252_b89dcf342e_b.jpg","small_url":"https://perenual.com/storage/species_image/1810_chamaecyparis_pisifera_lemon_thread/small/51929270252_b89dcf342e_b.jpg","thumbnail":"https://perenual.com/storage/species_image/1810_chamaecyparis_pisifera_lemon_thread/thumbnail/51929270252_b89dcf342e_b.jpg"}},{"id":1811,"common_name":"Japanese falsecypress","scientific_name":["Chamaecyparis pisifera 'Plumosa Albopicta'"],"other_name":["Japanese Falsecypress","Sawara Falsecypress","sawara cypress"],"cycle":"Perennial","watering":"Average","sunlight":["Full sun"],"default_image":{"image_id":9,"license":5,"license_name":"Attribution-ShareAlike License","license_url":"https://creativecommons.org/licenses/by-sa/2.0/","original_url":"https://perenual.com/storage/species_image/2_abies_alba_pyramidalis/og/49255769768_df55596553_b.jpg","regular_url":"https://perenual.com/storage/species_image/2_abies_alba_pyramidalis/regular/49255769768_df55596553_b.jpg","medium_url":"https://perenual.com/storage/species_image/2_abies_alba_pyramidalis/medium/49255769768_df55596553_b.jpg","small_url":"https://perenual.com/storage/species_image/2_abies_alba_pyramidalis/small/49255769768_df55596553_b.jpg","thumbnail":"https://perenual.com/storage/species_image/2_abies_alba_pyramidalis/thumbnail/49255769768_df55596553_b.jpg"}},{"id":1812,"common_name":"Japanese falsecypress","scientific_name":["Chamaecyparis pisifera 'Squarrosa Intermedia'"],"other_name":["Japanese Falsecypress","Sawara Falsecypress","sawara cypress"],"cycle":"Perennial","watering":"Average","sunlight":["Full sun"],"default_image":{"image_id":4351,"license":5,"license_name":"Attribution-ShareAlike License","license_url":"https://creativecommons.org/licenses/by-sa/2.0/","original_url":"https://perenual.com/storage/species_image/1812_chamaecyparis_pisifera_squarrosa_intermedia/og/40559259043_cb7ae5a41c_b.jpg","regular_url":"https://perenual.com/storage/species_image/1812_chamaecyparis_pisifera_squarrosa_intermedia/regular/40559259043_cb7ae5a41c_b.jpg","medium_url":"https://perenual.com/storage/species_image/1812_chamaecyparis_pisifera_squarrosa_intermedia/medium/40559259043_cb7ae5a41c_b.jpg","small_url":"https://perenual.com/storage/species_image/1812_chamaecyparis_pisifera_squarrosa_intermedia/small/40559259043_cb7ae5a41c_b.jpg","thumbnail":"https://perenual.com/storage/species_image/1812_chamaecyparis_pisifera_squarrosa_intermedia/thumbnail/40559259043_cb7ae5a41c_b.jpg"}},{"id":1813,"common_name":"Japanese falsecypress","scientific_name":["Chamaecyparis pisifera 'Sungold'"],"other_name":["Japanese Falsecypress","Sawara Falsecypress","sawara cypress"],"cycle":"Perennial","watering":"Average","sunlight":["Full sun"],"default_image":{"image_id":406,"license":5,"license_name":"Attribution-ShareAlike License","license_url":"https://creativecommons.org/licenses/by-sa/2.0/","original_url":"https://perenual.com/storage/species_image/1813_chamaecyparis_pisifera_sungold/og/23865579078_c41627b223_b.jpg","regular_url":"https://perenual.com/storage/species_image/1813_chamaecyparis_pisifera_sungold/regular/23865579078_c41627b223_b.jpg","medium_url":"https://perenual.com/storage/species_image/1813_chamaecyparis_pisifera_sungold/medium/23865579078_c41627b223_b.jpg","small_url":"https://perenual.com/storage/species_image/1813_chamaecyparis_pisifera_sungold/small/23865579078_c41627b223_b.jpg","thumbnail":"https://perenual.com/storage/species_image/1813_chamaecyparis_pisifera_sungold/thumbnail/23865579078_c41627b223_b.jpg"}},{"id":1814,"common_name":"Japanese falsecypress","scientific_name":["Chamaecyparis pisifera 'Tsukumo'"],"other_name":["Japanese Falsecypress","Sawara Falsecypress","sawara cypress"],"cycle":"Perennial","watering":"Average","sunlight":["Full sun"],"default_image":{"image_id":4356,"license":5,"license_name":"Attribution-ShareAlike License","license_url":"https://creativecommons.org/licenses/by-sa/2.0/","original_url":"https://perenual.com/storage/species_image/1814_chamaecyparis_pisifera_tsukumo/og/26298511622_005878629e_b.jpg","regular_url":"https://perenual.com/storage/species_image/1814_chamaecyparis_pisifera_tsukumo/regular/26298511622_005878629e_b.jpg","medium_url":"https://perenual.com/storage/species_image/1814_chamaecyparis_pisifera_tsukumo/medium/26298511622_005878629e_b.jpg","small_url":"https://perenual.com/storage/species_image/1814_chamaecyparis_pisifera_tsukumo/small/26298511622_005878629e_b.jpg","thumbnail":"https://perenual.com/storage/species_image/1814_chamaecyparis_pisifera_tsukumo/thumbnail/26298511622_005878629e_b.jpg"}},{"id":1815,"common_name":"Japanese falsecypress","scientific_name":["Chamaecyparis pisifera 'Vintage Gold'"],"other_name":["Japanese Falsecypress","Sawara Falsecypress","sawara cypress"],"cycle":"Perennial","watering":"Average","sunlight":["Full sun"],"default_image":{"image_id":4343,"license":5,"license_name":"Attribution-ShareAlike License","license_url":"https://creativecommons.org/licenses/by-sa/2.0/","original_url":"https://perenual.com/storage/species_image/1815_chamaecyparis_pisifera_vintage_gold/og/15215770779_e4014f61e2_b.jpg","regular_url":"https://perenual.com/storage/species_image/1815_chamaecyparis_pisifera_vintage_gold/regular/15215770779_e4014f61e2_b.jpg","medium_url":"https://perenual.com/storage/species_image/1815_chamaecyparis_pisifera_vintage_gold/medium/15215770779_e4014f61e2_b.jpg","small_url":"https://perenual.com/storage/species_image/1815_chamaecyparis_pisifera_vintage_gold/small/15215770779_e4014f61e2_b.jpg","thumbnail":"https://perenual.com/storage/species_image/1815_chamaecyparis_pisifera_vintage_gold/thumbnail/15215770779_e4014f61e2_b.jpg"}},{"id":1816,"common_name":"white cypress","scientific_name":["Chamaecyparis thyoides 'Heatherbun'"],"other_name":null,"cycle":"Perennial","watering":"Frequent","sunlight":["Full sun","part shade"],"default_image":{"image_id":21013,"license":5,"license_name":null,"license_url":null,"original_url":"https://perenual.com/storage/species_image/1816_chamaecyparis_thyoides_heatherbun/og/4954322794_33f502f8c4_b.jpg","regular_url":"https://perenual.com/storage/species_image/1816_chamaecyparis_thyoides_heatherbun/regular/4954322794_33f502f8c4_b.jpg","medium_url":"https://perenual.com/storage/species_image/1816_chamaecyparis_thyoides_heatherbun/medium/4954322794_33f502f8c4_b.jpg","small_url":"https://perenual.com/storage/species_image/1816_chamaecyparis_thyoides_heatherbun/small/4954322794_33f502f8c4_b.jpg","thumbnail":"https://perenual.com/storage/species_image/1816_chamaecyparis_thyoides_heatherbun/thumbnail/4954322794_33f502f8c4_b.jpg"}},{"id":1817,"common_name":"white cypress","scientific_name":["Chamaecyparis thyoides 'Shiva'"],"other_name":null,"cycle":"Perennial","watering":"Frequent","sunlight":["Full sun","part shade"],"default_image":{"image_id":4357,"license":5,"license_name":"Attribution-ShareAlike License","license_url":"https://creativecommons.org/licenses/by-sa/2.0/","original_url":"https://perenual.com/storage/species_image/1817_chamaecyparis_thyoides_shiva/og/51906121778_b63ff78f9f_b.jpg","regular_url":"https://perenual.com/storage/species_image/1817_chamaecyparis_thyoides_shiva/regular/51906121778_b63ff78f9f_b.jpg","medium_url":"https://perenual.com/storage/species_image/1817_chamaecyparis_thyoides_shiva/medium/51906121778_b63ff78f9f_b.jpg","small_url":"https://perenual.com/storage/species_image/1817_chamaecyparis_thyoides_shiva/small/51906121778_b63ff78f9f_b.jpg","thumbnail":"https://perenual.com/storage/species_image/1817_chamaecyparis_thyoides_shiva/thumbnail/51906121778_b63ff78f9f_b.jpg"}},{"id":1818,"common_name":"chamaecytisus","scientific_name":["Chamaecytisus hirsutus"],"other_name":null,"cycle":"Perennial","watering":"Average","sunlight":["Full sun","part shade"],"default_image":{"image_id":4360,"license":4,"license_name":"Attribution License","license_url":"https://creativecommons.org/licenses/by/2.0/","original_url":"https://perenual.com/storage/species_image/1818_chamaecytisus_hirsutus/og/8304604088_3bb9762f55_b.jpg","regular_url":"https://perenual.com/storage/species_image/1818_chamaecytisus_hirsutus/regular/8304604088_3bb9762f55_b.jpg","medium_url":"https://perenual.com/storage/species_image/1818_chamaecytisus_hirsutus/medium/8304604088_3bb9762f55_b.jpg","small_url":"https://perenual.com/storage/species_image/1818_chamaecytisus_hirsutus/small/8304604088_3bb9762f55_b.jpg","thumbnail":"https://perenual.com/storage/species_image/1818_chamaecytisus_hirsutus/thumbnail/8304604088_3bb9762f55_b.jpg"}},{"id":1819,"common_name":"leatherleaf","scientific_name":["Chamaedaphne calyculata 'Verdant'"],"other_name":null,"cycle":"Perennial","watering":"Frequent","sunlight":["Full sun Partial sun"],"default_image":{"image_id":4363,"license":5,"license_name":"Attribution-ShareAlike License","license_url":"https://creativecommons.org/licenses/by-sa/2.0/","original_url":"https://perenual.com/storage/species_image/1819_chamaedaphne_calyculata_verdant/og/52386178358_0b4baefd2f_b.jpg","regular_url":"https://perenual.com/storage/species_image/1819_chamaedaphne_calyculata_verdant/regular/52386178358_0b4baefd2f_b.jpg","medium_url":"https://perenual.com/storage/species_image/1819_chamaedaphne_calyculata_verdant/medium/52386178358_0b4baefd2f_b.jpg","small_url":"https://perenual.com/storage/species_image/1819_chamaedaphne_calyculata_verdant/small/52386178358_0b4baefd2f_b.jpg","thumbnail":"https://perenual.com/storage/species_image/1819_chamaedaphne_calyculata_verdant/thumbnail/52386178358_0b4baefd2f_b.jpg"}},{"id":1820,"common_name":"parlor palm","scientific_name":["Chamaedorea elegans"],"other_name":["neanthe bella palm"],"cycle":"Perennial","watering":"Average","sunlight":["Part shade","full shade"],"default_image":{"image_id":4364,"license":4,"license_name":"Attribution License","license_url":"https://creativecommons.org/licenses/by/2.0/","original_url":"https://perenual.com/storage/species_image/1820_chamaedorea_elegans/og/24981394791_176142abd3_b.jpg","regular_url":"https://perenual.com/storage/species_image/1820_chamaedorea_elegans/regular/24981394791_176142abd3_b.jpg","medium_url":"https://perenual.com/storage/species_image/1820_chamaedorea_elegans/medium/24981394791_176142abd3_b.jpg","small_url":"https://perenual.com/storage/species_image/1820_chamaedorea_elegans/small/24981394791_176142abd3_b.jpg","thumbnail":"https://perenual.com/storage/species_image/1820_chamaedorea_elegans/thumbnail/24981394791_176142abd3_b.jpg"}},{"id":1821,"common_name":"chamaedorea","scientific_name":["Chamaedorea microspadix"],"other_name":null,"cycle":"Perennial","watering":"Average","sunlight":["Part shade"],"default_image":{"image_id":4367,"license":4,"license_name":"Attribution License","license_url":"https://creativecommons.org/licenses/by/2.0/","original_url":"https://perenual.com/storage/species_image/1821_chamaedorea_microspadix/og/26815590515_805ab5b081_b.jpg","regular_url":"https://perenual.com/storage/species_image/1821_chamaedorea_microspadix/regular/26815590515_805ab5b081_b.jpg","medium_url":"https://perenual.com/storage/species_image/1821_chamaedorea_microspadix/medium/26815590515_805ab5b081_b.jpg","small_url":"https://perenual.com/storage/species_image/1821_chamaedorea_microspadix/small/26815590515_805ab5b081_b.jpg","thumbnail":"https://perenual.com/storage/species_image/1821_chamaedorea_microspadix/thumbnail/26815590515_805ab5b081_b.jpg"}},{"id":1822,"common_name":"bamboo palm","scientific_name":["Chamaedorea seifrizii"],"other_name":null,"cycle":"Perennial","watering":"Average","sunlight":["Part shade"],"default_image":{"image_id":9,"license":5,"license_name":"Attribution-ShareAlike License","license_url":"https://creativecommons.org/licenses/by-sa/2.0/","original_url":"https://perenual.com/storage/species_image/2_abies_alba_pyramidalis/og/49255769768_df55596553_b.jpg","regular_url":"https://perenual.com/storage/species_image/2_abies_alba_pyramidalis/regular/49255769768_df55596553_b.jpg","medium_url":"https://perenual.com/storage/species_image/2_abies_alba_pyramidalis/medium/49255769768_df55596553_b.jpg","small_url":"https://perenual.com/storage/species_image/2_abies_alba_pyramidalis/small/49255769768_df55596553_b.jpg","thumbnail":"https://perenual.com/storage/species_image/2_abies_alba_pyramidalis/thumbnail/49255769768_df55596553_b.jpg"}},{"id":1823,"common_name":"fairy wand","scientific_name":["Chamaelirium luteum"],"other_name":["Fairywand","Blazing Star","Blazing Star"],"cycle":"Perennial","watering":"Average","sunlight":["Sun"," Partial Shade"],"default_image":{"image_id":9,"license":5,"license_name":"Attribution-ShareAlike License","license_url":"https://creativecommons.org/licenses/by-sa/2.0/","original_url":"https://perenual.com/storage/species_image/2_abies_alba_pyramidalis/og/49255769768_df55596553_b.jpg","regular_url":"https://perenual.com/storage/species_image/2_abies_alba_pyramidalis/regular/49255769768_df55596553_b.jpg","medium_url":"https://perenual.com/storage/species_image/2_abies_alba_pyramidalis/medium/49255769768_df55596553_b.jpg","small_url":"https://perenual.com/storage/species_image/2_abies_alba_pyramidalis/small/49255769768_df55596553_b.jpg","thumbnail":"https://perenual.com/storage/species_image/2_abies_alba_pyramidalis/thumbnail/49255769768_df55596553_b.jpg"}},{"id":1824,"common_name":"chamomile","scientific_name":["Chamaemelum nobile"],"other_name":null,"cycle":"Perennial","watering":"Average","sunlight":["Full sun","part shade"],"default_image":{"image_id":4385,"license":6,"license_name":"Attribution-NoDerivs License","license_url":"https://creativecommons.org/licenses/by-nd/2.0/","original_url":"https://perenual.com/storage/species_image/1824_chamaemelum_nobile/og/7783537550_a5e22bf05e_b.jpg"}},{"id":1825,"common_name":"European fan palm","scientific_name":["Chamaerops humilis"],"other_name":null,"cycle":"Perennial","watering":"Average","sunlight":["Full sun","part shade"],"default_image":{"image_id":4389,"license":5,"license_name":"Attribution-ShareAlike License","license_url":"https://creativecommons.org/licenses/by-sa/2.0/","original_url":"https://perenual.com/storage/species_image/1825_chamaerops_humilis/og/51797302101_952d73390e_b.jpg","regular_url":"https://perenual.com/storage/species_image/1825_chamaerops_humilis/regular/51797302101_952d73390e_b.jpg","medium_url":"https://perenual.com/storage/species_image/1825_chamaerops_humilis/medium/51797302101_952d73390e_b.jpg","small_url":"https://perenual.com/storage/species_image/1825_chamaerops_humilis/small/51797302101_952d73390e_b.jpg","thumbnail":"https://perenual.com/storage/species_image/1825_chamaerops_humilis/thumbnail/51797302101_952d73390e_b.jpg"}},{"id":1826,"common_name":"European fan palm","scientific_name":["Chamaerops humilis var. humilis"],"other_name":null,"cycle":"Perennial","watering":"Average","sunlight":["Full sun","part shade"],"default_image":{"image_id":4394,"license":4,"license_name":"Attribution License","license_url":"https://creativecommons.org/licenses/by/2.0/","original_url":"https://perenual.com/storage/species_image/1826_chamaerops_humilis_var_humilis/og/49536882268_8c69feb7ec_b.jpg","regular_url":"https://perenual.com/storage/species_image/1826_chamaerops_humilis_var_humilis/regular/49536882268_8c69feb7ec_b.jpg","medium_url":"https://perenual.com/storage/species_image/1826_chamaerops_humilis_var_humilis/medium/49536882268_8c69feb7ec_b.jpg","small_url":"https://perenual.com/storage/species_image/1826_chamaerops_humilis_var_humilis/small/49536882268_8c69feb7ec_b.jpg","thumbnail":"https://perenual.com/storage/species_image/1826_chamaerops_humilis_var_humilis/thumbnail/49536882268_8c69feb7ec_b.jpg"}},{"id":1827,"common_name":"northern sea oats","scientific_name":["Chasmanthium latifolium"],"other_name":["Indian Woodoats","River Oats","River Oats"],"cycle":"Perennial","watering":"Frequent","sunlight":["Sun"," Partial Shade"],"default_image":{"image_id":4399,"license":4,"license_name":"Attribution License","license_url":"https://creativecommons.org/licenses/by/2.0/","original_url":"https://perenual.com/storage/species_image/1827_chasmanthium_latifolium/og/49052331178_9bbf4db8c2_b.jpg","regular_url":"https://perenual.com/storage/species_image/1827_chasmanthium_latifolium/regular/49052331178_9bbf4db8c2_b.jpg","medium_url":"https://perenual.com/storage/species_image/1827_chasmanthium_latifolium/medium/49052331178_9bbf4db8c2_b.jpg","small_url":"https://perenual.com/storage/species_image/1827_chasmanthium_latifolium/small/49052331178_9bbf4db8c2_b.jpg","thumbnail":"https://perenual.com/storage/species_image/1827_chasmanthium_latifolium/thumbnail/49052331178_9bbf4db8c2_b.jpg"}},{"id":1828,"common_name":"greater celandine","scientific_name":["Chelidonium majus"],"other_name":["Swallow Wort","Wartweed","Wartweed"],"cycle":"Perennial","watering":"Average","sunlight":["Sun"," Partial Shade"],"default_image":{"image_id":4405,"license":5,"license_name":"Attribution-ShareAlike License","license_url":"https://creativecommons.org/licenses/by-sa/2.0/","original_url":"https://perenual.com/storage/species_image/1828_chelidonium_majus/og/41229326874_9edd2a1ee1_b.jpg","regular_url":"https://perenual.com/storage/species_image/1828_chelidonium_majus/regular/41229326874_9edd2a1ee1_b.jpg","medium_url":"https://perenual.com/storage/species_image/1828_chelidonium_majus/medium/41229326874_9edd2a1ee1_b.jpg","small_url":"https://perenual.com/storage/species_image/1828_chelidonium_majus/small/41229326874_9edd2a1ee1_b.jpg","thumbnail":"https://perenual.com/storage/species_image/1828_chelidonium_majus/thumbnail/41229326874_9edd2a1ee1_b.jpg"}},{"id":1829,"common_name":"white turtlehead","scientific_name":["Chelone glabra"],"other_name":["White Turtlehead"],"cycle":"Perennial","watering":"Frequent","sunlight":["Part shade"],"default_image":{"image_id":4409,"license":4,"license_name":"Attribution License","license_url":"https://creativecommons.org/licenses/by/2.0/","original_url":"https://perenual.com/storage/species_image/1829_chelone_glabra/og/48649062712_79b35154ed_b.jpg","regular_url":"https://perenual.com/storage/species_image/1829_chelone_glabra/regular/48649062712_79b35154ed_b.jpg","medium_url":"https://perenual.com/storage/species_image/1829_chelone_glabra/medium/48649062712_79b35154ed_b.jpg","small_url":"https://perenual.com/storage/species_image/1829_chelone_glabra/small/48649062712_79b35154ed_b.jpg","thumbnail":"https://perenual.com/storage/species_image/1829_chelone_glabra/thumbnail/48649062712_79b35154ed_b.jpg"}},{"id":1830,"common_name":"pink turtlehead","scientific_name":["Chelone lyonii"],"other_name":null,"cycle":"Perennial","watering":"Frequent","sunlight":["Full sun","part shade"],"default_image":{"image_id":4417,"license":5,"license_name":"Attribution-ShareAlike License","license_url":"https://creativecommons.org/licenses/by-sa/2.0/","original_url":"https://perenual.com/storage/species_image/1833_chelone_obliqua_ieniemienie/og/52391672688_b38cc3636a_b.jpg","regular_url":"https://perenual.com/storage/species_image/1833_chelone_obliqua_ieniemienie/regular/52391672688_b38cc3636a_b.jpg","medium_url":"https://perenual.com/storage/species_image/1833_chelone_obliqua_ieniemienie/medium/52391672688_b38cc3636a_b.jpg","small_url":"https://perenual.com/storage/species_image/1833_chelone_obliqua_ieniemienie/small/52391672688_b38cc3636a_b.jpg","thumbnail":"https://perenual.com/storage/species_image/1833_chelone_obliqua_ieniemienie/thumbnail/52391672688_b38cc3636a_b.jpg"}}],"to":1830,"per_page":30,"current_page":61,"from":1801,"last_page":200,"total":6000}