{"data":[{"id":841,"common_name":"Texas firecracker","scientific_name":["Anisacanthus quadrifidus var. wrightii"],"other_name":null,"cycle":"Perennial","watering":"Minimum","sunlight":["Full sun"],"default_image":{"image_id":9,"license":5,"license_name":"Attribution-ShareAlike License","license_url":"https://creativecommons.org/licenses/by-sa/2.0/","original_url":"https://perenual.com/storage/species_image/2_abies_alba_pyramidalis/og/49255769768_df55596553_b.jpg","regular_url":"https://perenual.com/storage/species_image/2_abies_alba_pyramidalis/regular/49255769768_df55596553_b.jpg","medium_url":"https://perenual.com/storage/species_image/2_abies_alba_pyramidalis/medium/49255769768_df55596553_b.jpg","small_url":"https://perenual.com/storage/species_image/2_abies_alba_pyramidalis/small/49255769768_df55596553_b.jpg","thumbnail":"https://perenual.com/storage/species_image/2_abies_alba_pyramidalis/thumbnail/49255769768_df55596553_b.jpg"}},{"id":842,"common_name":"soursop","scientific_name":["Annona muricata"],"other_name":null,"cycle":"Perennial","watering":"Average","sunlight":["Full sun","part shade"],"default_image":{"image_id":1957,"license":5,"license_name":"Attribution-ShareAlike License","license_url":"https://creativecommons.org/licenses/by-sa/2.0/","original_url":"https://perenual.com/storage/species_image/842_annona_muricata/og/52334747039_ee5c16a899_b.jpg","regular_url":"https://perenual.com/storage/species_image/842_annona_muricata/regular/52334747039_ee5c16a899_b.jpg","medium_url":"https://perenual.com/storage/species_image/842_annona_muricata/medium/52334747039_ee5c16a899_b.jpg","small_url":"https://perenual.com/storage/species_image/842_annona_muricata/small/52334747039_ee5c16a899_b.jpg","thumbnail":"https://perenual.com/storage/species_image/842_annona_muricata/thumbnail/52334747039_ee5c16a899_b.jpg"}},{"id":843,"common_name":"custard apple","scientific_name":["Annona reticulata"],"other_name":null,"cycle":"Perennial","watering":"Average","sunlight":["Full sun","part shade"],"default_image":{"image_id":1964,"license":5,"license_name":"Attribution-ShareAlike License","license_url":"https://creativecommons.org/licenses/by-sa/2.0/","original_url":"https://perenual.com/storage/species_image/843_annona_reticulata/og/49288331417_5427e85d0b_b.jpg","regular_url":"https://perenual.com/storage/species_image/843_annona_reticulata/regular/49288331417_5427e85d0b_b.jpg","medium_url":"https://perenual.com/storage/species_image/843_annona_reticulata/medium/49288331417_5427e85d0b_b.jpg","small_url":"https://perenual.com/storage/species_image/843_annona_reticulata/small/49288331417_5427e85d0b_b.jpg","thumbnail":"https://perenual.com/storage/species_image/843_annona_reticulata/thumbnail/49288331417_5427e85d0b_b.jpg"}},{"id":844,"common_name":"anomatheca","scientific_name":["Anomatheca laxa"],"other_name":null,"cycle":"Perennial","watering":"Average","sunlight":["Full sun"],"default_image":{"image_id":1969,"license":4,"license_name":"Attribution License","license_url":"https://creativecommons.org/licenses/by/2.0/","original_url":"https://perenual.com/storage/species_image/844_anomatheca_laxa/og/47830055392_4211843d66_b.jpg","regular_url":"https://perenual.com/storage/species_image/844_anomatheca_laxa/regular/47830055392_4211843d66_b.jpg","medium_url":"https://perenual.com/storage/species_image/844_anomatheca_laxa/medium/47830055392_4211843d66_b.jpg","small_url":"https://perenual.com/storage/species_image/844_anomatheca_laxa/small/47830055392_4211843d66_b.jpg","thumbnail":"https://perenual.com/storage/species_image/844_anomatheca_laxa/thumbnail/47830055392_4211843d66_b.jpg"}},{"id":845,"common_name":"heartleaf madeiravine","scientific_name":["Anredera cordifolia"],"other_name":null,"cycle":"Perennial","watering":"Average","sunlight":["Full sun","part shade"],"default_image":{"image_id":1977,"license":4,"license_name":"Attribution License","license_url":"https://creativecommons.org/licenses/by/2.0/","original_url":"https://perenual.com/storage/species_image/845_anredera_cordifolia/og/48757222371_bb7fe8e0f1_b.jpg","regular_url":"https://perenual.com/storage/species_image/845_anredera_cordifolia/regular/48757222371_bb7fe8e0f1_b.jpg","medium_url":"https://perenual.com/storage/species_image/845_anredera_cordifolia/medium/48757222371_bb7fe8e0f1_b.jpg","small_url":"https://perenual.com/storage/species_image/845_anredera_cordifolia/small/48757222371_bb7fe8e0f1_b.jpg","thumbnail":"https://perenual.com/storage/species_image/845_anredera_cordifolia/thumbnail/48757222371_bb7fe8e0f1_b.jpg"}},{"id":846,"common_name":"pussytoes","scientific_name":["Antennaria dioica"],"other_name":null,"cycle":"Perennial","watering":"Minimum","sunlight":["Full sun"],"default_image":{"image_id":1980,"license":6,"license_name":"Attribution-NoDerivs License","license_url":"https://creativecommons.org/licenses/by-nd/2.0/","original_url":"https://perenual.com/storage/species_image/846_antennaria_dioica/og/51344967648_acbb1564a9_b.jpg"}},{"id":847,"common_name":"field pussytoes","scientific_name":["Antennaria neglecta"],"other_name":null,"cycle":"Perennial","watering":"Minimum","sunlight":[],"default_image":{"image_id":1988,"license":4,"license_name":"Attribution License","license_url":"https://creativecommons.org/licenses/by/2.0/","original_url":"https://perenual.com/storage/species_image/847_antennaria_neglecta/og/26815073747_bb9d7f94d4_b.jpg","regular_url":"https://perenual.com/storage/species_image/847_antennaria_neglecta/regular/26815073747_bb9d7f94d4_b.jpg","medium_url":"https://perenual.com/storage/species_image/847_antennaria_neglecta/medium/26815073747_bb9d7f94d4_b.jpg","small_url":"https://perenual.com/storage/species_image/847_antennaria_neglecta/small/26815073747_bb9d7f94d4_b.jpg","thumbnail":"https://perenual.com/storage/species_image/847_antennaria_neglecta/thumbnail/26815073747_bb9d7f94d4_b.jpg"}},{"id":848,"common_name":"pussy toes","scientific_name":["Antennaria parlinii"],"other_name":null,"cycle":"Perennial","watering":"Minimum","sunlight":["Full sun","part shade"],"default_image":{"image_id":9,"license":5,"license_name":"Attribution-ShareAlike License","license_url":"https://creativecommons.org/licenses/by-sa/2.0/","original_url":"https://perenual.com/storage/species_image/2_abies_alba_pyramidalis/og/49255769768_df55596553_b.jpg","regular_url":"https://perenual.com/storage/species_image/2_abies_alba_pyramidalis/regular/49255769768_df55596553_b.jpg","medium_url":"https://perenual.com/storage/species_image/2_abies_alba_pyramidalis/medium/49255769768_df55596553_b.jpg","small_url":"https://perenual.com/storage/species_image/2_abies_alba_pyramidalis/small/49255769768_df55596553_b.jpg","thumbnail":"https://perenual.com/storage/species_image/2_abies_alba_pyramidalis/thumbnail/49255769768_df55596553_b.jpg"}},{"id":849,"common_name":"pussytoes","scientific_name":["Antennaria plantaginifolia"],"other_name":null,"cycle":"Perennial","watering":"Minimum","sunlight":[],"default_image":{"image_id":1997,"license":5,"license_name":"Attribution-ShareAlike License","license_url":"https://creativecommons.org/licenses/by-sa/2.0/","original_url":"https://perenual.com/storage/species_image/849_antennaria_plantaginifolia/og/51855987781_da201af216_b.jpg","regular_url":"https://perenual.com/storage/species_image/849_antennaria_plantaginifolia/regular/51855987781_da201af216_b.jpg","medium_url":"https://perenual.com/storage/species_image/849_antennaria_plantaginifolia/medium/51855987781_da201af216_b.jpg","small_url":"https://perenual.com/storage/species_image/849_antennaria_plantaginifolia/small/51855987781_da201af216_b.jpg","thumbnail":"https://perenual.com/storage/species_image/849_antennaria_plantaginifolia/thumbnail/51855987781_da201af216_b.jpg"}},{"id":850,"common_name":"golden chamomile","scientific_name":["Anthemis tinctoria"],"other_name":null,"cycle":"Perennial","watering":"Minimum","sunlight":["Full sun"],"default_image":{"image_id":2003,"license":4,"license_name":"Attribution License","license_url":"https://creativecommons.org/licenses/by/2.0/","original_url":"https://perenual.com/storage/species_image/850_anthemis_tinctoria/og/51873660644_1d595b7aef_b.jpg","regular_url":"https://perenual.com/storage/species_image/850_anthemis_tinctoria/regular/51873660644_1d595b7aef_b.jpg","medium_url":"https://perenual.com/storage/species_image/850_anthemis_tinctoria/medium/51873660644_1d595b7aef_b.jpg","small_url":"https://perenual.com/storage/species_image/850_anthemis_tinctoria/small/51873660644_1d595b7aef_b.jpg","thumbnail":"https://perenual.com/storage/species_image/850_anthemis_tinctoria/thumbnail/51873660644_1d595b7aef_b.jpg"}},{"id":851,"common_name":"golden chamomile","scientific_name":["Anthemis tinctoria 'Charme'"],"other_name":null,"cycle":"Perennial","watering":"Minimum","sunlight":["Full sun"],"default_image":{"image_id":21242,"license":45,"license_name":"Attribution-ShareAlike 3.0 Unported (CC BY-SA 3.0)","license_url":"https://creativecommons.org/licenses/by-sa/3.0/deed.en","original_url":"https://perenual.com/storage/species_image/851_anthemis_tinctoria_charme/og/Anthemis_tinctoria_001.jpg","regular_url":"https://perenual.com/storage/species_image/851_anthemis_tinctoria_charme/regular/Anthemis_tinctoria_001.jpg","medium_url":"https://perenual.com/storage/species_image/851_anthemis_tinctoria_charme/medium/Anthemis_tinctoria_001.jpg","small_url":"https://perenual.com/storage/species_image/851_anthemis_tinctoria_charme/small/Anthemis_tinctoria_001.jpg","thumbnail":"https://perenual.com/storage/species_image/851_anthemis_tinctoria_charme/thumbnail/Anthemis_tinctoria_001.jpg"}},{"id":852,"common_name":"Dyer's chamomile","scientific_name":["Anthemis tinctoria 'Kelwayi'"],"other_name":null,"cycle":"Perennial","watering":"Minimum","sunlight":["Full sun"],"default_image":{"image_id":9,"license":5,"license_name":"Attribution-ShareAlike License","license_url":"https://creativecommons.org/licenses/by-sa/2.0/","original_url":"https://perenual.com/storage/species_image/2_abies_alba_pyramidalis/og/49255769768_df55596553_b.jpg","regular_url":"https://perenual.com/storage/species_image/2_abies_alba_pyramidalis/regular/49255769768_df55596553_b.jpg","medium_url":"https://perenual.com/storage/species_image/2_abies_alba_pyramidalis/medium/49255769768_df55596553_b.jpg","small_url":"https://perenual.com/storage/species_image/2_abies_alba_pyramidalis/small/49255769768_df55596553_b.jpg","thumbnail":"https://perenual.com/storage/species_image/2_abies_alba_pyramidalis/thumbnail/49255769768_df55596553_b.jpg"}},{"id":853,"common_name":"golden marguerite","scientific_name":["Anthemis tinctoria 'Moonlight'"],"other_name":null,"cycle":"Perennial","watering":"Minimum","sunlight":["Full sun"],"default_image":{"image_id":21245,"license":5,"license_name":"Attribution-ShareAlike License","license_url":"https://creativecommons.org/licenses/by-sa/2.0/","original_url":"https://perenual.com/storage/species_image/853_anthemis_tinctoria_moonlight/og/5843978630_04a41081db_z.jpg","regular_url":"https://perenual.com/storage/species_image/853_anthemis_tinctoria_moonlight/regular/5843978630_04a41081db_z.jpg","medium_url":"https://perenual.com/storage/species_image/853_anthemis_tinctoria_moonlight/medium/5843978630_04a41081db_z.jpg","small_url":"https://perenual.com/storage/species_image/853_anthemis_tinctoria_moonlight/small/5843978630_04a41081db_z.jpg","thumbnail":"https://perenual.com/storage/species_image/853_anthemis_tinctoria_moonlight/thumbnail/5843978630_04a41081db_z.jpg"}},{"id":854,"common_name":"St. Bernard's lily","scientific_name":["Anthericum liliago"],"other_name":null,"cycle":"Perennial","watering":"Average","sunlight":["Full sun"],"default_image":{"image_id":2012,"license":4,"license_name":"Attribution License","license_url":"https://creativecommons.org/licenses/by/2.0/","original_url":"https://perenual.com/storage/species_image/854_anthericum_liliago/og/49970133772_2420db26c9_b.jpg","regular_url":"https://perenual.com/storage/species_image/854_anthericum_liliago/regular/49970133772_2420db26c9_b.jpg","medium_url":"https://perenual.com/storage/species_image/854_anthericum_liliago/medium/49970133772_2420db26c9_b.jpg","small_url":"https://perenual.com/storage/species_image/854_anthericum_liliago/small/49970133772_2420db26c9_b.jpg","thumbnail":"https://perenual.com/storage/species_image/854_anthericum_liliago/thumbnail/49970133772_2420db26c9_b.jpg"}},{"id":855,"common_name":"anthurium","scientific_name":["Anthurium andraeanum"],"other_name":null,"cycle":"Perennial","watering":"Average","sunlight":["Part shade"],"default_image":{"image_id":2020,"license":5,"license_name":"Attribution-ShareAlike License","license_url":"https://creativecommons.org/licenses/by-sa/2.0/","original_url":"https://perenual.com/storage/species_image/855_anthurium_andraeanum/og/49388458462_0ef650db39_b.jpg","regular_url":"https://perenual.com/storage/species_image/855_anthurium_andraeanum/regular/49388458462_0ef650db39_b.jpg","medium_url":"https://perenual.com/storage/species_image/855_anthurium_andraeanum/medium/49388458462_0ef650db39_b.jpg","small_url":"https://perenual.com/storage/species_image/855_anthurium_andraeanum/small/49388458462_0ef650db39_b.jpg","thumbnail":"https://perenual.com/storage/species_image/855_anthurium_andraeanum/thumbnail/49388458462_0ef650db39_b.jpg"}},{"id":856,"common_name":"anthurium","scientific_name":["Anthurium crassinervium"],"other_name":null,"cycle":"Perennial","watering":"Average","sunlight":["Full sun","part shade"],"default_image":{"image_id":9,"license":5,"license_name":"Attribution-ShareAlike License","license_url":"https://creativecommons.org/licenses/by-sa/2.0/","original_url":"https://perenual.com/storage/species_image/2_abies_alba_pyramidalis/og/49255769768_df55596553_b.jpg","regular_url":"https://perenual.com/storage/species_image/2_abies_alba_pyramidalis/regular/49255769768_df55596553_b.jpg","medium_url":"https://perenual.com/storage/species_image/2_abies_alba_pyramidalis/medium/49255769768_df55596553_b.jpg","small_url":"https://perenual.com/storage/species_image/2_abies_alba_pyramidalis/small/49255769768_df55596553_b.jpg","thumbnail":"https://perenual.com/storage/species_image/2_abies_alba_pyramidalis/thumbnail/49255769768_df55596553_b.jpg"}},{"id":857,"common_name":"coral vine","scientific_name":["Antigonon leptopus"],"other_name":null,"cycle":"Perennial","watering":"Average","sunlight":["Full sun"],"default_image":{"image_id":2030,"license":4,"license_name":"Attribution License","license_url":"https://creativecommons.org/licenses/by/2.0/","original_url":"https://perenual.com/storage/species_image/857_antigonon_leptopus/og/24665048204_b6360869a1_b.jpg","regular_url":"https://perenual.com/storage/species_image/857_antigonon_leptopus/regular/24665048204_b6360869a1_b.jpg","medium_url":"https://perenual.com/storage/species_image/857_antigonon_leptopus/medium/24665048204_b6360869a1_b.jpg","small_url":"https://perenual.com/storage/species_image/857_antigonon_leptopus/small/24665048204_b6360869a1_b.jpg","thumbnail":"https://perenual.com/storage/species_image/857_antigonon_leptopus/thumbnail/24665048204_b6360869a1_b.jpg"}},{"id":858,"common_name":"snapdragon","scientific_name":["Antirrhinum 'Dulcinea's Heart'"],"other_name":null,"cycle":"Perennial","watering":"Average","sunlight":["Full sun"],"default_image":{"image_id":21246,"license":451,"license_name":"CC0 1.0 Universal (CC0 1.0) Public Domain Dedication","license_url":"https://creativecommons.org/publicdomain/zero/1.0/","original_url":"https://perenual.com/storage/species_image/858_antirrhinum_dulcineas_heart/og/antirrhinum_majus_blossom_bloom_flower_pink_garden_lion_maul_plantain_greenhouse_plantaginaceae-1019032.jpg","regular_url":"https://perenual.com/storage/species_image/858_antirrhinum_dulcineas_heart/regular/antirrhinum_majus_blossom_bloom_flower_pink_garden_lion_maul_plantain_greenhouse_plantaginaceae-1019032.jpg","medium_url":"https://perenual.com/storage/species_image/858_antirrhinum_dulcineas_heart/medium/antirrhinum_majus_blossom_bloom_flower_pink_garden_lion_maul_plantain_greenhouse_plantaginaceae-1019032.jpg","small_url":"https://perenual.com/storage/species_image/858_antirrhinum_dulcineas_heart/small/antirrhinum_majus_blossom_bloom_flower_pink_garden_lion_maul_plantain_greenhouse_plantaginaceae-1019032.jpg","thumbnail":"https://perenual.com/storage/species_image/858_antirrhinum_dulcineas_heart/thumbnail/antirrhinum_majus_blossom_bloom_flower_pink_garden_lion_maul_plantain_greenhouse_plantaginaceae-1019032.jpg"}},{"id":859,"common_name":"snapdragon","scientific_name":["Antirrhinum majus"],"other_name":null,"cycle":"Perennial","watering":"Average","sunlight":["Full sun"],"default_image":{"image_id":2035,"license":6,"license_name":"Attribution-NoDerivs License","license_url":"https://creativecommons.org/licenses/by-nd/2.0/","original_url":"https://perenual.com/storage/species_image/859_antirrhinum_majus/og/49385342272_e801558f70_b.jpg"}},{"id":860,"common_name":"snapdragon","scientific_name":["Antirrhinum majus SNAPTASTIC ORANGE FLAME"],"other_name":null,"cycle":"Perennial","watering":"Average","sunlight":["Full sun"],"default_image":{"image_id":9,"license":5,"license_name":"Attribution-ShareAlike License","license_url":"https://creativecommons.org/licenses/by-sa/2.0/","original_url":"https://perenual.com/storage/species_image/2_abies_alba_pyramidalis/og/49255769768_df55596553_b.jpg","regular_url":"https://perenual.com/storage/species_image/2_abies_alba_pyramidalis/regular/49255769768_df55596553_b.jpg","medium_url":"https://perenual.com/storage/species_image/2_abies_alba_pyramidalis/medium/49255769768_df55596553_b.jpg","small_url":"https://perenual.com/storage/species_image/2_abies_alba_pyramidalis/small/49255769768_df55596553_b.jpg","thumbnail":"https://perenual.com/storage/species_image/2_abies_alba_pyramidalis/thumbnail/49255769768_df55596553_b.jpg"}},{"id":861,"common_name":"zebra plant","scientific_name":["Aphelandra squarrosa"],"other_name":null,"cycle":"Perennial","watering":"Average","sunlight":["Part shade","full shade"],"default_image":{"image_id":2040,"license":5,"license_name":"Attribution-ShareAlike License","license_url":"https://creativecommons.org/licenses/by-sa/2.0/","original_url":"https://perenual.com/storage/species_image/861_aphelandra_squarrosa/og/9216112108_2bb5c403b3_b.jpg","regular_url":"https://perenual.com/storage/species_image/861_aphelandra_squarrosa/regular/9216112108_2bb5c403b3_b.jpg","medium_url":"https://perenual.com/storage/species_image/861_aphelandra_squarrosa/medium/9216112108_2bb5c403b3_b.jpg","small_url":"https://perenual.com/storage/species_image/861_aphelandra_squarrosa/small/9216112108_2bb5c403b3_b.jpg","thumbnail":"https://perenual.com/storage/species_image/861_aphelandra_squarrosa/thumbnail/9216112108_2bb5c403b3_b.jpg"}},{"id":862,"common_name":"celery","scientific_name":["Apium graveolens var. dulce"],"other_name":null,"cycle":"Perennial","watering":"Average","sunlight":[],"default_image":{"image_id":9,"license":5,"license_name":"Attribution-ShareAlike License","license_url":"https://creativecommons.org/licenses/by-sa/2.0/","original_url":"https://perenual.com/storage/species_image/2_abies_alba_pyramidalis/og/49255769768_df55596553_b.jpg","regular_url":"https://perenual.com/storage/species_image/2_abies_alba_pyramidalis/regular/49255769768_df55596553_b.jpg","medium_url":"https://perenual.com/storage/species_image/2_abies_alba_pyramidalis/medium/49255769768_df55596553_b.jpg","small_url":"https://perenual.com/storage/species_image/2_abies_alba_pyramidalis/small/49255769768_df55596553_b.jpg","thumbnail":"https://perenual.com/storage/species_image/2_abies_alba_pyramidalis/thumbnail/49255769768_df55596553_b.jpg"}},{"id":863,"common_name":"celeriac","scientific_name":["Apium graveolens var. rapaceum"],"other_name":null,"cycle":"Perennial","watering":"Average","sunlight":[],"default_image":{"image_id":21249,"license":45,"license_name":"Attribution-ShareAlike 3.0 Unported (CC BY-SA 3.0)","license_url":"https://creativecommons.org/licenses/by-sa/3.0/deed.en","original_url":"https://perenual.com/storage/species_image/863_apium_graveolens_var_rapaceum/og/2448px-Mi%C5%99%C3%ADk_celer_-_Apium_graveolens.jpg","regular_url":"https://perenual.com/storage/species_image/863_apium_graveolens_var_rapaceum/regular/2448px-Mi%C5%99%C3%ADk_celer_-_Apium_graveolens.jpg","medium_url":"https://perenual.com/storage/species_image/863_apium_graveolens_var_rapaceum/medium/2448px-Mi%C5%99%C3%ADk_celer_-_Apium_graveolens.jpg","small_url":"https://perenual.com/storage/species_image/863_apium_graveolens_var_rapaceum/small/2448px-Mi%C5%99%C3%ADk_celer_-_Apium_graveolens.jpg","thumbnail":"https://perenual.com/storage/species_image/863_apium_graveolens_var_rapaceum/thumbnail/2448px-Mi%C5%99%C3%ADk_celer_-_Apium_graveolens.jpg"}},{"id":864,"common_name":"celeriac","scientific_name":["Apium graveolens var. rapaceum 'Diamant'"],"other_name":null,"cycle":"Perennial","watering":"Average","sunlight":[],"default_image":{"image_id":21249,"license":45,"license_name":"Attribution-ShareAlike 3.0 Unported (CC BY-SA 3.0)","license_url":"https://creativecommons.org/licenses/by-sa/3.0/deed.en","original_url":"https://perenual.com/storage/species_image/863_apium_graveolens_var_rapaceum/og/2448px-Mi%C5%99%C3%ADk_celer_-_Apium_graveolens.jpg","regular_url":"https://perenual.com/storage/species_image/863_apium_graveolens_var_rapaceum/regular/2448px-Mi%C5%99%C3%ADk_celer_-_Apium_graveolens.jpg","medium_url":"https://perenual.com/storage/species_image/863_apium_graveolens_var_rapaceum/medium/2448px-Mi%C5%99%C3%ADk_celer_-_Apium_graveolens.jpg","small_url":"https://perenual.com/storage/species_image/863_apium_graveolens_var_rapaceum/small/2448px-Mi%C5%99%C3%ADk_celer_-_Apium_graveolens.jpg","thumbnail":"https://perenual.com/storage/species_image/863_apium_graveolens_var_rapaceum/thumbnail/2448px-Mi%C5%99%C3%ADk_celer_-_Apium_graveolens.jpg"}},{"id":865,"common_name":"Indian hemp","scientific_name":["Apocynum cannabinum"],"other_name":["Indian Hemp","Common Dogbane","Prairie Dogbane","Common Dogbane","Prairie Dogbane"],"cycle":"Perennial","watering":"Minimum","sunlight":["Partial Shade"],"default_image":{"image_id":2045,"license":5,"license_name":"Attribution-ShareAlike License","license_url":"https://creativecommons.org/licenses/by-sa/2.0/","original_url":"https://perenual.com/storage/species_image/865_apocynum_cannabinum/og/52279327528_0d7dd70f2c_b.jpg","regular_url":"https://perenual.com/storage/species_image/865_apocynum_cannabinum/regular/52279327528_0d7dd70f2c_b.jpg","medium_url":"https://perenual.com/storage/species_image/865_apocynum_cannabinum/medium/52279327528_0d7dd70f2c_b.jpg","small_url":"https://perenual.com/storage/species_image/865_apocynum_cannabinum/small/52279327528_0d7dd70f2c_b.jpg","thumbnail":"https://perenual.com/storage/species_image/865_apocynum_cannabinum/thumbnail/52279327528_0d7dd70f2c_b.jpg"}},{"id":866,"common_name":"Cape pondweed","scientific_name":["Aponogeton distachyos"],"other_name":null,"cycle":"Perennial","watering":"Frequent","sunlight":["Full sun","part shade"],"default_image":{"image_id":2053,"license":5,"license_name":"Attribution-ShareAlike License","license_url":"https://creativecommons.org/licenses/by-sa/2.0/","original_url":"https://perenual.com/storage/species_image/866_aponogeton_distachyos/og/51708012018_04d7cd2cda_b.jpg","regular_url":"https://perenual.com/storage/species_image/866_aponogeton_distachyos/regular/51708012018_04d7cd2cda_b.jpg","medium_url":"https://perenual.com/storage/species_image/866_aponogeton_distachyos/medium/51708012018_04d7cd2cda_b.jpg","small_url":"https://perenual.com/storage/species_image/866_aponogeton_distachyos/small/51708012018_04d7cd2cda_b.jpg","thumbnail":"https://perenual.com/storage/species_image/866_aponogeton_distachyos/thumbnail/51708012018_04d7cd2cda_b.jpg"}},{"id":867,"common_name":"columbine","scientific_name":["Aquilegia (Biedermeier Group)"],"other_name":null,"cycle":"Perennial","watering":"Average","sunlight":["Full sun","part shade"],"default_image":{"image_id":2059,"license":4,"license_name":"Attribution License","license_url":"https://creativecommons.org/licenses/by/2.0/","original_url":"https://perenual.com/storage/species_image/867_aquilegia_biedermeier_group/og/52396789279_7458eca5ec_b.jpg","regular_url":"https://perenual.com/storage/species_image/867_aquilegia_biedermeier_group/regular/52396789279_7458eca5ec_b.jpg","medium_url":"https://perenual.com/storage/species_image/867_aquilegia_biedermeier_group/medium/52396789279_7458eca5ec_b.jpg","small_url":"https://perenual.com/storage/species_image/867_aquilegia_biedermeier_group/small/52396789279_7458eca5ec_b.jpg","thumbnail":"https://perenual.com/storage/species_image/867_aquilegia_biedermeier_group/thumbnail/52396789279_7458eca5ec_b.jpg"}},{"id":868,"common_name":"columbine","scientific_name":["Aquilegia 'Bunting'"],"other_name":null,"cycle":"Perennial","watering":"Average","sunlight":["Full sun","part shade"],"default_image":{"image_id":9,"license":5,"license_name":"Attribution-ShareAlike License","license_url":"https://creativecommons.org/licenses/by-sa/2.0/","original_url":"https://perenual.com/storage/species_image/2_abies_alba_pyramidalis/og/49255769768_df55596553_b.jpg","regular_url":"https://perenual.com/storage/species_image/2_abies_alba_pyramidalis/regular/49255769768_df55596553_b.jpg","medium_url":"https://perenual.com/storage/species_image/2_abies_alba_pyramidalis/medium/49255769768_df55596553_b.jpg","small_url":"https://perenual.com/storage/species_image/2_abies_alba_pyramidalis/small/49255769768_df55596553_b.jpg","thumbnail":"https://perenual.com/storage/species_image/2_abies_alba_pyramidalis/thumbnail/49255769768_df55596553_b.jpg"}},{"id":869,"common_name":"columbine","scientific_name":["Aquilegia caerulea"],"other_name":null,"cycle":"Perennial","watering":"Average","sunlight":["Full sun","part shade"],"default_image":{"image_id":9,"license":5,"license_name":"Attribution-ShareAlike License","license_url":"https://creativecommons.org/licenses/by-sa/2.0/","original_url":"https://perenual.com/storage/species_image/2_abies_alba_pyramidalis/og/49255769768_df55596553_b.jpg","regular_url":"https://perenual.com/storage/species_image/2_abies_alba_pyramidalis/regular/49255769768_df55596553_b.jpg","medium_url":"https://perenual.com/storage/species_image/2_abies_alba_pyramidalis/medium/49255769768_df55596553_b.jpg","small_url":"https://perenual.com/storage/species_image/2_abies_alba_pyramidalis/small/49255769768_df55596553_b.jpg","thumbnail":"https://perenual.com/storage/species_image/2_abies_alba_pyramidalis/thumbnail/49255769768_df55596553_b.jpg"}},{"id":870,"common_name":"columbine","scientific_name":["Aquilegia caerulea 'Rotstern'"],"other_name":null,"cycle":"Perennial","watering":"Average","sunlight":["Full sun","part shade"],"default_image":{"image_id":9,"license":5,"license_name":"Attribution-ShareAlike License","license_url":"https://creativecommons.org/licenses/by-sa/2.0/","original_url":"https://perenual.com/storage/species_image/2_abies_alba_pyramidalis/og/49255769768_df55596553_b.jpg","regular_url":"https://perenual.com/storage/species_image/2_abies_alba_pyramidalis/regular/49255769768_df55596553_b.jpg","medium_url":"https://perenual.com/storage/species_image/2_abies_alba_pyramidalis/medium/49255769768_df55596553_b.jpg","small_url":"https://perenual.com/storage/species_image/2_abies_alba_pyramidalis/small/49255769768_df55596553_b.jpg","thumbnail":"https://perenual.com/storage/species_image/2_abies_alba_pyramidalis/thumbnail/49255769768_df55596553_b.jpg"}}],"to":870,"per_page":30,"current_page":29,"from":841,"last_page":200,"total":6000}