{"data":[{"id":1171,"common_name":"false indigo","scientific_name":["Baptisia bracteata"],"other_name":null,"cycle":"Perennial","watering":"Minimum","sunlight":["Full sun","part shade"],"default_image":{"image_id":2777,"license":5,"license_name":"Attribution-ShareAlike License","license_url":"https://creativecommons.org/licenses/by-sa/2.0/","original_url":"https://perenual.com/storage/species_image/1171_baptisia_bracteata/og/25701360446_48dd9f0f72_b.jpg","regular_url":"https://perenual.com/storage/species_image/1171_baptisia_bracteata/regular/25701360446_48dd9f0f72_b.jpg","medium_url":"https://perenual.com/storage/species_image/1171_baptisia_bracteata/medium/25701360446_48dd9f0f72_b.jpg","small_url":"https://perenual.com/storage/species_image/1171_baptisia_bracteata/small/25701360446_48dd9f0f72_b.jpg","thumbnail":"https://perenual.com/storage/species_image/1171_baptisia_bracteata/thumbnail/25701360446_48dd9f0f72_b.jpg"}},{"id":1172,"common_name":"false indigo","scientific_name":["Baptisia bracteata var. leucophaea"],"other_name":null,"cycle":"Perennial","watering":"Minimum","sunlight":["Full sun"],"default_image":{"image_id":9,"license":5,"license_name":"Attribution-ShareAlike License","license_url":"https://creativecommons.org/licenses/by-sa/2.0/","original_url":"https://perenual.com/storage/species_image/2_abies_alba_pyramidalis/og/49255769768_df55596553_b.jpg","regular_url":"https://perenual.com/storage/species_image/2_abies_alba_pyramidalis/regular/49255769768_df55596553_b.jpg","medium_url":"https://perenual.com/storage/species_image/2_abies_alba_pyramidalis/medium/49255769768_df55596553_b.jpg","small_url":"https://perenual.com/storage/species_image/2_abies_alba_pyramidalis/small/49255769768_df55596553_b.jpg","thumbnail":"https://perenual.com/storage/species_image/2_abies_alba_pyramidalis/thumbnail/49255769768_df55596553_b.jpg"}},{"id":1173,"common_name":"false indigo","scientific_name":["Baptisia 'Carolina Moonlight'"],"other_name":null,"cycle":"Perennial","watering":"Minimum","sunlight":["Full sun","part shade"],"default_image":{"image_id":2786,"license":5,"license_name":"Attribution-ShareAlike License","license_url":"https://creativecommons.org/licenses/by-sa/2.0/","original_url":"https://perenual.com/storage/species_image/1178_baptisia_lemon_meringue/og/51209560548_c6356f9da2_b.jpg","regular_url":"https://perenual.com/storage/species_image/1178_baptisia_lemon_meringue/regular/51209560548_c6356f9da2_b.jpg","medium_url":"https://perenual.com/storage/species_image/1178_baptisia_lemon_meringue/medium/51209560548_c6356f9da2_b.jpg","small_url":"https://perenual.com/storage/species_image/1178_baptisia_lemon_meringue/small/51209560548_c6356f9da2_b.jpg","thumbnail":"https://perenual.com/storage/species_image/1178_baptisia_lemon_meringue/thumbnail/51209560548_c6356f9da2_b.jpg"}},{"id":1174,"common_name":"false indigo","scientific_name":["Baptisia 'Chocolate Chip'"],"other_name":null,"cycle":"Perennial","watering":"Minimum","sunlight":["Full sun","part shade"],"default_image":{"image_id":2788,"license":5,"license_name":"Attribution-ShareAlike License","license_url":"https://creativecommons.org/licenses/by-sa/2.0/","original_url":"https://perenual.com/storage/species_image/1175_baptisia_dutch_chocolate/og/52134217423_4372578108_b.jpg","regular_url":"https://perenual.com/storage/species_image/1175_baptisia_dutch_chocolate/regular/52134217423_4372578108_b.jpg","medium_url":"https://perenual.com/storage/species_image/1175_baptisia_dutch_chocolate/medium/52134217423_4372578108_b.jpg","small_url":"https://perenual.com/storage/species_image/1175_baptisia_dutch_chocolate/small/52134217423_4372578108_b.jpg","thumbnail":"https://perenual.com/storage/species_image/1175_baptisia_dutch_chocolate/thumbnail/52134217423_4372578108_b.jpg"}},{"id":1175,"common_name":"false indigo","scientific_name":["Baptisia 'Dutch Chocolate'"],"other_name":null,"cycle":"Perennial","watering":"Minimum","sunlight":["Full sun","part shade"],"default_image":{"image_id":2789,"license":5,"license_name":"Attribution-ShareAlike License","license_url":"https://creativecommons.org/licenses/by-sa/2.0/","original_url":"https://perenual.com/storage/species_image/1175_baptisia_dutch_chocolate/og/52134217753_e0fb70989a_b.jpg","regular_url":"https://perenual.com/storage/species_image/1175_baptisia_dutch_chocolate/regular/52134217753_e0fb70989a_b.jpg","medium_url":"https://perenual.com/storage/species_image/1175_baptisia_dutch_chocolate/medium/52134217753_e0fb70989a_b.jpg","small_url":"https://perenual.com/storage/species_image/1175_baptisia_dutch_chocolate/small/52134217753_e0fb70989a_b.jpg","thumbnail":"https://perenual.com/storage/species_image/1175_baptisia_dutch_chocolate/thumbnail/52134217753_e0fb70989a_b.jpg"}},{"id":1176,"common_name":"false indigo","scientific_name":["Baptisia 'Ivory Towers'"],"other_name":null,"cycle":"Perennial","watering":"Minimum","sunlight":["Full sun","part shade"],"default_image":{"image_id":21992,"license":2,"license_name":null,"license_url":null,"original_url":"https://perenual.com/storage/species_image/1176_baptisia_ivory_towers/og/52149370835_27288673e4_b.jpg","regular_url":"https://perenual.com/storage/species_image/1176_baptisia_ivory_towers/regular/52149370835_27288673e4_b.jpg","medium_url":"https://perenual.com/storage/species_image/1176_baptisia_ivory_towers/medium/52149370835_27288673e4_b.jpg","small_url":"https://perenual.com/storage/species_image/1176_baptisia_ivory_towers/small/52149370835_27288673e4_b.jpg","thumbnail":"https://perenual.com/storage/species_image/1176_baptisia_ivory_towers/thumbnail/52149370835_27288673e4_b.jpg"}},{"id":1177,"common_name":"gopherweed","scientific_name":["Baptisia lanceolata"],"other_name":null,"cycle":"Perennial","watering":"Minimum","sunlight":["Full sun"],"default_image":{"image_id":9,"license":5,"license_name":"Attribution-ShareAlike License","license_url":"https://creativecommons.org/licenses/by-sa/2.0/","original_url":"https://perenual.com/storage/species_image/2_abies_alba_pyramidalis/og/49255769768_df55596553_b.jpg","regular_url":"https://perenual.com/storage/species_image/2_abies_alba_pyramidalis/regular/49255769768_df55596553_b.jpg","medium_url":"https://perenual.com/storage/species_image/2_abies_alba_pyramidalis/medium/49255769768_df55596553_b.jpg","small_url":"https://perenual.com/storage/species_image/2_abies_alba_pyramidalis/small/49255769768_df55596553_b.jpg","thumbnail":"https://perenual.com/storage/species_image/2_abies_alba_pyramidalis/thumbnail/49255769768_df55596553_b.jpg"}},{"id":1178,"common_name":"false indigo","scientific_name":["Baptisia 'Lemon Meringue'"],"other_name":null,"cycle":"Perennial","watering":"Minimum","sunlight":["Full sun","part shade"],"default_image":{"image_id":2786,"license":5,"license_name":"Attribution-ShareAlike License","license_url":"https://creativecommons.org/licenses/by-sa/2.0/","original_url":"https://perenual.com/storage/species_image/1178_baptisia_lemon_meringue/og/51209560548_c6356f9da2_b.jpg","regular_url":"https://perenual.com/storage/species_image/1178_baptisia_lemon_meringue/regular/51209560548_c6356f9da2_b.jpg","medium_url":"https://perenual.com/storage/species_image/1178_baptisia_lemon_meringue/medium/51209560548_c6356f9da2_b.jpg","small_url":"https://perenual.com/storage/species_image/1178_baptisia_lemon_meringue/small/51209560548_c6356f9da2_b.jpg","thumbnail":"https://perenual.com/storage/species_image/1178_baptisia_lemon_meringue/thumbnail/51209560548_c6356f9da2_b.jpg"}},{"id":1179,"common_name":"false indigo","scientific_name":["Baptisia 'Lunar Eclipse'"],"other_name":null,"cycle":"Perennial","watering":"Minimum","sunlight":["Full sun","part shade"],"default_image":{"image_id":9,"license":5,"license_name":"Attribution-ShareAlike License","license_url":"https://creativecommons.org/licenses/by-sa/2.0/","original_url":"https://perenual.com/storage/species_image/2_abies_alba_pyramidalis/og/49255769768_df55596553_b.jpg","regular_url":"https://perenual.com/storage/species_image/2_abies_alba_pyramidalis/regular/49255769768_df55596553_b.jpg","medium_url":"https://perenual.com/storage/species_image/2_abies_alba_pyramidalis/medium/49255769768_df55596553_b.jpg","small_url":"https://perenual.com/storage/species_image/2_abies_alba_pyramidalis/small/49255769768_df55596553_b.jpg","thumbnail":"https://perenual.com/storage/species_image/2_abies_alba_pyramidalis/thumbnail/49255769768_df55596553_b.jpg"}},{"id":1180,"common_name":"false indigo","scientific_name":["Baptisia perfoliata"],"other_name":null,"cycle":"Perennial","watering":"Minimum","sunlight":["Full sun"],"default_image":{"image_id":9,"license":5,"license_name":"Attribution-ShareAlike License","license_url":"https://creativecommons.org/licenses/by-sa/2.0/","original_url":"https://perenual.com/storage/species_image/2_abies_alba_pyramidalis/og/49255769768_df55596553_b.jpg","regular_url":"https://perenual.com/storage/species_image/2_abies_alba_pyramidalis/regular/49255769768_df55596553_b.jpg","medium_url":"https://perenual.com/storage/species_image/2_abies_alba_pyramidalis/medium/49255769768_df55596553_b.jpg","small_url":"https://perenual.com/storage/species_image/2_abies_alba_pyramidalis/small/49255769768_df55596553_b.jpg","thumbnail":"https://perenual.com/storage/species_image/2_abies_alba_pyramidalis/thumbnail/49255769768_df55596553_b.jpg"}},{"id":1181,"common_name":"false indigo","scientific_name":["Baptisia 'Pink Lemonade' DECADENCE DELUXE"],"other_name":null,"cycle":"Perennial","watering":"Minimum","sunlight":["Full sun","part shade"],"default_image":{"image_id":21993,"license":2,"license_name":null,"license_url":null,"original_url":"https://perenual.com/storage/species_image/1181_baptisia_pink_lemonade_decadence_deluxe/og/52147854992_1210d97c9d_b.jpg","regular_url":"https://perenual.com/storage/species_image/1181_baptisia_pink_lemonade_decadence_deluxe/regular/52147854992_1210d97c9d_b.jpg","medium_url":"https://perenual.com/storage/species_image/1181_baptisia_pink_lemonade_decadence_deluxe/medium/52147854992_1210d97c9d_b.jpg","small_url":"https://perenual.com/storage/species_image/1181_baptisia_pink_lemonade_decadence_deluxe/small/52147854992_1210d97c9d_b.jpg","thumbnail":"https://perenual.com/storage/species_image/1181_baptisia_pink_lemonade_decadence_deluxe/thumbnail/52147854992_1210d97c9d_b.jpg"}},{"id":1182,"common_name":"false indigo","scientific_name":["Baptisia 'Purple Smoke'"],"other_name":null,"cycle":"Perennial","watering":"Minimum","sunlight":["Full sun","part shade"],"default_image":{"image_id":2771,"license":5,"license_name":"Attribution-ShareAlike License","license_url":"https://creativecommons.org/licenses/by-sa/2.0/","original_url":"https://perenual.com/storage/species_image/1182_baptisia_purple_smoke/og/51205322451_f6b6013be3_b.jpg","regular_url":"https://perenual.com/storage/species_image/1182_baptisia_purple_smoke/regular/51205322451_f6b6013be3_b.jpg","medium_url":"https://perenual.com/storage/species_image/1182_baptisia_purple_smoke/medium/51205322451_f6b6013be3_b.jpg","small_url":"https://perenual.com/storage/species_image/1182_baptisia_purple_smoke/small/51205322451_f6b6013be3_b.jpg","thumbnail":"https://perenual.com/storage/species_image/1182_baptisia_purple_smoke/thumbnail/51205322451_f6b6013be3_b.jpg"}},{"id":1183,"common_name":"yellow wild indigo","scientific_name":["Baptisia sphaerocarpa"],"other_name":null,"cycle":"Perennial","watering":"Minimum","sunlight":["Full sun","part shade"],"default_image":{"image_id":2799,"license":5,"license_name":"Attribution-ShareAlike License","license_url":"https://creativecommons.org/licenses/by-sa/2.0/","original_url":"https://perenual.com/storage/species_image/1184_baptisia_sphaerocarpa_screamin_yellow/og/52116433717_1b587e2438_b.jpg","regular_url":"https://perenual.com/storage/species_image/1184_baptisia_sphaerocarpa_screamin_yellow/regular/52116433717_1b587e2438_b.jpg","medium_url":"https://perenual.com/storage/species_image/1184_baptisia_sphaerocarpa_screamin_yellow/medium/52116433717_1b587e2438_b.jpg","small_url":"https://perenual.com/storage/species_image/1184_baptisia_sphaerocarpa_screamin_yellow/small/52116433717_1b587e2438_b.jpg","thumbnail":"https://perenual.com/storage/species_image/1184_baptisia_sphaerocarpa_screamin_yellow/thumbnail/52116433717_1b587e2438_b.jpg"}},{"id":1184,"common_name":"yellow wild indigo","scientific_name":["Baptisia sphaerocarpa 'Screamin' Yellow'"],"other_name":null,"cycle":"Perennial","watering":"Minimum","sunlight":["Full sun","part shade"],"default_image":{"image_id":2800,"license":5,"license_name":"Attribution-ShareAlike License","license_url":"https://creativecommons.org/licenses/by-sa/2.0/","original_url":"https://perenual.com/storage/species_image/1184_baptisia_sphaerocarpa_screamin_yellow/og/51206653276_b7d7112a95_b.jpg","regular_url":"https://perenual.com/storage/species_image/1184_baptisia_sphaerocarpa_screamin_yellow/regular/51206653276_b7d7112a95_b.jpg","medium_url":"https://perenual.com/storage/species_image/1184_baptisia_sphaerocarpa_screamin_yellow/medium/51206653276_b7d7112a95_b.jpg","small_url":"https://perenual.com/storage/species_image/1184_baptisia_sphaerocarpa_screamin_yellow/small/51206653276_b7d7112a95_b.jpg","thumbnail":"https://perenual.com/storage/species_image/1184_baptisia_sphaerocarpa_screamin_yellow/thumbnail/51206653276_b7d7112a95_b.jpg"}},{"id":1185,"common_name":"wild indigo","scientific_name":["Baptisia tinctoria"],"other_name":["Horseflyweed"],"cycle":"Perennial","watering":"Minimum","sunlight":["Sun"],"default_image":{"image_id":9,"license":5,"license_name":"Attribution-ShareAlike License","license_url":"https://creativecommons.org/licenses/by-sa/2.0/","original_url":"https://perenual.com/storage/species_image/2_abies_alba_pyramidalis/og/49255769768_df55596553_b.jpg","regular_url":"https://perenual.com/storage/species_image/2_abies_alba_pyramidalis/regular/49255769768_df55596553_b.jpg","medium_url":"https://perenual.com/storage/species_image/2_abies_alba_pyramidalis/medium/49255769768_df55596553_b.jpg","small_url":"https://perenual.com/storage/species_image/2_abies_alba_pyramidalis/small/49255769768_df55596553_b.jpg","thumbnail":"https://perenual.com/storage/species_image/2_abies_alba_pyramidalis/thumbnail/49255769768_df55596553_b.jpg"}},{"id":1186,"common_name":"false indigo","scientific_name":["Baptisia variicolor 'Twilite' TWILITE PRAIRIEBLUES"],"other_name":null,"cycle":"Perennial","watering":"Minimum","sunlight":["Full sun","part shade"],"default_image":{"image_id":2808,"license":5,"license_name":"Attribution-ShareAlike License","license_url":"https://creativecommons.org/licenses/by-sa/2.0/","original_url":"https://perenual.com/storage/species_image/1186_baptisia_variicolor_twilite_twilite_prairieblues/og/52132108364_a2af32d502_b.jpg","regular_url":"https://perenual.com/storage/species_image/1186_baptisia_variicolor_twilite_twilite_prairieblues/regular/52132108364_a2af32d502_b.jpg","medium_url":"https://perenual.com/storage/species_image/1186_baptisia_variicolor_twilite_twilite_prairieblues/medium/52132108364_a2af32d502_b.jpg","small_url":"https://perenual.com/storage/species_image/1186_baptisia_variicolor_twilite_twilite_prairieblues/small/52132108364_a2af32d502_b.jpg","thumbnail":"https://perenual.com/storage/species_image/1186_baptisia_variicolor_twilite_twilite_prairieblues/thumbnail/52132108364_a2af32d502_b.jpg"}},{"id":1187,"common_name":"Philippine violet","scientific_name":["Barleria cristata"],"other_name":null,"cycle":"Perennial","watering":"Minimum","sunlight":["Full sun","part shade"],"default_image":{"image_id":2813,"license":5,"license_name":"Attribution-ShareAlike License","license_url":"https://creativecommons.org/licenses/by-sa/2.0/","original_url":"https://perenual.com/storage/species_image/1187_barleria_cristata/og/9200963340_9b0094a844_b.jpg","regular_url":"https://perenual.com/storage/species_image/1187_barleria_cristata/regular/9200963340_9b0094a844_b.jpg","medium_url":"https://perenual.com/storage/species_image/1187_barleria_cristata/medium/9200963340_9b0094a844_b.jpg","small_url":"https://perenual.com/storage/species_image/1187_barleria_cristata/small/9200963340_9b0094a844_b.jpg","thumbnail":"https://perenual.com/storage/species_image/1187_barleria_cristata/thumbnail/9200963340_9b0094a844_b.jpg"}},{"id":1188,"common_name":"Malabar spinach","scientific_name":["Basella alba"],"other_name":null,"cycle":"Perennial","watering":"Average","sunlight":["Full sun"],"default_image":{"image_id":9,"license":5,"license_name":"Attribution-ShareAlike License","license_url":"https://creativecommons.org/licenses/by-sa/2.0/","original_url":"https://perenual.com/storage/species_image/2_abies_alba_pyramidalis/og/49255769768_df55596553_b.jpg","regular_url":"https://perenual.com/storage/species_image/2_abies_alba_pyramidalis/regular/49255769768_df55596553_b.jpg","medium_url":"https://perenual.com/storage/species_image/2_abies_alba_pyramidalis/medium/49255769768_df55596553_b.jpg","small_url":"https://perenual.com/storage/species_image/2_abies_alba_pyramidalis/small/49255769768_df55596553_b.jpg","thumbnail":"https://perenual.com/storage/species_image/2_abies_alba_pyramidalis/thumbnail/49255769768_df55596553_b.jpg"}},{"id":1189,"common_name":"Ceylon spinach","scientific_name":["Basella rubra 'Red Stem'"],"other_name":null,"cycle":"Perennial","watering":"Average","sunlight":["Full sun"],"default_image":{"image_id":2817,"license":4,"license_name":"Attribution License","license_url":"https://creativecommons.org/licenses/by/2.0/","original_url":"https://perenual.com/storage/species_image/1189_basella_rubra_red_stem/og/24603734219_d4ea98b0cc_b.jpg","regular_url":"https://perenual.com/storage/species_image/1189_basella_rubra_red_stem/regular/24603734219_d4ea98b0cc_b.jpg","medium_url":"https://perenual.com/storage/species_image/1189_basella_rubra_red_stem/medium/24603734219_d4ea98b0cc_b.jpg","small_url":"https://perenual.com/storage/species_image/1189_basella_rubra_red_stem/small/24603734219_d4ea98b0cc_b.jpg","thumbnail":"https://perenual.com/storage/species_image/1189_basella_rubra_red_stem/thumbnail/24603734219_d4ea98b0cc_b.jpg"}},{"id":1190,"common_name":"burning bush","scientific_name":["Bassia scoparia f. trichophylla"],"other_name":null,"cycle":"Perennial","watering":"Average","sunlight":[],"default_image":{"image_id":21003,"license":45,"license_name":"Attribution-ShareAlike 3.0 Unported (CC BY-SA 3.0)","license_url":"https://creativecommons.org/licenses/by-sa/3.0/deed.en","original_url":"https://perenual.com/storage/species_image/1190_bassia_scoparia_f_trichophylla/og/Kochia_aka_Fire_bush_7128.jpg","regular_url":"https://perenual.com/storage/species_image/1190_bassia_scoparia_f_trichophylla/regular/Kochia_aka_Fire_bush_7128.jpg","medium_url":"https://perenual.com/storage/species_image/1190_bassia_scoparia_f_trichophylla/medium/Kochia_aka_Fire_bush_7128.jpg","small_url":"https://perenual.com/storage/species_image/1190_bassia_scoparia_f_trichophylla/small/Kochia_aka_Fire_bush_7128.jpg","thumbnail":"https://perenual.com/storage/species_image/1190_bassia_scoparia_f_trichophylla/thumbnail/Kochia_aka_Fire_bush_7128.jpg"}},{"id":1191,"common_name":"Hong Kong orchid tree","scientific_name":["Bauhinia blakeana"],"other_name":null,"cycle":"Perennial","watering":"Average","sunlight":["Full sun","part shade"],"default_image":{"image_id":9,"license":5,"license_name":"Attribution-ShareAlike License","license_url":"https://creativecommons.org/licenses/by-sa/2.0/","original_url":"https://perenual.com/storage/species_image/2_abies_alba_pyramidalis/og/49255769768_df55596553_b.jpg","regular_url":"https://perenual.com/storage/species_image/2_abies_alba_pyramidalis/regular/49255769768_df55596553_b.jpg","medium_url":"https://perenual.com/storage/species_image/2_abies_alba_pyramidalis/medium/49255769768_df55596553_b.jpg","small_url":"https://perenual.com/storage/species_image/2_abies_alba_pyramidalis/small/49255769768_df55596553_b.jpg","thumbnail":"https://perenual.com/storage/species_image/2_abies_alba_pyramidalis/thumbnail/49255769768_df55596553_b.jpg"}},{"id":1192,"common_name":"ponytail palm","scientific_name":["Beaucarnea recurvata"],"other_name":null,"cycle":"Perennial","watering":"Minimum","sunlight":["Part sun/part shade"],"default_image":{"image_id":2823,"license":4,"license_name":"Attribution License","license_url":"https://creativecommons.org/licenses/by/2.0/","original_url":"https://perenual.com/storage/species_image/1192_beaucarnea_recurvata/og/51792797390_1b15a8415d_b.jpg","regular_url":"https://perenual.com/storage/species_image/1192_beaucarnea_recurvata/regular/51792797390_1b15a8415d_b.jpg","medium_url":"https://perenual.com/storage/species_image/1192_beaucarnea_recurvata/medium/51792797390_1b15a8415d_b.jpg","small_url":"https://perenual.com/storage/species_image/1192_beaucarnea_recurvata/small/51792797390_1b15a8415d_b.jpg","thumbnail":"https://perenual.com/storage/species_image/1192_beaucarnea_recurvata/thumbnail/51792797390_1b15a8415d_b.jpg"}},{"id":1193,"common_name":"beesia","scientific_name":["Beesia deltophylla"],"other_name":null,"cycle":"Perennial","watering":"Average","sunlight":["Part shade","full shade"],"default_image":{"image_id":2828,"license":5,"license_name":"Attribution-ShareAlike License","license_url":"https://creativecommons.org/licenses/by-sa/2.0/","original_url":"https://perenual.com/storage/species_image/1193_beesia_deltophylla/og/7246439522_8b7c73cb31_b.jpg","regular_url":"https://perenual.com/storage/species_image/1193_beesia_deltophylla/regular/7246439522_8b7c73cb31_b.jpg","medium_url":"https://perenual.com/storage/species_image/1193_beesia_deltophylla/medium/7246439522_8b7c73cb31_b.jpg","small_url":"https://perenual.com/storage/species_image/1193_beesia_deltophylla/small/7246439522_8b7c73cb31_b.jpg","thumbnail":"https://perenual.com/storage/species_image/1193_beesia_deltophylla/thumbnail/7246439522_8b7c73cb31_b.jpg"}},{"id":1194,"common_name":"begonia","scientific_name":["Begonia 'Art Hodes'"],"other_name":null,"cycle":"Perennial","watering":"Average","sunlight":["Full sun","part shade"],"default_image":{"image_id":9,"license":5,"license_name":"Attribution-ShareAlike License","license_url":"https://creativecommons.org/licenses/by-sa/2.0/","original_url":"https://perenual.com/storage/species_image/2_abies_alba_pyramidalis/og/49255769768_df55596553_b.jpg","regular_url":"https://perenual.com/storage/species_image/2_abies_alba_pyramidalis/regular/49255769768_df55596553_b.jpg","medium_url":"https://perenual.com/storage/species_image/2_abies_alba_pyramidalis/medium/49255769768_df55596553_b.jpg","small_url":"https://perenual.com/storage/species_image/2_abies_alba_pyramidalis/small/49255769768_df55596553_b.jpg","thumbnail":"https://perenual.com/storage/species_image/2_abies_alba_pyramidalis/thumbnail/49255769768_df55596553_b.jpg"}},{"id":1195,"common_name":"begonia","scientific_name":["Begonia benariensis BIG SERIES"],"other_name":null,"cycle":"Perennial","watering":"Average","sunlight":["Full sun","part shade"],"default_image":{"image_id":2829,"license":5,"license_name":"Attribution-ShareAlike License","license_url":"https://creativecommons.org/licenses/by-sa/2.0/","original_url":"https://perenual.com/storage/species_image/1195_begonia_benariensis_big_series/og/51286779053_5a7aca2a7b_b.jpg","regular_url":"https://perenual.com/storage/species_image/1195_begonia_benariensis_big_series/regular/51286779053_5a7aca2a7b_b.jpg","medium_url":"https://perenual.com/storage/species_image/1195_begonia_benariensis_big_series/medium/51286779053_5a7aca2a7b_b.jpg","small_url":"https://perenual.com/storage/species_image/1195_begonia_benariensis_big_series/small/51286779053_5a7aca2a7b_b.jpg","thumbnail":"https://perenual.com/storage/species_image/1195_begonia_benariensis_big_series/thumbnail/51286779053_5a7aca2a7b_b.jpg"}},{"id":1196,"common_name":"begonia","scientific_name":["Begonia 'Bepared' DRAGON WING RED"],"other_name":null,"cycle":"Perennial","watering":"Average","sunlight":["Part shade","full shade"],"default_image":{"image_id":2831,"license":5,"license_name":"Attribution-ShareAlike License","license_url":"https://creativecommons.org/licenses/by-sa/2.0/","original_url":"https://perenual.com/storage/species_image/1196_begonia_bepared_dragon_wing_red/og/52542250837_647bf91a34_b.jpg","regular_url":"https://perenual.com/storage/species_image/1196_begonia_bepared_dragon_wing_red/regular/52542250837_647bf91a34_b.jpg","medium_url":"https://perenual.com/storage/species_image/1196_begonia_bepared_dragon_wing_red/medium/52542250837_647bf91a34_b.jpg","small_url":"https://perenual.com/storage/species_image/1196_begonia_bepared_dragon_wing_red/small/52542250837_647bf91a34_b.jpg","thumbnail":"https://perenual.com/storage/species_image/1196_begonia_bepared_dragon_wing_red/thumbnail/52542250837_647bf91a34_b.jpg"}},{"id":1197,"common_name":"begonia","scientific_name":["Begonia boliviensis BOSSA NOVA RED"],"other_name":null,"cycle":"Perennial","watering":"Average","sunlight":["Part shade"],"default_image":{"image_id":2832,"license":4,"license_name":"Attribution License","license_url":"https://creativecommons.org/licenses/by/2.0/","original_url":"https://perenual.com/storage/species_image/1213_begonia_penny_lahn/og/52496552436_073086053b_b.jpg","regular_url":"https://perenual.com/storage/species_image/1213_begonia_penny_lahn/regular/52496552436_073086053b_b.jpg","medium_url":"https://perenual.com/storage/species_image/1213_begonia_penny_lahn/medium/52496552436_073086053b_b.jpg","small_url":"https://perenual.com/storage/species_image/1213_begonia_penny_lahn/small/52496552436_073086053b_b.jpg","thumbnail":"https://perenual.com/storage/species_image/1213_begonia_penny_lahn/thumbnail/52496552436_073086053b_b.jpg"}},{"id":1198,"common_name":"begonia","scientific_name":["Begonia 'Canary Wing'"],"other_name":null,"cycle":"Perennial","watering":"Average","sunlight":["Part shade"],"default_image":{"image_id":2834,"license":4,"license_name":"Attribution License","license_url":"https://creativecommons.org/licenses/by/2.0/","original_url":"https://perenual.com/storage/species_image/1198_begonia_canary_wing/og/48860938088_382c518a2b_b.jpg","regular_url":"https://perenual.com/storage/species_image/1198_begonia_canary_wing/regular/48860938088_382c518a2b_b.jpg","medium_url":"https://perenual.com/storage/species_image/1198_begonia_canary_wing/medium/48860938088_382c518a2b_b.jpg","small_url":"https://perenual.com/storage/species_image/1198_begonia_canary_wing/small/48860938088_382c518a2b_b.jpg","thumbnail":"https://perenual.com/storage/species_image/1198_begonia_canary_wing/thumbnail/48860938088_382c518a2b_b.jpg"}},{"id":1199,"common_name":"begonia","scientific_name":["Begonia 'Casper'"],"other_name":null,"cycle":"Perennial","watering":"Average","sunlight":["Part shade","full shade"],"default_image":{"image_id":2835,"license":5,"license_name":"Attribution-ShareAlike License","license_url":"https://creativecommons.org/licenses/by-sa/2.0/","original_url":"https://perenual.com/storage/species_image/1219_begonia_semperflorens-cultorum_harmony_scarlet/og/52423452233_02b4dc198b_b.jpg","regular_url":"https://perenual.com/storage/species_image/1219_begonia_semperflorens-cultorum_harmony_scarlet/regular/52423452233_02b4dc198b_b.jpg","medium_url":"https://perenual.com/storage/species_image/1219_begonia_semperflorens-cultorum_harmony_scarlet/medium/52423452233_02b4dc198b_b.jpg","small_url":"https://perenual.com/storage/species_image/1219_begonia_semperflorens-cultorum_harmony_scarlet/small/52423452233_02b4dc198b_b.jpg","thumbnail":"https://perenual.com/storage/species_image/1219_begonia_semperflorens-cultorum_harmony_scarlet/thumbnail/52423452233_02b4dc198b_b.jpg"}},{"id":1200,"common_name":"begonia","scientific_name":["Begonia 'Curly Fireflush'"],"other_name":null,"cycle":"Perennial","watering":"Average","sunlight":["Full sun","part shade"],"default_image":{"image_id":9,"license":5,"license_name":"Attribution-ShareAlike License","license_url":"https://creativecommons.org/licenses/by-sa/2.0/","original_url":"https://perenual.com/storage/species_image/2_abies_alba_pyramidalis/og/49255769768_df55596553_b.jpg","regular_url":"https://perenual.com/storage/species_image/2_abies_alba_pyramidalis/regular/49255769768_df55596553_b.jpg","medium_url":"https://perenual.com/storage/species_image/2_abies_alba_pyramidalis/medium/49255769768_df55596553_b.jpg","small_url":"https://perenual.com/storage/species_image/2_abies_alba_pyramidalis/small/49255769768_df55596553_b.jpg","thumbnail":"https://perenual.com/storage/species_image/2_abies_alba_pyramidalis/thumbnail/49255769768_df55596553_b.jpg"}}],"to":1200,"per_page":30,"current_page":40,"from":1171,"last_page":200,"total":6000}