{"data":[{"id":2371,"common_name":"deutzia","scientific_name":["Deutzia hybrida 'Perle Rose'"],"other_name":null,"cycle":"Perennial","watering":"Average","sunlight":["Full sun","part shade"],"default_image":{"image_id":5493,"license":4,"license_name":"Attribution License","license_url":"https://creativecommons.org/licenses/by/2.0/","original_url":"https://perenual.com/storage/species_image/2371_deutzia_hybrida_perle_rose/og/51296001477_d4cf6e5ca6_b.jpg","regular_url":"https://perenual.com/storage/species_image/2371_deutzia_hybrida_perle_rose/regular/51296001477_d4cf6e5ca6_b.jpg","medium_url":"https://perenual.com/storage/species_image/2371_deutzia_hybrida_perle_rose/medium/51296001477_d4cf6e5ca6_b.jpg","small_url":"https://perenual.com/storage/species_image/2371_deutzia_hybrida_perle_rose/small/51296001477_d4cf6e5ca6_b.jpg","thumbnail":"https://perenual.com/storage/species_image/2371_deutzia_hybrida_perle_rose/thumbnail/51296001477_d4cf6e5ca6_b.jpg"}},{"id":2372,"common_name":"deutzia","scientific_name":["Deutzia hybrida 'Strawberry Fields'"],"other_name":null,"cycle":"Perennial","watering":"Average","sunlight":["Full sun","part shade"],"default_image":{"image_id":5494,"license":5,"license_name":"Attribution-ShareAlike License","license_url":"https://creativecommons.org/licenses/by-sa/2.0/","original_url":"https://perenual.com/storage/species_image/2372_deutzia_hybrida_strawberry_fields/og/50607962756_ac2623be31_b.jpg","regular_url":"https://perenual.com/storage/species_image/2372_deutzia_hybrida_strawberry_fields/regular/50607962756_ac2623be31_b.jpg","medium_url":"https://perenual.com/storage/species_image/2372_deutzia_hybrida_strawberry_fields/medium/50607962756_ac2623be31_b.jpg","small_url":"https://perenual.com/storage/species_image/2372_deutzia_hybrida_strawberry_fields/small/50607962756_ac2623be31_b.jpg","thumbnail":"https://perenual.com/storage/species_image/2372_deutzia_hybrida_strawberry_fields/thumbnail/50607962756_ac2623be31_b.jpg"}},{"id":2373,"common_name":"deutzia","scientific_name":["Deutzia magnifica"],"other_name":null,"cycle":"Perennial","watering":"Average","sunlight":["Full sun","part shade"],"default_image":{"image_id":9,"license":5,"license_name":"Attribution-ShareAlike License","license_url":"https://creativecommons.org/licenses/by-sa/2.0/","original_url":"https://perenual.com/storage/species_image/2_abies_alba_pyramidalis/og/49255769768_df55596553_b.jpg","regular_url":"https://perenual.com/storage/species_image/2_abies_alba_pyramidalis/regular/49255769768_df55596553_b.jpg","medium_url":"https://perenual.com/storage/species_image/2_abies_alba_pyramidalis/medium/49255769768_df55596553_b.jpg","small_url":"https://perenual.com/storage/species_image/2_abies_alba_pyramidalis/small/49255769768_df55596553_b.jpg","thumbnail":"https://perenual.com/storage/species_image/2_abies_alba_pyramidalis/thumbnail/49255769768_df55596553_b.jpg"}},{"id":2374,"common_name":"deutzia","scientific_name":["Deutzia 'NCDX2' YUKI CHERRY BLOSSOM"],"other_name":null,"cycle":"Perennial","watering":"Average","sunlight":["Full sun","part shade"],"default_image":{"image_id":9,"license":5,"license_name":"Attribution-ShareAlike License","license_url":"https://creativecommons.org/licenses/by-sa/2.0/","original_url":"https://perenual.com/storage/species_image/2_abies_alba_pyramidalis/og/49255769768_df55596553_b.jpg","regular_url":"https://perenual.com/storage/species_image/2_abies_alba_pyramidalis/regular/49255769768_df55596553_b.jpg","medium_url":"https://perenual.com/storage/species_image/2_abies_alba_pyramidalis/medium/49255769768_df55596553_b.jpg","small_url":"https://perenual.com/storage/species_image/2_abies_alba_pyramidalis/small/49255769768_df55596553_b.jpg","thumbnail":"https://perenual.com/storage/species_image/2_abies_alba_pyramidalis/thumbnail/49255769768_df55596553_b.jpg"}},{"id":2375,"common_name":"deutzia","scientific_name":["Deutzia rosea"],"other_name":null,"cycle":"Perennial","watering":"Average","sunlight":["Full sun","part shade"],"default_image":{"image_id":5496,"license":4,"license_name":"Attribution License","license_url":"https://creativecommons.org/licenses/by/2.0/","original_url":"https://perenual.com/storage/species_image/8547_deutzia_scabra_pride_of_rochester/og/52116788182_774b59ca91_b.jpg","regular_url":"https://perenual.com/storage/species_image/8547_deutzia_scabra_pride_of_rochester/regular/52116788182_774b59ca91_b.jpg","medium_url":"https://perenual.com/storage/species_image/8547_deutzia_scabra_pride_of_rochester/medium/52116788182_774b59ca91_b.jpg","small_url":"https://perenual.com/storage/species_image/8547_deutzia_scabra_pride_of_rochester/small/52116788182_774b59ca91_b.jpg","thumbnail":"https://perenual.com/storage/species_image/8547_deutzia_scabra_pride_of_rochester/thumbnail/52116788182_774b59ca91_b.jpg"}},{"id":2376,"common_name":"fuzzy deutzia","scientific_name":["Deutzia scabra"],"other_name":null,"cycle":"Perennial","watering":"Average","sunlight":["Full sun","part shade"],"default_image":{"image_id":9,"license":5,"license_name":"Attribution-ShareAlike License","license_url":"https://creativecommons.org/licenses/by-sa/2.0/","original_url":"https://perenual.com/storage/species_image/2_abies_alba_pyramidalis/og/49255769768_df55596553_b.jpg","regular_url":"https://perenual.com/storage/species_image/2_abies_alba_pyramidalis/regular/49255769768_df55596553_b.jpg","medium_url":"https://perenual.com/storage/species_image/2_abies_alba_pyramidalis/medium/49255769768_df55596553_b.jpg","small_url":"https://perenual.com/storage/species_image/2_abies_alba_pyramidalis/small/49255769768_df55596553_b.jpg","thumbnail":"https://perenual.com/storage/species_image/2_abies_alba_pyramidalis/thumbnail/49255769768_df55596553_b.jpg"}},{"id":2377,"common_name":"fuzzy deutzia","scientific_name":["Deutzia scabra 'Candidissima'"],"other_name":null,"cycle":"Perennial","watering":"Average","sunlight":["Full sun","part shade"],"default_image":{"image_id":9,"license":5,"license_name":"Attribution-ShareAlike License","license_url":"https://creativecommons.org/licenses/by-sa/2.0/","original_url":"https://perenual.com/storage/species_image/2_abies_alba_pyramidalis/og/49255769768_df55596553_b.jpg","regular_url":"https://perenual.com/storage/species_image/2_abies_alba_pyramidalis/regular/49255769768_df55596553_b.jpg","medium_url":"https://perenual.com/storage/species_image/2_abies_alba_pyramidalis/medium/49255769768_df55596553_b.jpg","small_url":"https://perenual.com/storage/species_image/2_abies_alba_pyramidalis/small/49255769768_df55596553_b.jpg","thumbnail":"https://perenual.com/storage/species_image/2_abies_alba_pyramidalis/thumbnail/49255769768_df55596553_b.jpg"}},{"id":2378,"common_name":"fuzzy deutzia","scientific_name":["Deutzia scabra 'Codsall Pink'"],"other_name":null,"cycle":"Perennial","watering":"Average","sunlight":["Full sun","part shade"],"default_image":{"image_id":9,"license":5,"license_name":"Attribution-ShareAlike License","license_url":"https://creativecommons.org/licenses/by-sa/2.0/","original_url":"https://perenual.com/storage/species_image/2_abies_alba_pyramidalis/og/49255769768_df55596553_b.jpg","regular_url":"https://perenual.com/storage/species_image/2_abies_alba_pyramidalis/regular/49255769768_df55596553_b.jpg","medium_url":"https://perenual.com/storage/species_image/2_abies_alba_pyramidalis/medium/49255769768_df55596553_b.jpg","small_url":"https://perenual.com/storage/species_image/2_abies_alba_pyramidalis/small/49255769768_df55596553_b.jpg","thumbnail":"https://perenual.com/storage/species_image/2_abies_alba_pyramidalis/thumbnail/49255769768_df55596553_b.jpg"}},{"id":2379,"common_name":"flax lily","scientific_name":["Dianella tasmanica 'Variegata'"],"other_name":null,"cycle":"Perennial","watering":"Minimum","sunlight":["Part shade"],"default_image":{"image_id":5498,"license":4,"license_name":"Attribution License","license_url":"https://creativecommons.org/licenses/by/2.0/","original_url":"https://perenual.com/storage/species_image/2379_dianella_tasmanica_variegata/og/40261611192_73c5eea080_b.jpg","regular_url":"https://perenual.com/storage/species_image/2379_dianella_tasmanica_variegata/regular/40261611192_73c5eea080_b.jpg","medium_url":"https://perenual.com/storage/species_image/2379_dianella_tasmanica_variegata/medium/40261611192_73c5eea080_b.jpg","small_url":"https://perenual.com/storage/species_image/2379_dianella_tasmanica_variegata/small/40261611192_73c5eea080_b.jpg","thumbnail":"https://perenual.com/storage/species_image/2379_dianella_tasmanica_variegata/thumbnail/40261611192_73c5eea080_b.jpg"}},{"id":2380,"common_name":"carnation","scientific_name":["Dianthus (Allwoodii Alpinus Group)"],"other_name":null,"cycle":"Perennial","watering":"Average","sunlight":["Full sun"],"default_image":{"image_id":9,"license":5,"license_name":"Attribution-ShareAlike License","license_url":"https://creativecommons.org/licenses/by-sa/2.0/","original_url":"https://perenual.com/storage/species_image/2_abies_alba_pyramidalis/og/49255769768_df55596553_b.jpg","regular_url":"https://perenual.com/storage/species_image/2_abies_alba_pyramidalis/regular/49255769768_df55596553_b.jpg","medium_url":"https://perenual.com/storage/species_image/2_abies_alba_pyramidalis/medium/49255769768_df55596553_b.jpg","small_url":"https://perenual.com/storage/species_image/2_abies_alba_pyramidalis/small/49255769768_df55596553_b.jpg","thumbnail":"https://perenual.com/storage/species_image/2_abies_alba_pyramidalis/thumbnail/49255769768_df55596553_b.jpg"}},{"id":2381,"common_name":"pink","scientific_name":["Dianthus allwoodii 'Frosty Fire'"],"other_name":null,"cycle":"Perennial","watering":"Average","sunlight":["Full sun"],"default_image":{"image_id":5499,"license":4,"license_name":"Attribution License","license_url":"https://creativecommons.org/licenses/by/2.0/","original_url":"https://perenual.com/storage/species_image/6942_rosa_zlesak_poly3_oso_happy_smoothie/og/52621298110_6190251dd9_b.jpg","regular_url":"https://perenual.com/storage/species_image/6942_rosa_zlesak_poly3_oso_happy_smoothie/regular/52621298110_6190251dd9_b.jpg","medium_url":"https://perenual.com/storage/species_image/6942_rosa_zlesak_poly3_oso_happy_smoothie/medium/52621298110_6190251dd9_b.jpg","small_url":"https://perenual.com/storage/species_image/6942_rosa_zlesak_poly3_oso_happy_smoothie/small/52621298110_6190251dd9_b.jpg","thumbnail":"https://perenual.com/storage/species_image/6942_rosa_zlesak_poly3_oso_happy_smoothie/thumbnail/52621298110_6190251dd9_b.jpg"}},{"id":2382,"common_name":"carnation","scientific_name":["Dianthus AMERICAN PIE GEORGIA PEACH PIE"],"other_name":null,"cycle":"Perennial","watering":"Average","sunlight":["Full sun"],"default_image":{"image_id":9,"license":5,"license_name":"Attribution-ShareAlike License","license_url":"https://creativecommons.org/licenses/by-sa/2.0/","original_url":"https://perenual.com/storage/species_image/2_abies_alba_pyramidalis/og/49255769768_df55596553_b.jpg","regular_url":"https://perenual.com/storage/species_image/2_abies_alba_pyramidalis/regular/49255769768_df55596553_b.jpg","medium_url":"https://perenual.com/storage/species_image/2_abies_alba_pyramidalis/medium/49255769768_df55596553_b.jpg","small_url":"https://perenual.com/storage/species_image/2_abies_alba_pyramidalis/small/49255769768_df55596553_b.jpg","thumbnail":"https://perenual.com/storage/species_image/2_abies_alba_pyramidalis/thumbnail/49255769768_df55596553_b.jpg"}},{"id":2383,"common_name":"carnation","scientific_name":["Dianthus amurensis 'Siberian Blue'"],"other_name":null,"cycle":"Perennial","watering":"Average","sunlight":["Full sun"],"default_image":{"image_id":9,"license":5,"license_name":"Attribution-ShareAlike License","license_url":"https://creativecommons.org/licenses/by-sa/2.0/","original_url":"https://perenual.com/storage/species_image/2_abies_alba_pyramidalis/og/49255769768_df55596553_b.jpg","regular_url":"https://perenual.com/storage/species_image/2_abies_alba_pyramidalis/regular/49255769768_df55596553_b.jpg","medium_url":"https://perenual.com/storage/species_image/2_abies_alba_pyramidalis/medium/49255769768_df55596553_b.jpg","small_url":"https://perenual.com/storage/species_image/2_abies_alba_pyramidalis/small/49255769768_df55596553_b.jpg","thumbnail":"https://perenual.com/storage/species_image/2_abies_alba_pyramidalis/thumbnail/49255769768_df55596553_b.jpg"}},{"id":2384,"common_name":"sweet William","scientific_name":["Dianthus barbatus"],"other_name":null,"cycle":"Perennial","watering":"Average","sunlight":["Full sun","part shade"],"default_image":{"image_id":9,"license":5,"license_name":"Attribution-ShareAlike License","license_url":"https://creativecommons.org/licenses/by-sa/2.0/","original_url":"https://perenual.com/storage/species_image/2_abies_alba_pyramidalis/og/49255769768_df55596553_b.jpg","regular_url":"https://perenual.com/storage/species_image/2_abies_alba_pyramidalis/regular/49255769768_df55596553_b.jpg","medium_url":"https://perenual.com/storage/species_image/2_abies_alba_pyramidalis/medium/49255769768_df55596553_b.jpg","small_url":"https://perenual.com/storage/species_image/2_abies_alba_pyramidalis/small/49255769768_df55596553_b.jpg","thumbnail":"https://perenual.com/storage/species_image/2_abies_alba_pyramidalis/thumbnail/49255769768_df55596553_b.jpg"}},{"id":2385,"common_name":"sweet William","scientific_name":["Dianthus barbatus 'Heart Attack'"],"other_name":null,"cycle":"Perennial","watering":"Average","sunlight":["Full sun"],"default_image":{"image_id":5502,"license":4,"license_name":"Attribution License","license_url":"https://creativecommons.org/licenses/by/2.0/","original_url":"https://perenual.com/storage/species_image/2385_dianthus_barbatus_heart_attack/og/52615284963_41f04cb5cc_b.jpg","regular_url":"https://perenual.com/storage/species_image/2385_dianthus_barbatus_heart_attack/regular/52615284963_41f04cb5cc_b.jpg","medium_url":"https://perenual.com/storage/species_image/2385_dianthus_barbatus_heart_attack/medium/52615284963_41f04cb5cc_b.jpg","small_url":"https://perenual.com/storage/species_image/2385_dianthus_barbatus_heart_attack/small/52615284963_41f04cb5cc_b.jpg","thumbnail":"https://perenual.com/storage/species_image/2385_dianthus_barbatus_heart_attack/thumbnail/52615284963_41f04cb5cc_b.jpg"}},{"id":2386,"common_name":"sweet William","scientific_name":["Dianthus barbatus 'Pinocchio'"],"other_name":null,"cycle":"Perennial","watering":"Average","sunlight":["Full sun"],"default_image":{"image_id":5503,"license":4,"license_name":"Attribution License","license_url":"https://creativecommons.org/licenses/by/2.0/","original_url":"https://perenual.com/storage/species_image/2434_dianthus_stagirond_rondo/og/52608863762_65e4a44d82_b.jpg","regular_url":"https://perenual.com/storage/species_image/2434_dianthus_stagirond_rondo/regular/52608863762_65e4a44d82_b.jpg","medium_url":"https://perenual.com/storage/species_image/2434_dianthus_stagirond_rondo/medium/52608863762_65e4a44d82_b.jpg","small_url":"https://perenual.com/storage/species_image/2434_dianthus_stagirond_rondo/small/52608863762_65e4a44d82_b.jpg","thumbnail":"https://perenual.com/storage/species_image/2434_dianthus_stagirond_rondo/thumbnail/52608863762_65e4a44d82_b.jpg"}},{"id":2387,"common_name":"sweet William","scientific_name":["Dianthus barbatus 'Sooty'"],"other_name":null,"cycle":"Perennial","watering":"Average","sunlight":["Full sun","part shade"],"default_image":{"image_id":5504,"license":5,"license_name":"Attribution-ShareAlike License","license_url":"https://creativecommons.org/licenses/by-sa/2.0/","original_url":"https://perenual.com/storage/species_image/2387_dianthus_barbatus_sooty/og/30573468736_eef91a50f4_b.jpg","regular_url":"https://perenual.com/storage/species_image/2387_dianthus_barbatus_sooty/regular/30573468736_eef91a50f4_b.jpg","medium_url":"https://perenual.com/storage/species_image/2387_dianthus_barbatus_sooty/medium/30573468736_eef91a50f4_b.jpg","small_url":"https://perenual.com/storage/species_image/2387_dianthus_barbatus_sooty/small/30573468736_eef91a50f4_b.jpg","thumbnail":"https://perenual.com/storage/species_image/2387_dianthus_barbatus_sooty/thumbnail/30573468736_eef91a50f4_b.jpg"}},{"id":2388,"common_name":"cheddar pink","scientific_name":["Dianthus 'Bath's Pink'"],"other_name":null,"cycle":"Perennial","watering":"Average","sunlight":["Full sun"],"default_image":{"image_id":9,"license":5,"license_name":"Attribution-ShareAlike License","license_url":"https://creativecommons.org/licenses/by-sa/2.0/","original_url":"https://perenual.com/storage/species_image/2_abies_alba_pyramidalis/og/49255769768_df55596553_b.jpg","regular_url":"https://perenual.com/storage/species_image/2_abies_alba_pyramidalis/regular/49255769768_df55596553_b.jpg","medium_url":"https://perenual.com/storage/species_image/2_abies_alba_pyramidalis/medium/49255769768_df55596553_b.jpg","small_url":"https://perenual.com/storage/species_image/2_abies_alba_pyramidalis/small/49255769768_df55596553_b.jpg","thumbnail":"https://perenual.com/storage/species_image/2_abies_alba_pyramidalis/thumbnail/49255769768_df55596553_b.jpg"}},{"id":2389,"common_name":"pink","scientific_name":["Dianthus 'Bat's Double Red'"],"other_name":null,"cycle":"Perennial","watering":"Average","sunlight":["Full sun"],"default_image":{"image_id":9,"license":5,"license_name":"Attribution-ShareAlike License","license_url":"https://creativecommons.org/licenses/by-sa/2.0/","original_url":"https://perenual.com/storage/species_image/2_abies_alba_pyramidalis/og/49255769768_df55596553_b.jpg","regular_url":"https://perenual.com/storage/species_image/2_abies_alba_pyramidalis/regular/49255769768_df55596553_b.jpg","medium_url":"https://perenual.com/storage/species_image/2_abies_alba_pyramidalis/medium/49255769768_df55596553_b.jpg","small_url":"https://perenual.com/storage/species_image/2_abies_alba_pyramidalis/small/49255769768_df55596553_b.jpg","thumbnail":"https://perenual.com/storage/species_image/2_abies_alba_pyramidalis/thumbnail/49255769768_df55596553_b.jpg"}},{"id":2390,"common_name":"carnation","scientific_name":["Dianthus 'Bewitched'"],"other_name":null,"cycle":"Perennial","watering":"Average","sunlight":["Full sun"],"default_image":{"image_id":9,"license":5,"license_name":"Attribution-ShareAlike License","license_url":"https://creativecommons.org/licenses/by-sa/2.0/","original_url":"https://perenual.com/storage/species_image/2_abies_alba_pyramidalis/og/49255769768_df55596553_b.jpg","regular_url":"https://perenual.com/storage/species_image/2_abies_alba_pyramidalis/regular/49255769768_df55596553_b.jpg","medium_url":"https://perenual.com/storage/species_image/2_abies_alba_pyramidalis/medium/49255769768_df55596553_b.jpg","small_url":"https://perenual.com/storage/species_image/2_abies_alba_pyramidalis/small/49255769768_df55596553_b.jpg","thumbnail":"https://perenual.com/storage/species_image/2_abies_alba_pyramidalis/thumbnail/49255769768_df55596553_b.jpg"}},{"id":2391,"common_name":"pink","scientific_name":["Dianthus 'Black Cherry Wild'"],"other_name":null,"cycle":"Perennial","watering":"Average","sunlight":["Full sun"],"default_image":{"image_id":5506,"license":451,"license_name":"CC0 1.0 Universal (CC0 1.0) Public Domain Dedication","license_url":"https://creativecommons.org/publicdomain/zero/1.0/","original_url":"https://perenual.com/storage/species_image/2391_dianthus_black_cherry_wild/og/f9127ccd81c2a341af24c2770713-1589033.jpg","regular_url":"https://perenual.com/storage/species_image/2391_dianthus_black_cherry_wild/regular/f9127ccd81c2a341af24c2770713-1589033.jpg","medium_url":"https://perenual.com/storage/species_image/2391_dianthus_black_cherry_wild/medium/f9127ccd81c2a341af24c2770713-1589033.jpg","small_url":"https://perenual.com/storage/species_image/2391_dianthus_black_cherry_wild/small/f9127ccd81c2a341af24c2770713-1589033.jpg","thumbnail":"https://perenual.com/storage/species_image/2391_dianthus_black_cherry_wild/thumbnail/f9127ccd81c2a341af24c2770713-1589033.jpg"}},{"id":2392,"common_name":"pink","scientific_name":["Dianthus BOUQUET ROSE MAGIC"],"other_name":null,"cycle":"Perennial","watering":"Average","sunlight":["Full sun"],"default_image":{"image_id":9,"license":5,"license_name":"Attribution-ShareAlike License","license_url":"https://creativecommons.org/licenses/by-sa/2.0/","original_url":"https://perenual.com/storage/species_image/2_abies_alba_pyramidalis/og/49255769768_df55596553_b.jpg","regular_url":"https://perenual.com/storage/species_image/2_abies_alba_pyramidalis/regular/49255769768_df55596553_b.jpg","medium_url":"https://perenual.com/storage/species_image/2_abies_alba_pyramidalis/medium/49255769768_df55596553_b.jpg","small_url":"https://perenual.com/storage/species_image/2_abies_alba_pyramidalis/small/49255769768_df55596553_b.jpg","thumbnail":"https://perenual.com/storage/species_image/2_abies_alba_pyramidalis/thumbnail/49255769768_df55596553_b.jpg"}},{"id":2393,"common_name":"carnation","scientific_name":["Dianthus 'Brilliant Star'"],"other_name":null,"cycle":"Perennial","watering":"Average","sunlight":["Full sun"],"default_image":{"image_id":9,"license":5,"license_name":"Attribution-ShareAlike License","license_url":"https://creativecommons.org/licenses/by-sa/2.0/","original_url":"https://perenual.com/storage/species_image/2_abies_alba_pyramidalis/og/49255769768_df55596553_b.jpg","regular_url":"https://perenual.com/storage/species_image/2_abies_alba_pyramidalis/regular/49255769768_df55596553_b.jpg","medium_url":"https://perenual.com/storage/species_image/2_abies_alba_pyramidalis/medium/49255769768_df55596553_b.jpg","small_url":"https://perenual.com/storage/species_image/2_abies_alba_pyramidalis/small/49255769768_df55596553_b.jpg","thumbnail":"https://perenual.com/storage/species_image/2_abies_alba_pyramidalis/thumbnail/49255769768_df55596553_b.jpg"}},{"id":2394,"common_name":"carnation","scientific_name":["Dianthus caryophyllus 'Clarion'"],"other_name":null,"cycle":"Perennial","watering":"Average","sunlight":["Full sun"],"default_image":{"image_id":9,"license":5,"license_name":"Attribution-ShareAlike License","license_url":"https://creativecommons.org/licenses/by-sa/2.0/","original_url":"https://perenual.com/storage/species_image/2_abies_alba_pyramidalis/og/49255769768_df55596553_b.jpg","regular_url":"https://perenual.com/storage/species_image/2_abies_alba_pyramidalis/regular/49255769768_df55596553_b.jpg","medium_url":"https://perenual.com/storage/species_image/2_abies_alba_pyramidalis/medium/49255769768_df55596553_b.jpg","small_url":"https://perenual.com/storage/species_image/2_abies_alba_pyramidalis/small/49255769768_df55596553_b.jpg","thumbnail":"https://perenual.com/storage/species_image/2_abies_alba_pyramidalis/thumbnail/49255769768_df55596553_b.jpg"}},{"id":2395,"common_name":"carnation","scientific_name":["Dianthus caryophyllus 'Vienna Mischung'"],"other_name":null,"cycle":"Perennial","watering":"Average","sunlight":["Full sun"],"default_image":{"image_id":9,"license":5,"license_name":"Attribution-ShareAlike License","license_url":"https://creativecommons.org/licenses/by-sa/2.0/","original_url":"https://perenual.com/storage/species_image/2_abies_alba_pyramidalis/og/49255769768_df55596553_b.jpg","regular_url":"https://perenual.com/storage/species_image/2_abies_alba_pyramidalis/regular/49255769768_df55596553_b.jpg","medium_url":"https://perenual.com/storage/species_image/2_abies_alba_pyramidalis/medium/49255769768_df55596553_b.jpg","small_url":"https://perenual.com/storage/species_image/2_abies_alba_pyramidalis/small/49255769768_df55596553_b.jpg","thumbnail":"https://perenual.com/storage/species_image/2_abies_alba_pyramidalis/thumbnail/49255769768_df55596553_b.jpg"}},{"id":2396,"common_name":"pink","scientific_name":["Dianthus chinensis 'Velvet 'n Lace'"],"other_name":null,"cycle":"Perennial","watering":"Minimum","sunlight":["Full sun","part shade"],"default_image":{"image_id":9,"license":5,"license_name":"Attribution-ShareAlike License","license_url":"https://creativecommons.org/licenses/by-sa/2.0/","original_url":"https://perenual.com/storage/species_image/2_abies_alba_pyramidalis/og/49255769768_df55596553_b.jpg","regular_url":"https://perenual.com/storage/species_image/2_abies_alba_pyramidalis/regular/49255769768_df55596553_b.jpg","medium_url":"https://perenual.com/storage/species_image/2_abies_alba_pyramidalis/medium/49255769768_df55596553_b.jpg","small_url":"https://perenual.com/storage/species_image/2_abies_alba_pyramidalis/small/49255769768_df55596553_b.jpg","thumbnail":"https://perenual.com/storage/species_image/2_abies_alba_pyramidalis/thumbnail/49255769768_df55596553_b.jpg"}},{"id":2397,"common_name":"pink","scientific_name":["Dianthus 'Coconut Punch'"],"other_name":null,"cycle":"Perennial","watering":"Average","sunlight":["Full sun"],"default_image":{"image_id":9,"license":5,"license_name":"Attribution-ShareAlike License","license_url":"https://creativecommons.org/licenses/by-sa/2.0/","original_url":"https://perenual.com/storage/species_image/2_abies_alba_pyramidalis/og/49255769768_df55596553_b.jpg","regular_url":"https://perenual.com/storage/species_image/2_abies_alba_pyramidalis/regular/49255769768_df55596553_b.jpg","medium_url":"https://perenual.com/storage/species_image/2_abies_alba_pyramidalis/medium/49255769768_df55596553_b.jpg","small_url":"https://perenual.com/storage/species_image/2_abies_alba_pyramidalis/small/49255769768_df55596553_b.jpg","thumbnail":"https://perenual.com/storage/species_image/2_abies_alba_pyramidalis/thumbnail/49255769768_df55596553_b.jpg"}},{"id":2398,"common_name":"carnation","scientific_name":["Dianthus 'Dad's Favourite'"],"other_name":null,"cycle":"Perennial","watering":"Average","sunlight":["Full sun"],"default_image":{"image_id":9,"license":5,"license_name":"Attribution-ShareAlike License","license_url":"https://creativecommons.org/licenses/by-sa/2.0/","original_url":"https://perenual.com/storage/species_image/2_abies_alba_pyramidalis/og/49255769768_df55596553_b.jpg","regular_url":"https://perenual.com/storage/species_image/2_abies_alba_pyramidalis/regular/49255769768_df55596553_b.jpg","medium_url":"https://perenual.com/storage/species_image/2_abies_alba_pyramidalis/medium/49255769768_df55596553_b.jpg","small_url":"https://perenual.com/storage/species_image/2_abies_alba_pyramidalis/small/49255769768_df55596553_b.jpg","thumbnail":"https://perenual.com/storage/species_image/2_abies_alba_pyramidalis/thumbnail/49255769768_df55596553_b.jpg"}},{"id":2399,"common_name":"maiden pink","scientific_name":["Dianthus deltoides"],"other_name":null,"cycle":"Perennial","watering":"Average","sunlight":["Full sun"],"default_image":{"image_id":9,"license":5,"license_name":"Attribution-ShareAlike License","license_url":"https://creativecommons.org/licenses/by-sa/2.0/","original_url":"https://perenual.com/storage/species_image/2_abies_alba_pyramidalis/og/49255769768_df55596553_b.jpg","regular_url":"https://perenual.com/storage/species_image/2_abies_alba_pyramidalis/regular/49255769768_df55596553_b.jpg","medium_url":"https://perenual.com/storage/species_image/2_abies_alba_pyramidalis/medium/49255769768_df55596553_b.jpg","small_url":"https://perenual.com/storage/species_image/2_abies_alba_pyramidalis/small/49255769768_df55596553_b.jpg","thumbnail":"https://perenual.com/storage/species_image/2_abies_alba_pyramidalis/thumbnail/49255769768_df55596553_b.jpg"}},{"id":2400,"common_name":"maiden pink","scientific_name":["Dianthus deltoides 'Albus'"],"other_name":null,"cycle":"Perennial","watering":"Minimum","sunlight":["Full sun"],"default_image":{"image_id":9,"license":5,"license_name":"Attribution-ShareAlike License","license_url":"https://creativecommons.org/licenses/by-sa/2.0/","original_url":"https://perenual.com/storage/species_image/2_abies_alba_pyramidalis/og/49255769768_df55596553_b.jpg","regular_url":"https://perenual.com/storage/species_image/2_abies_alba_pyramidalis/regular/49255769768_df55596553_b.jpg","medium_url":"https://perenual.com/storage/species_image/2_abies_alba_pyramidalis/medium/49255769768_df55596553_b.jpg","small_url":"https://perenual.com/storage/species_image/2_abies_alba_pyramidalis/small/49255769768_df55596553_b.jpg","thumbnail":"https://perenual.com/storage/species_image/2_abies_alba_pyramidalis/thumbnail/49255769768_df55596553_b.jpg"}}],"to":2400,"per_page":30,"current_page":80,"from":2371,"last_page":200,"total":6000}