{"data":[{"id":1321,"common_name":"Romanesco broccoli / cauliflower","scientific_name":["Brassica oleracea (Botrytis Group)"],"other_name":null,"cycle":"Perennial","watering":"Average","sunlight":[],"default_image":{"image_id":3091,"license":4,"license_name":"Attribution License","license_url":"https://creativecommons.org/licenses/by/2.0/","original_url":"https://perenual.com/storage/species_image/1321_brassica_oleracea_botrytis_group/og/25392112491_3facfbf97c_b.jpg","regular_url":"https://perenual.com/storage/species_image/1321_brassica_oleracea_botrytis_group/regular/25392112491_3facfbf97c_b.jpg","medium_url":"https://perenual.com/storage/species_image/1321_brassica_oleracea_botrytis_group/medium/25392112491_3facfbf97c_b.jpg","small_url":"https://perenual.com/storage/species_image/1321_brassica_oleracea_botrytis_group/small/25392112491_3facfbf97c_b.jpg","thumbnail":"https://perenual.com/storage/species_image/1321_brassica_oleracea_botrytis_group/thumbnail/25392112491_3facfbf97c_b.jpg"}},{"id":1322,"common_name":"cabbage","scientific_name":["Brassica oleracea (Capitata Group)"],"other_name":null,"cycle":"Perennial","watering":"Average","sunlight":[],"default_image":{"image_id":3093,"license":4,"license_name":"Attribution License","license_url":"https://creativecommons.org/licenses/by/2.0/","original_url":"https://perenual.com/storage/species_image/1322_brassica_oleracea_capitata_group/og/2671495796_c0bdc6bd99_b.jpg","regular_url":"https://perenual.com/storage/species_image/1322_brassica_oleracea_capitata_group/regular/2671495796_c0bdc6bd99_b.jpg","medium_url":"https://perenual.com/storage/species_image/1322_brassica_oleracea_capitata_group/medium/2671495796_c0bdc6bd99_b.jpg","small_url":"https://perenual.com/storage/species_image/1322_brassica_oleracea_capitata_group/small/2671495796_c0bdc6bd99_b.jpg","thumbnail":"https://perenual.com/storage/species_image/1322_brassica_oleracea_capitata_group/thumbnail/2671495796_c0bdc6bd99_b.jpg"}},{"id":1323,"common_name":"cabbage","scientific_name":["Brassica oleracea (Capitata Group) 'Frigga'"],"other_name":null,"cycle":"Perennial","watering":"Average","sunlight":[],"default_image":{"image_id":9,"license":5,"license_name":"Attribution-ShareAlike License","license_url":"https://creativecommons.org/licenses/by-sa/2.0/","original_url":"https://perenual.com/storage/species_image/2_abies_alba_pyramidalis/og/49255769768_df55596553_b.jpg","regular_url":"https://perenual.com/storage/species_image/2_abies_alba_pyramidalis/regular/49255769768_df55596553_b.jpg","medium_url":"https://perenual.com/storage/species_image/2_abies_alba_pyramidalis/medium/49255769768_df55596553_b.jpg","small_url":"https://perenual.com/storage/species_image/2_abies_alba_pyramidalis/small/49255769768_df55596553_b.jpg","thumbnail":"https://perenual.com/storage/species_image/2_abies_alba_pyramidalis/thumbnail/49255769768_df55596553_b.jpg"}},{"id":1324,"common_name":"cabbage","scientific_name":["Brassica oleracea (Capitata Group) 'Ruby Perfection'"],"other_name":null,"cycle":"Perennial","watering":"Average","sunlight":[],"default_image":null},{"id":1325,"common_name":"Brussels sprouts","scientific_name":["Brassica oleracea (Gemmifera Group)"],"other_name":null,"cycle":"Perennial","watering":"Average","sunlight":[],"default_image":{"image_id":9,"license":5,"license_name":"Attribution-ShareAlike License","license_url":"https://creativecommons.org/licenses/by-sa/2.0/","original_url":"https://perenual.com/storage/species_image/2_abies_alba_pyramidalis/og/49255769768_df55596553_b.jpg","regular_url":"https://perenual.com/storage/species_image/2_abies_alba_pyramidalis/regular/49255769768_df55596553_b.jpg","medium_url":"https://perenual.com/storage/species_image/2_abies_alba_pyramidalis/medium/49255769768_df55596553_b.jpg","small_url":"https://perenual.com/storage/species_image/2_abies_alba_pyramidalis/small/49255769768_df55596553_b.jpg","thumbnail":"https://perenual.com/storage/species_image/2_abies_alba_pyramidalis/thumbnail/49255769768_df55596553_b.jpg"}},{"id":1326,"common_name":"kohlrabi","scientific_name":["Brassica oleracea (Gongylodes Group)"],"other_name":null,"cycle":"Perennial","watering":"Average","sunlight":[],"default_image":{"image_id":9,"license":5,"license_name":"Attribution-ShareAlike License","license_url":"https://creativecommons.org/licenses/by-sa/2.0/","original_url":"https://perenual.com/storage/species_image/2_abies_alba_pyramidalis/og/49255769768_df55596553_b.jpg","regular_url":"https://perenual.com/storage/species_image/2_abies_alba_pyramidalis/regular/49255769768_df55596553_b.jpg","medium_url":"https://perenual.com/storage/species_image/2_abies_alba_pyramidalis/medium/49255769768_df55596553_b.jpg","small_url":"https://perenual.com/storage/species_image/2_abies_alba_pyramidalis/small/49255769768_df55596553_b.jpg","thumbnail":"https://perenual.com/storage/species_image/2_abies_alba_pyramidalis/thumbnail/49255769768_df55596553_b.jpg"}},{"id":1327,"common_name":"broccoli","scientific_name":["Brassica oleracea (Italica Group)"],"other_name":null,"cycle":"Perennial","watering":"Average","sunlight":[],"default_image":null},{"id":1328,"common_name":"ornamental cabbage","scientific_name":["Brassica oleracea (Ornamental Cabbage and Kale Group)"],"other_name":null,"cycle":"Perennial","watering":"Average","sunlight":[],"default_image":{"image_id":3102,"license":5,"license_name":"Attribution-ShareAlike License","license_url":"https://creativecommons.org/licenses/by-sa/2.0/","original_url":"https://perenual.com/storage/species_image/1328_brassica_oleracea_ornamental_cabbage_and_kale_group/og/318568954_0b66be78c0_b.jpg","regular_url":"https://perenual.com/storage/species_image/1328_brassica_oleracea_ornamental_cabbage_and_kale_group/regular/318568954_0b66be78c0_b.jpg","medium_url":"https://perenual.com/storage/species_image/1328_brassica_oleracea_ornamental_cabbage_and_kale_group/medium/318568954_0b66be78c0_b.jpg","small_url":"https://perenual.com/storage/species_image/1328_brassica_oleracea_ornamental_cabbage_and_kale_group/small/318568954_0b66be78c0_b.jpg","thumbnail":"https://perenual.com/storage/species_image/1328_brassica_oleracea_ornamental_cabbage_and_kale_group/thumbnail/318568954_0b66be78c0_b.jpg"}},{"id":1329,"common_name":"Asian greens","scientific_name":["Brassica rapa (Asian Greens Group)"],"other_name":null,"cycle":"Perennial","watering":"Average","sunlight":[],"default_image":{"image_id":9,"license":5,"license_name":"Attribution-ShareAlike License","license_url":"https://creativecommons.org/licenses/by-sa/2.0/","original_url":"https://perenual.com/storage/species_image/2_abies_alba_pyramidalis/og/49255769768_df55596553_b.jpg","regular_url":"https://perenual.com/storage/species_image/2_abies_alba_pyramidalis/regular/49255769768_df55596553_b.jpg","medium_url":"https://perenual.com/storage/species_image/2_abies_alba_pyramidalis/medium/49255769768_df55596553_b.jpg","small_url":"https://perenual.com/storage/species_image/2_abies_alba_pyramidalis/small/49255769768_df55596553_b.jpg","thumbnail":"https://perenual.com/storage/species_image/2_abies_alba_pyramidalis/thumbnail/49255769768_df55596553_b.jpg"}},{"id":1330,"common_name":"pak-choi","scientific_name":["Brassica rapa (Chinensis Group)"],"other_name":null,"cycle":"Perennial","watering":"Average","sunlight":[],"default_image":{"image_id":9,"license":5,"license_name":"Attribution-ShareAlike License","license_url":"https://creativecommons.org/licenses/by-sa/2.0/","original_url":"https://perenual.com/storage/species_image/2_abies_alba_pyramidalis/og/49255769768_df55596553_b.jpg","regular_url":"https://perenual.com/storage/species_image/2_abies_alba_pyramidalis/regular/49255769768_df55596553_b.jpg","medium_url":"https://perenual.com/storage/species_image/2_abies_alba_pyramidalis/medium/49255769768_df55596553_b.jpg","small_url":"https://perenual.com/storage/species_image/2_abies_alba_pyramidalis/small/49255769768_df55596553_b.jpg","thumbnail":"https://perenual.com/storage/species_image/2_abies_alba_pyramidalis/thumbnail/49255769768_df55596553_b.jpg"}},{"id":1331,"common_name":"pak-choi","scientific_name":["Brassica rapa (Chinensis Group) 'Violetta'"],"other_name":null,"cycle":"Perennial","watering":"Average","sunlight":[],"default_image":{"image_id":3105,"license":6,"license_name":"Attribution-NoDerivs License","license_url":"https://creativecommons.org/licenses/by-nd/2.0/","original_url":"https://perenual.com/storage/species_image/1331_brassica_rapa_chinensis_group_violetta/og/50253445717_c695d022a0_b.jpg"}},{"id":1332,"common_name":"Chinese cabbage","scientific_name":["Brassica rapa (Pekinensis Group)"],"other_name":null,"cycle":"Perennial","watering":"Average","sunlight":[],"default_image":null},{"id":1333,"common_name":"turnip","scientific_name":["Brassica rapa (Rapifera Group)"],"other_name":null,"cycle":"Perennial","watering":"Average","sunlight":[],"default_image":{"image_id":3109,"license":4,"license_name":"Attribution License","license_url":"https://creativecommons.org/licenses/by/2.0/","original_url":"https://perenual.com/storage/species_image/1333_brassica_rapa_rapifera_group/og/51816290342_771a199fd5_b.jpg","regular_url":"https://perenual.com/storage/species_image/1333_brassica_rapa_rapifera_group/regular/51816290342_771a199fd5_b.jpg","medium_url":"https://perenual.com/storage/species_image/1333_brassica_rapa_rapifera_group/medium/51816290342_771a199fd5_b.jpg","small_url":"https://perenual.com/storage/species_image/1333_brassica_rapa_rapifera_group/small/51816290342_771a199fd5_b.jpg","thumbnail":"https://perenual.com/storage/species_image/1333_brassica_rapa_rapifera_group/thumbnail/51816290342_771a199fd5_b.jpg"}},{"id":1334,"common_name":"broccoli raab","scientific_name":["Brassica rapa (Ruva Group)"],"other_name":null,"cycle":"Perennial","watering":"Average","sunlight":[],"default_image":{"image_id":9,"license":5,"license_name":"Attribution-ShareAlike License","license_url":"https://creativecommons.org/licenses/by-sa/2.0/","original_url":"https://perenual.com/storage/species_image/2_abies_alba_pyramidalis/og/49255769768_df55596553_b.jpg","regular_url":"https://perenual.com/storage/species_image/2_abies_alba_pyramidalis/regular/49255769768_df55596553_b.jpg","medium_url":"https://perenual.com/storage/species_image/2_abies_alba_pyramidalis/medium/49255769768_df55596553_b.jpg","small_url":"https://perenual.com/storage/species_image/2_abies_alba_pyramidalis/small/49255769768_df55596553_b.jpg","thumbnail":"https://perenual.com/storage/species_image/2_abies_alba_pyramidalis/thumbnail/49255769768_df55596553_b.jpg"}},{"id":1335,"common_name":"tat soi","scientific_name":["Brassica rapa var. rosularis"],"other_name":null,"cycle":"Perennial","watering":"Average","sunlight":[],"default_image":{"image_id":3113,"license":4,"license_name":"Attribution License","license_url":"https://creativecommons.org/licenses/by/2.0/","original_url":"https://perenual.com/storage/species_image/1335_brassica_rapa_var_rosularis/og/24605859029_ae624b33f6_b.jpg","regular_url":"https://perenual.com/storage/species_image/1335_brassica_rapa_var_rosularis/regular/24605859029_ae624b33f6_b.jpg","medium_url":"https://perenual.com/storage/species_image/1335_brassica_rapa_var_rosularis/medium/24605859029_ae624b33f6_b.jpg","small_url":"https://perenual.com/storage/species_image/1335_brassica_rapa_var_rosularis/small/24605859029_ae624b33f6_b.jpg","thumbnail":"https://perenual.com/storage/species_image/1335_brassica_rapa_var_rosularis/thumbnail/24605859029_ae624b33f6_b.jpg"}},{"id":1336,"common_name":"snowbush","scientific_name":["Breynia disticha"],"other_name":null,"cycle":"Perennial","watering":"Average","sunlight":["Full sun","part shade"],"default_image":{"image_id":3116,"license":4,"license_name":"Attribution License","license_url":"https://creativecommons.org/licenses/by/2.0/","original_url":"https://perenual.com/storage/species_image/1336_breynia_disticha/og/24779650290_d3aeb869be_b.jpg","regular_url":"https://perenual.com/storage/species_image/1336_breynia_disticha/regular/24779650290_d3aeb869be_b.jpg","medium_url":"https://perenual.com/storage/species_image/1336_breynia_disticha/medium/24779650290_d3aeb869be_b.jpg","small_url":"https://perenual.com/storage/species_image/1336_breynia_disticha/small/24779650290_d3aeb869be_b.jpg","thumbnail":"https://perenual.com/storage/species_image/1336_breynia_disticha/thumbnail/24779650290_d3aeb869be_b.jpg"}},{"id":1337,"common_name":"false boneset","scientific_name":["Brickellia eupatorioides"],"other_name":null,"cycle":"Perennial","watering":"Minimum","sunlight":["Full sun","part shade"],"default_image":{"image_id":9,"license":5,"license_name":"Attribution-ShareAlike License","license_url":"https://creativecommons.org/licenses/by-sa/2.0/","original_url":"https://perenual.com/storage/species_image/2_abies_alba_pyramidalis/og/49255769768_df55596553_b.jpg","regular_url":"https://perenual.com/storage/species_image/2_abies_alba_pyramidalis/regular/49255769768_df55596553_b.jpg","medium_url":"https://perenual.com/storage/species_image/2_abies_alba_pyramidalis/medium/49255769768_df55596553_b.jpg","small_url":"https://perenual.com/storage/species_image/2_abies_alba_pyramidalis/small/49255769768_df55596553_b.jpg","thumbnail":"https://perenual.com/storage/species_image/2_abies_alba_pyramidalis/thumbnail/49255769768_df55596553_b.jpg"}},{"id":1338,"common_name":"common quaking grass","scientific_name":["Briza media"],"other_name":null,"cycle":"Perennial","watering":"Average","sunlight":["Full sun"],"default_image":{"image_id":3119,"license":6,"license_name":"Attribution-NoDerivs License","license_url":"https://creativecommons.org/licenses/by-nd/2.0/","original_url":"https://perenual.com/storage/species_image/1338_briza_media/og/52145177446_a04076159a_b.jpg"}},{"id":1339,"common_name":"smooth brome","scientific_name":["Bromus inermis 'Skinner's Gold'"],"other_name":null,"cycle":"Perennial","watering":"Minimum","sunlight":[],"default_image":{"image_id":3121,"license":5,"license_name":"Attribution-ShareAlike License","license_url":"https://creativecommons.org/licenses/by-sa/2.0/","original_url":"https://perenual.com/storage/species_image/1339_bromus_inermis_skinners_gold/og/52268197340_bb39283a28_b.jpg","regular_url":"https://perenual.com/storage/species_image/1339_bromus_inermis_skinners_gold/regular/52268197340_bb39283a28_b.jpg","medium_url":"https://perenual.com/storage/species_image/1339_bromus_inermis_skinners_gold/medium/52268197340_bb39283a28_b.jpg","small_url":"https://perenual.com/storage/species_image/1339_bromus_inermis_skinners_gold/small/52268197340_bb39283a28_b.jpg","thumbnail":"https://perenual.com/storage/species_image/1339_bromus_inermis_skinners_gold/thumbnail/52268197340_bb39283a28_b.jpg"}},{"id":1340,"common_name":"paper mulberry","scientific_name":["Broussonetia papyrifera"],"other_name":null,"cycle":"Perennial","watering":"Average","sunlight":["Full sun","part shade"],"default_image":{"image_id":3125,"license":4,"license_name":"Attribution License","license_url":"https://creativecommons.org/licenses/by/2.0/","original_url":"https://perenual.com/storage/species_image/1340_broussonetia_papyrifera/og/52146433508_e1b8b683ac_b.jpg","regular_url":"https://perenual.com/storage/species_image/1340_broussonetia_papyrifera/regular/52146433508_e1b8b683ac_b.jpg","medium_url":"https://perenual.com/storage/species_image/1340_broussonetia_papyrifera/medium/52146433508_e1b8b683ac_b.jpg","small_url":"https://perenual.com/storage/species_image/1340_broussonetia_papyrifera/small/52146433508_e1b8b683ac_b.jpg","thumbnail":"https://perenual.com/storage/species_image/1340_broussonetia_papyrifera/thumbnail/52146433508_e1b8b683ac_b.jpg"}},{"id":1341,"common_name":"paper mulberry","scientific_name":["Broussonetia papyrifera 'Golden Shadow'"],"other_name":null,"cycle":"Perennial","watering":"Average","sunlight":["Full sun","part shade"],"default_image":{"image_id":9,"license":5,"license_name":"Attribution-ShareAlike License","license_url":"https://creativecommons.org/licenses/by-sa/2.0/","original_url":"https://perenual.com/storage/species_image/2_abies_alba_pyramidalis/og/49255769768_df55596553_b.jpg","regular_url":"https://perenual.com/storage/species_image/2_abies_alba_pyramidalis/regular/49255769768_df55596553_b.jpg","medium_url":"https://perenual.com/storage/species_image/2_abies_alba_pyramidalis/medium/49255769768_df55596553_b.jpg","small_url":"https://perenual.com/storage/species_image/2_abies_alba_pyramidalis/small/49255769768_df55596553_b.jpg","thumbnail":"https://perenual.com/storage/species_image/2_abies_alba_pyramidalis/thumbnail/49255769768_df55596553_b.jpg"}},{"id":1342,"common_name":"bush violet","scientific_name":["Browallia speciosa"],"other_name":null,"cycle":"Perennial","watering":"Average","sunlight":["Full sun","part shade"],"default_image":{"image_id":3136,"license":4,"license_name":"Attribution License","license_url":"https://creativecommons.org/licenses/by/2.0/","original_url":"https://perenual.com/storage/species_image/1342_browallia_speciosa/og/38776942744_eb6bc1013b_b.jpg","regular_url":"https://perenual.com/storage/species_image/1342_browallia_speciosa/regular/38776942744_eb6bc1013b_b.jpg","medium_url":"https://perenual.com/storage/species_image/1342_browallia_speciosa/medium/38776942744_eb6bc1013b_b.jpg","small_url":"https://perenual.com/storage/species_image/1342_browallia_speciosa/small/38776942744_eb6bc1013b_b.jpg","thumbnail":"https://perenual.com/storage/species_image/1342_browallia_speciosa/thumbnail/38776942744_eb6bc1013b_b.jpg"}},{"id":1343,"common_name":"brownea","scientific_name":["Brownea coccinea subsp. capitella"],"other_name":null,"cycle":"Perennial","watering":"Average","sunlight":["Full sun","part shade"],"default_image":{"image_id":9,"license":5,"license_name":"Attribution-ShareAlike License","license_url":"https://creativecommons.org/licenses/by-sa/2.0/","original_url":"https://perenual.com/storage/species_image/2_abies_alba_pyramidalis/og/49255769768_df55596553_b.jpg","regular_url":"https://perenual.com/storage/species_image/2_abies_alba_pyramidalis/regular/49255769768_df55596553_b.jpg","medium_url":"https://perenual.com/storage/species_image/2_abies_alba_pyramidalis/medium/49255769768_df55596553_b.jpg","small_url":"https://perenual.com/storage/species_image/2_abies_alba_pyramidalis/small/49255769768_df55596553_b.jpg","thumbnail":"https://perenual.com/storage/species_image/2_abies_alba_pyramidalis/thumbnail/49255769768_df55596553_b.jpg"}},{"id":1344,"common_name":"angel's trumpet","scientific_name":["Brugmansia candida"],"other_name":null,"cycle":"Perennial","watering":"Average","sunlight":["Full sun"],"default_image":{"image_id":3141,"license":5,"license_name":"Attribution-ShareAlike License","license_url":"https://creativecommons.org/licenses/by-sa/2.0/","original_url":"https://perenual.com/storage/species_image/1344_brugmansia_candida/og/4934191189_e7aece5acf_b.jpg","regular_url":"https://perenual.com/storage/species_image/1344_brugmansia_candida/regular/4934191189_e7aece5acf_b.jpg","medium_url":"https://perenual.com/storage/species_image/1344_brugmansia_candida/medium/4934191189_e7aece5acf_b.jpg","small_url":"https://perenual.com/storage/species_image/1344_brugmansia_candida/small/4934191189_e7aece5acf_b.jpg","thumbnail":"https://perenual.com/storage/species_image/1344_brugmansia_candida/thumbnail/4934191189_e7aece5acf_b.jpg"}},{"id":1345,"common_name":"brugmansia","scientific_name":["Brugmansia 'Pink Perfume'"],"other_name":null,"cycle":"Perennial","watering":"Average","sunlight":["Full sun"],"default_image":{"image_id":9,"license":5,"license_name":"Attribution-ShareAlike License","license_url":"https://creativecommons.org/licenses/by-sa/2.0/","original_url":"https://perenual.com/storage/species_image/2_abies_alba_pyramidalis/og/49255769768_df55596553_b.jpg","regular_url":"https://perenual.com/storage/species_image/2_abies_alba_pyramidalis/regular/49255769768_df55596553_b.jpg","medium_url":"https://perenual.com/storage/species_image/2_abies_alba_pyramidalis/medium/49255769768_df55596553_b.jpg","small_url":"https://perenual.com/storage/species_image/2_abies_alba_pyramidalis/small/49255769768_df55596553_b.jpg","thumbnail":"https://perenual.com/storage/species_image/2_abies_alba_pyramidalis/thumbnail/49255769768_df55596553_b.jpg"}},{"id":1346,"common_name":"maikoa","scientific_name":["Brugmansia suaveolens"],"other_name":null,"cycle":"Perennial","watering":"Average","sunlight":["Full sun"],"default_image":{"image_id":3151,"license":5,"license_name":"Attribution-ShareAlike License","license_url":"https://creativecommons.org/licenses/by-sa/2.0/","original_url":"https://perenual.com/storage/species_image/1346_brugmansia_suaveolens/og/51797639148_4fe7134890_b.jpg","regular_url":"https://perenual.com/storage/species_image/1346_brugmansia_suaveolens/regular/51797639148_4fe7134890_b.jpg","medium_url":"https://perenual.com/storage/species_image/1346_brugmansia_suaveolens/medium/51797639148_4fe7134890_b.jpg","small_url":"https://perenual.com/storage/species_image/1346_brugmansia_suaveolens/small/51797639148_4fe7134890_b.jpg","thumbnail":"https://perenual.com/storage/species_image/1346_brugmansia_suaveolens/thumbnail/51797639148_4fe7134890_b.jpg"}},{"id":1347,"common_name":"Siberian bugloss","scientific_name":["Brunnera macrophylla"],"other_name":null,"cycle":"Perennial","watering":"Average","sunlight":["Deep shade"," Filtered shade"," Part sun/part shade"],"default_image":{"image_id":3159,"license":5,"license_name":"Attribution-ShareAlike License","license_url":"https://creativecommons.org/licenses/by-sa/2.0/","original_url":"https://perenual.com/storage/species_image/1347_brunnera_macrophylla/og/28625503745_9a15156f64_b.jpg","regular_url":"https://perenual.com/storage/species_image/1347_brunnera_macrophylla/regular/28625503745_9a15156f64_b.jpg","medium_url":"https://perenual.com/storage/species_image/1347_brunnera_macrophylla/medium/28625503745_9a15156f64_b.jpg","small_url":"https://perenual.com/storage/species_image/1347_brunnera_macrophylla/small/28625503745_9a15156f64_b.jpg","thumbnail":"https://perenual.com/storage/species_image/1347_brunnera_macrophylla/thumbnail/28625503745_9a15156f64_b.jpg"}},{"id":1348,"common_name":"Siberian bugloss","scientific_name":["Brunnera macrophylla 'Alexander's Great'"],"other_name":null,"cycle":"Perennial","watering":"Average","sunlight":["Deep shade"," Filtered shade"," Part sun/part shade"],"default_image":{"image_id":3164,"license":4,"license_name":"Attribution License","license_url":"https://creativecommons.org/licenses/by/2.0/","original_url":"https://perenual.com/storage/species_image/1355_brunnera_macrophylla_mr_morse/og/26716286852_152f4cd0aa_b.jpg","regular_url":"https://perenual.com/storage/species_image/1355_brunnera_macrophylla_mr_morse/regular/26716286852_152f4cd0aa_b.jpg","medium_url":"https://perenual.com/storage/species_image/1355_brunnera_macrophylla_mr_morse/medium/26716286852_152f4cd0aa_b.jpg","small_url":"https://perenual.com/storage/species_image/1355_brunnera_macrophylla_mr_morse/small/26716286852_152f4cd0aa_b.jpg","thumbnail":"https://perenual.com/storage/species_image/1355_brunnera_macrophylla_mr_morse/thumbnail/26716286852_152f4cd0aa_b.jpg"}},{"id":1349,"common_name":"Siberian bugloss","scientific_name":["Brunnera macrophylla 'Dawson's White'"],"other_name":null,"cycle":"Perennial","watering":"Average","sunlight":["Deep shade"," Filtered shade"," Part sun/part shade"],"default_image":{"image_id":3165,"license":4,"license_name":"Attribution License","license_url":"https://creativecommons.org/licenses/by/2.0/","original_url":"https://perenual.com/storage/species_image/1349_brunnera_macrophylla_dawsons_white/og/17331201133_a52eef9704_b.jpg","regular_url":"https://perenual.com/storage/species_image/1349_brunnera_macrophylla_dawsons_white/regular/17331201133_a52eef9704_b.jpg","medium_url":"https://perenual.com/storage/species_image/1349_brunnera_macrophylla_dawsons_white/medium/17331201133_a52eef9704_b.jpg","small_url":"https://perenual.com/storage/species_image/1349_brunnera_macrophylla_dawsons_white/small/17331201133_a52eef9704_b.jpg","thumbnail":"https://perenual.com/storage/species_image/1349_brunnera_macrophylla_dawsons_white/thumbnail/17331201133_a52eef9704_b.jpg"}},{"id":1350,"common_name":"Siberian bugloss","scientific_name":["Brunnera macrophylla 'Hadspen Cream'"],"other_name":null,"cycle":"Perennial","watering":"Average","sunlight":["Deep shade"," Filtered shade"," Part sun/part shade"],"default_image":{"image_id":3167,"license":4,"license_name":"Attribution License","license_url":"https://creativecommons.org/licenses/by/2.0/","original_url":"https://perenual.com/storage/species_image/1350_brunnera_macrophylla_hadspen_cream/og/14807623642_4813b42191_b.jpg","regular_url":"https://perenual.com/storage/species_image/1350_brunnera_macrophylla_hadspen_cream/regular/14807623642_4813b42191_b.jpg","medium_url":"https://perenual.com/storage/species_image/1350_brunnera_macrophylla_hadspen_cream/medium/14807623642_4813b42191_b.jpg","small_url":"https://perenual.com/storage/species_image/1350_brunnera_macrophylla_hadspen_cream/small/14807623642_4813b42191_b.jpg","thumbnail":"https://perenual.com/storage/species_image/1350_brunnera_macrophylla_hadspen_cream/thumbnail/14807623642_4813b42191_b.jpg"}}],"to":1350,"per_page":30,"current_page":45,"from":1321,"last_page":200,"total":6000}