{"data":[{"id":5041,"common_name":"gooseneck loosestrife","scientific_name":["Lysimachia clethroides"],"other_name":null,"cycle":"Perennial","watering":"Average","sunlight":["Deep shade"," Filtered shade"," Part sun/part shade"],"default_image":{"image_id":10742,"license":4,"license_name":"Attribution License","license_url":"https://creativecommons.org/licenses/by/2.0/","original_url":"https://perenual.com/storage/species_image/5041_lysimachia_clethroides/og/52077083337_28a98cd63d_b.jpg","regular_url":"https://perenual.com/storage/species_image/5041_lysimachia_clethroides/regular/52077083337_28a98cd63d_b.jpg","medium_url":"https://perenual.com/storage/species_image/5041_lysimachia_clethroides/medium/52077083337_28a98cd63d_b.jpg","small_url":"https://perenual.com/storage/species_image/5041_lysimachia_clethroides/small/52077083337_28a98cd63d_b.jpg","thumbnail":"https://perenual.com/storage/species_image/5041_lysimachia_clethroides/thumbnail/52077083337_28a98cd63d_b.jpg"}},{"id":5042,"common_name":"golden globes loosestrife","scientific_name":["Lysimachia congestiflora"],"other_name":null,"cycle":"Perennial","watering":"Average","sunlight":["Full sun","part shade"],"default_image":{"image_id":9,"license":5,"license_name":"Attribution-ShareAlike License","license_url":"https://creativecommons.org/licenses/by-sa/2.0/","original_url":"https://perenual.com/storage/species_image/2_abies_alba_pyramidalis/og/49255769768_df55596553_b.jpg","regular_url":"https://perenual.com/storage/species_image/2_abies_alba_pyramidalis/regular/49255769768_df55596553_b.jpg","medium_url":"https://perenual.com/storage/species_image/2_abies_alba_pyramidalis/medium/49255769768_df55596553_b.jpg","small_url":"https://perenual.com/storage/species_image/2_abies_alba_pyramidalis/small/49255769768_df55596553_b.jpg","thumbnail":"https://perenual.com/storage/species_image/2_abies_alba_pyramidalis/thumbnail/49255769768_df55596553_b.jpg"}},{"id":5043,"common_name":"creeping Jenny","scientific_name":["Lysimachia congestiflora 'Eco Dark Satin'"],"other_name":null,"cycle":"Perennial","watering":"Average","sunlight":["Full sun","part shade"],"default_image":{"image_id":9,"license":5,"license_name":"Attribution-ShareAlike License","license_url":"https://creativecommons.org/licenses/by-sa/2.0/","original_url":"https://perenual.com/storage/species_image/2_abies_alba_pyramidalis/og/49255769768_df55596553_b.jpg","regular_url":"https://perenual.com/storage/species_image/2_abies_alba_pyramidalis/regular/49255769768_df55596553_b.jpg","medium_url":"https://perenual.com/storage/species_image/2_abies_alba_pyramidalis/medium/49255769768_df55596553_b.jpg","small_url":"https://perenual.com/storage/species_image/2_abies_alba_pyramidalis/small/49255769768_df55596553_b.jpg","thumbnail":"https://perenual.com/storage/species_image/2_abies_alba_pyramidalis/thumbnail/49255769768_df55596553_b.jpg"}},{"id":5044,"common_name":"loosestrife","scientific_name":["Lysimachia japonica var. minutissima"],"other_name":null,"cycle":"Perennial","watering":"Frequent","sunlight":["Part shade"],"default_image":{"image_id":10755,"license":5,"license_name":"Attribution-ShareAlike License","license_url":"https://creativecommons.org/licenses/by-sa/2.0/","original_url":"https://perenual.com/storage/species_image/5044_lysimachia_japonica_var_minutissima/og/52227796343_73b920c95e_b.jpg","regular_url":"https://perenual.com/storage/species_image/5044_lysimachia_japonica_var_minutissima/regular/52227796343_73b920c95e_b.jpg","medium_url":"https://perenual.com/storage/species_image/5044_lysimachia_japonica_var_minutissima/medium/52227796343_73b920c95e_b.jpg","small_url":"https://perenual.com/storage/species_image/5044_lysimachia_japonica_var_minutissima/small/52227796343_73b920c95e_b.jpg","thumbnail":"https://perenual.com/storage/species_image/5044_lysimachia_japonica_var_minutissima/thumbnail/52227796343_73b920c95e_b.jpg"}},{"id":5045,"common_name":"loosestrife","scientific_name":["Lysimachia 'L9902' SNOW CANDLES"],"other_name":null,"cycle":"Perennial","watering":"Average","sunlight":["Full sun","part shade"],"default_image":{"image_id":9,"license":5,"license_name":"Attribution-ShareAlike License","license_url":"https://creativecommons.org/licenses/by-sa/2.0/","original_url":"https://perenual.com/storage/species_image/2_abies_alba_pyramidalis/og/49255769768_df55596553_b.jpg","regular_url":"https://perenual.com/storage/species_image/2_abies_alba_pyramidalis/regular/49255769768_df55596553_b.jpg","medium_url":"https://perenual.com/storage/species_image/2_abies_alba_pyramidalis/medium/49255769768_df55596553_b.jpg","small_url":"https://perenual.com/storage/species_image/2_abies_alba_pyramidalis/small/49255769768_df55596553_b.jpg","thumbnail":"https://perenual.com/storage/species_image/2_abies_alba_pyramidalis/thumbnail/49255769768_df55596553_b.jpg"}},{"id":5046,"common_name":"creeping Jenny","scientific_name":["Lysimachia nummularia"],"other_name":["moneywort"],"cycle":"Perennial","watering":"Frequent","sunlight":["Deep shade"," Filtered shade"," Full sun"," Part sun/part shade"],"default_image":{"image_id":10756,"license":5,"license_name":"Attribution-ShareAlike License","license_url":"https://creativecommons.org/licenses/by-sa/2.0/","original_url":"https://perenual.com/storage/species_image/5046_lysimachia_nummularia/og/48254586696_e2005af736_b.jpg","regular_url":"https://perenual.com/storage/species_image/5046_lysimachia_nummularia/regular/48254586696_e2005af736_b.jpg","medium_url":"https://perenual.com/storage/species_image/5046_lysimachia_nummularia/medium/48254586696_e2005af736_b.jpg","small_url":"https://perenual.com/storage/species_image/5046_lysimachia_nummularia/small/48254586696_e2005af736_b.jpg","thumbnail":"https://perenual.com/storage/species_image/5046_lysimachia_nummularia/thumbnail/48254586696_e2005af736_b.jpg"}},{"id":5047,"common_name":"creeping Jenny","scientific_name":["Lysimachia nummularia 'Aurea'"],"other_name":["moneywort"],"cycle":"Perennial","watering":"Frequent","sunlight":["Deep shade"," Filtered shade"," Full sun"," Part sun/part shade"],"default_image":{"image_id":9,"license":5,"license_name":"Attribution-ShareAlike License","license_url":"https://creativecommons.org/licenses/by-sa/2.0/","original_url":"https://perenual.com/storage/species_image/2_abies_alba_pyramidalis/og/49255769768_df55596553_b.jpg","regular_url":"https://perenual.com/storage/species_image/2_abies_alba_pyramidalis/regular/49255769768_df55596553_b.jpg","medium_url":"https://perenual.com/storage/species_image/2_abies_alba_pyramidalis/medium/49255769768_df55596553_b.jpg","small_url":"https://perenual.com/storage/species_image/2_abies_alba_pyramidalis/small/49255769768_df55596553_b.jpg","thumbnail":"https://perenual.com/storage/species_image/2_abies_alba_pyramidalis/thumbnail/49255769768_df55596553_b.jpg"}},{"id":5048,"common_name":"creeping Jenny","scientific_name":["Lysimachia nummularia 'Goldilocks'"],"other_name":["moneywort"],"cycle":"Perennial","watering":"Frequent","sunlight":["Deep shade"," Filtered shade"," Full sun"," Part sun/part shade"],"default_image":{"image_id":10765,"license":5,"license_name":"Attribution-ShareAlike License","license_url":"https://creativecommons.org/licenses/by-sa/2.0/","original_url":"https://perenual.com/storage/species_image/5048_lysimachia_nummularia_goldilocks/og/3177447147_4725eff294_b.jpg","regular_url":"https://perenual.com/storage/species_image/5048_lysimachia_nummularia_goldilocks/regular/3177447147_4725eff294_b.jpg","medium_url":"https://perenual.com/storage/species_image/5048_lysimachia_nummularia_goldilocks/medium/3177447147_4725eff294_b.jpg","small_url":"https://perenual.com/storage/species_image/5048_lysimachia_nummularia_goldilocks/small/3177447147_4725eff294_b.jpg","thumbnail":"https://perenual.com/storage/species_image/5048_lysimachia_nummularia_goldilocks/thumbnail/3177447147_4725eff294_b.jpg"}},{"id":5049,"common_name":"loosestrife","scientific_name":["Lysimachia punctata"],"other_name":["yellow loosestrife"],"cycle":"Perennial","watering":"Frequent","sunlight":["Full sun","part shade"],"default_image":{"image_id":10768,"license":6,"license_name":"Attribution-NoDerivs License","license_url":"https://creativecommons.org/licenses/by-nd/2.0/","original_url":"https://perenual.com/storage/species_image/5049_lysimachia_punctata/og/52212044600_9eb6a67d4e_b.jpg"}},{"id":5050,"common_name":"loosestrife","scientific_name":["Lysimachia punctata 'Alexander'"],"other_name":null,"cycle":"Perennial","watering":"Frequent","sunlight":["Full sun","part shade"],"default_image":{"image_id":10774,"license":5,"license_name":"Attribution-ShareAlike License","license_url":"https://creativecommons.org/licenses/by-sa/2.0/","original_url":"https://perenual.com/storage/species_image/5050_lysimachia_punctata_alexander/og/18691817246_f3cf33664d_b.jpg","regular_url":"https://perenual.com/storage/species_image/5050_lysimachia_punctata_alexander/regular/18691817246_f3cf33664d_b.jpg","medium_url":"https://perenual.com/storage/species_image/5050_lysimachia_punctata_alexander/medium/18691817246_f3cf33664d_b.jpg","small_url":"https://perenual.com/storage/species_image/5050_lysimachia_punctata_alexander/small/18691817246_f3cf33664d_b.jpg","thumbnail":"https://perenual.com/storage/species_image/5050_lysimachia_punctata_alexander/thumbnail/18691817246_f3cf33664d_b.jpg"}},{"id":5051,"common_name":"garden yellow loosestrife","scientific_name":["Lysimachia vulgaris"],"other_name":null,"cycle":"Perennial","watering":"Frequent","sunlight":["Full sun","part shade"],"default_image":{"image_id":9,"license":5,"license_name":"Attribution-ShareAlike License","license_url":"https://creativecommons.org/licenses/by-sa/2.0/","original_url":"https://perenual.com/storage/species_image/2_abies_alba_pyramidalis/og/49255769768_df55596553_b.jpg","regular_url":"https://perenual.com/storage/species_image/2_abies_alba_pyramidalis/regular/49255769768_df55596553_b.jpg","medium_url":"https://perenual.com/storage/species_image/2_abies_alba_pyramidalis/medium/49255769768_df55596553_b.jpg","small_url":"https://perenual.com/storage/species_image/2_abies_alba_pyramidalis/small/49255769768_df55596553_b.jpg","thumbnail":"https://perenual.com/storage/species_image/2_abies_alba_pyramidalis/thumbnail/49255769768_df55596553_b.jpg"}},{"id":5052,"common_name":"purple loosestrife","scientific_name":["Lythrum salicaria"],"other_name":null,"cycle":"Perennial","watering":"Frequent","sunlight":["Full sun"," Part sun/part shade"],"default_image":{"image_id":9,"license":5,"license_name":"Attribution-ShareAlike License","license_url":"https://creativecommons.org/licenses/by-sa/2.0/","original_url":"https://perenual.com/storage/species_image/2_abies_alba_pyramidalis/og/49255769768_df55596553_b.jpg","regular_url":"https://perenual.com/storage/species_image/2_abies_alba_pyramidalis/regular/49255769768_df55596553_b.jpg","medium_url":"https://perenual.com/storage/species_image/2_abies_alba_pyramidalis/medium/49255769768_df55596553_b.jpg","small_url":"https://perenual.com/storage/species_image/2_abies_alba_pyramidalis/small/49255769768_df55596553_b.jpg","thumbnail":"https://perenual.com/storage/species_image/2_abies_alba_pyramidalis/thumbnail/49255769768_df55596553_b.jpg"}},{"id":5053,"common_name":"maackia","scientific_name":["Maackia amurensis"],"other_name":null,"cycle":"Perennial","watering":"Average","sunlight":["Full sun","part shade"],"default_image":{"image_id":10782,"license":5,"license_name":"Attribution-ShareAlike License","license_url":"https://creativecommons.org/licenses/by-sa/2.0/","original_url":"https://perenual.com/storage/species_image/5053_maackia_amurensis/og/52168625324_2dcc14a099_b.jpg","regular_url":"https://perenual.com/storage/species_image/5053_maackia_amurensis/regular/52168625324_2dcc14a099_b.jpg","medium_url":"https://perenual.com/storage/species_image/5053_maackia_amurensis/medium/52168625324_2dcc14a099_b.jpg","small_url":"https://perenual.com/storage/species_image/5053_maackia_amurensis/small/52168625324_2dcc14a099_b.jpg","thumbnail":"https://perenual.com/storage/species_image/5053_maackia_amurensis/thumbnail/52168625324_2dcc14a099_b.jpg"}},{"id":5054,"common_name":"maackia","scientific_name":["Maackia chinensis"],"other_name":null,"cycle":"Perennial","watering":"Average","sunlight":["Full sun","part shade"],"default_image":{"image_id":10788,"license":5,"license_name":"Attribution-ShareAlike License","license_url":"https://creativecommons.org/licenses/by-sa/2.0/","original_url":"https://perenual.com/storage/species_image/5054_maackia_chinensis/og/10207246495_3d6d755110_b.jpg","regular_url":"https://perenual.com/storage/species_image/5054_maackia_chinensis/regular/10207246495_3d6d755110_b.jpg","medium_url":"https://perenual.com/storage/species_image/5054_maackia_chinensis/medium/10207246495_3d6d755110_b.jpg","small_url":"https://perenual.com/storage/species_image/5054_maackia_chinensis/small/10207246495_3d6d755110_b.jpg","thumbnail":"https://perenual.com/storage/species_image/5054_maackia_chinensis/thumbnail/10207246495_3d6d755110_b.jpg"}},{"id":5055,"common_name":"macadamia nut","scientific_name":["Macadamia integrifolia"],"other_name":null,"cycle":"Perennial","watering":"Frequent","sunlight":["Full sun"],"default_image":{"image_id":10793,"license":5,"license_name":"Attribution-ShareAlike License","license_url":"https://creativecommons.org/licenses/by-sa/2.0/","original_url":"https://perenual.com/storage/species_image/5055_macadamia_integrifolia/og/49760378611_078a109e6a_b.jpg","regular_url":"https://perenual.com/storage/species_image/5055_macadamia_integrifolia/regular/49760378611_078a109e6a_b.jpg","medium_url":"https://perenual.com/storage/species_image/5055_macadamia_integrifolia/medium/49760378611_078a109e6a_b.jpg","small_url":"https://perenual.com/storage/species_image/5055_macadamia_integrifolia/small/49760378611_078a109e6a_b.jpg","thumbnail":"https://perenual.com/storage/species_image/5055_macadamia_integrifolia/thumbnail/49760378611_078a109e6a_b.jpg"}},{"id":5056,"common_name":"forest bell bush","scientific_name":["Mackaya bella"],"other_name":null,"cycle":"Perennial","watering":"Average","sunlight":["Full sun","part shade"],"default_image":{"image_id":10800,"license":5,"license_name":"Attribution-ShareAlike License","license_url":"https://creativecommons.org/licenses/by-sa/2.0/","original_url":"https://perenual.com/storage/species_image/5056_mackaya_bella/og/9227008291_27f325d684_b.jpg","regular_url":"https://perenual.com/storage/species_image/5056_mackaya_bella/regular/9227008291_27f325d684_b.jpg","medium_url":"https://perenual.com/storage/species_image/5056_mackaya_bella/medium/9227008291_27f325d684_b.jpg","small_url":"https://perenual.com/storage/species_image/5056_mackaya_bella/small/9227008291_27f325d684_b.jpg","thumbnail":"https://perenual.com/storage/species_image/5056_mackaya_bella/thumbnail/9227008291_27f325d684_b.jpg"}},{"id":5057,"common_name":"plume poppy","scientific_name":["Macleaya cordata"],"other_name":null,"cycle":"Perennial","watering":"Average","sunlight":["Full sun","part shade"],"default_image":{"image_id":10809,"license":5,"license_name":"Attribution-ShareAlike License","license_url":"https://creativecommons.org/licenses/by-sa/2.0/","original_url":"https://perenual.com/storage/species_image/5057_macleaya_cordata/og/4710772700_b0c070c3d0_b.jpg","regular_url":"https://perenual.com/storage/species_image/5057_macleaya_cordata/regular/4710772700_b0c070c3d0_b.jpg","medium_url":"https://perenual.com/storage/species_image/5057_macleaya_cordata/medium/4710772700_b0c070c3d0_b.jpg","small_url":"https://perenual.com/storage/species_image/5057_macleaya_cordata/small/4710772700_b0c070c3d0_b.jpg","thumbnail":"https://perenual.com/storage/species_image/5057_macleaya_cordata/thumbnail/4710772700_b0c070c3d0_b.jpg"}},{"id":5058,"common_name":"osage orange","scientific_name":["Maclura pomifera"],"other_name":null,"cycle":"Perennial","watering":"Minimum","sunlight":["Full sun","part shade"],"default_image":{"image_id":10817,"license":5,"license_name":"Attribution-ShareAlike License","license_url":"https://creativecommons.org/licenses/by-sa/2.0/","original_url":"https://perenual.com/storage/species_image/5058_maclura_pomifera/og/36519128441_695d85da0d_b.jpg","regular_url":"https://perenual.com/storage/species_image/5058_maclura_pomifera/regular/36519128441_695d85da0d_b.jpg","medium_url":"https://perenual.com/storage/species_image/5058_maclura_pomifera/medium/36519128441_695d85da0d_b.jpg","small_url":"https://perenual.com/storage/species_image/5058_maclura_pomifera/small/36519128441_695d85da0d_b.jpg","thumbnail":"https://perenual.com/storage/species_image/5058_maclura_pomifera/thumbnail/36519128441_695d85da0d_b.jpg"}},{"id":5059,"common_name":"cucumber tree","scientific_name":["Magnolia acuminata"],"other_name":null,"cycle":"Perennial","watering":"Average","sunlight":["Full sun","part shade"],"default_image":{"image_id":9,"license":5,"license_name":"Attribution-ShareAlike License","license_url":"https://creativecommons.org/licenses/by-sa/2.0/","original_url":"https://perenual.com/storage/species_image/2_abies_alba_pyramidalis/og/49255769768_df55596553_b.jpg","regular_url":"https://perenual.com/storage/species_image/2_abies_alba_pyramidalis/regular/49255769768_df55596553_b.jpg","medium_url":"https://perenual.com/storage/species_image/2_abies_alba_pyramidalis/medium/49255769768_df55596553_b.jpg","small_url":"https://perenual.com/storage/species_image/2_abies_alba_pyramidalis/small/49255769768_df55596553_b.jpg","thumbnail":"https://perenual.com/storage/species_image/2_abies_alba_pyramidalis/thumbnail/49255769768_df55596553_b.jpg"}},{"id":5060,"common_name":"magnolia","scientific_name":["Magnolia acuminata var. subcordata 'Miss Honeybee'"],"other_name":null,"cycle":"Perennial","watering":"Average","sunlight":["Full sun","part shade"],"default_image":{"image_id":9,"license":5,"license_name":"Attribution-ShareAlike License","license_url":"https://creativecommons.org/licenses/by-sa/2.0/","original_url":"https://perenual.com/storage/species_image/2_abies_alba_pyramidalis/og/49255769768_df55596553_b.jpg","regular_url":"https://perenual.com/storage/species_image/2_abies_alba_pyramidalis/regular/49255769768_df55596553_b.jpg","medium_url":"https://perenual.com/storage/species_image/2_abies_alba_pyramidalis/medium/49255769768_df55596553_b.jpg","small_url":"https://perenual.com/storage/species_image/2_abies_alba_pyramidalis/small/49255769768_df55596553_b.jpg","thumbnail":"https://perenual.com/storage/species_image/2_abies_alba_pyramidalis/thumbnail/49255769768_df55596553_b.jpg"}},{"id":5061,"common_name":"magnolia","scientific_name":["Magnolia 'Ann'"],"other_name":null,"cycle":"Perennial","watering":"Average","sunlight":["Full sun","part shade"],"default_image":{"image_id":10832,"license":5,"license_name":"Attribution-ShareAlike License","license_url":"https://creativecommons.org/licenses/by-sa/2.0/","original_url":"https://perenual.com/storage/species_image/5073_magnolia_jane/og/52067269579_2d64928054_b.jpg","regular_url":"https://perenual.com/storage/species_image/5073_magnolia_jane/regular/52067269579_2d64928054_b.jpg","medium_url":"https://perenual.com/storage/species_image/5073_magnolia_jane/medium/52067269579_2d64928054_b.jpg","small_url":"https://perenual.com/storage/species_image/5073_magnolia_jane/small/52067269579_2d64928054_b.jpg","thumbnail":"https://perenual.com/storage/species_image/5073_magnolia_jane/thumbnail/52067269579_2d64928054_b.jpg"}},{"id":5062,"common_name":"magnolia","scientific_name":["Magnolia 'Betty'"],"other_name":null,"cycle":"Perennial","watering":"Average","sunlight":["Full sun","part shade"],"default_image":{"image_id":10840,"license":5,"license_name":"Attribution-ShareAlike License","license_url":"https://creativecommons.org/licenses/by-sa/2.0/","original_url":"https://perenual.com/storage/species_image/5073_magnolia_jane/og/52067522470_90300e84dc_b.jpg","regular_url":"https://perenual.com/storage/species_image/5073_magnolia_jane/regular/52067522470_90300e84dc_b.jpg","medium_url":"https://perenual.com/storage/species_image/5073_magnolia_jane/medium/52067522470_90300e84dc_b.jpg","small_url":"https://perenual.com/storage/species_image/5073_magnolia_jane/small/52067522470_90300e84dc_b.jpg","thumbnail":"https://perenual.com/storage/species_image/5073_magnolia_jane/thumbnail/52067522470_90300e84dc_b.jpg"}},{"id":5063,"common_name":"magnolia","scientific_name":["Magnolia brooklynensis 'Woodsman'"],"other_name":null,"cycle":"Perennial","watering":"Average","sunlight":["Full sun","part shade"],"default_image":{"image_id":9,"license":5,"license_name":"Attribution-ShareAlike License","license_url":"https://creativecommons.org/licenses/by-sa/2.0/","original_url":"https://perenual.com/storage/species_image/2_abies_alba_pyramidalis/og/49255769768_df55596553_b.jpg","regular_url":"https://perenual.com/storage/species_image/2_abies_alba_pyramidalis/regular/49255769768_df55596553_b.jpg","medium_url":"https://perenual.com/storage/species_image/2_abies_alba_pyramidalis/medium/49255769768_df55596553_b.jpg","small_url":"https://perenual.com/storage/species_image/2_abies_alba_pyramidalis/small/49255769768_df55596553_b.jpg","thumbnail":"https://perenual.com/storage/species_image/2_abies_alba_pyramidalis/thumbnail/49255769768_df55596553_b.jpg"}},{"id":5064,"common_name":"magnolia","scientific_name":["Magnolia brooklynensis 'Yellow Bird'"],"other_name":null,"cycle":"Perennial","watering":"Average","sunlight":["Full sun","part shade"],"default_image":{"image_id":671,"license":4,"license_name":"Attribution License","license_url":"https://creativecommons.org/licenses/by/2.0/","original_url":"https://perenual.com/storage/species_image/337_magnolia_yellow_bird/og/7384703532_7b3c58347a_b.jpg","regular_url":"https://perenual.com/storage/species_image/337_magnolia_yellow_bird/regular/7384703532_7b3c58347a_b.jpg","medium_url":"https://perenual.com/storage/species_image/337_magnolia_yellow_bird/medium/7384703532_7b3c58347a_b.jpg","small_url":"https://perenual.com/storage/species_image/337_magnolia_yellow_bird/small/7384703532_7b3c58347a_b.jpg","thumbnail":"https://perenual.com/storage/species_image/337_magnolia_yellow_bird/thumbnail/7384703532_7b3c58347a_b.jpg"}},{"id":5065,"common_name":"magnolia","scientific_name":["Magnolia 'Charles Coates'"],"other_name":null,"cycle":"Perennial","watering":"Average","sunlight":["Full sun","part shade"],"default_image":{"image_id":9,"license":5,"license_name":"Attribution-ShareAlike License","license_url":"https://creativecommons.org/licenses/by-sa/2.0/","original_url":"https://perenual.com/storage/species_image/2_abies_alba_pyramidalis/og/49255769768_df55596553_b.jpg","regular_url":"https://perenual.com/storage/species_image/2_abies_alba_pyramidalis/regular/49255769768_df55596553_b.jpg","medium_url":"https://perenual.com/storage/species_image/2_abies_alba_pyramidalis/medium/49255769768_df55596553_b.jpg","small_url":"https://perenual.com/storage/species_image/2_abies_alba_pyramidalis/small/49255769768_df55596553_b.jpg","thumbnail":"https://perenual.com/storage/species_image/2_abies_alba_pyramidalis/thumbnail/49255769768_df55596553_b.jpg"}},{"id":5066,"common_name":"magnolia","scientific_name":["Magnolia compressa"],"other_name":null,"cycle":"Perennial","watering":"Average","sunlight":["Part shade"],"default_image":{"image_id":9,"license":5,"license_name":"Attribution-ShareAlike License","license_url":"https://creativecommons.org/licenses/by-sa/2.0/","original_url":"https://perenual.com/storage/species_image/2_abies_alba_pyramidalis/og/49255769768_df55596553_b.jpg","regular_url":"https://perenual.com/storage/species_image/2_abies_alba_pyramidalis/regular/49255769768_df55596553_b.jpg","medium_url":"https://perenual.com/storage/species_image/2_abies_alba_pyramidalis/medium/49255769768_df55596553_b.jpg","small_url":"https://perenual.com/storage/species_image/2_abies_alba_pyramidalis/small/49255769768_df55596553_b.jpg","thumbnail":"https://perenual.com/storage/species_image/2_abies_alba_pyramidalis/thumbnail/49255769768_df55596553_b.jpg"}},{"id":5067,"common_name":"cylindrical magnolia","scientific_name":["Magnolia cylindrica"],"other_name":null,"cycle":"Perennial","watering":"Average","sunlight":["Full sun","part shade"],"default_image":{"image_id":9,"license":5,"license_name":"Attribution-ShareAlike License","license_url":"https://creativecommons.org/licenses/by-sa/2.0/","original_url":"https://perenual.com/storage/species_image/2_abies_alba_pyramidalis/og/49255769768_df55596553_b.jpg","regular_url":"https://perenual.com/storage/species_image/2_abies_alba_pyramidalis/regular/49255769768_df55596553_b.jpg","medium_url":"https://perenual.com/storage/species_image/2_abies_alba_pyramidalis/medium/49255769768_df55596553_b.jpg","small_url":"https://perenual.com/storage/species_image/2_abies_alba_pyramidalis/small/49255769768_df55596553_b.jpg","thumbnail":"https://perenual.com/storage/species_image/2_abies_alba_pyramidalis/thumbnail/49255769768_df55596553_b.jpg"}},{"id":5068,"common_name":"banana magnolia","scientific_name":["Magnolia figo"],"other_name":null,"cycle":"Perennial","watering":"Average","sunlight":["Full sun","part shade"],"default_image":{"image_id":9,"license":5,"license_name":"Attribution-ShareAlike License","license_url":"https://creativecommons.org/licenses/by-sa/2.0/","original_url":"https://perenual.com/storage/species_image/2_abies_alba_pyramidalis/og/49255769768_df55596553_b.jpg","regular_url":"https://perenual.com/storage/species_image/2_abies_alba_pyramidalis/regular/49255769768_df55596553_b.jpg","medium_url":"https://perenual.com/storage/species_image/2_abies_alba_pyramidalis/medium/49255769768_df55596553_b.jpg","small_url":"https://perenual.com/storage/species_image/2_abies_alba_pyramidalis/small/49255769768_df55596553_b.jpg","thumbnail":"https://perenual.com/storage/species_image/2_abies_alba_pyramidalis/thumbnail/49255769768_df55596553_b.jpg"}},{"id":5069,"common_name":"magnolia","scientific_name":["Magnolia 'Galaxy'"],"other_name":null,"cycle":"Perennial","watering":"Average","sunlight":["Full sun","part shade"],"default_image":{"image_id":10851,"license":4,"license_name":"Attribution License","license_url":"https://creativecommons.org/licenses/by/2.0/","original_url":"https://perenual.com/storage/species_image/5069_magnolia_galaxy/og/51107689314_64da5ec617_b.jpg","regular_url":"https://perenual.com/storage/species_image/5069_magnolia_galaxy/regular/51107689314_64da5ec617_b.jpg","medium_url":"https://perenual.com/storage/species_image/5069_magnolia_galaxy/medium/51107689314_64da5ec617_b.jpg","small_url":"https://perenual.com/storage/species_image/5069_magnolia_galaxy/small/51107689314_64da5ec617_b.jpg","thumbnail":"https://perenual.com/storage/species_image/5069_magnolia_galaxy/thumbnail/51107689314_64da5ec617_b.jpg"}},{"id":5070,"common_name":"magnolia","scientific_name":["Magnolia garrettii"],"other_name":null,"cycle":"Perennial","watering":"Average","sunlight":["Full sun","part shade"],"default_image":{"image_id":10859,"license":5,"license_name":"Attribution-ShareAlike License","license_url":"https://creativecommons.org/licenses/by-sa/2.0/","original_url":"https://perenual.com/storage/species_image/5070_magnolia_garrettii/og/52584084404_b27cc6c7b4_b.jpg","regular_url":"https://perenual.com/storage/species_image/5070_magnolia_garrettii/regular/52584084404_b27cc6c7b4_b.jpg","medium_url":"https://perenual.com/storage/species_image/5070_magnolia_garrettii/medium/52584084404_b27cc6c7b4_b.jpg","small_url":"https://perenual.com/storage/species_image/5070_magnolia_garrettii/small/52584084404_b27cc6c7b4_b.jpg","thumbnail":"https://perenual.com/storage/species_image/5070_magnolia_garrettii/thumbnail/52584084404_b27cc6c7b4_b.jpg"}}],"to":5070,"per_page":30,"current_page":169,"from":5041,"last_page":200,"total":6000}