{"data":[{"id":121,"common_name":"Shindeshojo Japanese Maple","scientific_name":["Acer palmatum 'Shindeshojo'"],"other_name":["Shin Deshojo"],"cycle":"Perennial","watering":"Average","sunlight":["Full sun","part shade"],"default_image":{"image_id":191,"license":4,"license_name":"Attribution License","license_url":"https://creativecommons.org/licenses/by/2.0/","original_url":"https://perenual.com/storage/species_image/121_acer_palmatum_shindeshojo/og/5827311526_cd9a9096a0_b.jpg","regular_url":"https://perenual.com/storage/species_image/121_acer_palmatum_shindeshojo/regular/5827311526_cd9a9096a0_b.jpg","medium_url":"https://perenual.com/storage/species_image/121_acer_palmatum_shindeshojo/medium/5827311526_cd9a9096a0_b.jpg","small_url":"https://perenual.com/storage/species_image/121_acer_palmatum_shindeshojo/small/5827311526_cd9a9096a0_b.jpg","thumbnail":"https://perenual.com/storage/species_image/121_acer_palmatum_shindeshojo/thumbnail/5827311526_cd9a9096a0_b.jpg"}},{"id":122,"common_name":"Shinobuga Oka Japanese Maple*","scientific_name":["Acer palmatum 'Shinobuga Oka'"],"other_name":["Shinobu Ga Oka","Shino Buga Oka Japanese Maple"],"cycle":"Perennial","watering":"Frequent","sunlight":[],"default_image":{"image_id":9,"license":5,"license_name":"Attribution-ShareAlike License","license_url":"https://creativecommons.org/licenses/by-sa/2.0/","original_url":"https://perenual.com/storage/species_image/2_abies_alba_pyramidalis/og/49255769768_df55596553_b.jpg","regular_url":"https://perenual.com/storage/species_image/2_abies_alba_pyramidalis/regular/49255769768_df55596553_b.jpg","medium_url":"https://perenual.com/storage/species_image/2_abies_alba_pyramidalis/medium/49255769768_df55596553_b.jpg","small_url":"https://perenual.com/storage/species_image/2_abies_alba_pyramidalis/small/49255769768_df55596553_b.jpg","thumbnail":"https://perenual.com/storage/species_image/2_abies_alba_pyramidalis/thumbnail/49255769768_df55596553_b.jpg"}},{"id":123,"common_name":"Lions Head Japanese Maple","scientific_name":["Acer palmatum 'Shishigashira'"],"other_name":null,"cycle":"Perennial","watering":"Average","sunlight":["Full sun","part shade"],"default_image":{"image_id":195,"license":5,"license_name":"Attribution-ShareAlike License","license_url":"https://creativecommons.org/licenses/by-sa/2.0/","original_url":"https://perenual.com/storage/species_image/123_acer_palmatum_shishigashira/og/4847315016_26a7119afa_b.jpg","regular_url":"https://perenual.com/storage/species_image/123_acer_palmatum_shishigashira/regular/4847315016_26a7119afa_b.jpg","medium_url":"https://perenual.com/storage/species_image/123_acer_palmatum_shishigashira/medium/4847315016_26a7119afa_b.jpg","small_url":"https://perenual.com/storage/species_image/123_acer_palmatum_shishigashira/small/4847315016_26a7119afa_b.jpg","thumbnail":"https://perenual.com/storage/species_image/123_acer_palmatum_shishigashira/thumbnail/4847315016_26a7119afa_b.jpg"}},{"id":124,"common_name":"Shishio Hime Japanese Maple*","scientific_name":["Acer palmatum 'Shishio Hime'"],"other_name":null,"cycle":"Perennial","watering":"Frequent","sunlight":[],"default_image":{"image_id":21043,"license":451,"license_name":"CC0 1.0 Universal (CC0 1.0) Public Domain Dedication","license_url":"https://creativecommons.org/publicdomain/zero/1.0/","original_url":"https://perenual.com/storage/species_image/136_acer_palmatum_ueno_homare/og/3ea9ddf894f766d45ef848c98b9a-1424381.jpg","regular_url":"https://perenual.com/storage/species_image/136_acer_palmatum_ueno_homare/regular/3ea9ddf894f766d45ef848c98b9a-1424381.jpg","medium_url":"https://perenual.com/storage/species_image/136_acer_palmatum_ueno_homare/medium/3ea9ddf894f766d45ef848c98b9a-1424381.jpg","small_url":"https://perenual.com/storage/species_image/136_acer_palmatum_ueno_homare/small/3ea9ddf894f766d45ef848c98b9a-1424381.jpg","thumbnail":"https://perenual.com/storage/species_image/136_acer_palmatum_ueno_homare/thumbnail/3ea9ddf894f766d45ef848c98b9a-1424381.jpg"}},{"id":125,"common_name":"Spring Delight Japanese Maple","scientific_name":["Acer palmatum 'Spring Delight'"],"other_name":null,"cycle":"Perennial","watering":"Frequent","sunlight":[],"default_image":{"image_id":21044,"license":45,"license_name":"Attribution-ShareAlike 3.0 Unported (CC BY-SA 3.0)","license_url":"https://creativecommons.org/licenses/by-sa/3.0/deed.en","original_url":"https://perenual.com/storage/species_image/125_acer_palmatum_spring_delight/og/Acer_palmatum_Eddisbury_-_Flickr_-_peganum_%281%29.jpg","regular_url":"https://perenual.com/storage/species_image/125_acer_palmatum_spring_delight/regular/Acer_palmatum_Eddisbury_-_Flickr_-_peganum_%281%29.jpg","medium_url":"https://perenual.com/storage/species_image/125_acer_palmatum_spring_delight/medium/Acer_palmatum_Eddisbury_-_Flickr_-_peganum_%281%29.jpg","small_url":"https://perenual.com/storage/species_image/125_acer_palmatum_spring_delight/small/Acer_palmatum_Eddisbury_-_Flickr_-_peganum_%281%29.jpg","thumbnail":"https://perenual.com/storage/species_image/125_acer_palmatum_spring_delight/thumbnail/Acer_palmatum_Eddisbury_-_Flickr_-_peganum_%281%29.jpg"}},{"id":126,"common_name":"Suminagashi Japanese Maple","scientific_name":["Acer palmatum 'Suminagashi'"],"other_name":["Sumi Nagashi"],"cycle":"Perennial","watering":"Average","sunlight":["Full sun","part shade"],"default_image":{"image_id":9,"license":5,"license_name":"Attribution-ShareAlike License","license_url":"https://creativecommons.org/licenses/by-sa/2.0/","original_url":"https://perenual.com/storage/species_image/2_abies_alba_pyramidalis/og/49255769768_df55596553_b.jpg","regular_url":"https://perenual.com/storage/species_image/2_abies_alba_pyramidalis/regular/49255769768_df55596553_b.jpg","medium_url":"https://perenual.com/storage/species_image/2_abies_alba_pyramidalis/medium/49255769768_df55596553_b.jpg","small_url":"https://perenual.com/storage/species_image/2_abies_alba_pyramidalis/small/49255769768_df55596553_b.jpg","thumbnail":"https://perenual.com/storage/species_image/2_abies_alba_pyramidalis/thumbnail/49255769768_df55596553_b.jpg"}},{"id":127,"common_name":"Tama Hime Japanese Maple","scientific_name":["Acer palmatum 'Tama Hime'"],"other_name":null,"cycle":"Perennial","watering":"Frequent","sunlight":[],"default_image":{"image_id":21045,"license":4,"license_name":"Attribution License","license_url":"https://creativecommons.org/licenses/by/2.0/","original_url":"https://perenual.com/storage/species_image/127_acer_palmatum_tama_hime/og/3467420590_a48a005ba1_b.jpg","regular_url":"https://perenual.com/storage/species_image/127_acer_palmatum_tama_hime/regular/3467420590_a48a005ba1_b.jpg","medium_url":"https://perenual.com/storage/species_image/127_acer_palmatum_tama_hime/medium/3467420590_a48a005ba1_b.jpg","small_url":"https://perenual.com/storage/species_image/127_acer_palmatum_tama_hime/small/3467420590_a48a005ba1_b.jpg","thumbnail":"https://perenual.com/storage/species_image/127_acer_palmatum_tama_hime/thumbnail/3467420590_a48a005ba1_b.jpg"}},{"id":128,"common_name":"Tamukeyama Japanese Maple","scientific_name":["Acer palmatum 'Tamukeyama'"],"other_name":null,"cycle":"Perennial","watering":"Frequent","sunlight":[],"default_image":{"image_id":9,"license":5,"license_name":"Attribution-ShareAlike License","license_url":"https://creativecommons.org/licenses/by-sa/2.0/","original_url":"https://perenual.com/storage/species_image/2_abies_alba_pyramidalis/og/49255769768_df55596553_b.jpg","regular_url":"https://perenual.com/storage/species_image/2_abies_alba_pyramidalis/regular/49255769768_df55596553_b.jpg","medium_url":"https://perenual.com/storage/species_image/2_abies_alba_pyramidalis/medium/49255769768_df55596553_b.jpg","small_url":"https://perenual.com/storage/species_image/2_abies_alba_pyramidalis/small/49255769768_df55596553_b.jpg","thumbnail":"https://perenual.com/storage/species_image/2_abies_alba_pyramidalis/thumbnail/49255769768_df55596553_b.jpg"}},{"id":129,"common_name":"Tana Japanese Maple*","scientific_name":["Acer palmatum 'Tana'"],"other_name":null,"cycle":"Perennial","watering":"Frequent","sunlight":[],"default_image":{"image_id":21046,"license":45,"license_name":"Attribution-ShareAlike 3.0 Unported (CC BY-SA 3.0)","license_url":"https://creativecommons.org/licenses/by-sa/3.0/deed.en","original_url":"https://perenual.com/storage/species_image/129_acer_palmatum_tana/og/Acer_palmatum_subsp._amoenum_in_Hackfalls_Arboretum_%282%29.jpg","regular_url":"https://perenual.com/storage/species_image/129_acer_palmatum_tana/regular/Acer_palmatum_subsp._amoenum_in_Hackfalls_Arboretum_%282%29.jpg","medium_url":"https://perenual.com/storage/species_image/129_acer_palmatum_tana/medium/Acer_palmatum_subsp._amoenum_in_Hackfalls_Arboretum_%282%29.jpg","small_url":"https://perenual.com/storage/species_image/129_acer_palmatum_tana/small/Acer_palmatum_subsp._amoenum_in_Hackfalls_Arboretum_%282%29.jpg","thumbnail":"https://perenual.com/storage/species_image/129_acer_palmatum_tana/thumbnail/Acer_palmatum_subsp._amoenum_in_Hackfalls_Arboretum_%282%29.jpg"}},{"id":130,"common_name":"Tobiosho Japanese Maple","scientific_name":["Acer palmatum 'Tobiosho'"],"other_name":null,"cycle":"Perennial","watering":"Frequent","sunlight":[],"default_image":{"image_id":9,"license":5,"license_name":"Attribution-ShareAlike License","license_url":"https://creativecommons.org/licenses/by-sa/2.0/","original_url":"https://perenual.com/storage/species_image/2_abies_alba_pyramidalis/og/49255769768_df55596553_b.jpg","regular_url":"https://perenual.com/storage/species_image/2_abies_alba_pyramidalis/regular/49255769768_df55596553_b.jpg","medium_url":"https://perenual.com/storage/species_image/2_abies_alba_pyramidalis/medium/49255769768_df55596553_b.jpg","small_url":"https://perenual.com/storage/species_image/2_abies_alba_pyramidalis/small/49255769768_df55596553_b.jpg","thumbnail":"https://perenual.com/storage/species_image/2_abies_alba_pyramidalis/thumbnail/49255769768_df55596553_b.jpg"}},{"id":131,"common_name":"Trompenburg Japanese Maple*","scientific_name":["Acer palmatum 'Trompenburg'"],"other_name":null,"cycle":"Perennial","watering":"Average","sunlight":["Full sun","part shade"],"default_image":{"image_id":9,"license":5,"license_name":"Attribution-ShareAlike License","license_url":"https://creativecommons.org/licenses/by-sa/2.0/","original_url":"https://perenual.com/storage/species_image/2_abies_alba_pyramidalis/og/49255769768_df55596553_b.jpg","regular_url":"https://perenual.com/storage/species_image/2_abies_alba_pyramidalis/regular/49255769768_df55596553_b.jpg","medium_url":"https://perenual.com/storage/species_image/2_abies_alba_pyramidalis/medium/49255769768_df55596553_b.jpg","small_url":"https://perenual.com/storage/species_image/2_abies_alba_pyramidalis/small/49255769768_df55596553_b.jpg","thumbnail":"https://perenual.com/storage/species_image/2_abies_alba_pyramidalis/thumbnail/49255769768_df55596553_b.jpg"}},{"id":132,"common_name":"Tsukasa Silhouette Japanese Maple*","scientific_name":["Acer palmatum 'Tsukasa Silhouette'"],"other_name":null,"cycle":"Perennial","watering":"Frequent","sunlight":[],"default_image":{"image_id":21020,"license":45,"license_name":"Attribution-ShareAlike 3.0 Unported (CC BY-SA 3.0)","license_url":"https://creativecommons.org/licenses/by-sa/3.0/deed.en","original_url":"https://perenual.com/storage/species_image/132_acer_palmatum_tsukasa_silhouette/og/Acer_palmatum_Eddisbury_-_Flickr_-_peganum.jpg","regular_url":"https://perenual.com/storage/species_image/132_acer_palmatum_tsukasa_silhouette/regular/Acer_palmatum_Eddisbury_-_Flickr_-_peganum.jpg","medium_url":"https://perenual.com/storage/species_image/132_acer_palmatum_tsukasa_silhouette/medium/Acer_palmatum_Eddisbury_-_Flickr_-_peganum.jpg","small_url":"https://perenual.com/storage/species_image/132_acer_palmatum_tsukasa_silhouette/small/Acer_palmatum_Eddisbury_-_Flickr_-_peganum.jpg","thumbnail":"https://perenual.com/storage/species_image/132_acer_palmatum_tsukasa_silhouette/thumbnail/Acer_palmatum_Eddisbury_-_Flickr_-_peganum.jpg"}},{"id":133,"common_name":"Tsuma Gaki Japanese Maple","scientific_name":["Acer palmatum 'Tsuma Gaki'"],"other_name":null,"cycle":"Perennial","watering":"Frequent","sunlight":[],"default_image":{"image_id":9,"license":5,"license_name":"Attribution-ShareAlike License","license_url":"https://creativecommons.org/licenses/by-sa/2.0/","original_url":"https://perenual.com/storage/species_image/2_abies_alba_pyramidalis/og/49255769768_df55596553_b.jpg","regular_url":"https://perenual.com/storage/species_image/2_abies_alba_pyramidalis/regular/49255769768_df55596553_b.jpg","medium_url":"https://perenual.com/storage/species_image/2_abies_alba_pyramidalis/medium/49255769768_df55596553_b.jpg","small_url":"https://perenual.com/storage/species_image/2_abies_alba_pyramidalis/small/49255769768_df55596553_b.jpg","thumbnail":"https://perenual.com/storage/species_image/2_abies_alba_pyramidalis/thumbnail/49255769768_df55596553_b.jpg"}},{"id":134,"common_name":"Tsuri Nishiki Japanese Maple","scientific_name":["Acer palmatum 'Tsuri Nishiki'"],"other_name":null,"cycle":"Perennial","watering":"Frequent","sunlight":[],"default_image":{"image_id":9,"license":5,"license_name":"Attribution-ShareAlike License","license_url":"https://creativecommons.org/licenses/by-sa/2.0/","original_url":"https://perenual.com/storage/species_image/2_abies_alba_pyramidalis/og/49255769768_df55596553_b.jpg","regular_url":"https://perenual.com/storage/species_image/2_abies_alba_pyramidalis/regular/49255769768_df55596553_b.jpg","medium_url":"https://perenual.com/storage/species_image/2_abies_alba_pyramidalis/medium/49255769768_df55596553_b.jpg","small_url":"https://perenual.com/storage/species_image/2_abies_alba_pyramidalis/small/49255769768_df55596553_b.jpg","thumbnail":"https://perenual.com/storage/species_image/2_abies_alba_pyramidalis/thumbnail/49255769768_df55596553_b.jpg"}},{"id":135,"common_name":"Twombly's Red Sentinel Japanese Maple","scientific_name":["Acer palmatum 'Twombly's Red Sentinel'"],"other_name":null,"cycle":"Perennial","watering":"Frequent","sunlight":[],"default_image":{"image_id":21047,"license":9,"license_name":"Public Domain Dedication (CC0)","license_url":"https://creativecommons.org/publicdomain/zero/1.0/","original_url":"https://perenual.com/storage/species_image/135_acer_palmatum_twomblys_red_sentinel/og/33757558900_958207d989_b.jpg","regular_url":"https://perenual.com/storage/species_image/135_acer_palmatum_twomblys_red_sentinel/regular/33757558900_958207d989_b.jpg","medium_url":"https://perenual.com/storage/species_image/135_acer_palmatum_twomblys_red_sentinel/medium/33757558900_958207d989_b.jpg","small_url":"https://perenual.com/storage/species_image/135_acer_palmatum_twomblys_red_sentinel/small/33757558900_958207d989_b.jpg","thumbnail":"https://perenual.com/storage/species_image/135_acer_palmatum_twomblys_red_sentinel/thumbnail/33757558900_958207d989_b.jpg"}},{"id":136,"common_name":"Ueno Homare Japanese Maple","scientific_name":["Acer palmatum 'Ueno Homare'"],"other_name":null,"cycle":"Perennial","watering":"Frequent","sunlight":[],"default_image":{"image_id":21043,"license":451,"license_name":"CC0 1.0 Universal (CC0 1.0) Public Domain Dedication","license_url":"https://creativecommons.org/publicdomain/zero/1.0/","original_url":"https://perenual.com/storage/species_image/136_acer_palmatum_ueno_homare/og/3ea9ddf894f766d45ef848c98b9a-1424381.jpg","regular_url":"https://perenual.com/storage/species_image/136_acer_palmatum_ueno_homare/regular/3ea9ddf894f766d45ef848c98b9a-1424381.jpg","medium_url":"https://perenual.com/storage/species_image/136_acer_palmatum_ueno_homare/medium/3ea9ddf894f766d45ef848c98b9a-1424381.jpg","small_url":"https://perenual.com/storage/species_image/136_acer_palmatum_ueno_homare/small/3ea9ddf894f766d45ef848c98b9a-1424381.jpg","thumbnail":"https://perenual.com/storage/species_image/136_acer_palmatum_ueno_homare/thumbnail/3ea9ddf894f766d45ef848c98b9a-1424381.jpg"}},{"id":137,"common_name":"Floating Cloud Japanese Maple","scientific_name":["Acer palmatum 'Ukigumo'"],"other_name":null,"cycle":"Perennial","watering":"Frequent","sunlight":[],"default_image":{"image_id":200,"license":5,"license_name":"Attribution-ShareAlike License","license_url":"https://creativecommons.org/licenses/by-sa/2.0/","original_url":"https://perenual.com/storage/species_image/137_acer_palmatum_ukigumo/og/4845850971_a6f376a12a_b.jpg","regular_url":"https://perenual.com/storage/species_image/137_acer_palmatum_ukigumo/regular/4845850971_a6f376a12a_b.jpg","medium_url":"https://perenual.com/storage/species_image/137_acer_palmatum_ukigumo/medium/4845850971_a6f376a12a_b.jpg","small_url":"https://perenual.com/storage/species_image/137_acer_palmatum_ukigumo/small/4845850971_a6f376a12a_b.jpg","thumbnail":"https://perenual.com/storage/species_image/137_acer_palmatum_ukigumo/thumbnail/4845850971_a6f376a12a_b.jpg"}},{"id":138,"common_name":"Utsu Semi Japanese Maple","scientific_name":["Acer palmatum 'Utsu Semi'"],"other_name":null,"cycle":"Perennial","watering":"Frequent","sunlight":[],"default_image":{"image_id":21051,"license":45,"license_name":"Attribution-ShareAlike 3.0 Unported (CC BY-SA 3.0)","license_url":"https://creativecommons.org/licenses/by-sa/3.0/deed.en","original_url":"https://perenual.com/storage/species_image/138_acer_palmatum_utsu_semi/og/Acer_palmatum_Klon_palmowy_2019-05-26_05.jpg","regular_url":"https://perenual.com/storage/species_image/138_acer_palmatum_utsu_semi/regular/Acer_palmatum_Klon_palmowy_2019-05-26_05.jpg","medium_url":"https://perenual.com/storage/species_image/138_acer_palmatum_utsu_semi/medium/Acer_palmatum_Klon_palmowy_2019-05-26_05.jpg","small_url":"https://perenual.com/storage/species_image/138_acer_palmatum_utsu_semi/small/Acer_palmatum_Klon_palmowy_2019-05-26_05.jpg","thumbnail":"https://perenual.com/storage/species_image/138_acer_palmatum_utsu_semi/thumbnail/Acer_palmatum_Klon_palmowy_2019-05-26_05.jpg"}},{"id":139,"common_name":"Villa Taranto Japanese Maple","scientific_name":["Acer palmatum 'Villa Taranto'"],"other_name":null,"cycle":"Perennial","watering":"Average","sunlight":["Full sun","part shade"],"default_image":{"image_id":9,"license":5,"license_name":"Attribution-ShareAlike License","license_url":"https://creativecommons.org/licenses/by-sa/2.0/","original_url":"https://perenual.com/storage/species_image/2_abies_alba_pyramidalis/og/49255769768_df55596553_b.jpg","regular_url":"https://perenual.com/storage/species_image/2_abies_alba_pyramidalis/regular/49255769768_df55596553_b.jpg","medium_url":"https://perenual.com/storage/species_image/2_abies_alba_pyramidalis/medium/49255769768_df55596553_b.jpg","small_url":"https://perenual.com/storage/species_image/2_abies_alba_pyramidalis/small/49255769768_df55596553_b.jpg","thumbnail":"https://perenual.com/storage/species_image/2_abies_alba_pyramidalis/thumbnail/49255769768_df55596553_b.jpg"}},{"id":140,"common_name":"Wilson's Pink Dwarf Japanese Maple","scientific_name":["Acer palmatum 'Wilson's Pink Dwarf'"],"other_name":null,"cycle":"Perennial","watering":"Frequent","sunlight":[],"default_image":{"image_id":9,"license":5,"license_name":"Attribution-ShareAlike License","license_url":"https://creativecommons.org/licenses/by-sa/2.0/","original_url":"https://perenual.com/storage/species_image/2_abies_alba_pyramidalis/og/49255769768_df55596553_b.jpg","regular_url":"https://perenual.com/storage/species_image/2_abies_alba_pyramidalis/regular/49255769768_df55596553_b.jpg","medium_url":"https://perenual.com/storage/species_image/2_abies_alba_pyramidalis/medium/49255769768_df55596553_b.jpg","small_url":"https://perenual.com/storage/species_image/2_abies_alba_pyramidalis/small/49255769768_df55596553_b.jpg","thumbnail":"https://perenual.com/storage/species_image/2_abies_alba_pyramidalis/thumbnail/49255769768_df55596553_b.jpg"}},{"id":141,"common_name":"Emperor I Japanese Maple","scientific_name":["Acer palmatum 'Wolff'"],"other_name":["Emperor 1"],"cycle":"Perennial","watering":"Frequent","sunlight":[],"default_image":{"image_id":117,"license":5,"license_name":"Attribution-ShareAlike License","license_url":"https://creativecommons.org/licenses/by-sa/2.0/","original_url":"https://perenual.com/storage/species_image/141_acer_palmatum_wolff/og/41561385154_d744c9f519_b.jpg","regular_url":"https://perenual.com/storage/species_image/141_acer_palmatum_wolff/regular/41561385154_d744c9f519_b.jpg","medium_url":"https://perenual.com/storage/species_image/141_acer_palmatum_wolff/medium/41561385154_d744c9f519_b.jpg","small_url":"https://perenual.com/storage/species_image/141_acer_palmatum_wolff/small/41561385154_d744c9f519_b.jpg","thumbnail":"https://perenual.com/storage/species_image/141_acer_palmatum_wolff/thumbnail/41561385154_d744c9f519_b.jpg"}},{"id":142,"common_name":"Yellow Bird Japanese Maple","scientific_name":["Acer palmatum 'Yellow Bird'"],"other_name":null,"cycle":"Perennial","watering":"Frequent","sunlight":[],"default_image":{"image_id":9,"license":5,"license_name":"Attribution-ShareAlike License","license_url":"https://creativecommons.org/licenses/by-sa/2.0/","original_url":"https://perenual.com/storage/species_image/2_abies_alba_pyramidalis/og/49255769768_df55596553_b.jpg","regular_url":"https://perenual.com/storage/species_image/2_abies_alba_pyramidalis/regular/49255769768_df55596553_b.jpg","medium_url":"https://perenual.com/storage/species_image/2_abies_alba_pyramidalis/medium/49255769768_df55596553_b.jpg","small_url":"https://perenual.com/storage/species_image/2_abies_alba_pyramidalis/small/49255769768_df55596553_b.jpg","thumbnail":"https://perenual.com/storage/species_image/2_abies_alba_pyramidalis/thumbnail/49255769768_df55596553_b.jpg"}},{"id":143,"common_name":"Yubae Japanese Maple*","scientific_name":["Acer palmatum 'Yubae'"],"other_name":["Evening Glow Japanese Maple"],"cycle":"Perennial","watering":"Frequent","sunlight":[],"default_image":{"image_id":21021,"license":4,"license_name":"Attribution License","license_url":"https://creativecommons.org/licenses/by/2.0/","original_url":"https://perenual.com/storage/species_image/143_acer_palmatum_yubae/og/51150061025_29f690d490_b.jpg","regular_url":"https://perenual.com/storage/species_image/143_acer_palmatum_yubae/regular/51150061025_29f690d490_b.jpg","medium_url":"https://perenual.com/storage/species_image/143_acer_palmatum_yubae/medium/51150061025_29f690d490_b.jpg","small_url":"https://perenual.com/storage/species_image/143_acer_palmatum_yubae/small/51150061025_29f690d490_b.jpg","thumbnail":"https://perenual.com/storage/species_image/143_acer_palmatum_yubae/thumbnail/51150061025_29f690d490_b.jpg"}},{"id":144,"common_name":"Moosewood","scientific_name":["Acer pensylvanicum"],"other_name":["Striped Maple","Snakebark Maple","Moose Maple","Whistlewood","Goosefoot Maple"],"cycle":"Perennial","watering":"Average","sunlight":["Partial Shade"," Shade"],"default_image":{"image_id":203,"license":4,"license_name":"Attribution License","license_url":"https://creativecommons.org/licenses/by/2.0/","original_url":"https://perenual.com/storage/species_image/144_acer_pensylvanicum/og/50159672678_a016bd18b9_b.jpg","regular_url":"https://perenual.com/storage/species_image/144_acer_pensylvanicum/regular/50159672678_a016bd18b9_b.jpg","medium_url":"https://perenual.com/storage/species_image/144_acer_pensylvanicum/medium/50159672678_a016bd18b9_b.jpg","small_url":"https://perenual.com/storage/species_image/144_acer_pensylvanicum/small/50159672678_a016bd18b9_b.jpg","thumbnail":"https://perenual.com/storage/species_image/144_acer_pensylvanicum/thumbnail/50159672678_a016bd18b9_b.jpg"}},{"id":145,"common_name":"Crimson King Norway Maple","scientific_name":["Acer platanoides 'Crimson King'"],"other_name":null,"cycle":"Perennial","watering":"Average","sunlight":["Sun"," Partial Shade"],"default_image":{"image_id":209,"license":5,"license_name":"Attribution-ShareAlike License","license_url":"https://creativecommons.org/licenses/by-sa/2.0/","original_url":"https://perenual.com/storage/species_image/145_acer_platanoides_crimson_king/og/35279593622_dbffc5f94b_b.jpg","regular_url":"https://perenual.com/storage/species_image/145_acer_platanoides_crimson_king/regular/35279593622_dbffc5f94b_b.jpg","medium_url":"https://perenual.com/storage/species_image/145_acer_platanoides_crimson_king/medium/35279593622_dbffc5f94b_b.jpg","small_url":"https://perenual.com/storage/species_image/145_acer_platanoides_crimson_king/small/35279593622_dbffc5f94b_b.jpg","thumbnail":"https://perenual.com/storage/species_image/145_acer_platanoides_crimson_king/thumbnail/35279593622_dbffc5f94b_b.jpg"}},{"id":146,"common_name":"Crimson Sentry Norway Maple","scientific_name":["Acer platanoides 'Crimson Sentry'"],"other_name":null,"cycle":"Perennial","watering":"Average","sunlight":["Sun"," Partial Shade"],"default_image":{"image_id":21052,"license":45,"license_name":"Attribution-ShareAlike 3.0 Unported (CC BY-SA 3.0)","license_url":"https://creativecommons.org/licenses/by-sa/3.0/deed.en","original_url":"https://perenual.com/storage/species_image/146_acer_platanoides_crimson_sentry/og/Acer_platanoides_Faassen%27s_Black_kz1.jpg","regular_url":"https://perenual.com/storage/species_image/146_acer_platanoides_crimson_sentry/regular/Acer_platanoides_Faassen%27s_Black_kz1.jpg","medium_url":"https://perenual.com/storage/species_image/146_acer_platanoides_crimson_sentry/medium/Acer_platanoides_Faassen%27s_Black_kz1.jpg","small_url":"https://perenual.com/storage/species_image/146_acer_platanoides_crimson_sentry/small/Acer_platanoides_Faassen%27s_Black_kz1.jpg","thumbnail":"https://perenual.com/storage/species_image/146_acer_platanoides_crimson_sentry/thumbnail/Acer_platanoides_Faassen%27s_Black_kz1.jpg"}},{"id":147,"common_name":"Harlequin Norway Maple","scientific_name":["Acer platanoides 'Drummondii'"],"other_name":null,"cycle":"Perennial","watering":"Average","sunlight":["Sun"," Partial Shade"],"default_image":{"image_id":213,"license":4,"license_name":"Attribution License","license_url":"https://creativecommons.org/licenses/by/2.0/","original_url":"https://perenual.com/storage/species_image/147_acer_platanoides_drummondii/og/10840118873_cc5e8da787_b.jpg","regular_url":"https://perenual.com/storage/species_image/147_acer_platanoides_drummondii/regular/10840118873_cc5e8da787_b.jpg","medium_url":"https://perenual.com/storage/species_image/147_acer_platanoides_drummondii/medium/10840118873_cc5e8da787_b.jpg","small_url":"https://perenual.com/storage/species_image/147_acer_platanoides_drummondii/small/10840118873_cc5e8da787_b.jpg","thumbnail":"https://perenual.com/storage/species_image/147_acer_platanoides_drummondii/thumbnail/10840118873_cc5e8da787_b.jpg"}},{"id":148,"common_name":"Emerald Queen Norway Maple","scientific_name":["Acer platanoides 'Emerald Queen'"],"other_name":null,"cycle":"Perennial","watering":"Average","sunlight":["Sun"," Partial Shade"],"default_image":{"image_id":21054,"license":45,"license_name":"Attribution-ShareAlike 3.0 Unported (CC BY-SA 3.0)","license_url":"https://creativecommons.org/licenses/by-sa/3.0/deed.en","original_url":"https://perenual.com/storage/species_image/148_acer_platanoides_emerald_queen/og/Acer_saccharum_%28Sugar_maple%29_%2826924054763%29.jpg","regular_url":"https://perenual.com/storage/species_image/148_acer_platanoides_emerald_queen/regular/Acer_saccharum_%28Sugar_maple%29_%2826924054763%29.jpg","medium_url":"https://perenual.com/storage/species_image/148_acer_platanoides_emerald_queen/medium/Acer_saccharum_%28Sugar_maple%29_%2826924054763%29.jpg","small_url":"https://perenual.com/storage/species_image/148_acer_platanoides_emerald_queen/small/Acer_saccharum_%28Sugar_maple%29_%2826924054763%29.jpg","thumbnail":"https://perenual.com/storage/species_image/148_acer_platanoides_emerald_queen/thumbnail/Acer_saccharum_%28Sugar_maple%29_%2826924054763%29.jpg"}},{"id":149,"common_name":"Princeton Gold Maple","scientific_name":["Acer platanoides 'Princeton Gold'"],"other_name":null,"cycle":"Perennial","watering":"Average","sunlight":["Sun"," Partial Shade"],"default_image":{"image_id":21056,"license":45,"license_name":"Attribution-ShareAlike 3.0 Unported (CC BY-SA 3.0)","license_url":"https://creativecommons.org/licenses/by-sa/3.0/deed.en","original_url":"https://perenual.com/storage/species_image/149_acer_platanoides_princeton_gold/og/Acer_%27Golden_Globe%27_02.jpg","regular_url":"https://perenual.com/storage/species_image/149_acer_platanoides_princeton_gold/regular/Acer_%27Golden_Globe%27_02.jpg","medium_url":"https://perenual.com/storage/species_image/149_acer_platanoides_princeton_gold/medium/Acer_%27Golden_Globe%27_02.jpg","small_url":"https://perenual.com/storage/species_image/149_acer_platanoides_princeton_gold/small/Acer_%27Golden_Globe%27_02.jpg","thumbnail":"https://perenual.com/storage/species_image/149_acer_platanoides_princeton_gold/thumbnail/Acer_%27Golden_Globe%27_02.jpg"}},{"id":150,"common_name":"Eskimo Sunset Sycamore Maple","scientific_name":["Acer pseudoplatanus 'Eskimo Sunset'"],"other_name":["Planetree Maple"],"cycle":"Perennial","watering":"Frequent","sunlight":[],"default_image":{"image_id":9,"license":5,"license_name":"Attribution-ShareAlike License","license_url":"https://creativecommons.org/licenses/by-sa/2.0/","original_url":"https://perenual.com/storage/species_image/2_abies_alba_pyramidalis/og/49255769768_df55596553_b.jpg","regular_url":"https://perenual.com/storage/species_image/2_abies_alba_pyramidalis/regular/49255769768_df55596553_b.jpg","medium_url":"https://perenual.com/storage/species_image/2_abies_alba_pyramidalis/medium/49255769768_df55596553_b.jpg","small_url":"https://perenual.com/storage/species_image/2_abies_alba_pyramidalis/small/49255769768_df55596553_b.jpg","thumbnail":"https://perenual.com/storage/species_image/2_abies_alba_pyramidalis/thumbnail/49255769768_df55596553_b.jpg"}}],"to":150,"per_page":30,"current_page":5,"from":121,"last_page":200,"total":6000}