{"data":[{"id":2562,"common_name":"Mexican male fern","scientific_name":["Dryopteris pseudofilix-mas"],"other_name":null,"cycle":"Perennial","watering":"Average","sunlight":["Part shade","full shade"],"default_image":{"image_id":5754,"license":5,"license_name":"Attribution-ShareAlike License","license_url":"https://creativecommons.org/licenses/by-sa/2.0/","original_url":"https://perenual.com/storage/species_image/2562_dryopteris_pseudofilix-mas/og/4156601581_9d3357dce1_b.jpg","regular_url":"https://perenual.com/storage/species_image/2562_dryopteris_pseudofilix-mas/regular/4156601581_9d3357dce1_b.jpg","medium_url":"https://perenual.com/storage/species_image/2562_dryopteris_pseudofilix-mas/medium/4156601581_9d3357dce1_b.jpg","small_url":"https://perenual.com/storage/species_image/2562_dryopteris_pseudofilix-mas/small/4156601581_9d3357dce1_b.jpg","thumbnail":"https://perenual.com/storage/species_image/2562_dryopteris_pseudofilix-mas/thumbnail/4156601581_9d3357dce1_b.jpg"}},{"id":2563,"common_name":"wood fern","scientific_name":["Dryopteris remota"],"other_name":null,"cycle":"Perennial","watering":"Average","sunlight":["Part shade","full shade"],"default_image":{"image_id":9,"license":5,"license_name":"Attribution-ShareAlike License","license_url":"https://creativecommons.org/licenses/by-sa/2.0/","original_url":"https://perenual.com/storage/species_image/2_abies_alba_pyramidalis/og/49255769768_df55596553_b.jpg","regular_url":"https://perenual.com/storage/species_image/2_abies_alba_pyramidalis/regular/49255769768_df55596553_b.jpg","medium_url":"https://perenual.com/storage/species_image/2_abies_alba_pyramidalis/medium/49255769768_df55596553_b.jpg","small_url":"https://perenual.com/storage/species_image/2_abies_alba_pyramidalis/small/49255769768_df55596553_b.jpg","thumbnail":"https://perenual.com/storage/species_image/2_abies_alba_pyramidalis/thumbnail/49255769768_df55596553_b.jpg"}},{"id":2564,"common_name":"Tokyo wood fern","scientific_name":["Dryopteris tokyoensis"],"other_name":null,"cycle":"Perennial","watering":"Average","sunlight":["Part shade","full shade"],"default_image":{"image_id":5756,"license":45,"license_name":"Attribution-ShareAlike 3.0 Unported (CC BY-SA 3.0)","license_url":"https://creativecommons.org/licenses/by-sa/3.0/deed.en","original_url":"https://perenual.com/storage/species_image/2564_dryopteris_tokyoensis/og/Dryopteris_tokyoensis_kz2.jpg","regular_url":"https://perenual.com/storage/species_image/2564_dryopteris_tokyoensis/regular/Dryopteris_tokyoensis_kz2.jpg","medium_url":"https://perenual.com/storage/species_image/2564_dryopteris_tokyoensis/medium/Dryopteris_tokyoensis_kz2.jpg","small_url":"https://perenual.com/storage/species_image/2564_dryopteris_tokyoensis/small/Dryopteris_tokyoensis_kz2.jpg","thumbnail":"https://perenual.com/storage/species_image/2564_dryopteris_tokyoensis/thumbnail/Dryopteris_tokyoensis_kz2.jpg"}},{"id":2565,"common_name":"golden dewdrops","scientific_name":["Duranta erecta"],"other_name":null,"cycle":"Perennial","watering":"Average","sunlight":["Full sun"],"default_image":{"image_id":9,"license":5,"license_name":"Attribution-ShareAlike License","license_url":"https://creativecommons.org/licenses/by-sa/2.0/","original_url":"https://perenual.com/storage/species_image/2_abies_alba_pyramidalis/og/49255769768_df55596553_b.jpg","regular_url":"https://perenual.com/storage/species_image/2_abies_alba_pyramidalis/regular/49255769768_df55596553_b.jpg","medium_url":"https://perenual.com/storage/species_image/2_abies_alba_pyramidalis/medium/49255769768_df55596553_b.jpg","small_url":"https://perenual.com/storage/species_image/2_abies_alba_pyramidalis/small/49255769768_df55596553_b.jpg","thumbnail":"https://perenual.com/storage/species_image/2_abies_alba_pyramidalis/thumbnail/49255769768_df55596553_b.jpg"}},{"id":2549,"common_name":"wood fern","scientific_name":["Dryopteris crassirhizoma"],"other_name":null,"cycle":"Perennial","watering":"Average","sunlight":["Part shade","full shade"],"default_image":{"image_id":9,"license":5,"license_name":"Attribution-ShareAlike License","license_url":"https://creativecommons.org/licenses/by-sa/2.0/","original_url":"https://perenual.com/storage/species_image/2_abies_alba_pyramidalis/og/49255769768_df55596553_b.jpg","regular_url":"https://perenual.com/storage/species_image/2_abies_alba_pyramidalis/regular/49255769768_df55596553_b.jpg","medium_url":"https://perenual.com/storage/species_image/2_abies_alba_pyramidalis/medium/49255769768_df55596553_b.jpg","small_url":"https://perenual.com/storage/species_image/2_abies_alba_pyramidalis/small/49255769768_df55596553_b.jpg","thumbnail":"https://perenual.com/storage/species_image/2_abies_alba_pyramidalis/thumbnail/49255769768_df55596553_b.jpg"}},{"id":2550,"common_name":"wood fern","scientific_name":["Dryopteris cycadina"],"other_name":null,"cycle":"Perennial","watering":"Average","sunlight":["Part shade","full shade"],"default_image":{"image_id":9,"license":5,"license_name":"Attribution-ShareAlike License","license_url":"https://creativecommons.org/licenses/by-sa/2.0/","original_url":"https://perenual.com/storage/species_image/2_abies_alba_pyramidalis/og/49255769768_df55596553_b.jpg","regular_url":"https://perenual.com/storage/species_image/2_abies_alba_pyramidalis/regular/49255769768_df55596553_b.jpg","medium_url":"https://perenual.com/storage/species_image/2_abies_alba_pyramidalis/medium/49255769768_df55596553_b.jpg","small_url":"https://perenual.com/storage/species_image/2_abies_alba_pyramidalis/small/49255769768_df55596553_b.jpg","thumbnail":"https://perenual.com/storage/species_image/2_abies_alba_pyramidalis/thumbnail/49255769768_df55596553_b.jpg"}},{"id":2551,"common_name":"broad buckler fern","scientific_name":["Dryopteris dilatata"],"other_name":null,"cycle":"Perennial","watering":"Average","sunlight":["Part shade","full shade"],"default_image":{"image_id":9,"license":5,"license_name":"Attribution-ShareAlike License","license_url":"https://creativecommons.org/licenses/by-sa/2.0/","original_url":"https://perenual.com/storage/species_image/2_abies_alba_pyramidalis/og/49255769768_df55596553_b.jpg","regular_url":"https://perenual.com/storage/species_image/2_abies_alba_pyramidalis/regular/49255769768_df55596553_b.jpg","medium_url":"https://perenual.com/storage/species_image/2_abies_alba_pyramidalis/medium/49255769768_df55596553_b.jpg","small_url":"https://perenual.com/storage/species_image/2_abies_alba_pyramidalis/small/49255769768_df55596553_b.jpg","thumbnail":"https://perenual.com/storage/species_image/2_abies_alba_pyramidalis/thumbnail/49255769768_df55596553_b.jpg"}},{"id":2552,"common_name":"broad buckler fern","scientific_name":["Dryopteris dilatata 'Lepidota Cristata'"],"other_name":null,"cycle":"Perennial","watering":"Average","sunlight":["Part shade","full shade"],"default_image":{"image_id":9,"license":5,"license_name":"Attribution-ShareAlike License","license_url":"https://creativecommons.org/licenses/by-sa/2.0/","original_url":"https://perenual.com/storage/species_image/2_abies_alba_pyramidalis/og/49255769768_df55596553_b.jpg","regular_url":"https://perenual.com/storage/species_image/2_abies_alba_pyramidalis/regular/49255769768_df55596553_b.jpg","medium_url":"https://perenual.com/storage/species_image/2_abies_alba_pyramidalis/medium/49255769768_df55596553_b.jpg","small_url":"https://perenual.com/storage/species_image/2_abies_alba_pyramidalis/small/49255769768_df55596553_b.jpg","thumbnail":"https://perenual.com/storage/species_image/2_abies_alba_pyramidalis/thumbnail/49255769768_df55596553_b.jpg"}},{"id":2553,"common_name":"Japanese shield fern","scientific_name":["Dryopteris erythrosora"],"other_name":["autumn fern"],"cycle":"Perennial","watering":"Average","sunlight":["Deep shade"," Filtered shade"," Part sun/part shade"],"default_image":{"image_id":5745,"license":4,"license_name":"Attribution License","license_url":"https://creativecommons.org/licenses/by/2.0/","original_url":"https://perenual.com/storage/species_image/2553_dryopteris_erythrosora/og/30165946581_983c2c2041_b.jpg","regular_url":"https://perenual.com/storage/species_image/2553_dryopteris_erythrosora/regular/30165946581_983c2c2041_b.jpg","medium_url":"https://perenual.com/storage/species_image/2553_dryopteris_erythrosora/medium/30165946581_983c2c2041_b.jpg","small_url":"https://perenual.com/storage/species_image/2553_dryopteris_erythrosora/small/30165946581_983c2c2041_b.jpg","thumbnail":"https://perenual.com/storage/species_image/2553_dryopteris_erythrosora/thumbnail/30165946581_983c2c2041_b.jpg"}},{"id":2554,"common_name":"male fern","scientific_name":["Dryopteris filix-mas"],"other_name":null,"cycle":"Perennial","watering":"Average","sunlight":["Part shade","full shade"],"default_image":{"image_id":5746,"license":5,"license_name":"Attribution-ShareAlike License","license_url":"https://creativecommons.org/licenses/by-sa/2.0/","original_url":"https://perenual.com/storage/species_image/2554_dryopteris_filix-mas/og/6166062670_c3b12031aa_b.jpg","regular_url":"https://perenual.com/storage/species_image/2554_dryopteris_filix-mas/regular/6166062670_c3b12031aa_b.jpg","medium_url":"https://perenual.com/storage/species_image/2554_dryopteris_filix-mas/medium/6166062670_c3b12031aa_b.jpg","small_url":"https://perenual.com/storage/species_image/2554_dryopteris_filix-mas/small/6166062670_c3b12031aa_b.jpg","thumbnail":"https://perenual.com/storage/species_image/2554_dryopteris_filix-mas/thumbnail/6166062670_c3b12031aa_b.jpg"}},{"id":2555,"common_name":"male fern","scientific_name":["Dryopteris filix-mas 'Barnesii'"],"other_name":null,"cycle":"Perennial","watering":"Average","sunlight":["Part shade","full shade"],"default_image":{"image_id":9,"license":5,"license_name":"Attribution-ShareAlike License","license_url":"https://creativecommons.org/licenses/by-sa/2.0/","original_url":"https://perenual.com/storage/species_image/2_abies_alba_pyramidalis/og/49255769768_df55596553_b.jpg","regular_url":"https://perenual.com/storage/species_image/2_abies_alba_pyramidalis/regular/49255769768_df55596553_b.jpg","medium_url":"https://perenual.com/storage/species_image/2_abies_alba_pyramidalis/medium/49255769768_df55596553_b.jpg","small_url":"https://perenual.com/storage/species_image/2_abies_alba_pyramidalis/small/49255769768_df55596553_b.jpg","thumbnail":"https://perenual.com/storage/species_image/2_abies_alba_pyramidalis/thumbnail/49255769768_df55596553_b.jpg"}},{"id":2556,"common_name":"male fern","scientific_name":["Dryopteris filix-mas 'Crispatissima'"],"other_name":null,"cycle":"Perennial","watering":"Average","sunlight":["Part shade","full shade"],"default_image":{"image_id":9,"license":5,"license_name":"Attribution-ShareAlike License","license_url":"https://creativecommons.org/licenses/by-sa/2.0/","original_url":"https://perenual.com/storage/species_image/2_abies_alba_pyramidalis/og/49255769768_df55596553_b.jpg","regular_url":"https://perenual.com/storage/species_image/2_abies_alba_pyramidalis/regular/49255769768_df55596553_b.jpg","medium_url":"https://perenual.com/storage/species_image/2_abies_alba_pyramidalis/medium/49255769768_df55596553_b.jpg","small_url":"https://perenual.com/storage/species_image/2_abies_alba_pyramidalis/small/49255769768_df55596553_b.jpg","thumbnail":"https://perenual.com/storage/species_image/2_abies_alba_pyramidalis/thumbnail/49255769768_df55596553_b.jpg"}},{"id":2557,"common_name":"male fern","scientific_name":["Dryopteris filix-mas 'Grandiceps Wills'"],"other_name":null,"cycle":"Perennial","watering":"Average","sunlight":["Part shade","full shade"],"default_image":{"image_id":5749,"license":5,"license_name":"Attribution-ShareAlike License","license_url":"https://creativecommons.org/licenses/by-sa/2.0/","original_url":"https://perenual.com/storage/species_image/2557_dryopteris_filix-mas_grandiceps_wills/og/49904013968_f651db6412_b.jpg","regular_url":"https://perenual.com/storage/species_image/2557_dryopteris_filix-mas_grandiceps_wills/regular/49904013968_f651db6412_b.jpg","medium_url":"https://perenual.com/storage/species_image/2557_dryopteris_filix-mas_grandiceps_wills/medium/49904013968_f651db6412_b.jpg","small_url":"https://perenual.com/storage/species_image/2557_dryopteris_filix-mas_grandiceps_wills/small/49904013968_f651db6412_b.jpg","thumbnail":"https://perenual.com/storage/species_image/2557_dryopteris_filix-mas_grandiceps_wills/thumbnail/49904013968_f651db6412_b.jpg"}},{"id":2558,"common_name":"male fern","scientific_name":["Dryopteris filix-mas 'Linearis'"],"other_name":null,"cycle":"Perennial","watering":"Average","sunlight":["Part shade","full shade"],"default_image":{"image_id":9,"license":5,"license_name":"Attribution-ShareAlike License","license_url":"https://creativecommons.org/licenses/by-sa/2.0/","original_url":"https://perenual.com/storage/species_image/2_abies_alba_pyramidalis/og/49255769768_df55596553_b.jpg","regular_url":"https://perenual.com/storage/species_image/2_abies_alba_pyramidalis/regular/49255769768_df55596553_b.jpg","medium_url":"https://perenual.com/storage/species_image/2_abies_alba_pyramidalis/medium/49255769768_df55596553_b.jpg","small_url":"https://perenual.com/storage/species_image/2_abies_alba_pyramidalis/small/49255769768_df55596553_b.jpg","thumbnail":"https://perenual.com/storage/species_image/2_abies_alba_pyramidalis/thumbnail/49255769768_df55596553_b.jpg"}},{"id":2559,"common_name":"goldie's shield fern","scientific_name":["Dryopteris goldiana"],"other_name":null,"cycle":"Perennial","watering":"Average","sunlight":["Part shade","full shade"],"default_image":{"image_id":5751,"license":4,"license_name":"Attribution License","license_url":"https://creativecommons.org/licenses/by/2.0/","original_url":"https://perenual.com/storage/species_image/2559_dryopteris_goldiana/og/41966736030_70946b7892_b.jpg","regular_url":"https://perenual.com/storage/species_image/2559_dryopteris_goldiana/regular/41966736030_70946b7892_b.jpg","medium_url":"https://perenual.com/storage/species_image/2559_dryopteris_goldiana/medium/41966736030_70946b7892_b.jpg","small_url":"https://perenual.com/storage/species_image/2559_dryopteris_goldiana/small/41966736030_70946b7892_b.jpg","thumbnail":"https://perenual.com/storage/species_image/2559_dryopteris_goldiana/thumbnail/41966736030_70946b7892_b.jpg"}},{"id":2566,"common_name":"pigeon berry","scientific_name":["Duranta erecta 'Cuban Gold'"],"other_name":null,"cycle":"Perennial","watering":"Average","sunlight":["Full sun"],"default_image":{"image_id":5759,"license":45,"license_name":"Attribution-ShareAlike 3.0 Unported (CC BY-SA 3.0)","license_url":"https://creativecommons.org/licenses/by-sa/3.0/deed.en","original_url":"https://perenual.com/storage/species_image/2566_duranta_erecta_cuban_gold/og/Golden_Duranta_Bush_with_flowers.jpg","regular_url":"https://perenual.com/storage/species_image/2566_duranta_erecta_cuban_gold/regular/Golden_Duranta_Bush_with_flowers.jpg","medium_url":"https://perenual.com/storage/species_image/2566_duranta_erecta_cuban_gold/medium/Golden_Duranta_Bush_with_flowers.jpg","small_url":"https://perenual.com/storage/species_image/2566_duranta_erecta_cuban_gold/small/Golden_Duranta_Bush_with_flowers.jpg","thumbnail":"https://perenual.com/storage/species_image/2566_duranta_erecta_cuban_gold/thumbnail/Golden_Duranta_Bush_with_flowers.jpg"}},{"id":2567,"common_name":"pigeon berry","scientific_name":["Duranta erecta 'Gold Edge'"],"other_name":null,"cycle":"Perennial","watering":"Average","sunlight":["Full sun"],"default_image":{"image_id":5760,"license":4,"license_name":"Attribution License","license_url":"https://creativecommons.org/licenses/by/2.0/","original_url":"https://perenual.com/storage/species_image/2567_duranta_erecta_gold_edge/og/24774405752_e4cbb95615_b.jpg","regular_url":"https://perenual.com/storage/species_image/2567_duranta_erecta_gold_edge/regular/24774405752_e4cbb95615_b.jpg","medium_url":"https://perenual.com/storage/species_image/2567_duranta_erecta_gold_edge/medium/24774405752_e4cbb95615_b.jpg","small_url":"https://perenual.com/storage/species_image/2567_duranta_erecta_gold_edge/small/24774405752_e4cbb95615_b.jpg","thumbnail":"https://perenual.com/storage/species_image/2567_duranta_erecta_gold_edge/thumbnail/24774405752_e4cbb95615_b.jpg"}},{"id":2568,"common_name":"bamboo palm","scientific_name":["Dypsis lutescens"],"other_name":null,"cycle":"Perennial","watering":"Average","sunlight":["Part sun/part shade"],"default_image":{"image_id":5765,"license":5,"license_name":"Attribution-ShareAlike License","license_url":"https://creativecommons.org/licenses/by-sa/2.0/","original_url":"https://perenual.com/storage/species_image/2568_dypsis_lutescens/og/4630882967_d9c40b00de_b.jpg","regular_url":"https://perenual.com/storage/species_image/2568_dypsis_lutescens/regular/4630882967_d9c40b00de_b.jpg","medium_url":"https://perenual.com/storage/species_image/2568_dypsis_lutescens/medium/4630882967_d9c40b00de_b.jpg","small_url":"https://perenual.com/storage/species_image/2568_dypsis_lutescens/small/4630882967_d9c40b00de_b.jpg","thumbnail":"https://perenual.com/storage/species_image/2568_dypsis_lutescens/thumbnail/4630882967_d9c40b00de_b.jpg"}},{"id":2569,"common_name":"squirting cucumber","scientific_name":["Ecballium elaterium"],"other_name":null,"cycle":"Perennial","watering":"Average","sunlight":["Full sun"],"default_image":{"image_id":5768,"license":5,"license_name":"Attribution-ShareAlike License","license_url":"https://creativecommons.org/licenses/by-sa/2.0/","original_url":"https://perenual.com/storage/species_image/2569_ecballium_elaterium/og/52172050815_784c85ac70_b.jpg","regular_url":"https://perenual.com/storage/species_image/2569_ecballium_elaterium/regular/52172050815_784c85ac70_b.jpg","medium_url":"https://perenual.com/storage/species_image/2569_ecballium_elaterium/medium/52172050815_784c85ac70_b.jpg","small_url":"https://perenual.com/storage/species_image/2569_ecballium_elaterium/small/52172050815_784c85ac70_b.jpg","thumbnail":"https://perenual.com/storage/species_image/2569_ecballium_elaterium/thumbnail/52172050815_784c85ac70_b.jpg"}},{"id":2570,"common_name":"glory flower","scientific_name":["Eccremocarpus scaber"],"other_name":null,"cycle":"Perennial","watering":"Average","sunlight":["Full sun"],"default_image":{"image_id":5772,"license":4,"license_name":"Attribution License","license_url":"https://creativecommons.org/licenses/by/2.0/","original_url":"https://perenual.com/storage/species_image/2570_eccremocarpus_scaber/og/8396405263_e2a2a12a90_b.jpg","regular_url":"https://perenual.com/storage/species_image/2570_eccremocarpus_scaber/regular/8396405263_e2a2a12a90_b.jpg","medium_url":"https://perenual.com/storage/species_image/2570_eccremocarpus_scaber/medium/8396405263_e2a2a12a90_b.jpg","small_url":"https://perenual.com/storage/species_image/2570_eccremocarpus_scaber/small/8396405263_e2a2a12a90_b.jpg","thumbnail":"https://perenual.com/storage/species_image/2570_eccremocarpus_scaber/thumbnail/8396405263_e2a2a12a90_b.jpg"}},{"id":2571,"common_name":"coneflower","scientific_name":["Echinacea 'Adam Saul' CRAZY PINK"],"other_name":null,"cycle":"Perennial","watering":"Minimum","sunlight":["Full sun","part shade"],"default_image":{"image_id":9,"license":5,"license_name":"Attribution-ShareAlike License","license_url":"https://creativecommons.org/licenses/by-sa/2.0/","original_url":"https://perenual.com/storage/species_image/2_abies_alba_pyramidalis/og/49255769768_df55596553_b.jpg","regular_url":"https://perenual.com/storage/species_image/2_abies_alba_pyramidalis/regular/49255769768_df55596553_b.jpg","medium_url":"https://perenual.com/storage/species_image/2_abies_alba_pyramidalis/medium/49255769768_df55596553_b.jpg","small_url":"https://perenual.com/storage/species_image/2_abies_alba_pyramidalis/small/49255769768_df55596553_b.jpg","thumbnail":"https://perenual.com/storage/species_image/2_abies_alba_pyramidalis/thumbnail/49255769768_df55596553_b.jpg"}},{"id":2572,"common_name":"coneflower","scientific_name":["Echinacea 'All that Jazz'"],"other_name":null,"cycle":"Perennial","watering":"Minimum","sunlight":["Full sun","part shade"],"default_image":{"image_id":5774,"license":5,"license_name":"Attribution-ShareAlike License","license_url":"https://creativecommons.org/licenses/by-sa/2.0/","original_url":"https://perenual.com/storage/species_image/2572_echinacea_all_that_jazz/og/3684960339_cce8ca192d_b.jpg","regular_url":"https://perenual.com/storage/species_image/2572_echinacea_all_that_jazz/regular/3684960339_cce8ca192d_b.jpg","medium_url":"https://perenual.com/storage/species_image/2572_echinacea_all_that_jazz/medium/3684960339_cce8ca192d_b.jpg","small_url":"https://perenual.com/storage/species_image/2572_echinacea_all_that_jazz/small/3684960339_cce8ca192d_b.jpg","thumbnail":"https://perenual.com/storage/species_image/2572_echinacea_all_that_jazz/thumbnail/3684960339_cce8ca192d_b.jpg"}},{"id":2573,"common_name":"coneflower","scientific_name":["Echinacea 'Aloha'"],"other_name":null,"cycle":"Perennial","watering":"Minimum","sunlight":["Full sun","part shade"],"default_image":{"image_id":9,"license":5,"license_name":"Attribution-ShareAlike License","license_url":"https://creativecommons.org/licenses/by-sa/2.0/","original_url":"https://perenual.com/storage/species_image/2_abies_alba_pyramidalis/og/49255769768_df55596553_b.jpg","regular_url":"https://perenual.com/storage/species_image/2_abies_alba_pyramidalis/regular/49255769768_df55596553_b.jpg","medium_url":"https://perenual.com/storage/species_image/2_abies_alba_pyramidalis/medium/49255769768_df55596553_b.jpg","small_url":"https://perenual.com/storage/species_image/2_abies_alba_pyramidalis/small/49255769768_df55596553_b.jpg","thumbnail":"https://perenual.com/storage/species_image/2_abies_alba_pyramidalis/thumbnail/49255769768_df55596553_b.jpg"}},{"id":2574,"common_name":"narrow-leaf coneflower","scientific_name":["Echinacea angustifolia"],"other_name":null,"cycle":"Perennial","watering":"Minimum","sunlight":["Full sun"],"default_image":{"image_id":5783,"license":5,"license_name":"Attribution-ShareAlike License","license_url":"https://creativecommons.org/licenses/by-sa/2.0/","original_url":"https://perenual.com/storage/species_image/2574_echinacea_angustifolia/og/3685858124_69f0c6394c_b.jpg","regular_url":"https://perenual.com/storage/species_image/2574_echinacea_angustifolia/regular/3685858124_69f0c6394c_b.jpg","medium_url":"https://perenual.com/storage/species_image/2574_echinacea_angustifolia/medium/3685858124_69f0c6394c_b.jpg","small_url":"https://perenual.com/storage/species_image/2574_echinacea_angustifolia/small/3685858124_69f0c6394c_b.jpg","thumbnail":"https://perenual.com/storage/species_image/2574_echinacea_angustifolia/thumbnail/3685858124_69f0c6394c_b.jpg"}},{"id":2575,"common_name":"coneflower","scientific_name":["Echinacea 'Art's Pride' ORANGE MEADOWBRITE"],"other_name":null,"cycle":"Perennial","watering":"Minimum","sunlight":["Full sun","part shade"],"default_image":{"image_id":9,"license":5,"license_name":"Attribution-ShareAlike License","license_url":"https://creativecommons.org/licenses/by-sa/2.0/","original_url":"https://perenual.com/storage/species_image/2_abies_alba_pyramidalis/og/49255769768_df55596553_b.jpg","regular_url":"https://perenual.com/storage/species_image/2_abies_alba_pyramidalis/regular/49255769768_df55596553_b.jpg","medium_url":"https://perenual.com/storage/species_image/2_abies_alba_pyramidalis/medium/49255769768_df55596553_b.jpg","small_url":"https://perenual.com/storage/species_image/2_abies_alba_pyramidalis/small/49255769768_df55596553_b.jpg","thumbnail":"https://perenual.com/storage/species_image/2_abies_alba_pyramidalis/thumbnail/49255769768_df55596553_b.jpg"}},{"id":2576,"common_name":"purple coneflower","scientific_name":["Echinacea 'Balscblum' DOUBLE SCOOP BUBBLE GUM"],"other_name":null,"cycle":"Perennial","watering":"Minimum","sunlight":["Full sun","part shade"],"default_image":{"image_id":9,"license":5,"license_name":"Attribution-ShareAlike License","license_url":"https://creativecommons.org/licenses/by-sa/2.0/","original_url":"https://perenual.com/storage/species_image/2_abies_alba_pyramidalis/og/49255769768_df55596553_b.jpg","regular_url":"https://perenual.com/storage/species_image/2_abies_alba_pyramidalis/regular/49255769768_df55596553_b.jpg","medium_url":"https://perenual.com/storage/species_image/2_abies_alba_pyramidalis/medium/49255769768_df55596553_b.jpg","small_url":"https://perenual.com/storage/species_image/2_abies_alba_pyramidalis/small/49255769768_df55596553_b.jpg","thumbnail":"https://perenual.com/storage/species_image/2_abies_alba_pyramidalis/thumbnail/49255769768_df55596553_b.jpg"}},{"id":2577,"common_name":"coneflower","scientific_name":["Echinacea 'Balsomsolst' SOMBRERO SUMMER SOLSTICE"],"other_name":null,"cycle":"Perennial","watering":"Minimum","sunlight":["Full sun","part shade"],"default_image":{"image_id":5785,"license":4,"license_name":"Attribution License","license_url":"https://creativecommons.org/licenses/by/2.0/","original_url":"https://perenual.com/storage/species_image/2577_echinacea_balsomsolst_sombrero_summer_solstice/og/52400981268_021f62238b_b.jpg","regular_url":"https://perenual.com/storage/species_image/2577_echinacea_balsomsolst_sombrero_summer_solstice/regular/52400981268_021f62238b_b.jpg","medium_url":"https://perenual.com/storage/species_image/2577_echinacea_balsomsolst_sombrero_summer_solstice/medium/52400981268_021f62238b_b.jpg","small_url":"https://perenual.com/storage/species_image/2577_echinacea_balsomsolst_sombrero_summer_solstice/small/52400981268_021f62238b_b.jpg","thumbnail":"https://perenual.com/storage/species_image/2577_echinacea_balsomsolst_sombrero_summer_solstice/thumbnail/52400981268_021f62238b_b.jpg"}},{"id":2578,"common_name":"coneflower","scientific_name":["Echinacea 'Balsomtresgo' SOMBRERO TRES AMIGOS"],"other_name":null,"cycle":"Perennial","watering":"Minimum","sunlight":["Full sun","part shade"],"default_image":{"image_id":9,"license":5,"license_name":"Attribution-ShareAlike License","license_url":"https://creativecommons.org/licenses/by-sa/2.0/","original_url":"https://perenual.com/storage/species_image/2_abies_alba_pyramidalis/og/49255769768_df55596553_b.jpg","regular_url":"https://perenual.com/storage/species_image/2_abies_alba_pyramidalis/regular/49255769768_df55596553_b.jpg","medium_url":"https://perenual.com/storage/species_image/2_abies_alba_pyramidalis/medium/49255769768_df55596553_b.jpg","small_url":"https://perenual.com/storage/species_image/2_abies_alba_pyramidalis/small/49255769768_df55596553_b.jpg","thumbnail":"https://perenual.com/storage/species_image/2_abies_alba_pyramidalis/thumbnail/49255769768_df55596553_b.jpg"}},{"id":2579,"common_name":"coneflower","scientific_name":["Echinacea 'Bravado'"],"other_name":null,"cycle":"Perennial","watering":"Minimum","sunlight":["Full sun","part shade"],"default_image":{"image_id":5786,"license":5,"license_name":"Attribution-ShareAlike License","license_url":"https://creativecommons.org/licenses/by-sa/2.0/","original_url":"https://perenual.com/storage/species_image/2579_echinacea_bravado/og/4821738541_7e05a3d489_b.jpg","regular_url":"https://perenual.com/storage/species_image/2579_echinacea_bravado/regular/4821738541_7e05a3d489_b.jpg","medium_url":"https://perenual.com/storage/species_image/2579_echinacea_bravado/medium/4821738541_7e05a3d489_b.jpg","small_url":"https://perenual.com/storage/species_image/2579_echinacea_bravado/small/4821738541_7e05a3d489_b.jpg","thumbnail":"https://perenual.com/storage/species_image/2579_echinacea_bravado/thumbnail/4821738541_7e05a3d489_b.jpg"}},{"id":2580,"common_name":"coneflower","scientific_name":["Echinacea BURGUNDY FIREWORKS"],"other_name":null,"cycle":"Perennial","watering":"Minimum","sunlight":["Full sun","part shade"],"default_image":{"image_id":5788,"license":4,"license_name":"Attribution License","license_url":"https://creativecommons.org/licenses/by/2.0/","original_url":"https://perenual.com/storage/species_image/2580_echinacea_burgundy_fireworks/og/52295347491_d2d5a6d804_b.jpg","regular_url":"https://perenual.com/storage/species_image/2580_echinacea_burgundy_fireworks/regular/52295347491_d2d5a6d804_b.jpg","medium_url":"https://perenual.com/storage/species_image/2580_echinacea_burgundy_fireworks/medium/52295347491_d2d5a6d804_b.jpg","small_url":"https://perenual.com/storage/species_image/2580_echinacea_burgundy_fireworks/small/52295347491_d2d5a6d804_b.jpg","thumbnail":"https://perenual.com/storage/species_image/2580_echinacea_burgundy_fireworks/thumbnail/52295347491_d2d5a6d804_b.jpg"}}],"to":2580,"per_page":30,"current_page":86,"from":2551,"last_page":200,"total":6000}