{"data":[{"id":4864,"common_name":"trumpet lily","scientific_name":["Lilium henryi var. citrinum"],"other_name":null,"cycle":"Perennial","watering":"Average","sunlight":["Full sun","part shade"],"default_image":{"image_id":10262,"license":4,"license_name":"Attribution License","license_url":"https://creativecommons.org/licenses/by/2.0/","original_url":"https://perenual.com/storage/species_image/4864_lilium_henryi_var_citrinum/og/52283500827_8350dee502_b.jpg","regular_url":"https://perenual.com/storage/species_image/4864_lilium_henryi_var_citrinum/regular/52283500827_8350dee502_b.jpg","medium_url":"https://perenual.com/storage/species_image/4864_lilium_henryi_var_citrinum/medium/52283500827_8350dee502_b.jpg","small_url":"https://perenual.com/storage/species_image/4864_lilium_henryi_var_citrinum/small/52283500827_8350dee502_b.jpg","thumbnail":"https://perenual.com/storage/species_image/4864_lilium_henryi_var_citrinum/thumbnail/52283500827_8350dee502_b.jpg"}},{"id":4865,"common_name":"Asiatic lily","scientific_name":["Lilium 'Holean' AMERICA"],"other_name":null,"cycle":"Perennial","watering":"Average","sunlight":["Full sun","part shade"],"default_image":{"image_id":10268,"license":5,"license_name":"Attribution-ShareAlike License","license_url":"https://creativecommons.org/licenses/by-sa/2.0/","original_url":"https://perenual.com/storage/species_image/4872_lilium_magento/og/51284063088_2a0c59ea78_b.jpg","regular_url":"https://perenual.com/storage/species_image/4872_lilium_magento/regular/51284063088_2a0c59ea78_b.jpg","medium_url":"https://perenual.com/storage/species_image/4872_lilium_magento/medium/51284063088_2a0c59ea78_b.jpg","small_url":"https://perenual.com/storage/species_image/4872_lilium_magento/small/51284063088_2a0c59ea78_b.jpg","thumbnail":"https://perenual.com/storage/species_image/4872_lilium_magento/thumbnail/51284063088_2a0c59ea78_b.jpg"}},{"id":4866,"common_name":"lily","scientific_name":["Lilium 'Hotlips'"],"other_name":null,"cycle":"Perennial","watering":"Average","sunlight":["Full sun","part shade"],"default_image":{"image_id":21931,"license":451,"license_name":"CC0 1.0 Universal (CC0 1.0) Public Domain Dedication","license_url":"https://creativecommons.org/publicdomain/zero/1.0/","original_url":"https://perenual.com/storage/species_image/4866_lilium_hotlips/og/asiatic_lily_fully_open_asiatic_lily_lily_flower_blossom_bloom_plant_garden-595335.jpg","regular_url":"https://perenual.com/storage/species_image/4866_lilium_hotlips/regular/asiatic_lily_fully_open_asiatic_lily_lily_flower_blossom_bloom_plant_garden-595335.jpg","medium_url":"https://perenual.com/storage/species_image/4866_lilium_hotlips/medium/asiatic_lily_fully_open_asiatic_lily_lily_flower_blossom_bloom_plant_garden-595335.jpg","small_url":"https://perenual.com/storage/species_image/4866_lilium_hotlips/small/asiatic_lily_fully_open_asiatic_lily_lily_flower_blossom_bloom_plant_garden-595335.jpg","thumbnail":"https://perenual.com/storage/species_image/4866_lilium_hotlips/thumbnail/asiatic_lily_fully_open_asiatic_lily_lily_flower_blossom_bloom_plant_garden-595335.jpg"}},{"id":4867,"common_name":"Dwarf Asiatic lily","scientific_name":["Lilium 'Ivory Pixie'"],"other_name":null,"cycle":"Perennial","watering":"Average","sunlight":["Full sun","part shade"],"default_image":{"image_id":10270,"license":5,"license_name":"Attribution-ShareAlike License","license_url":"https://creativecommons.org/licenses/by-sa/2.0/","original_url":"https://perenual.com/storage/species_image/4867_lilium_ivory_pixie/og/42124064054_d2c73f5c91_b.jpg","regular_url":"https://perenual.com/storage/species_image/4867_lilium_ivory_pixie/regular/42124064054_d2c73f5c91_b.jpg","medium_url":"https://perenual.com/storage/species_image/4867_lilium_ivory_pixie/medium/42124064054_d2c73f5c91_b.jpg","small_url":"https://perenual.com/storage/species_image/4867_lilium_ivory_pixie/small/42124064054_d2c73f5c91_b.jpg","thumbnail":"https://perenual.com/storage/species_image/4867_lilium_ivory_pixie/thumbnail/42124064054_d2c73f5c91_b.jpg"}},{"id":4868,"common_name":"oriental lily","scientific_name":["Lilium 'Kiss Proof'"],"other_name":null,"cycle":"Perennial","watering":"Average","sunlight":["Full sun","part shade"],"default_image":{"image_id":10276,"license":6,"license_name":"Attribution-NoDerivs License","license_url":"https://creativecommons.org/licenses/by-nd/2.0/","original_url":"https://perenual.com/storage/species_image/4878_lilium_miss_rio/og/51701645271_1e23e522e3_b.jpg"}},{"id":4861,"common_name":"lily","scientific_name":["Lilium (group)"],"other_name":null,"cycle":"Perennial","watering":"Average","sunlight":["Full sun","part shade"],"default_image":{"image_id":10252,"license":4,"license_name":"Attribution License","license_url":"https://creativecommons.org/licenses/by/2.0/","original_url":"https://perenual.com/storage/species_image/4861_lilium_group/og/51316171885_e443791db9_b.jpg","regular_url":"https://perenual.com/storage/species_image/4861_lilium_group/regular/51316171885_e443791db9_b.jpg","medium_url":"https://perenual.com/storage/species_image/4861_lilium_group/medium/51316171885_e443791db9_b.jpg","small_url":"https://perenual.com/storage/species_image/4861_lilium_group/small/51316171885_e443791db9_b.jpg","thumbnail":"https://perenual.com/storage/species_image/4861_lilium_group/thumbnail/51316171885_e443791db9_b.jpg"}},{"id":4862,"common_name":"Asiatic lily","scientific_name":["Lilium 'Gypsy'"],"other_name":null,"cycle":"Perennial","watering":"Average","sunlight":["Full sun","part shade"],"default_image":{"image_id":10253,"license":451,"license_name":"CC0 1.0 Universal (CC0 1.0) Public Domain Dedication","license_url":"https://creativecommons.org/publicdomain/zero/1.0/","original_url":"https://perenual.com/storage/species_image/4862_lilium_gypsy/og/g134e5825ca79365b68a8b128b1295cdb7b2be6a2811e447aa03d606f17c05f463a4bbb4e222d895ac7a03b9e59dcf80cad08fa115e646b8fc067fb814e25c488_1280.jpg","regular_url":"https://perenual.com/storage/species_image/4862_lilium_gypsy/regular/g134e5825ca79365b68a8b128b1295cdb7b2be6a2811e447aa03d606f17c05f463a4bbb4e222d895ac7a03b9e59dcf80cad08fa115e646b8fc067fb814e25c488_1280.jpg","medium_url":"https://perenual.com/storage/species_image/4862_lilium_gypsy/medium/g134e5825ca79365b68a8b128b1295cdb7b2be6a2811e447aa03d606f17c05f463a4bbb4e222d895ac7a03b9e59dcf80cad08fa115e646b8fc067fb814e25c488_1280.jpg","small_url":"https://perenual.com/storage/species_image/4862_lilium_gypsy/small/g134e5825ca79365b68a8b128b1295cdb7b2be6a2811e447aa03d606f17c05f463a4bbb4e222d895ac7a03b9e59dcf80cad08fa115e646b8fc067fb814e25c488_1280.jpg","thumbnail":"https://perenual.com/storage/species_image/4862_lilium_gypsy/thumbnail/g134e5825ca79365b68a8b128b1295cdb7b2be6a2811e447aa03d606f17c05f463a4bbb4e222d895ac7a03b9e59dcf80cad08fa115e646b8fc067fb814e25c488_1280.jpg"}},{"id":4863,"common_name":"trumpet lily","scientific_name":["Lilium henryi"],"other_name":null,"cycle":"Perennial","watering":"Average","sunlight":["Full sun","part shade"],"default_image":{"image_id":10254,"license":5,"license_name":"Attribution-ShareAlike License","license_url":"https://creativecommons.org/licenses/by-sa/2.0/","original_url":"https://perenual.com/storage/species_image/4863_lilium_henryi/og/50137574867_e4a47232ca_b.jpg","regular_url":"https://perenual.com/storage/species_image/4863_lilium_henryi/regular/50137574867_e4a47232ca_b.jpg","medium_url":"https://perenual.com/storage/species_image/4863_lilium_henryi/medium/50137574867_e4a47232ca_b.jpg","small_url":"https://perenual.com/storage/species_image/4863_lilium_henryi/small/50137574867_e4a47232ca_b.jpg","thumbnail":"https://perenual.com/storage/species_image/4863_lilium_henryi/thumbnail/50137574867_e4a47232ca_b.jpg"}},{"id":4869,"common_name":"Asiatic lily","scientific_name":["Lilium 'Lemon Pixie'"],"other_name":null,"cycle":"Perennial","watering":"Average","sunlight":["Full sun","part shade"],"default_image":{"image_id":10277,"license":451,"license_name":"CC0 1.0 Universal (CC0 1.0) Public Domain Dedication","license_url":"https://creativecommons.org/publicdomain/zero/1.0/","original_url":"https://perenual.com/storage/species_image/4869_lilium_lemon_pixie/og/ga809db394b3639ffc614c8cd4c2eeea0c2480b7ac632cdf186fd3f42e54c32852c4bc8f6795eedc97b9aed89217f572d006c94fdee4a89cf9c204961ed6ee2a8_1280.jpg","regular_url":"https://perenual.com/storage/species_image/4869_lilium_lemon_pixie/regular/ga809db394b3639ffc614c8cd4c2eeea0c2480b7ac632cdf186fd3f42e54c32852c4bc8f6795eedc97b9aed89217f572d006c94fdee4a89cf9c204961ed6ee2a8_1280.jpg","medium_url":"https://perenual.com/storage/species_image/4869_lilium_lemon_pixie/medium/ga809db394b3639ffc614c8cd4c2eeea0c2480b7ac632cdf186fd3f42e54c32852c4bc8f6795eedc97b9aed89217f572d006c94fdee4a89cf9c204961ed6ee2a8_1280.jpg","small_url":"https://perenual.com/storage/species_image/4869_lilium_lemon_pixie/small/ga809db394b3639ffc614c8cd4c2eeea0c2480b7ac632cdf186fd3f42e54c32852c4bc8f6795eedc97b9aed89217f572d006c94fdee4a89cf9c204961ed6ee2a8_1280.jpg","thumbnail":"https://perenual.com/storage/species_image/4869_lilium_lemon_pixie/thumbnail/ga809db394b3639ffc614c8cd4c2eeea0c2480b7ac632cdf186fd3f42e54c32852c4bc8f6795eedc97b9aed89217f572d006c94fdee4a89cf9c204961ed6ee2a8_1280.jpg"}},{"id":4870,"common_name":"trumpet lily","scientific_name":["Lilium longiflorum"],"other_name":null,"cycle":"Perennial","watering":"Average","sunlight":[],"default_image":{"image_id":10278,"license":4,"license_name":"Attribution License","license_url":"https://creativecommons.org/licenses/by/2.0/","original_url":"https://perenual.com/storage/species_image/4870_lilium_longiflorum/og/51923137169_ff4de90e6f_b.jpg","regular_url":"https://perenual.com/storage/species_image/4870_lilium_longiflorum/regular/51923137169_ff4de90e6f_b.jpg","medium_url":"https://perenual.com/storage/species_image/4870_lilium_longiflorum/medium/51923137169_ff4de90e6f_b.jpg","small_url":"https://perenual.com/storage/species_image/4870_lilium_longiflorum/small/51923137169_ff4de90e6f_b.jpg","thumbnail":"https://perenual.com/storage/species_image/4870_lilium_longiflorum/thumbnail/51923137169_ff4de90e6f_b.jpg"}},{"id":4871,"common_name":"trumpet lily","scientific_name":["Lilium longiflorum 'White Heaven'"],"other_name":null,"cycle":"Perennial","watering":"Average","sunlight":[],"default_image":{"image_id":9,"license":5,"license_name":"Attribution-ShareAlike License","license_url":"https://creativecommons.org/licenses/by-sa/2.0/","original_url":"https://perenual.com/storage/species_image/2_abies_alba_pyramidalis/og/49255769768_df55596553_b.jpg","regular_url":"https://perenual.com/storage/species_image/2_abies_alba_pyramidalis/regular/49255769768_df55596553_b.jpg","medium_url":"https://perenual.com/storage/species_image/2_abies_alba_pyramidalis/medium/49255769768_df55596553_b.jpg","small_url":"https://perenual.com/storage/species_image/2_abies_alba_pyramidalis/small/49255769768_df55596553_b.jpg","thumbnail":"https://perenual.com/storage/species_image/2_abies_alba_pyramidalis/thumbnail/49255769768_df55596553_b.jpg"}},{"id":4872,"common_name":"Asiatic lily","scientific_name":["Lilium 'Magento'"],"other_name":null,"cycle":"Perennial","watering":"Average","sunlight":["Full sun","part shade"],"default_image":{"image_id":10269,"license":5,"license_name":"Attribution-ShareAlike License","license_url":"https://creativecommons.org/licenses/by-sa/2.0/","original_url":"https://perenual.com/storage/species_image/4872_lilium_magento/og/51283142002_860260efba_b.jpg","regular_url":"https://perenual.com/storage/species_image/4872_lilium_magento/regular/51283142002_860260efba_b.jpg","medium_url":"https://perenual.com/storage/species_image/4872_lilium_magento/medium/51283142002_860260efba_b.jpg","small_url":"https://perenual.com/storage/species_image/4872_lilium_magento/small/51283142002_860260efba_b.jpg","thumbnail":"https://perenual.com/storage/species_image/4872_lilium_magento/thumbnail/51283142002_860260efba_b.jpg"}},{"id":4873,"common_name":"Asiatic lily","scientific_name":["Lilium 'Malta'"],"other_name":null,"cycle":"Perennial","watering":"Average","sunlight":["Full sun","part shade"],"default_image":{"image_id":9,"license":5,"license_name":"Attribution-ShareAlike License","license_url":"https://creativecommons.org/licenses/by-sa/2.0/","original_url":"https://perenual.com/storage/species_image/2_abies_alba_pyramidalis/og/49255769768_df55596553_b.jpg","regular_url":"https://perenual.com/storage/species_image/2_abies_alba_pyramidalis/regular/49255769768_df55596553_b.jpg","medium_url":"https://perenual.com/storage/species_image/2_abies_alba_pyramidalis/medium/49255769768_df55596553_b.jpg","small_url":"https://perenual.com/storage/species_image/2_abies_alba_pyramidalis/small/49255769768_df55596553_b.jpg","thumbnail":"https://perenual.com/storage/species_image/2_abies_alba_pyramidalis/thumbnail/49255769768_df55596553_b.jpg"}},{"id":4874,"common_name":"lily","scientific_name":["Lilium 'Marissa'"],"other_name":null,"cycle":"Perennial","watering":"Average","sunlight":["Full sun","part shade"],"default_image":{"image_id":9,"license":5,"license_name":"Attribution-ShareAlike License","license_url":"https://creativecommons.org/licenses/by-sa/2.0/","original_url":"https://perenual.com/storage/species_image/2_abies_alba_pyramidalis/og/49255769768_df55596553_b.jpg","regular_url":"https://perenual.com/storage/species_image/2_abies_alba_pyramidalis/regular/49255769768_df55596553_b.jpg","medium_url":"https://perenual.com/storage/species_image/2_abies_alba_pyramidalis/medium/49255769768_df55596553_b.jpg","small_url":"https://perenual.com/storage/species_image/2_abies_alba_pyramidalis/small/49255769768_df55596553_b.jpg","thumbnail":"https://perenual.com/storage/species_image/2_abies_alba_pyramidalis/thumbnail/49255769768_df55596553_b.jpg"}},{"id":4875,"common_name":"Turkscap lily","scientific_name":["Lilium martagon"],"other_name":null,"cycle":"Perennial","watering":"Average","sunlight":["Full sun","part shade"],"default_image":{"image_id":10289,"license":5,"license_name":"Attribution-ShareAlike License","license_url":"https://creativecommons.org/licenses/by-sa/2.0/","original_url":"https://perenual.com/storage/species_image/4875_lilium_martagon/og/52210636112_d040deaaef_b.jpg","regular_url":"https://perenual.com/storage/species_image/4875_lilium_martagon/regular/52210636112_d040deaaef_b.jpg","medium_url":"https://perenual.com/storage/species_image/4875_lilium_martagon/medium/52210636112_d040deaaef_b.jpg","small_url":"https://perenual.com/storage/species_image/4875_lilium_martagon/small/52210636112_d040deaaef_b.jpg","thumbnail":"https://perenual.com/storage/species_image/4875_lilium_martagon/thumbnail/52210636112_d040deaaef_b.jpg"}},{"id":4876,"common_name":"Michigan lily","scientific_name":["Lilium michiganense"],"other_name":null,"cycle":"Perennial","watering":"Frequent","sunlight":["Full sun","part shade"],"default_image":{"image_id":10295,"license":5,"license_name":"Attribution-ShareAlike License","license_url":"https://creativecommons.org/licenses/by-sa/2.0/","original_url":"https://perenual.com/storage/species_image/4876_lilium_michiganense/og/29381487586_67d20156a0_b.jpg","regular_url":"https://perenual.com/storage/species_image/4876_lilium_michiganense/regular/29381487586_67d20156a0_b.jpg","medium_url":"https://perenual.com/storage/species_image/4876_lilium_michiganense/medium/29381487586_67d20156a0_b.jpg","small_url":"https://perenual.com/storage/species_image/4876_lilium_michiganense/small/29381487586_67d20156a0_b.jpg","thumbnail":"https://perenual.com/storage/species_image/4876_lilium_michiganense/thumbnail/29381487586_67d20156a0_b.jpg"}},{"id":4877,"common_name":"oriental lily","scientific_name":["Lilium 'Miss Lucy'"],"other_name":null,"cycle":"Perennial","watering":"Average","sunlight":["Full sun","part shade"],"default_image":{"image_id":9,"license":5,"license_name":"Attribution-ShareAlike License","license_url":"https://creativecommons.org/licenses/by-sa/2.0/","original_url":"https://perenual.com/storage/species_image/2_abies_alba_pyramidalis/og/49255769768_df55596553_b.jpg","regular_url":"https://perenual.com/storage/species_image/2_abies_alba_pyramidalis/regular/49255769768_df55596553_b.jpg","medium_url":"https://perenual.com/storage/species_image/2_abies_alba_pyramidalis/medium/49255769768_df55596553_b.jpg","small_url":"https://perenual.com/storage/species_image/2_abies_alba_pyramidalis/small/49255769768_df55596553_b.jpg","thumbnail":"https://perenual.com/storage/species_image/2_abies_alba_pyramidalis/thumbnail/49255769768_df55596553_b.jpg"}},{"id":4878,"common_name":"oriental lily","scientific_name":["Lilium 'Miss Rio'"],"other_name":null,"cycle":"Perennial","watering":"Average","sunlight":["Full sun","part shade"],"default_image":{"image_id":10276,"license":6,"license_name":"Attribution-NoDerivs License","license_url":"https://creativecommons.org/licenses/by-nd/2.0/","original_url":"https://perenual.com/storage/species_image/4878_lilium_miss_rio/og/51701645271_1e23e522e3_b.jpg"}},{"id":4879,"common_name":"oriental lily","scientific_name":["Lilium 'Muscadet'"],"other_name":null,"cycle":"Perennial","watering":"Average","sunlight":["Full sun","part shade"],"default_image":{"image_id":10300,"license":5,"license_name":"Attribution-ShareAlike License","license_url":"https://creativecommons.org/licenses/by-sa/2.0/","original_url":"https://perenual.com/storage/species_image/4879_lilium_muscadet/og/9240275684_4084815ffe_b.jpg","regular_url":"https://perenual.com/storage/species_image/4879_lilium_muscadet/regular/9240275684_4084815ffe_b.jpg","medium_url":"https://perenual.com/storage/species_image/4879_lilium_muscadet/medium/9240275684_4084815ffe_b.jpg","small_url":"https://perenual.com/storage/species_image/4879_lilium_muscadet/small/9240275684_4084815ffe_b.jpg","thumbnail":"https://perenual.com/storage/species_image/4879_lilium_muscadet/thumbnail/9240275684_4084815ffe_b.jpg"}},{"id":4880,"common_name":"lily","scientific_name":["Lilium 'Nandina'"],"other_name":null,"cycle":"Perennial","watering":"Average","sunlight":["Full sun","part shade"],"default_image":{"image_id":10205,"license":4,"license_name":"Attribution License","license_url":"https://creativecommons.org/licenses/by/2.0/","original_url":"https://perenual.com/storage/species_image/4880_lilium_nandina/og/52602366708_f207e598fe_b.jpg","regular_url":"https://perenual.com/storage/species_image/4880_lilium_nandina/regular/52602366708_f207e598fe_b.jpg","medium_url":"https://perenual.com/storage/species_image/4880_lilium_nandina/medium/52602366708_f207e598fe_b.jpg","small_url":"https://perenual.com/storage/species_image/4880_lilium_nandina/small/52602366708_f207e598fe_b.jpg","thumbnail":"https://perenual.com/storage/species_image/4880_lilium_nandina/thumbnail/52602366708_f207e598fe_b.jpg"}},{"id":4881,"common_name":"longiflorum-Asiatic lily","scientific_name":["Lilium 'Orange Tycoon'"],"other_name":null,"cycle":"Perennial","watering":"Average","sunlight":["Full sun","part shade"],"default_image":{"image_id":9,"license":5,"license_name":"Attribution-ShareAlike License","license_url":"https://creativecommons.org/licenses/by-sa/2.0/","original_url":"https://perenual.com/storage/species_image/2_abies_alba_pyramidalis/og/49255769768_df55596553_b.jpg","regular_url":"https://perenual.com/storage/species_image/2_abies_alba_pyramidalis/regular/49255769768_df55596553_b.jpg","medium_url":"https://perenual.com/storage/species_image/2_abies_alba_pyramidalis/medium/49255769768_df55596553_b.jpg","small_url":"https://perenual.com/storage/species_image/2_abies_alba_pyramidalis/small/49255769768_df55596553_b.jpg","thumbnail":"https://perenual.com/storage/species_image/2_abies_alba_pyramidalis/thumbnail/49255769768_df55596553_b.jpg"}},{"id":4882,"common_name":"orienpet lily","scientific_name":["Lilium ORANIA"],"other_name":null,"cycle":"Perennial","watering":"Average","sunlight":["Full sun","part shade"],"default_image":{"image_id":10188,"license":5,"license_name":"Attribution-ShareAlike License","license_url":"https://creativecommons.org/licenses/by-sa/2.0/","original_url":"https://perenual.com/storage/species_image/4836_lilium_american_spirit/og/48273462491_cab5e8eca3_b.jpg","regular_url":"https://perenual.com/storage/species_image/4836_lilium_american_spirit/regular/48273462491_cab5e8eca3_b.jpg","medium_url":"https://perenual.com/storage/species_image/4836_lilium_american_spirit/medium/48273462491_cab5e8eca3_b.jpg","small_url":"https://perenual.com/storage/species_image/4836_lilium_american_spirit/small/48273462491_cab5e8eca3_b.jpg","thumbnail":"https://perenual.com/storage/species_image/4836_lilium_american_spirit/thumbnail/48273462491_cab5e8eca3_b.jpg"}},{"id":4883,"common_name":"oriental lily","scientific_name":["Lilium 'Paramount'"],"other_name":null,"cycle":"Perennial","watering":"Average","sunlight":["Full sun","part shade"],"default_image":{"image_id":9,"license":5,"license_name":"Attribution-ShareAlike License","license_url":"https://creativecommons.org/licenses/by-sa/2.0/","original_url":"https://perenual.com/storage/species_image/2_abies_alba_pyramidalis/og/49255769768_df55596553_b.jpg","regular_url":"https://perenual.com/storage/species_image/2_abies_alba_pyramidalis/regular/49255769768_df55596553_b.jpg","medium_url":"https://perenual.com/storage/species_image/2_abies_alba_pyramidalis/medium/49255769768_df55596553_b.jpg","small_url":"https://perenual.com/storage/species_image/2_abies_alba_pyramidalis/small/49255769768_df55596553_b.jpg","thumbnail":"https://perenual.com/storage/species_image/2_abies_alba_pyramidalis/thumbnail/49255769768_df55596553_b.jpg"}},{"id":4884,"common_name":"oriental lily","scientific_name":["Lilium 'Pink Heaven'"],"other_name":null,"cycle":"Perennial","watering":"Average","sunlight":["Full sun","part shade"],"default_image":{"image_id":9,"license":5,"license_name":"Attribution-ShareAlike License","license_url":"https://creativecommons.org/licenses/by-sa/2.0/","original_url":"https://perenual.com/storage/species_image/2_abies_alba_pyramidalis/og/49255769768_df55596553_b.jpg","regular_url":"https://perenual.com/storage/species_image/2_abies_alba_pyramidalis/regular/49255769768_df55596553_b.jpg","medium_url":"https://perenual.com/storage/species_image/2_abies_alba_pyramidalis/medium/49255769768_df55596553_b.jpg","small_url":"https://perenual.com/storage/species_image/2_abies_alba_pyramidalis/small/49255769768_df55596553_b.jpg","thumbnail":"https://perenual.com/storage/species_image/2_abies_alba_pyramidalis/thumbnail/49255769768_df55596553_b.jpg"}},{"id":4885,"common_name":"trumpet lily","scientific_name":["Lilium (Pink Perfection Group)"],"other_name":null,"cycle":"Perennial","watering":"Average","sunlight":["Full sun","part shade"],"default_image":{"image_id":10304,"license":5,"license_name":"Attribution-ShareAlike License","license_url":"https://creativecommons.org/licenses/by-sa/2.0/","original_url":"https://perenual.com/storage/species_image/4885_lilium_pink_perfection_group/og/48266284796_13b0d09ed3_b.jpg","regular_url":"https://perenual.com/storage/species_image/4885_lilium_pink_perfection_group/regular/48266284796_13b0d09ed3_b.jpg","medium_url":"https://perenual.com/storage/species_image/4885_lilium_pink_perfection_group/medium/48266284796_13b0d09ed3_b.jpg","small_url":"https://perenual.com/storage/species_image/4885_lilium_pink_perfection_group/small/48266284796_13b0d09ed3_b.jpg","thumbnail":"https://perenual.com/storage/species_image/4885_lilium_pink_perfection_group/thumbnail/48266284796_13b0d09ed3_b.jpg"}},{"id":4886,"common_name":"coral lily","scientific_name":["Lilium pumilum"],"other_name":null,"cycle":"Perennial","watering":"Average","sunlight":["Full sun","part shade"],"default_image":{"image_id":9,"license":5,"license_name":"Attribution-ShareAlike License","license_url":"https://creativecommons.org/licenses/by-sa/2.0/","original_url":"https://perenual.com/storage/species_image/2_abies_alba_pyramidalis/og/49255769768_df55596553_b.jpg","regular_url":"https://perenual.com/storage/species_image/2_abies_alba_pyramidalis/regular/49255769768_df55596553_b.jpg","medium_url":"https://perenual.com/storage/species_image/2_abies_alba_pyramidalis/medium/49255769768_df55596553_b.jpg","small_url":"https://perenual.com/storage/species_image/2_abies_alba_pyramidalis/small/49255769768_df55596553_b.jpg","thumbnail":"https://perenual.com/storage/species_image/2_abies_alba_pyramidalis/thumbnail/49255769768_df55596553_b.jpg"}},{"id":4887,"common_name":"regal lily","scientific_name":["Lilium regale"],"other_name":null,"cycle":"Perennial","watering":"Average","sunlight":["Full sun","part shade"],"default_image":{"image_id":10311,"license":5,"license_name":"Attribution-ShareAlike License","license_url":"https://creativecommons.org/licenses/by-sa/2.0/","original_url":"https://perenual.com/storage/species_image/4887_lilium_regale/og/50083168652_0aa917c5e6_b.jpg","regular_url":"https://perenual.com/storage/species_image/4887_lilium_regale/regular/50083168652_0aa917c5e6_b.jpg","medium_url":"https://perenual.com/storage/species_image/4887_lilium_regale/medium/50083168652_0aa917c5e6_b.jpg","small_url":"https://perenual.com/storage/species_image/4887_lilium_regale/small/50083168652_0aa917c5e6_b.jpg","thumbnail":"https://perenual.com/storage/species_image/4887_lilium_regale/thumbnail/50083168652_0aa917c5e6_b.jpg"}},{"id":4888,"common_name":"regal lily","scientific_name":["Lilium regale 'Album'"],"other_name":null,"cycle":"Perennial","watering":"Average","sunlight":["Full sun","part shade"],"default_image":{"image_id":10314,"license":5,"license_name":"Attribution-ShareAlike License","license_url":"https://creativecommons.org/licenses/by-sa/2.0/","original_url":"https://perenual.com/storage/species_image/4888_lilium_regale_album/og/33576124381_04cd2281a7_b.jpg","regular_url":"https://perenual.com/storage/species_image/4888_lilium_regale_album/regular/33576124381_04cd2281a7_b.jpg","medium_url":"https://perenual.com/storage/species_image/4888_lilium_regale_album/medium/33576124381_04cd2281a7_b.jpg","small_url":"https://perenual.com/storage/species_image/4888_lilium_regale_album/small/33576124381_04cd2281a7_b.jpg","thumbnail":"https://perenual.com/storage/species_image/4888_lilium_regale_album/thumbnail/33576124381_04cd2281a7_b.jpg"}},{"id":4889,"common_name":"Asiatic lily","scientific_name":["Lilium 'Renoir'"],"other_name":null,"cycle":"Perennial","watering":"Average","sunlight":["Full sun","part shade"],"default_image":{"image_id":10236,"license":5,"license_name":"Attribution-ShareAlike License","license_url":"https://creativecommons.org/licenses/by-sa/2.0/","original_url":"https://perenual.com/storage/species_image/4903_lilium_vermeer/og/52173577867_eba5f1ca4c_b.jpg","regular_url":"https://perenual.com/storage/species_image/4903_lilium_vermeer/regular/52173577867_eba5f1ca4c_b.jpg","medium_url":"https://perenual.com/storage/species_image/4903_lilium_vermeer/medium/52173577867_eba5f1ca4c_b.jpg","small_url":"https://perenual.com/storage/species_image/4903_lilium_vermeer/small/52173577867_eba5f1ca4c_b.jpg","thumbnail":"https://perenual.com/storage/species_image/4903_lilium_vermeer/thumbnail/52173577867_eba5f1ca4c_b.jpg"}},{"id":4890,"common_name":"longiflorum-Asiatic lily","scientific_name":["Lilium 'Royal Sunset'"],"other_name":null,"cycle":"Perennial","watering":"Average","sunlight":["Full sun","part shade"],"default_image":{"image_id":10315,"license":5,"license_name":"Attribution-ShareAlike License","license_url":"https://creativecommons.org/licenses/by-sa/2.0/","original_url":"https://perenual.com/storage/species_image/4890_lilium_royal_sunset/og/41475768560_0d29fd4571_b.jpg","regular_url":"https://perenual.com/storage/species_image/4890_lilium_royal_sunset/regular/41475768560_0d29fd4571_b.jpg","medium_url":"https://perenual.com/storage/species_image/4890_lilium_royal_sunset/medium/41475768560_0d29fd4571_b.jpg","small_url":"https://perenual.com/storage/species_image/4890_lilium_royal_sunset/small/41475768560_0d29fd4571_b.jpg","thumbnail":"https://perenual.com/storage/species_image/4890_lilium_royal_sunset/thumbnail/41475768560_0d29fd4571_b.jpg"}}],"to":4890,"per_page":30,"current_page":163,"from":4861,"last_page":200,"total":6000}