{"data":[{"id":1621,"common_name":"Bush's sedge","scientific_name":["Carex bushii"],"other_name":null,"cycle":"Perennial","watering":"Frequent","sunlight":["Full sun","part shade"],"default_image":{"image_id":9,"license":5,"license_name":"Attribution-ShareAlike License","license_url":"https://creativecommons.org/licenses/by-sa/2.0/","original_url":"https://perenual.com/storage/species_image/2_abies_alba_pyramidalis/og/49255769768_df55596553_b.jpg","regular_url":"https://perenual.com/storage/species_image/2_abies_alba_pyramidalis/regular/49255769768_df55596553_b.jpg","medium_url":"https://perenual.com/storage/species_image/2_abies_alba_pyramidalis/medium/49255769768_df55596553_b.jpg","small_url":"https://perenual.com/storage/species_image/2_abies_alba_pyramidalis/small/49255769768_df55596553_b.jpg","thumbnail":"https://perenual.com/storage/species_image/2_abies_alba_pyramidalis/thumbnail/49255769768_df55596553_b.jpg"}},{"id":1622,"common_name":"sedge","scientific_name":["Carex cherokeensis"],"other_name":null,"cycle":"Perennial","watering":"Frequent","sunlight":["Full sun","part shade"],"default_image":{"image_id":9,"license":5,"license_name":"Attribution-ShareAlike License","license_url":"https://creativecommons.org/licenses/by-sa/2.0/","original_url":"https://perenual.com/storage/species_image/2_abies_alba_pyramidalis/og/49255769768_df55596553_b.jpg","regular_url":"https://perenual.com/storage/species_image/2_abies_alba_pyramidalis/regular/49255769768_df55596553_b.jpg","medium_url":"https://perenual.com/storage/species_image/2_abies_alba_pyramidalis/medium/49255769768_df55596553_b.jpg","small_url":"https://perenual.com/storage/species_image/2_abies_alba_pyramidalis/small/49255769768_df55596553_b.jpg","thumbnail":"https://perenual.com/storage/species_image/2_abies_alba_pyramidalis/thumbnail/49255769768_df55596553_b.jpg"}},{"id":1623,"common_name":"sedge","scientific_name":["Carex ciliatomarginata 'Treasure Island'"],"other_name":null,"cycle":"Perennial","watering":"Frequent","sunlight":["Part shade","full shade"],"default_image":{"image_id":9,"license":5,"license_name":"Attribution-ShareAlike License","license_url":"https://creativecommons.org/licenses/by-sa/2.0/","original_url":"https://perenual.com/storage/species_image/2_abies_alba_pyramidalis/og/49255769768_df55596553_b.jpg","regular_url":"https://perenual.com/storage/species_image/2_abies_alba_pyramidalis/regular/49255769768_df55596553_b.jpg","medium_url":"https://perenual.com/storage/species_image/2_abies_alba_pyramidalis/medium/49255769768_df55596553_b.jpg","small_url":"https://perenual.com/storage/species_image/2_abies_alba_pyramidalis/small/49255769768_df55596553_b.jpg","thumbnail":"https://perenual.com/storage/species_image/2_abies_alba_pyramidalis/thumbnail/49255769768_df55596553_b.jpg"}},{"id":1624,"common_name":"sedge","scientific_name":["Carex comans"],"other_name":null,"cycle":"Perennial","watering":"Average","sunlight":["Full sun"," Part sun/part shade"],"default_image":{"image_id":3821,"license":5,"license_name":"Attribution-ShareAlike License","license_url":"https://creativecommons.org/licenses/by-sa/2.0/","original_url":"https://perenual.com/storage/species_image/1625_carex_comans_frosted_curls/og/33665261076_1cb1692a4d_b.jpg","regular_url":"https://perenual.com/storage/species_image/1625_carex_comans_frosted_curls/regular/33665261076_1cb1692a4d_b.jpg","medium_url":"https://perenual.com/storage/species_image/1625_carex_comans_frosted_curls/medium/33665261076_1cb1692a4d_b.jpg","small_url":"https://perenual.com/storage/species_image/1625_carex_comans_frosted_curls/small/33665261076_1cb1692a4d_b.jpg","thumbnail":"https://perenual.com/storage/species_image/1625_carex_comans_frosted_curls/thumbnail/33665261076_1cb1692a4d_b.jpg"}},{"id":1625,"common_name":"sedge","scientific_name":["Carex comans 'Frosted Curls'"],"other_name":null,"cycle":"Perennial","watering":"Average","sunlight":["Full sun"," Part sun/part shade"],"default_image":{"image_id":3821,"license":5,"license_name":"Attribution-ShareAlike License","license_url":"https://creativecommons.org/licenses/by-sa/2.0/","original_url":"https://perenual.com/storage/species_image/1625_carex_comans_frosted_curls/og/33665261076_1cb1692a4d_b.jpg","regular_url":"https://perenual.com/storage/species_image/1625_carex_comans_frosted_curls/regular/33665261076_1cb1692a4d_b.jpg","medium_url":"https://perenual.com/storage/species_image/1625_carex_comans_frosted_curls/medium/33665261076_1cb1692a4d_b.jpg","small_url":"https://perenual.com/storage/species_image/1625_carex_comans_frosted_curls/small/33665261076_1cb1692a4d_b.jpg","thumbnail":"https://perenual.com/storage/species_image/1625_carex_comans_frosted_curls/thumbnail/33665261076_1cb1692a4d_b.jpg"}},{"id":1626,"common_name":"sedge","scientific_name":["Carex conica 'Snowline'"],"other_name":null,"cycle":"Perennial","watering":"Frequent","sunlight":["Part shade","full shade"],"default_image":{"image_id":9,"license":5,"license_name":"Attribution-ShareAlike License","license_url":"https://creativecommons.org/licenses/by-sa/2.0/","original_url":"https://perenual.com/storage/species_image/2_abies_alba_pyramidalis/og/49255769768_df55596553_b.jpg","regular_url":"https://perenual.com/storage/species_image/2_abies_alba_pyramidalis/regular/49255769768_df55596553_b.jpg","medium_url":"https://perenual.com/storage/species_image/2_abies_alba_pyramidalis/medium/49255769768_df55596553_b.jpg","small_url":"https://perenual.com/storage/species_image/2_abies_alba_pyramidalis/small/49255769768_df55596553_b.jpg","thumbnail":"https://perenual.com/storage/species_image/2_abies_alba_pyramidalis/thumbnail/49255769768_df55596553_b.jpg"}},{"id":1627,"common_name":"fringed sedge","scientific_name":["Carex crinita"],"other_name":null,"cycle":"Perennial","watering":"Frequent","sunlight":["Full sun","part shade"],"default_image":{"image_id":9,"license":5,"license_name":"Attribution-ShareAlike License","license_url":"https://creativecommons.org/licenses/by-sa/2.0/","original_url":"https://perenual.com/storage/species_image/2_abies_alba_pyramidalis/og/49255769768_df55596553_b.jpg","regular_url":"https://perenual.com/storage/species_image/2_abies_alba_pyramidalis/regular/49255769768_df55596553_b.jpg","medium_url":"https://perenual.com/storage/species_image/2_abies_alba_pyramidalis/medium/49255769768_df55596553_b.jpg","small_url":"https://perenual.com/storage/species_image/2_abies_alba_pyramidalis/small/49255769768_df55596553_b.jpg","thumbnail":"https://perenual.com/storage/species_image/2_abies_alba_pyramidalis/thumbnail/49255769768_df55596553_b.jpg"}},{"id":1628,"common_name":"sedge","scientific_name":["Carex cristatella"],"other_name":null,"cycle":"Perennial","watering":"Frequent","sunlight":["Sun"," Partial Shade"],"default_image":{"image_id":9,"license":5,"license_name":"Attribution-ShareAlike License","license_url":"https://creativecommons.org/licenses/by-sa/2.0/","original_url":"https://perenual.com/storage/species_image/2_abies_alba_pyramidalis/og/49255769768_df55596553_b.jpg","regular_url":"https://perenual.com/storage/species_image/2_abies_alba_pyramidalis/regular/49255769768_df55596553_b.jpg","medium_url":"https://perenual.com/storage/species_image/2_abies_alba_pyramidalis/medium/49255769768_df55596553_b.jpg","small_url":"https://perenual.com/storage/species_image/2_abies_alba_pyramidalis/small/49255769768_df55596553_b.jpg","thumbnail":"https://perenual.com/storage/species_image/2_abies_alba_pyramidalis/thumbnail/49255769768_df55596553_b.jpg"}},{"id":1629,"common_name":"sedge","scientific_name":["Carex crus-corvi"],"other_name":["Ravenfoot Sedge"],"cycle":"Perennial","watering":"Frequent","sunlight":["Sun"," Partial Shade"],"default_image":{"image_id":3834,"license":4,"license_name":"Attribution License","license_url":"https://creativecommons.org/licenses/by/2.0/","original_url":"https://perenual.com/storage/species_image/9800_carex_rosea/og/52618292308_6521f973c9_b.jpg","regular_url":"https://perenual.com/storage/species_image/9800_carex_rosea/regular/52618292308_6521f973c9_b.jpg","medium_url":"https://perenual.com/storage/species_image/9800_carex_rosea/medium/52618292308_6521f973c9_b.jpg","small_url":"https://perenual.com/storage/species_image/9800_carex_rosea/small/52618292308_6521f973c9_b.jpg","thumbnail":"https://perenual.com/storage/species_image/9800_carex_rosea/thumbnail/52618292308_6521f973c9_b.jpg"}},{"id":1630,"common_name":"Davis's sedge","scientific_name":["Carex davisii"],"other_name":null,"cycle":"Perennial","watering":"Frequent","sunlight":["Sun"," Partial Shade"],"default_image":{"image_id":9,"license":5,"license_name":"Attribution-ShareAlike License","license_url":"https://creativecommons.org/licenses/by-sa/2.0/","original_url":"https://perenual.com/storage/species_image/2_abies_alba_pyramidalis/og/49255769768_df55596553_b.jpg","regular_url":"https://perenual.com/storage/species_image/2_abies_alba_pyramidalis/regular/49255769768_df55596553_b.jpg","medium_url":"https://perenual.com/storage/species_image/2_abies_alba_pyramidalis/medium/49255769768_df55596553_b.jpg","small_url":"https://perenual.com/storage/species_image/2_abies_alba_pyramidalis/small/49255769768_df55596553_b.jpg","thumbnail":"https://perenual.com/storage/species_image/2_abies_alba_pyramidalis/thumbnail/49255769768_df55596553_b.jpg"}},{"id":1631,"common_name":"sedge","scientific_name":["Carex dolichostachya 'Kaga-nishiki' GOLD FOUNTAINS"],"other_name":null,"cycle":"Perennial","watering":"Frequent","sunlight":["Part shade","full shade"],"default_image":{"image_id":21008,"license":45,"license_name":"Attribution-ShareAlike 3.0 Unported (CC BY-SA 3.0)","license_url":"https://creativecommons.org/licenses/by-sa/3.0/deed.en","original_url":"https://perenual.com/storage/species_image/1631_carex_dolichostachya_kaga-nishiki_gold_fountains/og/Carex_dolichostachya_Gold_Fountains_3zz.jpg","regular_url":"https://perenual.com/storage/species_image/1631_carex_dolichostachya_kaga-nishiki_gold_fountains/regular/Carex_dolichostachya_Gold_Fountains_3zz.jpg","medium_url":"https://perenual.com/storage/species_image/1631_carex_dolichostachya_kaga-nishiki_gold_fountains/medium/Carex_dolichostachya_Gold_Fountains_3zz.jpg","small_url":"https://perenual.com/storage/species_image/1631_carex_dolichostachya_kaga-nishiki_gold_fountains/small/Carex_dolichostachya_Gold_Fountains_3zz.jpg","thumbnail":"https://perenual.com/storage/species_image/1631_carex_dolichostachya_kaga-nishiki_gold_fountains/thumbnail/Carex_dolichostachya_Gold_Fountains_3zz.jpg"}},{"id":1632,"common_name":"bristle-leaved sedge","scientific_name":["Carex eburnea"],"other_name":["Black Fruited Sedge","Bristleleaf Sedge"],"cycle":"Perennial","watering":"Average","sunlight":["Part shade","full shade"],"default_image":{"image_id":9,"license":5,"license_name":"Attribution-ShareAlike License","license_url":"https://creativecommons.org/licenses/by-sa/2.0/","original_url":"https://perenual.com/storage/species_image/2_abies_alba_pyramidalis/og/49255769768_df55596553_b.jpg","regular_url":"https://perenual.com/storage/species_image/2_abies_alba_pyramidalis/regular/49255769768_df55596553_b.jpg","medium_url":"https://perenual.com/storage/species_image/2_abies_alba_pyramidalis/medium/49255769768_df55596553_b.jpg","small_url":"https://perenual.com/storage/species_image/2_abies_alba_pyramidalis/small/49255769768_df55596553_b.jpg","thumbnail":"https://perenual.com/storage/species_image/2_abies_alba_pyramidalis/thumbnail/49255769768_df55596553_b.jpg"}},{"id":1633,"common_name":"tufted sedge","scientific_name":["Carex elata"],"other_name":null,"cycle":"Perennial","watering":"Frequent","sunlight":["Full sun","part shade"],"default_image":{"image_id":3836,"license":5,"license_name":"Attribution-ShareAlike License","license_url":"https://creativecommons.org/licenses/by-sa/2.0/","original_url":"https://perenual.com/storage/species_image/1634_carex_elata_aurea/og/27192153993_c9f54d0276_b.jpg","regular_url":"https://perenual.com/storage/species_image/1634_carex_elata_aurea/regular/27192153993_c9f54d0276_b.jpg","medium_url":"https://perenual.com/storage/species_image/1634_carex_elata_aurea/medium/27192153993_c9f54d0276_b.jpg","small_url":"https://perenual.com/storage/species_image/1634_carex_elata_aurea/small/27192153993_c9f54d0276_b.jpg","thumbnail":"https://perenual.com/storage/species_image/1634_carex_elata_aurea/thumbnail/27192153993_c9f54d0276_b.jpg"}},{"id":1634,"common_name":"Bowles' golden sedge","scientific_name":["Carex elata 'Aurea'"],"other_name":null,"cycle":"Perennial","watering":"Frequent","sunlight":["Part shade","full shade"],"default_image":{"image_id":3836,"license":5,"license_name":"Attribution-ShareAlike License","license_url":"https://creativecommons.org/licenses/by-sa/2.0/","original_url":"https://perenual.com/storage/species_image/1634_carex_elata_aurea/og/27192153993_c9f54d0276_b.jpg","regular_url":"https://perenual.com/storage/species_image/1634_carex_elata_aurea/regular/27192153993_c9f54d0276_b.jpg","medium_url":"https://perenual.com/storage/species_image/1634_carex_elata_aurea/medium/27192153993_c9f54d0276_b.jpg","small_url":"https://perenual.com/storage/species_image/1634_carex_elata_aurea/small/27192153993_c9f54d0276_b.jpg","thumbnail":"https://perenual.com/storage/species_image/1634_carex_elata_aurea/thumbnail/27192153993_c9f54d0276_b.jpg"}},{"id":1635,"common_name":"blue green sedge","scientific_name":["Carex flacca"],"other_name":["Glaucus Sedge","Blue Sedge","Blue Sedge"],"cycle":"Perennial","watering":"Frequent","sunlight":["Sun"," Partial Shade"],"default_image":{"image_id":3837,"license":6,"license_name":"Attribution-NoDerivs License","license_url":"https://creativecommons.org/licenses/by-nd/2.0/","original_url":"https://perenual.com/storage/species_image/1635_carex_flacca/og/49986611418_51c31d7d8b_b.jpg"}},{"id":1636,"common_name":"blue sedge","scientific_name":["Carex flacca 'Blue Zinger'"],"other_name":["Glaucus Sedge","Blue Sedge","Blue Sedge"],"cycle":"Perennial","watering":"Frequent","sunlight":["Sun"," Partial Shade"],"default_image":{"image_id":9,"license":5,"license_name":"Attribution-ShareAlike License","license_url":"https://creativecommons.org/licenses/by-sa/2.0/","original_url":"https://perenual.com/storage/species_image/2_abies_alba_pyramidalis/og/49255769768_df55596553_b.jpg","regular_url":"https://perenual.com/storage/species_image/2_abies_alba_pyramidalis/regular/49255769768_df55596553_b.jpg","medium_url":"https://perenual.com/storage/species_image/2_abies_alba_pyramidalis/medium/49255769768_df55596553_b.jpg","small_url":"https://perenual.com/storage/species_image/2_abies_alba_pyramidalis/small/49255769768_df55596553_b.jpg","thumbnail":"https://perenual.com/storage/species_image/2_abies_alba_pyramidalis/thumbnail/49255769768_df55596553_b.jpg"}},{"id":1637,"common_name":"blue wood sedge","scientific_name":["Carex flaccosperma"],"other_name":null,"cycle":"Perennial","watering":"Frequent","sunlight":["Part shade","full shade"],"default_image":{"image_id":9,"license":5,"license_name":"Attribution-ShareAlike License","license_url":"https://creativecommons.org/licenses/by-sa/2.0/","original_url":"https://perenual.com/storage/species_image/2_abies_alba_pyramidalis/og/49255769768_df55596553_b.jpg","regular_url":"https://perenual.com/storage/species_image/2_abies_alba_pyramidalis/regular/49255769768_df55596553_b.jpg","medium_url":"https://perenual.com/storage/species_image/2_abies_alba_pyramidalis/medium/49255769768_df55596553_b.jpg","small_url":"https://perenual.com/storage/species_image/2_abies_alba_pyramidalis/small/49255769768_df55596553_b.jpg","thumbnail":"https://perenual.com/storage/species_image/2_abies_alba_pyramidalis/thumbnail/49255769768_df55596553_b.jpg"}},{"id":1638,"common_name":"Frank's sedge","scientific_name":["Carex frankii"],"other_name":null,"cycle":"Perennial","watering":"Frequent","sunlight":["Sun"," Partial Shade"],"default_image":{"image_id":9,"license":5,"license_name":"Attribution-ShareAlike License","license_url":"https://creativecommons.org/licenses/by-sa/2.0/","original_url":"https://perenual.com/storage/species_image/2_abies_alba_pyramidalis/og/49255769768_df55596553_b.jpg","regular_url":"https://perenual.com/storage/species_image/2_abies_alba_pyramidalis/regular/49255769768_df55596553_b.jpg","medium_url":"https://perenual.com/storage/species_image/2_abies_alba_pyramidalis/medium/49255769768_df55596553_b.jpg","small_url":"https://perenual.com/storage/species_image/2_abies_alba_pyramidalis/small/49255769768_df55596553_b.jpg","thumbnail":"https://perenual.com/storage/species_image/2_abies_alba_pyramidalis/thumbnail/49255769768_df55596553_b.jpg"}},{"id":1639,"common_name":"gray sedge","scientific_name":["Carex grayi"],"other_name":["Bur Sedge","Morning Star Sedge","Gray's Sedge","Asa Gray's Sedge","Morning Star Sedge","Gray's Sedge","Asa Gray's Sedge"],"cycle":"Perennial","watering":"Frequent","sunlight":["Sun"," Partial Shade"," Deciduous Shade (Spring Sun)"],"default_image":{"image_id":9,"license":5,"license_name":"Attribution-ShareAlike License","license_url":"https://creativecommons.org/licenses/by-sa/2.0/","original_url":"https://perenual.com/storage/species_image/2_abies_alba_pyramidalis/og/49255769768_df55596553_b.jpg","regular_url":"https://perenual.com/storage/species_image/2_abies_alba_pyramidalis/regular/49255769768_df55596553_b.jpg","medium_url":"https://perenual.com/storage/species_image/2_abies_alba_pyramidalis/medium/49255769768_df55596553_b.jpg","small_url":"https://perenual.com/storage/species_image/2_abies_alba_pyramidalis/small/49255769768_df55596553_b.jpg","thumbnail":"https://perenual.com/storage/species_image/2_abies_alba_pyramidalis/thumbnail/49255769768_df55596553_b.jpg"}},{"id":1640,"common_name":"Hayden's sedge","scientific_name":["Carex haydenii"],"other_name":null,"cycle":"Perennial","watering":"Frequent","sunlight":["Sun"," Partial Shade"],"default_image":{"image_id":9,"license":5,"license_name":"Attribution-ShareAlike License","license_url":"https://creativecommons.org/licenses/by-sa/2.0/","original_url":"https://perenual.com/storage/species_image/2_abies_alba_pyramidalis/og/49255769768_df55596553_b.jpg","regular_url":"https://perenual.com/storage/species_image/2_abies_alba_pyramidalis/regular/49255769768_df55596553_b.jpg","medium_url":"https://perenual.com/storage/species_image/2_abies_alba_pyramidalis/medium/49255769768_df55596553_b.jpg","small_url":"https://perenual.com/storage/species_image/2_abies_alba_pyramidalis/small/49255769768_df55596553_b.jpg","thumbnail":"https://perenual.com/storage/species_image/2_abies_alba_pyramidalis/thumbnail/49255769768_df55596553_b.jpg"}},{"id":1641,"common_name":"sedge","scientific_name":["Carex 'Ice Dance'"],"other_name":null,"cycle":"Perennial","watering":"Frequent","sunlight":["Part shade","full shade"],"default_image":{"image_id":9,"license":5,"license_name":"Attribution-ShareAlike License","license_url":"https://creativecommons.org/licenses/by-sa/2.0/","original_url":"https://perenual.com/storage/species_image/2_abies_alba_pyramidalis/og/49255769768_df55596553_b.jpg","regular_url":"https://perenual.com/storage/species_image/2_abies_alba_pyramidalis/regular/49255769768_df55596553_b.jpg","medium_url":"https://perenual.com/storage/species_image/2_abies_alba_pyramidalis/medium/49255769768_df55596553_b.jpg","small_url":"https://perenual.com/storage/species_image/2_abies_alba_pyramidalis/small/49255769768_df55596553_b.jpg","thumbnail":"https://perenual.com/storage/species_image/2_abies_alba_pyramidalis/thumbnail/49255769768_df55596553_b.jpg"}},{"id":1642,"common_name":"sedge","scientific_name":["Carex laxiculmis"],"other_name":null,"cycle":"Perennial","watering":"Frequent","sunlight":["Deciduous Shade (Spring Sun)"],"default_image":{"image_id":9,"license":5,"license_name":"Attribution-ShareAlike License","license_url":"https://creativecommons.org/licenses/by-sa/2.0/","original_url":"https://perenual.com/storage/species_image/2_abies_alba_pyramidalis/og/49255769768_df55596553_b.jpg","regular_url":"https://perenual.com/storage/species_image/2_abies_alba_pyramidalis/regular/49255769768_df55596553_b.jpg","medium_url":"https://perenual.com/storage/species_image/2_abies_alba_pyramidalis/medium/49255769768_df55596553_b.jpg","small_url":"https://perenual.com/storage/species_image/2_abies_alba_pyramidalis/small/49255769768_df55596553_b.jpg","thumbnail":"https://perenual.com/storage/species_image/2_abies_alba_pyramidalis/thumbnail/49255769768_df55596553_b.jpg"}},{"id":1643,"common_name":"sedge","scientific_name":["Carex laxiculmis 'Hobb' BUNNY BLUE"],"other_name":null,"cycle":"Perennial","watering":"Frequent","sunlight":["Deciduous Shade (Spring Sun)"],"default_image":{"image_id":3861,"license":5,"license_name":"Attribution-ShareAlike License","license_url":"https://creativecommons.org/licenses/by-sa/2.0/","original_url":"https://perenual.com/storage/species_image/1643_carex_laxiculmis_hobb_bunny_blue/og/52519074141_315128e12b_b.jpg","regular_url":"https://perenual.com/storage/species_image/1643_carex_laxiculmis_hobb_bunny_blue/regular/52519074141_315128e12b_b.jpg","medium_url":"https://perenual.com/storage/species_image/1643_carex_laxiculmis_hobb_bunny_blue/medium/52519074141_315128e12b_b.jpg","small_url":"https://perenual.com/storage/species_image/1643_carex_laxiculmis_hobb_bunny_blue/small/52519074141_315128e12b_b.jpg","thumbnail":"https://perenual.com/storage/species_image/1643_carex_laxiculmis_hobb_bunny_blue/thumbnail/52519074141_315128e12b_b.jpg"}},{"id":1644,"common_name":"oval sedge","scientific_name":["Carex leporina"],"other_name":null,"cycle":"Perennial","watering":"Frequent","sunlight":["Part shade","full shade"],"default_image":{"image_id":3862,"license":6,"license_name":"Attribution-NoDerivs License","license_url":"https://creativecommons.org/licenses/by-nd/2.0/","original_url":"https://perenual.com/storage/species_image/1644_carex_leporina/og/51343721981_dfc2421377_b.jpg"}},{"id":1645,"common_name":"sallow sedge","scientific_name":["Carex lurida"],"other_name":["Sallow Sedge","Lurid Sedge","Lurid Sedge"],"cycle":"Perennial","watering":"Frequent","sunlight":["Sun"," Partial Shade"],"default_image":{"image_id":9,"license":5,"license_name":"Attribution-ShareAlike License","license_url":"https://creativecommons.org/licenses/by-sa/2.0/","original_url":"https://perenual.com/storage/species_image/2_abies_alba_pyramidalis/og/49255769768_df55596553_b.jpg","regular_url":"https://perenual.com/storage/species_image/2_abies_alba_pyramidalis/regular/49255769768_df55596553_b.jpg","medium_url":"https://perenual.com/storage/species_image/2_abies_alba_pyramidalis/medium/49255769768_df55596553_b.jpg","small_url":"https://perenual.com/storage/species_image/2_abies_alba_pyramidalis/small/49255769768_df55596553_b.jpg","thumbnail":"https://perenual.com/storage/species_image/2_abies_alba_pyramidalis/thumbnail/49255769768_df55596553_b.jpg"}},{"id":1646,"common_name":"Japanese grass sedge","scientific_name":["Carex morrowii"],"other_name":null,"cycle":"Perennial","watering":"Frequent","sunlight":["Part shade","full shade"],"default_image":{"image_id":3870,"license":5,"license_name":"Attribution-ShareAlike License","license_url":"https://creativecommons.org/licenses/by-sa/2.0/","original_url":"https://perenual.com/storage/species_image/1646_carex_morrowii/og/14018932949_4f5f15e24d_b.jpg","regular_url":"https://perenual.com/storage/species_image/1646_carex_morrowii/regular/14018932949_4f5f15e24d_b.jpg","medium_url":"https://perenual.com/storage/species_image/1646_carex_morrowii/medium/14018932949_4f5f15e24d_b.jpg","small_url":"https://perenual.com/storage/species_image/1646_carex_morrowii/small/14018932949_4f5f15e24d_b.jpg","thumbnail":"https://perenual.com/storage/species_image/1646_carex_morrowii/thumbnail/14018932949_4f5f15e24d_b.jpg"}},{"id":1647,"common_name":"Japanese grass sedge","scientific_name":["Carex morrowii 'Goldband'"],"other_name":null,"cycle":"Perennial","watering":"Frequent","sunlight":["Part shade","full shade"],"default_image":{"image_id":3873,"license":5,"license_name":"Attribution-ShareAlike License","license_url":"https://creativecommons.org/licenses/by-sa/2.0/","original_url":"https://perenual.com/storage/species_image/1647_carex_morrowii_goldband/og/7133815851_db7e6e2cc5_b.jpg","regular_url":"https://perenual.com/storage/species_image/1647_carex_morrowii_goldband/regular/7133815851_db7e6e2cc5_b.jpg","medium_url":"https://perenual.com/storage/species_image/1647_carex_morrowii_goldband/medium/7133815851_db7e6e2cc5_b.jpg","small_url":"https://perenual.com/storage/species_image/1647_carex_morrowii_goldband/small/7133815851_db7e6e2cc5_b.jpg","thumbnail":"https://perenual.com/storage/species_image/1647_carex_morrowii_goldband/thumbnail/7133815851_db7e6e2cc5_b.jpg"}},{"id":1648,"common_name":"Japanese grass sedge","scientific_name":["Carex morrowii var. temnolepis 'Silk Tassel'"],"other_name":null,"cycle":"","watering":"Frequent","sunlight":["Part shade","full shade"],"default_image":{"image_id":3874,"license":4,"license_name":"Attribution License","license_url":"https://creativecommons.org/licenses/by/2.0/","original_url":"https://perenual.com/storage/species_image/1648_carex_morrowii_var_temnolepis_silk_tassel/og/21989008988_ecba059fe6_b.jpg","regular_url":"https://perenual.com/storage/species_image/1648_carex_morrowii_var_temnolepis_silk_tassel/regular/21989008988_ecba059fe6_b.jpg","medium_url":"https://perenual.com/storage/species_image/1648_carex_morrowii_var_temnolepis_silk_tassel/medium/21989008988_ecba059fe6_b.jpg","small_url":"https://perenual.com/storage/species_image/1648_carex_morrowii_var_temnolepis_silk_tassel/small/21989008988_ecba059fe6_b.jpg","thumbnail":"https://perenual.com/storage/species_image/1648_carex_morrowii_var_temnolepis_silk_tassel/thumbnail/21989008988_ecba059fe6_b.jpg"}},{"id":1649,"common_name":"Japanese grass sedge","scientific_name":["Carex morrowii 'Variegata'"],"other_name":null,"cycle":"Perennial","watering":"Frequent","sunlight":["Part shade","full shade"],"default_image":{"image_id":3870,"license":5,"license_name":"Attribution-ShareAlike License","license_url":"https://creativecommons.org/licenses/by-sa/2.0/","original_url":"https://perenual.com/storage/species_image/1646_carex_morrowii/og/14018932949_4f5f15e24d_b.jpg","regular_url":"https://perenual.com/storage/species_image/1646_carex_morrowii/regular/14018932949_4f5f15e24d_b.jpg","medium_url":"https://perenual.com/storage/species_image/1646_carex_morrowii/medium/14018932949_4f5f15e24d_b.jpg","small_url":"https://perenual.com/storage/species_image/1646_carex_morrowii/small/14018932949_4f5f15e24d_b.jpg","thumbnail":"https://perenual.com/storage/species_image/1646_carex_morrowii/thumbnail/14018932949_4f5f15e24d_b.jpg"}},{"id":1650,"common_name":"palm sedge","scientific_name":["Carex muskingumensis"],"other_name":["Swamp Oval Sedge"],"cycle":"Perennial","watering":"Frequent","sunlight":[],"default_image":{"image_id":3876,"license":5,"license_name":"Attribution-ShareAlike License","license_url":"https://creativecommons.org/licenses/by-sa/2.0/","original_url":"https://perenual.com/storage/species_image/1650_carex_muskingumensis/og/6156443708_738a17671b_b.jpg","regular_url":"https://perenual.com/storage/species_image/1650_carex_muskingumensis/regular/6156443708_738a17671b_b.jpg","medium_url":"https://perenual.com/storage/species_image/1650_carex_muskingumensis/medium/6156443708_738a17671b_b.jpg","small_url":"https://perenual.com/storage/species_image/1650_carex_muskingumensis/small/6156443708_738a17671b_b.jpg","thumbnail":"https://perenual.com/storage/species_image/1650_carex_muskingumensis/thumbnail/6156443708_738a17671b_b.jpg"}}],"to":1650,"per_page":30,"current_page":55,"from":1621,"last_page":200,"total":6000}