{"data":[{"id":241,"common_name":"Venus Flowering Dogwood","scientific_name":["Cornus 'Venus'"],"other_name":["Hybrid Dogwood"],"cycle":"Perennial","watering":"Frequent","sunlight":[],"default_image":{"image_id":9,"license":5,"license_name":"Attribution-ShareAlike License","license_url":"https://creativecommons.org/licenses/by-sa/2.0/","original_url":"https://perenual.com/storage/species_image/2_abies_alba_pyramidalis/og/49255769768_df55596553_b.jpg","regular_url":"https://perenual.com/storage/species_image/2_abies_alba_pyramidalis/regular/49255769768_df55596553_b.jpg","medium_url":"https://perenual.com/storage/species_image/2_abies_alba_pyramidalis/medium/49255769768_df55596553_b.jpg","small_url":"https://perenual.com/storage/species_image/2_abies_alba_pyramidalis/small/49255769768_df55596553_b.jpg","thumbnail":"https://perenual.com/storage/species_image/2_abies_alba_pyramidalis/thumbnail/49255769768_df55596553_b.jpg"}},{"id":242,"common_name":"Pagoda Dogwood","scientific_name":["Cornus alternifolia"],"other_name":null,"cycle":"Perennial","watering":"Average","sunlight":["Partial sun"],"default_image":{"image_id":441,"license":5,"license_name":"Attribution-ShareAlike License","license_url":"https://creativecommons.org/licenses/by-sa/2.0/","original_url":"https://perenual.com/storage/species_image/243_cornus_alternifolia_argentea/og/21390477415_d07c2f4558_b.jpg","regular_url":"https://perenual.com/storage/species_image/243_cornus_alternifolia_argentea/regular/21390477415_d07c2f4558_b.jpg","medium_url":"https://perenual.com/storage/species_image/243_cornus_alternifolia_argentea/medium/21390477415_d07c2f4558_b.jpg","small_url":"https://perenual.com/storage/species_image/243_cornus_alternifolia_argentea/small/21390477415_d07c2f4558_b.jpg","thumbnail":"https://perenual.com/storage/species_image/243_cornus_alternifolia_argentea/thumbnail/21390477415_d07c2f4558_b.jpg"}},{"id":243,"common_name":"Variegated Pagoda Dogwood","scientific_name":["Cornus alternifolia 'Argentea'"],"other_name":null,"cycle":"Perennial","watering":"Average","sunlight":["Partial sun"],"default_image":{"image_id":441,"license":5,"license_name":"Attribution-ShareAlike License","license_url":"https://creativecommons.org/licenses/by-sa/2.0/","original_url":"https://perenual.com/storage/species_image/243_cornus_alternifolia_argentea/og/21390477415_d07c2f4558_b.jpg","regular_url":"https://perenual.com/storage/species_image/243_cornus_alternifolia_argentea/regular/21390477415_d07c2f4558_b.jpg","medium_url":"https://perenual.com/storage/species_image/243_cornus_alternifolia_argentea/medium/21390477415_d07c2f4558_b.jpg","small_url":"https://perenual.com/storage/species_image/243_cornus_alternifolia_argentea/small/21390477415_d07c2f4558_b.jpg","thumbnail":"https://perenual.com/storage/species_image/243_cornus_alternifolia_argentea/thumbnail/21390477415_d07c2f4558_b.jpg"}},{"id":256,"common_name":"National Chinese Dogwood","scientific_name":["Cornus kousa 'National'"],"other_name":["Kousa Dogwood"],"cycle":"Perennial","watering":"Average","sunlight":["Full sun","part shade"],"default_image":{"image_id":9,"license":5,"license_name":"Attribution-ShareAlike License","license_url":"https://creativecommons.org/licenses/by-sa/2.0/","original_url":"https://perenual.com/storage/species_image/2_abies_alba_pyramidalis/og/49255769768_df55596553_b.jpg","regular_url":"https://perenual.com/storage/species_image/2_abies_alba_pyramidalis/regular/49255769768_df55596553_b.jpg","medium_url":"https://perenual.com/storage/species_image/2_abies_alba_pyramidalis/medium/49255769768_df55596553_b.jpg","small_url":"https://perenual.com/storage/species_image/2_abies_alba_pyramidalis/small/49255769768_df55596553_b.jpg","thumbnail":"https://perenual.com/storage/species_image/2_abies_alba_pyramidalis/thumbnail/49255769768_df55596553_b.jpg"}},{"id":257,"common_name":"Samaritan Chinese Dogwood","scientific_name":["Cornus kousa 'Samaritan'"],"other_name":["Kousa Dogwood"],"cycle":"Perennial","watering":"Average","sunlight":["Full sun","part shade"],"default_image":{"image_id":9,"license":5,"license_name":"Attribution-ShareAlike License","license_url":"https://creativecommons.org/licenses/by-sa/2.0/","original_url":"https://perenual.com/storage/species_image/2_abies_alba_pyramidalis/og/49255769768_df55596553_b.jpg","regular_url":"https://perenual.com/storage/species_image/2_abies_alba_pyramidalis/regular/49255769768_df55596553_b.jpg","medium_url":"https://perenual.com/storage/species_image/2_abies_alba_pyramidalis/medium/49255769768_df55596553_b.jpg","small_url":"https://perenual.com/storage/species_image/2_abies_alba_pyramidalis/small/49255769768_df55596553_b.jpg","thumbnail":"https://perenual.com/storage/species_image/2_abies_alba_pyramidalis/thumbnail/49255769768_df55596553_b.jpg"}},{"id":258,"common_name":"Satomi Chinese Dogwood","scientific_name":["Cornus kousa 'Satomi'"],"other_name":["Kousa Dogwood"],"cycle":"Perennial","watering":"Average","sunlight":["Full sun","part shade"],"default_image":{"image_id":9,"license":5,"license_name":"Attribution-ShareAlike License","license_url":"https://creativecommons.org/licenses/by-sa/2.0/","original_url":"https://perenual.com/storage/species_image/2_abies_alba_pyramidalis/og/49255769768_df55596553_b.jpg","regular_url":"https://perenual.com/storage/species_image/2_abies_alba_pyramidalis/regular/49255769768_df55596553_b.jpg","medium_url":"https://perenual.com/storage/species_image/2_abies_alba_pyramidalis/medium/49255769768_df55596553_b.jpg","small_url":"https://perenual.com/storage/species_image/2_abies_alba_pyramidalis/small/49255769768_df55596553_b.jpg","thumbnail":"https://perenual.com/storage/species_image/2_abies_alba_pyramidalis/thumbnail/49255769768_df55596553_b.jpg"}},{"id":259,"common_name":"Starlight Chinese Dogwood","scientific_name":["Cornus kousa 'Starlight'"],"other_name":["Kousa Dogwood"],"cycle":"Perennial","watering":"Average","sunlight":["Full sun","part shade"],"default_image":{"image_id":9,"license":5,"license_name":"Attribution-ShareAlike License","license_url":"https://creativecommons.org/licenses/by-sa/2.0/","original_url":"https://perenual.com/storage/species_image/2_abies_alba_pyramidalis/og/49255769768_df55596553_b.jpg","regular_url":"https://perenual.com/storage/species_image/2_abies_alba_pyramidalis/regular/49255769768_df55596553_b.jpg","medium_url":"https://perenual.com/storage/species_image/2_abies_alba_pyramidalis/medium/49255769768_df55596553_b.jpg","small_url":"https://perenual.com/storage/species_image/2_abies_alba_pyramidalis/small/49255769768_df55596553_b.jpg","thumbnail":"https://perenual.com/storage/species_image/2_abies_alba_pyramidalis/thumbnail/49255769768_df55596553_b.jpg"}},{"id":260,"common_name":"Chinese Dogwood","scientific_name":["Cornus kousa 'var. chinensis'"],"other_name":["Kousa Dogwood"],"cycle":"Perennial","watering":"Average","sunlight":["Full sun","part shade"],"default_image":{"image_id":475,"license":5,"license_name":"Attribution-ShareAlike License","license_url":"https://creativecommons.org/licenses/by-sa/2.0/","original_url":"https://perenual.com/storage/species_image/260_cornus_kousa_var_chinensis/og/36611025476_f0a5c400a0_b.jpg","regular_url":"https://perenual.com/storage/species_image/260_cornus_kousa_var_chinensis/regular/36611025476_f0a5c400a0_b.jpg","medium_url":"https://perenual.com/storage/species_image/260_cornus_kousa_var_chinensis/medium/36611025476_f0a5c400a0_b.jpg","small_url":"https://perenual.com/storage/species_image/260_cornus_kousa_var_chinensis/small/36611025476_f0a5c400a0_b.jpg","thumbnail":"https://perenual.com/storage/species_image/260_cornus_kousa_var_chinensis/thumbnail/36611025476_f0a5c400a0_b.jpg"}},{"id":261,"common_name":"Wolf Eyes Chinese Dogwood","scientific_name":["Cornus kousa 'Wolf Eyes'"],"other_name":["Kousa Dogwood"],"cycle":"Perennial","watering":"Average","sunlight":["Full sun","part shade"],"default_image":{"image_id":9,"license":5,"license_name":"Attribution-ShareAlike License","license_url":"https://creativecommons.org/licenses/by-sa/2.0/","original_url":"https://perenual.com/storage/species_image/2_abies_alba_pyramidalis/og/49255769768_df55596553_b.jpg","regular_url":"https://perenual.com/storage/species_image/2_abies_alba_pyramidalis/regular/49255769768_df55596553_b.jpg","medium_url":"https://perenual.com/storage/species_image/2_abies_alba_pyramidalis/medium/49255769768_df55596553_b.jpg","small_url":"https://perenual.com/storage/species_image/2_abies_alba_pyramidalis/small/49255769768_df55596553_b.jpg","thumbnail":"https://perenual.com/storage/species_image/2_abies_alba_pyramidalis/thumbnail/49255769768_df55596553_b.jpg"}},{"id":262,"common_name":"Cornelian Cherry Dogwood","scientific_name":["Cornus mas"],"other_name":["Cornelian cherry"],"cycle":"Perennial","watering":"Average","sunlight":["Full sun","part shade"],"default_image":{"image_id":478,"license":4,"license_name":"Attribution License","license_url":"https://creativecommons.org/licenses/by/2.0/","original_url":"https://perenual.com/storage/species_image/262_cornus_mas/og/51984552479_dcbda153b0_b.jpg","regular_url":"https://perenual.com/storage/species_image/262_cornus_mas/regular/51984552479_dcbda153b0_b.jpg","medium_url":"https://perenual.com/storage/species_image/262_cornus_mas/medium/51984552479_dcbda153b0_b.jpg","small_url":"https://perenual.com/storage/species_image/262_cornus_mas/small/51984552479_dcbda153b0_b.jpg","thumbnail":"https://perenual.com/storage/species_image/262_cornus_mas/thumbnail/51984552479_dcbda153b0_b.jpg"}},{"id":263,"common_name":"Golden Cornelian Cherry Dogwood","scientific_name":["Cornus mas 'Aurea'"],"other_name":["Cornelian cherry"],"cycle":"Perennial","watering":"Average","sunlight":["Full sun","part shade"],"default_image":{"image_id":480,"license":5,"license_name":"Attribution-ShareAlike License","license_url":"https://creativecommons.org/licenses/by-sa/2.0/","original_url":"https://perenual.com/storage/species_image/263_cornus_mas_aurea/og/29887979954_a6f7864a41_b.jpg","regular_url":"https://perenual.com/storage/species_image/263_cornus_mas_aurea/regular/29887979954_a6f7864a41_b.jpg","medium_url":"https://perenual.com/storage/species_image/263_cornus_mas_aurea/medium/29887979954_a6f7864a41_b.jpg","small_url":"https://perenual.com/storage/species_image/263_cornus_mas_aurea/small/29887979954_a6f7864a41_b.jpg","thumbnail":"https://perenual.com/storage/species_image/263_cornus_mas_aurea/thumbnail/29887979954_a6f7864a41_b.jpg"}},{"id":264,"common_name":"Variegated Cornelian Cherry Dogwood","scientific_name":["Cornus mas 'Variegata'"],"other_name":["Cornelian cherry"],"cycle":"Perennial","watering":"Average","sunlight":["Full sun","part shade"],"default_image":{"image_id":481,"license":5,"license_name":"Attribution-ShareAlike License","license_url":"https://creativecommons.org/licenses/by-sa/2.0/","original_url":"https://perenual.com/storage/species_image/264_cornus_mas_variegata/og/4845666615_ab34c5d815_b.jpg","regular_url":"https://perenual.com/storage/species_image/264_cornus_mas_variegata/regular/4845666615_ab34c5d815_b.jpg","medium_url":"https://perenual.com/storage/species_image/264_cornus_mas_variegata/medium/4845666615_ab34c5d815_b.jpg","small_url":"https://perenual.com/storage/species_image/264_cornus_mas_variegata/small/4845666615_ab34c5d815_b.jpg","thumbnail":"https://perenual.com/storage/species_image/264_cornus_mas_variegata/thumbnail/4845666615_ab34c5d815_b.jpg"}},{"id":265,"common_name":"Paul's Scarlet English Hawthorn","scientific_name":["Crataegus laevigata 'Paul's Scarlet'"],"other_name":null,"cycle":"Perennial","watering":"Average","sunlight":["Full sun"],"default_image":{"image_id":483,"license":5,"license_name":"Attribution-ShareAlike License","license_url":"https://creativecommons.org/licenses/by-sa/2.0/","original_url":"https://perenual.com/storage/species_image/265_crataegus_laevigata_pauls_scarlet/og/17848776008_0e65097046_b.jpg","regular_url":"https://perenual.com/storage/species_image/265_crataegus_laevigata_pauls_scarlet/regular/17848776008_0e65097046_b.jpg","medium_url":"https://perenual.com/storage/species_image/265_crataegus_laevigata_pauls_scarlet/medium/17848776008_0e65097046_b.jpg","small_url":"https://perenual.com/storage/species_image/265_crataegus_laevigata_pauls_scarlet/small/17848776008_0e65097046_b.jpg","thumbnail":"https://perenual.com/storage/species_image/265_crataegus_laevigata_pauls_scarlet/thumbnail/17848776008_0e65097046_b.jpg"}},{"id":244,"common_name":"Variegated Giant Dogwood","scientific_name":["Cornus controversa 'Variegata'"],"other_name":["Wedding Cake Tree"],"cycle":"Perennial","watering":"Average","sunlight":["Full sun","part shade"],"default_image":{"image_id":446,"license":5,"license_name":"Attribution-ShareAlike License","license_url":"https://creativecommons.org/licenses/by-sa/2.0/","original_url":"https://perenual.com/storage/species_image/244_cornus_controversa_variegata/og/15744030781_92520e1a0d_b.jpg","regular_url":"https://perenual.com/storage/species_image/244_cornus_controversa_variegata/regular/15744030781_92520e1a0d_b.jpg","medium_url":"https://perenual.com/storage/species_image/244_cornus_controversa_variegata/medium/15744030781_92520e1a0d_b.jpg","small_url":"https://perenual.com/storage/species_image/244_cornus_controversa_variegata/small/15744030781_92520e1a0d_b.jpg","thumbnail":"https://perenual.com/storage/species_image/244_cornus_controversa_variegata/thumbnail/15744030781_92520e1a0d_b.jpg"}},{"id":245,"common_name":"Cherokee Brave Flowering Dogwood","scientific_name":["Cornus florida 'Cherokee Brave'"],"other_name":null,"cycle":"Perennial","watering":"Average","sunlight":["Full sun"," Part sun/part shade"],"default_image":{"image_id":9,"license":5,"license_name":"Attribution-ShareAlike License","license_url":"https://creativecommons.org/licenses/by-sa/2.0/","original_url":"https://perenual.com/storage/species_image/2_abies_alba_pyramidalis/og/49255769768_df55596553_b.jpg","regular_url":"https://perenual.com/storage/species_image/2_abies_alba_pyramidalis/regular/49255769768_df55596553_b.jpg","medium_url":"https://perenual.com/storage/species_image/2_abies_alba_pyramidalis/medium/49255769768_df55596553_b.jpg","small_url":"https://perenual.com/storage/species_image/2_abies_alba_pyramidalis/small/49255769768_df55596553_b.jpg","thumbnail":"https://perenual.com/storage/species_image/2_abies_alba_pyramidalis/thumbnail/49255769768_df55596553_b.jpg"}},{"id":246,"common_name":"Cherokee Chief Flowering Dogwood","scientific_name":["Cornus florida 'Cherokee Chief'"],"other_name":null,"cycle":"Perennial","watering":"Average","sunlight":["Full sun"," Part sun/part shade"],"default_image":{"image_id":455,"license":4,"license_name":"Attribution License","license_url":"https://creativecommons.org/licenses/by/2.0/","original_url":"https://perenual.com/storage/species_image/246_cornus_florida_cherokee_chief/og/51275757028_2dd85e696e_b.jpg","regular_url":"https://perenual.com/storage/species_image/246_cornus_florida_cherokee_chief/regular/51275757028_2dd85e696e_b.jpg","medium_url":"https://perenual.com/storage/species_image/246_cornus_florida_cherokee_chief/medium/51275757028_2dd85e696e_b.jpg","small_url":"https://perenual.com/storage/species_image/246_cornus_florida_cherokee_chief/small/51275757028_2dd85e696e_b.jpg","thumbnail":"https://perenual.com/storage/species_image/246_cornus_florida_cherokee_chief/thumbnail/51275757028_2dd85e696e_b.jpg"}},{"id":247,"common_name":"Cherokee Daybreak Flowering Dogwood","scientific_name":["Cornus florida 'Cherokee Daybreak'"],"other_name":null,"cycle":"Perennial","watering":"Average","sunlight":["Full sun"," Part sun/part shade"],"default_image":{"image_id":9,"license":5,"license_name":"Attribution-ShareAlike License","license_url":"https://creativecommons.org/licenses/by-sa/2.0/","original_url":"https://perenual.com/storage/species_image/2_abies_alba_pyramidalis/og/49255769768_df55596553_b.jpg","regular_url":"https://perenual.com/storage/species_image/2_abies_alba_pyramidalis/regular/49255769768_df55596553_b.jpg","medium_url":"https://perenual.com/storage/species_image/2_abies_alba_pyramidalis/medium/49255769768_df55596553_b.jpg","small_url":"https://perenual.com/storage/species_image/2_abies_alba_pyramidalis/small/49255769768_df55596553_b.jpg","thumbnail":"https://perenual.com/storage/species_image/2_abies_alba_pyramidalis/thumbnail/49255769768_df55596553_b.jpg"}},{"id":248,"common_name":"Cherokee Princess Flowering Dogwood","scientific_name":["Cornus florida 'Cherokee Princess'"],"other_name":null,"cycle":"Perennial","watering":"Average","sunlight":["Full sun"," Part sun/part shade"],"default_image":{"image_id":9,"license":5,"license_name":"Attribution-ShareAlike License","license_url":"https://creativecommons.org/licenses/by-sa/2.0/","original_url":"https://perenual.com/storage/species_image/2_abies_alba_pyramidalis/og/49255769768_df55596553_b.jpg","regular_url":"https://perenual.com/storage/species_image/2_abies_alba_pyramidalis/regular/49255769768_df55596553_b.jpg","medium_url":"https://perenual.com/storage/species_image/2_abies_alba_pyramidalis/medium/49255769768_df55596553_b.jpg","small_url":"https://perenual.com/storage/species_image/2_abies_alba_pyramidalis/small/49255769768_df55596553_b.jpg","thumbnail":"https://perenual.com/storage/species_image/2_abies_alba_pyramidalis/thumbnail/49255769768_df55596553_b.jpg"}},{"id":249,"common_name":"Cherokee Sunset Flowering Dogwood","scientific_name":["Cornus florida 'Cherokee Sunset'"],"other_name":null,"cycle":"Perennial","watering":"Average","sunlight":["Full sun"," Part sun/part shade"],"default_image":{"image_id":456,"license":5,"license_name":"Attribution-ShareAlike License","license_url":"https://creativecommons.org/licenses/by-sa/2.0/","original_url":"https://perenual.com/storage/species_image/249_cornus_florida_cherokee_sunset/og/486533861_a730502cab_b.jpg","regular_url":"https://perenual.com/storage/species_image/249_cornus_florida_cherokee_sunset/regular/486533861_a730502cab_b.jpg","medium_url":"https://perenual.com/storage/species_image/249_cornus_florida_cherokee_sunset/medium/486533861_a730502cab_b.jpg","small_url":"https://perenual.com/storage/species_image/249_cornus_florida_cherokee_sunset/small/486533861_a730502cab_b.jpg","thumbnail":"https://perenual.com/storage/species_image/249_cornus_florida_cherokee_sunset/thumbnail/486533861_a730502cab_b.jpg"}},{"id":250,"common_name":"Red Flowering Dogwood","scientific_name":["Cornus florida 'var. rubra'"],"other_name":null,"cycle":"Perennial","watering":"Average","sunlight":["Full sun"," Part sun/part shade"],"default_image":{"image_id":460,"license":4,"license_name":"Attribution License","license_url":"https://creativecommons.org/licenses/by/2.0/","original_url":"https://perenual.com/storage/species_image/250_cornus_florida_var_rubra/og/10108500273_70c8821e33_b.jpg","regular_url":"https://perenual.com/storage/species_image/250_cornus_florida_var_rubra/regular/10108500273_70c8821e33_b.jpg","medium_url":"https://perenual.com/storage/species_image/250_cornus_florida_var_rubra/medium/10108500273_70c8821e33_b.jpg","small_url":"https://perenual.com/storage/species_image/250_cornus_florida_var_rubra/small/10108500273_70c8821e33_b.jpg","thumbnail":"https://perenual.com/storage/species_image/250_cornus_florida_var_rubra/thumbnail/10108500273_70c8821e33_b.jpg"}},{"id":251,"common_name":"Chinese Dogwood","scientific_name":["Cornus kousa"],"other_name":["Kousa Dogwood"],"cycle":"Perennial","watering":"Average","sunlight":["Full sun","part shade"],"default_image":{"image_id":464,"license":5,"license_name":"Attribution-ShareAlike License","license_url":"https://creativecommons.org/licenses/by-sa/2.0/","original_url":"https://perenual.com/storage/species_image/251_cornus_kousa/og/36611026736_02b5067c84_b.jpg","regular_url":"https://perenual.com/storage/species_image/251_cornus_kousa/regular/36611026736_02b5067c84_b.jpg","medium_url":"https://perenual.com/storage/species_image/251_cornus_kousa/medium/36611026736_02b5067c84_b.jpg","small_url":"https://perenual.com/storage/species_image/251_cornus_kousa/small/36611026736_02b5067c84_b.jpg","thumbnail":"https://perenual.com/storage/species_image/251_cornus_kousa/thumbnail/36611026736_02b5067c84_b.jpg"}},{"id":252,"common_name":"Blue Shadow Chinese Dogwood","scientific_name":["Cornus kousa 'Blue Shadow'"],"other_name":["Kousa Dogwood"],"cycle":"Perennial","watering":"Average","sunlight":["Full sun","part shade"],"default_image":{"image_id":9,"license":5,"license_name":"Attribution-ShareAlike License","license_url":"https://creativecommons.org/licenses/by-sa/2.0/","original_url":"https://perenual.com/storage/species_image/2_abies_alba_pyramidalis/og/49255769768_df55596553_b.jpg","regular_url":"https://perenual.com/storage/species_image/2_abies_alba_pyramidalis/regular/49255769768_df55596553_b.jpg","medium_url":"https://perenual.com/storage/species_image/2_abies_alba_pyramidalis/medium/49255769768_df55596553_b.jpg","small_url":"https://perenual.com/storage/species_image/2_abies_alba_pyramidalis/small/49255769768_df55596553_b.jpg","thumbnail":"https://perenual.com/storage/species_image/2_abies_alba_pyramidalis/thumbnail/49255769768_df55596553_b.jpg"}},{"id":253,"common_name":"China Girl Chinese Dogwood","scientific_name":["Cornus kousa 'China Girl'"],"other_name":["Kousa Dogwood"],"cycle":"Perennial","watering":"Average","sunlight":["Full sun","part shade"],"default_image":{"image_id":9,"license":5,"license_name":"Attribution-ShareAlike License","license_url":"https://creativecommons.org/licenses/by-sa/2.0/","original_url":"https://perenual.com/storage/species_image/2_abies_alba_pyramidalis/og/49255769768_df55596553_b.jpg","regular_url":"https://perenual.com/storage/species_image/2_abies_alba_pyramidalis/regular/49255769768_df55596553_b.jpg","medium_url":"https://perenual.com/storage/species_image/2_abies_alba_pyramidalis/medium/49255769768_df55596553_b.jpg","small_url":"https://perenual.com/storage/species_image/2_abies_alba_pyramidalis/small/49255769768_df55596553_b.jpg","thumbnail":"https://perenual.com/storage/species_image/2_abies_alba_pyramidalis/thumbnail/49255769768_df55596553_b.jpg"}},{"id":254,"common_name":"Heart Throb Chinese Dogwood","scientific_name":["Cornus kousa 'Heart Throb'"],"other_name":["Kousa Dogwood"],"cycle":"Perennial","watering":"Average","sunlight":["Full sun","part shade"],"default_image":{"image_id":9,"license":5,"license_name":"Attribution-ShareAlike License","license_url":"https://creativecommons.org/licenses/by-sa/2.0/","original_url":"https://perenual.com/storage/species_image/2_abies_alba_pyramidalis/og/49255769768_df55596553_b.jpg","regular_url":"https://perenual.com/storage/species_image/2_abies_alba_pyramidalis/regular/49255769768_df55596553_b.jpg","medium_url":"https://perenual.com/storage/species_image/2_abies_alba_pyramidalis/medium/49255769768_df55596553_b.jpg","small_url":"https://perenual.com/storage/species_image/2_abies_alba_pyramidalis/small/49255769768_df55596553_b.jpg","thumbnail":"https://perenual.com/storage/species_image/2_abies_alba_pyramidalis/thumbnail/49255769768_df55596553_b.jpg"}},{"id":255,"common_name":"Milky Way Chinese Dogwood","scientific_name":["Cornus kousa 'Milky Way'"],"other_name":["Kousa Dogwood"],"cycle":"Perennial","watering":"Average","sunlight":["Full sun","part shade"],"default_image":{"image_id":466,"license":4,"license_name":"Attribution License","license_url":"https://creativecommons.org/licenses/by/2.0/","original_url":"https://perenual.com/storage/species_image/255_cornus_kousa_milky_way/og/14148254128_6b3a016d1d_b.jpg","regular_url":"https://perenual.com/storage/species_image/255_cornus_kousa_milky_way/regular/14148254128_6b3a016d1d_b.jpg","medium_url":"https://perenual.com/storage/species_image/255_cornus_kousa_milky_way/medium/14148254128_6b3a016d1d_b.jpg","small_url":"https://perenual.com/storage/species_image/255_cornus_kousa_milky_way/small/14148254128_6b3a016d1d_b.jpg","thumbnail":"https://perenual.com/storage/species_image/255_cornus_kousa_milky_way/thumbnail/14148254128_6b3a016d1d_b.jpg"}},{"id":266,"common_name":"Japanese Cedar","scientific_name":["Cryptomeria japonica"],"other_name":null,"cycle":"Perennial","watering":"Average","sunlight":["Full sun"," Part sun/part shade"," Sheltered"],"default_image":{"image_id":488,"license":5,"license_name":"Attribution-ShareAlike License","license_url":"https://creativecommons.org/licenses/by-sa/2.0/","original_url":"https://perenual.com/storage/species_image/266_cryptomeria_japonica/og/51941933370_9cda81ee96_b.jpg","regular_url":"https://perenual.com/storage/species_image/266_cryptomeria_japonica/regular/51941933370_9cda81ee96_b.jpg","medium_url":"https://perenual.com/storage/species_image/266_cryptomeria_japonica/medium/51941933370_9cda81ee96_b.jpg","small_url":"https://perenual.com/storage/species_image/266_cryptomeria_japonica/small/51941933370_9cda81ee96_b.jpg","thumbnail":"https://perenual.com/storage/species_image/266_cryptomeria_japonica/thumbnail/51941933370_9cda81ee96_b.jpg"}},{"id":267,"common_name":"Yoshino Japanese Cedar","scientific_name":["Cryptomeria japonica 'Yoshino'"],"other_name":null,"cycle":"Perennial","watering":"Average","sunlight":["Full sun"," Part sun/part shade"," Sheltered"],"default_image":{"image_id":493,"license":5,"license_name":"Attribution-ShareAlike License","license_url":"https://creativecommons.org/licenses/by-sa/2.0/","original_url":"https://perenual.com/storage/species_image/267_cryptomeria_japonica_yoshino/og/49367942972_e1ec0a2c2a_b.jpg","regular_url":"https://perenual.com/storage/species_image/267_cryptomeria_japonica_yoshino/regular/49367942972_e1ec0a2c2a_b.jpg","medium_url":"https://perenual.com/storage/species_image/267_cryptomeria_japonica_yoshino/medium/49367942972_e1ec0a2c2a_b.jpg","small_url":"https://perenual.com/storage/species_image/267_cryptomeria_japonica_yoshino/small/49367942972_e1ec0a2c2a_b.jpg","thumbnail":"https://perenual.com/storage/species_image/267_cryptomeria_japonica_yoshino/thumbnail/49367942972_e1ec0a2c2a_b.jpg"}},{"id":268,"common_name":"Leyland Cypress","scientific_name":["Cupressocyparis x leylandii"],"other_name":null,"cycle":"Perennial","watering":"Frequent","sunlight":[],"default_image":{"image_id":495,"license":5,"license_name":"Attribution-ShareAlike License","license_url":"https://creativecommons.org/licenses/by-sa/2.0/","original_url":"https://perenual.com/storage/species_image/268_cupressocyparis_x_leylandii/og/9630542798_71401c187b_b.jpg","regular_url":"https://perenual.com/storage/species_image/268_cupressocyparis_x_leylandii/regular/9630542798_71401c187b_b.jpg","medium_url":"https://perenual.com/storage/species_image/268_cupressocyparis_x_leylandii/medium/9630542798_71401c187b_b.jpg","small_url":"https://perenual.com/storage/species_image/268_cupressocyparis_x_leylandii/small/9630542798_71401c187b_b.jpg","thumbnail":"https://perenual.com/storage/species_image/268_cupressocyparis_x_leylandii/thumbnail/9630542798_71401c187b_b.jpg"}},{"id":269,"common_name":"Castlewellan Leyland Cypress","scientific_name":["Cupressocyparis x leylandii 'Castlewellan'"],"other_name":["Golden Leyland Cypress"],"cycle":"Perennial","watering":"Frequent","sunlight":[],"default_image":{"image_id":496,"license":4,"license_name":"Attribution License","license_url":"https://creativecommons.org/licenses/by/2.0/","original_url":"https://perenual.com/storage/species_image/269_cupressocyparis_x_leylandii_castlewellan/og/20098146010_c49a33d49a_b.jpg","regular_url":"https://perenual.com/storage/species_image/269_cupressocyparis_x_leylandii_castlewellan/regular/20098146010_c49a33d49a_b.jpg","medium_url":"https://perenual.com/storage/species_image/269_cupressocyparis_x_leylandii_castlewellan/medium/20098146010_c49a33d49a_b.jpg","small_url":"https://perenual.com/storage/species_image/269_cupressocyparis_x_leylandii_castlewellan/small/20098146010_c49a33d49a_b.jpg","thumbnail":"https://perenual.com/storage/species_image/269_cupressocyparis_x_leylandii_castlewellan/thumbnail/20098146010_c49a33d49a_b.jpg"}},{"id":270,"common_name":"Gold Rider Leyland Cypress","scientific_name":["Cupressocyparis x leylandii 'Gold Rider'"],"other_name":null,"cycle":"Perennial","watering":"Frequent","sunlight":[],"default_image":{"image_id":9,"license":5,"license_name":"Attribution-ShareAlike License","license_url":"https://creativecommons.org/licenses/by-sa/2.0/","original_url":"https://perenual.com/storage/species_image/2_abies_alba_pyramidalis/og/49255769768_df55596553_b.jpg","regular_url":"https://perenual.com/storage/species_image/2_abies_alba_pyramidalis/regular/49255769768_df55596553_b.jpg","medium_url":"https://perenual.com/storage/species_image/2_abies_alba_pyramidalis/medium/49255769768_df55596553_b.jpg","small_url":"https://perenual.com/storage/species_image/2_abies_alba_pyramidalis/small/49255769768_df55596553_b.jpg","thumbnail":"https://perenual.com/storage/species_image/2_abies_alba_pyramidalis/thumbnail/49255769768_df55596553_b.jpg"}}],"to":270,"per_page":30,"current_page":9,"from":241,"last_page":200,"total":6000}