{"data":[{"id":331,"common_name":"Gold Star Magnolia","scientific_name":["Magnolia 'Gold Star'"],"other_name":null,"cycle":"Perennial","watering":"Average","sunlight":["Full sun","part shade"],"default_image":{"image_id":9,"license":5,"license_name":"Attribution-ShareAlike License","license_url":"https://creativecommons.org/licenses/by-sa/2.0/","original_url":"https://perenual.com/storage/species_image/2_abies_alba_pyramidalis/og/49255769768_df55596553_b.jpg","regular_url":"https://perenual.com/storage/species_image/2_abies_alba_pyramidalis/regular/49255769768_df55596553_b.jpg","medium_url":"https://perenual.com/storage/species_image/2_abies_alba_pyramidalis/medium/49255769768_df55596553_b.jpg","small_url":"https://perenual.com/storage/species_image/2_abies_alba_pyramidalis/small/49255769768_df55596553_b.jpg","thumbnail":"https://perenual.com/storage/species_image/2_abies_alba_pyramidalis/thumbnail/49255769768_df55596553_b.jpg"}},{"id":332,"common_name":"Golden Gift Magnolia","scientific_name":["Magnolia 'Golden Gift'"],"other_name":null,"cycle":"Perennial","watering":"Frequent","sunlight":[],"default_image":{"image_id":9,"license":5,"license_name":"Attribution-ShareAlike License","license_url":"https://creativecommons.org/licenses/by-sa/2.0/","original_url":"https://perenual.com/storage/species_image/2_abies_alba_pyramidalis/og/49255769768_df55596553_b.jpg","regular_url":"https://perenual.com/storage/species_image/2_abies_alba_pyramidalis/regular/49255769768_df55596553_b.jpg","medium_url":"https://perenual.com/storage/species_image/2_abies_alba_pyramidalis/medium/49255769768_df55596553_b.jpg","small_url":"https://perenual.com/storage/species_image/2_abies_alba_pyramidalis/small/49255769768_df55596553_b.jpg","thumbnail":"https://perenual.com/storage/species_image/2_abies_alba_pyramidalis/thumbnail/49255769768_df55596553_b.jpg"}},{"id":333,"common_name":"Marillyn Magnolia","scientific_name":["Magnolia 'Marillyn'"],"other_name":null,"cycle":"Perennial","watering":"Average","sunlight":["Full sun","part shade"],"default_image":{"image_id":9,"license":5,"license_name":"Attribution-ShareAlike License","license_url":"https://creativecommons.org/licenses/by-sa/2.0/","original_url":"https://perenual.com/storage/species_image/2_abies_alba_pyramidalis/og/49255769768_df55596553_b.jpg","regular_url":"https://perenual.com/storage/species_image/2_abies_alba_pyramidalis/regular/49255769768_df55596553_b.jpg","medium_url":"https://perenual.com/storage/species_image/2_abies_alba_pyramidalis/medium/49255769768_df55596553_b.jpg","small_url":"https://perenual.com/storage/species_image/2_abies_alba_pyramidalis/small/49255769768_df55596553_b.jpg","thumbnail":"https://perenual.com/storage/species_image/2_abies_alba_pyramidalis/thumbnail/49255769768_df55596553_b.jpg"}},{"id":334,"common_name":"Rose Marie Magnolia","scientific_name":["Magnolia 'Rose Marie'"],"other_name":["Rosemarie Magnolia"],"cycle":"Perennial","watering":"Frequent","sunlight":[],"default_image":{"image_id":21119,"license":45,"license_name":"Attribution-ShareAlike 3.0 Unported (CC BY-SA 3.0)","license_url":"https://creativecommons.org/licenses/by-sa/3.0/deed.en","original_url":"https://perenual.com/storage/species_image/334_magnolia_rose_marie/og/Magnolia_%C3%97_soulangeana_BW_1.jpg","regular_url":"https://perenual.com/storage/species_image/334_magnolia_rose_marie/regular/Magnolia_%C3%97_soulangeana_BW_1.jpg","medium_url":"https://perenual.com/storage/species_image/334_magnolia_rose_marie/medium/Magnolia_%C3%97_soulangeana_BW_1.jpg","small_url":"https://perenual.com/storage/species_image/334_magnolia_rose_marie/small/Magnolia_%C3%97_soulangeana_BW_1.jpg","thumbnail":"https://perenual.com/storage/species_image/334_magnolia_rose_marie/thumbnail/Magnolia_%C3%97_soulangeana_BW_1.jpg"}},{"id":335,"common_name":"Star Wars Magnolia","scientific_name":["Magnolia 'Star Wars'"],"other_name":null,"cycle":"Perennial","watering":"Frequent","sunlight":[],"default_image":{"image_id":9,"license":5,"license_name":"Attribution-ShareAlike License","license_url":"https://creativecommons.org/licenses/by-sa/2.0/","original_url":"https://perenual.com/storage/species_image/2_abies_alba_pyramidalis/og/49255769768_df55596553_b.jpg","regular_url":"https://perenual.com/storage/species_image/2_abies_alba_pyramidalis/regular/49255769768_df55596553_b.jpg","medium_url":"https://perenual.com/storage/species_image/2_abies_alba_pyramidalis/medium/49255769768_df55596553_b.jpg","small_url":"https://perenual.com/storage/species_image/2_abies_alba_pyramidalis/small/49255769768_df55596553_b.jpg","thumbnail":"https://perenual.com/storage/species_image/2_abies_alba_pyramidalis/thumbnail/49255769768_df55596553_b.jpg"}},{"id":336,"common_name":"Sunburst Magnolia","scientific_name":["Magnolia 'Sunburst'"],"other_name":null,"cycle":"Perennial","watering":"Frequent","sunlight":[],"default_image":{"image_id":9,"license":5,"license_name":"Attribution-ShareAlike License","license_url":"https://creativecommons.org/licenses/by-sa/2.0/","original_url":"https://perenual.com/storage/species_image/2_abies_alba_pyramidalis/og/49255769768_df55596553_b.jpg","regular_url":"https://perenual.com/storage/species_image/2_abies_alba_pyramidalis/regular/49255769768_df55596553_b.jpg","medium_url":"https://perenual.com/storage/species_image/2_abies_alba_pyramidalis/medium/49255769768_df55596553_b.jpg","small_url":"https://perenual.com/storage/species_image/2_abies_alba_pyramidalis/small/49255769768_df55596553_b.jpg","thumbnail":"https://perenual.com/storage/species_image/2_abies_alba_pyramidalis/thumbnail/49255769768_df55596553_b.jpg"}},{"id":337,"common_name":"Yellow Bird Magnolia","scientific_name":["Magnolia 'Yellow Bird'"],"other_name":null,"cycle":"Perennial","watering":"Frequent","sunlight":[],"default_image":{"image_id":671,"license":4,"license_name":"Attribution License","license_url":"https://creativecommons.org/licenses/by/2.0/","original_url":"https://perenual.com/storage/species_image/337_magnolia_yellow_bird/og/7384703532_7b3c58347a_b.jpg","regular_url":"https://perenual.com/storage/species_image/337_magnolia_yellow_bird/regular/7384703532_7b3c58347a_b.jpg","medium_url":"https://perenual.com/storage/species_image/337_magnolia_yellow_bird/medium/7384703532_7b3c58347a_b.jpg","small_url":"https://perenual.com/storage/species_image/337_magnolia_yellow_bird/small/7384703532_7b3c58347a_b.jpg","thumbnail":"https://perenual.com/storage/species_image/337_magnolia_yellow_bird/thumbnail/7384703532_7b3c58347a_b.jpg"}},{"id":338,"common_name":"Yulan Magnolia","scientific_name":["Magnolia denudata"],"other_name":["Yulan magnolia"],"cycle":"Perennial","watering":"Average","sunlight":["Full sun"," Part sun/part shade"],"default_image":{"image_id":674,"license":5,"license_name":"Attribution-ShareAlike License","license_url":"https://creativecommons.org/licenses/by-sa/2.0/","original_url":"https://perenual.com/storage/species_image/338_magnolia_denudata/og/51855171944_403ed9f976_b.jpg","regular_url":"https://perenual.com/storage/species_image/338_magnolia_denudata/regular/51855171944_403ed9f976_b.jpg","medium_url":"https://perenual.com/storage/species_image/338_magnolia_denudata/medium/51855171944_403ed9f976_b.jpg","small_url":"https://perenual.com/storage/species_image/338_magnolia_denudata/small/51855171944_403ed9f976_b.jpg","thumbnail":"https://perenual.com/storage/species_image/338_magnolia_denudata/thumbnail/51855171944_403ed9f976_b.jpg"}},{"id":339,"common_name":"Southern Magnolia","scientific_name":["Magnolia grandiflora"],"other_name":["Bull Bay"],"cycle":"Perennial","watering":"Average","sunlight":["Full sun","part shade"],"default_image":{"image_id":683,"license":4,"license_name":"Attribution License","license_url":"https://creativecommons.org/licenses/by/2.0/","original_url":"https://perenual.com/storage/species_image/339_magnolia_grandiflora/og/48132372757_ea96e7aa50_b.jpg","regular_url":"https://perenual.com/storage/species_image/339_magnolia_grandiflora/regular/48132372757_ea96e7aa50_b.jpg","medium_url":"https://perenual.com/storage/species_image/339_magnolia_grandiflora/medium/48132372757_ea96e7aa50_b.jpg","small_url":"https://perenual.com/storage/species_image/339_magnolia_grandiflora/small/48132372757_ea96e7aa50_b.jpg","thumbnail":"https://perenual.com/storage/species_image/339_magnolia_grandiflora/thumbnail/48132372757_ea96e7aa50_b.jpg"}},{"id":340,"common_name":"Bracken's Brown Beauty Magnolia","scientific_name":["Magnolia grandiflora 'Bracken's Brown Beauty'"],"other_name":["Bull Bay"],"cycle":"Perennial","watering":"Average","sunlight":["Full sun","part shade"],"default_image":{"image_id":689,"license":4,"license_name":"Attribution License","license_url":"https://creativecommons.org/licenses/by/2.0/","original_url":"https://perenual.com/storage/species_image/340_magnolia_grandiflora_brackens_brown_beauty/og/21530242714_d0662b679a_b.jpg","regular_url":"https://perenual.com/storage/species_image/340_magnolia_grandiflora_brackens_brown_beauty/regular/21530242714_d0662b679a_b.jpg","medium_url":"https://perenual.com/storage/species_image/340_magnolia_grandiflora_brackens_brown_beauty/medium/21530242714_d0662b679a_b.jpg","small_url":"https://perenual.com/storage/species_image/340_magnolia_grandiflora_brackens_brown_beauty/small/21530242714_d0662b679a_b.jpg","thumbnail":"https://perenual.com/storage/species_image/340_magnolia_grandiflora_brackens_brown_beauty/thumbnail/21530242714_d0662b679a_b.jpg"}},{"id":341,"common_name":"D.D. Blanchard Magnolia","scientific_name":["Magnolia grandiflora 'D.D. Blanchard'"],"other_name":["Bull Bay"],"cycle":"Perennial","watering":"Average","sunlight":["Full sun","part shade"],"default_image":{"image_id":21122,"license":45,"license_name":"Attribution-ShareAlike 3.0 Unported (CC BY-SA 3.0)","license_url":"https://creativecommons.org/licenses/by-sa/3.0/deed.en","original_url":"https://perenual.com/storage/species_image/341_magnolia_grandiflora_dd_blanchard/og/Magnolia_grandiflora_-_flower_1.jpg","regular_url":"https://perenual.com/storage/species_image/341_magnolia_grandiflora_dd_blanchard/regular/Magnolia_grandiflora_-_flower_1.jpg","medium_url":"https://perenual.com/storage/species_image/341_magnolia_grandiflora_dd_blanchard/medium/Magnolia_grandiflora_-_flower_1.jpg","small_url":"https://perenual.com/storage/species_image/341_magnolia_grandiflora_dd_blanchard/small/Magnolia_grandiflora_-_flower_1.jpg","thumbnail":"https://perenual.com/storage/species_image/341_magnolia_grandiflora_dd_blanchard/thumbnail/Magnolia_grandiflora_-_flower_1.jpg"}},{"id":342,"common_name":"Little Gem Magnolia","scientific_name":["Magnolia grandiflora 'Little Gem'"],"other_name":["Bull Bay"],"cycle":"Perennial","watering":"Average","sunlight":["Full sun","part shade"],"default_image":{"image_id":9,"license":5,"license_name":"Attribution-ShareAlike License","license_url":"https://creativecommons.org/licenses/by-sa/2.0/","original_url":"https://perenual.com/storage/species_image/2_abies_alba_pyramidalis/og/49255769768_df55596553_b.jpg","regular_url":"https://perenual.com/storage/species_image/2_abies_alba_pyramidalis/regular/49255769768_df55596553_b.jpg","medium_url":"https://perenual.com/storage/species_image/2_abies_alba_pyramidalis/medium/49255769768_df55596553_b.jpg","small_url":"https://perenual.com/storage/species_image/2_abies_alba_pyramidalis/small/49255769768_df55596553_b.jpg","thumbnail":"https://perenual.com/storage/species_image/2_abies_alba_pyramidalis/thumbnail/49255769768_df55596553_b.jpg"}},{"id":343,"common_name":"Teddy Bear® Magnolia","scientific_name":["Magnolia grandiflora 'Southern Charm'"],"other_name":["Bull Bay"],"cycle":"Perennial","watering":"Average","sunlight":["Full sun","part shade"],"default_image":{"image_id":21124,"license":45,"license_name":"Attribution-ShareAlike 3.0 Unported (CC BY-SA 3.0)","license_url":"https://creativecommons.org/licenses/by-sa/3.0/deed.en","original_url":"https://perenual.com/storage/species_image/343_magnolia_grandiflora_southern_charm/og/Magnolia_grandiflora_flower.jpg","regular_url":"https://perenual.com/storage/species_image/343_magnolia_grandiflora_southern_charm/regular/Magnolia_grandiflora_flower.jpg","medium_url":"https://perenual.com/storage/species_image/343_magnolia_grandiflora_southern_charm/medium/Magnolia_grandiflora_flower.jpg","small_url":"https://perenual.com/storage/species_image/343_magnolia_grandiflora_southern_charm/small/Magnolia_grandiflora_flower.jpg","thumbnail":"https://perenual.com/storage/species_image/343_magnolia_grandiflora_southern_charm/thumbnail/Magnolia_grandiflora_flower.jpg"}},{"id":344,"common_name":"Kobus Magnolia","scientific_name":["Magnolia kobus"],"other_name":null,"cycle":"Perennial","watering":"Average","sunlight":["Full sun"," Part sun/part shade"],"default_image":{"image_id":695,"license":5,"license_name":"Attribution-ShareAlike License","license_url":"https://creativecommons.org/licenses/by-sa/2.0/","original_url":"https://perenual.com/storage/species_image/344_magnolia_kobus/og/17143034688_9b3104719b_b.jpg","regular_url":"https://perenual.com/storage/species_image/344_magnolia_kobus/regular/17143034688_9b3104719b_b.jpg","medium_url":"https://perenual.com/storage/species_image/344_magnolia_kobus/medium/17143034688_9b3104719b_b.jpg","small_url":"https://perenual.com/storage/species_image/344_magnolia_kobus/small/17143034688_9b3104719b_b.jpg","thumbnail":"https://perenual.com/storage/species_image/344_magnolia_kobus/thumbnail/17143034688_9b3104719b_b.jpg"}},{"id":345,"common_name":"Wada's Memory Magnolia","scientific_name":["Magnolia kobus 'Wada's Memory'"],"other_name":null,"cycle":"Perennial","watering":"Average","sunlight":["Full sun"," Part sun/part shade"],"default_image":{"image_id":9,"license":5,"license_name":"Attribution-ShareAlike License","license_url":"https://creativecommons.org/licenses/by-sa/2.0/","original_url":"https://perenual.com/storage/species_image/2_abies_alba_pyramidalis/og/49255769768_df55596553_b.jpg","regular_url":"https://perenual.com/storage/species_image/2_abies_alba_pyramidalis/regular/49255769768_df55596553_b.jpg","medium_url":"https://perenual.com/storage/species_image/2_abies_alba_pyramidalis/medium/49255769768_df55596553_b.jpg","small_url":"https://perenual.com/storage/species_image/2_abies_alba_pyramidalis/small/49255769768_df55596553_b.jpg","thumbnail":"https://perenual.com/storage/species_image/2_abies_alba_pyramidalis/thumbnail/49255769768_df55596553_b.jpg"}},{"id":346,"common_name":"Oyama Magnolia","scientific_name":["Magnolia sieboldii"],"other_name":["Siebold's Magnolia","Summer Magnolia"],"cycle":"Perennial","watering":"Average","sunlight":["Full sun only if soil kept moist"," Part sun/part shade"],"default_image":{"image_id":701,"license":5,"license_name":"Attribution-ShareAlike License","license_url":"https://creativecommons.org/licenses/by-sa/2.0/","original_url":"https://perenual.com/storage/species_image/346_magnolia_sieboldii/og/51202061229_74b794b96c_b.jpg","regular_url":"https://perenual.com/storage/species_image/346_magnolia_sieboldii/regular/51202061229_74b794b96c_b.jpg","medium_url":"https://perenual.com/storage/species_image/346_magnolia_sieboldii/medium/51202061229_74b794b96c_b.jpg","small_url":"https://perenual.com/storage/species_image/346_magnolia_sieboldii/small/51202061229_74b794b96c_b.jpg","thumbnail":"https://perenual.com/storage/species_image/346_magnolia_sieboldii/thumbnail/51202061229_74b794b96c_b.jpg"}},{"id":347,"common_name":"Leonard Messel Magnolia","scientific_name":["Magnolia x loebneri 'Leonard Messel'"],"other_name":null,"cycle":"Perennial","watering":"Frequent","sunlight":["Full sun"],"default_image":{"image_id":709,"license":5,"license_name":"Attribution-ShareAlike License","license_url":"https://creativecommons.org/licenses/by-sa/2.0/","original_url":"https://perenual.com/storage/species_image/347_magnolia_x_loebneri_leonard_messel/og/46116900715_8f58d82c01_b.jpg","regular_url":"https://perenual.com/storage/species_image/347_magnolia_x_loebneri_leonard_messel/regular/46116900715_8f58d82c01_b.jpg","medium_url":"https://perenual.com/storage/species_image/347_magnolia_x_loebneri_leonard_messel/medium/46116900715_8f58d82c01_b.jpg","small_url":"https://perenual.com/storage/species_image/347_magnolia_x_loebneri_leonard_messel/small/46116900715_8f58d82c01_b.jpg","thumbnail":"https://perenual.com/storage/species_image/347_magnolia_x_loebneri_leonard_messel/thumbnail/46116900715_8f58d82c01_b.jpg"}},{"id":348,"common_name":"Merrill Magnolia","scientific_name":["Magnolia x loebneri 'Merrill'"],"other_name":null,"cycle":"Perennial","watering":"Frequent","sunlight":["Full sun"],"default_image":{"image_id":712,"license":4,"license_name":"Attribution License","license_url":"https://creativecommons.org/licenses/by/2.0/","original_url":"https://perenual.com/storage/species_image/348_magnolia_x_loebneri_merrill/og/51928821369_9ec6298a22_b.jpg","regular_url":"https://perenual.com/storage/species_image/348_magnolia_x_loebneri_merrill/regular/51928821369_9ec6298a22_b.jpg","medium_url":"https://perenual.com/storage/species_image/348_magnolia_x_loebneri_merrill/medium/51928821369_9ec6298a22_b.jpg","small_url":"https://perenual.com/storage/species_image/348_magnolia_x_loebneri_merrill/small/51928821369_9ec6298a22_b.jpg","thumbnail":"https://perenual.com/storage/species_image/348_magnolia_x_loebneri_merrill/thumbnail/51928821369_9ec6298a22_b.jpg"}},{"id":349,"common_name":"Alexandrina Saucer Magnolia","scientific_name":["Magnolia x soulangeana 'Alexandrina'"],"other_name":null,"cycle":"Perennial","watering":"Average","sunlight":["Full sun"," Part sun/part shade"],"default_image":{"image_id":9,"license":5,"license_name":"Attribution-ShareAlike License","license_url":"https://creativecommons.org/licenses/by-sa/2.0/","original_url":"https://perenual.com/storage/species_image/2_abies_alba_pyramidalis/og/49255769768_df55596553_b.jpg","regular_url":"https://perenual.com/storage/species_image/2_abies_alba_pyramidalis/regular/49255769768_df55596553_b.jpg","medium_url":"https://perenual.com/storage/species_image/2_abies_alba_pyramidalis/medium/49255769768_df55596553_b.jpg","small_url":"https://perenual.com/storage/species_image/2_abies_alba_pyramidalis/small/49255769768_df55596553_b.jpg","thumbnail":"https://perenual.com/storage/species_image/2_abies_alba_pyramidalis/thumbnail/49255769768_df55596553_b.jpg"}},{"id":350,"common_name":"Rustica Rubra Magnolia","scientific_name":["Magnolia x soulangeana 'Rustica Rubra'"],"other_name":null,"cycle":"Perennial","watering":"Average","sunlight":["Full sun"," Part sun/part shade"],"default_image":{"image_id":721,"license":5,"license_name":"Attribution-ShareAlike License","license_url":"https://creativecommons.org/licenses/by-sa/2.0/","original_url":"https://perenual.com/storage/species_image/350_magnolia_x_soulangeana_rustica_rubra/og/9252384031_bb4ecbfc97_b.jpg","regular_url":"https://perenual.com/storage/species_image/350_magnolia_x_soulangeana_rustica_rubra/regular/9252384031_bb4ecbfc97_b.jpg","medium_url":"https://perenual.com/storage/species_image/350_magnolia_x_soulangeana_rustica_rubra/medium/9252384031_bb4ecbfc97_b.jpg","small_url":"https://perenual.com/storage/species_image/350_magnolia_x_soulangeana_rustica_rubra/small/9252384031_bb4ecbfc97_b.jpg","thumbnail":"https://perenual.com/storage/species_image/350_magnolia_x_soulangeana_rustica_rubra/thumbnail/9252384031_bb4ecbfc97_b.jpg"}},{"id":351,"common_name":"Akane Apple","scientific_name":["Malus 'Akane'"],"other_name":null,"cycle":"Perennial","watering":"Frequent","sunlight":[],"default_image":{"image_id":21126,"license":45,"license_name":"Attribution-ShareAlike 3.0 Unported (CC BY-SA 3.0)","license_url":"https://creativecommons.org/licenses/by-sa/3.0/deed.en","original_url":"https://perenual.com/storage/species_image/351_malus_akane/og/800px-Akane-Pomme-20141026.jpg","regular_url":"https://perenual.com/storage/species_image/351_malus_akane/regular/800px-Akane-Pomme-20141026.jpg","medium_url":"https://perenual.com/storage/species_image/351_malus_akane/medium/800px-Akane-Pomme-20141026.jpg","small_url":"https://perenual.com/storage/species_image/351_malus_akane/small/800px-Akane-Pomme-20141026.jpg","thumbnail":"https://perenual.com/storage/species_image/351_malus_akane/thumbnail/800px-Akane-Pomme-20141026.jpg"}},{"id":352,"common_name":"Ambrosia Apple","scientific_name":["Malus 'Ambrosia'"],"other_name":null,"cycle":"Perennial","watering":"Frequent","sunlight":[],"default_image":{"image_id":723,"license":4,"license_name":"Attribution License","license_url":"https://creativecommons.org/licenses/by/2.0/","original_url":"https://perenual.com/storage/species_image/352_malus_ambrosia/og/30356393327_b96daa22cb_b.jpg","regular_url":"https://perenual.com/storage/species_image/352_malus_ambrosia/regular/30356393327_b96daa22cb_b.jpg","medium_url":"https://perenual.com/storage/species_image/352_malus_ambrosia/medium/30356393327_b96daa22cb_b.jpg","small_url":"https://perenual.com/storage/species_image/352_malus_ambrosia/small/30356393327_b96daa22cb_b.jpg","thumbnail":"https://perenual.com/storage/species_image/352_malus_ambrosia/thumbnail/30356393327_b96daa22cb_b.jpg"}},{"id":353,"common_name":"Belle de Boskoop Apple","scientific_name":["Malus 'Belle de Boskoop'"],"other_name":null,"cycle":"Perennial","watering":"Frequent","sunlight":[],"default_image":{"image_id":21127,"license":451,"license_name":"CC0 1.0 Universal (CC0 1.0) Public Domain Dedication","license_url":"https://creativecommons.org/publicdomain/zero/1.0/","original_url":"https://perenual.com/storage/species_image/353_malus_belle_de_boskoop/og/337214c7b72a8b61ca79685f9ebe-1633146.jpg","regular_url":"https://perenual.com/storage/species_image/353_malus_belle_de_boskoop/regular/337214c7b72a8b61ca79685f9ebe-1633146.jpg","medium_url":"https://perenual.com/storage/species_image/353_malus_belle_de_boskoop/medium/337214c7b72a8b61ca79685f9ebe-1633146.jpg","small_url":"https://perenual.com/storage/species_image/353_malus_belle_de_boskoop/small/337214c7b72a8b61ca79685f9ebe-1633146.jpg","thumbnail":"https://perenual.com/storage/species_image/353_malus_belle_de_boskoop/thumbnail/337214c7b72a8b61ca79685f9ebe-1633146.jpg"}},{"id":354,"common_name":"Braeburn Apple","scientific_name":["Malus 'Braeburn'"],"other_name":null,"cycle":"Perennial","watering":"Average","sunlight":["Full sun"],"default_image":{"image_id":724,"license":4,"license_name":"Attribution License","license_url":"https://creativecommons.org/licenses/by/2.0/","original_url":"https://perenual.com/storage/species_image/354_malus_braeburn/og/26257641106_44b6973b16_b.jpg","regular_url":"https://perenual.com/storage/species_image/354_malus_braeburn/regular/26257641106_44b6973b16_b.jpg","medium_url":"https://perenual.com/storage/species_image/354_malus_braeburn/medium/26257641106_44b6973b16_b.jpg","small_url":"https://perenual.com/storage/species_image/354_malus_braeburn/small/26257641106_44b6973b16_b.jpg","thumbnail":"https://perenual.com/storage/species_image/354_malus_braeburn/thumbnail/26257641106_44b6973b16_b.jpg"}},{"id":355,"common_name":"Candied Apple Flowering Crab","scientific_name":["Malus 'Candied Apple'"],"other_name":["Roseybloom","Crabapple"],"cycle":"Perennial","watering":"Frequent","sunlight":[],"default_image":{"image_id":21128,"license":45,"license_name":"Attribution-ShareAlike 3.0 Unported (CC BY-SA 3.0)","license_url":"https://creativecommons.org/licenses/by-sa/3.0/deed.en","original_url":"https://perenual.com/storage/species_image/355_malus_candied_apple/og/663px-Apples_on_tree_2021_G1.jpg","regular_url":"https://perenual.com/storage/species_image/355_malus_candied_apple/regular/663px-Apples_on_tree_2021_G1.jpg","medium_url":"https://perenual.com/storage/species_image/355_malus_candied_apple/medium/663px-Apples_on_tree_2021_G1.jpg","small_url":"https://perenual.com/storage/species_image/355_malus_candied_apple/small/663px-Apples_on_tree_2021_G1.jpg","thumbnail":"https://perenual.com/storage/species_image/355_malus_candied_apple/thumbnail/663px-Apples_on_tree_2021_G1.jpg"}},{"id":356,"common_name":"Chehalis Apple","scientific_name":["Malus 'Chehalis'"],"other_name":null,"cycle":"Perennial","watering":"Frequent","sunlight":[],"default_image":{"image_id":21129,"license":451,"license_name":"CC0 1.0 Universal (CC0 1.0) Public Domain Dedication","license_url":"https://creativecommons.org/publicdomain/zero/1.0/","original_url":"https://perenual.com/storage/species_image/356_malus_chehalis/og/apple_garden_apfelernte_green_red_apple_tree_autumn_pick_food-689389.jpg","regular_url":"https://perenual.com/storage/species_image/356_malus_chehalis/regular/apple_garden_apfelernte_green_red_apple_tree_autumn_pick_food-689389.jpg","medium_url":"https://perenual.com/storage/species_image/356_malus_chehalis/medium/apple_garden_apfelernte_green_red_apple_tree_autumn_pick_food-689389.jpg","small_url":"https://perenual.com/storage/species_image/356_malus_chehalis/small/apple_garden_apfelernte_green_red_apple_tree_autumn_pick_food-689389.jpg","thumbnail":"https://perenual.com/storage/species_image/356_malus_chehalis/thumbnail/apple_garden_apfelernte_green_red_apple_tree_autumn_pick_food-689389.jpg"}},{"id":357,"common_name":"Cortland Apple","scientific_name":["Malus 'Cortland'"],"other_name":null,"cycle":"Perennial","watering":"Frequent","sunlight":[],"default_image":{"image_id":9,"license":5,"license_name":"Attribution-ShareAlike License","license_url":"https://creativecommons.org/licenses/by-sa/2.0/","original_url":"https://perenual.com/storage/species_image/2_abies_alba_pyramidalis/og/49255769768_df55596553_b.jpg","regular_url":"https://perenual.com/storage/species_image/2_abies_alba_pyramidalis/regular/49255769768_df55596553_b.jpg","medium_url":"https://perenual.com/storage/species_image/2_abies_alba_pyramidalis/medium/49255769768_df55596553_b.jpg","small_url":"https://perenual.com/storage/species_image/2_abies_alba_pyramidalis/small/49255769768_df55596553_b.jpg","thumbnail":"https://perenual.com/storage/species_image/2_abies_alba_pyramidalis/thumbnail/49255769768_df55596553_b.jpg"}},{"id":358,"common_name":"Cox's Orange Pippin Apple","scientific_name":["Malus 'Cox's Orange Pippin'"],"other_name":["Cox Orange"],"cycle":"Perennial","watering":"Frequent","sunlight":[],"default_image":{"image_id":9,"license":5,"license_name":"Attribution-ShareAlike License","license_url":"https://creativecommons.org/licenses/by-sa/2.0/","original_url":"https://perenual.com/storage/species_image/2_abies_alba_pyramidalis/og/49255769768_df55596553_b.jpg","regular_url":"https://perenual.com/storage/species_image/2_abies_alba_pyramidalis/regular/49255769768_df55596553_b.jpg","medium_url":"https://perenual.com/storage/species_image/2_abies_alba_pyramidalis/medium/49255769768_df55596553_b.jpg","small_url":"https://perenual.com/storage/species_image/2_abies_alba_pyramidalis/small/49255769768_df55596553_b.jpg","thumbnail":"https://perenual.com/storage/species_image/2_abies_alba_pyramidalis/thumbnail/49255769768_df55596553_b.jpg"}},{"id":359,"common_name":"Dolgo Apple","scientific_name":["Malus 'Dolgo'"],"other_name":["Roseybloom","Crabapple"],"cycle":"Perennial","watering":"Frequent","sunlight":[],"default_image":{"image_id":9,"license":5,"license_name":"Attribution-ShareAlike License","license_url":"https://creativecommons.org/licenses/by-sa/2.0/","original_url":"https://perenual.com/storage/species_image/2_abies_alba_pyramidalis/og/49255769768_df55596553_b.jpg","regular_url":"https://perenual.com/storage/species_image/2_abies_alba_pyramidalis/regular/49255769768_df55596553_b.jpg","medium_url":"https://perenual.com/storage/species_image/2_abies_alba_pyramidalis/medium/49255769768_df55596553_b.jpg","small_url":"https://perenual.com/storage/species_image/2_abies_alba_pyramidalis/small/49255769768_df55596553_b.jpg","thumbnail":"https://perenual.com/storage/species_image/2_abies_alba_pyramidalis/thumbnail/49255769768_df55596553_b.jpg"}},{"id":360,"common_name":"Donald Wyman Flowering Crab","scientific_name":["Malus 'Donald Wyman'"],"other_name":["Roseybloom","Crabapple"],"cycle":"Perennial","watering":"Average","sunlight":["Full sun"],"default_image":{"image_id":9,"license":5,"license_name":"Attribution-ShareAlike License","license_url":"https://creativecommons.org/licenses/by-sa/2.0/","original_url":"https://perenual.com/storage/species_image/2_abies_alba_pyramidalis/og/49255769768_df55596553_b.jpg","regular_url":"https://perenual.com/storage/species_image/2_abies_alba_pyramidalis/regular/49255769768_df55596553_b.jpg","medium_url":"https://perenual.com/storage/species_image/2_abies_alba_pyramidalis/medium/49255769768_df55596553_b.jpg","small_url":"https://perenual.com/storage/species_image/2_abies_alba_pyramidalis/small/49255769768_df55596553_b.jpg","thumbnail":"https://perenual.com/storage/species_image/2_abies_alba_pyramidalis/thumbnail/49255769768_df55596553_b.jpg"}}],"to":360,"per_page":30,"current_page":12,"from":331,"last_page":200,"total":6000}