{"data":[{"id":5311,"common_name":"heavenly bamboo","scientific_name":["Nandina domestica 'Seika' OBSESSION"],"other_name":null,"cycle":"Perennial","watering":"Average","sunlight":["Part sun/part shade"," Sheltered"],"default_image":{"image_id":9,"license":5,"license_name":"Attribution-ShareAlike License","license_url":"https://creativecommons.org/licenses/by-sa/2.0/","original_url":"https://perenual.com/storage/species_image/2_abies_alba_pyramidalis/og/49255769768_df55596553_b.jpg","regular_url":"https://perenual.com/storage/species_image/2_abies_alba_pyramidalis/regular/49255769768_df55596553_b.jpg","medium_url":"https://perenual.com/storage/species_image/2_abies_alba_pyramidalis/medium/49255769768_df55596553_b.jpg","small_url":"https://perenual.com/storage/species_image/2_abies_alba_pyramidalis/small/49255769768_df55596553_b.jpg","thumbnail":"https://perenual.com/storage/species_image/2_abies_alba_pyramidalis/thumbnail/49255769768_df55596553_b.jpg"}},{"id":5312,"common_name":"heavenly bamboo","scientific_name":["Nandina domestica 'Tuscan Flame'"],"other_name":null,"cycle":"Perennial","watering":"Average","sunlight":["Part sun/part shade"," Sheltered"],"default_image":{"image_id":9,"license":5,"license_name":"Attribution-ShareAlike License","license_url":"https://creativecommons.org/licenses/by-sa/2.0/","original_url":"https://perenual.com/storage/species_image/2_abies_alba_pyramidalis/og/49255769768_df55596553_b.jpg","regular_url":"https://perenual.com/storage/species_image/2_abies_alba_pyramidalis/regular/49255769768_df55596553_b.jpg","medium_url":"https://perenual.com/storage/species_image/2_abies_alba_pyramidalis/medium/49255769768_df55596553_b.jpg","small_url":"https://perenual.com/storage/species_image/2_abies_alba_pyramidalis/small/49255769768_df55596553_b.jpg","thumbnail":"https://perenual.com/storage/species_image/2_abies_alba_pyramidalis/thumbnail/49255769768_df55596553_b.jpg"}},{"id":5313,"common_name":"glade mallow","scientific_name":["Napaea dioica"],"other_name":null,"cycle":"Perennial","watering":"Frequent","sunlight":["Full sun","part shade"],"default_image":{"image_id":11195,"license":5,"license_name":"Attribution-ShareAlike License","license_url":"https://creativecommons.org/licenses/by-sa/2.0/","original_url":"https://perenual.com/storage/species_image/5313_napaea_dioica/og/22682931514_9765afd92a_b.jpg","regular_url":"https://perenual.com/storage/species_image/5313_napaea_dioica/regular/22682931514_9765afd92a_b.jpg","medium_url":"https://perenual.com/storage/species_image/5313_napaea_dioica/medium/22682931514_9765afd92a_b.jpg","small_url":"https://perenual.com/storage/species_image/5313_napaea_dioica/small/22682931514_9765afd92a_b.jpg","thumbnail":"https://perenual.com/storage/species_image/5313_napaea_dioica/thumbnail/22682931514_9765afd92a_b.jpg"}},{"id":5314,"common_name":"double daffodil","scientific_name":["Narcissus 'Acropolis'"],"other_name":null,"cycle":"Perennial","watering":"Average","sunlight":["Full sun","part shade"],"default_image":{"image_id":9,"license":5,"license_name":"Attribution-ShareAlike License","license_url":"https://creativecommons.org/licenses/by-sa/2.0/","original_url":"https://perenual.com/storage/species_image/2_abies_alba_pyramidalis/og/49255769768_df55596553_b.jpg","regular_url":"https://perenual.com/storage/species_image/2_abies_alba_pyramidalis/regular/49255769768_df55596553_b.jpg","medium_url":"https://perenual.com/storage/species_image/2_abies_alba_pyramidalis/medium/49255769768_df55596553_b.jpg","small_url":"https://perenual.com/storage/species_image/2_abies_alba_pyramidalis/small/49255769768_df55596553_b.jpg","thumbnail":"https://perenual.com/storage/species_image/2_abies_alba_pyramidalis/thumbnail/49255769768_df55596553_b.jpg"}},{"id":5315,"common_name":"poeticus daffodil","scientific_name":["Narcissus 'Actaea'"],"other_name":null,"cycle":"Perennial","watering":"Average","sunlight":["Full sun","part shade"],"default_image":{"image_id":9,"license":5,"license_name":"Attribution-ShareAlike License","license_url":"https://creativecommons.org/licenses/by-sa/2.0/","original_url":"https://perenual.com/storage/species_image/2_abies_alba_pyramidalis/og/49255769768_df55596553_b.jpg","regular_url":"https://perenual.com/storage/species_image/2_abies_alba_pyramidalis/regular/49255769768_df55596553_b.jpg","medium_url":"https://perenual.com/storage/species_image/2_abies_alba_pyramidalis/medium/49255769768_df55596553_b.jpg","small_url":"https://perenual.com/storage/species_image/2_abies_alba_pyramidalis/small/49255769768_df55596553_b.jpg","thumbnail":"https://perenual.com/storage/species_image/2_abies_alba_pyramidalis/thumbnail/49255769768_df55596553_b.jpg"}},{"id":5316,"common_name":"small-cupped daffodil","scientific_name":["Narcissus 'After All'"],"other_name":null,"cycle":"Perennial","watering":"Average","sunlight":["Full sun","part shade"],"default_image":{"image_id":11199,"license":5,"license_name":"Attribution-ShareAlike License","license_url":"https://creativecommons.org/licenses/by-sa/2.0/","original_url":"https://perenual.com/storage/species_image/5316_narcissus_after_all/og/26937417925_00872faf5b_b.jpg","regular_url":"https://perenual.com/storage/species_image/5316_narcissus_after_all/regular/26937417925_00872faf5b_b.jpg","medium_url":"https://perenual.com/storage/species_image/5316_narcissus_after_all/medium/26937417925_00872faf5b_b.jpg","small_url":"https://perenual.com/storage/species_image/5316_narcissus_after_all/small/26937417925_00872faf5b_b.jpg","thumbnail":"https://perenual.com/storage/species_image/5316_narcissus_after_all/thumbnail/26937417925_00872faf5b_b.jpg"}},{"id":5317,"common_name":"large-cupped daffodil","scientific_name":["Narcissus 'Ambergate'"],"other_name":null,"cycle":"Perennial","watering":"Average","sunlight":["Full sun","part shade"],"default_image":{"image_id":9,"license":5,"license_name":"Attribution-ShareAlike License","license_url":"https://creativecommons.org/licenses/by-sa/2.0/","original_url":"https://perenual.com/storage/species_image/2_abies_alba_pyramidalis/og/49255769768_df55596553_b.jpg","regular_url":"https://perenual.com/storage/species_image/2_abies_alba_pyramidalis/regular/49255769768_df55596553_b.jpg","medium_url":"https://perenual.com/storage/species_image/2_abies_alba_pyramidalis/medium/49255769768_df55596553_b.jpg","small_url":"https://perenual.com/storage/species_image/2_abies_alba_pyramidalis/small/49255769768_df55596553_b.jpg","thumbnail":"https://perenual.com/storage/species_image/2_abies_alba_pyramidalis/thumbnail/49255769768_df55596553_b.jpg"}},{"id":5318,"common_name":"large-cupped daffodil","scientific_name":["Narcissus 'American Lakes'"],"other_name":null,"cycle":"Perennial","watering":"Average","sunlight":["Full sun","part shade"],"default_image":{"image_id":9,"license":5,"license_name":"Attribution-ShareAlike License","license_url":"https://creativecommons.org/licenses/by-sa/2.0/","original_url":"https://perenual.com/storage/species_image/2_abies_alba_pyramidalis/og/49255769768_df55596553_b.jpg","regular_url":"https://perenual.com/storage/species_image/2_abies_alba_pyramidalis/regular/49255769768_df55596553_b.jpg","medium_url":"https://perenual.com/storage/species_image/2_abies_alba_pyramidalis/medium/49255769768_df55596553_b.jpg","small_url":"https://perenual.com/storage/species_image/2_abies_alba_pyramidalis/small/49255769768_df55596553_b.jpg","thumbnail":"https://perenual.com/storage/species_image/2_abies_alba_pyramidalis/thumbnail/49255769768_df55596553_b.jpg"}},{"id":5319,"common_name":"cyclamineus daffodil","scientific_name":["Narcissus 'Ara'"],"other_name":null,"cycle":"Perennial","watering":"Average","sunlight":["Full sun","part shade"],"default_image":{"image_id":9,"license":5,"license_name":"Attribution-ShareAlike License","license_url":"https://creativecommons.org/licenses/by-sa/2.0/","original_url":"https://perenual.com/storage/species_image/2_abies_alba_pyramidalis/og/49255769768_df55596553_b.jpg","regular_url":"https://perenual.com/storage/species_image/2_abies_alba_pyramidalis/regular/49255769768_df55596553_b.jpg","medium_url":"https://perenual.com/storage/species_image/2_abies_alba_pyramidalis/medium/49255769768_df55596553_b.jpg","small_url":"https://perenual.com/storage/species_image/2_abies_alba_pyramidalis/small/49255769768_df55596553_b.jpg","thumbnail":"https://perenual.com/storage/species_image/2_abies_alba_pyramidalis/thumbnail/49255769768_df55596553_b.jpg"}},{"id":5320,"common_name":"trumpet daffodil","scientific_name":["Narcissus 'Aunt Betty'"],"other_name":null,"cycle":"Perennial","watering":"Average","sunlight":["Full sun","part shade"],"default_image":{"image_id":9,"license":5,"license_name":"Attribution-ShareAlike License","license_url":"https://creativecommons.org/licenses/by-sa/2.0/","original_url":"https://perenual.com/storage/species_image/2_abies_alba_pyramidalis/og/49255769768_df55596553_b.jpg","regular_url":"https://perenual.com/storage/species_image/2_abies_alba_pyramidalis/regular/49255769768_df55596553_b.jpg","medium_url":"https://perenual.com/storage/species_image/2_abies_alba_pyramidalis/medium/49255769768_df55596553_b.jpg","small_url":"https://perenual.com/storage/species_image/2_abies_alba_pyramidalis/small/49255769768_df55596553_b.jpg","thumbnail":"https://perenual.com/storage/species_image/2_abies_alba_pyramidalis/thumbnail/49255769768_df55596553_b.jpg"}},{"id":5321,"common_name":"large-cupped daffodil","scientific_name":["Narcissus 'Bantam'"],"other_name":null,"cycle":"Perennial","watering":"Average","sunlight":["Full sun","part shade"],"default_image":{"image_id":9,"license":5,"license_name":"Attribution-ShareAlike License","license_url":"https://creativecommons.org/licenses/by-sa/2.0/","original_url":"https://perenual.com/storage/species_image/2_abies_alba_pyramidalis/og/49255769768_df55596553_b.jpg","regular_url":"https://perenual.com/storage/species_image/2_abies_alba_pyramidalis/regular/49255769768_df55596553_b.jpg","medium_url":"https://perenual.com/storage/species_image/2_abies_alba_pyramidalis/medium/49255769768_df55596553_b.jpg","small_url":"https://perenual.com/storage/species_image/2_abies_alba_pyramidalis/small/49255769768_df55596553_b.jpg","thumbnail":"https://perenual.com/storage/species_image/2_abies_alba_pyramidalis/thumbnail/49255769768_df55596553_b.jpg"}},{"id":5322,"common_name":"large-cupped daffodil","scientific_name":["Narcissus 'Billy Graham'"],"other_name":null,"cycle":"Perennial","watering":"Average","sunlight":["Full sun","part shade"],"default_image":{"image_id":9,"license":5,"license_name":"Attribution-ShareAlike License","license_url":"https://creativecommons.org/licenses/by-sa/2.0/","original_url":"https://perenual.com/storage/species_image/2_abies_alba_pyramidalis/og/49255769768_df55596553_b.jpg","regular_url":"https://perenual.com/storage/species_image/2_abies_alba_pyramidalis/regular/49255769768_df55596553_b.jpg","medium_url":"https://perenual.com/storage/species_image/2_abies_alba_pyramidalis/medium/49255769768_df55596553_b.jpg","small_url":"https://perenual.com/storage/species_image/2_abies_alba_pyramidalis/small/49255769768_df55596553_b.jpg","thumbnail":"https://perenual.com/storage/species_image/2_abies_alba_pyramidalis/thumbnail/49255769768_df55596553_b.jpg"}},{"id":5323,"common_name":"miscellaneous daffodil","scientific_name":["Narcissus 'Bittern'"],"other_name":null,"cycle":"Perennial","watering":"Average","sunlight":["Full sun","part shade"],"default_image":{"image_id":11201,"license":451,"license_name":"CC0 1.0 Universal (CC0 1.0) Public Domain Dedication","license_url":"https://creativecommons.org/publicdomain/zero/1.0/","original_url":"https://perenual.com/storage/species_image/5323_narcissus_bittern/og/flowers_narcissus_yellow_daffodils_daffodil_one_flower_yellow_spring_early_spring-913435.jpg","regular_url":"https://perenual.com/storage/species_image/5323_narcissus_bittern/regular/flowers_narcissus_yellow_daffodils_daffodil_one_flower_yellow_spring_early_spring-913435.jpg","medium_url":"https://perenual.com/storage/species_image/5323_narcissus_bittern/medium/flowers_narcissus_yellow_daffodils_daffodil_one_flower_yellow_spring_early_spring-913435.jpg","small_url":"https://perenual.com/storage/species_image/5323_narcissus_bittern/small/flowers_narcissus_yellow_daffodils_daffodil_one_flower_yellow_spring_early_spring-913435.jpg","thumbnail":"https://perenual.com/storage/species_image/5323_narcissus_bittern/thumbnail/flowers_narcissus_yellow_daffodils_daffodil_one_flower_yellow_spring_early_spring-913435.jpg"}},{"id":5324,"common_name":"large-cupped daffodil","scientific_name":["Narcissus 'Blues'"],"other_name":null,"cycle":"Perennial","watering":"Average","sunlight":["Full sun","part shade"],"default_image":{"image_id":11202,"license":45,"license_name":"Attribution-ShareAlike 3.0 Unported (CC BY-SA 3.0)","license_url":"https://creativecommons.org/licenses/by-sa/3.0/deed.en","original_url":"https://perenual.com/storage/species_image/5324_narcissus_blues/og/Narcissus_on_Sagamihara_Park_IMG_3999.jpg","regular_url":"https://perenual.com/storage/species_image/5324_narcissus_blues/regular/Narcissus_on_Sagamihara_Park_IMG_3999.jpg","medium_url":"https://perenual.com/storage/species_image/5324_narcissus_blues/medium/Narcissus_on_Sagamihara_Park_IMG_3999.jpg","small_url":"https://perenual.com/storage/species_image/5324_narcissus_blues/small/Narcissus_on_Sagamihara_Park_IMG_3999.jpg","thumbnail":"https://perenual.com/storage/species_image/5324_narcissus_blues/thumbnail/Narcissus_on_Sagamihara_Park_IMG_3999.jpg"}},{"id":5325,"common_name":"trumpet daffodil","scientific_name":["Narcissus 'Bravoure'"],"other_name":null,"cycle":"Perennial","watering":"Average","sunlight":["Full sun","part shade"],"default_image":{"image_id":11203,"license":45,"license_name":"Attribution-ShareAlike 3.0 Unported (CC BY-SA 3.0)","license_url":"https://creativecommons.org/licenses/by-sa/3.0/deed.en","original_url":"https://perenual.com/storage/species_image/5325_narcissus_bravoure/og/Narciso_%28Narcissus_pseudonarcissus%29%2C_Jard%C3%ADn_Bot%C3%A1nico%2C_M%C3%BAnich%2C_Alemania_2012-04-21%2C_DD_01.jpg","regular_url":"https://perenual.com/storage/species_image/5325_narcissus_bravoure/regular/Narciso_%28Narcissus_pseudonarcissus%29%2C_Jard%C3%ADn_Bot%C3%A1nico%2C_M%C3%BAnich%2C_Alemania_2012-04-21%2C_DD_01.jpg","medium_url":"https://perenual.com/storage/species_image/5325_narcissus_bravoure/medium/Narciso_%28Narcissus_pseudonarcissus%29%2C_Jard%C3%ADn_Bot%C3%A1nico%2C_M%C3%BAnich%2C_Alemania_2012-04-21%2C_DD_01.jpg","small_url":"https://perenual.com/storage/species_image/5325_narcissus_bravoure/small/Narciso_%28Narcissus_pseudonarcissus%29%2C_Jard%C3%ADn_Bot%C3%A1nico%2C_M%C3%BAnich%2C_Alemania_2012-04-21%2C_DD_01.jpg","thumbnail":"https://perenual.com/storage/species_image/5325_narcissus_bravoure/thumbnail/Narciso_%28Narcissus_pseudonarcissus%29%2C_Jard%C3%ADn_Bot%C3%A1nico%2C_M%C3%BAnich%2C_Alemania_2012-04-21%2C_DD_01.jpg"}},{"id":5326,"common_name":"trumpet daffodil","scientific_name":["Narcissus 'Brer Fox'"],"other_name":null,"cycle":"Perennial","watering":"Average","sunlight":["Full sun","part shade"],"default_image":{"image_id":11204,"license":45,"license_name":"Attribution-ShareAlike 3.0 Unported (CC BY-SA 3.0)","license_url":"https://creativecommons.org/licenses/by-sa/3.0/deed.en","original_url":"https://perenual.com/storage/species_image/5326_narcissus_brer_fox/og/Narcissus_sp_2010-04-2010.jpg","regular_url":"https://perenual.com/storage/species_image/5326_narcissus_brer_fox/regular/Narcissus_sp_2010-04-2010.jpg","medium_url":"https://perenual.com/storage/species_image/5326_narcissus_brer_fox/medium/Narcissus_sp_2010-04-2010.jpg","small_url":"https://perenual.com/storage/species_image/5326_narcissus_brer_fox/small/Narcissus_sp_2010-04-2010.jpg","thumbnail":"https://perenual.com/storage/species_image/5326_narcissus_brer_fox/thumbnail/Narcissus_sp_2010-04-2010.jpg"}},{"id":5327,"common_name":"double daffodil","scientific_name":["Narcissus 'Brindabella'"],"other_name":null,"cycle":"Perennial","watering":"Average","sunlight":["Full sun","part shade"],"default_image":{"image_id":11205,"license":4,"license_name":"Attribution License","license_url":"https://creativecommons.org/licenses/by/2.0/","original_url":"https://perenual.com/storage/species_image/5327_narcissus_brindabella/og/49691486336_54b1deb570_b.jpg","regular_url":"https://perenual.com/storage/species_image/5327_narcissus_brindabella/regular/49691486336_54b1deb570_b.jpg","medium_url":"https://perenual.com/storage/species_image/5327_narcissus_brindabella/medium/49691486336_54b1deb570_b.jpg","small_url":"https://perenual.com/storage/species_image/5327_narcissus_brindabella/small/49691486336_54b1deb570_b.jpg","thumbnail":"https://perenual.com/storage/species_image/5327_narcissus_brindabella/thumbnail/49691486336_54b1deb570_b.jpg"}},{"id":5328,"common_name":"large-cupped daffodil","scientific_name":["Narcissus 'Carlton'"],"other_name":null,"cycle":"Perennial","watering":"Average","sunlight":["Full sun","part shade"],"default_image":{"image_id":11206,"license":5,"license_name":"Attribution-ShareAlike License","license_url":"https://creativecommons.org/licenses/by-sa/2.0/","original_url":"https://perenual.com/storage/species_image/5328_narcissus_carlton/og/9255176104_c76b03cfa5_b.jpg","regular_url":"https://perenual.com/storage/species_image/5328_narcissus_carlton/regular/9255176104_c76b03cfa5_b.jpg","medium_url":"https://perenual.com/storage/species_image/5328_narcissus_carlton/medium/9255176104_c76b03cfa5_b.jpg","small_url":"https://perenual.com/storage/species_image/5328_narcissus_carlton/small/9255176104_c76b03cfa5_b.jpg","thumbnail":"https://perenual.com/storage/species_image/5328_narcissus_carlton/thumbnail/9255176104_c76b03cfa5_b.jpg"}},{"id":5329,"common_name":"trumpet daffodil","scientific_name":["Narcissus 'Carrickbeg'"],"other_name":null,"cycle":"Perennial","watering":"Average","sunlight":["Full sun","part shade"],"default_image":{"image_id":11207,"license":45,"license_name":"Attribution-ShareAlike 3.0 Unported (CC BY-SA 3.0)","license_url":"https://creativecommons.org/licenses/by-sa/3.0/deed.en","original_url":"https://perenual.com/storage/species_image/5329_narcissus_carrickbeg/og/Narcissus_%27T%C3%AAte-%C3%A0-T%C3%AAte%27_cultivar_1234.jpg","regular_url":"https://perenual.com/storage/species_image/5329_narcissus_carrickbeg/regular/Narcissus_%27T%C3%AAte-%C3%A0-T%C3%AAte%27_cultivar_1234.jpg","medium_url":"https://perenual.com/storage/species_image/5329_narcissus_carrickbeg/medium/Narcissus_%27T%C3%AAte-%C3%A0-T%C3%AAte%27_cultivar_1234.jpg","small_url":"https://perenual.com/storage/species_image/5329_narcissus_carrickbeg/small/Narcissus_%27T%C3%AAte-%C3%A0-T%C3%AAte%27_cultivar_1234.jpg","thumbnail":"https://perenual.com/storage/species_image/5329_narcissus_carrickbeg/thumbnail/Narcissus_%27T%C3%AAte-%C3%A0-T%C3%AAte%27_cultivar_1234.jpg"}},{"id":5330,"common_name":"split-corona daffodil","scientific_name":["Narcissus 'Cassata'"],"other_name":null,"cycle":"Perennial","watering":"Average","sunlight":["Full sun","part shade"],"default_image":{"image_id":11208,"license":45,"license_name":"Attribution-ShareAlike 3.0 Unported (CC BY-SA 3.0)","license_url":"https://creativecommons.org/licenses/by-sa/3.0/deed.en","original_url":"https://perenual.com/storage/species_image/5330_narcissus_cassata/og/Narcissus_split-corona_cv.01.jpg","regular_url":"https://perenual.com/storage/species_image/5330_narcissus_cassata/regular/Narcissus_split-corona_cv.01.jpg","medium_url":"https://perenual.com/storage/species_image/5330_narcissus_cassata/medium/Narcissus_split-corona_cv.01.jpg","small_url":"https://perenual.com/storage/species_image/5330_narcissus_cassata/small/Narcissus_split-corona_cv.01.jpg","thumbnail":"https://perenual.com/storage/species_image/5330_narcissus_cassata/thumbnail/Narcissus_split-corona_cv.01.jpg"}},{"id":5331,"common_name":"large-cupped daffodil","scientific_name":["Narcissus 'Ceylon'"],"other_name":null,"cycle":"Perennial","watering":"Average","sunlight":["Full sun","part shade"],"default_image":{"image_id":9,"license":5,"license_name":"Attribution-ShareAlike License","license_url":"https://creativecommons.org/licenses/by-sa/2.0/","original_url":"https://perenual.com/storage/species_image/2_abies_alba_pyramidalis/og/49255769768_df55596553_b.jpg","regular_url":"https://perenual.com/storage/species_image/2_abies_alba_pyramidalis/regular/49255769768_df55596553_b.jpg","medium_url":"https://perenual.com/storage/species_image/2_abies_alba_pyramidalis/medium/49255769768_df55596553_b.jpg","small_url":"https://perenual.com/storage/species_image/2_abies_alba_pyramidalis/small/49255769768_df55596553_b.jpg","thumbnail":"https://perenual.com/storage/species_image/2_abies_alba_pyramidalis/thumbnail/49255769768_df55596553_b.jpg"}},{"id":5332,"common_name":"double daffodil","scientific_name":["Narcissus 'Cheerfulness'"],"other_name":null,"cycle":"Perennial","watering":"Average","sunlight":["Full sun","part shade"],"default_image":{"image_id":9,"license":5,"license_name":"Attribution-ShareAlike License","license_url":"https://creativecommons.org/licenses/by-sa/2.0/","original_url":"https://perenual.com/storage/species_image/2_abies_alba_pyramidalis/og/49255769768_df55596553_b.jpg","regular_url":"https://perenual.com/storage/species_image/2_abies_alba_pyramidalis/regular/49255769768_df55596553_b.jpg","medium_url":"https://perenual.com/storage/species_image/2_abies_alba_pyramidalis/medium/49255769768_df55596553_b.jpg","small_url":"https://perenual.com/storage/species_image/2_abies_alba_pyramidalis/small/49255769768_df55596553_b.jpg","thumbnail":"https://perenual.com/storage/species_image/2_abies_alba_pyramidalis/thumbnail/49255769768_df55596553_b.jpg"}},{"id":5333,"common_name":"jonquilla daffodil","scientific_name":["Narcissus 'Chit Chat'"],"other_name":null,"cycle":"Perennial","watering":"Average","sunlight":["Full sun","part shade"],"default_image":{"image_id":11211,"license":45,"license_name":"Attribution-ShareAlike 3.0 Unported (CC BY-SA 3.0)","license_url":"https://creativecommons.org/licenses/by-sa/3.0/deed.en","original_url":"https://perenual.com/storage/species_image/5333_narcissus_chit_chat/og/Narcissus_jonquilla_Bunting_2zz.jpg","regular_url":"https://perenual.com/storage/species_image/5333_narcissus_chit_chat/regular/Narcissus_jonquilla_Bunting_2zz.jpg","medium_url":"https://perenual.com/storage/species_image/5333_narcissus_chit_chat/medium/Narcissus_jonquilla_Bunting_2zz.jpg","small_url":"https://perenual.com/storage/species_image/5333_narcissus_chit_chat/small/Narcissus_jonquilla_Bunting_2zz.jpg","thumbnail":"https://perenual.com/storage/species_image/5333_narcissus_chit_chat/thumbnail/Narcissus_jonquilla_Bunting_2zz.jpg"}},{"id":5334,"common_name":"large-cupped daffodil","scientific_name":["Narcissus 'Chromacolor'"],"other_name":null,"cycle":"Perennial","watering":"Average","sunlight":["Full sun","part shade"],"default_image":{"image_id":11212,"license":5,"license_name":"Attribution-ShareAlike License","license_url":"https://creativecommons.org/licenses/by-sa/2.0/","original_url":"https://perenual.com/storage/species_image/5334_narcissus_chromacolor/og/52065085311_f37e169664_b.jpg","regular_url":"https://perenual.com/storage/species_image/5334_narcissus_chromacolor/regular/52065085311_f37e169664_b.jpg","medium_url":"https://perenual.com/storage/species_image/5334_narcissus_chromacolor/medium/52065085311_f37e169664_b.jpg","small_url":"https://perenual.com/storage/species_image/5334_narcissus_chromacolor/small/52065085311_f37e169664_b.jpg","thumbnail":"https://perenual.com/storage/species_image/5334_narcissus_chromacolor/thumbnail/52065085311_f37e169664_b.jpg"}},{"id":5335,"common_name":"split-corona daffodil","scientific_name":["Narcissus 'Colorama'"],"other_name":null,"cycle":"Perennial","watering":"Average","sunlight":["Full sun","part shade"],"default_image":{"image_id":9,"license":5,"license_name":"Attribution-ShareAlike License","license_url":"https://creativecommons.org/licenses/by-sa/2.0/","original_url":"https://perenual.com/storage/species_image/2_abies_alba_pyramidalis/og/49255769768_df55596553_b.jpg","regular_url":"https://perenual.com/storage/species_image/2_abies_alba_pyramidalis/regular/49255769768_df55596553_b.jpg","medium_url":"https://perenual.com/storage/species_image/2_abies_alba_pyramidalis/medium/49255769768_df55596553_b.jpg","small_url":"https://perenual.com/storage/species_image/2_abies_alba_pyramidalis/small/49255769768_df55596553_b.jpg","thumbnail":"https://perenual.com/storage/species_image/2_abies_alba_pyramidalis/thumbnail/49255769768_df55596553_b.jpg"}},{"id":5336,"common_name":"small-cupped daffodil","scientific_name":["Narcissus 'Copper Coin'"],"other_name":null,"cycle":"Perennial","watering":"Average","sunlight":["Full sun","part shade"],"default_image":{"image_id":9,"license":5,"license_name":"Attribution-ShareAlike License","license_url":"https://creativecommons.org/licenses/by-sa/2.0/","original_url":"https://perenual.com/storage/species_image/2_abies_alba_pyramidalis/og/49255769768_df55596553_b.jpg","regular_url":"https://perenual.com/storage/species_image/2_abies_alba_pyramidalis/regular/49255769768_df55596553_b.jpg","medium_url":"https://perenual.com/storage/species_image/2_abies_alba_pyramidalis/medium/49255769768_df55596553_b.jpg","small_url":"https://perenual.com/storage/species_image/2_abies_alba_pyramidalis/small/49255769768_df55596553_b.jpg","thumbnail":"https://perenual.com/storage/species_image/2_abies_alba_pyramidalis/thumbnail/49255769768_df55596553_b.jpg"}},{"id":5337,"common_name":"jonquilla daffodil","scientific_name":["Narcissus 'Dainty Miss'"],"other_name":null,"cycle":"Perennial","watering":"Average","sunlight":["Full sun","part shade"],"default_image":{"image_id":9,"license":5,"license_name":"Attribution-ShareAlike License","license_url":"https://creativecommons.org/licenses/by-sa/2.0/","original_url":"https://perenual.com/storage/species_image/2_abies_alba_pyramidalis/og/49255769768_df55596553_b.jpg","regular_url":"https://perenual.com/storage/species_image/2_abies_alba_pyramidalis/regular/49255769768_df55596553_b.jpg","medium_url":"https://perenual.com/storage/species_image/2_abies_alba_pyramidalis/medium/49255769768_df55596553_b.jpg","small_url":"https://perenual.com/storage/species_image/2_abies_alba_pyramidalis/small/49255769768_df55596553_b.jpg","thumbnail":"https://perenual.com/storage/species_image/2_abies_alba_pyramidalis/thumbnail/49255769768_df55596553_b.jpg"}},{"id":5338,"common_name":"large-cupped daffodil","scientific_name":["Narcissus 'Daydream'"],"other_name":null,"cycle":"Perennial","watering":"Average","sunlight":["Full sun","part shade"],"default_image":{"image_id":11217,"license":6,"license_name":"Attribution-NoDerivs License","license_url":"https://creativecommons.org/licenses/by-nd/2.0/","original_url":"https://perenual.com/storage/species_image/5338_narcissus_daydream/og/39209504690_f091da791d_b.jpg"}},{"id":5339,"common_name":"double daffodil","scientific_name":["Narcissus 'Delnashaugh'"],"other_name":null,"cycle":"Perennial","watering":"Average","sunlight":["Full sun","part shade"],"default_image":{"image_id":9,"license":5,"license_name":"Attribution-ShareAlike License","license_url":"https://creativecommons.org/licenses/by-sa/2.0/","original_url":"https://perenual.com/storage/species_image/2_abies_alba_pyramidalis/og/49255769768_df55596553_b.jpg","regular_url":"https://perenual.com/storage/species_image/2_abies_alba_pyramidalis/regular/49255769768_df55596553_b.jpg","medium_url":"https://perenual.com/storage/species_image/2_abies_alba_pyramidalis/medium/49255769768_df55596553_b.jpg","small_url":"https://perenual.com/storage/species_image/2_abies_alba_pyramidalis/small/49255769768_df55596553_b.jpg","thumbnail":"https://perenual.com/storage/species_image/2_abies_alba_pyramidalis/thumbnail/49255769768_df55596553_b.jpg"}},{"id":5340,"common_name":"large-cupped daffodil","scientific_name":["Narcissus 'Easter Bonnet'"],"other_name":null,"cycle":"Perennial","watering":"Average","sunlight":["Full sun","part shade"],"default_image":{"image_id":11219,"license":45,"license_name":"Attribution-ShareAlike 3.0 Unported (CC BY-SA 3.0)","license_url":"https://creativecommons.org/licenses/by-sa/3.0/deed.en","original_url":"https://perenual.com/storage/species_image/5340_narcissus_easter_bonnet/og/Narcissus_%27Salome%27_kz02.jpg","regular_url":"https://perenual.com/storage/species_image/5340_narcissus_easter_bonnet/regular/Narcissus_%27Salome%27_kz02.jpg","medium_url":"https://perenual.com/storage/species_image/5340_narcissus_easter_bonnet/medium/Narcissus_%27Salome%27_kz02.jpg","small_url":"https://perenual.com/storage/species_image/5340_narcissus_easter_bonnet/small/Narcissus_%27Salome%27_kz02.jpg","thumbnail":"https://perenual.com/storage/species_image/5340_narcissus_easter_bonnet/thumbnail/Narcissus_%27Salome%27_kz02.jpg"}}],"to":5340,"per_page":30,"current_page":178,"from":5311,"last_page":200,"total":6000}