{"data":[{"id":571,"common_name":"slenderleaf false foxglove","scientific_name":["Agalinis tenuifolia"],"other_name":["Slenderleaf False Foxglove","Slender Gerardia","Slender Gerardia"],"cycle":"Perennial","watering":"Average","sunlight":["Sun"," Partial Shade"],"default_image":{"image_id":1248,"license":4,"license_name":"Attribution License","license_url":"https://creativecommons.org/licenses/by/2.0/","original_url":"https://perenual.com/storage/species_image/571_agalinis_tenuifolia/og/51729887719_21b2944da8_b.jpg","regular_url":"https://perenual.com/storage/species_image/571_agalinis_tenuifolia/regular/51729887719_21b2944da8_b.jpg","medium_url":"https://perenual.com/storage/species_image/571_agalinis_tenuifolia/medium/51729887719_21b2944da8_b.jpg","small_url":"https://perenual.com/storage/species_image/571_agalinis_tenuifolia/small/51729887719_21b2944da8_b.jpg","thumbnail":"https://perenual.com/storage/species_image/571_agalinis_tenuifolia/thumbnail/51729887719_21b2944da8_b.jpg"}},{"id":572,"common_name":"African lily","scientific_name":["Agapanthus africanus"],"other_name":null,"cycle":"Perennial","watering":"Average","sunlight":["Full sun","part shade"],"default_image":{"image_id":9,"license":5,"license_name":"Attribution-ShareAlike License","license_url":"https://creativecommons.org/licenses/by-sa/2.0/","original_url":"https://perenual.com/storage/species_image/2_abies_alba_pyramidalis/og/49255769768_df55596553_b.jpg","regular_url":"https://perenual.com/storage/species_image/2_abies_alba_pyramidalis/regular/49255769768_df55596553_b.jpg","medium_url":"https://perenual.com/storage/species_image/2_abies_alba_pyramidalis/medium/49255769768_df55596553_b.jpg","small_url":"https://perenual.com/storage/species_image/2_abies_alba_pyramidalis/small/49255769768_df55596553_b.jpg","thumbnail":"https://perenual.com/storage/species_image/2_abies_alba_pyramidalis/thumbnail/49255769768_df55596553_b.jpg"}},{"id":573,"common_name":"lily of the Nile","scientific_name":["Agapanthus 'Blue Yonder'"],"other_name":null,"cycle":"Perennial","watering":"Average","sunlight":["Full sun","part shade"],"default_image":{"image_id":1258,"license":4,"license_name":"Attribution License","license_url":"https://creativecommons.org/licenses/by/2.0/","original_url":"https://perenual.com/storage/species_image/573_agapanthus_blue_yonder/og/51684919053_42bb4f4d37_b.jpg","regular_url":"https://perenual.com/storage/species_image/573_agapanthus_blue_yonder/regular/51684919053_42bb4f4d37_b.jpg","medium_url":"https://perenual.com/storage/species_image/573_agapanthus_blue_yonder/medium/51684919053_42bb4f4d37_b.jpg","small_url":"https://perenual.com/storage/species_image/573_agapanthus_blue_yonder/small/51684919053_42bb4f4d37_b.jpg","thumbnail":"https://perenual.com/storage/species_image/573_agapanthus_blue_yonder/thumbnail/51684919053_42bb4f4d37_b.jpg"}},{"id":574,"common_name":"lily of the Nile","scientific_name":["Agapanthus 'Cold Hardy White'"],"other_name":null,"cycle":"Perennial","watering":"Average","sunlight":["Part shade"],"default_image":{"image_id":1261,"license":4,"license_name":"Attribution License","license_url":"https://creativecommons.org/licenses/by/2.0/","original_url":"https://perenual.com/storage/species_image/574_agapanthus_cold_hardy_white/og/43927844454_7676af386f_b.jpg","regular_url":"https://perenual.com/storage/species_image/574_agapanthus_cold_hardy_white/regular/43927844454_7676af386f_b.jpg","medium_url":"https://perenual.com/storage/species_image/574_agapanthus_cold_hardy_white/medium/43927844454_7676af386f_b.jpg","small_url":"https://perenual.com/storage/species_image/574_agapanthus_cold_hardy_white/small/43927844454_7676af386f_b.jpg","thumbnail":"https://perenual.com/storage/species_image/574_agapanthus_cold_hardy_white/thumbnail/43927844454_7676af386f_b.jpg"}},{"id":575,"common_name":"lily of the Nile","scientific_name":["Agapanthus (group)"],"other_name":null,"cycle":"Perennial","watering":"Average","sunlight":["Full sun","part shade"],"default_image":{"image_id":1262,"license":4,"license_name":"Attribution License","license_url":"https://creativecommons.org/licenses/by/2.0/","original_url":"https://perenual.com/storage/species_image/575_agapanthus_group/og/2742717111_04f3b1bee3_b.jpg","regular_url":"https://perenual.com/storage/species_image/575_agapanthus_group/regular/2742717111_04f3b1bee3_b.jpg","medium_url":"https://perenual.com/storage/species_image/575_agapanthus_group/medium/2742717111_04f3b1bee3_b.jpg","small_url":"https://perenual.com/storage/species_image/575_agapanthus_group/small/2742717111_04f3b1bee3_b.jpg","thumbnail":"https://perenual.com/storage/species_image/575_agapanthus_group/thumbnail/2742717111_04f3b1bee3_b.jpg"}},{"id":576,"common_name":"lily of the Nile","scientific_name":["Agapanthus 'Headbourne Hybrids'"],"other_name":null,"cycle":"Perennial","watering":"Average","sunlight":["Full sun","part shade"],"default_image":{"image_id":1263,"license":4,"license_name":"Attribution License","license_url":"https://creativecommons.org/licenses/by/2.0/","original_url":"https://perenual.com/storage/species_image/576_agapanthus_headbourne_hybrids/og/51684917243_f9d47c765e_b.jpg","regular_url":"https://perenual.com/storage/species_image/576_agapanthus_headbourne_hybrids/regular/51684917243_f9d47c765e_b.jpg","medium_url":"https://perenual.com/storage/species_image/576_agapanthus_headbourne_hybrids/medium/51684917243_f9d47c765e_b.jpg","small_url":"https://perenual.com/storage/species_image/576_agapanthus_headbourne_hybrids/small/51684917243_f9d47c765e_b.jpg","thumbnail":"https://perenual.com/storage/species_image/576_agapanthus_headbourne_hybrids/thumbnail/51684917243_f9d47c765e_b.jpg"}},{"id":577,"common_name":"lily of the Nile","scientific_name":["Agapanthus 'Kingston Blue'"],"other_name":null,"cycle":"Perennial","watering":"Average","sunlight":["Full sun","part shade"],"default_image":{"image_id":1266,"license":4,"license_name":"Attribution License","license_url":"https://creativecommons.org/licenses/by/2.0/","original_url":"https://perenual.com/storage/species_image/577_agapanthus_kingston_blue/og/37273129136_c039e92f7b_b.jpg","regular_url":"https://perenual.com/storage/species_image/577_agapanthus_kingston_blue/regular/37273129136_c039e92f7b_b.jpg","medium_url":"https://perenual.com/storage/species_image/577_agapanthus_kingston_blue/medium/37273129136_c039e92f7b_b.jpg","small_url":"https://perenual.com/storage/species_image/577_agapanthus_kingston_blue/small/37273129136_c039e92f7b_b.jpg","thumbnail":"https://perenual.com/storage/species_image/577_agapanthus_kingston_blue/thumbnail/37273129136_c039e92f7b_b.jpg"}},{"id":578,"common_name":"lily of the Nile","scientific_name":["Agapanthus 'Rfdd' DOUBLE DIAMOND"],"other_name":null,"cycle":"Perennial","watering":"Average","sunlight":["Full sun","part shade"],"default_image":{"image_id":1267,"license":4,"license_name":"Attribution License","license_url":"https://creativecommons.org/licenses/by/2.0/","original_url":"https://perenual.com/storage/species_image/578_agapanthus_rfdd_double_diamond/og/51685545730_a49c37d107_b.jpg","regular_url":"https://perenual.com/storage/species_image/578_agapanthus_rfdd_double_diamond/regular/51685545730_a49c37d107_b.jpg","medium_url":"https://perenual.com/storage/species_image/578_agapanthus_rfdd_double_diamond/medium/51685545730_a49c37d107_b.jpg","small_url":"https://perenual.com/storage/species_image/578_agapanthus_rfdd_double_diamond/small/51685545730_a49c37d107_b.jpg","thumbnail":"https://perenual.com/storage/species_image/578_agapanthus_rfdd_double_diamond/thumbnail/51685545730_a49c37d107_b.jpg"}},{"id":579,"common_name":"lily of the Nile","scientific_name":["Agapanthus 'Summer Skies'"],"other_name":null,"cycle":"Perennial","watering":"Average","sunlight":["Full sun","part shade"],"default_image":{"image_id":9,"license":5,"license_name":"Attribution-ShareAlike License","license_url":"https://creativecommons.org/licenses/by-sa/2.0/","original_url":"https://perenual.com/storage/species_image/2_abies_alba_pyramidalis/og/49255769768_df55596553_b.jpg","regular_url":"https://perenual.com/storage/species_image/2_abies_alba_pyramidalis/regular/49255769768_df55596553_b.jpg","medium_url":"https://perenual.com/storage/species_image/2_abies_alba_pyramidalis/medium/49255769768_df55596553_b.jpg","small_url":"https://perenual.com/storage/species_image/2_abies_alba_pyramidalis/small/49255769768_df55596553_b.jpg","thumbnail":"https://perenual.com/storage/species_image/2_abies_alba_pyramidalis/thumbnail/49255769768_df55596553_b.jpg"}},{"id":580,"common_name":"giant hyssop","scientific_name":["Agastache 'Apricot Sunrise'"],"other_name":null,"cycle":"Perennial","watering":"Average","sunlight":["Full sun"],"default_image":{"image_id":21169,"license":45,"license_name":"Attribution-ShareAlike 3.0 Unported (CC BY-SA 3.0)","license_url":"https://creativecommons.org/licenses/by-sa/3.0/deed.en","original_url":"https://perenual.com/storage/species_image/580_agastache_apricot_sunrise/og/Agastache_Arizona_Sandstone_kz2.jpg","regular_url":"https://perenual.com/storage/species_image/580_agastache_apricot_sunrise/regular/Agastache_Arizona_Sandstone_kz2.jpg","medium_url":"https://perenual.com/storage/species_image/580_agastache_apricot_sunrise/medium/Agastache_Arizona_Sandstone_kz2.jpg","small_url":"https://perenual.com/storage/species_image/580_agastache_apricot_sunrise/small/Agastache_Arizona_Sandstone_kz2.jpg","thumbnail":"https://perenual.com/storage/species_image/580_agastache_apricot_sunrise/thumbnail/Agastache_Arizona_Sandstone_kz2.jpg"}},{"id":581,"common_name":"giant hyssop","scientific_name":["Agastache 'Ava'"],"other_name":null,"cycle":"Perennial","watering":"Average","sunlight":["Full sun"],"default_image":{"image_id":9,"license":5,"license_name":"Attribution-ShareAlike License","license_url":"https://creativecommons.org/licenses/by-sa/2.0/","original_url":"https://perenual.com/storage/species_image/2_abies_alba_pyramidalis/og/49255769768_df55596553_b.jpg","regular_url":"https://perenual.com/storage/species_image/2_abies_alba_pyramidalis/regular/49255769768_df55596553_b.jpg","medium_url":"https://perenual.com/storage/species_image/2_abies_alba_pyramidalis/medium/49255769768_df55596553_b.jpg","small_url":"https://perenual.com/storage/species_image/2_abies_alba_pyramidalis/small/49255769768_df55596553_b.jpg","thumbnail":"https://perenual.com/storage/species_image/2_abies_alba_pyramidalis/thumbnail/49255769768_df55596553_b.jpg"}},{"id":582,"common_name":"giant hyssop","scientific_name":["Agastache 'Black Adder'"],"other_name":null,"cycle":"Perennial","watering":"Average","sunlight":["Full sun"],"default_image":{"image_id":1272,"license":5,"license_name":"Attribution-ShareAlike License","license_url":"https://creativecommons.org/licenses/by-sa/2.0/","original_url":"https://perenual.com/storage/species_image/582_agastache_black_adder/og/20222503530_c6fa0ff0f0_b.jpg","regular_url":"https://perenual.com/storage/species_image/582_agastache_black_adder/regular/20222503530_c6fa0ff0f0_b.jpg","medium_url":"https://perenual.com/storage/species_image/582_agastache_black_adder/medium/20222503530_c6fa0ff0f0_b.jpg","small_url":"https://perenual.com/storage/species_image/582_agastache_black_adder/small/20222503530_c6fa0ff0f0_b.jpg","thumbnail":"https://perenual.com/storage/species_image/582_agastache_black_adder/thumbnail/20222503530_c6fa0ff0f0_b.jpg"}},{"id":583,"common_name":"giant hyssop","scientific_name":["Agastache 'Blue Boa'"],"other_name":null,"cycle":"Perennial","watering":"Average","sunlight":["Full sun"],"default_image":{"image_id":1274,"license":4,"license_name":"Attribution License","license_url":"https://creativecommons.org/licenses/by/2.0/","original_url":"https://perenual.com/storage/species_image/583_agastache_blue_boa/og/28152423034_117ba83daa_b.jpg","regular_url":"https://perenual.com/storage/species_image/583_agastache_blue_boa/regular/28152423034_117ba83daa_b.jpg","medium_url":"https://perenual.com/storage/species_image/583_agastache_blue_boa/medium/28152423034_117ba83daa_b.jpg","small_url":"https://perenual.com/storage/species_image/583_agastache_blue_boa/small/28152423034_117ba83daa_b.jpg","thumbnail":"https://perenual.com/storage/species_image/583_agastache_blue_boa/thumbnail/28152423034_117ba83daa_b.jpg"}},{"id":584,"common_name":"giant hyssop","scientific_name":["Agastache 'Blue Fortune'"],"other_name":null,"cycle":"Perennial","watering":"Average","sunlight":["Full sun"],"default_image":{"image_id":1275,"license":4,"license_name":"Attribution License","license_url":"https://creativecommons.org/licenses/by/2.0/","original_url":"https://perenual.com/storage/species_image/584_agastache_blue_fortune/og/30399338908_18d1fb2068_b.jpg","regular_url":"https://perenual.com/storage/species_image/584_agastache_blue_fortune/regular/30399338908_18d1fb2068_b.jpg","medium_url":"https://perenual.com/storage/species_image/584_agastache_blue_fortune/medium/30399338908_18d1fb2068_b.jpg","small_url":"https://perenual.com/storage/species_image/584_agastache_blue_fortune/small/30399338908_18d1fb2068_b.jpg","thumbnail":"https://perenual.com/storage/species_image/584_agastache_blue_fortune/thumbnail/30399338908_18d1fb2068_b.jpg"}},{"id":585,"common_name":"giant hyssop","scientific_name":["Agastache 'Bolero'"],"other_name":null,"cycle":"Perennial","watering":"Average","sunlight":["Full sun"],"default_image":{"image_id":9,"license":5,"license_name":"Attribution-ShareAlike License","license_url":"https://creativecommons.org/licenses/by-sa/2.0/","original_url":"https://perenual.com/storage/species_image/2_abies_alba_pyramidalis/og/49255769768_df55596553_b.jpg","regular_url":"https://perenual.com/storage/species_image/2_abies_alba_pyramidalis/regular/49255769768_df55596553_b.jpg","medium_url":"https://perenual.com/storage/species_image/2_abies_alba_pyramidalis/medium/49255769768_df55596553_b.jpg","small_url":"https://perenual.com/storage/species_image/2_abies_alba_pyramidalis/small/49255769768_df55596553_b.jpg","thumbnail":"https://perenual.com/storage/species_image/2_abies_alba_pyramidalis/thumbnail/49255769768_df55596553_b.jpg"}},{"id":586,"common_name":"hummingbird's mint","scientific_name":["Agastache cana"],"other_name":null,"cycle":"Perennial","watering":"Minimum","sunlight":["Full sun","part shade"],"default_image":{"image_id":1280,"license":4,"license_name":"Attribution License","license_url":"https://creativecommons.org/licenses/by/2.0/","original_url":"https://perenual.com/storage/species_image/586_agastache_cana/og/11015031016_3ae0e8b4a6_b.jpg","regular_url":"https://perenual.com/storage/species_image/586_agastache_cana/regular/11015031016_3ae0e8b4a6_b.jpg","medium_url":"https://perenual.com/storage/species_image/586_agastache_cana/medium/11015031016_3ae0e8b4a6_b.jpg","small_url":"https://perenual.com/storage/species_image/586_agastache_cana/small/11015031016_3ae0e8b4a6_b.jpg","thumbnail":"https://perenual.com/storage/species_image/586_agastache_cana/thumbnail/11015031016_3ae0e8b4a6_b.jpg"}},{"id":587,"common_name":"giant hyssop","scientific_name":["Agastache cana 'Sinning' SONORAN SUNSET"],"other_name":null,"cycle":"Perennial","watering":"Minimum","sunlight":["Full sun","part shade"],"default_image":{"image_id":9,"license":5,"license_name":"Attribution-ShareAlike License","license_url":"https://creativecommons.org/licenses/by-sa/2.0/","original_url":"https://perenual.com/storage/species_image/2_abies_alba_pyramidalis/og/49255769768_df55596553_b.jpg","regular_url":"https://perenual.com/storage/species_image/2_abies_alba_pyramidalis/regular/49255769768_df55596553_b.jpg","medium_url":"https://perenual.com/storage/species_image/2_abies_alba_pyramidalis/medium/49255769768_df55596553_b.jpg","small_url":"https://perenual.com/storage/species_image/2_abies_alba_pyramidalis/small/49255769768_df55596553_b.jpg","thumbnail":"https://perenual.com/storage/species_image/2_abies_alba_pyramidalis/thumbnail/49255769768_df55596553_b.jpg"}},{"id":588,"common_name":"giant hyssop","scientific_name":["Agastache 'Firebird'"],"other_name":null,"cycle":"Perennial","watering":"Average","sunlight":["Full sun"],"default_image":{"image_id":21171,"license":45,"license_name":"Attribution-ShareAlike 3.0 Unported (CC BY-SA 3.0)","license_url":"https://creativecommons.org/licenses/by-sa/3.0/deed.en","original_url":"https://perenual.com/storage/species_image/588_agastache_firebird/og/Agastache_aurantiaca_%2810498944733%29.jpg","regular_url":"https://perenual.com/storage/species_image/588_agastache_firebird/regular/Agastache_aurantiaca_%2810498944733%29.jpg","medium_url":"https://perenual.com/storage/species_image/588_agastache_firebird/medium/Agastache_aurantiaca_%2810498944733%29.jpg","small_url":"https://perenual.com/storage/species_image/588_agastache_firebird/small/Agastache_aurantiaca_%2810498944733%29.jpg","thumbnail":"https://perenual.com/storage/species_image/588_agastache_firebird/thumbnail/Agastache_aurantiaca_%2810498944733%29.jpg"}},{"id":589,"common_name":"anise hyssop","scientific_name":["Agastache foeniculum"],"other_name":["giant hyssop","Giant Hyssop","Fragrant Giant Hyssop","Blue Giant Hyssop"],"cycle":"Perennial","watering":"Minimum","sunlight":["Sun"," Partial Shade"],"default_image":{"image_id":1289,"license":5,"license_name":"Attribution-ShareAlike License","license_url":"https://creativecommons.org/licenses/by-sa/2.0/","original_url":"https://perenual.com/storage/species_image/589_agastache_foeniculum/og/9497142760_cc4468f21d_b.jpg","regular_url":"https://perenual.com/storage/species_image/589_agastache_foeniculum/regular/9497142760_cc4468f21d_b.jpg","medium_url":"https://perenual.com/storage/species_image/589_agastache_foeniculum/medium/9497142760_cc4468f21d_b.jpg","small_url":"https://perenual.com/storage/species_image/589_agastache_foeniculum/small/9497142760_cc4468f21d_b.jpg","thumbnail":"https://perenual.com/storage/species_image/589_agastache_foeniculum/thumbnail/9497142760_cc4468f21d_b.jpg"}},{"id":590,"common_name":"giant hyssop","scientific_name":["Agastache 'Garden Leader Blue'"],"other_name":null,"cycle":"Perennial","watering":"Average","sunlight":["Full sun"],"default_image":{"image_id":1290,"license":5,"license_name":"Attribution-ShareAlike License","license_url":"https://creativecommons.org/licenses/by-sa/2.0/","original_url":"https://perenual.com/storage/species_image/590_agastache_garden_leader_blue/og/44192793362_a437852187_b.jpg","regular_url":"https://perenual.com/storage/species_image/590_agastache_garden_leader_blue/regular/44192793362_a437852187_b.jpg","medium_url":"https://perenual.com/storage/species_image/590_agastache_garden_leader_blue/medium/44192793362_a437852187_b.jpg","small_url":"https://perenual.com/storage/species_image/590_agastache_garden_leader_blue/small/44192793362_a437852187_b.jpg","thumbnail":"https://perenual.com/storage/species_image/590_agastache_garden_leader_blue/thumbnail/44192793362_a437852187_b.jpg"}},{"id":591,"common_name":"dwarf hybrid hyssop","scientific_name":["Agastache KUDOS RED"],"other_name":null,"cycle":"Perennial","watering":"Average","sunlight":["Full sun"],"default_image":{"image_id":9,"license":5,"license_name":"Attribution-ShareAlike License","license_url":"https://creativecommons.org/licenses/by-sa/2.0/","original_url":"https://perenual.com/storage/species_image/2_abies_alba_pyramidalis/og/49255769768_df55596553_b.jpg","regular_url":"https://perenual.com/storage/species_image/2_abies_alba_pyramidalis/regular/49255769768_df55596553_b.jpg","medium_url":"https://perenual.com/storage/species_image/2_abies_alba_pyramidalis/medium/49255769768_df55596553_b.jpg","small_url":"https://perenual.com/storage/species_image/2_abies_alba_pyramidalis/small/49255769768_df55596553_b.jpg","thumbnail":"https://perenual.com/storage/species_image/2_abies_alba_pyramidalis/thumbnail/49255769768_df55596553_b.jpg"}},{"id":592,"common_name":"yellow giant hyssop","scientific_name":["Agastache nepetoides"],"other_name":null,"cycle":"Perennial","watering":"Average","sunlight":["Sun"," Partial Shade"],"default_image":{"image_id":9,"license":5,"license_name":"Attribution-ShareAlike License","license_url":"https://creativecommons.org/licenses/by-sa/2.0/","original_url":"https://perenual.com/storage/species_image/2_abies_alba_pyramidalis/og/49255769768_df55596553_b.jpg","regular_url":"https://perenual.com/storage/species_image/2_abies_alba_pyramidalis/regular/49255769768_df55596553_b.jpg","medium_url":"https://perenual.com/storage/species_image/2_abies_alba_pyramidalis/medium/49255769768_df55596553_b.jpg","small_url":"https://perenual.com/storage/species_image/2_abies_alba_pyramidalis/small/49255769768_df55596553_b.jpg","thumbnail":"https://perenual.com/storage/species_image/2_abies_alba_pyramidalis/thumbnail/49255769768_df55596553_b.jpg"}},{"id":593,"common_name":"giant hyssop","scientific_name":["Agastache 'Pink Pop'"],"other_name":null,"cycle":"Perennial","watering":"Average","sunlight":["Full sun"],"default_image":{"image_id":1296,"license":4,"license_name":"Attribution License","license_url":"https://creativecommons.org/licenses/by/2.0/","original_url":"https://perenual.com/storage/species_image/593_agastache_pink_pop/og/2560788063_19e3db9e4b_b.jpg","regular_url":"https://perenual.com/storage/species_image/593_agastache_pink_pop/regular/2560788063_19e3db9e4b_b.jpg","medium_url":"https://perenual.com/storage/species_image/593_agastache_pink_pop/medium/2560788063_19e3db9e4b_b.jpg","small_url":"https://perenual.com/storage/species_image/593_agastache_pink_pop/small/2560788063_19e3db9e4b_b.jpg","thumbnail":"https://perenual.com/storage/species_image/593_agastache_pink_pop/thumbnail/2560788063_19e3db9e4b_b.jpg"}},{"id":594,"common_name":"giant hyssop","scientific_name":["Agastache 'Purple Haze'"],"other_name":null,"cycle":"Perennial","watering":"Average","sunlight":["Full sun"],"default_image":{"image_id":1297,"license":5,"license_name":"Attribution-ShareAlike License","license_url":"https://creativecommons.org/licenses/by-sa/2.0/","original_url":"https://perenual.com/storage/species_image/8847_agastache_urticifolia/og/52439843123_04567ac0cf_b.jpg","regular_url":"https://perenual.com/storage/species_image/8847_agastache_urticifolia/regular/52439843123_04567ac0cf_b.jpg","medium_url":"https://perenual.com/storage/species_image/8847_agastache_urticifolia/medium/52439843123_04567ac0cf_b.jpg","small_url":"https://perenual.com/storage/species_image/8847_agastache_urticifolia/small/52439843123_04567ac0cf_b.jpg","thumbnail":"https://perenual.com/storage/species_image/8847_agastache_urticifolia/thumbnail/52439843123_04567ac0cf_b.jpg"}},{"id":595,"common_name":"giant hyssop","scientific_name":["Agastache 'Raspberry Summer'"],"other_name":null,"cycle":"Perennial","watering":"Average","sunlight":["Full sun"],"default_image":{"image_id":9,"license":5,"license_name":"Attribution-ShareAlike License","license_url":"https://creativecommons.org/licenses/by-sa/2.0/","original_url":"https://perenual.com/storage/species_image/2_abies_alba_pyramidalis/og/49255769768_df55596553_b.jpg","regular_url":"https://perenual.com/storage/species_image/2_abies_alba_pyramidalis/regular/49255769768_df55596553_b.jpg","medium_url":"https://perenual.com/storage/species_image/2_abies_alba_pyramidalis/medium/49255769768_df55596553_b.jpg","small_url":"https://perenual.com/storage/species_image/2_abies_alba_pyramidalis/small/49255769768_df55596553_b.jpg","thumbnail":"https://perenual.com/storage/species_image/2_abies_alba_pyramidalis/thumbnail/49255769768_df55596553_b.jpg"}},{"id":596,"common_name":"purple giant hyssop","scientific_name":["Agastache rugosa 'Golden Jubilee'"],"other_name":null,"cycle":"Perennial","watering":"Average","sunlight":["Full sun","part shade"],"default_image":{"image_id":9,"license":5,"license_name":"Attribution-ShareAlike License","license_url":"https://creativecommons.org/licenses/by-sa/2.0/","original_url":"https://perenual.com/storage/species_image/2_abies_alba_pyramidalis/og/49255769768_df55596553_b.jpg","regular_url":"https://perenual.com/storage/species_image/2_abies_alba_pyramidalis/regular/49255769768_df55596553_b.jpg","medium_url":"https://perenual.com/storage/species_image/2_abies_alba_pyramidalis/medium/49255769768_df55596553_b.jpg","small_url":"https://perenual.com/storage/species_image/2_abies_alba_pyramidalis/small/49255769768_df55596553_b.jpg","thumbnail":"https://perenual.com/storage/species_image/2_abies_alba_pyramidalis/thumbnail/49255769768_df55596553_b.jpg"}},{"id":597,"common_name":"giant hyssop","scientific_name":["Agastache rugosa 'Honey Bee Blue'"],"other_name":null,"cycle":"Perennial","watering":"Average","sunlight":["Full sun","part shade"],"default_image":{"image_id":1301,"license":4,"license_name":"Attribution License","license_url":"https://creativecommons.org/licenses/by/2.0/","original_url":"https://perenual.com/storage/species_image/597_agastache_rugosa_honey_bee_blue/og/51318682563_98b71628e7_b.jpg","regular_url":"https://perenual.com/storage/species_image/597_agastache_rugosa_honey_bee_blue/regular/51318682563_98b71628e7_b.jpg","medium_url":"https://perenual.com/storage/species_image/597_agastache_rugosa_honey_bee_blue/medium/51318682563_98b71628e7_b.jpg","small_url":"https://perenual.com/storage/species_image/597_agastache_rugosa_honey_bee_blue/small/51318682563_98b71628e7_b.jpg","thumbnail":"https://perenual.com/storage/species_image/597_agastache_rugosa_honey_bee_blue/thumbnail/51318682563_98b71628e7_b.jpg"}},{"id":598,"common_name":"threadleaf giant hyssop","scientific_name":["Agastache rupestris"],"other_name":null,"cycle":"Perennial","watering":"Minimum","sunlight":["Full sun","part shade"],"default_image":{"image_id":9,"license":5,"license_name":"Attribution-ShareAlike License","license_url":"https://creativecommons.org/licenses/by-sa/2.0/","original_url":"https://perenual.com/storage/species_image/2_abies_alba_pyramidalis/og/49255769768_df55596553_b.jpg","regular_url":"https://perenual.com/storage/species_image/2_abies_alba_pyramidalis/regular/49255769768_df55596553_b.jpg","medium_url":"https://perenual.com/storage/species_image/2_abies_alba_pyramidalis/medium/49255769768_df55596553_b.jpg","small_url":"https://perenual.com/storage/species_image/2_abies_alba_pyramidalis/small/49255769768_df55596553_b.jpg","thumbnail":"https://perenual.com/storage/species_image/2_abies_alba_pyramidalis/thumbnail/49255769768_df55596553_b.jpg"}},{"id":599,"common_name":"threadleaf giant hyssop","scientific_name":["Agastache rupestris 'Apache Sunset'"],"other_name":null,"cycle":"Perennial","watering":"Minimum","sunlight":["Full sun","part shade"],"default_image":{"image_id":21175,"license":45,"license_name":"Attribution-ShareAlike 3.0 Unported (CC BY-SA 3.0)","license_url":"https://creativecommons.org/licenses/by-sa/3.0/deed.en","original_url":"https://perenual.com/storage/species_image/599_agastache_rupestris_apache_sunset/og/400px-Agastache_%27Kudos_Mandarin%27_01.jpg","regular_url":"https://perenual.com/storage/species_image/599_agastache_rupestris_apache_sunset/regular/400px-Agastache_%27Kudos_Mandarin%27_01.jpg","medium_url":"https://perenual.com/storage/species_image/599_agastache_rupestris_apache_sunset/medium/400px-Agastache_%27Kudos_Mandarin%27_01.jpg","small_url":"https://perenual.com/storage/species_image/599_agastache_rupestris_apache_sunset/small/400px-Agastache_%27Kudos_Mandarin%27_01.jpg","thumbnail":"https://perenual.com/storage/species_image/599_agastache_rupestris_apache_sunset/thumbnail/400px-Agastache_%27Kudos_Mandarin%27_01.jpg"}},{"id":600,"common_name":"giant hyssop","scientific_name":["Agastache 'Summer Breeze'"],"other_name":null,"cycle":"Perennial","watering":"Minimum","sunlight":["Full sun"],"default_image":{"image_id":9,"license":5,"license_name":"Attribution-ShareAlike License","license_url":"https://creativecommons.org/licenses/by-sa/2.0/","original_url":"https://perenual.com/storage/species_image/2_abies_alba_pyramidalis/og/49255769768_df55596553_b.jpg","regular_url":"https://perenual.com/storage/species_image/2_abies_alba_pyramidalis/regular/49255769768_df55596553_b.jpg","medium_url":"https://perenual.com/storage/species_image/2_abies_alba_pyramidalis/medium/49255769768_df55596553_b.jpg","small_url":"https://perenual.com/storage/species_image/2_abies_alba_pyramidalis/small/49255769768_df55596553_b.jpg","thumbnail":"https://perenual.com/storage/species_image/2_abies_alba_pyramidalis/thumbnail/49255769768_df55596553_b.jpg"}}],"to":600,"per_page":30,"current_page":20,"from":571,"last_page":200,"total":6000}