{"data":[{"id":1081,"common_name":"astilbe","scientific_name":["Astilbe 'Flamingo'"],"other_name":null,"cycle":"Perennial","watering":"Average","sunlight":["Part shade","full shade"],"default_image":{"image_id":2584,"license":6,"license_name":"Attribution-NoDerivs License","license_url":"https://creativecommons.org/licenses/by-nd/2.0/","original_url":"https://perenual.com/storage/species_image/1081_astilbe_flamingo/og/52275312823_ea22877c28_b.jpg"}},{"id":1082,"common_name":"astilbe","scientific_name":["Astilbe 'Heart and Soul'"],"other_name":null,"cycle":"Perennial","watering":"Average","sunlight":["Part shade","full shade"],"default_image":{"image_id":2561,"license":6,"license_name":"Attribution-NoDerivs License","license_url":"https://creativecommons.org/licenses/by-nd/2.0/","original_url":"https://perenual.com/storage/species_image/1094_astilbe_verscarmine_younique_carmine/og/52275778975_608b8fe6c2_b.jpg"}},{"id":1083,"common_name":"Florist's spiraea","scientific_name":["Astilbe japonica"],"other_name":null,"cycle":"Perennial","watering":"Average","sunlight":["Part shade","full shade"],"default_image":{"image_id":2555,"license":4,"license_name":"Attribution License","license_url":"https://creativecommons.org/licenses/by/2.0/","original_url":"https://perenual.com/storage/species_image/1093_astilbe_straussenfeder_ostrich_plume/og/52182349570_1e2bff09bb_b.jpg","regular_url":"https://perenual.com/storage/species_image/1093_astilbe_straussenfeder_ostrich_plume/regular/52182349570_1e2bff09bb_b.jpg","medium_url":"https://perenual.com/storage/species_image/1093_astilbe_straussenfeder_ostrich_plume/medium/52182349570_1e2bff09bb_b.jpg","small_url":"https://perenual.com/storage/species_image/1093_astilbe_straussenfeder_ostrich_plume/small/52182349570_1e2bff09bb_b.jpg","thumbnail":"https://perenual.com/storage/species_image/1093_astilbe_straussenfeder_ostrich_plume/thumbnail/52182349570_1e2bff09bb_b.jpg"}},{"id":1084,"common_name":"astilbe","scientific_name":["Astilbe japonica 'Montgomery'"],"other_name":null,"cycle":"Perennial","watering":"Average","sunlight":["Part shade","full shade"],"default_image":{"image_id":2585,"license":5,"license_name":"Attribution-ShareAlike License","license_url":"https://creativecommons.org/licenses/by-sa/2.0/","original_url":"https://perenual.com/storage/species_image/1084_astilbe_japonica_montgomery/og/32892759303_dafd344269_b.jpg","regular_url":"https://perenual.com/storage/species_image/1084_astilbe_japonica_montgomery/regular/32892759303_dafd344269_b.jpg","medium_url":"https://perenual.com/storage/species_image/1084_astilbe_japonica_montgomery/medium/32892759303_dafd344269_b.jpg","small_url":"https://perenual.com/storage/species_image/1084_astilbe_japonica_montgomery/small/32892759303_dafd344269_b.jpg","thumbnail":"https://perenual.com/storage/species_image/1084_astilbe_japonica_montgomery/thumbnail/32892759303_dafd344269_b.jpg"}},{"id":1085,"common_name":"astilbe","scientific_name":["Astilbe 'Professor Van der Wielen'"],"other_name":null,"cycle":"Perennial","watering":"Average","sunlight":["Part shade","full shade"],"default_image":{"image_id":2588,"license":4,"license_name":"Attribution License","license_url":"https://creativecommons.org/licenses/by/2.0/","original_url":"https://perenual.com/storage/species_image/1085_astilbe_professor_van_der_wielen/og/50074877458_00e6962399_b.jpg","regular_url":"https://perenual.com/storage/species_image/1085_astilbe_professor_van_der_wielen/regular/50074877458_00e6962399_b.jpg","medium_url":"https://perenual.com/storage/species_image/1085_astilbe_professor_van_der_wielen/medium/50074877458_00e6962399_b.jpg","small_url":"https://perenual.com/storage/species_image/1085_astilbe_professor_van_der_wielen/small/50074877458_00e6962399_b.jpg","thumbnail":"https://perenual.com/storage/species_image/1085_astilbe_professor_van_der_wielen/thumbnail/50074877458_00e6962399_b.jpg"}},{"id":1086,"common_name":"astilbe","scientific_name":["Astilbe 'Radius'"],"other_name":null,"cycle":"Perennial","watering":"Average","sunlight":["Part shade","full shade"],"default_image":{"image_id":2590,"license":6,"license_name":"Attribution-NoDerivs License","license_url":"https://creativecommons.org/licenses/by-nd/2.0/","original_url":"https://perenual.com/storage/species_image/1086_astilbe_radius/og/49259030721_3cc95a4aa2_b.jpg"}},{"id":1087,"common_name":"astilbe","scientific_name":["Astilbe 'Red Sentinel'"],"other_name":null,"cycle":"Perennial","watering":"Average","sunlight":["Part shade","full shade"],"default_image":{"image_id":2564,"license":6,"license_name":"Attribution-NoDerivs License","license_url":"https://creativecommons.org/licenses/by-nd/2.0/","original_url":"https://perenual.com/storage/species_image/1087_astilbe_red_sentinel/og/51333480762_63b27c8dde_b.jpg"}},{"id":1088,"common_name":"astilbe","scientific_name":["Astilbe 'Rheinland'"],"other_name":null,"cycle":"Perennial","watering":"Average","sunlight":["Part shade","full shade"],"default_image":{"image_id":2561,"license":6,"license_name":"Attribution-NoDerivs License","license_url":"https://creativecommons.org/licenses/by-nd/2.0/","original_url":"https://perenual.com/storage/species_image/1094_astilbe_verscarmine_younique_carmine/og/52275778975_608b8fe6c2_b.jpg"}},{"id":1089,"common_name":"astilbe","scientific_name":["Astilbe rosea 'Peach Blossom'"],"other_name":null,"cycle":"Perennial","watering":"Average","sunlight":["Part shade","full shade"],"default_image":{"image_id":9,"license":5,"license_name":"Attribution-ShareAlike License","license_url":"https://creativecommons.org/licenses/by-sa/2.0/","original_url":"https://perenual.com/storage/species_image/2_abies_alba_pyramidalis/og/49255769768_df55596553_b.jpg","regular_url":"https://perenual.com/storage/species_image/2_abies_alba_pyramidalis/regular/49255769768_df55596553_b.jpg","medium_url":"https://perenual.com/storage/species_image/2_abies_alba_pyramidalis/medium/49255769768_df55596553_b.jpg","small_url":"https://perenual.com/storage/species_image/2_abies_alba_pyramidalis/small/49255769768_df55596553_b.jpg","thumbnail":"https://perenual.com/storage/species_image/2_abies_alba_pyramidalis/thumbnail/49255769768_df55596553_b.jpg"}},{"id":1090,"common_name":"astilbe","scientific_name":["Astilbe simplicifolia"],"other_name":null,"cycle":"Perennial","watering":"Average","sunlight":["Part shade","full shade"],"default_image":{"image_id":2596,"license":5,"license_name":"Attribution-ShareAlike License","license_url":"https://creativecommons.org/licenses/by-sa/2.0/","original_url":"https://perenual.com/storage/species_image/1092_astilbe_sprite/og/33665406066_359cb18761_b.jpg","regular_url":"https://perenual.com/storage/species_image/1092_astilbe_sprite/regular/33665406066_359cb18761_b.jpg","medium_url":"https://perenual.com/storage/species_image/1092_astilbe_sprite/medium/33665406066_359cb18761_b.jpg","small_url":"https://perenual.com/storage/species_image/1092_astilbe_sprite/small/33665406066_359cb18761_b.jpg","thumbnail":"https://perenual.com/storage/species_image/1092_astilbe_sprite/thumbnail/33665406066_359cb18761_b.jpg"}},{"id":1091,"common_name":"astilbe","scientific_name":["Astilbe 'Snowdrift'"],"other_name":null,"cycle":"Perennial","watering":"Average","sunlight":["Part shade","full shade"],"default_image":{"image_id":2600,"license":4,"license_name":"Attribution License","license_url":"https://creativecommons.org/licenses/by/2.0/","original_url":"https://perenual.com/storage/species_image/1091_astilbe_snowdrift/og/19706560074_8b03267103_b.jpg","regular_url":"https://perenual.com/storage/species_image/1091_astilbe_snowdrift/regular/19706560074_8b03267103_b.jpg","medium_url":"https://perenual.com/storage/species_image/1091_astilbe_snowdrift/medium/19706560074_8b03267103_b.jpg","small_url":"https://perenual.com/storage/species_image/1091_astilbe_snowdrift/small/19706560074_8b03267103_b.jpg","thumbnail":"https://perenual.com/storage/species_image/1091_astilbe_snowdrift/thumbnail/19706560074_8b03267103_b.jpg"}},{"id":1092,"common_name":"astilbe","scientific_name":["Astilbe 'Sprite'"],"other_name":null,"cycle":"Perennial","watering":"Average","sunlight":["Part shade","full shade"],"default_image":{"image_id":2596,"license":5,"license_name":"Attribution-ShareAlike License","license_url":"https://creativecommons.org/licenses/by-sa/2.0/","original_url":"https://perenual.com/storage/species_image/1092_astilbe_sprite/og/33665406066_359cb18761_b.jpg","regular_url":"https://perenual.com/storage/species_image/1092_astilbe_sprite/regular/33665406066_359cb18761_b.jpg","medium_url":"https://perenual.com/storage/species_image/1092_astilbe_sprite/medium/33665406066_359cb18761_b.jpg","small_url":"https://perenual.com/storage/species_image/1092_astilbe_sprite/small/33665406066_359cb18761_b.jpg","thumbnail":"https://perenual.com/storage/species_image/1092_astilbe_sprite/thumbnail/33665406066_359cb18761_b.jpg"}},{"id":1093,"common_name":"astilbe","scientific_name":["Astilbe 'Straussenfeder' OSTRICH PLUME"],"other_name":null,"cycle":"Perennial","watering":"Average","sunlight":["Part shade","full shade"],"default_image":{"image_id":2555,"license":4,"license_name":"Attribution License","license_url":"https://creativecommons.org/licenses/by/2.0/","original_url":"https://perenual.com/storage/species_image/1093_astilbe_straussenfeder_ostrich_plume/og/52182349570_1e2bff09bb_b.jpg","regular_url":"https://perenual.com/storage/species_image/1093_astilbe_straussenfeder_ostrich_plume/regular/52182349570_1e2bff09bb_b.jpg","medium_url":"https://perenual.com/storage/species_image/1093_astilbe_straussenfeder_ostrich_plume/medium/52182349570_1e2bff09bb_b.jpg","small_url":"https://perenual.com/storage/species_image/1093_astilbe_straussenfeder_ostrich_plume/small/52182349570_1e2bff09bb_b.jpg","thumbnail":"https://perenual.com/storage/species_image/1093_astilbe_straussenfeder_ostrich_plume/thumbnail/52182349570_1e2bff09bb_b.jpg"}},{"id":1094,"common_name":"astilbe","scientific_name":["Astilbe 'Verscarmine' YOUNIQUE CARMINE"],"other_name":null,"cycle":"Perennial","watering":"Average","sunlight":["Part shade","full shade"],"default_image":{"image_id":2561,"license":6,"license_name":"Attribution-NoDerivs License","license_url":"https://creativecommons.org/licenses/by-nd/2.0/","original_url":"https://perenual.com/storage/species_image/1094_astilbe_verscarmine_younique_carmine/og/52275778975_608b8fe6c2_b.jpg"}},{"id":1095,"common_name":"astilboides","scientific_name":["Astilboides tabularis"],"other_name":null,"cycle":"Perennial","watering":"Average","sunlight":["Part shade","full shade"],"default_image":{"image_id":2602,"license":4,"license_name":"Attribution License","license_url":"https://creativecommons.org/licenses/by/2.0/","original_url":"https://perenual.com/storage/species_image/1095_astilboides_tabularis/og/4829354669_013486d54c_b.jpg","regular_url":"https://perenual.com/storage/species_image/1095_astilboides_tabularis/regular/4829354669_013486d54c_b.jpg","medium_url":"https://perenual.com/storage/species_image/1095_astilboides_tabularis/medium/4829354669_013486d54c_b.jpg","small_url":"https://perenual.com/storage/species_image/1095_astilboides_tabularis/small/4829354669_013486d54c_b.jpg","thumbnail":"https://perenual.com/storage/species_image/1095_astilboides_tabularis/thumbnail/4829354669_013486d54c_b.jpg"}},{"id":1096,"common_name":"two-grooved milkvetch","scientific_name":["Astragalus bisulcatus"],"other_name":null,"cycle":"Perennial","watering":"Minimum","sunlight":[],"default_image":{"image_id":2604,"license":5,"license_name":"Attribution-ShareAlike License","license_url":"https://creativecommons.org/licenses/by-sa/2.0/","original_url":"https://perenual.com/storage/species_image/1096_astragalus_bisulcatus/og/52157395732_a81cbf8cfe_b.jpg","regular_url":"https://perenual.com/storage/species_image/1096_astragalus_bisulcatus/regular/52157395732_a81cbf8cfe_b.jpg","medium_url":"https://perenual.com/storage/species_image/1096_astragalus_bisulcatus/medium/52157395732_a81cbf8cfe_b.jpg","small_url":"https://perenual.com/storage/species_image/1096_astragalus_bisulcatus/small/52157395732_a81cbf8cfe_b.jpg","thumbnail":"https://perenual.com/storage/species_image/1096_astragalus_bisulcatus/thumbnail/52157395732_a81cbf8cfe_b.jpg"}},{"id":1097,"common_name":"milk vetch","scientific_name":["Astragalus canadensis"],"other_name":null,"cycle":"Perennial","watering":"Average","sunlight":["Sun"],"default_image":{"image_id":9,"license":5,"license_name":"Attribution-ShareAlike License","license_url":"https://creativecommons.org/licenses/by-sa/2.0/","original_url":"https://perenual.com/storage/species_image/2_abies_alba_pyramidalis/og/49255769768_df55596553_b.jpg","regular_url":"https://perenual.com/storage/species_image/2_abies_alba_pyramidalis/regular/49255769768_df55596553_b.jpg","medium_url":"https://perenual.com/storage/species_image/2_abies_alba_pyramidalis/medium/49255769768_df55596553_b.jpg","small_url":"https://perenual.com/storage/species_image/2_abies_alba_pyramidalis/small/49255769768_df55596553_b.jpg","thumbnail":"https://perenual.com/storage/species_image/2_abies_alba_pyramidalis/thumbnail/49255769768_df55596553_b.jpg"}},{"id":1098,"common_name":"ground plum","scientific_name":["Astragalus crassicarpus"],"other_name":["Buffalo Bean","Groundplum Milk Vetch"],"cycle":"Perennial","watering":"Minimum","sunlight":["Full sun"],"default_image":{"image_id":2616,"license":5,"license_name":"Attribution-ShareAlike License","license_url":"https://creativecommons.org/licenses/by-sa/2.0/","original_url":"https://perenual.com/storage/species_image/1098_astragalus_crassicarpus/og/5258391576_e4425517d4_b.jpg","regular_url":"https://perenual.com/storage/species_image/1098_astragalus_crassicarpus/regular/5258391576_e4425517d4_b.jpg","medium_url":"https://perenual.com/storage/species_image/1098_astragalus_crassicarpus/medium/5258391576_e4425517d4_b.jpg","small_url":"https://perenual.com/storage/species_image/1098_astragalus_crassicarpus/small/5258391576_e4425517d4_b.jpg","thumbnail":"https://perenual.com/storage/species_image/1098_astragalus_crassicarpus/thumbnail/5258391576_e4425517d4_b.jpg"}},{"id":1099,"common_name":"greater masterwort","scientific_name":["Astrantia 'Buckland'"],"other_name":null,"cycle":"Perennial","watering":"Frequent","sunlight":["Part shade"],"default_image":{"image_id":2624,"license":5,"license_name":"Attribution-ShareAlike License","license_url":"https://creativecommons.org/licenses/by-sa/2.0/","original_url":"https://perenual.com/storage/species_image/1099_astrantia_buckland/og/14181896649_45e66ae7dd_b.jpg","regular_url":"https://perenual.com/storage/species_image/1099_astrantia_buckland/regular/14181896649_45e66ae7dd_b.jpg","medium_url":"https://perenual.com/storage/species_image/1099_astrantia_buckland/medium/14181896649_45e66ae7dd_b.jpg","small_url":"https://perenual.com/storage/species_image/1099_astrantia_buckland/small/14181896649_45e66ae7dd_b.jpg","thumbnail":"https://perenual.com/storage/species_image/1099_astrantia_buckland/thumbnail/14181896649_45e66ae7dd_b.jpg"}},{"id":1100,"common_name":"greater masterwort","scientific_name":["Astrantia 'Magnum Blush'"],"other_name":null,"cycle":"Perennial","watering":"Frequent","sunlight":["Part shade"],"default_image":{"image_id":2626,"license":4,"license_name":"Attribution License","license_url":"https://creativecommons.org/licenses/by/2.0/","original_url":"https://perenual.com/storage/species_image/1111_astrantia_superstar/og/52263383879_ca05314c09_b.jpg","regular_url":"https://perenual.com/storage/species_image/1111_astrantia_superstar/regular/52263383879_ca05314c09_b.jpg","medium_url":"https://perenual.com/storage/species_image/1111_astrantia_superstar/medium/52263383879_ca05314c09_b.jpg","small_url":"https://perenual.com/storage/species_image/1111_astrantia_superstar/small/52263383879_ca05314c09_b.jpg","thumbnail":"https://perenual.com/storage/species_image/1111_astrantia_superstar/thumbnail/52263383879_ca05314c09_b.jpg"}},{"id":1101,"common_name":"greater masterwort","scientific_name":["Astrantia major"],"other_name":["astrantia"],"cycle":"Perennial","watering":"Frequent","sunlight":[],"default_image":{"image_id":2626,"license":4,"license_name":"Attribution License","license_url":"https://creativecommons.org/licenses/by/2.0/","original_url":"https://perenual.com/storage/species_image/1111_astrantia_superstar/og/52263383879_ca05314c09_b.jpg","regular_url":"https://perenual.com/storage/species_image/1111_astrantia_superstar/regular/52263383879_ca05314c09_b.jpg","medium_url":"https://perenual.com/storage/species_image/1111_astrantia_superstar/medium/52263383879_ca05314c09_b.jpg","small_url":"https://perenual.com/storage/species_image/1111_astrantia_superstar/small/52263383879_ca05314c09_b.jpg","thumbnail":"https://perenual.com/storage/species_image/1111_astrantia_superstar/thumbnail/52263383879_ca05314c09_b.jpg"}},{"id":1102,"common_name":"masterwort","scientific_name":["Astrantia major 'Claret'"],"other_name":["astrantia"],"cycle":"Perennial","watering":"Frequent","sunlight":[],"default_image":{"image_id":2630,"license":5,"license_name":"Attribution-ShareAlike License","license_url":"https://creativecommons.org/licenses/by-sa/2.0/","original_url":"https://perenual.com/storage/species_image/1102_astrantia_major_claret/og/33322082740_3d163af8ce_b.jpg","regular_url":"https://perenual.com/storage/species_image/1102_astrantia_major_claret/regular/33322082740_3d163af8ce_b.jpg","medium_url":"https://perenual.com/storage/species_image/1102_astrantia_major_claret/medium/33322082740_3d163af8ce_b.jpg","small_url":"https://perenual.com/storage/species_image/1102_astrantia_major_claret/small/33322082740_3d163af8ce_b.jpg","thumbnail":"https://perenual.com/storage/species_image/1102_astrantia_major_claret/thumbnail/33322082740_3d163af8ce_b.jpg"}},{"id":1103,"common_name":"masterwort","scientific_name":["Astrantia major 'Roma'"],"other_name":["astrantia"],"cycle":"Perennial","watering":"Frequent","sunlight":[],"default_image":{"image_id":2632,"license":5,"license_name":"Attribution-ShareAlike License","license_url":"https://creativecommons.org/licenses/by-sa/2.0/","original_url":"https://perenual.com/storage/species_image/1103_astrantia_major_roma/og/33706335785_38b4f79a8f_b.jpg","regular_url":"https://perenual.com/storage/species_image/1103_astrantia_major_roma/regular/33706335785_38b4f79a8f_b.jpg","medium_url":"https://perenual.com/storage/species_image/1103_astrantia_major_roma/medium/33706335785_38b4f79a8f_b.jpg","small_url":"https://perenual.com/storage/species_image/1103_astrantia_major_roma/small/33706335785_38b4f79a8f_b.jpg","thumbnail":"https://perenual.com/storage/species_image/1103_astrantia_major_roma/thumbnail/33706335785_38b4f79a8f_b.jpg"}},{"id":1104,"common_name":"masterwort","scientific_name":["Astrantia major 'Rubra'"],"other_name":["astrantia"],"cycle":"Perennial","watering":"Frequent","sunlight":[],"default_image":{"image_id":2635,"license":4,"license_name":"Attribution License","license_url":"https://creativecommons.org/licenses/by/2.0/","original_url":"https://perenual.com/storage/species_image/1104_astrantia_major_rubra/og/52178475412_8170bfc5c7_b.jpg","regular_url":"https://perenual.com/storage/species_image/1104_astrantia_major_rubra/regular/52178475412_8170bfc5c7_b.jpg","medium_url":"https://perenual.com/storage/species_image/1104_astrantia_major_rubra/medium/52178475412_8170bfc5c7_b.jpg","small_url":"https://perenual.com/storage/species_image/1104_astrantia_major_rubra/small/52178475412_8170bfc5c7_b.jpg","thumbnail":"https://perenual.com/storage/species_image/1104_astrantia_major_rubra/thumbnail/52178475412_8170bfc5c7_b.jpg"}},{"id":1105,"common_name":"greater masterwort","scientific_name":["Astrantia major 'Ruby Cloud'"],"other_name":["astrantia"],"cycle":"Perennial","watering":"Frequent","sunlight":[],"default_image":{"image_id":2638,"license":5,"license_name":"Attribution-ShareAlike License","license_url":"https://creativecommons.org/licenses/by-sa/2.0/","original_url":"https://perenual.com/storage/species_image/1105_astrantia_major_ruby_cloud/og/35203549895_5e0f7f5c0a_b.jpg","regular_url":"https://perenual.com/storage/species_image/1105_astrantia_major_ruby_cloud/regular/35203549895_5e0f7f5c0a_b.jpg","medium_url":"https://perenual.com/storage/species_image/1105_astrantia_major_ruby_cloud/medium/35203549895_5e0f7f5c0a_b.jpg","small_url":"https://perenual.com/storage/species_image/1105_astrantia_major_ruby_cloud/small/35203549895_5e0f7f5c0a_b.jpg","thumbnail":"https://perenual.com/storage/species_image/1105_astrantia_major_ruby_cloud/thumbnail/35203549895_5e0f7f5c0a_b.jpg"}},{"id":1106,"common_name":"greater masterwort","scientific_name":["Astrantia major subsp. involucrata 'Shaggy'"],"other_name":["astrantia"],"cycle":"Perennial","watering":"Frequent","sunlight":[],"default_image":{"image_id":2628,"license":4,"license_name":"Attribution License","license_url":"https://creativecommons.org/licenses/by/2.0/","original_url":"https://perenual.com/storage/species_image/1106_astrantia_major_subsp_involucrata_shaggy/og/52155011694_1ee2953c87_b.jpg","regular_url":"https://perenual.com/storage/species_image/1106_astrantia_major_subsp_involucrata_shaggy/regular/52155011694_1ee2953c87_b.jpg","medium_url":"https://perenual.com/storage/species_image/1106_astrantia_major_subsp_involucrata_shaggy/medium/52155011694_1ee2953c87_b.jpg","small_url":"https://perenual.com/storage/species_image/1106_astrantia_major_subsp_involucrata_shaggy/small/52155011694_1ee2953c87_b.jpg","thumbnail":"https://perenual.com/storage/species_image/1106_astrantia_major_subsp_involucrata_shaggy/thumbnail/52155011694_1ee2953c87_b.jpg"}},{"id":1107,"common_name":"masterwort","scientific_name":["Astrantia major 'Sunningdale Variegated'"],"other_name":["astrantia"],"cycle":"Perennial","watering":"Frequent","sunlight":[],"default_image":{"image_id":2640,"license":5,"license_name":"Attribution-ShareAlike License","license_url":"https://creativecommons.org/licenses/by-sa/2.0/","original_url":"https://perenual.com/storage/species_image/1107_astrantia_major_sunningdale_variegated/og/14395789047_b1accf8fd8_b.jpg","regular_url":"https://perenual.com/storage/species_image/1107_astrantia_major_sunningdale_variegated/regular/14395789047_b1accf8fd8_b.jpg","medium_url":"https://perenual.com/storage/species_image/1107_astrantia_major_sunningdale_variegated/medium/14395789047_b1accf8fd8_b.jpg","small_url":"https://perenual.com/storage/species_image/1107_astrantia_major_sunningdale_variegated/small/14395789047_b1accf8fd8_b.jpg","thumbnail":"https://perenual.com/storage/species_image/1107_astrantia_major_sunningdale_variegated/thumbnail/14395789047_b1accf8fd8_b.jpg"}},{"id":1108,"common_name":"masterwort","scientific_name":["Astrantia major 'Venice'"],"other_name":["astrantia"],"cycle":"Perennial","watering":"Frequent","sunlight":[],"default_image":{"image_id":2647,"license":4,"license_name":"Attribution License","license_url":"https://creativecommons.org/licenses/by/2.0/","original_url":"https://perenual.com/storage/species_image/1108_astrantia_major_venice/og/19410163606_2c6e014cfd_b.jpg","regular_url":"https://perenual.com/storage/species_image/1108_astrantia_major_venice/regular/19410163606_2c6e014cfd_b.jpg","medium_url":"https://perenual.com/storage/species_image/1108_astrantia_major_venice/medium/19410163606_2c6e014cfd_b.jpg","small_url":"https://perenual.com/storage/species_image/1108_astrantia_major_venice/small/19410163606_2c6e014cfd_b.jpg","thumbnail":"https://perenual.com/storage/species_image/1108_astrantia_major_venice/thumbnail/19410163606_2c6e014cfd_b.jpg"}},{"id":1109,"common_name":"masterwort","scientific_name":["Astrantia 'Snow Star'"],"other_name":null,"cycle":"Perennial","watering":"Frequent","sunlight":["Part shade"],"default_image":{"image_id":2627,"license":4,"license_name":"Attribution License","license_url":"https://creativecommons.org/licenses/by/2.0/","original_url":"https://perenual.com/storage/species_image/1111_astrantia_superstar/og/52186534929_e707e05f09_b.jpg","regular_url":"https://perenual.com/storage/species_image/1111_astrantia_superstar/regular/52186534929_e707e05f09_b.jpg","medium_url":"https://perenual.com/storage/species_image/1111_astrantia_superstar/medium/52186534929_e707e05f09_b.jpg","small_url":"https://perenual.com/storage/species_image/1111_astrantia_superstar/small/52186534929_e707e05f09_b.jpg","thumbnail":"https://perenual.com/storage/species_image/1111_astrantia_superstar/thumbnail/52186534929_e707e05f09_b.jpg"}},{"id":1110,"common_name":"masterwort","scientific_name":["Astrantia 'Star of Beauty'"],"other_name":null,"cycle":"Perennial","watering":"Frequent","sunlight":["Part shade"],"default_image":{"image_id":2648,"license":5,"license_name":"Attribution-ShareAlike License","license_url":"https://creativecommons.org/licenses/by-sa/2.0/","original_url":"https://perenual.com/storage/species_image/1110_astrantia_star_of_beauty/og/33706328915_fb8feeb164_b.jpg","regular_url":"https://perenual.com/storage/species_image/1110_astrantia_star_of_beauty/regular/33706328915_fb8feeb164_b.jpg","medium_url":"https://perenual.com/storage/species_image/1110_astrantia_star_of_beauty/medium/33706328915_fb8feeb164_b.jpg","small_url":"https://perenual.com/storage/species_image/1110_astrantia_star_of_beauty/small/33706328915_fb8feeb164_b.jpg","thumbnail":"https://perenual.com/storage/species_image/1110_astrantia_star_of_beauty/thumbnail/33706328915_fb8feeb164_b.jpg"}}],"to":1110,"per_page":30,"current_page":37,"from":1081,"last_page":200,"total":6000}