{"data":[{"id":181,"common_name":"Marina Strawberry Tree","scientific_name":["Arbutus 'Marina'"],"other_name":null,"cycle":"Perennial","watering":"Frequent","sunlight":[],"default_image":{"image_id":263,"license":4,"license_name":"Attribution License","license_url":"https://creativecommons.org/licenses/by/2.0/","original_url":"https://perenual.com/storage/species_image/918_arbutus_andrachnoides/og/50783640608_7dfdc41b15_b.jpg","regular_url":"https://perenual.com/storage/species_image/918_arbutus_andrachnoides/regular/50783640608_7dfdc41b15_b.jpg","medium_url":"https://perenual.com/storage/species_image/918_arbutus_andrachnoides/medium/50783640608_7dfdc41b15_b.jpg","small_url":"https://perenual.com/storage/species_image/918_arbutus_andrachnoides/small/50783640608_7dfdc41b15_b.jpg","thumbnail":"https://perenual.com/storage/species_image/918_arbutus_andrachnoides/thumbnail/50783640608_7dfdc41b15_b.jpg"}},{"id":182,"common_name":"Pacific Madrone*","scientific_name":["Arbutus menziesii"],"other_name":["Madrona; Bearberry; Strawberry Tree","madrona"],"cycle":"Perennial","watering":"Minimum","sunlight":["Sun"],"default_image":{"image_id":272,"license":4,"license_name":"Attribution License","license_url":"https://creativecommons.org/licenses/by/2.0/","original_url":"https://perenual.com/storage/species_image/182_arbutus_menziesii/og/22374647353_94489902ef_b.jpg","regular_url":"https://perenual.com/storage/species_image/182_arbutus_menziesii/regular/22374647353_94489902ef_b.jpg","medium_url":"https://perenual.com/storage/species_image/182_arbutus_menziesii/medium/22374647353_94489902ef_b.jpg","small_url":"https://perenual.com/storage/species_image/182_arbutus_menziesii/small/22374647353_94489902ef_b.jpg","thumbnail":"https://perenual.com/storage/species_image/182_arbutus_menziesii/thumbnail/22374647353_94489902ef_b.jpg"}},{"id":183,"common_name":"Strawberry Tree","scientific_name":["Arbutus unedo"],"other_name":["Apple of Cain; Cane Apple"],"cycle":"Perennial","watering":"Minimum","sunlight":["Full sun"," Part sun/part shade"," Sheltered"],"default_image":{"image_id":281,"license":6,"license_name":"Attribution-NoDerivs License","license_url":"https://creativecommons.org/licenses/by-nd/2.0/","original_url":"https://perenual.com/storage/species_image/183_arbutus_unedo/og/50433219232_449b440340_b.jpg"}},{"id":184,"common_name":"Common Paw Paw","scientific_name":["Asimina triloba"],"other_name":["Pawpaw Apple","False-Banana","Poor Man's Banana","Pawpaw","False Banana","Pawpaw Custardapple"],"cycle":"Perennial","watering":"Frequent","sunlight":["Sun"," Partial Shade"," Shade"],"default_image":{"image_id":285,"license":5,"license_name":"Attribution-ShareAlike License","license_url":"https://creativecommons.org/licenses/by-sa/2.0/","original_url":"https://perenual.com/storage/species_image/184_asimina_triloba/og/36488336082_9d0132fcd0_b.jpg","regular_url":"https://perenual.com/storage/species_image/184_asimina_triloba/regular/36488336082_9d0132fcd0_b.jpg","medium_url":"https://perenual.com/storage/species_image/184_asimina_triloba/medium/36488336082_9d0132fcd0_b.jpg","small_url":"https://perenual.com/storage/species_image/184_asimina_triloba/small/36488336082_9d0132fcd0_b.jpg","thumbnail":"https://perenual.com/storage/species_image/184_asimina_triloba/thumbnail/36488336082_9d0132fcd0_b.jpg"}},{"id":185,"common_name":"Crimson Frost Birch","scientific_name":["Betula 'Crimson Frost'"],"other_name":null,"cycle":"Perennial","watering":"Frequent","sunlight":["Full sun","part shade"],"default_image":{"image_id":3009,"license":45,"license_name":"Attribution-ShareAlike 3.0 Unported (CC BY-SA 3.0)","license_url":"https://creativecommons.org/licenses/by-sa/3.0/deed.en","original_url":"https://perenual.com/storage/species_image/185_betula_crimson_frost/og/B._pubescens_f._rubra_2.jpg","regular_url":"https://perenual.com/storage/species_image/185_betula_crimson_frost/regular/B._pubescens_f._rubra_2.jpg","medium_url":"https://perenual.com/storage/species_image/185_betula_crimson_frost/medium/B._pubescens_f._rubra_2.jpg","small_url":"https://perenual.com/storage/species_image/185_betula_crimson_frost/small/B._pubescens_f._rubra_2.jpg","thumbnail":"https://perenual.com/storage/species_image/185_betula_crimson_frost/thumbnail/B._pubescens_f._rubra_2.jpg"}},{"id":186,"common_name":"River Birch","scientific_name":["Betula nigra"],"other_name":["Red Birch"],"cycle":"Perennial","watering":"Frequent","sunlight":["Full sun","part shade"],"default_image":{"image_id":296,"license":5,"license_name":"Attribution-ShareAlike License","license_url":"https://creativecommons.org/licenses/by-sa/2.0/","original_url":"https://perenual.com/storage/species_image/186_betula_nigra/og/38242143172_2670c4b8e2_b.jpg","regular_url":"https://perenual.com/storage/species_image/186_betula_nigra/regular/38242143172_2670c4b8e2_b.jpg","medium_url":"https://perenual.com/storage/species_image/186_betula_nigra/medium/38242143172_2670c4b8e2_b.jpg","small_url":"https://perenual.com/storage/species_image/186_betula_nigra/small/38242143172_2670c4b8e2_b.jpg","thumbnail":"https://perenual.com/storage/species_image/186_betula_nigra/thumbnail/38242143172_2670c4b8e2_b.jpg"}},{"id":187,"common_name":"River Birch (clump)","scientific_name":["Betula nigra '(clump)'"],"other_name":["Red Birch"],"cycle":"Perennial","watering":"Frequent","sunlight":["Full sun","part shade"],"default_image":{"image_id":21079,"license":5,"license_name":"Attribution-ShareAlike License","license_url":"https://creativecommons.org/licenses/by-sa/2.0/","original_url":"https://perenual.com/storage/species_image/187_betula_nigra_clump/og/23420494494_ce4115fc2c_b.jpg","regular_url":"https://perenual.com/storage/species_image/187_betula_nigra_clump/regular/23420494494_ce4115fc2c_b.jpg","medium_url":"https://perenual.com/storage/species_image/187_betula_nigra_clump/medium/23420494494_ce4115fc2c_b.jpg","small_url":"https://perenual.com/storage/species_image/187_betula_nigra_clump/small/23420494494_ce4115fc2c_b.jpg","thumbnail":"https://perenual.com/storage/species_image/187_betula_nigra_clump/thumbnail/23420494494_ce4115fc2c_b.jpg"}},{"id":188,"common_name":"Summer Cascade Weeping River Birch","scientific_name":["Betula nigra 'Summer Cascade'"],"other_name":["Red Birch"],"cycle":"Perennial","watering":"Frequent","sunlight":["Full sun","part shade"],"default_image":{"image_id":21082,"license":45,"license_name":"Attribution-ShareAlike 3.0 Unported (CC BY-SA 3.0)","license_url":"https://creativecommons.org/licenses/by-sa/3.0/deed.en","original_url":"https://perenual.com/storage/species_image/188_betula_nigra_summer_cascade/og/Betula_nigra_Summer_Cascade_0zz.jpg","regular_url":"https://perenual.com/storage/species_image/188_betula_nigra_summer_cascade/regular/Betula_nigra_Summer_Cascade_0zz.jpg","medium_url":"https://perenual.com/storage/species_image/188_betula_nigra_summer_cascade/medium/Betula_nigra_Summer_Cascade_0zz.jpg","small_url":"https://perenual.com/storage/species_image/188_betula_nigra_summer_cascade/small/Betula_nigra_Summer_Cascade_0zz.jpg","thumbnail":"https://perenual.com/storage/species_image/188_betula_nigra_summer_cascade/thumbnail/Betula_nigra_Summer_Cascade_0zz.jpg"}},{"id":189,"common_name":"Paper Birch","scientific_name":["Betula papyrifera"],"other_name":["White Birch","Canoe Birch"],"cycle":"Perennial","watering":"Frequent","sunlight":[],"default_image":{"image_id":302,"license":4,"license_name":"Attribution License","license_url":"https://creativecommons.org/licenses/by/2.0/","original_url":"https://perenual.com/storage/species_image/189_betula_papyrifera/og/29933086455_99ed2521e9_b.jpg","regular_url":"https://perenual.com/storage/species_image/189_betula_papyrifera/regular/29933086455_99ed2521e9_b.jpg","medium_url":"https://perenual.com/storage/species_image/189_betula_papyrifera/medium/29933086455_99ed2521e9_b.jpg","small_url":"https://perenual.com/storage/species_image/189_betula_papyrifera/small/29933086455_99ed2521e9_b.jpg","thumbnail":"https://perenual.com/storage/species_image/189_betula_papyrifera/thumbnail/29933086455_99ed2521e9_b.jpg"}},{"id":190,"common_name":"Clump Paper Birch","scientific_name":["Betula papyrifera '(clump)'"],"other_name":["White Birch","Canoe Birch"],"cycle":"Perennial","watering":"Frequent","sunlight":[],"default_image":{"image_id":9,"license":5,"license_name":"Attribution-ShareAlike License","license_url":"https://creativecommons.org/licenses/by-sa/2.0/","original_url":"https://perenual.com/storage/species_image/2_abies_alba_pyramidalis/og/49255769768_df55596553_b.jpg","regular_url":"https://perenual.com/storage/species_image/2_abies_alba_pyramidalis/regular/49255769768_df55596553_b.jpg","medium_url":"https://perenual.com/storage/species_image/2_abies_alba_pyramidalis/medium/49255769768_df55596553_b.jpg","small_url":"https://perenual.com/storage/species_image/2_abies_alba_pyramidalis/small/49255769768_df55596553_b.jpg","thumbnail":"https://perenual.com/storage/species_image/2_abies_alba_pyramidalis/thumbnail/49255769768_df55596553_b.jpg"}},{"id":191,"common_name":"Whitespire Birch","scientific_name":["Betula populifolia 'Whitespire'"],"other_name":["Betula platyphylla"],"cycle":"Perennial","watering":"Frequent","sunlight":["Sun"," Partial Shade"," Shade"],"default_image":{"image_id":9,"license":5,"license_name":"Attribution-ShareAlike License","license_url":"https://creativecommons.org/licenses/by-sa/2.0/","original_url":"https://perenual.com/storage/species_image/2_abies_alba_pyramidalis/og/49255769768_df55596553_b.jpg","regular_url":"https://perenual.com/storage/species_image/2_abies_alba_pyramidalis/regular/49255769768_df55596553_b.jpg","medium_url":"https://perenual.com/storage/species_image/2_abies_alba_pyramidalis/medium/49255769768_df55596553_b.jpg","small_url":"https://perenual.com/storage/species_image/2_abies_alba_pyramidalis/small/49255769768_df55596553_b.jpg","thumbnail":"https://perenual.com/storage/species_image/2_abies_alba_pyramidalis/thumbnail/49255769768_df55596553_b.jpg"}},{"id":192,"common_name":"Whitebark Himalayan Birch","scientific_name":["Betula utilis 'var. jacquemontii'"],"other_name":["White Bark Birch"],"cycle":"Perennial","watering":"Average","sunlight":["Full sun","part shade"],"default_image":{"image_id":310,"license":4,"license_name":"Attribution License","license_url":"https://creativecommons.org/licenses/by/2.0/","original_url":"https://perenual.com/storage/species_image/1293_betula_utilis_var_jacquemontii/og/9020914937_f8664866cf_b.jpg","regular_url":"https://perenual.com/storage/species_image/1293_betula_utilis_var_jacquemontii/regular/9020914937_f8664866cf_b.jpg","medium_url":"https://perenual.com/storage/species_image/1293_betula_utilis_var_jacquemontii/medium/9020914937_f8664866cf_b.jpg","small_url":"https://perenual.com/storage/species_image/1293_betula_utilis_var_jacquemontii/small/9020914937_f8664866cf_b.jpg","thumbnail":"https://perenual.com/storage/species_image/1293_betula_utilis_var_jacquemontii/thumbnail/9020914937_f8664866cf_b.jpg"}},{"id":193,"common_name":"California Incense Cedar","scientific_name":["Calocedrus decurrens"],"other_name":["Incensecedar"],"cycle":"Perennial","watering":"Average","sunlight":["Full sun","part shade"],"default_image":{"image_id":314,"license":5,"license_name":"Attribution-ShareAlike License","license_url":"https://creativecommons.org/licenses/by-sa/2.0/","original_url":"https://perenual.com/storage/species_image/193_calocedrus_decurrens/og/49153226872_1bf8feac75_b.jpg","regular_url":"https://perenual.com/storage/species_image/193_calocedrus_decurrens/regular/49153226872_1bf8feac75_b.jpg","medium_url":"https://perenual.com/storage/species_image/193_calocedrus_decurrens/medium/49153226872_1bf8feac75_b.jpg","small_url":"https://perenual.com/storage/species_image/193_calocedrus_decurrens/small/49153226872_1bf8feac75_b.jpg","thumbnail":"https://perenual.com/storage/species_image/193_calocedrus_decurrens/thumbnail/49153226872_1bf8feac75_b.jpg"}},{"id":194,"common_name":"European Hornbeam","scientific_name":["Carpinus betulus"],"other_name":["Common Hornbeam"],"cycle":"Perennial","watering":"Average","sunlight":["Full sun","part shade"],"default_image":{"image_id":321,"license":5,"license_name":"Attribution-ShareAlike License","license_url":"https://creativecommons.org/licenses/by-sa/2.0/","original_url":"https://perenual.com/storage/species_image/194_carpinus_betulus/og/52308565694_a3de5a41fc_b.jpg","regular_url":"https://perenual.com/storage/species_image/194_carpinus_betulus/regular/52308565694_a3de5a41fc_b.jpg","medium_url":"https://perenual.com/storage/species_image/194_carpinus_betulus/medium/52308565694_a3de5a41fc_b.jpg","small_url":"https://perenual.com/storage/species_image/194_carpinus_betulus/small/52308565694_a3de5a41fc_b.jpg","thumbnail":"https://perenual.com/storage/species_image/194_carpinus_betulus/thumbnail/52308565694_a3de5a41fc_b.jpg"}},{"id":195,"common_name":"Pyramidal European Hornbeam","scientific_name":["Carpinus betulus 'Fastigiata'"],"other_name":["Common Hornbeam"],"cycle":"Perennial","watering":"Average","sunlight":["Full sun","part shade"],"default_image":{"image_id":323,"license":4,"license_name":"Attribution License","license_url":"https://creativecommons.org/licenses/by/2.0/","original_url":"https://perenual.com/storage/species_image/196_carpinus_betulus_frans_fontaine/og/49080668718_25410417d6_b.jpg","regular_url":"https://perenual.com/storage/species_image/196_carpinus_betulus_frans_fontaine/regular/49080668718_25410417d6_b.jpg","medium_url":"https://perenual.com/storage/species_image/196_carpinus_betulus_frans_fontaine/medium/49080668718_25410417d6_b.jpg","small_url":"https://perenual.com/storage/species_image/196_carpinus_betulus_frans_fontaine/small/49080668718_25410417d6_b.jpg","thumbnail":"https://perenual.com/storage/species_image/196_carpinus_betulus_frans_fontaine/thumbnail/49080668718_25410417d6_b.jpg"}},{"id":196,"common_name":"Frans Fontaine Hornbeam","scientific_name":["Carpinus betulus 'Frans Fontaine'"],"other_name":["Common Hornbeam"],"cycle":"Perennial","watering":"Average","sunlight":["Full sun","part shade"],"default_image":{"image_id":323,"license":4,"license_name":"Attribution License","license_url":"https://creativecommons.org/licenses/by/2.0/","original_url":"https://perenual.com/storage/species_image/196_carpinus_betulus_frans_fontaine/og/49080668718_25410417d6_b.jpg","regular_url":"https://perenual.com/storage/species_image/196_carpinus_betulus_frans_fontaine/regular/49080668718_25410417d6_b.jpg","medium_url":"https://perenual.com/storage/species_image/196_carpinus_betulus_frans_fontaine/medium/49080668718_25410417d6_b.jpg","small_url":"https://perenual.com/storage/species_image/196_carpinus_betulus_frans_fontaine/small/49080668718_25410417d6_b.jpg","thumbnail":"https://perenual.com/storage/species_image/196_carpinus_betulus_frans_fontaine/thumbnail/49080668718_25410417d6_b.jpg"}},{"id":197,"common_name":"Weeping European Hornbeam","scientific_name":["Carpinus betulus 'Pendula'"],"other_name":["Common Hornbeam"],"cycle":"Perennial","watering":"Average","sunlight":["Full sun","part shade"],"default_image":{"image_id":21085,"license":45,"license_name":"Attribution-ShareAlike 3.0 Unported (CC BY-SA 3.0)","license_url":"https://creativecommons.org/licenses/by-sa/3.0/deed.en","original_url":"https://perenual.com/storage/species_image/197_carpinus_betulus_pendula/og/Carpinus_betulus_Pendula_1zz.jpg","regular_url":"https://perenual.com/storage/species_image/197_carpinus_betulus_pendula/regular/Carpinus_betulus_Pendula_1zz.jpg","medium_url":"https://perenual.com/storage/species_image/197_carpinus_betulus_pendula/medium/Carpinus_betulus_Pendula_1zz.jpg","small_url":"https://perenual.com/storage/species_image/197_carpinus_betulus_pendula/small/Carpinus_betulus_Pendula_1zz.jpg","thumbnail":"https://perenual.com/storage/species_image/197_carpinus_betulus_pendula/thumbnail/Carpinus_betulus_Pendula_1zz.jpg"}},{"id":198,"common_name":"Japanese Hornbeam","scientific_name":["Carpinus japonica"],"other_name":null,"cycle":"Perennial","watering":"Average","sunlight":["Part shade","full shade"],"default_image":{"image_id":330,"license":5,"license_name":"Attribution-ShareAlike License","license_url":"https://creativecommons.org/licenses/by-sa/2.0/","original_url":"https://perenual.com/storage/species_image/198_carpinus_japonica/og/21398773531_f81737abbd_b.jpg","regular_url":"https://perenual.com/storage/species_image/198_carpinus_japonica/regular/21398773531_f81737abbd_b.jpg","medium_url":"https://perenual.com/storage/species_image/198_carpinus_japonica/medium/21398773531_f81737abbd_b.jpg","small_url":"https://perenual.com/storage/species_image/198_carpinus_japonica/small/21398773531_f81737abbd_b.jpg","thumbnail":"https://perenual.com/storage/species_image/198_carpinus_japonica/thumbnail/21398773531_f81737abbd_b.jpg"}},{"id":199,"common_name":"Golden Catalpa","scientific_name":["Catalpa bignonioides 'Aurea'"],"other_name":["Southern Catalpa"],"cycle":"Perennial","watering":"Frequent","sunlight":[],"default_image":{"image_id":334,"license":5,"license_name":"Attribution-ShareAlike License","license_url":"https://creativecommons.org/licenses/by-sa/2.0/","original_url":"https://perenual.com/storage/species_image/199_catalpa_bignonioides_aurea/og/3772332964_5892151c41_b.jpg","regular_url":"https://perenual.com/storage/species_image/199_catalpa_bignonioides_aurea/regular/3772332964_5892151c41_b.jpg","medium_url":"https://perenual.com/storage/species_image/199_catalpa_bignonioides_aurea/medium/3772332964_5892151c41_b.jpg","small_url":"https://perenual.com/storage/species_image/199_catalpa_bignonioides_aurea/small/3772332964_5892151c41_b.jpg","thumbnail":"https://perenual.com/storage/species_image/199_catalpa_bignonioides_aurea/thumbnail/3772332964_5892151c41_b.jpg"}},{"id":200,"common_name":"Blue Atlas Cedar","scientific_name":["Cedrus atlantica 'Glauca'"],"other_name":null,"cycle":"Perennial","watering":"Average","sunlight":["Full sun"],"default_image":{"image_id":9,"license":5,"license_name":"Attribution-ShareAlike License","license_url":"https://creativecommons.org/licenses/by-sa/2.0/","original_url":"https://perenual.com/storage/species_image/2_abies_alba_pyramidalis/og/49255769768_df55596553_b.jpg","regular_url":"https://perenual.com/storage/species_image/2_abies_alba_pyramidalis/regular/49255769768_df55596553_b.jpg","medium_url":"https://perenual.com/storage/species_image/2_abies_alba_pyramidalis/medium/49255769768_df55596553_b.jpg","small_url":"https://perenual.com/storage/species_image/2_abies_alba_pyramidalis/small/49255769768_df55596553_b.jpg","thumbnail":"https://perenual.com/storage/species_image/2_abies_alba_pyramidalis/thumbnail/49255769768_df55596553_b.jpg"}},{"id":201,"common_name":"Deodar Cedar","scientific_name":["Cedrus deodara"],"other_name":["Himalayan Cedar"],"cycle":"Perennial","watering":"Average","sunlight":["Full sun"],"default_image":{"image_id":9,"license":5,"license_name":"Attribution-ShareAlike License","license_url":"https://creativecommons.org/licenses/by-sa/2.0/","original_url":"https://perenual.com/storage/species_image/2_abies_alba_pyramidalis/og/49255769768_df55596553_b.jpg","regular_url":"https://perenual.com/storage/species_image/2_abies_alba_pyramidalis/regular/49255769768_df55596553_b.jpg","medium_url":"https://perenual.com/storage/species_image/2_abies_alba_pyramidalis/medium/49255769768_df55596553_b.jpg","small_url":"https://perenual.com/storage/species_image/2_abies_alba_pyramidalis/small/49255769768_df55596553_b.jpg","thumbnail":"https://perenual.com/storage/species_image/2_abies_alba_pyramidalis/thumbnail/49255769768_df55596553_b.jpg"}},{"id":202,"common_name":"Golden Deodar Cedar","scientific_name":["Cedrus deodara 'Aurea'"],"other_name":["Himalayan Cedar"],"cycle":"Perennial","watering":"Average","sunlight":["Full sun"],"default_image":{"image_id":9,"license":5,"license_name":"Attribution-ShareAlike License","license_url":"https://creativecommons.org/licenses/by-sa/2.0/","original_url":"https://perenual.com/storage/species_image/2_abies_alba_pyramidalis/og/49255769768_df55596553_b.jpg","regular_url":"https://perenual.com/storage/species_image/2_abies_alba_pyramidalis/regular/49255769768_df55596553_b.jpg","medium_url":"https://perenual.com/storage/species_image/2_abies_alba_pyramidalis/medium/49255769768_df55596553_b.jpg","small_url":"https://perenual.com/storage/species_image/2_abies_alba_pyramidalis/small/49255769768_df55596553_b.jpg","thumbnail":"https://perenual.com/storage/species_image/2_abies_alba_pyramidalis/thumbnail/49255769768_df55596553_b.jpg"}},{"id":203,"common_name":"Bush's Electra Deodar Cedar","scientific_name":["Cedrus deodara 'Bush's Electra'"],"other_name":["Himalayan Cedar"],"cycle":"Perennial","watering":"Average","sunlight":["Full sun"],"default_image":{"image_id":21086,"license":45,"license_name":"Attribution-ShareAlike 3.0 Unported (CC BY-SA 3.0)","license_url":"https://creativecommons.org/licenses/by-sa/3.0/deed.en","original_url":"https://perenual.com/storage/species_image/203_cedrus_deodara_bushs_electra/og/Cedrus_deodara_11zz.jpg","regular_url":"https://perenual.com/storage/species_image/203_cedrus_deodara_bushs_electra/regular/Cedrus_deodara_11zz.jpg","medium_url":"https://perenual.com/storage/species_image/203_cedrus_deodara_bushs_electra/medium/Cedrus_deodara_11zz.jpg","small_url":"https://perenual.com/storage/species_image/203_cedrus_deodara_bushs_electra/small/Cedrus_deodara_11zz.jpg","thumbnail":"https://perenual.com/storage/species_image/203_cedrus_deodara_bushs_electra/thumbnail/Cedrus_deodara_11zz.jpg"}},{"id":204,"common_name":"Electra Blue Deodar Cedar","scientific_name":["Cedrus deodara 'Electra Blue'"],"other_name":["Himalayan Cedar"],"cycle":"Perennial","watering":"Average","sunlight":["Full sun"],"default_image":{"image_id":9,"license":5,"license_name":"Attribution-ShareAlike License","license_url":"https://creativecommons.org/licenses/by-sa/2.0/","original_url":"https://perenual.com/storage/species_image/2_abies_alba_pyramidalis/og/49255769768_df55596553_b.jpg","regular_url":"https://perenual.com/storage/species_image/2_abies_alba_pyramidalis/regular/49255769768_df55596553_b.jpg","medium_url":"https://perenual.com/storage/species_image/2_abies_alba_pyramidalis/medium/49255769768_df55596553_b.jpg","small_url":"https://perenual.com/storage/species_image/2_abies_alba_pyramidalis/small/49255769768_df55596553_b.jpg","thumbnail":"https://perenual.com/storage/species_image/2_abies_alba_pyramidalis/thumbnail/49255769768_df55596553_b.jpg"}},{"id":205,"common_name":"Karl Fuchs Deodar Cedar","scientific_name":["Cedrus deodara 'Karl Fuchs'"],"other_name":["Himalayan Cedar"],"cycle":"Perennial","watering":"Average","sunlight":["Full sun"],"default_image":{"image_id":9,"license":5,"license_name":"Attribution-ShareAlike License","license_url":"https://creativecommons.org/licenses/by-sa/2.0/","original_url":"https://perenual.com/storage/species_image/2_abies_alba_pyramidalis/og/49255769768_df55596553_b.jpg","regular_url":"https://perenual.com/storage/species_image/2_abies_alba_pyramidalis/regular/49255769768_df55596553_b.jpg","medium_url":"https://perenual.com/storage/species_image/2_abies_alba_pyramidalis/medium/49255769768_df55596553_b.jpg","small_url":"https://perenual.com/storage/species_image/2_abies_alba_pyramidalis/small/49255769768_df55596553_b.jpg","thumbnail":"https://perenual.com/storage/species_image/2_abies_alba_pyramidalis/thumbnail/49255769768_df55596553_b.jpg"}},{"id":206,"common_name":"Kashmir Deodar Cedar","scientific_name":["Cedrus deodara 'Kashmir'"],"other_name":["Himalayan Cedar"],"cycle":"Perennial","watering":"Average","sunlight":["Full sun"],"default_image":{"image_id":9,"license":5,"license_name":"Attribution-ShareAlike License","license_url":"https://creativecommons.org/licenses/by-sa/2.0/","original_url":"https://perenual.com/storage/species_image/2_abies_alba_pyramidalis/og/49255769768_df55596553_b.jpg","regular_url":"https://perenual.com/storage/species_image/2_abies_alba_pyramidalis/regular/49255769768_df55596553_b.jpg","medium_url":"https://perenual.com/storage/species_image/2_abies_alba_pyramidalis/medium/49255769768_df55596553_b.jpg","small_url":"https://perenual.com/storage/species_image/2_abies_alba_pyramidalis/small/49255769768_df55596553_b.jpg","thumbnail":"https://perenual.com/storage/species_image/2_abies_alba_pyramidalis/thumbnail/49255769768_df55596553_b.jpg"}},{"id":207,"common_name":"Cedar of Lebanon","scientific_name":["Cedrus libani"],"other_name":null,"cycle":"Perennial","watering":"Average","sunlight":["Full sun"],"default_image":{"image_id":352,"license":4,"license_name":"Attribution License","license_url":"https://creativecommons.org/licenses/by/2.0/","original_url":"https://perenual.com/storage/species_image/207_cedrus_libani/og/52260831679_c28aa4f28b_b.jpg","regular_url":"https://perenual.com/storage/species_image/207_cedrus_libani/regular/52260831679_c28aa4f28b_b.jpg","medium_url":"https://perenual.com/storage/species_image/207_cedrus_libani/medium/52260831679_c28aa4f28b_b.jpg","small_url":"https://perenual.com/storage/species_image/207_cedrus_libani/small/52260831679_c28aa4f28b_b.jpg","thumbnail":"https://perenual.com/storage/species_image/207_cedrus_libani/thumbnail/52260831679_c28aa4f28b_b.jpg"}},{"id":208,"common_name":"Green Prince Cedar of Lebanon","scientific_name":["Cedrus libani 'Green Prince'"],"other_name":null,"cycle":"Perennial","watering":"Average","sunlight":["Full sun"],"default_image":{"image_id":9,"license":5,"license_name":"Attribution-ShareAlike License","license_url":"https://creativecommons.org/licenses/by-sa/2.0/","original_url":"https://perenual.com/storage/species_image/2_abies_alba_pyramidalis/og/49255769768_df55596553_b.jpg","regular_url":"https://perenual.com/storage/species_image/2_abies_alba_pyramidalis/regular/49255769768_df55596553_b.jpg","medium_url":"https://perenual.com/storage/species_image/2_abies_alba_pyramidalis/medium/49255769768_df55596553_b.jpg","small_url":"https://perenual.com/storage/species_image/2_abies_alba_pyramidalis/small/49255769768_df55596553_b.jpg","thumbnail":"https://perenual.com/storage/species_image/2_abies_alba_pyramidalis/thumbnail/49255769768_df55596553_b.jpg"}},{"id":209,"common_name":"Weeping Cedar of Lebanon","scientific_name":["Cedrus libani 'Pendula'"],"other_name":null,"cycle":"Perennial","watering":"Average","sunlight":["Full sun"],"default_image":{"image_id":9,"license":5,"license_name":"Attribution-ShareAlike License","license_url":"https://creativecommons.org/licenses/by-sa/2.0/","original_url":"https://perenual.com/storage/species_image/2_abies_alba_pyramidalis/og/49255769768_df55596553_b.jpg","regular_url":"https://perenual.com/storage/species_image/2_abies_alba_pyramidalis/regular/49255769768_df55596553_b.jpg","medium_url":"https://perenual.com/storage/species_image/2_abies_alba_pyramidalis/medium/49255769768_df55596553_b.jpg","small_url":"https://perenual.com/storage/species_image/2_abies_alba_pyramidalis/small/49255769768_df55596553_b.jpg","thumbnail":"https://perenual.com/storage/species_image/2_abies_alba_pyramidalis/thumbnail/49255769768_df55596553_b.jpg"}},{"id":210,"common_name":"Katsura Tree","scientific_name":["Cercidiphyllum japonicum"],"other_name":["Japanese katsura tree"],"cycle":"Perennial","watering":"Average","sunlight":["Full sun","part shade"],"default_image":{"image_id":358,"license":5,"license_name":"Attribution-ShareAlike License","license_url":"https://creativecommons.org/licenses/by-sa/2.0/","original_url":"https://perenual.com/storage/species_image/210_cercidiphyllum_japonicum/og/50082930431_17615cde29_b.jpg","regular_url":"https://perenual.com/storage/species_image/210_cercidiphyllum_japonicum/regular/50082930431_17615cde29_b.jpg","medium_url":"https://perenual.com/storage/species_image/210_cercidiphyllum_japonicum/medium/50082930431_17615cde29_b.jpg","small_url":"https://perenual.com/storage/species_image/210_cercidiphyllum_japonicum/small/50082930431_17615cde29_b.jpg","thumbnail":"https://perenual.com/storage/species_image/210_cercidiphyllum_japonicum/thumbnail/50082930431_17615cde29_b.jpg"}}],"to":210,"per_page":30,"current_page":7,"from":181,"last_page":200,"total":6000}