{"data":[{"id":3361,"common_name":"sneezeweed","scientific_name":["Helenium autumnale"],"other_name":null,"cycle":"Perennial","watering":"Frequent","sunlight":["Full sun"],"default_image":{"image_id":7136,"license":4,"license_name":"Attribution License","license_url":"https://creativecommons.org/licenses/by/2.0/","original_url":"https://perenual.com/storage/species_image/3361_helenium_autumnale/og/51942814649_a13fa1f698_b.jpg","regular_url":"https://perenual.com/storage/species_image/3361_helenium_autumnale/regular/51942814649_a13fa1f698_b.jpg","medium_url":"https://perenual.com/storage/species_image/3361_helenium_autumnale/medium/51942814649_a13fa1f698_b.jpg","small_url":"https://perenual.com/storage/species_image/3361_helenium_autumnale/small/51942814649_a13fa1f698_b.jpg","thumbnail":"https://perenual.com/storage/species_image/3361_helenium_autumnale/thumbnail/51942814649_a13fa1f698_b.jpg"}},{"id":3362,"common_name":"sneezeweed","scientific_name":["Helenium autumnale 'Balsaluemb' SALUD EMBERS"],"other_name":null,"cycle":"Perennial","watering":"Frequent","sunlight":["Full sun"],"default_image":{"image_id":7139,"license":4,"license_name":"Attribution License","license_url":"https://creativecommons.org/licenses/by/2.0/","original_url":"https://perenual.com/storage/species_image/3364_helenium_bruno/og/52340894706_ab8553625b_b.jpg","regular_url":"https://perenual.com/storage/species_image/3364_helenium_bruno/regular/52340894706_ab8553625b_b.jpg","medium_url":"https://perenual.com/storage/species_image/3364_helenium_bruno/medium/52340894706_ab8553625b_b.jpg","small_url":"https://perenual.com/storage/species_image/3364_helenium_bruno/small/52340894706_ab8553625b_b.jpg","thumbnail":"https://perenual.com/storage/species_image/3364_helenium_bruno/thumbnail/52340894706_ab8553625b_b.jpg"}},{"id":3363,"common_name":"sneezeweed","scientific_name":["Helenium 'Balsalulow' SALUD YELLOW"],"other_name":null,"cycle":"Perennial","watering":"Frequent","sunlight":["Full sun"],"default_image":{"image_id":7141,"license":4,"license_name":"Attribution License","license_url":"https://creativecommons.org/licenses/by/2.0/","original_url":"https://perenual.com/storage/species_image/3363_helenium_balsalulow_salud_yellow/og/51146781852_918bdfff53_b.jpg","regular_url":"https://perenual.com/storage/species_image/3363_helenium_balsalulow_salud_yellow/regular/51146781852_918bdfff53_b.jpg","medium_url":"https://perenual.com/storage/species_image/3363_helenium_balsalulow_salud_yellow/medium/51146781852_918bdfff53_b.jpg","small_url":"https://perenual.com/storage/species_image/3363_helenium_balsalulow_salud_yellow/small/51146781852_918bdfff53_b.jpg","thumbnail":"https://perenual.com/storage/species_image/3363_helenium_balsalulow_salud_yellow/thumbnail/51146781852_918bdfff53_b.jpg"}},{"id":3364,"common_name":"sneezeweed","scientific_name":["Helenium 'Bruno'"],"other_name":null,"cycle":"Perennial","watering":"Frequent","sunlight":["Full sun"],"default_image":{"image_id":7139,"license":4,"license_name":"Attribution License","license_url":"https://creativecommons.org/licenses/by/2.0/","original_url":"https://perenual.com/storage/species_image/3364_helenium_bruno/og/52340894706_ab8553625b_b.jpg","regular_url":"https://perenual.com/storage/species_image/3364_helenium_bruno/regular/52340894706_ab8553625b_b.jpg","medium_url":"https://perenual.com/storage/species_image/3364_helenium_bruno/medium/52340894706_ab8553625b_b.jpg","small_url":"https://perenual.com/storage/species_image/3364_helenium_bruno/small/52340894706_ab8553625b_b.jpg","thumbnail":"https://perenual.com/storage/species_image/3364_helenium_bruno/thumbnail/52340894706_ab8553625b_b.jpg"}},{"id":3365,"common_name":"sneezeweed","scientific_name":["Helenium 'Coppelia'"],"other_name":null,"cycle":"Perennial","watering":"Frequent","sunlight":["Full sun"],"default_image":{"image_id":9,"license":5,"license_name":"Attribution-ShareAlike License","license_url":"https://creativecommons.org/licenses/by-sa/2.0/","original_url":"https://perenual.com/storage/species_image/2_abies_alba_pyramidalis/og/49255769768_df55596553_b.jpg","regular_url":"https://perenual.com/storage/species_image/2_abies_alba_pyramidalis/regular/49255769768_df55596553_b.jpg","medium_url":"https://perenual.com/storage/species_image/2_abies_alba_pyramidalis/medium/49255769768_df55596553_b.jpg","small_url":"https://perenual.com/storage/species_image/2_abies_alba_pyramidalis/small/49255769768_df55596553_b.jpg","thumbnail":"https://perenual.com/storage/species_image/2_abies_alba_pyramidalis/thumbnail/49255769768_df55596553_b.jpg"}},{"id":3366,"common_name":"purple-headed sneezeweed","scientific_name":["Helenium flexuosum"],"other_name":null,"cycle":"Perennial","watering":"Frequent","sunlight":["Full sun"],"default_image":{"image_id":9,"license":5,"license_name":"Attribution-ShareAlike License","license_url":"https://creativecommons.org/licenses/by-sa/2.0/","original_url":"https://perenual.com/storage/species_image/2_abies_alba_pyramidalis/og/49255769768_df55596553_b.jpg","regular_url":"https://perenual.com/storage/species_image/2_abies_alba_pyramidalis/regular/49255769768_df55596553_b.jpg","medium_url":"https://perenual.com/storage/species_image/2_abies_alba_pyramidalis/medium/49255769768_df55596553_b.jpg","small_url":"https://perenual.com/storage/species_image/2_abies_alba_pyramidalis/small/49255769768_df55596553_b.jpg","thumbnail":"https://perenual.com/storage/species_image/2_abies_alba_pyramidalis/thumbnail/49255769768_df55596553_b.jpg"}},{"id":3367,"common_name":"sneezeweed","scientific_name":["Helenium 'Goldlackzwerg' GILDED DWARF"],"other_name":null,"cycle":"Perennial","watering":"Frequent","sunlight":["Full sun"],"default_image":{"image_id":7139,"license":4,"license_name":"Attribution License","license_url":"https://creativecommons.org/licenses/by/2.0/","original_url":"https://perenual.com/storage/species_image/3364_helenium_bruno/og/52340894706_ab8553625b_b.jpg","regular_url":"https://perenual.com/storage/species_image/3364_helenium_bruno/regular/52340894706_ab8553625b_b.jpg","medium_url":"https://perenual.com/storage/species_image/3364_helenium_bruno/medium/52340894706_ab8553625b_b.jpg","small_url":"https://perenual.com/storage/species_image/3364_helenium_bruno/small/52340894706_ab8553625b_b.jpg","thumbnail":"https://perenual.com/storage/species_image/3364_helenium_bruno/thumbnail/52340894706_ab8553625b_b.jpg"}},{"id":3368,"common_name":"sneezeweed","scientific_name":["Helenium 'Helbro' MARDI GRAS"],"other_name":null,"cycle":"Perennial","watering":"Frequent","sunlight":["Full sun"],"default_image":{"image_id":7150,"license":5,"license_name":"Attribution-ShareAlike License","license_url":"https://creativecommons.org/licenses/by-sa/2.0/","original_url":"https://perenual.com/storage/species_image/3368_helenium_helbro_mardi_gras/og/37185010616_5e25cbcc5e_b.jpg","regular_url":"https://perenual.com/storage/species_image/3368_helenium_helbro_mardi_gras/regular/37185010616_5e25cbcc5e_b.jpg","medium_url":"https://perenual.com/storage/species_image/3368_helenium_helbro_mardi_gras/medium/37185010616_5e25cbcc5e_b.jpg","small_url":"https://perenual.com/storage/species_image/3368_helenium_helbro_mardi_gras/small/37185010616_5e25cbcc5e_b.jpg","thumbnail":"https://perenual.com/storage/species_image/3368_helenium_helbro_mardi_gras/thumbnail/37185010616_5e25cbcc5e_b.jpg"}},{"id":3369,"common_name":"sneezeweed","scientific_name":["Helenium 'Kanaria'"],"other_name":null,"cycle":"Perennial","watering":"Frequent","sunlight":["Full sun"],"default_image":{"image_id":7152,"license":5,"license_name":"Attribution-ShareAlike License","license_url":"https://creativecommons.org/licenses/by-sa/2.0/","original_url":"https://perenual.com/storage/species_image/3369_helenium_kanaria/og/28367536064_d543f671c1_b.jpg","regular_url":"https://perenual.com/storage/species_image/3369_helenium_kanaria/regular/28367536064_d543f671c1_b.jpg","medium_url":"https://perenual.com/storage/species_image/3369_helenium_kanaria/medium/28367536064_d543f671c1_b.jpg","small_url":"https://perenual.com/storage/species_image/3369_helenium_kanaria/small/28367536064_d543f671c1_b.jpg","thumbnail":"https://perenual.com/storage/species_image/3369_helenium_kanaria/thumbnail/28367536064_d543f671c1_b.jpg"}},{"id":3370,"common_name":"sneezeweed","scientific_name":["Helenium 'Moerheim Beauty'"],"other_name":null,"cycle":"Perennial","watering":"Frequent","sunlight":["Full sun"],"default_image":{"image_id":7154,"license":6,"license_name":"Attribution-NoDerivs License","license_url":"https://creativecommons.org/licenses/by-nd/2.0/","original_url":"https://perenual.com/storage/species_image/3370_helenium_moerheim_beauty/og/51343710254_7d07d57750_b.jpg"}},{"id":3371,"common_name":"sneezeweed","scientific_name":["Helenium 'Rotgold'"],"other_name":null,"cycle":"Perennial","watering":"Frequent","sunlight":["Full sun"],"default_image":{"image_id":9,"license":5,"license_name":"Attribution-ShareAlike License","license_url":"https://creativecommons.org/licenses/by-sa/2.0/","original_url":"https://perenual.com/storage/species_image/2_abies_alba_pyramidalis/og/49255769768_df55596553_b.jpg","regular_url":"https://perenual.com/storage/species_image/2_abies_alba_pyramidalis/regular/49255769768_df55596553_b.jpg","medium_url":"https://perenual.com/storage/species_image/2_abies_alba_pyramidalis/medium/49255769768_df55596553_b.jpg","small_url":"https://perenual.com/storage/species_image/2_abies_alba_pyramidalis/small/49255769768_df55596553_b.jpg","thumbnail":"https://perenual.com/storage/species_image/2_abies_alba_pyramidalis/thumbnail/49255769768_df55596553_b.jpg"}},{"id":3372,"common_name":"sneezeweed","scientific_name":["Helenium 'Ruby Charm'"],"other_name":null,"cycle":"Perennial","watering":"Frequent","sunlight":["Full sun"],"default_image":{"image_id":7158,"license":6,"license_name":"Attribution-NoDerivs License","license_url":"https://creativecommons.org/licenses/by-nd/2.0/","original_url":"https://perenual.com/storage/species_image/3372_helenium_ruby_charm/og/19982732454_fb81329b0d_b.jpg"}},{"id":3373,"common_name":"sneezeweed","scientific_name":["Helenium 'Short 'n' Sassy'"],"other_name":null,"cycle":"Perennial","watering":"Frequent","sunlight":["Full sun"],"default_image":{"image_id":7160,"license":6,"license_name":"Attribution-NoDerivs License","license_url":"https://creativecommons.org/licenses/by-nd/2.0/","original_url":"https://perenual.com/storage/species_image/3373_helenium_short_n_sassy/og/51480252300_456c7d79ec_b.jpg"}},{"id":3374,"common_name":"sneezeweed","scientific_name":["Helenium 'Sombrero'"],"other_name":null,"cycle":"Perennial","watering":"Frequent","sunlight":["Full sun"],"default_image":{"image_id":9,"license":5,"license_name":"Attribution-ShareAlike License","license_url":"https://creativecommons.org/licenses/by-sa/2.0/","original_url":"https://perenual.com/storage/species_image/2_abies_alba_pyramidalis/og/49255769768_df55596553_b.jpg","regular_url":"https://perenual.com/storage/species_image/2_abies_alba_pyramidalis/regular/49255769768_df55596553_b.jpg","medium_url":"https://perenual.com/storage/species_image/2_abies_alba_pyramidalis/medium/49255769768_df55596553_b.jpg","small_url":"https://perenual.com/storage/species_image/2_abies_alba_pyramidalis/small/49255769768_df55596553_b.jpg","thumbnail":"https://perenual.com/storage/species_image/2_abies_alba_pyramidalis/thumbnail/49255769768_df55596553_b.jpg"}},{"id":3375,"common_name":"sneezeweed","scientific_name":["Helenium virginicum"],"other_name":null,"cycle":"Perennial","watering":"Frequent","sunlight":["Full sun"],"default_image":{"image_id":9,"license":5,"license_name":"Attribution-ShareAlike License","license_url":"https://creativecommons.org/licenses/by-sa/2.0/","original_url":"https://perenual.com/storage/species_image/2_abies_alba_pyramidalis/og/49255769768_df55596553_b.jpg","regular_url":"https://perenual.com/storage/species_image/2_abies_alba_pyramidalis/regular/49255769768_df55596553_b.jpg","medium_url":"https://perenual.com/storage/species_image/2_abies_alba_pyramidalis/medium/49255769768_df55596553_b.jpg","small_url":"https://perenual.com/storage/species_image/2_abies_alba_pyramidalis/small/49255769768_df55596553_b.jpg","thumbnail":"https://perenual.com/storage/species_image/2_abies_alba_pyramidalis/thumbnail/49255769768_df55596553_b.jpg"}},{"id":3376,"common_name":"sneezeweed","scientific_name":["Helenium 'Wyndley'"],"other_name":null,"cycle":"Perennial","watering":"Frequent","sunlight":["Full sun"],"default_image":{"image_id":9,"license":5,"license_name":"Attribution-ShareAlike License","license_url":"https://creativecommons.org/licenses/by-sa/2.0/","original_url":"https://perenual.com/storage/species_image/2_abies_alba_pyramidalis/og/49255769768_df55596553_b.jpg","regular_url":"https://perenual.com/storage/species_image/2_abies_alba_pyramidalis/regular/49255769768_df55596553_b.jpg","medium_url":"https://perenual.com/storage/species_image/2_abies_alba_pyramidalis/medium/49255769768_df55596553_b.jpg","small_url":"https://perenual.com/storage/species_image/2_abies_alba_pyramidalis/small/49255769768_df55596553_b.jpg","thumbnail":"https://perenual.com/storage/species_image/2_abies_alba_pyramidalis/thumbnail/49255769768_df55596553_b.jpg"}},{"id":3377,"common_name":"sneezeweed","scientific_name":["Helenium 'Zimbelstern'"],"other_name":null,"cycle":"Perennial","watering":"Frequent","sunlight":["Full sun"],"default_image":{"image_id":7166,"license":4,"license_name":"Attribution License","license_url":"https://creativecommons.org/licenses/by/2.0/","original_url":"https://perenual.com/storage/species_image/3377_helenium_zimbelstern/og/48557878031_33b0055855_b.jpg","regular_url":"https://perenual.com/storage/species_image/3377_helenium_zimbelstern/regular/48557878031_33b0055855_b.jpg","medium_url":"https://perenual.com/storage/species_image/3377_helenium_zimbelstern/medium/48557878031_33b0055855_b.jpg","small_url":"https://perenual.com/storage/species_image/3377_helenium_zimbelstern/small/48557878031_33b0055855_b.jpg","thumbnail":"https://perenual.com/storage/species_image/3377_helenium_zimbelstern/thumbnail/48557878031_33b0055855_b.jpg"}},{"id":3378,"common_name":"little sunflower","scientific_name":["Helianthella quinquenervis"],"other_name":null,"cycle":"Perennial","watering":"Average","sunlight":["Full sun"],"default_image":{"image_id":7167,"license":5,"license_name":"Attribution-ShareAlike License","license_url":"https://creativecommons.org/licenses/by-sa/2.0/","original_url":"https://perenual.com/storage/species_image/3378_helianthella_quinquenervis/og/15552498323_25ee13e2e2_b.jpg","regular_url":"https://perenual.com/storage/species_image/3378_helianthella_quinquenervis/regular/15552498323_25ee13e2e2_b.jpg","medium_url":"https://perenual.com/storage/species_image/3378_helianthella_quinquenervis/medium/15552498323_25ee13e2e2_b.jpg","small_url":"https://perenual.com/storage/species_image/3378_helianthella_quinquenervis/small/15552498323_25ee13e2e2_b.jpg","thumbnail":"https://perenual.com/storage/species_image/3378_helianthella_quinquenervis/thumbnail/15552498323_25ee13e2e2_b.jpg"}},{"id":3379,"common_name":"rock rose","scientific_name":["Helianthemum 'Henfield Brilliant'"],"other_name":null,"cycle":"Perennial","watering":"Minimum","sunlight":["Full sun"],"default_image":{"image_id":7169,"license":5,"license_name":"Attribution-ShareAlike License","license_url":"https://creativecommons.org/licenses/by-sa/2.0/","original_url":"https://perenual.com/storage/species_image/3379_helianthemum_henfield_brilliant/og/33664629126_4c4f370817_b.jpg","regular_url":"https://perenual.com/storage/species_image/3379_helianthemum_henfield_brilliant/regular/33664629126_4c4f370817_b.jpg","medium_url":"https://perenual.com/storage/species_image/3379_helianthemum_henfield_brilliant/medium/33664629126_4c4f370817_b.jpg","small_url":"https://perenual.com/storage/species_image/3379_helianthemum_henfield_brilliant/small/33664629126_4c4f370817_b.jpg","thumbnail":"https://perenual.com/storage/species_image/3379_helianthemum_henfield_brilliant/thumbnail/33664629126_4c4f370817_b.jpg"}},{"id":3380,"common_name":"rock rose","scientific_name":["Helianthemum mutabile"],"other_name":null,"cycle":"Perennial","watering":"Minimum","sunlight":["Full sun"],"default_image":{"image_id":9,"license":5,"license_name":"Attribution-ShareAlike License","license_url":"https://creativecommons.org/licenses/by-sa/2.0/","original_url":"https://perenual.com/storage/species_image/2_abies_alba_pyramidalis/og/49255769768_df55596553_b.jpg","regular_url":"https://perenual.com/storage/species_image/2_abies_alba_pyramidalis/regular/49255769768_df55596553_b.jpg","medium_url":"https://perenual.com/storage/species_image/2_abies_alba_pyramidalis/medium/49255769768_df55596553_b.jpg","small_url":"https://perenual.com/storage/species_image/2_abies_alba_pyramidalis/small/49255769768_df55596553_b.jpg","thumbnail":"https://perenual.com/storage/species_image/2_abies_alba_pyramidalis/thumbnail/49255769768_df55596553_b.jpg"}},{"id":3381,"common_name":"rock rose","scientific_name":["Helianthemum nummularium"],"other_name":null,"cycle":"Perennial","watering":"Minimum","sunlight":["Full sun"],"default_image":{"image_id":7174,"license":4,"license_name":"Attribution License","license_url":"https://creativecommons.org/licenses/by/2.0/","original_url":"https://perenual.com/storage/species_image/3381_helianthemum_nummularium/og/51374302556_ac63a7181c_b.jpg","regular_url":"https://perenual.com/storage/species_image/3381_helianthemum_nummularium/regular/51374302556_ac63a7181c_b.jpg","medium_url":"https://perenual.com/storage/species_image/3381_helianthemum_nummularium/medium/51374302556_ac63a7181c_b.jpg","small_url":"https://perenual.com/storage/species_image/3381_helianthemum_nummularium/small/51374302556_ac63a7181c_b.jpg","thumbnail":"https://perenual.com/storage/species_image/3381_helianthemum_nummularium/thumbnail/51374302556_ac63a7181c_b.jpg"}},{"id":3382,"common_name":"rock rose","scientific_name":["Helianthemum nummularium subsp. grandiflorum"],"other_name":null,"cycle":"Perennial","watering":"Minimum","sunlight":["Full sun"],"default_image":{"image_id":9,"license":5,"license_name":"Attribution-ShareAlike License","license_url":"https://creativecommons.org/licenses/by-sa/2.0/","original_url":"https://perenual.com/storage/species_image/2_abies_alba_pyramidalis/og/49255769768_df55596553_b.jpg","regular_url":"https://perenual.com/storage/species_image/2_abies_alba_pyramidalis/regular/49255769768_df55596553_b.jpg","medium_url":"https://perenual.com/storage/species_image/2_abies_alba_pyramidalis/medium/49255769768_df55596553_b.jpg","small_url":"https://perenual.com/storage/species_image/2_abies_alba_pyramidalis/small/49255769768_df55596553_b.jpg","thumbnail":"https://perenual.com/storage/species_image/2_abies_alba_pyramidalis/thumbnail/49255769768_df55596553_b.jpg"}},{"id":3383,"common_name":"rock rose","scientific_name":["Helianthemum 'Rhodanthe Carneum'"],"other_name":null,"cycle":"Perennial","watering":"Minimum","sunlight":["Full sun"],"default_image":{"image_id":9,"license":5,"license_name":"Attribution-ShareAlike License","license_url":"https://creativecommons.org/licenses/by-sa/2.0/","original_url":"https://perenual.com/storage/species_image/2_abies_alba_pyramidalis/og/49255769768_df55596553_b.jpg","regular_url":"https://perenual.com/storage/species_image/2_abies_alba_pyramidalis/regular/49255769768_df55596553_b.jpg","medium_url":"https://perenual.com/storage/species_image/2_abies_alba_pyramidalis/medium/49255769768_df55596553_b.jpg","small_url":"https://perenual.com/storage/species_image/2_abies_alba_pyramidalis/small/49255769768_df55596553_b.jpg","thumbnail":"https://perenual.com/storage/species_image/2_abies_alba_pyramidalis/thumbnail/49255769768_df55596553_b.jpg"}},{"id":3384,"common_name":"common sunflower","scientific_name":["Helianthus annuus"],"other_name":null,"cycle":"Annual","watering":"Minimum","sunlight":["Full sun"],"default_image":{"image_id":7183,"license":4,"license_name":"Attribution License","license_url":"https://creativecommons.org/licenses/by/2.0/","original_url":"https://perenual.com/storage/species_image/3384_helianthus_annuus/og/52370427473_b8e914065a_b.jpg","regular_url":"https://perenual.com/storage/species_image/3384_helianthus_annuus/regular/52370427473_b8e914065a_b.jpg","medium_url":"https://perenual.com/storage/species_image/3384_helianthus_annuus/medium/52370427473_b8e914065a_b.jpg","small_url":"https://perenual.com/storage/species_image/3384_helianthus_annuus/small/52370427473_b8e914065a_b.jpg","thumbnail":"https://perenual.com/storage/species_image/3384_helianthus_annuus/thumbnail/52370427473_b8e914065a_b.jpg"}},{"id":3385,"common_name":"sunflower","scientific_name":["Helianthus annuus 'Sungold'"],"other_name":null,"cycle":"Annual","watering":"Minimum","sunlight":["Full sun"],"default_image":{"image_id":9,"license":5,"license_name":"Attribution-ShareAlike License","license_url":"https://creativecommons.org/licenses/by-sa/2.0/","original_url":"https://perenual.com/storage/species_image/2_abies_alba_pyramidalis/og/49255769768_df55596553_b.jpg","regular_url":"https://perenual.com/storage/species_image/2_abies_alba_pyramidalis/regular/49255769768_df55596553_b.jpg","medium_url":"https://perenual.com/storage/species_image/2_abies_alba_pyramidalis/medium/49255769768_df55596553_b.jpg","small_url":"https://perenual.com/storage/species_image/2_abies_alba_pyramidalis/small/49255769768_df55596553_b.jpg","thumbnail":"https://perenual.com/storage/species_image/2_abies_alba_pyramidalis/thumbnail/49255769768_df55596553_b.jpg"}},{"id":3386,"common_name":"sunflower","scientific_name":["Helianthus 'Capenoch Star'"],"other_name":null,"cycle":"Perennial","watering":"Average","sunlight":["Full sun"],"default_image":{"image_id":7186,"license":5,"license_name":"Attribution-ShareAlike License","license_url":"https://creativecommons.org/licenses/by-sa/2.0/","original_url":"https://perenual.com/storage/species_image/3386_helianthus_capenoch_star/og/33705634125_f187932262_b.jpg","regular_url":"https://perenual.com/storage/species_image/3386_helianthus_capenoch_star/regular/33705634125_f187932262_b.jpg","medium_url":"https://perenual.com/storage/species_image/3386_helianthus_capenoch_star/medium/33705634125_f187932262_b.jpg","small_url":"https://perenual.com/storage/species_image/3386_helianthus_capenoch_star/small/33705634125_f187932262_b.jpg","thumbnail":"https://perenual.com/storage/species_image/3386_helianthus_capenoch_star/thumbnail/33705634125_f187932262_b.jpg"}},{"id":3387,"common_name":"sunflower","scientific_name":["Helianthus divaricatus"],"other_name":null,"cycle":"Perennial","watering":"Minimum","sunlight":["Part shade"],"default_image":{"image_id":7188,"license":5,"license_name":"Attribution-ShareAlike License","license_url":"https://creativecommons.org/licenses/by-sa/2.0/","original_url":"https://perenual.com/storage/species_image/3387_helianthus_divaricatus/og/51190351654_20abbf1e57_b.jpg","regular_url":"https://perenual.com/storage/species_image/3387_helianthus_divaricatus/regular/51190351654_20abbf1e57_b.jpg","medium_url":"https://perenual.com/storage/species_image/3387_helianthus_divaricatus/medium/51190351654_20abbf1e57_b.jpg","small_url":"https://perenual.com/storage/species_image/3387_helianthus_divaricatus/small/51190351654_20abbf1e57_b.jpg","thumbnail":"https://perenual.com/storage/species_image/3387_helianthus_divaricatus/thumbnail/51190351654_20abbf1e57_b.jpg"}},{"id":3388,"common_name":"sunflower","scientific_name":["Helianthus 'Happy Days'"],"other_name":null,"cycle":"Perennial","watering":"Average","sunlight":["Full sun"],"default_image":{"image_id":9,"license":5,"license_name":"Attribution-ShareAlike License","license_url":"https://creativecommons.org/licenses/by-sa/2.0/","original_url":"https://perenual.com/storage/species_image/2_abies_alba_pyramidalis/og/49255769768_df55596553_b.jpg","regular_url":"https://perenual.com/storage/species_image/2_abies_alba_pyramidalis/regular/49255769768_df55596553_b.jpg","medium_url":"https://perenual.com/storage/species_image/2_abies_alba_pyramidalis/medium/49255769768_df55596553_b.jpg","small_url":"https://perenual.com/storage/species_image/2_abies_alba_pyramidalis/small/49255769768_df55596553_b.jpg","thumbnail":"https://perenual.com/storage/species_image/2_abies_alba_pyramidalis/thumbnail/49255769768_df55596553_b.jpg"}},{"id":3389,"common_name":"Maximilian sunflower","scientific_name":["Helianthus maximiliani"],"other_name":null,"cycle":"Perennial","watering":"Minimum","sunlight":["Full sun"],"default_image":{"image_id":7190,"license":5,"license_name":"Attribution-ShareAlike License","license_url":"https://creativecommons.org/licenses/by-sa/2.0/","original_url":"https://perenual.com/storage/species_image/3389_helianthus_maximiliani/og/37802897162_9e3acd53b1_b.jpg","regular_url":"https://perenual.com/storage/species_image/3389_helianthus_maximiliani/regular/37802897162_9e3acd53b1_b.jpg","medium_url":"https://perenual.com/storage/species_image/3389_helianthus_maximiliani/medium/37802897162_9e3acd53b1_b.jpg","small_url":"https://perenual.com/storage/species_image/3389_helianthus_maximiliani/small/37802897162_9e3acd53b1_b.jpg","thumbnail":"https://perenual.com/storage/species_image/3389_helianthus_maximiliani/thumbnail/37802897162_9e3acd53b1_b.jpg"}},{"id":3390,"common_name":"ashy sunflower","scientific_name":["Helianthus mollis"],"other_name":null,"cycle":"Perennial","watering":"Minimum","sunlight":["Full sun"],"default_image":{"image_id":9,"license":5,"license_name":"Attribution-ShareAlike License","license_url":"https://creativecommons.org/licenses/by-sa/2.0/","original_url":"https://perenual.com/storage/species_image/2_abies_alba_pyramidalis/og/49255769768_df55596553_b.jpg","regular_url":"https://perenual.com/storage/species_image/2_abies_alba_pyramidalis/regular/49255769768_df55596553_b.jpg","medium_url":"https://perenual.com/storage/species_image/2_abies_alba_pyramidalis/medium/49255769768_df55596553_b.jpg","small_url":"https://perenual.com/storage/species_image/2_abies_alba_pyramidalis/small/49255769768_df55596553_b.jpg","thumbnail":"https://perenual.com/storage/species_image/2_abies_alba_pyramidalis/thumbnail/49255769768_df55596553_b.jpg"}}],"to":3390,"per_page":30,"current_page":113,"from":3361,"last_page":200,"total":6000}