{"data":[{"id":5491,"common_name":"floating heart","scientific_name":["Nymphoides aurantiaca"],"other_name":null,"cycle":"Perennial","watering":"Frequent","sunlight":["Full sun","part shade"],"default_image":{"image_id":9,"license":5,"license_name":"Attribution-ShareAlike License","license_url":"https://creativecommons.org/licenses/by-sa/2.0/","original_url":"https://perenual.com/storage/species_image/2_abies_alba_pyramidalis/og/49255769768_df55596553_b.jpg","regular_url":"https://perenual.com/storage/species_image/2_abies_alba_pyramidalis/regular/49255769768_df55596553_b.jpg","medium_url":"https://perenual.com/storage/species_image/2_abies_alba_pyramidalis/medium/49255769768_df55596553_b.jpg","small_url":"https://perenual.com/storage/species_image/2_abies_alba_pyramidalis/small/49255769768_df55596553_b.jpg","thumbnail":"https://perenual.com/storage/species_image/2_abies_alba_pyramidalis/thumbnail/49255769768_df55596553_b.jpg"}},{"id":5492,"common_name":"crested floatingheart","scientific_name":["Nymphoides cristata"],"other_name":null,"cycle":"Perennial","watering":"Frequent","sunlight":["Full sun","part shade"],"default_image":{"image_id":11335,"license":5,"license_name":"Attribution-ShareAlike License","license_url":"https://creativecommons.org/licenses/by-sa/2.0/","original_url":"https://perenual.com/storage/species_image/5492_nymphoides_cristata/og/3784240205_25361c8034_b.jpg","regular_url":"https://perenual.com/storage/species_image/5492_nymphoides_cristata/regular/3784240205_25361c8034_b.jpg","medium_url":"https://perenual.com/storage/species_image/5492_nymphoides_cristata/medium/3784240205_25361c8034_b.jpg","small_url":"https://perenual.com/storage/species_image/5492_nymphoides_cristata/small/3784240205_25361c8034_b.jpg","thumbnail":"https://perenual.com/storage/species_image/5492_nymphoides_cristata/thumbnail/3784240205_25361c8034_b.jpg"}},{"id":5493,"common_name":"water snowflake","scientific_name":["Nymphoides indica"],"other_name":null,"cycle":"Perennial","watering":"Frequent","sunlight":["Full sun","part shade"],"default_image":{"image_id":9,"license":5,"license_name":"Attribution-ShareAlike License","license_url":"https://creativecommons.org/licenses/by-sa/2.0/","original_url":"https://perenual.com/storage/species_image/2_abies_alba_pyramidalis/og/49255769768_df55596553_b.jpg","regular_url":"https://perenual.com/storage/species_image/2_abies_alba_pyramidalis/regular/49255769768_df55596553_b.jpg","medium_url":"https://perenual.com/storage/species_image/2_abies_alba_pyramidalis/medium/49255769768_df55596553_b.jpg","small_url":"https://perenual.com/storage/species_image/2_abies_alba_pyramidalis/small/49255769768_df55596553_b.jpg","thumbnail":"https://perenual.com/storage/species_image/2_abies_alba_pyramidalis/thumbnail/49255769768_df55596553_b.jpg"}},{"id":5494,"common_name":"yellow floating heart","scientific_name":["Nymphoides peltata"],"other_name":null,"cycle":"Perennial","watering":"Frequent","sunlight":["Full sun"],"default_image":{"image_id":11337,"license":4,"license_name":"Attribution License","license_url":"https://creativecommons.org/licenses/by/2.0/","original_url":"https://perenual.com/storage/species_image/5494_nymphoides_peltata/og/50802589696_5c2f8a450b_b.jpg","regular_url":"https://perenual.com/storage/species_image/5494_nymphoides_peltata/regular/50802589696_5c2f8a450b_b.jpg","medium_url":"https://perenual.com/storage/species_image/5494_nymphoides_peltata/medium/50802589696_5c2f8a450b_b.jpg","small_url":"https://perenual.com/storage/species_image/5494_nymphoides_peltata/small/50802589696_5c2f8a450b_b.jpg","thumbnail":"https://perenual.com/storage/species_image/5494_nymphoides_peltata/thumbnail/50802589696_5c2f8a450b_b.jpg"}},{"id":5495,"common_name":"tupelo gum","scientific_name":["Nyssa aquatica"],"other_name":null,"cycle":"Perennial","watering":"Frequent","sunlight":["Full sun","part shade"],"default_image":{"image_id":9,"license":5,"license_name":"Attribution-ShareAlike License","license_url":"https://creativecommons.org/licenses/by-sa/2.0/","original_url":"https://perenual.com/storage/species_image/2_abies_alba_pyramidalis/og/49255769768_df55596553_b.jpg","regular_url":"https://perenual.com/storage/species_image/2_abies_alba_pyramidalis/regular/49255769768_df55596553_b.jpg","medium_url":"https://perenual.com/storage/species_image/2_abies_alba_pyramidalis/medium/49255769768_df55596553_b.jpg","small_url":"https://perenual.com/storage/species_image/2_abies_alba_pyramidalis/small/49255769768_df55596553_b.jpg","thumbnail":"https://perenual.com/storage/species_image/2_abies_alba_pyramidalis/thumbnail/49255769768_df55596553_b.jpg"}},{"id":5496,"common_name":"Mickey Mouse plant","scientific_name":["Ochna serrulata"],"other_name":null,"cycle":"Perennial","watering":"Average","sunlight":["Full sun","part shade"],"default_image":{"image_id":11339,"license":5,"license_name":"Attribution-ShareAlike License","license_url":"https://creativecommons.org/licenses/by-sa/2.0/","original_url":"https://perenual.com/storage/species_image/5496_ochna_serrulata/og/46262628065_106c91b4ae_b.jpg","regular_url":"https://perenual.com/storage/species_image/5496_ochna_serrulata/regular/46262628065_106c91b4ae_b.jpg","medium_url":"https://perenual.com/storage/species_image/5496_ochna_serrulata/medium/46262628065_106c91b4ae_b.jpg","small_url":"https://perenual.com/storage/species_image/5496_ochna_serrulata/small/46262628065_106c91b4ae_b.jpg","thumbnail":"https://perenual.com/storage/species_image/5496_ochna_serrulata/thumbnail/46262628065_106c91b4ae_b.jpg"}},{"id":5497,"common_name":"sweet basil","scientific_name":["Ocimum basilicum"],"other_name":null,"cycle":"Perennial","watering":"Average","sunlight":["Full sun"],"default_image":{"image_id":11340,"license":5,"license_name":"Attribution-ShareAlike License","license_url":"https://creativecommons.org/licenses/by-sa/2.0/","original_url":"https://perenual.com/storage/species_image/5497_ocimum_basilicum/og/40248200770_b483e688a0_b.jpg","regular_url":"https://perenual.com/storage/species_image/5497_ocimum_basilicum/regular/40248200770_b483e688a0_b.jpg","medium_url":"https://perenual.com/storage/species_image/5497_ocimum_basilicum/medium/40248200770_b483e688a0_b.jpg","small_url":"https://perenual.com/storage/species_image/5497_ocimum_basilicum/small/40248200770_b483e688a0_b.jpg","thumbnail":"https://perenual.com/storage/species_image/5497_ocimum_basilicum/thumbnail/40248200770_b483e688a0_b.jpg"}},{"id":5498,"common_name":"basil","scientific_name":["Ocimum citriodorum 'Pesto Perpetuo'"],"other_name":null,"cycle":"Perennial","watering":"Average","sunlight":["Full sun"],"default_image":{"image_id":9,"license":5,"license_name":"Attribution-ShareAlike License","license_url":"https://creativecommons.org/licenses/by-sa/2.0/","original_url":"https://perenual.com/storage/species_image/2_abies_alba_pyramidalis/og/49255769768_df55596553_b.jpg","regular_url":"https://perenual.com/storage/species_image/2_abies_alba_pyramidalis/regular/49255769768_df55596553_b.jpg","medium_url":"https://perenual.com/storage/species_image/2_abies_alba_pyramidalis/medium/49255769768_df55596553_b.jpg","small_url":"https://perenual.com/storage/species_image/2_abies_alba_pyramidalis/small/49255769768_df55596553_b.jpg","thumbnail":"https://perenual.com/storage/species_image/2_abies_alba_pyramidalis/thumbnail/49255769768_df55596553_b.jpg"}},{"id":5499,"common_name":"Indian plum","scientific_name":["Oemleria cerasiformis"],"other_name":["Indian plum"],"cycle":"Perennial","watering":"Average","sunlight":["Full sun","part shade"],"default_image":{"image_id":11345,"license":4,"license_name":"Attribution License","license_url":"https://creativecommons.org/licenses/by/2.0/","original_url":"https://perenual.com/storage/species_image/5499_oemleria_cerasiformis/og/5905827788_be5ca3a8e9_b.jpg","regular_url":"https://perenual.com/storage/species_image/5499_oemleria_cerasiformis/regular/5905827788_be5ca3a8e9_b.jpg","medium_url":"https://perenual.com/storage/species_image/5499_oemleria_cerasiformis/medium/5905827788_be5ca3a8e9_b.jpg","small_url":"https://perenual.com/storage/species_image/5499_oemleria_cerasiformis/small/5905827788_be5ca3a8e9_b.jpg","thumbnail":"https://perenual.com/storage/species_image/5499_oemleria_cerasiformis/thumbnail/5905827788_be5ca3a8e9_b.jpg"}},{"id":5500,"common_name":"fine-leaved water dropwort","scientific_name":["Oenanthe aquatica"],"other_name":null,"cycle":"Perennial","watering":"Frequent","sunlight":["Full sun"],"default_image":{"image_id":9,"license":5,"license_name":"Attribution-ShareAlike License","license_url":"https://creativecommons.org/licenses/by-sa/2.0/","original_url":"https://perenual.com/storage/species_image/2_abies_alba_pyramidalis/og/49255769768_df55596553_b.jpg","regular_url":"https://perenual.com/storage/species_image/2_abies_alba_pyramidalis/regular/49255769768_df55596553_b.jpg","medium_url":"https://perenual.com/storage/species_image/2_abies_alba_pyramidalis/medium/49255769768_df55596553_b.jpg","small_url":"https://perenual.com/storage/species_image/2_abies_alba_pyramidalis/small/49255769768_df55596553_b.jpg","thumbnail":"https://perenual.com/storage/species_image/2_abies_alba_pyramidalis/thumbnail/49255769768_df55596553_b.jpg"}},{"id":5501,"common_name":"Java waterdropwort","scientific_name":["Oenanthe javanica"],"other_name":null,"cycle":"Perennial","watering":"Frequent","sunlight":["Full sun","part shade"],"default_image":{"image_id":11346,"license":5,"license_name":"Attribution-ShareAlike License","license_url":"https://creativecommons.org/licenses/by-sa/2.0/","original_url":"https://perenual.com/storage/species_image/5501_oenanthe_javanica/og/9229894764_bee7e73105_b.jpg","regular_url":"https://perenual.com/storage/species_image/5501_oenanthe_javanica/regular/9229894764_bee7e73105_b.jpg","medium_url":"https://perenual.com/storage/species_image/5501_oenanthe_javanica/medium/9229894764_bee7e73105_b.jpg","small_url":"https://perenual.com/storage/species_image/5501_oenanthe_javanica/small/9229894764_bee7e73105_b.jpg","thumbnail":"https://perenual.com/storage/species_image/5501_oenanthe_javanica/thumbnail/9229894764_bee7e73105_b.jpg"}},{"id":5502,"common_name":"water celery","scientific_name":["Oenanthe javanica 'Flamingo'"],"other_name":null,"cycle":"Perennial","watering":"Frequent","sunlight":["Part shade","full shade"],"default_image":{"image_id":9,"license":5,"license_name":"Attribution-ShareAlike License","license_url":"https://creativecommons.org/licenses/by-sa/2.0/","original_url":"https://perenual.com/storage/species_image/2_abies_alba_pyramidalis/og/49255769768_df55596553_b.jpg","regular_url":"https://perenual.com/storage/species_image/2_abies_alba_pyramidalis/regular/49255769768_df55596553_b.jpg","medium_url":"https://perenual.com/storage/species_image/2_abies_alba_pyramidalis/medium/49255769768_df55596553_b.jpg","small_url":"https://perenual.com/storage/species_image/2_abies_alba_pyramidalis/small/49255769768_df55596553_b.jpg","thumbnail":"https://perenual.com/storage/species_image/2_abies_alba_pyramidalis/thumbnail/49255769768_df55596553_b.jpg"}},{"id":5503,"common_name":"common evening primrose","scientific_name":["Oenothera biennis"],"other_name":null,"cycle":"Biennial","watering":"Minimum","sunlight":["Full sun"],"default_image":{"image_id":11348,"license":4,"license_name":"Attribution License","license_url":"https://creativecommons.org/licenses/by/2.0/","original_url":"https://perenual.com/storage/species_image/5503_oenothera_biennis/og/52414973458_697d91642e_b.jpg","regular_url":"https://perenual.com/storage/species_image/5503_oenothera_biennis/regular/52414973458_697d91642e_b.jpg","medium_url":"https://perenual.com/storage/species_image/5503_oenothera_biennis/medium/52414973458_697d91642e_b.jpg","small_url":"https://perenual.com/storage/species_image/5503_oenothera_biennis/small/52414973458_697d91642e_b.jpg","thumbnail":"https://perenual.com/storage/species_image/5503_oenothera_biennis/thumbnail/52414973458_697d91642e_b.jpg"}},{"id":5504,"common_name":"sundrops","scientific_name":["Oenothera fruticosa 'Fyrverkeri'"],"other_name":null,"cycle":"Perennial","watering":"Minimum","sunlight":["Full sun"],"default_image":{"image_id":9,"license":5,"license_name":"Attribution-ShareAlike License","license_url":"https://creativecommons.org/licenses/by-sa/2.0/","original_url":"https://perenual.com/storage/species_image/2_abies_alba_pyramidalis/og/49255769768_df55596553_b.jpg","regular_url":"https://perenual.com/storage/species_image/2_abies_alba_pyramidalis/regular/49255769768_df55596553_b.jpg","medium_url":"https://perenual.com/storage/species_image/2_abies_alba_pyramidalis/medium/49255769768_df55596553_b.jpg","small_url":"https://perenual.com/storage/species_image/2_abies_alba_pyramidalis/small/49255769768_df55596553_b.jpg","thumbnail":"https://perenual.com/storage/species_image/2_abies_alba_pyramidalis/thumbnail/49255769768_df55596553_b.jpg"}},{"id":5505,"common_name":"sundrops","scientific_name":["Oenothera fruticosa subsp. glauca"],"other_name":null,"cycle":"Perennial","watering":"Minimum","sunlight":["Full sun"],"default_image":{"image_id":9,"license":5,"license_name":"Attribution-ShareAlike License","license_url":"https://creativecommons.org/licenses/by-sa/2.0/","original_url":"https://perenual.com/storage/species_image/2_abies_alba_pyramidalis/og/49255769768_df55596553_b.jpg","regular_url":"https://perenual.com/storage/species_image/2_abies_alba_pyramidalis/regular/49255769768_df55596553_b.jpg","medium_url":"https://perenual.com/storage/species_image/2_abies_alba_pyramidalis/medium/49255769768_df55596553_b.jpg","small_url":"https://perenual.com/storage/species_image/2_abies_alba_pyramidalis/small/49255769768_df55596553_b.jpg","thumbnail":"https://perenual.com/storage/species_image/2_abies_alba_pyramidalis/thumbnail/49255769768_df55596553_b.jpg"}},{"id":5506,"common_name":"sundrops","scientific_name":["Oenothera fruticosa 'Summer Solstice'"],"other_name":null,"cycle":"Perennial","watering":"Minimum","sunlight":["Full sun","part shade"],"default_image":{"image_id":9,"license":5,"license_name":"Attribution-ShareAlike License","license_url":"https://creativecommons.org/licenses/by-sa/2.0/","original_url":"https://perenual.com/storage/species_image/2_abies_alba_pyramidalis/og/49255769768_df55596553_b.jpg","regular_url":"https://perenual.com/storage/species_image/2_abies_alba_pyramidalis/regular/49255769768_df55596553_b.jpg","medium_url":"https://perenual.com/storage/species_image/2_abies_alba_pyramidalis/medium/49255769768_df55596553_b.jpg","small_url":"https://perenual.com/storage/species_image/2_abies_alba_pyramidalis/small/49255769768_df55596553_b.jpg","thumbnail":"https://perenual.com/storage/species_image/2_abies_alba_pyramidalis/thumbnail/49255769768_df55596553_b.jpg"}},{"id":5507,"common_name":"evening primrose","scientific_name":["Oenothera 'Innoeno131' LEMON DROP"],"other_name":null,"cycle":"Perennial","watering":"Minimum","sunlight":["Full sun"],"default_image":{"image_id":9,"license":5,"license_name":"Attribution-ShareAlike License","license_url":"https://creativecommons.org/licenses/by-sa/2.0/","original_url":"https://perenual.com/storage/species_image/2_abies_alba_pyramidalis/og/49255769768_df55596553_b.jpg","regular_url":"https://perenual.com/storage/species_image/2_abies_alba_pyramidalis/regular/49255769768_df55596553_b.jpg","medium_url":"https://perenual.com/storage/species_image/2_abies_alba_pyramidalis/medium/49255769768_df55596553_b.jpg","small_url":"https://perenual.com/storage/species_image/2_abies_alba_pyramidalis/small/49255769768_df55596553_b.jpg","thumbnail":"https://perenual.com/storage/species_image/2_abies_alba_pyramidalis/thumbnail/49255769768_df55596553_b.jpg"}},{"id":5508,"common_name":"evening primrose","scientific_name":["Oenothera kunthiana"],"other_name":null,"cycle":"Perennial","watering":"Minimum","sunlight":["Full sun"],"default_image":{"image_id":9,"license":5,"license_name":"Attribution-ShareAlike License","license_url":"https://creativecommons.org/licenses/by-sa/2.0/","original_url":"https://perenual.com/storage/species_image/2_abies_alba_pyramidalis/og/49255769768_df55596553_b.jpg","regular_url":"https://perenual.com/storage/species_image/2_abies_alba_pyramidalis/regular/49255769768_df55596553_b.jpg","medium_url":"https://perenual.com/storage/species_image/2_abies_alba_pyramidalis/medium/49255769768_df55596553_b.jpg","small_url":"https://perenual.com/storage/species_image/2_abies_alba_pyramidalis/small/49255769768_df55596553_b.jpg","thumbnail":"https://perenual.com/storage/species_image/2_abies_alba_pyramidalis/thumbnail/49255769768_df55596553_b.jpg"}},{"id":5509,"common_name":"evening primrose","scientific_name":["Oenothera 'Lemon Sunset'"],"other_name":null,"cycle":"Perennial","watering":"Minimum","sunlight":["Full sun"],"default_image":{"image_id":9,"license":5,"license_name":"Attribution-ShareAlike License","license_url":"https://creativecommons.org/licenses/by-sa/2.0/","original_url":"https://perenual.com/storage/species_image/2_abies_alba_pyramidalis/og/49255769768_df55596553_b.jpg","regular_url":"https://perenual.com/storage/species_image/2_abies_alba_pyramidalis/regular/49255769768_df55596553_b.jpg","medium_url":"https://perenual.com/storage/species_image/2_abies_alba_pyramidalis/medium/49255769768_df55596553_b.jpg","small_url":"https://perenual.com/storage/species_image/2_abies_alba_pyramidalis/small/49255769768_df55596553_b.jpg","thumbnail":"https://perenual.com/storage/species_image/2_abies_alba_pyramidalis/thumbnail/49255769768_df55596553_b.jpg"}},{"id":5510,"common_name":"Missouri evening primrose","scientific_name":["Oenothera macrocarpa"],"other_name":null,"cycle":"Perennial","watering":"Minimum","sunlight":["Full sun"],"default_image":{"image_id":9,"license":5,"license_name":"Attribution-ShareAlike License","license_url":"https://creativecommons.org/licenses/by-sa/2.0/","original_url":"https://perenual.com/storage/species_image/2_abies_alba_pyramidalis/og/49255769768_df55596553_b.jpg","regular_url":"https://perenual.com/storage/species_image/2_abies_alba_pyramidalis/regular/49255769768_df55596553_b.jpg","medium_url":"https://perenual.com/storage/species_image/2_abies_alba_pyramidalis/medium/49255769768_df55596553_b.jpg","small_url":"https://perenual.com/storage/species_image/2_abies_alba_pyramidalis/small/49255769768_df55596553_b.jpg","thumbnail":"https://perenual.com/storage/species_image/2_abies_alba_pyramidalis/thumbnail/49255769768_df55596553_b.jpg"}},{"id":5511,"common_name":"dwarf evening primrose","scientific_name":["Oenothera macrocarpa 'Dwarf Silver'"],"other_name":null,"cycle":"Perennial","watering":"Minimum","sunlight":["Full sun"],"default_image":{"image_id":9,"license":5,"license_name":"Attribution-ShareAlike License","license_url":"https://creativecommons.org/licenses/by-sa/2.0/","original_url":"https://perenual.com/storage/species_image/2_abies_alba_pyramidalis/og/49255769768_df55596553_b.jpg","regular_url":"https://perenual.com/storage/species_image/2_abies_alba_pyramidalis/regular/49255769768_df55596553_b.jpg","medium_url":"https://perenual.com/storage/species_image/2_abies_alba_pyramidalis/medium/49255769768_df55596553_b.jpg","small_url":"https://perenual.com/storage/species_image/2_abies_alba_pyramidalis/small/49255769768_df55596553_b.jpg","thumbnail":"https://perenual.com/storage/species_image/2_abies_alba_pyramidalis/thumbnail/49255769768_df55596553_b.jpg"}},{"id":5512,"common_name":"evening primrose","scientific_name":["Oenothera macrocarpa subsp. fremontii 'Lemon Silver'"],"other_name":null,"cycle":"Perennial","watering":"Minimum","sunlight":["Full sun"],"default_image":{"image_id":11356,"license":4,"license_name":"Attribution License","license_url":"https://creativecommons.org/licenses/by/2.0/","original_url":"https://perenual.com/storage/species_image/5512_oenothera_macrocarpa_subsp_fremontii_lemon_silver/og/52414907790_8c645ff318_b.jpg","regular_url":"https://perenual.com/storage/species_image/5512_oenothera_macrocarpa_subsp_fremontii_lemon_silver/regular/52414907790_8c645ff318_b.jpg","medium_url":"https://perenual.com/storage/species_image/5512_oenothera_macrocarpa_subsp_fremontii_lemon_silver/medium/52414907790_8c645ff318_b.jpg","small_url":"https://perenual.com/storage/species_image/5512_oenothera_macrocarpa_subsp_fremontii_lemon_silver/small/52414907790_8c645ff318_b.jpg","thumbnail":"https://perenual.com/storage/species_image/5512_oenothera_macrocarpa_subsp_fremontii_lemon_silver/thumbnail/52414907790_8c645ff318_b.jpg"}},{"id":5513,"common_name":"evening primrose","scientific_name":["Oenothera pilosella"],"other_name":null,"cycle":"Perennial","watering":"Frequent","sunlight":["Full sun"],"default_image":{"image_id":9,"license":5,"license_name":"Attribution-ShareAlike License","license_url":"https://creativecommons.org/licenses/by-sa/2.0/","original_url":"https://perenual.com/storage/species_image/2_abies_alba_pyramidalis/og/49255769768_df55596553_b.jpg","regular_url":"https://perenual.com/storage/species_image/2_abies_alba_pyramidalis/regular/49255769768_df55596553_b.jpg","medium_url":"https://perenual.com/storage/species_image/2_abies_alba_pyramidalis/medium/49255769768_df55596553_b.jpg","small_url":"https://perenual.com/storage/species_image/2_abies_alba_pyramidalis/small/49255769768_df55596553_b.jpg","thumbnail":"https://perenual.com/storage/species_image/2_abies_alba_pyramidalis/thumbnail/49255769768_df55596553_b.jpg"}},{"id":5514,"common_name":"evening primrose","scientific_name":["Oenothera 'Shimmer'"],"other_name":null,"cycle":"Perennial","watering":"Minimum","sunlight":["Full sun"],"default_image":{"image_id":11359,"license":4,"license_name":"Attribution License","license_url":"https://creativecommons.org/licenses/by/2.0/","original_url":"https://perenual.com/storage/species_image/5514_oenothera_shimmer/og/10865862234_da4f65ca5c_b.jpg","regular_url":"https://perenual.com/storage/species_image/5514_oenothera_shimmer/regular/10865862234_da4f65ca5c_b.jpg","medium_url":"https://perenual.com/storage/species_image/5514_oenothera_shimmer/medium/10865862234_da4f65ca5c_b.jpg","small_url":"https://perenual.com/storage/species_image/5514_oenothera_shimmer/small/10865862234_da4f65ca5c_b.jpg","thumbnail":"https://perenual.com/storage/species_image/5514_oenothera_shimmer/thumbnail/10865862234_da4f65ca5c_b.jpg"}},{"id":5515,"common_name":"white evening primrose","scientific_name":["Oenothera speciosa"],"other_name":null,"cycle":"Perennial","watering":"Minimum","sunlight":["Full sun"],"default_image":{"image_id":9,"license":5,"license_name":"Attribution-ShareAlike License","license_url":"https://creativecommons.org/licenses/by-sa/2.0/","original_url":"https://perenual.com/storage/species_image/2_abies_alba_pyramidalis/og/49255769768_df55596553_b.jpg","regular_url":"https://perenual.com/storage/species_image/2_abies_alba_pyramidalis/regular/49255769768_df55596553_b.jpg","medium_url":"https://perenual.com/storage/species_image/2_abies_alba_pyramidalis/medium/49255769768_df55596553_b.jpg","small_url":"https://perenual.com/storage/species_image/2_abies_alba_pyramidalis/small/49255769768_df55596553_b.jpg","thumbnail":"https://perenual.com/storage/species_image/2_abies_alba_pyramidalis/thumbnail/49255769768_df55596553_b.jpg"}},{"id":5516,"common_name":"white evening primrose","scientific_name":["Oenothera speciosa 'Rosea'"],"other_name":null,"cycle":"Perennial","watering":"Minimum","sunlight":["Full sun"],"default_image":{"image_id":11362,"license":45,"license_name":"Attribution-ShareAlike 3.0 Unported (CC BY-SA 3.0)","license_url":"https://creativecommons.org/licenses/by-sa/3.0/deed.en","original_url":"https://perenual.com/storage/species_image/5516_oenothera_speciosa_rosea/og/800px-Oenothera_speciosa_Rosea.jpg","regular_url":"https://perenual.com/storage/species_image/5516_oenothera_speciosa_rosea/regular/800px-Oenothera_speciosa_Rosea.jpg","medium_url":"https://perenual.com/storage/species_image/5516_oenothera_speciosa_rosea/medium/800px-Oenothera_speciosa_Rosea.jpg","small_url":"https://perenual.com/storage/species_image/5516_oenothera_speciosa_rosea/small/800px-Oenothera_speciosa_Rosea.jpg","thumbnail":"https://perenual.com/storage/species_image/5516_oenothera_speciosa_rosea/thumbnail/800px-Oenothera_speciosa_Rosea.jpg"}},{"id":5517,"common_name":"olive","scientific_name":["Olea europaea 'Sevillano'"],"other_name":null,"cycle":"Perennial","watering":"Average","sunlight":["Full sun"],"default_image":{"image_id":9,"license":5,"license_name":"Attribution-ShareAlike License","license_url":"https://creativecommons.org/licenses/by-sa/2.0/","original_url":"https://perenual.com/storage/species_image/2_abies_alba_pyramidalis/og/49255769768_df55596553_b.jpg","regular_url":"https://perenual.com/storage/species_image/2_abies_alba_pyramidalis/regular/49255769768_df55596553_b.jpg","medium_url":"https://perenual.com/storage/species_image/2_abies_alba_pyramidalis/medium/49255769768_df55596553_b.jpg","small_url":"https://perenual.com/storage/species_image/2_abies_alba_pyramidalis/small/49255769768_df55596553_b.jpg","thumbnail":"https://perenual.com/storage/species_image/2_abies_alba_pyramidalis/thumbnail/49255769768_df55596553_b.jpg"}},{"id":5518,"common_name":"navelwort","scientific_name":["Omphalodes cappadocica"],"other_name":["blue-eyed Mary"],"cycle":"Perennial","watering":"Average","sunlight":["Filtered shade"],"default_image":{"image_id":11364,"license":5,"license_name":"Attribution-ShareAlike License","license_url":"https://creativecommons.org/licenses/by-sa/2.0/","original_url":"https://perenual.com/storage/species_image/5518_omphalodes_cappadocica/og/6949735858_58996c1639_b.jpg","regular_url":"https://perenual.com/storage/species_image/5518_omphalodes_cappadocica/regular/6949735858_58996c1639_b.jpg","medium_url":"https://perenual.com/storage/species_image/5518_omphalodes_cappadocica/medium/6949735858_58996c1639_b.jpg","small_url":"https://perenual.com/storage/species_image/5518_omphalodes_cappadocica/small/6949735858_58996c1639_b.jpg","thumbnail":"https://perenual.com/storage/species_image/5518_omphalodes_cappadocica/thumbnail/6949735858_58996c1639_b.jpg"}},{"id":5519,"common_name":"navelwort","scientific_name":["Omphalodes cappadocica 'Starry Eyes'"],"other_name":["blue-eyed Mary"],"cycle":"Perennial","watering":"Average","sunlight":["Filtered shade"],"default_image":{"image_id":11366,"license":5,"license_name":"Attribution-ShareAlike License","license_url":"https://creativecommons.org/licenses/by-sa/2.0/","original_url":"https://perenual.com/storage/species_image/5519_omphalodes_cappadocica_starry_eyes/og/51409135284_bea82ae86f_b.jpg","regular_url":"https://perenual.com/storage/species_image/5519_omphalodes_cappadocica_starry_eyes/regular/51409135284_bea82ae86f_b.jpg","medium_url":"https://perenual.com/storage/species_image/5519_omphalodes_cappadocica_starry_eyes/medium/51409135284_bea82ae86f_b.jpg","small_url":"https://perenual.com/storage/species_image/5519_omphalodes_cappadocica_starry_eyes/small/51409135284_bea82ae86f_b.jpg","thumbnail":"https://perenual.com/storage/species_image/5519_omphalodes_cappadocica_starry_eyes/thumbnail/51409135284_bea82ae86f_b.jpg"}},{"id":5520,"common_name":"orchid","scientific_name":["Oncidium (group)"],"other_name":null,"cycle":"Perennial","watering":"Average","sunlight":["Part shade"],"default_image":{"image_id":9,"license":5,"license_name":"Attribution-ShareAlike License","license_url":"https://creativecommons.org/licenses/by-sa/2.0/","original_url":"https://perenual.com/storage/species_image/2_abies_alba_pyramidalis/og/49255769768_df55596553_b.jpg","regular_url":"https://perenual.com/storage/species_image/2_abies_alba_pyramidalis/regular/49255769768_df55596553_b.jpg","medium_url":"https://perenual.com/storage/species_image/2_abies_alba_pyramidalis/medium/49255769768_df55596553_b.jpg","small_url":"https://perenual.com/storage/species_image/2_abies_alba_pyramidalis/small/49255769768_df55596553_b.jpg","thumbnail":"https://perenual.com/storage/species_image/2_abies_alba_pyramidalis/thumbnail/49255769768_df55596553_b.jpg"}}],"to":5520,"per_page":30,"current_page":184,"from":5491,"last_page":200,"total":6000}