{"data":[{"id":481,"common_name":"yarrow","scientific_name":["Achillea millefolium 'Desyel' DESERT EVE YELLOW"],"other_name":null,"cycle":"Perennial","watering":"Minimum","sunlight":["Full sun"],"default_image":{"image_id":9,"license":5,"license_name":"Attribution-ShareAlike License","license_url":"https://creativecommons.org/licenses/by-sa/2.0/","original_url":"https://perenual.com/storage/species_image/2_abies_alba_pyramidalis/og/49255769768_df55596553_b.jpg","regular_url":"https://perenual.com/storage/species_image/2_abies_alba_pyramidalis/regular/49255769768_df55596553_b.jpg","medium_url":"https://perenual.com/storage/species_image/2_abies_alba_pyramidalis/medium/49255769768_df55596553_b.jpg","small_url":"https://perenual.com/storage/species_image/2_abies_alba_pyramidalis/small/49255769768_df55596553_b.jpg","thumbnail":"https://perenual.com/storage/species_image/2_abies_alba_pyramidalis/thumbnail/49255769768_df55596553_b.jpg"}},{"id":482,"common_name":"yarrow","scientific_name":["Achillea millefolium f. rosea"],"other_name":null,"cycle":"Perennial","watering":"Minimum","sunlight":["Full sun"],"default_image":{"image_id":9,"license":5,"license_name":"Attribution-ShareAlike License","license_url":"https://creativecommons.org/licenses/by-sa/2.0/","original_url":"https://perenual.com/storage/species_image/2_abies_alba_pyramidalis/og/49255769768_df55596553_b.jpg","regular_url":"https://perenual.com/storage/species_image/2_abies_alba_pyramidalis/regular/49255769768_df55596553_b.jpg","medium_url":"https://perenual.com/storage/species_image/2_abies_alba_pyramidalis/medium/49255769768_df55596553_b.jpg","small_url":"https://perenual.com/storage/species_image/2_abies_alba_pyramidalis/small/49255769768_df55596553_b.jpg","thumbnail":"https://perenual.com/storage/species_image/2_abies_alba_pyramidalis/thumbnail/49255769768_df55596553_b.jpg"}},{"id":483,"common_name":"yarrow","scientific_name":["Achillea millefolium 'Montrose Rose'"],"other_name":null,"cycle":"Perennial","watering":"Minimum","sunlight":["Full sun"],"default_image":{"image_id":9,"license":5,"license_name":"Attribution-ShareAlike License","license_url":"https://creativecommons.org/licenses/by-sa/2.0/","original_url":"https://perenual.com/storage/species_image/2_abies_alba_pyramidalis/og/49255769768_df55596553_b.jpg","regular_url":"https://perenual.com/storage/species_image/2_abies_alba_pyramidalis/regular/49255769768_df55596553_b.jpg","medium_url":"https://perenual.com/storage/species_image/2_abies_alba_pyramidalis/medium/49255769768_df55596553_b.jpg","small_url":"https://perenual.com/storage/species_image/2_abies_alba_pyramidalis/small/49255769768_df55596553_b.jpg","thumbnail":"https://perenual.com/storage/species_image/2_abies_alba_pyramidalis/thumbnail/49255769768_df55596553_b.jpg"}},{"id":484,"common_name":"yarrow","scientific_name":["Achillea millefolium 'Paprika'"],"other_name":null,"cycle":"Perennial","watering":"Minimum","sunlight":["Full sun"],"default_image":{"image_id":1023,"license":5,"license_name":"Attribution-ShareAlike License","license_url":"https://creativecommons.org/licenses/by-sa/2.0/","original_url":"https://perenual.com/storage/species_image/484_achillea_millefolium_paprika/og/9654640294_14745a6dba_b.jpg","regular_url":"https://perenual.com/storage/species_image/484_achillea_millefolium_paprika/regular/9654640294_14745a6dba_b.jpg","medium_url":"https://perenual.com/storage/species_image/484_achillea_millefolium_paprika/medium/9654640294_14745a6dba_b.jpg","small_url":"https://perenual.com/storage/species_image/484_achillea_millefolium_paprika/small/9654640294_14745a6dba_b.jpg","thumbnail":"https://perenual.com/storage/species_image/484_achillea_millefolium_paprika/thumbnail/9654640294_14745a6dba_b.jpg"}},{"id":485,"common_name":"yarrow","scientific_name":["Achillea millefolium 'Peachy Seduction'"],"other_name":null,"cycle":"Perennial","watering":"Minimum","sunlight":["Full sun"],"default_image":{"image_id":9,"license":5,"license_name":"Attribution-ShareAlike License","license_url":"https://creativecommons.org/licenses/by-sa/2.0/","original_url":"https://perenual.com/storage/species_image/2_abies_alba_pyramidalis/og/49255769768_df55596553_b.jpg","regular_url":"https://perenual.com/storage/species_image/2_abies_alba_pyramidalis/regular/49255769768_df55596553_b.jpg","medium_url":"https://perenual.com/storage/species_image/2_abies_alba_pyramidalis/medium/49255769768_df55596553_b.jpg","small_url":"https://perenual.com/storage/species_image/2_abies_alba_pyramidalis/small/49255769768_df55596553_b.jpg","thumbnail":"https://perenual.com/storage/species_image/2_abies_alba_pyramidalis/thumbnail/49255769768_df55596553_b.jpg"}},{"id":486,"common_name":"yarrow","scientific_name":["Achillea millefolium 'Pomegranate'"],"other_name":null,"cycle":"Perennial","watering":"Minimum","sunlight":["Full sun"],"default_image":{"image_id":9,"license":5,"license_name":"Attribution-ShareAlike License","license_url":"https://creativecommons.org/licenses/by-sa/2.0/","original_url":"https://perenual.com/storage/species_image/2_abies_alba_pyramidalis/og/49255769768_df55596553_b.jpg","regular_url":"https://perenual.com/storage/species_image/2_abies_alba_pyramidalis/regular/49255769768_df55596553_b.jpg","medium_url":"https://perenual.com/storage/species_image/2_abies_alba_pyramidalis/medium/49255769768_df55596553_b.jpg","small_url":"https://perenual.com/storage/species_image/2_abies_alba_pyramidalis/small/49255769768_df55596553_b.jpg","thumbnail":"https://perenual.com/storage/species_image/2_abies_alba_pyramidalis/thumbnail/49255769768_df55596553_b.jpg"}},{"id":487,"common_name":"yarrow","scientific_name":["Achillea millefolium 'Pretty Belinda'"],"other_name":null,"cycle":"Perennial","watering":"Minimum","sunlight":["Full sun"],"default_image":{"image_id":9,"license":5,"license_name":"Attribution-ShareAlike License","license_url":"https://creativecommons.org/licenses/by-sa/2.0/","original_url":"https://perenual.com/storage/species_image/2_abies_alba_pyramidalis/og/49255769768_df55596553_b.jpg","regular_url":"https://perenual.com/storage/species_image/2_abies_alba_pyramidalis/regular/49255769768_df55596553_b.jpg","medium_url":"https://perenual.com/storage/species_image/2_abies_alba_pyramidalis/medium/49255769768_df55596553_b.jpg","small_url":"https://perenual.com/storage/species_image/2_abies_alba_pyramidalis/small/49255769768_df55596553_b.jpg","thumbnail":"https://perenual.com/storage/species_image/2_abies_alba_pyramidalis/thumbnail/49255769768_df55596553_b.jpg"}},{"id":488,"common_name":"yarrow","scientific_name":["Achillea millefolium 'Red Beauty'"],"other_name":null,"cycle":"Perennial","watering":"Minimum","sunlight":["Full sun"],"default_image":{"image_id":1026,"license":4,"license_name":"Attribution License","license_url":"https://creativecommons.org/licenses/by/2.0/","original_url":"https://perenual.com/storage/species_image/8484_achillea_millefolium_cvs/og/38580956105_a6199a8718_b.jpg","regular_url":"https://perenual.com/storage/species_image/8484_achillea_millefolium_cvs/regular/38580956105_a6199a8718_b.jpg","medium_url":"https://perenual.com/storage/species_image/8484_achillea_millefolium_cvs/medium/38580956105_a6199a8718_b.jpg","small_url":"https://perenual.com/storage/species_image/8484_achillea_millefolium_cvs/small/38580956105_a6199a8718_b.jpg","thumbnail":"https://perenual.com/storage/species_image/8484_achillea_millefolium_cvs/thumbnail/38580956105_a6199a8718_b.jpg"}},{"id":489,"common_name":"yarrow","scientific_name":["Achillea millefolium 'Saucy Seduction'"],"other_name":null,"cycle":"Perennial","watering":"Minimum","sunlight":["Full sun"],"default_image":{"image_id":1029,"license":5,"license_name":"Attribution-ShareAlike License","license_url":"https://creativecommons.org/licenses/by-sa/2.0/","original_url":"https://perenual.com/storage/species_image/489_achillea_millefolium_saucy_seduction/og/5147860510_c54d44e5f5_b.jpg","regular_url":"https://perenual.com/storage/species_image/489_achillea_millefolium_saucy_seduction/regular/5147860510_c54d44e5f5_b.jpg","medium_url":"https://perenual.com/storage/species_image/489_achillea_millefolium_saucy_seduction/medium/5147860510_c54d44e5f5_b.jpg","small_url":"https://perenual.com/storage/species_image/489_achillea_millefolium_saucy_seduction/small/5147860510_c54d44e5f5_b.jpg","thumbnail":"https://perenual.com/storage/species_image/489_achillea_millefolium_saucy_seduction/thumbnail/5147860510_c54d44e5f5_b.jpg"}},{"id":490,"common_name":"yarrow","scientific_name":["Achillea 'Moonshine'"],"other_name":null,"cycle":"Perennial","watering":"Minimum","sunlight":["Full sun"],"default_image":{"image_id":9,"license":5,"license_name":"Attribution-ShareAlike License","license_url":"https://creativecommons.org/licenses/by-sa/2.0/","original_url":"https://perenual.com/storage/species_image/2_abies_alba_pyramidalis/og/49255769768_df55596553_b.jpg","regular_url":"https://perenual.com/storage/species_image/2_abies_alba_pyramidalis/regular/49255769768_df55596553_b.jpg","medium_url":"https://perenual.com/storage/species_image/2_abies_alba_pyramidalis/medium/49255769768_df55596553_b.jpg","small_url":"https://perenual.com/storage/species_image/2_abies_alba_pyramidalis/small/49255769768_df55596553_b.jpg","thumbnail":"https://perenual.com/storage/species_image/2_abies_alba_pyramidalis/thumbnail/49255769768_df55596553_b.jpg"}},{"id":491,"common_name":"sneezewort","scientific_name":["Achillea ptarmica 'Gipi Whit' GYPSY WHITE"],"other_name":null,"cycle":"Perennial","watering":"Minimum","sunlight":["Full sun","part shade"],"default_image":{"image_id":9,"license":5,"license_name":"Attribution-ShareAlike License","license_url":"https://creativecommons.org/licenses/by-sa/2.0/","original_url":"https://perenual.com/storage/species_image/2_abies_alba_pyramidalis/og/49255769768_df55596553_b.jpg","regular_url":"https://perenual.com/storage/species_image/2_abies_alba_pyramidalis/regular/49255769768_df55596553_b.jpg","medium_url":"https://perenual.com/storage/species_image/2_abies_alba_pyramidalis/medium/49255769768_df55596553_b.jpg","small_url":"https://perenual.com/storage/species_image/2_abies_alba_pyramidalis/small/49255769768_df55596553_b.jpg","thumbnail":"https://perenual.com/storage/species_image/2_abies_alba_pyramidalis/thumbnail/49255769768_df55596553_b.jpg"}},{"id":492,"common_name":"sneezewort","scientific_name":["Achillea ptarmica (The Pearl Group)"],"other_name":null,"cycle":"Perennial","watering":"Minimum","sunlight":["Full sun","part shade"],"default_image":{"image_id":1036,"license":4,"license_name":"Attribution License","license_url":"https://creativecommons.org/licenses/by/2.0/","original_url":"https://perenual.com/storage/species_image/492_achillea_ptarmica_the_pearl_group/og/2767012614_c7e9632338_b.jpg","regular_url":"https://perenual.com/storage/species_image/492_achillea_ptarmica_the_pearl_group/regular/2767012614_c7e9632338_b.jpg","medium_url":"https://perenual.com/storage/species_image/492_achillea_ptarmica_the_pearl_group/medium/2767012614_c7e9632338_b.jpg","small_url":"https://perenual.com/storage/species_image/492_achillea_ptarmica_the_pearl_group/small/2767012614_c7e9632338_b.jpg","thumbnail":"https://perenual.com/storage/species_image/492_achillea_ptarmica_the_pearl_group/thumbnail/2767012614_c7e9632338_b.jpg"}},{"id":493,"common_name":"yarrow","scientific_name":["Achillea 'Schwellenburg'"],"other_name":null,"cycle":"Perennial","watering":"Minimum","sunlight":["Full sun"],"default_image":{"image_id":9,"license":5,"license_name":"Attribution-ShareAlike License","license_url":"https://creativecommons.org/licenses/by-sa/2.0/","original_url":"https://perenual.com/storage/species_image/2_abies_alba_pyramidalis/og/49255769768_df55596553_b.jpg","regular_url":"https://perenual.com/storage/species_image/2_abies_alba_pyramidalis/regular/49255769768_df55596553_b.jpg","medium_url":"https://perenual.com/storage/species_image/2_abies_alba_pyramidalis/medium/49255769768_df55596553_b.jpg","small_url":"https://perenual.com/storage/species_image/2_abies_alba_pyramidalis/small/49255769768_df55596553_b.jpg","thumbnail":"https://perenual.com/storage/species_image/2_abies_alba_pyramidalis/thumbnail/49255769768_df55596553_b.jpg"}},{"id":494,"common_name":"Siberian yarrow","scientific_name":["Achillea sibirica"],"other_name":null,"cycle":"Perennial","watering":"Minimum","sunlight":["Full sun"],"default_image":{"image_id":1037,"license":4,"license_name":"Attribution License","license_url":"https://creativecommons.org/licenses/by/2.0/","original_url":"https://perenual.com/storage/species_image/494_achillea_sibirica/og/7762255084_e1def57a0c_b.jpg","regular_url":"https://perenual.com/storage/species_image/494_achillea_sibirica/regular/7762255084_e1def57a0c_b.jpg","medium_url":"https://perenual.com/storage/species_image/494_achillea_sibirica/medium/7762255084_e1def57a0c_b.jpg","small_url":"https://perenual.com/storage/species_image/494_achillea_sibirica/small/7762255084_e1def57a0c_b.jpg","thumbnail":"https://perenual.com/storage/species_image/494_achillea_sibirica/thumbnail/7762255084_e1def57a0c_b.jpg"}},{"id":495,"common_name":"yarrow","scientific_name":["Achillea sibirica subsp. camschatica 'Love Parade'"],"other_name":null,"cycle":"Perennial","watering":"Minimum","sunlight":["Full sun"],"default_image":{"image_id":9,"license":5,"license_name":"Attribution-ShareAlike License","license_url":"https://creativecommons.org/licenses/by-sa/2.0/","original_url":"https://perenual.com/storage/species_image/2_abies_alba_pyramidalis/og/49255769768_df55596553_b.jpg","regular_url":"https://perenual.com/storage/species_image/2_abies_alba_pyramidalis/regular/49255769768_df55596553_b.jpg","medium_url":"https://perenual.com/storage/species_image/2_abies_alba_pyramidalis/medium/49255769768_df55596553_b.jpg","small_url":"https://perenual.com/storage/species_image/2_abies_alba_pyramidalis/small/49255769768_df55596553_b.jpg","thumbnail":"https://perenual.com/storage/species_image/2_abies_alba_pyramidalis/thumbnail/49255769768_df55596553_b.jpg"}},{"id":496,"common_name":"yarrow","scientific_name":["Achillea 'Snow Sport'"],"other_name":null,"cycle":"Perennial","watering":"Minimum","sunlight":["Full sun"],"default_image":{"image_id":9,"license":5,"license_name":"Attribution-ShareAlike License","license_url":"https://creativecommons.org/licenses/by-sa/2.0/","original_url":"https://perenual.com/storage/species_image/2_abies_alba_pyramidalis/og/49255769768_df55596553_b.jpg","regular_url":"https://perenual.com/storage/species_image/2_abies_alba_pyramidalis/regular/49255769768_df55596553_b.jpg","medium_url":"https://perenual.com/storage/species_image/2_abies_alba_pyramidalis/medium/49255769768_df55596553_b.jpg","small_url":"https://perenual.com/storage/species_image/2_abies_alba_pyramidalis/small/49255769768_df55596553_b.jpg","thumbnail":"https://perenual.com/storage/species_image/2_abies_alba_pyramidalis/thumbnail/49255769768_df55596553_b.jpg"}},{"id":497,"common_name":"yarrow","scientific_name":["Achillea (Summer Pastels Group)"],"other_name":null,"cycle":"Perennial","watering":"Minimum","sunlight":["Full sun"],"default_image":{"image_id":1016,"license":5,"license_name":"Attribution-ShareAlike License","license_url":"https://creativecommons.org/licenses/by-sa/2.0/","original_url":"https://perenual.com/storage/species_image/497_achillea_summer_pastels_group/og/52382084735_177f5783b5_b.jpg","regular_url":"https://perenual.com/storage/species_image/497_achillea_summer_pastels_group/regular/52382084735_177f5783b5_b.jpg","medium_url":"https://perenual.com/storage/species_image/497_achillea_summer_pastels_group/medium/52382084735_177f5783b5_b.jpg","small_url":"https://perenual.com/storage/species_image/497_achillea_summer_pastels_group/small/52382084735_177f5783b5_b.jpg","thumbnail":"https://perenual.com/storage/species_image/497_achillea_summer_pastels_group/thumbnail/52382084735_177f5783b5_b.jpg"}},{"id":498,"common_name":"yarrow","scientific_name":["Achillea 'Summerwine'"],"other_name":null,"cycle":"Perennial","watering":"Minimum","sunlight":["Full sun"],"default_image":{"image_id":9,"license":5,"license_name":"Attribution-ShareAlike License","license_url":"https://creativecommons.org/licenses/by-sa/2.0/","original_url":"https://perenual.com/storage/species_image/2_abies_alba_pyramidalis/og/49255769768_df55596553_b.jpg","regular_url":"https://perenual.com/storage/species_image/2_abies_alba_pyramidalis/regular/49255769768_df55596553_b.jpg","medium_url":"https://perenual.com/storage/species_image/2_abies_alba_pyramidalis/medium/49255769768_df55596553_b.jpg","small_url":"https://perenual.com/storage/species_image/2_abies_alba_pyramidalis/small/49255769768_df55596553_b.jpg","thumbnail":"https://perenual.com/storage/species_image/2_abies_alba_pyramidalis/thumbnail/49255769768_df55596553_b.jpg"}},{"id":499,"common_name":"yarrow","scientific_name":["Achillea 'Terracotta'"],"other_name":null,"cycle":"Perennial","watering":"Minimum","sunlight":["Full sun"],"default_image":{"image_id":999,"license":5,"license_name":"Attribution-ShareAlike License","license_url":"https://creativecommons.org/licenses/by-sa/2.0/","original_url":"https://perenual.com/storage/species_image/499_achillea_terracotta/og/51814554903_89600efb50_b.jpg","regular_url":"https://perenual.com/storage/species_image/499_achillea_terracotta/regular/51814554903_89600efb50_b.jpg","medium_url":"https://perenual.com/storage/species_image/499_achillea_terracotta/medium/51814554903_89600efb50_b.jpg","small_url":"https://perenual.com/storage/species_image/499_achillea_terracotta/small/51814554903_89600efb50_b.jpg","thumbnail":"https://perenual.com/storage/species_image/499_achillea_terracotta/thumbnail/51814554903_89600efb50_b.jpg"}},{"id":500,"common_name":"woolly yarrow","scientific_name":["Achillea tomentosa 'Aurea'"],"other_name":null,"cycle":"Perennial","watering":"Minimum","sunlight":["Full sun"],"default_image":{"image_id":9,"license":5,"license_name":"Attribution-ShareAlike License","license_url":"https://creativecommons.org/licenses/by-sa/2.0/","original_url":"https://perenual.com/storage/species_image/2_abies_alba_pyramidalis/og/49255769768_df55596553_b.jpg","regular_url":"https://perenual.com/storage/species_image/2_abies_alba_pyramidalis/regular/49255769768_df55596553_b.jpg","medium_url":"https://perenual.com/storage/species_image/2_abies_alba_pyramidalis/medium/49255769768_df55596553_b.jpg","small_url":"https://perenual.com/storage/species_image/2_abies_alba_pyramidalis/small/49255769768_df55596553_b.jpg","thumbnail":"https://perenual.com/storage/species_image/2_abies_alba_pyramidalis/thumbnail/49255769768_df55596553_b.jpg"}},{"id":501,"common_name":"yarrow","scientific_name":["Achillea 'Walther Funcke'"],"other_name":null,"cycle":"Perennial","watering":"Minimum","sunlight":["Full sun"],"default_image":{"image_id":1043,"license":5,"license_name":"Attribution-ShareAlike License","license_url":"https://creativecommons.org/licenses/by-sa/2.0/","original_url":"https://perenual.com/storage/species_image/501_achillea_walther_funcke/og/51276730628_57ee68754b_b.jpg","regular_url":"https://perenual.com/storage/species_image/501_achillea_walther_funcke/regular/51276730628_57ee68754b_b.jpg","medium_url":"https://perenual.com/storage/species_image/501_achillea_walther_funcke/medium/51276730628_57ee68754b_b.jpg","small_url":"https://perenual.com/storage/species_image/501_achillea_walther_funcke/small/51276730628_57ee68754b_b.jpg","thumbnail":"https://perenual.com/storage/species_image/501_achillea_walther_funcke/thumbnail/51276730628_57ee68754b_b.jpg"}},{"id":502,"common_name":"hot water plant","scientific_name":["Achimenes (group)"],"other_name":null,"cycle":"Perennial","watering":"Average","sunlight":["Part shade"],"default_image":{"image_id":9,"license":5,"license_name":"Attribution-ShareAlike License","license_url":"https://creativecommons.org/licenses/by-sa/2.0/","original_url":"https://perenual.com/storage/species_image/2_abies_alba_pyramidalis/og/49255769768_df55596553_b.jpg","regular_url":"https://perenual.com/storage/species_image/2_abies_alba_pyramidalis/regular/49255769768_df55596553_b.jpg","medium_url":"https://perenual.com/storage/species_image/2_abies_alba_pyramidalis/medium/49255769768_df55596553_b.jpg","small_url":"https://perenual.com/storage/species_image/2_abies_alba_pyramidalis/small/49255769768_df55596553_b.jpg","thumbnail":"https://perenual.com/storage/species_image/2_abies_alba_pyramidalis/thumbnail/49255769768_df55596553_b.jpg"}},{"id":503,"common_name":"golden spaniard","scientific_name":["Aciphylla aurea"],"other_name":null,"cycle":"Perennial","watering":"Minimum","sunlight":["Full sun","part shade"],"default_image":{"image_id":9,"license":5,"license_name":"Attribution-ShareAlike License","license_url":"https://creativecommons.org/licenses/by-sa/2.0/","original_url":"https://perenual.com/storage/species_image/2_abies_alba_pyramidalis/og/49255769768_df55596553_b.jpg","regular_url":"https://perenual.com/storage/species_image/2_abies_alba_pyramidalis/regular/49255769768_df55596553_b.jpg","medium_url":"https://perenual.com/storage/species_image/2_abies_alba_pyramidalis/medium/49255769768_df55596553_b.jpg","small_url":"https://perenual.com/storage/species_image/2_abies_alba_pyramidalis/small/49255769768_df55596553_b.jpg","thumbnail":"https://perenual.com/storage/species_image/2_abies_alba_pyramidalis/thumbnail/49255769768_df55596553_b.jpg"}},{"id":504,"common_name":"paurotis palm","scientific_name":["Acoelorrhaphe wrightii"],"other_name":null,"cycle":"Perennial","watering":"Frequent","sunlight":["Full sun"],"default_image":{"image_id":1049,"license":4,"license_name":"Attribution License","license_url":"https://creativecommons.org/licenses/by/2.0/","original_url":"https://perenual.com/storage/species_image/504_acoelorrhaphe_wrightii/og/24857511382_4d8a1ef1dc_b.jpg","regular_url":"https://perenual.com/storage/species_image/504_acoelorrhaphe_wrightii/regular/24857511382_4d8a1ef1dc_b.jpg","medium_url":"https://perenual.com/storage/species_image/504_acoelorrhaphe_wrightii/medium/24857511382_4d8a1ef1dc_b.jpg","small_url":"https://perenual.com/storage/species_image/504_acoelorrhaphe_wrightii/small/24857511382_4d8a1ef1dc_b.jpg","thumbnail":"https://perenual.com/storage/species_image/504_acoelorrhaphe_wrightii/thumbnail/24857511382_4d8a1ef1dc_b.jpg"}},{"id":505,"common_name":"monkshood","scientific_name":["Aconitum bulbuliferum 'Monk Gone Wild'"],"other_name":null,"cycle":"Perennial","watering":"Average","sunlight":["Full sun","part shade"],"default_image":{"image_id":1057,"license":5,"license_name":"Attribution-ShareAlike License","license_url":"https://creativecommons.org/licenses/by-sa/2.0/","original_url":"https://perenual.com/storage/species_image/505_aconitum_bulbuliferum_monk_gone_wild/og/50275942563_55509f4393_b.jpg","regular_url":"https://perenual.com/storage/species_image/505_aconitum_bulbuliferum_monk_gone_wild/regular/50275942563_55509f4393_b.jpg","medium_url":"https://perenual.com/storage/species_image/505_aconitum_bulbuliferum_monk_gone_wild/medium/50275942563_55509f4393_b.jpg","small_url":"https://perenual.com/storage/species_image/505_aconitum_bulbuliferum_monk_gone_wild/small/50275942563_55509f4393_b.jpg","thumbnail":"https://perenual.com/storage/species_image/505_aconitum_bulbuliferum_monk_gone_wild/thumbnail/50275942563_55509f4393_b.jpg"}},{"id":506,"common_name":"azure monkshood","scientific_name":["Aconitum carmichaelii 'Arendsii'"],"other_name":null,"cycle":"Perennial","watering":"Average","sunlight":["Full sun","part shade"],"default_image":{"image_id":9,"license":5,"license_name":"Attribution-ShareAlike License","license_url":"https://creativecommons.org/licenses/by-sa/2.0/","original_url":"https://perenual.com/storage/species_image/2_abies_alba_pyramidalis/og/49255769768_df55596553_b.jpg","regular_url":"https://perenual.com/storage/species_image/2_abies_alba_pyramidalis/regular/49255769768_df55596553_b.jpg","medium_url":"https://perenual.com/storage/species_image/2_abies_alba_pyramidalis/medium/49255769768_df55596553_b.jpg","small_url":"https://perenual.com/storage/species_image/2_abies_alba_pyramidalis/small/49255769768_df55596553_b.jpg","thumbnail":"https://perenual.com/storage/species_image/2_abies_alba_pyramidalis/thumbnail/49255769768_df55596553_b.jpg"}},{"id":507,"common_name":"azure monkshood","scientific_name":["Aconitum carmichaelii var. angustius"],"other_name":null,"cycle":"Perennial","watering":"Average","sunlight":["Full sun","part shade"],"default_image":{"image_id":1061,"license":5,"license_name":"Attribution-ShareAlike License","license_url":"https://creativecommons.org/licenses/by-sa/2.0/","original_url":"https://perenual.com/storage/species_image/507_aconitum_carmichaelii_var_angustius/og/51585221643_efcbab382f_b.jpg","regular_url":"https://perenual.com/storage/species_image/507_aconitum_carmichaelii_var_angustius/regular/51585221643_efcbab382f_b.jpg","medium_url":"https://perenual.com/storage/species_image/507_aconitum_carmichaelii_var_angustius/medium/51585221643_efcbab382f_b.jpg","small_url":"https://perenual.com/storage/species_image/507_aconitum_carmichaelii_var_angustius/small/51585221643_efcbab382f_b.jpg","thumbnail":"https://perenual.com/storage/species_image/507_aconitum_carmichaelii_var_angustius/thumbnail/51585221643_efcbab382f_b.jpg"}},{"id":508,"common_name":"monkshood","scientific_name":["Aconitum 'Eleonara'"],"other_name":null,"cycle":"Perennial","watering":"Average","sunlight":["Full sun","part shade"],"default_image":{"image_id":9,"license":5,"license_name":"Attribution-ShareAlike License","license_url":"https://creativecommons.org/licenses/by-sa/2.0/","original_url":"https://perenual.com/storage/species_image/2_abies_alba_pyramidalis/og/49255769768_df55596553_b.jpg","regular_url":"https://perenual.com/storage/species_image/2_abies_alba_pyramidalis/regular/49255769768_df55596553_b.jpg","medium_url":"https://perenual.com/storage/species_image/2_abies_alba_pyramidalis/medium/49255769768_df55596553_b.jpg","small_url":"https://perenual.com/storage/species_image/2_abies_alba_pyramidalis/small/49255769768_df55596553_b.jpg","thumbnail":"https://perenual.com/storage/species_image/2_abies_alba_pyramidalis/thumbnail/49255769768_df55596553_b.jpg"}},{"id":509,"common_name":"climbing monk's hood","scientific_name":["Aconitum hemsleyanum"],"other_name":null,"cycle":"Perennial","watering":"Average","sunlight":["Full sun","part shade"],"default_image":{"image_id":1064,"license":4,"license_name":"Attribution License","license_url":"https://creativecommons.org/licenses/by/2.0/","original_url":"https://perenual.com/storage/species_image/509_aconitum_hemsleyanum/og/6166179411_f2598d51ec_b.jpg","regular_url":"https://perenual.com/storage/species_image/509_aconitum_hemsleyanum/regular/6166179411_f2598d51ec_b.jpg","medium_url":"https://perenual.com/storage/species_image/509_aconitum_hemsleyanum/medium/6166179411_f2598d51ec_b.jpg","small_url":"https://perenual.com/storage/species_image/509_aconitum_hemsleyanum/small/6166179411_f2598d51ec_b.jpg","thumbnail":"https://perenual.com/storage/species_image/509_aconitum_hemsleyanum/thumbnail/6166179411_f2598d51ec_b.jpg"}},{"id":512,"common_name":"monkshood","scientific_name":["Aconitum volubile"],"other_name":null,"cycle":"Perennial","watering":"Average","sunlight":["Full sun","part shade"],"default_image":{"image_id":9,"license":5,"license_name":"Attribution-ShareAlike License","license_url":"https://creativecommons.org/licenses/by-sa/2.0/","original_url":"https://perenual.com/storage/species_image/2_abies_alba_pyramidalis/og/49255769768_df55596553_b.jpg","regular_url":"https://perenual.com/storage/species_image/2_abies_alba_pyramidalis/regular/49255769768_df55596553_b.jpg","medium_url":"https://perenual.com/storage/species_image/2_abies_alba_pyramidalis/medium/49255769768_df55596553_b.jpg","small_url":"https://perenual.com/storage/species_image/2_abies_alba_pyramidalis/small/49255769768_df55596553_b.jpg","thumbnail":"https://perenual.com/storage/species_image/2_abies_alba_pyramidalis/thumbnail/49255769768_df55596553_b.jpg"}}],"to":510,"per_page":30,"current_page":17,"from":481,"last_page":200,"total":6000}