{"data":[{"id":1711,"common_name":"Ozark chinquapin","scientific_name":["Castanea ozarkensis"],"other_name":null,"cycle":"Perennial","watering":"Average","sunlight":["Full sun"],"default_image":{"image_id":9,"license":5,"license_name":"Attribution-ShareAlike License","license_url":"https://creativecommons.org/licenses/by-sa/2.0/","original_url":"https://perenual.com/storage/species_image/2_abies_alba_pyramidalis/og/49255769768_df55596553_b.jpg","regular_url":"https://perenual.com/storage/species_image/2_abies_alba_pyramidalis/regular/49255769768_df55596553_b.jpg","medium_url":"https://perenual.com/storage/species_image/2_abies_alba_pyramidalis/medium/49255769768_df55596553_b.jpg","small_url":"https://perenual.com/storage/species_image/2_abies_alba_pyramidalis/small/49255769768_df55596553_b.jpg","thumbnail":"https://perenual.com/storage/species_image/2_abies_alba_pyramidalis/thumbnail/49255769768_df55596553_b.jpg"}},{"id":1712,"common_name":"Indian paintbrush","scientific_name":["Castilleja coccinea"],"other_name":["Indian Paintbrush","Scarlet Paintbrush","Scarlet Painted Cup","Scarlet Paintbrush","Scarlet Painted Cup"],"cycle":"Perennial","watering":"Average","sunlight":["Sun"],"default_image":{"image_id":4045,"license":5,"license_name":"Attribution-ShareAlike License","license_url":"https://creativecommons.org/licenses/by-sa/2.0/","original_url":"https://perenual.com/storage/species_image/1712_castilleja_coccinea/og/24470364784_a15f1dfc79_b.jpg","regular_url":"https://perenual.com/storage/species_image/1712_castilleja_coccinea/regular/24470364784_a15f1dfc79_b.jpg","medium_url":"https://perenual.com/storage/species_image/1712_castilleja_coccinea/medium/24470364784_a15f1dfc79_b.jpg","small_url":"https://perenual.com/storage/species_image/1712_castilleja_coccinea/small/24470364784_a15f1dfc79_b.jpg","thumbnail":"https://perenual.com/storage/species_image/1712_castilleja_coccinea/thumbnail/24470364784_a15f1dfc79_b.jpg"}},{"id":1713,"common_name":"Chinese catalpa","scientific_name":["Catalpa ovata"],"other_name":null,"cycle":"Perennial","watering":"Frequent","sunlight":[],"default_image":{"image_id":4051,"license":5,"license_name":"Attribution-ShareAlike License","license_url":"https://creativecommons.org/licenses/by-sa/2.0/","original_url":"https://perenual.com/storage/species_image/1713_catalpa_ovata/og/46053174505_f56c3d040b_b.jpg","regular_url":"https://perenual.com/storage/species_image/1713_catalpa_ovata/regular/46053174505_f56c3d040b_b.jpg","medium_url":"https://perenual.com/storage/species_image/1713_catalpa_ovata/medium/46053174505_f56c3d040b_b.jpg","small_url":"https://perenual.com/storage/species_image/1713_catalpa_ovata/small/46053174505_f56c3d040b_b.jpg","thumbnail":"https://perenual.com/storage/species_image/1713_catalpa_ovata/thumbnail/46053174505_f56c3d040b_b.jpg"}},{"id":1714,"common_name":"cupid's dart","scientific_name":["Catananche caerulea"],"other_name":null,"cycle":"Perennial","watering":"Average","sunlight":["Full sun"],"default_image":{"image_id":4054,"license":4,"license_name":"Attribution License","license_url":"https://creativecommons.org/licenses/by/2.0/","original_url":"https://perenual.com/storage/species_image/1714_catananche_caerulea/og/48187616897_659f5186e9_b.jpg","regular_url":"https://perenual.com/storage/species_image/1714_catananche_caerulea/regular/48187616897_659f5186e9_b.jpg","medium_url":"https://perenual.com/storage/species_image/1714_catananche_caerulea/medium/48187616897_659f5186e9_b.jpg","small_url":"https://perenual.com/storage/species_image/1714_catananche_caerulea/small/48187616897_659f5186e9_b.jpg","thumbnail":"https://perenual.com/storage/species_image/1714_catananche_caerulea/thumbnail/48187616897_659f5186e9_b.jpg"}},{"id":1715,"common_name":"Madagascar periwinkle","scientific_name":["Catharanthus roseus"],"other_name":null,"cycle":"Perennial","watering":"Average","sunlight":["Full sun","part shade"],"default_image":{"image_id":4060,"license":4,"license_name":"Attribution License","license_url":"https://creativecommons.org/licenses/by/2.0/","original_url":"https://perenual.com/storage/species_image/1715_catharanthus_roseus/og/49305331131_4e5ab296ac_b.jpg","regular_url":"https://perenual.com/storage/species_image/1715_catharanthus_roseus/regular/49305331131_4e5ab296ac_b.jpg","medium_url":"https://perenual.com/storage/species_image/1715_catharanthus_roseus/medium/49305331131_4e5ab296ac_b.jpg","small_url":"https://perenual.com/storage/species_image/1715_catharanthus_roseus/small/49305331131_4e5ab296ac_b.jpg","thumbnail":"https://perenual.com/storage/species_image/1715_catharanthus_roseus/thumbnail/49305331131_4e5ab296ac_b.jpg"}},{"id":1716,"common_name":"orchid","scientific_name":["Cattleya (group)"],"other_name":null,"cycle":"Perennial","watering":"Average","sunlight":["Part shade"],"default_image":{"image_id":9,"license":5,"license_name":"Attribution-ShareAlike License","license_url":"https://creativecommons.org/licenses/by-sa/2.0/","original_url":"https://perenual.com/storage/species_image/2_abies_alba_pyramidalis/og/49255769768_df55596553_b.jpg","regular_url":"https://perenual.com/storage/species_image/2_abies_alba_pyramidalis/regular/49255769768_df55596553_b.jpg","medium_url":"https://perenual.com/storage/species_image/2_abies_alba_pyramidalis/medium/49255769768_df55596553_b.jpg","small_url":"https://perenual.com/storage/species_image/2_abies_alba_pyramidalis/small/49255769768_df55596553_b.jpg","thumbnail":"https://perenual.com/storage/species_image/2_abies_alba_pyramidalis/thumbnail/49255769768_df55596553_b.jpg"}},{"id":1717,"common_name":"cautleya","scientific_name":["Cautleya cathcartii"],"other_name":null,"cycle":"Perennial","watering":"Average","sunlight":["Part shade"],"default_image":{"image_id":9,"license":5,"license_name":"Attribution-ShareAlike License","license_url":"https://creativecommons.org/licenses/by-sa/2.0/","original_url":"https://perenual.com/storage/species_image/2_abies_alba_pyramidalis/og/49255769768_df55596553_b.jpg","regular_url":"https://perenual.com/storage/species_image/2_abies_alba_pyramidalis/regular/49255769768_df55596553_b.jpg","medium_url":"https://perenual.com/storage/species_image/2_abies_alba_pyramidalis/medium/49255769768_df55596553_b.jpg","small_url":"https://perenual.com/storage/species_image/2_abies_alba_pyramidalis/small/49255769768_df55596553_b.jpg","thumbnail":"https://perenual.com/storage/species_image/2_abies_alba_pyramidalis/thumbnail/49255769768_df55596553_b.jpg"}},{"id":1718,"common_name":"cautleya","scientific_name":["Cautleya gracilis"],"other_name":null,"cycle":"Perennial","watering":"Frequent","sunlight":["Part shade"],"default_image":{"image_id":9,"license":5,"license_name":"Attribution-ShareAlike License","license_url":"https://creativecommons.org/licenses/by-sa/2.0/","original_url":"https://perenual.com/storage/species_image/2_abies_alba_pyramidalis/og/49255769768_df55596553_b.jpg","regular_url":"https://perenual.com/storage/species_image/2_abies_alba_pyramidalis/regular/49255769768_df55596553_b.jpg","medium_url":"https://perenual.com/storage/species_image/2_abies_alba_pyramidalis/medium/49255769768_df55596553_b.jpg","small_url":"https://perenual.com/storage/species_image/2_abies_alba_pyramidalis/small/49255769768_df55596553_b.jpg","thumbnail":"https://perenual.com/storage/species_image/2_abies_alba_pyramidalis/thumbnail/49255769768_df55596553_b.jpg"}},{"id":1719,"common_name":"cavanillesia","scientific_name":["Cavanillesia platanifolia"],"other_name":null,"cycle":"Perennial","watering":"Average","sunlight":["Full sun"],"default_image":{"image_id":4068,"license":5,"license_name":"Attribution-ShareAlike License","license_url":"https://creativecommons.org/licenses/by-sa/2.0/","original_url":"https://perenual.com/storage/species_image/1719_cavanillesia_platanifolia/og/7167520234_bc9c2272c8_b.jpg","regular_url":"https://perenual.com/storage/species_image/1719_cavanillesia_platanifolia/regular/7167520234_bc9c2272c8_b.jpg","medium_url":"https://perenual.com/storage/species_image/1719_cavanillesia_platanifolia/medium/7167520234_bc9c2272c8_b.jpg","small_url":"https://perenual.com/storage/species_image/1719_cavanillesia_platanifolia/small/7167520234_bc9c2272c8_b.jpg","thumbnail":"https://perenual.com/storage/species_image/1719_cavanillesia_platanifolia/thumbnail/7167520234_bc9c2272c8_b.jpg"}},{"id":1720,"common_name":"New Jersey tea","scientific_name":["Ceanothus americanus"],"other_name":["Red Root"],"cycle":"Perennial","watering":"Minimum","sunlight":["Sun"," Partial Shade"],"default_image":{"image_id":4070,"license":4,"license_name":"Attribution License","license_url":"https://creativecommons.org/licenses/by/2.0/","original_url":"https://perenual.com/storage/species_image/1720_ceanothus_americanus/og/52602569619_d23bae5d14_b.jpg","regular_url":"https://perenual.com/storage/species_image/1720_ceanothus_americanus/regular/52602569619_d23bae5d14_b.jpg","medium_url":"https://perenual.com/storage/species_image/1720_ceanothus_americanus/medium/52602569619_d23bae5d14_b.jpg","small_url":"https://perenual.com/storage/species_image/1720_ceanothus_americanus/small/52602569619_d23bae5d14_b.jpg","thumbnail":"https://perenual.com/storage/species_image/1720_ceanothus_americanus/thumbnail/52602569619_d23bae5d14_b.jpg"}},{"id":1721,"common_name":"California lilac","scientific_name":["Ceanothus 'Concha'"],"other_name":null,"cycle":"Perennial","watering":"Minimum","sunlight":["Full sun"],"default_image":{"image_id":4074,"license":4,"license_name":"Attribution License","license_url":"https://creativecommons.org/licenses/by/2.0/","original_url":"https://perenual.com/storage/species_image/1721_ceanothus_concha/og/4869288563_dc99c607ee_b.jpg","regular_url":"https://perenual.com/storage/species_image/1721_ceanothus_concha/regular/4869288563_dc99c607ee_b.jpg","medium_url":"https://perenual.com/storage/species_image/1721_ceanothus_concha/medium/4869288563_dc99c607ee_b.jpg","small_url":"https://perenual.com/storage/species_image/1721_ceanothus_concha/small/4869288563_dc99c607ee_b.jpg","thumbnail":"https://perenual.com/storage/species_image/1721_ceanothus_concha/thumbnail/4869288563_dc99c607ee_b.jpg"}},{"id":1722,"common_name":"California lilac","scientific_name":["Ceanothus delileanus 'Gloire de Versailles'"],"other_name":null,"cycle":"Perennial","watering":"Average","sunlight":["Full sun","part shade"],"default_image":{"image_id":4077,"license":5,"license_name":"Attribution-ShareAlike License","license_url":"https://creativecommons.org/licenses/by-sa/2.0/","original_url":"https://perenual.com/storage/species_image/1722_ceanothus_delileanus_gloire_de_versailles/og/52014465203_75291d81cd_b.jpg","regular_url":"https://perenual.com/storage/species_image/1722_ceanothus_delileanus_gloire_de_versailles/regular/52014465203_75291d81cd_b.jpg","medium_url":"https://perenual.com/storage/species_image/1722_ceanothus_delileanus_gloire_de_versailles/medium/52014465203_75291d81cd_b.jpg","small_url":"https://perenual.com/storage/species_image/1722_ceanothus_delileanus_gloire_de_versailles/small/52014465203_75291d81cd_b.jpg","thumbnail":"https://perenual.com/storage/species_image/1722_ceanothus_delileanus_gloire_de_versailles/thumbnail/52014465203_75291d81cd_b.jpg"}},{"id":1723,"common_name":"inland New Jersey tea","scientific_name":["Ceanothus herbaceus"],"other_name":["Jersey Tea"],"cycle":"Perennial","watering":"Minimum","sunlight":["Full sun"],"default_image":{"image_id":4084,"license":5,"license_name":"Attribution-ShareAlike License","license_url":"https://creativecommons.org/licenses/by-sa/2.0/","original_url":"https://perenual.com/storage/species_image/1723_ceanothus_herbaceus/og/8932989532_3fd2610379_b.jpg","regular_url":"https://perenual.com/storage/species_image/1723_ceanothus_herbaceus/regular/8932989532_3fd2610379_b.jpg","medium_url":"https://perenual.com/storage/species_image/1723_ceanothus_herbaceus/medium/8932989532_3fd2610379_b.jpg","small_url":"https://perenual.com/storage/species_image/1723_ceanothus_herbaceus/small/8932989532_3fd2610379_b.jpg","thumbnail":"https://perenual.com/storage/species_image/1723_ceanothus_herbaceus/thumbnail/8932989532_3fd2610379_b.jpg"}},{"id":1724,"common_name":"California lilac","scientific_name":["Ceanothus 'Minmarose' MARIE ROSE"],"other_name":null,"cycle":"Perennial","watering":"Minimum","sunlight":["Full sun","part shade"],"default_image":{"image_id":9,"license":5,"license_name":"Attribution-ShareAlike License","license_url":"https://creativecommons.org/licenses/by-sa/2.0/","original_url":"https://perenual.com/storage/species_image/2_abies_alba_pyramidalis/og/49255769768_df55596553_b.jpg","regular_url":"https://perenual.com/storage/species_image/2_abies_alba_pyramidalis/regular/49255769768_df55596553_b.jpg","medium_url":"https://perenual.com/storage/species_image/2_abies_alba_pyramidalis/medium/49255769768_df55596553_b.jpg","small_url":"https://perenual.com/storage/species_image/2_abies_alba_pyramidalis/small/49255769768_df55596553_b.jpg","thumbnail":"https://perenual.com/storage/species_image/2_abies_alba_pyramidalis/thumbnail/49255769768_df55596553_b.jpg"}},{"id":1725,"common_name":"California lilac","scientific_name":["Ceanothus pallidus 'Marie Simon'"],"other_name":null,"cycle":"Perennial","watering":"Minimum","sunlight":["Full sun"],"default_image":{"image_id":9,"license":5,"license_name":"Attribution-ShareAlike License","license_url":"https://creativecommons.org/licenses/by-sa/2.0/","original_url":"https://perenual.com/storage/species_image/2_abies_alba_pyramidalis/og/49255769768_df55596553_b.jpg","regular_url":"https://perenual.com/storage/species_image/2_abies_alba_pyramidalis/regular/49255769768_df55596553_b.jpg","medium_url":"https://perenual.com/storage/species_image/2_abies_alba_pyramidalis/medium/49255769768_df55596553_b.jpg","small_url":"https://perenual.com/storage/species_image/2_abies_alba_pyramidalis/small/49255769768_df55596553_b.jpg","thumbnail":"https://perenual.com/storage/species_image/2_abies_alba_pyramidalis/thumbnail/49255769768_df55596553_b.jpg"}},{"id":1726,"common_name":"California lilac","scientific_name":["Ceanothus pallidus 'Minmari' MARIE BLEU"],"other_name":null,"cycle":"Perennial","watering":"Minimum","sunlight":["Full sun"],"default_image":{"image_id":4078,"license":5,"license_name":"Attribution-ShareAlike License","license_url":"https://creativecommons.org/licenses/by-sa/2.0/","original_url":"https://perenual.com/storage/species_image/1726_ceanothus_pallidus_minmari_marie_bleu/og/52014664734_a573945d5e_b.jpg","regular_url":"https://perenual.com/storage/species_image/1726_ceanothus_pallidus_minmari_marie_bleu/regular/52014664734_a573945d5e_b.jpg","medium_url":"https://perenual.com/storage/species_image/1726_ceanothus_pallidus_minmari_marie_bleu/medium/52014664734_a573945d5e_b.jpg","small_url":"https://perenual.com/storage/species_image/1726_ceanothus_pallidus_minmari_marie_bleu/small/52014664734_a573945d5e_b.jpg","thumbnail":"https://perenual.com/storage/species_image/1726_ceanothus_pallidus_minmari_marie_bleu/thumbnail/52014664734_a573945d5e_b.jpg"}},{"id":1727,"common_name":"blue mountain lilac","scientific_name":["Ceanothus thyrsiflorus 'Skylark'"],"other_name":null,"cycle":"Perennial","watering":"Minimum","sunlight":["Full sun","part shade"],"default_image":{"image_id":9,"license":5,"license_name":"Attribution-ShareAlike License","license_url":"https://creativecommons.org/licenses/by-sa/2.0/","original_url":"https://perenual.com/storage/species_image/2_abies_alba_pyramidalis/og/49255769768_df55596553_b.jpg","regular_url":"https://perenual.com/storage/species_image/2_abies_alba_pyramidalis/regular/49255769768_df55596553_b.jpg","medium_url":"https://perenual.com/storage/species_image/2_abies_alba_pyramidalis/medium/49255769768_df55596553_b.jpg","small_url":"https://perenual.com/storage/species_image/2_abies_alba_pyramidalis/small/49255769768_df55596553_b.jpg","thumbnail":"https://perenual.com/storage/species_image/2_abies_alba_pyramidalis/thumbnail/49255769768_df55596553_b.jpg"}},{"id":1728,"common_name":"blue atlas cedar","scientific_name":["Cedrus atlantica (Glauca Group)"],"other_name":null,"cycle":"Perennial","watering":"Average","sunlight":["Full sun"],"default_image":{"image_id":4092,"license":5,"license_name":"Attribution-ShareAlike License","license_url":"https://creativecommons.org/licenses/by-sa/2.0/","original_url":"https://perenual.com/storage/species_image/1729_cedrus_atlantica_glauca_group_glauca_pendula/og/49401485092_4eb861b2a5_b.jpg","regular_url":"https://perenual.com/storage/species_image/1729_cedrus_atlantica_glauca_group_glauca_pendula/regular/49401485092_4eb861b2a5_b.jpg","medium_url":"https://perenual.com/storage/species_image/1729_cedrus_atlantica_glauca_group_glauca_pendula/medium/49401485092_4eb861b2a5_b.jpg","small_url":"https://perenual.com/storage/species_image/1729_cedrus_atlantica_glauca_group_glauca_pendula/small/49401485092_4eb861b2a5_b.jpg","thumbnail":"https://perenual.com/storage/species_image/1729_cedrus_atlantica_glauca_group_glauca_pendula/thumbnail/49401485092_4eb861b2a5_b.jpg"}},{"id":1729,"common_name":"blue atlas cedar","scientific_name":["Cedrus atlantica (Glauca Group) 'Glauca Pendula'"],"other_name":null,"cycle":"Perennial","watering":"Average","sunlight":["Full sun"],"default_image":{"image_id":4092,"license":5,"license_name":"Attribution-ShareAlike License","license_url":"https://creativecommons.org/licenses/by-sa/2.0/","original_url":"https://perenual.com/storage/species_image/1729_cedrus_atlantica_glauca_group_glauca_pendula/og/49401485092_4eb861b2a5_b.jpg","regular_url":"https://perenual.com/storage/species_image/1729_cedrus_atlantica_glauca_group_glauca_pendula/regular/49401485092_4eb861b2a5_b.jpg","medium_url":"https://perenual.com/storage/species_image/1729_cedrus_atlantica_glauca_group_glauca_pendula/medium/49401485092_4eb861b2a5_b.jpg","small_url":"https://perenual.com/storage/species_image/1729_cedrus_atlantica_glauca_group_glauca_pendula/small/49401485092_4eb861b2a5_b.jpg","thumbnail":"https://perenual.com/storage/species_image/1729_cedrus_atlantica_glauca_group_glauca_pendula/thumbnail/49401485092_4eb861b2a5_b.jpg"}},{"id":1730,"common_name":"Himalayan cedar","scientific_name":["Cedrus deodara 'Shalimar'"],"other_name":null,"cycle":"Perennial","watering":"Average","sunlight":["Full sun"],"default_image":{"image_id":9,"license":5,"license_name":"Attribution-ShareAlike License","license_url":"https://creativecommons.org/licenses/by-sa/2.0/","original_url":"https://perenual.com/storage/species_image/2_abies_alba_pyramidalis/og/49255769768_df55596553_b.jpg","regular_url":"https://perenual.com/storage/species_image/2_abies_alba_pyramidalis/regular/49255769768_df55596553_b.jpg","medium_url":"https://perenual.com/storage/species_image/2_abies_alba_pyramidalis/medium/49255769768_df55596553_b.jpg","small_url":"https://perenual.com/storage/species_image/2_abies_alba_pyramidalis/small/49255769768_df55596553_b.jpg","thumbnail":"https://perenual.com/storage/species_image/2_abies_alba_pyramidalis/thumbnail/49255769768_df55596553_b.jpg"}},{"id":1731,"common_name":"cedar of Lebanon","scientific_name":["Cedrus libani 'Hedgehog'"],"other_name":null,"cycle":"Perennial","watering":"Average","sunlight":["Full sun"],"default_image":{"image_id":9,"license":5,"license_name":"Attribution-ShareAlike License","license_url":"https://creativecommons.org/licenses/by-sa/2.0/","original_url":"https://perenual.com/storage/species_image/2_abies_alba_pyramidalis/og/49255769768_df55596553_b.jpg","regular_url":"https://perenual.com/storage/species_image/2_abies_alba_pyramidalis/regular/49255769768_df55596553_b.jpg","medium_url":"https://perenual.com/storage/species_image/2_abies_alba_pyramidalis/medium/49255769768_df55596553_b.jpg","small_url":"https://perenual.com/storage/species_image/2_abies_alba_pyramidalis/small/49255769768_df55596553_b.jpg","thumbnail":"https://perenual.com/storage/species_image/2_abies_alba_pyramidalis/thumbnail/49255769768_df55596553_b.jpg"}},{"id":1732,"common_name":"cedar of Lebanon","scientific_name":["Cedrus libani 'Sargentii'"],"other_name":null,"cycle":"Perennial","watering":"Average","sunlight":["Full sun"],"default_image":null},{"id":1733,"common_name":"cedar of Lebanon","scientific_name":["Cedrus libanitica subsp. stenocoma"],"other_name":null,"cycle":"Perennial","watering":"Average","sunlight":["Full sun"],"default_image":{"image_id":9,"license":5,"license_name":"Attribution-ShareAlike License","license_url":"https://creativecommons.org/licenses/by-sa/2.0/","original_url":"https://perenual.com/storage/species_image/2_abies_alba_pyramidalis/og/49255769768_df55596553_b.jpg","regular_url":"https://perenual.com/storage/species_image/2_abies_alba_pyramidalis/regular/49255769768_df55596553_b.jpg","medium_url":"https://perenual.com/storage/species_image/2_abies_alba_pyramidalis/medium/49255769768_df55596553_b.jpg","small_url":"https://perenual.com/storage/species_image/2_abies_alba_pyramidalis/small/49255769768_df55596553_b.jpg","thumbnail":"https://perenual.com/storage/species_image/2_abies_alba_pyramidalis/thumbnail/49255769768_df55596553_b.jpg"}},{"id":1734,"common_name":"kapoktree","scientific_name":["Ceiba pentandra"],"other_name":null,"cycle":"Perennial","watering":"Minimum","sunlight":["Full sun"],"default_image":{"image_id":4100,"license":5,"license_name":"Attribution-ShareAlike License","license_url":"https://creativecommons.org/licenses/by-sa/2.0/","original_url":"https://perenual.com/storage/species_image/1734_ceiba_pentandra/og/52577950949_ae4e9bf649_b.jpg","regular_url":"https://perenual.com/storage/species_image/1734_ceiba_pentandra/regular/52577950949_ae4e9bf649_b.jpg","medium_url":"https://perenual.com/storage/species_image/1734_ceiba_pentandra/medium/52577950949_ae4e9bf649_b.jpg","small_url":"https://perenual.com/storage/species_image/1734_ceiba_pentandra/small/52577950949_ae4e9bf649_b.jpg","thumbnail":"https://perenual.com/storage/species_image/1734_ceiba_pentandra/thumbnail/52577950949_ae4e9bf649_b.jpg"}},{"id":1735,"common_name":"oriental bittersweet","scientific_name":["Celastrus orbiculatus"],"other_name":["Oriental Bittersweet"],"cycle":"Perennial","watering":"Average","sunlight":["Sun"," Partial Shade"],"default_image":{"image_id":4105,"license":4,"license_name":"Attribution License","license_url":"https://creativecommons.org/licenses/by/2.0/","original_url":"https://perenual.com/storage/species_image/1735_celastrus_orbiculatus/og/49056908163_e5da42d657_b.jpg","regular_url":"https://perenual.com/storage/species_image/1735_celastrus_orbiculatus/regular/49056908163_e5da42d657_b.jpg","medium_url":"https://perenual.com/storage/species_image/1735_celastrus_orbiculatus/medium/49056908163_e5da42d657_b.jpg","small_url":"https://perenual.com/storage/species_image/1735_celastrus_orbiculatus/small/49056908163_e5da42d657_b.jpg","thumbnail":"https://perenual.com/storage/species_image/1735_celastrus_orbiculatus/thumbnail/49056908163_e5da42d657_b.jpg"}},{"id":1736,"common_name":"American bittersweet","scientific_name":["Celastrus scandens"],"other_name":["Climbing Bittersweet","False Bittersweet","Climbing Orangeroot","Fevertwig","Staffvine","Jacob's Ladder","False Bittersweet","Climbing Orangeroot","Fevertwig","Staffvine","Jacob's Ladder"],"cycle":"","watering":"Average","sunlight":["Sun"," Partial Shade"],"default_image":{"image_id":4111,"license":4,"license_name":"Attribution License","license_url":"https://creativecommons.org/licenses/by/2.0/","original_url":"https://perenual.com/storage/species_image/1736_celastrus_scandens/og/9054601510_525c180013_b.jpg","regular_url":"https://perenual.com/storage/species_image/1736_celastrus_scandens/regular/9054601510_525c180013_b.jpg","medium_url":"https://perenual.com/storage/species_image/1736_celastrus_scandens/medium/9054601510_525c180013_b.jpg","small_url":"https://perenual.com/storage/species_image/1736_celastrus_scandens/small/9054601510_525c180013_b.jpg","thumbnail":"https://perenual.com/storage/species_image/1736_celastrus_scandens/thumbnail/9054601510_525c180013_b.jpg"}},{"id":1737,"common_name":"feather celosia","scientific_name":["Celosia argentea (Plumosa Group) 'New Look'"],"other_name":null,"cycle":"Perennial","watering":"Average","sunlight":["Full sun"],"default_image":{"image_id":4113,"license":4,"license_name":"Attribution License","license_url":"https://creativecommons.org/licenses/by/2.0/","original_url":"https://perenual.com/storage/species_image/1737_celosia_argentea_plumosa_group_new_look/og/25239758668_5a07eb9a24_b.jpg","regular_url":"https://perenual.com/storage/species_image/1737_celosia_argentea_plumosa_group_new_look/regular/25239758668_5a07eb9a24_b.jpg","medium_url":"https://perenual.com/storage/species_image/1737_celosia_argentea_plumosa_group_new_look/medium/25239758668_5a07eb9a24_b.jpg","small_url":"https://perenual.com/storage/species_image/1737_celosia_argentea_plumosa_group_new_look/small/25239758668_5a07eb9a24_b.jpg","thumbnail":"https://perenual.com/storage/species_image/1737_celosia_argentea_plumosa_group_new_look/thumbnail/25239758668_5a07eb9a24_b.jpg"}},{"id":1738,"common_name":"feather celosia","scientific_name":["Celosia argentea (Plumosa Group) 'Sylphid'"],"other_name":null,"cycle":"Perennial","watering":"Average","sunlight":["Full sun"],"default_image":{"image_id":4116,"license":5,"license_name":"Attribution-ShareAlike License","license_url":"https://creativecommons.org/licenses/by-sa/2.0/","original_url":"https://perenual.com/storage/species_image/1738_celosia_argentea_plumosa_group_sylphid/og/338600741_c0600eec57_b.jpg","regular_url":"https://perenual.com/storage/species_image/1738_celosia_argentea_plumosa_group_sylphid/regular/338600741_c0600eec57_b.jpg","medium_url":"https://perenual.com/storage/species_image/1738_celosia_argentea_plumosa_group_sylphid/medium/338600741_c0600eec57_b.jpg","small_url":"https://perenual.com/storage/species_image/1738_celosia_argentea_plumosa_group_sylphid/small/338600741_c0600eec57_b.jpg","thumbnail":"https://perenual.com/storage/species_image/1738_celosia_argentea_plumosa_group_sylphid/thumbnail/338600741_c0600eec57_b.jpg"}},{"id":1739,"common_name":"cockscomb","scientific_name":["Celosia argentea var. cristata (Cristata Group)"],"other_name":null,"cycle":"Perennial","watering":"Average","sunlight":["Full sun"],"default_image":{"image_id":9,"license":5,"license_name":"Attribution-ShareAlike License","license_url":"https://creativecommons.org/licenses/by-sa/2.0/","original_url":"https://perenual.com/storage/species_image/2_abies_alba_pyramidalis/og/49255769768_df55596553_b.jpg","regular_url":"https://perenual.com/storage/species_image/2_abies_alba_pyramidalis/regular/49255769768_df55596553_b.jpg","medium_url":"https://perenual.com/storage/species_image/2_abies_alba_pyramidalis/medium/49255769768_df55596553_b.jpg","small_url":"https://perenual.com/storage/species_image/2_abies_alba_pyramidalis/small/49255769768_df55596553_b.jpg","thumbnail":"https://perenual.com/storage/species_image/2_abies_alba_pyramidalis/thumbnail/49255769768_df55596553_b.jpg"}},{"id":1740,"common_name":"feather celosia","scientific_name":["Celosia argentea var. cristata (Plumosa Group)"],"other_name":null,"cycle":"Perennial","watering":"Average","sunlight":["Full sun"],"default_image":{"image_id":4120,"license":5,"license_name":"Attribution-ShareAlike License","license_url":"https://creativecommons.org/licenses/by-sa/2.0/","original_url":"https://perenual.com/storage/species_image/1740_celosia_argentea_var_cristata_plumosa_group/og/9190646855_7e1b192b1d_b.jpg","regular_url":"https://perenual.com/storage/species_image/1740_celosia_argentea_var_cristata_plumosa_group/regular/9190646855_7e1b192b1d_b.jpg","medium_url":"https://perenual.com/storage/species_image/1740_celosia_argentea_var_cristata_plumosa_group/medium/9190646855_7e1b192b1d_b.jpg","small_url":"https://perenual.com/storage/species_image/1740_celosia_argentea_var_cristata_plumosa_group/small/9190646855_7e1b192b1d_b.jpg","thumbnail":"https://perenual.com/storage/species_image/1740_celosia_argentea_var_cristata_plumosa_group/thumbnail/9190646855_7e1b192b1d_b.jpg"}}],"to":1740,"per_page":30,"current_page":58,"from":1711,"last_page":200,"total":6000}