{"data":[{"id":1441,"common_name":"boxwood","scientific_name":["Buxus sempervirens 'Paramus'"],"other_name":null,"cycle":"Perennial","watering":"Average","sunlight":["Deep shade"," Filtered shade"," Full sun only if soil kept moist"," Part sun/part shade"],"default_image":null},{"id":1442,"common_name":"boxwood","scientific_name":["Buxus sempervirens 'Pullman'"],"other_name":null,"cycle":"Perennial","watering":"Average","sunlight":["Deep shade"," Filtered shade"," Full sun only if soil kept moist"," Part sun/part shade"],"default_image":{"image_id":3281,"license":5,"license_name":"Attribution-ShareAlike License","license_url":"https://creativecommons.org/licenses/by-sa/2.0/","original_url":"https://perenual.com/storage/species_image/1442_buxus_sempervirens_pullman/og/27182607624_0242ffb1dc_b.jpg","regular_url":"https://perenual.com/storage/species_image/1442_buxus_sempervirens_pullman/regular/27182607624_0242ffb1dc_b.jpg","medium_url":"https://perenual.com/storage/species_image/1442_buxus_sempervirens_pullman/medium/27182607624_0242ffb1dc_b.jpg","small_url":"https://perenual.com/storage/species_image/1442_buxus_sempervirens_pullman/small/27182607624_0242ffb1dc_b.jpg","thumbnail":"https://perenual.com/storage/species_image/1442_buxus_sempervirens_pullman/thumbnail/27182607624_0242ffb1dc_b.jpg"}},{"id":1443,"common_name":"boxwood","scientific_name":["Buxus sempervirens 'Rochester'"],"other_name":null,"cycle":"Perennial","watering":"Average","sunlight":["Deep shade"," Filtered shade"," Full sun only if soil kept moist"," Part sun/part shade"],"default_image":{"image_id":21995,"license":2,"license_name":null,"license_url":null,"original_url":"https://perenual.com/storage/species_image/1445_buxus_sempervirens_salicifolia/og/52500677915_99a285bcce_b.jpg","regular_url":"https://perenual.com/storage/species_image/1445_buxus_sempervirens_salicifolia/regular/52500677915_99a285bcce_b.jpg","medium_url":"https://perenual.com/storage/species_image/1445_buxus_sempervirens_salicifolia/medium/52500677915_99a285bcce_b.jpg","small_url":"https://perenual.com/storage/species_image/1445_buxus_sempervirens_salicifolia/small/52500677915_99a285bcce_b.jpg","thumbnail":"https://perenual.com/storage/species_image/1445_buxus_sempervirens_salicifolia/thumbnail/52500677915_99a285bcce_b.jpg"}},{"id":1444,"common_name":"boxwood","scientific_name":["Buxus sempervirens 'Saint Genevieve'"],"other_name":null,"cycle":"Perennial","watering":"Average","sunlight":["Deep shade"," Filtered shade"," Full sun only if soil kept moist"," Part sun/part shade"],"default_image":{"image_id":21995,"license":2,"license_name":null,"license_url":null,"original_url":"https://perenual.com/storage/species_image/1445_buxus_sempervirens_salicifolia/og/52500677915_99a285bcce_b.jpg","regular_url":"https://perenual.com/storage/species_image/1445_buxus_sempervirens_salicifolia/regular/52500677915_99a285bcce_b.jpg","medium_url":"https://perenual.com/storage/species_image/1445_buxus_sempervirens_salicifolia/medium/52500677915_99a285bcce_b.jpg","small_url":"https://perenual.com/storage/species_image/1445_buxus_sempervirens_salicifolia/small/52500677915_99a285bcce_b.jpg","thumbnail":"https://perenual.com/storage/species_image/1445_buxus_sempervirens_salicifolia/thumbnail/52500677915_99a285bcce_b.jpg"}},{"id":1445,"common_name":"boxwood","scientific_name":["Buxus sempervirens 'Salicifolia'"],"other_name":null,"cycle":"Perennial","watering":"Average","sunlight":["Deep shade"," Filtered shade"," Full sun only if soil kept moist"," Part sun/part shade"],"default_image":{"image_id":21995,"license":2,"license_name":null,"license_url":null,"original_url":"https://perenual.com/storage/species_image/1445_buxus_sempervirens_salicifolia/og/52500677915_99a285bcce_b.jpg","regular_url":"https://perenual.com/storage/species_image/1445_buxus_sempervirens_salicifolia/regular/52500677915_99a285bcce_b.jpg","medium_url":"https://perenual.com/storage/species_image/1445_buxus_sempervirens_salicifolia/medium/52500677915_99a285bcce_b.jpg","small_url":"https://perenual.com/storage/species_image/1445_buxus_sempervirens_salicifolia/small/52500677915_99a285bcce_b.jpg","thumbnail":"https://perenual.com/storage/species_image/1445_buxus_sempervirens_salicifolia/thumbnail/52500677915_99a285bcce_b.jpg"}},{"id":1446,"common_name":"boxwood","scientific_name":["Buxus sempervirens 'Silver Beauty'"],"other_name":null,"cycle":"Perennial","watering":"Average","sunlight":["Deep shade"," Filtered shade"," Full sun only if soil kept moist"," Part sun/part shade"],"default_image":{"image_id":9,"license":5,"license_name":"Attribution-ShareAlike License","license_url":"https://creativecommons.org/licenses/by-sa/2.0/","original_url":"https://perenual.com/storage/species_image/2_abies_alba_pyramidalis/og/49255769768_df55596553_b.jpg","regular_url":"https://perenual.com/storage/species_image/2_abies_alba_pyramidalis/regular/49255769768_df55596553_b.jpg","medium_url":"https://perenual.com/storage/species_image/2_abies_alba_pyramidalis/medium/49255769768_df55596553_b.jpg","small_url":"https://perenual.com/storage/species_image/2_abies_alba_pyramidalis/small/49255769768_df55596553_b.jpg","thumbnail":"https://perenual.com/storage/species_image/2_abies_alba_pyramidalis/thumbnail/49255769768_df55596553_b.jpg"}},{"id":1447,"common_name":"boxwood","scientific_name":["Buxus sempervirens 'Treska Gorge'"],"other_name":null,"cycle":"Perennial","watering":"Average","sunlight":["Deep shade"," Filtered shade"," Full sun only if soil kept moist"," Part sun/part shade"],"default_image":{"image_id":9,"license":5,"license_name":"Attribution-ShareAlike License","license_url":"https://creativecommons.org/licenses/by-sa/2.0/","original_url":"https://perenual.com/storage/species_image/2_abies_alba_pyramidalis/og/49255769768_df55596553_b.jpg","regular_url":"https://perenual.com/storage/species_image/2_abies_alba_pyramidalis/regular/49255769768_df55596553_b.jpg","medium_url":"https://perenual.com/storage/species_image/2_abies_alba_pyramidalis/medium/49255769768_df55596553_b.jpg","small_url":"https://perenual.com/storage/species_image/2_abies_alba_pyramidalis/small/49255769768_df55596553_b.jpg","thumbnail":"https://perenual.com/storage/species_image/2_abies_alba_pyramidalis/thumbnail/49255769768_df55596553_b.jpg"}},{"id":1448,"common_name":"boxwood","scientific_name":["Buxus sempervirens 'Vardar Valley'"],"other_name":null,"cycle":"Perennial","watering":"Average","sunlight":["Deep shade"," Filtered shade"," Full sun only if soil kept moist"," Part sun/part shade"],"default_image":{"image_id":9,"license":5,"license_name":"Attribution-ShareAlike License","license_url":"https://creativecommons.org/licenses/by-sa/2.0/","original_url":"https://perenual.com/storage/species_image/2_abies_alba_pyramidalis/og/49255769768_df55596553_b.jpg","regular_url":"https://perenual.com/storage/species_image/2_abies_alba_pyramidalis/regular/49255769768_df55596553_b.jpg","medium_url":"https://perenual.com/storage/species_image/2_abies_alba_pyramidalis/medium/49255769768_df55596553_b.jpg","small_url":"https://perenual.com/storage/species_image/2_abies_alba_pyramidalis/small/49255769768_df55596553_b.jpg","thumbnail":"https://perenual.com/storage/species_image/2_abies_alba_pyramidalis/thumbnail/49255769768_df55596553_b.jpg"}},{"id":1449,"common_name":"boxwood","scientific_name":["Buxus sempervirens 'Variegata'"],"other_name":null,"cycle":"Perennial","watering":"Average","sunlight":["Deep shade"," Filtered shade"," Full sun only if soil kept moist"," Part sun/part shade"],"default_image":{"image_id":9,"license":5,"license_name":"Attribution-ShareAlike License","license_url":"https://creativecommons.org/licenses/by-sa/2.0/","original_url":"https://perenual.com/storage/species_image/2_abies_alba_pyramidalis/og/49255769768_df55596553_b.jpg","regular_url":"https://perenual.com/storage/species_image/2_abies_alba_pyramidalis/regular/49255769768_df55596553_b.jpg","medium_url":"https://perenual.com/storage/species_image/2_abies_alba_pyramidalis/medium/49255769768_df55596553_b.jpg","small_url":"https://perenual.com/storage/species_image/2_abies_alba_pyramidalis/small/49255769768_df55596553_b.jpg","thumbnail":"https://perenual.com/storage/species_image/2_abies_alba_pyramidalis/thumbnail/49255769768_df55596553_b.jpg"}},{"id":1450,"common_name":"Korean boxwood","scientific_name":["Buxus sinica var. insularis"],"other_name":null,"cycle":"Perennial","watering":"Average","sunlight":["Full sun","part shade"],"default_image":{"image_id":3282,"license":4,"license_name":"Attribution License","license_url":"https://creativecommons.org/licenses/by/2.0/","original_url":"https://perenual.com/storage/species_image/1452_buxus_sinica_var_insularis_wintergreen/og/28154974653_c7ea41a730_b.jpg","regular_url":"https://perenual.com/storage/species_image/1452_buxus_sinica_var_insularis_wintergreen/regular/28154974653_c7ea41a730_b.jpg","medium_url":"https://perenual.com/storage/species_image/1452_buxus_sinica_var_insularis_wintergreen/medium/28154974653_c7ea41a730_b.jpg","small_url":"https://perenual.com/storage/species_image/1452_buxus_sinica_var_insularis_wintergreen/small/28154974653_c7ea41a730_b.jpg","thumbnail":"https://perenual.com/storage/species_image/1452_buxus_sinica_var_insularis_wintergreen/thumbnail/28154974653_c7ea41a730_b.jpg"}},{"id":1451,"common_name":"Korean boxwood","scientific_name":["Buxus sinica var. insularis 'Tide Hill'"],"other_name":null,"cycle":"Perennial","watering":"Average","sunlight":["Full sun","part shade"],"default_image":{"image_id":3282,"license":4,"license_name":"Attribution License","license_url":"https://creativecommons.org/licenses/by/2.0/","original_url":"https://perenual.com/storage/species_image/1452_buxus_sinica_var_insularis_wintergreen/og/28154974653_c7ea41a730_b.jpg","regular_url":"https://perenual.com/storage/species_image/1452_buxus_sinica_var_insularis_wintergreen/regular/28154974653_c7ea41a730_b.jpg","medium_url":"https://perenual.com/storage/species_image/1452_buxus_sinica_var_insularis_wintergreen/medium/28154974653_c7ea41a730_b.jpg","small_url":"https://perenual.com/storage/species_image/1452_buxus_sinica_var_insularis_wintergreen/small/28154974653_c7ea41a730_b.jpg","thumbnail":"https://perenual.com/storage/species_image/1452_buxus_sinica_var_insularis_wintergreen/thumbnail/28154974653_c7ea41a730_b.jpg"}},{"id":1452,"common_name":"Korean boxwood","scientific_name":["Buxus sinica var. insularis 'Wintergreen'"],"other_name":null,"cycle":"Perennial","watering":"Average","sunlight":["Full sun","part shade"],"default_image":{"image_id":3282,"license":4,"license_name":"Attribution License","license_url":"https://creativecommons.org/licenses/by/2.0/","original_url":"https://perenual.com/storage/species_image/1452_buxus_sinica_var_insularis_wintergreen/og/28154974653_c7ea41a730_b.jpg","regular_url":"https://perenual.com/storage/species_image/1452_buxus_sinica_var_insularis_wintergreen/regular/28154974653_c7ea41a730_b.jpg","medium_url":"https://perenual.com/storage/species_image/1452_buxus_sinica_var_insularis_wintergreen/medium/28154974653_c7ea41a730_b.jpg","small_url":"https://perenual.com/storage/species_image/1452_buxus_sinica_var_insularis_wintergreen/small/28154974653_c7ea41a730_b.jpg","thumbnail":"https://perenual.com/storage/species_image/1452_buxus_sinica_var_insularis_wintergreen/thumbnail/28154974653_c7ea41a730_b.jpg"}},{"id":1453,"common_name":"Carolina fanwort","scientific_name":["Cabomba caroliniana"],"other_name":null,"cycle":"Perennial","watering":"Frequent","sunlight":["Sun"," Partial Shade"],"default_image":{"image_id":3286,"license":5,"license_name":"Attribution-ShareAlike License","license_url":"https://creativecommons.org/licenses/by-sa/2.0/","original_url":"https://perenual.com/storage/species_image/1453_cabomba_caroliniana/og/8373721958_f89f623cb5_b.jpg","regular_url":"https://perenual.com/storage/species_image/1453_cabomba_caroliniana/regular/8373721958_f89f623cb5_b.jpg","medium_url":"https://perenual.com/storage/species_image/1453_cabomba_caroliniana/medium/8373721958_f89f623cb5_b.jpg","small_url":"https://perenual.com/storage/species_image/1453_cabomba_caroliniana/small/8373721958_f89f623cb5_b.jpg","thumbnail":"https://perenual.com/storage/species_image/1453_cabomba_caroliniana/thumbnail/8373721958_f89f623cb5_b.jpg"}},{"id":1454,"common_name":"divi-divi","scientific_name":["Caesalpinia coriaria"],"other_name":null,"cycle":"Perennial","watering":"Minimum","sunlight":["Full sun","part shade"],"default_image":{"image_id":3290,"license":5,"license_name":"Attribution-ShareAlike License","license_url":"https://creativecommons.org/licenses/by-sa/2.0/","original_url":"https://perenual.com/storage/species_image/1454_caesalpinia_coriaria/og/49163015211_7d786aed50_b.jpg","regular_url":"https://perenual.com/storage/species_image/1454_caesalpinia_coriaria/regular/49163015211_7d786aed50_b.jpg","medium_url":"https://perenual.com/storage/species_image/1454_caesalpinia_coriaria/medium/49163015211_7d786aed50_b.jpg","small_url":"https://perenual.com/storage/species_image/1454_caesalpinia_coriaria/small/49163015211_7d786aed50_b.jpg","thumbnail":"https://perenual.com/storage/species_image/1454_caesalpinia_coriaria/thumbnail/49163015211_7d786aed50_b.jpg"}},{"id":1455,"common_name":"poinciana","scientific_name":["Caesalpinia gilliesii"],"other_name":null,"cycle":"Perennial","watering":"Average","sunlight":["Full sun"],"default_image":{"image_id":3298,"license":4,"license_name":"Attribution License","license_url":"https://creativecommons.org/licenses/by/2.0/","original_url":"https://perenual.com/storage/species_image/1455_caesalpinia_gilliesii/og/27634406318_afd760c9ed_b.jpg","regular_url":"https://perenual.com/storage/species_image/1455_caesalpinia_gilliesii/regular/27634406318_afd760c9ed_b.jpg","medium_url":"https://perenual.com/storage/species_image/1455_caesalpinia_gilliesii/medium/27634406318_afd760c9ed_b.jpg","small_url":"https://perenual.com/storage/species_image/1455_caesalpinia_gilliesii/small/27634406318_afd760c9ed_b.jpg","thumbnail":"https://perenual.com/storage/species_image/1455_caesalpinia_gilliesii/thumbnail/27634406318_afd760c9ed_b.jpg"}},{"id":1456,"common_name":"pride of barbados","scientific_name":["Caesalpinia pulcherrima"],"other_name":null,"cycle":"Perennial","watering":"Average","sunlight":["Full sun"],"default_image":{"image_id":3308,"license":5,"license_name":"Attribution-ShareAlike License","license_url":"https://creativecommons.org/licenses/by-sa/2.0/","original_url":"https://perenual.com/storage/species_image/1456_caesalpinia_pulcherrima/og/50103863477_43c1efeed3_b.jpg","regular_url":"https://perenual.com/storage/species_image/1456_caesalpinia_pulcherrima/regular/50103863477_43c1efeed3_b.jpg","medium_url":"https://perenual.com/storage/species_image/1456_caesalpinia_pulcherrima/medium/50103863477_43c1efeed3_b.jpg","small_url":"https://perenual.com/storage/species_image/1456_caesalpinia_pulcherrima/small/50103863477_43c1efeed3_b.jpg","thumbnail":"https://perenual.com/storage/species_image/1456_caesalpinia_pulcherrima/thumbnail/50103863477_43c1efeed3_b.jpg"}},{"id":1457,"common_name":"angel wings","scientific_name":["Caladium bicolor"],"other_name":["angel wings"],"cycle":"Perennial","watering":"Average","sunlight":["Part shade","full shade"],"default_image":{"image_id":3312,"license":4,"license_name":"Attribution License","license_url":"https://creativecommons.org/licenses/by/2.0/","original_url":"https://perenual.com/storage/species_image/1457_caladium_bicolor/og/25575875658_d782fb76f1_b.jpg","regular_url":"https://perenual.com/storage/species_image/1457_caladium_bicolor/regular/25575875658_d782fb76f1_b.jpg","medium_url":"https://perenual.com/storage/species_image/1457_caladium_bicolor/medium/25575875658_d782fb76f1_b.jpg","small_url":"https://perenual.com/storage/species_image/1457_caladium_bicolor/small/25575875658_d782fb76f1_b.jpg","thumbnail":"https://perenual.com/storage/species_image/1457_caladium_bicolor/thumbnail/25575875658_d782fb76f1_b.jpg"}},{"id":1458,"common_name":"elephant's ear","scientific_name":["Caladium 'Burning Heart'"],"other_name":null,"cycle":"Perennial","watering":"Average","sunlight":["Part shade"],"default_image":{"image_id":9,"license":5,"license_name":"Attribution-ShareAlike License","license_url":"https://creativecommons.org/licenses/by-sa/2.0/","original_url":"https://perenual.com/storage/species_image/2_abies_alba_pyramidalis/og/49255769768_df55596553_b.jpg","regular_url":"https://perenual.com/storage/species_image/2_abies_alba_pyramidalis/regular/49255769768_df55596553_b.jpg","medium_url":"https://perenual.com/storage/species_image/2_abies_alba_pyramidalis/medium/49255769768_df55596553_b.jpg","small_url":"https://perenual.com/storage/species_image/2_abies_alba_pyramidalis/small/49255769768_df55596553_b.jpg","thumbnail":"https://perenual.com/storage/species_image/2_abies_alba_pyramidalis/thumbnail/49255769768_df55596553_b.jpg"}},{"id":1459,"common_name":"feather reed grass","scientific_name":["Calamagrostis acutiflora"],"other_name":null,"cycle":"Perennial","watering":"Frequent","sunlight":["Full sun"],"default_image":{"image_id":3320,"license":5,"license_name":"Attribution-ShareAlike License","license_url":"https://creativecommons.org/licenses/by-sa/2.0/","original_url":"https://perenual.com/storage/species_image/1459_calamagrostis_acutiflora/og/52274884374_bcae256ffb_b.jpg","regular_url":"https://perenual.com/storage/species_image/1459_calamagrostis_acutiflora/regular/52274884374_bcae256ffb_b.jpg","medium_url":"https://perenual.com/storage/species_image/1459_calamagrostis_acutiflora/medium/52274884374_bcae256ffb_b.jpg","small_url":"https://perenual.com/storage/species_image/1459_calamagrostis_acutiflora/small/52274884374_bcae256ffb_b.jpg","thumbnail":"https://perenual.com/storage/species_image/1459_calamagrostis_acutiflora/thumbnail/52274884374_bcae256ffb_b.jpg"}},{"id":1460,"common_name":"feather reed grass","scientific_name":["Calamagrostis acutiflora 'Avalanche'"],"other_name":null,"cycle":"Perennial","watering":"Frequent","sunlight":["Full sun"],"default_image":{"image_id":3321,"license":5,"license_name":"Attribution-ShareAlike License","license_url":"https://creativecommons.org/licenses/by-sa/2.0/","original_url":"https://perenual.com/storage/species_image/1460_calamagrostis_acutiflora_avalanche/og/52274621111_492bb59236_b.jpg","regular_url":"https://perenual.com/storage/species_image/1460_calamagrostis_acutiflora_avalanche/regular/52274621111_492bb59236_b.jpg","medium_url":"https://perenual.com/storage/species_image/1460_calamagrostis_acutiflora_avalanche/medium/52274621111_492bb59236_b.jpg","small_url":"https://perenual.com/storage/species_image/1460_calamagrostis_acutiflora_avalanche/small/52274621111_492bb59236_b.jpg","thumbnail":"https://perenual.com/storage/species_image/1460_calamagrostis_acutiflora_avalanche/thumbnail/52274621111_492bb59236_b.jpg"}},{"id":1461,"common_name":"feather reed grass","scientific_name":["Calamagrostis acutiflora 'Karl Foerster'"],"other_name":null,"cycle":"Perennial","watering":"Frequent","sunlight":["Full sun"],"default_image":{"image_id":3324,"license":4,"license_name":"Attribution License","license_url":"https://creativecommons.org/licenses/by/2.0/","original_url":"https://perenual.com/storage/species_image/1461_calamagrostis_acutiflora_karl_foerster/og/50480455463_202c4f63c7_b.jpg","regular_url":"https://perenual.com/storage/species_image/1461_calamagrostis_acutiflora_karl_foerster/regular/50480455463_202c4f63c7_b.jpg","medium_url":"https://perenual.com/storage/species_image/1461_calamagrostis_acutiflora_karl_foerster/medium/50480455463_202c4f63c7_b.jpg","small_url":"https://perenual.com/storage/species_image/1461_calamagrostis_acutiflora_karl_foerster/small/50480455463_202c4f63c7_b.jpg","thumbnail":"https://perenual.com/storage/species_image/1461_calamagrostis_acutiflora_karl_foerster/thumbnail/50480455463_202c4f63c7_b.jpg"}},{"id":1462,"common_name":"feather reed grass","scientific_name":["Calamagrostis acutiflora 'Overdam'"],"other_name":null,"cycle":"Perennial","watering":"Frequent","sunlight":["Full sun"],"default_image":{"image_id":3325,"license":5,"license_name":"Attribution-ShareAlike License","license_url":"https://creativecommons.org/licenses/by-sa/2.0/","original_url":"https://perenual.com/storage/species_image/1462_calamagrostis_acutiflora_overdam/og/20610232731_65014bcb22_b.jpg","regular_url":"https://perenual.com/storage/species_image/1462_calamagrostis_acutiflora_overdam/regular/20610232731_65014bcb22_b.jpg","medium_url":"https://perenual.com/storage/species_image/1462_calamagrostis_acutiflora_overdam/medium/20610232731_65014bcb22_b.jpg","small_url":"https://perenual.com/storage/species_image/1462_calamagrostis_acutiflora_overdam/small/20610232731_65014bcb22_b.jpg","thumbnail":"https://perenual.com/storage/species_image/1462_calamagrostis_acutiflora_overdam/thumbnail/20610232731_65014bcb22_b.jpg"}},{"id":1463,"common_name":"reed grass","scientific_name":["Calamagrostis brachytricha"],"other_name":null,"cycle":"Perennial","watering":"Frequent","sunlight":["Full sun"],"default_image":{"image_id":3328,"license":5,"license_name":"Attribution-ShareAlike License","license_url":"https://creativecommons.org/licenses/by-sa/2.0/","original_url":"https://perenual.com/storage/species_image/1463_calamagrostis_brachytricha/og/52387252870_3b93bf7c6a_b.jpg","regular_url":"https://perenual.com/storage/species_image/1463_calamagrostis_brachytricha/regular/52387252870_3b93bf7c6a_b.jpg","medium_url":"https://perenual.com/storage/species_image/1463_calamagrostis_brachytricha/medium/52387252870_3b93bf7c6a_b.jpg","small_url":"https://perenual.com/storage/species_image/1463_calamagrostis_brachytricha/small/52387252870_3b93bf7c6a_b.jpg","thumbnail":"https://perenual.com/storage/species_image/1463_calamagrostis_brachytricha/thumbnail/52387252870_3b93bf7c6a_b.jpg"}},{"id":1464,"common_name":"calamint","scientific_name":["Calamintha nepeta"],"other_name":null,"cycle":"Perennial","watering":"Minimum","sunlight":["Full sun"],"default_image":{"image_id":3332,"license":5,"license_name":"Attribution-ShareAlike License","license_url":"https://creativecommons.org/licenses/by-sa/2.0/","original_url":"https://perenual.com/storage/species_image/1464_calamintha_nepeta/og/35792660106_8364190ec3_b.jpg","regular_url":"https://perenual.com/storage/species_image/1464_calamintha_nepeta/regular/35792660106_8364190ec3_b.jpg","medium_url":"https://perenual.com/storage/species_image/1464_calamintha_nepeta/medium/35792660106_8364190ec3_b.jpg","small_url":"https://perenual.com/storage/species_image/1464_calamintha_nepeta/small/35792660106_8364190ec3_b.jpg","thumbnail":"https://perenual.com/storage/species_image/1464_calamintha_nepeta/thumbnail/35792660106_8364190ec3_b.jpg"}},{"id":1465,"common_name":"calamint","scientific_name":["Calamintha nepeta 'Montrose White'"],"other_name":null,"cycle":"Perennial","watering":"Minimum","sunlight":["Full sun"],"default_image":{"image_id":9,"license":5,"license_name":"Attribution-ShareAlike License","license_url":"https://creativecommons.org/licenses/by-sa/2.0/","original_url":"https://perenual.com/storage/species_image/2_abies_alba_pyramidalis/og/49255769768_df55596553_b.jpg","regular_url":"https://perenual.com/storage/species_image/2_abies_alba_pyramidalis/regular/49255769768_df55596553_b.jpg","medium_url":"https://perenual.com/storage/species_image/2_abies_alba_pyramidalis/medium/49255769768_df55596553_b.jpg","small_url":"https://perenual.com/storage/species_image/2_abies_alba_pyramidalis/small/49255769768_df55596553_b.jpg","thumbnail":"https://perenual.com/storage/species_image/2_abies_alba_pyramidalis/thumbnail/49255769768_df55596553_b.jpg"}},{"id":1466,"common_name":"calamint","scientific_name":["Calamintha nepeta subsp. nepeta"],"other_name":null,"cycle":"Perennial","watering":"Minimum","sunlight":["Full sun"],"default_image":{"image_id":3335,"license":5,"license_name":"Attribution-ShareAlike License","license_url":"https://creativecommons.org/licenses/by-sa/2.0/","original_url":"https://perenual.com/storage/species_image/1466_calamintha_nepeta_subsp_nepeta/og/28644415586_bb82e0eeda_b.jpg","regular_url":"https://perenual.com/storage/species_image/1466_calamintha_nepeta_subsp_nepeta/regular/28644415586_bb82e0eeda_b.jpg","medium_url":"https://perenual.com/storage/species_image/1466_calamintha_nepeta_subsp_nepeta/medium/28644415586_bb82e0eeda_b.jpg","small_url":"https://perenual.com/storage/species_image/1466_calamintha_nepeta_subsp_nepeta/small/28644415586_bb82e0eeda_b.jpg","thumbnail":"https://perenual.com/storage/species_image/1466_calamintha_nepeta_subsp_nepeta/thumbnail/28644415586_bb82e0eeda_b.jpg"}},{"id":1467,"common_name":"Cumberland reed grass","scientific_name":["Calamovilfa arcuata"],"other_name":null,"cycle":"Perennial","watering":"Frequent","sunlight":["Full sun"],"default_image":{"image_id":3336,"license":45,"license_name":"Attribution-ShareAlike 3.0 Unported (CC BY-SA 3.0)","license_url":"https://creativecommons.org/licenses/by-sa/3.0/deed.en","original_url":"https://perenual.com/storage/species_image/1467_calamovilfa_arcuata/og/Calamovilfa_arcuata.jpg","regular_url":"https://perenual.com/storage/species_image/1467_calamovilfa_arcuata/regular/Calamovilfa_arcuata.jpg","medium_url":"https://perenual.com/storage/species_image/1467_calamovilfa_arcuata/medium/Calamovilfa_arcuata.jpg","small_url":"https://perenual.com/storage/species_image/1467_calamovilfa_arcuata/small/Calamovilfa_arcuata.jpg","thumbnail":"https://perenual.com/storage/species_image/1467_calamovilfa_arcuata/thumbnail/Calamovilfa_arcuata.jpg"}},{"id":1468,"common_name":"orchid","scientific_name":["Calanthe 'Kozu Spice'"],"other_name":null,"cycle":"Perennial","watering":"Average","sunlight":["Part shade"],"default_image":{"image_id":9,"license":5,"license_name":"Attribution-ShareAlike License","license_url":"https://creativecommons.org/licenses/by-sa/2.0/","original_url":"https://perenual.com/storage/species_image/2_abies_alba_pyramidalis/og/49255769768_df55596553_b.jpg","regular_url":"https://perenual.com/storage/species_image/2_abies_alba_pyramidalis/regular/49255769768_df55596553_b.jpg","medium_url":"https://perenual.com/storage/species_image/2_abies_alba_pyramidalis/medium/49255769768_df55596553_b.jpg","small_url":"https://perenual.com/storage/species_image/2_abies_alba_pyramidalis/small/49255769768_df55596553_b.jpg","thumbnail":"https://perenual.com/storage/species_image/2_abies_alba_pyramidalis/thumbnail/49255769768_df55596553_b.jpg"}},{"id":1469,"common_name":"rattlesnake plant","scientific_name":["Calathea lancifolia"],"other_name":null,"cycle":"Perennial","watering":"Average","sunlight":["Part shade","full shade"],"default_image":{"image_id":3338,"license":4,"license_name":"Attribution License","license_url":"https://creativecommons.org/licenses/by/2.0/","original_url":"https://perenual.com/storage/species_image/1469_calathea_lancifolia/og/3676781257_2e8730f471_b.jpg","regular_url":"https://perenual.com/storage/species_image/1469_calathea_lancifolia/regular/3676781257_2e8730f471_b.jpg","medium_url":"https://perenual.com/storage/species_image/1469_calathea_lancifolia/medium/3676781257_2e8730f471_b.jpg","small_url":"https://perenual.com/storage/species_image/1469_calathea_lancifolia/small/3676781257_2e8730f471_b.jpg","thumbnail":"https://perenual.com/storage/species_image/1469_calathea_lancifolia/thumbnail/3676781257_2e8730f471_b.jpg"}},{"id":1470,"common_name":"peacock plant","scientific_name":["Calathea makoyana"],"other_name":null,"cycle":"Perennial","watering":"Average","sunlight":["Part shade","full shade"],"default_image":{"image_id":3343,"license":4,"license_name":"Attribution License","license_url":"https://creativecommons.org/licenses/by/2.0/","original_url":"https://perenual.com/storage/species_image/1470_calathea_makoyana/og/5455983461_9d5ac395aa_b.jpg","regular_url":"https://perenual.com/storage/species_image/1470_calathea_makoyana/regular/5455983461_9d5ac395aa_b.jpg","medium_url":"https://perenual.com/storage/species_image/1470_calathea_makoyana/medium/5455983461_9d5ac395aa_b.jpg","small_url":"https://perenual.com/storage/species_image/1470_calathea_makoyana/small/5455983461_9d5ac395aa_b.jpg","thumbnail":"https://perenual.com/storage/species_image/1470_calathea_makoyana/thumbnail/5455983461_9d5ac395aa_b.jpg"}}],"to":1470,"per_page":30,"current_page":49,"from":1441,"last_page":200,"total":6000}