{"data":[{"id":3541,"common_name":"daylily","scientific_name":["Hemerocallis 'Juan Tapia'"],"other_name":null,"cycle":"Perennial","watering":"Average","sunlight":["Full sun","part shade"],"default_image":{"image_id":22003,"license":2,"license_name":null,"license_url":null,"original_url":"https://perenual.com/storage/species_image/3630_hemerocallis_ver00204_everydaylily_yellow_punch/og/52389752668_ff18329a33_b.jpg","regular_url":"https://perenual.com/storage/species_image/3630_hemerocallis_ver00204_everydaylily_yellow_punch/regular/52389752668_ff18329a33_b.jpg","medium_url":"https://perenual.com/storage/species_image/3630_hemerocallis_ver00204_everydaylily_yellow_punch/medium/52389752668_ff18329a33_b.jpg","small_url":"https://perenual.com/storage/species_image/3630_hemerocallis_ver00204_everydaylily_yellow_punch/small/52389752668_ff18329a33_b.jpg","thumbnail":"https://perenual.com/storage/species_image/3630_hemerocallis_ver00204_everydaylily_yellow_punch/thumbnail/52389752668_ff18329a33_b.jpg"}},{"id":3542,"common_name":"tetraploid daylily","scientific_name":["Hemerocallis 'Judith'"],"other_name":null,"cycle":"Perennial","watering":"Average","sunlight":["Full sun","part shade"],"default_image":{"image_id":7337,"license":5,"license_name":"Attribution-ShareAlike License","license_url":"https://creativecommons.org/licenses/by-sa/2.0/","original_url":"https://perenual.com/storage/species_image/3542_hemerocallis_judith/og/52274885139_351154fe11_b.jpg","regular_url":"https://perenual.com/storage/species_image/3542_hemerocallis_judith/regular/52274885139_351154fe11_b.jpg","medium_url":"https://perenual.com/storage/species_image/3542_hemerocallis_judith/medium/52274885139_351154fe11_b.jpg","small_url":"https://perenual.com/storage/species_image/3542_hemerocallis_judith/small/52274885139_351154fe11_b.jpg","thumbnail":"https://perenual.com/storage/species_image/3542_hemerocallis_judith/thumbnail/52274885139_351154fe11_b.jpg"}},{"id":3543,"common_name":"daylily","scientific_name":["Hemerocallis 'Just a Bit'"],"other_name":null,"cycle":"Perennial","watering":"Average","sunlight":["Full sun","part shade"],"default_image":{"image_id":7413,"license":5,"license_name":"Attribution-ShareAlike License","license_url":"https://creativecommons.org/licenses/by-sa/2.0/","original_url":"https://perenual.com/storage/species_image/3543_hemerocallis_just_a_bit/og/4743463357_f7ae974c06_b.jpg","regular_url":"https://perenual.com/storage/species_image/3543_hemerocallis_just_a_bit/regular/4743463357_f7ae974c06_b.jpg","medium_url":"https://perenual.com/storage/species_image/3543_hemerocallis_just_a_bit/medium/4743463357_f7ae974c06_b.jpg","small_url":"https://perenual.com/storage/species_image/3543_hemerocallis_just_a_bit/small/4743463357_f7ae974c06_b.jpg","thumbnail":"https://perenual.com/storage/species_image/3543_hemerocallis_just_a_bit/thumbnail/4743463357_f7ae974c06_b.jpg"}},{"id":3544,"common_name":"daylily","scientific_name":["Hemerocallis 'Katie'"],"other_name":null,"cycle":"Perennial","watering":"Average","sunlight":["Full sun","part shade"],"default_image":{"image_id":9,"license":5,"license_name":"Attribution-ShareAlike License","license_url":"https://creativecommons.org/licenses/by-sa/2.0/","original_url":"https://perenual.com/storage/species_image/2_abies_alba_pyramidalis/og/49255769768_df55596553_b.jpg","regular_url":"https://perenual.com/storage/species_image/2_abies_alba_pyramidalis/regular/49255769768_df55596553_b.jpg","medium_url":"https://perenual.com/storage/species_image/2_abies_alba_pyramidalis/medium/49255769768_df55596553_b.jpg","small_url":"https://perenual.com/storage/species_image/2_abies_alba_pyramidalis/small/49255769768_df55596553_b.jpg","thumbnail":"https://perenual.com/storage/species_image/2_abies_alba_pyramidalis/thumbnail/49255769768_df55596553_b.jpg"}},{"id":3545,"common_name":"daylily","scientific_name":["Hemerocallis 'Lady Emily' LOVELY LADY"],"other_name":null,"cycle":"Perennial","watering":"Average","sunlight":["Full sun","part shade"],"default_image":{"image_id":7370,"license":5,"license_name":"Attribution-ShareAlike License","license_url":"https://creativecommons.org/licenses/by-sa/2.0/","original_url":"https://perenual.com/storage/species_image/3545_hemerocallis_lady_emily_lovely_lady/og/52283994159_f462d85438_b.jpg","regular_url":"https://perenual.com/storage/species_image/3545_hemerocallis_lady_emily_lovely_lady/regular/52283994159_f462d85438_b.jpg","medium_url":"https://perenual.com/storage/species_image/3545_hemerocallis_lady_emily_lovely_lady/medium/52283994159_f462d85438_b.jpg","small_url":"https://perenual.com/storage/species_image/3545_hemerocallis_lady_emily_lovely_lady/small/52283994159_f462d85438_b.jpg","thumbnail":"https://perenual.com/storage/species_image/3545_hemerocallis_lady_emily_lovely_lady/thumbnail/52283994159_f462d85438_b.jpg"}},{"id":3546,"common_name":"daylily","scientific_name":["Hemerocallis 'Lady Eva'"],"other_name":null,"cycle":"Perennial","watering":"Average","sunlight":["Full sun","part shade"],"default_image":{"image_id":9,"license":5,"license_name":"Attribution-ShareAlike License","license_url":"https://creativecommons.org/licenses/by-sa/2.0/","original_url":"https://perenual.com/storage/species_image/2_abies_alba_pyramidalis/og/49255769768_df55596553_b.jpg","regular_url":"https://perenual.com/storage/species_image/2_abies_alba_pyramidalis/regular/49255769768_df55596553_b.jpg","medium_url":"https://perenual.com/storage/species_image/2_abies_alba_pyramidalis/medium/49255769768_df55596553_b.jpg","small_url":"https://perenual.com/storage/species_image/2_abies_alba_pyramidalis/small/49255769768_df55596553_b.jpg","thumbnail":"https://perenual.com/storage/species_image/2_abies_alba_pyramidalis/thumbnail/49255769768_df55596553_b.jpg"}},{"id":3547,"common_name":"daylily","scientific_name":["Hemerocallis 'Lady Florence'"],"other_name":null,"cycle":"Perennial","watering":"Average","sunlight":["Full sun","part shade"],"default_image":{"image_id":7326,"license":5,"license_name":"Attribution-ShareAlike License","license_url":"https://creativecommons.org/licenses/by-sa/2.0/","original_url":"https://perenual.com/storage/species_image/3630_hemerocallis_ver00204_everydaylily_yellow_punch/og/52332119471_200e73af3d_b.jpg","regular_url":"https://perenual.com/storage/species_image/3630_hemerocallis_ver00204_everydaylily_yellow_punch/regular/52332119471_200e73af3d_b.jpg","medium_url":"https://perenual.com/storage/species_image/3630_hemerocallis_ver00204_everydaylily_yellow_punch/medium/52332119471_200e73af3d_b.jpg","small_url":"https://perenual.com/storage/species_image/3630_hemerocallis_ver00204_everydaylily_yellow_punch/small/52332119471_200e73af3d_b.jpg","thumbnail":"https://perenual.com/storage/species_image/3630_hemerocallis_ver00204_everydaylily_yellow_punch/thumbnail/52332119471_200e73af3d_b.jpg"}},{"id":3548,"common_name":"daylily","scientific_name":["Hemerocallis 'Lady Georgia'"],"other_name":null,"cycle":"Perennial","watering":"Average","sunlight":["Full sun","part shade"],"default_image":{"image_id":22002,"license":2,"license_name":null,"license_url":null,"original_url":"https://perenual.com/storage/species_image/3633_hemerocallis_wayside_king_royale/og/52582221879_4c541c62b5_b.jpg","regular_url":"https://perenual.com/storage/species_image/3633_hemerocallis_wayside_king_royale/regular/52582221879_4c541c62b5_b.jpg","medium_url":"https://perenual.com/storage/species_image/3633_hemerocallis_wayside_king_royale/medium/52582221879_4c541c62b5_b.jpg","small_url":"https://perenual.com/storage/species_image/3633_hemerocallis_wayside_king_royale/small/52582221879_4c541c62b5_b.jpg","thumbnail":"https://perenual.com/storage/species_image/3633_hemerocallis_wayside_king_royale/thumbnail/52582221879_4c541c62b5_b.jpg"}},{"id":3549,"common_name":"daylily","scientific_name":["Hemerocallis 'Lady Jackie'"],"other_name":null,"cycle":"Perennial","watering":"Average","sunlight":["Full sun","part shade"],"default_image":{"image_id":22004,"license":2,"license_name":null,"license_url":null,"original_url":"https://perenual.com/storage/species_image/3635_hemerocallis_zuni_thunderbird/og/52582474823_f80a05c7ff_b.jpg","regular_url":"https://perenual.com/storage/species_image/3635_hemerocallis_zuni_thunderbird/regular/52582474823_f80a05c7ff_b.jpg","medium_url":"https://perenual.com/storage/species_image/3635_hemerocallis_zuni_thunderbird/medium/52582474823_f80a05c7ff_b.jpg","small_url":"https://perenual.com/storage/species_image/3635_hemerocallis_zuni_thunderbird/small/52582474823_f80a05c7ff_b.jpg","thumbnail":"https://perenual.com/storage/species_image/3635_hemerocallis_zuni_thunderbird/thumbnail/52582474823_f80a05c7ff_b.jpg"}},{"id":3550,"common_name":"daylily","scientific_name":["Hemerocallis 'Lady Rose'"],"other_name":null,"cycle":"Perennial","watering":"Average","sunlight":["Full sun","part shade"],"default_image":{"image_id":7415,"license":5,"license_name":"Attribution-ShareAlike License","license_url":"https://creativecommons.org/licenses/by-sa/2.0/","original_url":"https://perenual.com/storage/species_image/3550_hemerocallis_lady_rose/og/51302403201_46bf0335e2_b.jpg","regular_url":"https://perenual.com/storage/species_image/3550_hemerocallis_lady_rose/regular/51302403201_46bf0335e2_b.jpg","medium_url":"https://perenual.com/storage/species_image/3550_hemerocallis_lady_rose/medium/51302403201_46bf0335e2_b.jpg","small_url":"https://perenual.com/storage/species_image/3550_hemerocallis_lady_rose/small/51302403201_46bf0335e2_b.jpg","thumbnail":"https://perenual.com/storage/species_image/3550_hemerocallis_lady_rose/thumbnail/51302403201_46bf0335e2_b.jpg"}},{"id":3551,"common_name":"daylily","scientific_name":["Hemerocallis 'Lamplighter's Circle'"],"other_name":null,"cycle":"Perennial","watering":"Average","sunlight":["Full sun","part shade"],"default_image":{"image_id":9,"license":5,"license_name":"Attribution-ShareAlike License","license_url":"https://creativecommons.org/licenses/by-sa/2.0/","original_url":"https://perenual.com/storage/species_image/2_abies_alba_pyramidalis/og/49255769768_df55596553_b.jpg","regular_url":"https://perenual.com/storage/species_image/2_abies_alba_pyramidalis/regular/49255769768_df55596553_b.jpg","medium_url":"https://perenual.com/storage/species_image/2_abies_alba_pyramidalis/medium/49255769768_df55596553_b.jpg","small_url":"https://perenual.com/storage/species_image/2_abies_alba_pyramidalis/small/49255769768_df55596553_b.jpg","thumbnail":"https://perenual.com/storage/species_image/2_abies_alba_pyramidalis/thumbnail/49255769768_df55596553_b.jpg"}},{"id":3552,"common_name":"daylily","scientific_name":["Hemerocallis 'Land of Cotton'"],"other_name":null,"cycle":"Perennial","watering":"Average","sunlight":["Full sun","part shade"],"default_image":{"image_id":7420,"license":5,"license_name":"Attribution-ShareAlike License","license_url":"https://creativecommons.org/licenses/by-sa/2.0/","original_url":"https://perenual.com/storage/species_image/4507_juniperus_conferta_blue_pacific/og/52555211748_57005d8d2b_b.jpg","regular_url":"https://perenual.com/storage/species_image/4507_juniperus_conferta_blue_pacific/regular/52555211748_57005d8d2b_b.jpg","medium_url":"https://perenual.com/storage/species_image/4507_juniperus_conferta_blue_pacific/medium/52555211748_57005d8d2b_b.jpg","small_url":"https://perenual.com/storage/species_image/4507_juniperus_conferta_blue_pacific/small/52555211748_57005d8d2b_b.jpg","thumbnail":"https://perenual.com/storage/species_image/4507_juniperus_conferta_blue_pacific/thumbnail/52555211748_57005d8d2b_b.jpg"}},{"id":3553,"common_name":"daylily","scientific_name":["Hemerocallis 'Late Plum'"],"other_name":null,"cycle":"Perennial","watering":"Average","sunlight":["Full sun","part shade"],"default_image":{"image_id":22004,"license":2,"license_name":null,"license_url":null,"original_url":"https://perenual.com/storage/species_image/3635_hemerocallis_zuni_thunderbird/og/52582474823_f80a05c7ff_b.jpg","regular_url":"https://perenual.com/storage/species_image/3635_hemerocallis_zuni_thunderbird/regular/52582474823_f80a05c7ff_b.jpg","medium_url":"https://perenual.com/storage/species_image/3635_hemerocallis_zuni_thunderbird/medium/52582474823_f80a05c7ff_b.jpg","small_url":"https://perenual.com/storage/species_image/3635_hemerocallis_zuni_thunderbird/small/52582474823_f80a05c7ff_b.jpg","thumbnail":"https://perenual.com/storage/species_image/3635_hemerocallis_zuni_thunderbird/thumbnail/52582474823_f80a05c7ff_b.jpg"}},{"id":3554,"common_name":"daylily","scientific_name":["Hemerocallis 'Lavender Stardust'"],"other_name":null,"cycle":"Perennial","watering":"Average","sunlight":["Full sun","part shade"],"default_image":{"image_id":7421,"license":5,"license_name":"Attribution-ShareAlike License","license_url":"https://creativecommons.org/licenses/by-sa/2.0/","original_url":"https://perenual.com/storage/species_image/3554_hemerocallis_lavender_stardust/og/48330741276_9fafeca5d5_b.jpg","regular_url":"https://perenual.com/storage/species_image/3554_hemerocallis_lavender_stardust/regular/48330741276_9fafeca5d5_b.jpg","medium_url":"https://perenual.com/storage/species_image/3554_hemerocallis_lavender_stardust/medium/48330741276_9fafeca5d5_b.jpg","small_url":"https://perenual.com/storage/species_image/3554_hemerocallis_lavender_stardust/small/48330741276_9fafeca5d5_b.jpg","thumbnail":"https://perenual.com/storage/species_image/3554_hemerocallis_lavender_stardust/thumbnail/48330741276_9fafeca5d5_b.jpg"}},{"id":3555,"common_name":"yellow daylily","scientific_name":["Hemerocallis lilioasphodelus"],"other_name":null,"cycle":"Perennial","watering":"Average","sunlight":["Full sun","part shade"],"default_image":{"image_id":9,"license":5,"license_name":"Attribution-ShareAlike License","license_url":"https://creativecommons.org/licenses/by-sa/2.0/","original_url":"https://perenual.com/storage/species_image/2_abies_alba_pyramidalis/og/49255769768_df55596553_b.jpg","regular_url":"https://perenual.com/storage/species_image/2_abies_alba_pyramidalis/regular/49255769768_df55596553_b.jpg","medium_url":"https://perenual.com/storage/species_image/2_abies_alba_pyramidalis/medium/49255769768_df55596553_b.jpg","small_url":"https://perenual.com/storage/species_image/2_abies_alba_pyramidalis/small/49255769768_df55596553_b.jpg","thumbnail":"https://perenual.com/storage/species_image/2_abies_alba_pyramidalis/thumbnail/49255769768_df55596553_b.jpg"}},{"id":3556,"common_name":"daylily","scientific_name":["Hemerocallis 'Little Audrey'"],"other_name":null,"cycle":"Perennial","watering":"Average","sunlight":["Full sun","part shade"],"default_image":{"image_id":9,"license":5,"license_name":"Attribution-ShareAlike License","license_url":"https://creativecommons.org/licenses/by-sa/2.0/","original_url":"https://perenual.com/storage/species_image/2_abies_alba_pyramidalis/og/49255769768_df55596553_b.jpg","regular_url":"https://perenual.com/storage/species_image/2_abies_alba_pyramidalis/regular/49255769768_df55596553_b.jpg","medium_url":"https://perenual.com/storage/species_image/2_abies_alba_pyramidalis/medium/49255769768_df55596553_b.jpg","small_url":"https://perenual.com/storage/species_image/2_abies_alba_pyramidalis/small/49255769768_df55596553_b.jpg","thumbnail":"https://perenual.com/storage/species_image/2_abies_alba_pyramidalis/thumbnail/49255769768_df55596553_b.jpg"}},{"id":3557,"common_name":"daylily","scientific_name":["Hemerocallis 'Little Baby Mine'"],"other_name":null,"cycle":"Perennial","watering":"Average","sunlight":["Full sun","part shade"],"default_image":{"image_id":22002,"license":2,"license_name":null,"license_url":null,"original_url":"https://perenual.com/storage/species_image/3633_hemerocallis_wayside_king_royale/og/52582221879_4c541c62b5_b.jpg","regular_url":"https://perenual.com/storage/species_image/3633_hemerocallis_wayside_king_royale/regular/52582221879_4c541c62b5_b.jpg","medium_url":"https://perenual.com/storage/species_image/3633_hemerocallis_wayside_king_royale/medium/52582221879_4c541c62b5_b.jpg","small_url":"https://perenual.com/storage/species_image/3633_hemerocallis_wayside_king_royale/small/52582221879_4c541c62b5_b.jpg","thumbnail":"https://perenual.com/storage/species_image/3633_hemerocallis_wayside_king_royale/thumbnail/52582221879_4c541c62b5_b.jpg"}},{"id":3558,"common_name":"daylily","scientific_name":["Hemerocallis 'Little Business'"],"other_name":null,"cycle":"Perennial","watering":"Average","sunlight":["Full sun","part shade"],"default_image":{"image_id":7425,"license":5,"license_name":"Attribution-ShareAlike License","license_url":"https://creativecommons.org/licenses/by-sa/2.0/","original_url":"https://perenual.com/storage/species_image/3558_hemerocallis_little_business/og/51283141487_dfe122dc1c_b.jpg","regular_url":"https://perenual.com/storage/species_image/3558_hemerocallis_little_business/regular/51283141487_dfe122dc1c_b.jpg","medium_url":"https://perenual.com/storage/species_image/3558_hemerocallis_little_business/medium/51283141487_dfe122dc1c_b.jpg","small_url":"https://perenual.com/storage/species_image/3558_hemerocallis_little_business/small/51283141487_dfe122dc1c_b.jpg","thumbnail":"https://perenual.com/storage/species_image/3558_hemerocallis_little_business/thumbnail/51283141487_dfe122dc1c_b.jpg"}},{"id":3559,"common_name":"daylily","scientific_name":["Hemerocallis 'Little Doll'"],"other_name":null,"cycle":"Perennial","watering":"Average","sunlight":["Full sun","part shade"],"default_image":{"image_id":7428,"license":5,"license_name":"Attribution-ShareAlike License","license_url":"https://creativecommons.org/licenses/by-sa/2.0/","original_url":"https://perenual.com/storage/species_image/3559_hemerocallis_little_doll/og/52227723100_a4e1796079_b.jpg","regular_url":"https://perenual.com/storage/species_image/3559_hemerocallis_little_doll/regular/52227723100_a4e1796079_b.jpg","medium_url":"https://perenual.com/storage/species_image/3559_hemerocallis_little_doll/medium/52227723100_a4e1796079_b.jpg","small_url":"https://perenual.com/storage/species_image/3559_hemerocallis_little_doll/small/52227723100_a4e1796079_b.jpg","thumbnail":"https://perenual.com/storage/species_image/3559_hemerocallis_little_doll/thumbnail/52227723100_a4e1796079_b.jpg"}},{"id":3560,"common_name":"daylily","scientific_name":["Hemerocallis 'Little Fantastic'"],"other_name":null,"cycle":"Perennial","watering":"Average","sunlight":["Full sun","part shade"],"default_image":{"image_id":22002,"license":2,"license_name":null,"license_url":null,"original_url":"https://perenual.com/storage/species_image/3633_hemerocallis_wayside_king_royale/og/52582221879_4c541c62b5_b.jpg","regular_url":"https://perenual.com/storage/species_image/3633_hemerocallis_wayside_king_royale/regular/52582221879_4c541c62b5_b.jpg","medium_url":"https://perenual.com/storage/species_image/3633_hemerocallis_wayside_king_royale/medium/52582221879_4c541c62b5_b.jpg","small_url":"https://perenual.com/storage/species_image/3633_hemerocallis_wayside_king_royale/small/52582221879_4c541c62b5_b.jpg","thumbnail":"https://perenual.com/storage/species_image/3633_hemerocallis_wayside_king_royale/thumbnail/52582221879_4c541c62b5_b.jpg"}},{"id":3561,"common_name":"daylily","scientific_name":["Hemerocallis 'Little Fat Cat'"],"other_name":null,"cycle":"Perennial","watering":"Average","sunlight":["Full sun","part shade"],"default_image":{"image_id":22002,"license":2,"license_name":null,"license_url":null,"original_url":"https://perenual.com/storage/species_image/3633_hemerocallis_wayside_king_royale/og/52582221879_4c541c62b5_b.jpg","regular_url":"https://perenual.com/storage/species_image/3633_hemerocallis_wayside_king_royale/regular/52582221879_4c541c62b5_b.jpg","medium_url":"https://perenual.com/storage/species_image/3633_hemerocallis_wayside_king_royale/medium/52582221879_4c541c62b5_b.jpg","small_url":"https://perenual.com/storage/species_image/3633_hemerocallis_wayside_king_royale/small/52582221879_4c541c62b5_b.jpg","thumbnail":"https://perenual.com/storage/species_image/3633_hemerocallis_wayside_king_royale/thumbnail/52582221879_4c541c62b5_b.jpg"}},{"id":3562,"common_name":"daylily","scientific_name":["Hemerocallis 'Malja' GOLDEN ZEBRA"],"other_name":null,"cycle":"Perennial","watering":"Average","sunlight":["Full sun","part shade"],"default_image":{"image_id":22003,"license":2,"license_name":null,"license_url":null,"original_url":"https://perenual.com/storage/species_image/3630_hemerocallis_ver00204_everydaylily_yellow_punch/og/52389752668_ff18329a33_b.jpg","regular_url":"https://perenual.com/storage/species_image/3630_hemerocallis_ver00204_everydaylily_yellow_punch/regular/52389752668_ff18329a33_b.jpg","medium_url":"https://perenual.com/storage/species_image/3630_hemerocallis_ver00204_everydaylily_yellow_punch/medium/52389752668_ff18329a33_b.jpg","small_url":"https://perenual.com/storage/species_image/3630_hemerocallis_ver00204_everydaylily_yellow_punch/small/52389752668_ff18329a33_b.jpg","thumbnail":"https://perenual.com/storage/species_image/3630_hemerocallis_ver00204_everydaylily_yellow_punch/thumbnail/52389752668_ff18329a33_b.jpg"}},{"id":3563,"common_name":"daylily","scientific_name":["Hemerocallis 'Mark Alan Carpenter'"],"other_name":null,"cycle":"Perennial","watering":"Average","sunlight":["Full sun","part shade"],"default_image":{"image_id":22003,"license":2,"license_name":null,"license_url":null,"original_url":"https://perenual.com/storage/species_image/3630_hemerocallis_ver00204_everydaylily_yellow_punch/og/52389752668_ff18329a33_b.jpg","regular_url":"https://perenual.com/storage/species_image/3630_hemerocallis_ver00204_everydaylily_yellow_punch/regular/52389752668_ff18329a33_b.jpg","medium_url":"https://perenual.com/storage/species_image/3630_hemerocallis_ver00204_everydaylily_yellow_punch/medium/52389752668_ff18329a33_b.jpg","small_url":"https://perenual.com/storage/species_image/3630_hemerocallis_ver00204_everydaylily_yellow_punch/small/52389752668_ff18329a33_b.jpg","thumbnail":"https://perenual.com/storage/species_image/3630_hemerocallis_ver00204_everydaylily_yellow_punch/thumbnail/52389752668_ff18329a33_b.jpg"}},{"id":3564,"common_name":"daylily","scientific_name":["Hemerocallis 'Marshmallow Cloud'"],"other_name":null,"cycle":"Perennial","watering":"Average","sunlight":["Full sun","part shade"],"default_image":{"image_id":7346,"license":4,"license_name":"Attribution License","license_url":"https://creativecommons.org/licenses/by/2.0/","original_url":"https://perenual.com/storage/species_image/3564_hemerocallis_marshmallow_cloud/og/52325937693_6580961ed7_b.jpg","regular_url":"https://perenual.com/storage/species_image/3564_hemerocallis_marshmallow_cloud/regular/52325937693_6580961ed7_b.jpg","medium_url":"https://perenual.com/storage/species_image/3564_hemerocallis_marshmallow_cloud/medium/52325937693_6580961ed7_b.jpg","small_url":"https://perenual.com/storage/species_image/3564_hemerocallis_marshmallow_cloud/small/52325937693_6580961ed7_b.jpg","thumbnail":"https://perenual.com/storage/species_image/3564_hemerocallis_marshmallow_cloud/thumbnail/52325937693_6580961ed7_b.jpg"}},{"id":3565,"common_name":"daylily","scientific_name":["Hemerocallis 'Mauna Loa'"],"other_name":null,"cycle":"Perennial","watering":"Average","sunlight":["Full sun","part shade"],"default_image":{"image_id":7430,"license":5,"license_name":"Attribution-ShareAlike License","license_url":"https://creativecommons.org/licenses/by-sa/2.0/","original_url":"https://perenual.com/storage/species_image/3565_hemerocallis_mauna_loa/og/52209590698_d26f7676e5_b.jpg","regular_url":"https://perenual.com/storage/species_image/3565_hemerocallis_mauna_loa/regular/52209590698_d26f7676e5_b.jpg","medium_url":"https://perenual.com/storage/species_image/3565_hemerocallis_mauna_loa/medium/52209590698_d26f7676e5_b.jpg","small_url":"https://perenual.com/storage/species_image/3565_hemerocallis_mauna_loa/small/52209590698_d26f7676e5_b.jpg","thumbnail":"https://perenual.com/storage/species_image/3565_hemerocallis_mauna_loa/thumbnail/52209590698_d26f7676e5_b.jpg"}},{"id":3566,"common_name":"daylily","scientific_name":["Hemerocallis 'Mini Pearl'"],"other_name":null,"cycle":"Perennial","watering":"Average","sunlight":["Full sun","part shade"],"default_image":{"image_id":9,"license":5,"license_name":"Attribution-ShareAlike License","license_url":"https://creativecommons.org/licenses/by-sa/2.0/","original_url":"https://perenual.com/storage/species_image/2_abies_alba_pyramidalis/og/49255769768_df55596553_b.jpg","regular_url":"https://perenual.com/storage/species_image/2_abies_alba_pyramidalis/regular/49255769768_df55596553_b.jpg","medium_url":"https://perenual.com/storage/species_image/2_abies_alba_pyramidalis/medium/49255769768_df55596553_b.jpg","small_url":"https://perenual.com/storage/species_image/2_abies_alba_pyramidalis/small/49255769768_df55596553_b.jpg","thumbnail":"https://perenual.com/storage/species_image/2_abies_alba_pyramidalis/thumbnail/49255769768_df55596553_b.jpg"}},{"id":3567,"common_name":"daylily","scientific_name":["Hemerocallis 'Mini Stella'"],"other_name":null,"cycle":"Perennial","watering":"Average","sunlight":["Full sun","part shade"],"default_image":{"image_id":22005,"license":2,"license_name":null,"license_url":null,"original_url":"https://perenual.com/storage/species_image/3634_hemerocallis_zada_mae/og/52389510911_c9bb22c165_b.jpg","regular_url":"https://perenual.com/storage/species_image/3634_hemerocallis_zada_mae/regular/52389510911_c9bb22c165_b.jpg","medium_url":"https://perenual.com/storage/species_image/3634_hemerocallis_zada_mae/medium/52389510911_c9bb22c165_b.jpg","small_url":"https://perenual.com/storage/species_image/3634_hemerocallis_zada_mae/small/52389510911_c9bb22c165_b.jpg","thumbnail":"https://perenual.com/storage/species_image/3634_hemerocallis_zada_mae/thumbnail/52389510911_c9bb22c165_b.jpg"}},{"id":3568,"common_name":"dwarf yellow daylily","scientific_name":["Hemerocallis minor"],"other_name":null,"cycle":"Perennial","watering":"Average","sunlight":["Full sun","part shade"],"default_image":{"image_id":7434,"license":4,"license_name":"Attribution License","license_url":"https://creativecommons.org/licenses/by/2.0/","original_url":"https://perenual.com/storage/species_image/3568_hemerocallis_minor/og/49930033157_8f7762bc75_b.jpg","regular_url":"https://perenual.com/storage/species_image/3568_hemerocallis_minor/regular/49930033157_8f7762bc75_b.jpg","medium_url":"https://perenual.com/storage/species_image/3568_hemerocallis_minor/medium/49930033157_8f7762bc75_b.jpg","small_url":"https://perenual.com/storage/species_image/3568_hemerocallis_minor/small/49930033157_8f7762bc75_b.jpg","thumbnail":"https://perenual.com/storage/species_image/3568_hemerocallis_minor/thumbnail/49930033157_8f7762bc75_b.jpg"}},{"id":3569,"common_name":"daylily","scientific_name":["Hemerocallis 'Miss Amelia'"],"other_name":null,"cycle":"Perennial","watering":"Average","sunlight":["Full sun","part shade"],"default_image":{"image_id":7435,"license":5,"license_name":"Attribution-ShareAlike License","license_url":"https://creativecommons.org/licenses/by-sa/2.0/","original_url":"https://perenual.com/storage/species_image/3569_hemerocallis_miss_amelia/og/52272168828_2469fd3498_b.jpg","regular_url":"https://perenual.com/storage/species_image/3569_hemerocallis_miss_amelia/regular/52272168828_2469fd3498_b.jpg","medium_url":"https://perenual.com/storage/species_image/3569_hemerocallis_miss_amelia/medium/52272168828_2469fd3498_b.jpg","small_url":"https://perenual.com/storage/species_image/3569_hemerocallis_miss_amelia/small/52272168828_2469fd3498_b.jpg","thumbnail":"https://perenual.com/storage/species_image/3569_hemerocallis_miss_amelia/thumbnail/52272168828_2469fd3498_b.jpg"}},{"id":3570,"common_name":"daylily","scientific_name":["Hemerocallis 'Miss Mary Mary'"],"other_name":null,"cycle":"Perennial","watering":"Average","sunlight":["Full sun","part shade"],"default_image":{"image_id":9,"license":5,"license_name":"Attribution-ShareAlike License","license_url":"https://creativecommons.org/licenses/by-sa/2.0/","original_url":"https://perenual.com/storage/species_image/2_abies_alba_pyramidalis/og/49255769768_df55596553_b.jpg","regular_url":"https://perenual.com/storage/species_image/2_abies_alba_pyramidalis/regular/49255769768_df55596553_b.jpg","medium_url":"https://perenual.com/storage/species_image/2_abies_alba_pyramidalis/medium/49255769768_df55596553_b.jpg","small_url":"https://perenual.com/storage/species_image/2_abies_alba_pyramidalis/small/49255769768_df55596553_b.jpg","thumbnail":"https://perenual.com/storage/species_image/2_abies_alba_pyramidalis/thumbnail/49255769768_df55596553_b.jpg"}}],"to":3570,"per_page":30,"current_page":119,"from":3541,"last_page":200,"total":6000}