{"data":[{"id":1891,"common_name":"meyer lemon","scientific_name":["Citrus meyeri"],"other_name":null,"cycle":"Perennial","watering":"Average","sunlight":["Full sun","part shade"],"default_image":{"image_id":4573,"license":4,"license_name":"Attribution License","license_url":"https://creativecommons.org/licenses/by/2.0/","original_url":"https://perenual.com/storage/species_image/1891_citrus_meyeri/og/52503082796_4e584f5e18_b.jpg","regular_url":"https://perenual.com/storage/species_image/1891_citrus_meyeri/regular/52503082796_4e584f5e18_b.jpg","medium_url":"https://perenual.com/storage/species_image/1891_citrus_meyeri/medium/52503082796_4e584f5e18_b.jpg","small_url":"https://perenual.com/storage/species_image/1891_citrus_meyeri/small/52503082796_4e584f5e18_b.jpg","thumbnail":"https://perenual.com/storage/species_image/1891_citrus_meyeri/thumbnail/52503082796_4e584f5e18_b.jpg"}},{"id":1892,"common_name":"giant lemon","scientific_name":["Citrus 'Ponderosa'"],"other_name":null,"cycle":"Perennial","watering":"Average","sunlight":["Full sun"],"default_image":{"image_id":4577,"license":4,"license_name":"Attribution License","license_url":"https://creativecommons.org/licenses/by/2.0/","original_url":"https://perenual.com/storage/species_image/1892_citrus_ponderosa/og/52120765575_fe9caaeb2c_b.jpg","regular_url":"https://perenual.com/storage/species_image/1892_citrus_ponderosa/regular/52120765575_fe9caaeb2c_b.jpg","medium_url":"https://perenual.com/storage/species_image/1892_citrus_ponderosa/medium/52120765575_fe9caaeb2c_b.jpg","small_url":"https://perenual.com/storage/species_image/1892_citrus_ponderosa/small/52120765575_fe9caaeb2c_b.jpg","thumbnail":"https://perenual.com/storage/species_image/1892_citrus_ponderosa/thumbnail/52120765575_fe9caaeb2c_b.jpg"}},{"id":1893,"common_name":"mandarin orange","scientific_name":["Citrus reticulata 'Clementine'"],"other_name":null,"cycle":"Perennial","watering":"Average","sunlight":["Full sun"],"default_image":{"image_id":4579,"license":6,"license_name":"Attribution-NoDerivs License","license_url":"https://creativecommons.org/licenses/by-nd/2.0/","original_url":"https://perenual.com/storage/species_image/1893_citrus_reticulata_clementine/og/6789126861_2658722019_b.jpg"}},{"id":1894,"common_name":"blood orange","scientific_name":["Citrus sinensis 'Moro'"],"other_name":null,"cycle":"Perennial","watering":"Average","sunlight":["Full sun"],"default_image":null},{"id":1895,"common_name":"navel orange","scientific_name":["Citrus sinensis 'Trovita'"],"other_name":null,"cycle":"Perennial","watering":"Average","sunlight":["Full sun"],"default_image":{"image_id":4583,"license":6,"license_name":"Attribution-NoDerivs License","license_url":"https://creativecommons.org/licenses/by-nd/2.0/","original_url":"https://perenual.com/storage/species_image/1895_citrus_sinensis_trovita/og/39799977543_e077b95205_b.jpg"}},{"id":1896,"common_name":"navel orange","scientific_name":["Citrus sinensis 'Washington'"],"other_name":null,"cycle":"Perennial","watering":"Average","sunlight":["Full sun"],"default_image":{"image_id":4584,"license":4,"license_name":"Attribution License","license_url":"https://creativecommons.org/licenses/by/2.0/","original_url":"https://perenual.com/storage/species_image/1896_citrus_sinensis_washington/og/25265177375_c5988d68fd_b.jpg","regular_url":"https://perenual.com/storage/species_image/1896_citrus_sinensis_washington/regular/25265177375_c5988d68fd_b.jpg","medium_url":"https://perenual.com/storage/species_image/1896_citrus_sinensis_washington/medium/25265177375_c5988d68fd_b.jpg","small_url":"https://perenual.com/storage/species_image/1896_citrus_sinensis_washington/small/25265177375_c5988d68fd_b.jpg","thumbnail":"https://perenual.com/storage/species_image/1896_citrus_sinensis_washington/thumbnail/25265177375_c5988d68fd_b.jpg"}},{"id":1897,"common_name":"yellowwood","scientific_name":["Cladrastis kentukea"],"other_name":null,"cycle":"Perennial","watering":"Average","sunlight":[],"default_image":{"image_id":4587,"license":5,"license_name":"Attribution-ShareAlike License","license_url":"https://creativecommons.org/licenses/by-sa/2.0/","original_url":"https://perenual.com/storage/species_image/1897_cladrastis_kentukea/og/6312935506_1c9e617328_b.jpg","regular_url":"https://perenual.com/storage/species_image/1897_cladrastis_kentukea/regular/6312935506_1c9e617328_b.jpg","medium_url":"https://perenual.com/storage/species_image/1897_cladrastis_kentukea/medium/6312935506_1c9e617328_b.jpg","small_url":"https://perenual.com/storage/species_image/1897_cladrastis_kentukea/small/6312935506_1c9e617328_b.jpg","thumbnail":"https://perenual.com/storage/species_image/1897_cladrastis_kentukea/thumbnail/6312935506_1c9e617328_b.jpg"}},{"id":1898,"common_name":"yellowwood","scientific_name":["Cladrastis kentukea 'Perkins Pink'"],"other_name":null,"cycle":"Perennial","watering":"Average","sunlight":[],"default_image":{"image_id":9,"license":5,"license_name":"Attribution-ShareAlike License","license_url":"https://creativecommons.org/licenses/by-sa/2.0/","original_url":"https://perenual.com/storage/species_image/2_abies_alba_pyramidalis/og/49255769768_df55596553_b.jpg","regular_url":"https://perenual.com/storage/species_image/2_abies_alba_pyramidalis/regular/49255769768_df55596553_b.jpg","medium_url":"https://perenual.com/storage/species_image/2_abies_alba_pyramidalis/medium/49255769768_df55596553_b.jpg","small_url":"https://perenual.com/storage/species_image/2_abies_alba_pyramidalis/small/49255769768_df55596553_b.jpg","thumbnail":"https://perenual.com/storage/species_image/2_abies_alba_pyramidalis/thumbnail/49255769768_df55596553_b.jpg"}},{"id":1899,"common_name":"yellowwood","scientific_name":["Cladrastis kentukea 'Sweetshade'"],"other_name":null,"cycle":"Perennial","watering":"Average","sunlight":[],"default_image":{"image_id":9,"license":5,"license_name":"Attribution-ShareAlike License","license_url":"https://creativecommons.org/licenses/by-sa/2.0/","original_url":"https://perenual.com/storage/species_image/2_abies_alba_pyramidalis/og/49255769768_df55596553_b.jpg","regular_url":"https://perenual.com/storage/species_image/2_abies_alba_pyramidalis/regular/49255769768_df55596553_b.jpg","medium_url":"https://perenual.com/storage/species_image/2_abies_alba_pyramidalis/medium/49255769768_df55596553_b.jpg","small_url":"https://perenual.com/storage/species_image/2_abies_alba_pyramidalis/small/49255769768_df55596553_b.jpg","thumbnail":"https://perenual.com/storage/species_image/2_abies_alba_pyramidalis/thumbnail/49255769768_df55596553_b.jpg"}},{"id":1900,"common_name":"satin flower","scientific_name":["Clarkia amoena"],"other_name":null,"cycle":"Perennial","watering":"Average","sunlight":[],"default_image":{"image_id":4597,"license":5,"license_name":"Attribution-ShareAlike License","license_url":"https://creativecommons.org/licenses/by-sa/2.0/","original_url":"https://perenual.com/storage/species_image/1900_clarkia_amoena/og/49993959112_eb5d4ebbab_b.jpg","regular_url":"https://perenual.com/storage/species_image/1900_clarkia_amoena/regular/49993959112_eb5d4ebbab_b.jpg","medium_url":"https://perenual.com/storage/species_image/1900_clarkia_amoena/medium/49993959112_eb5d4ebbab_b.jpg","small_url":"https://perenual.com/storage/species_image/1900_clarkia_amoena/small/49993959112_eb5d4ebbab_b.jpg","thumbnail":"https://perenual.com/storage/species_image/1900_clarkia_amoena/thumbnail/49993959112_eb5d4ebbab_b.jpg"}},{"id":1901,"common_name":"spring beauty","scientific_name":["Claytonia virginica"],"other_name":null,"cycle":"Perennial","watering":"Average","sunlight":["Full sun","part shade"],"default_image":{"image_id":4603,"license":5,"license_name":"Attribution-ShareAlike License","license_url":"https://creativecommons.org/licenses/by-sa/2.0/","original_url":"https://perenual.com/storage/species_image/1901_claytonia_virginica/og/52350989949_19fe95289c_b.jpg","regular_url":"https://perenual.com/storage/species_image/1901_claytonia_virginica/regular/52350989949_19fe95289c_b.jpg","medium_url":"https://perenual.com/storage/species_image/1901_claytonia_virginica/medium/52350989949_19fe95289c_b.jpg","small_url":"https://perenual.com/storage/species_image/1901_claytonia_virginica/small/52350989949_19fe95289c_b.jpg","thumbnail":"https://perenual.com/storage/species_image/1901_claytonia_virginica/thumbnail/52350989949_19fe95289c_b.jpg"}},{"id":1902,"common_name":"clematis","scientific_name":["Clematis 'Andromeda'"],"other_name":null,"cycle":"Perennial","watering":"Average","sunlight":["Full sun","part shade"],"default_image":null},{"id":1903,"common_name":"clematis","scientific_name":["Clematis 'Belle of Taranaki'"],"other_name":null,"cycle":"Perennial","watering":"Average","sunlight":["Full sun","part shade"],"default_image":null},{"id":1904,"common_name":"clematis","scientific_name":["Clematis 'Belle of Woking'"],"other_name":null,"cycle":"Perennial","watering":"Average","sunlight":["Full sun","part shade"],"default_image":{"image_id":4609,"license":5,"license_name":"Attribution-ShareAlike License","license_url":"https://creativecommons.org/licenses/by-sa/2.0/","original_url":"https://perenual.com/storage/species_image/1904_clematis_belle_of_woking/og/49894446752_1f5b826ee8_b.jpg","regular_url":"https://perenual.com/storage/species_image/1904_clematis_belle_of_woking/regular/49894446752_1f5b826ee8_b.jpg","medium_url":"https://perenual.com/storage/species_image/1904_clematis_belle_of_woking/medium/49894446752_1f5b826ee8_b.jpg","small_url":"https://perenual.com/storage/species_image/1904_clematis_belle_of_woking/small/49894446752_1f5b826ee8_b.jpg","thumbnail":"https://perenual.com/storage/species_image/1904_clematis_belle_of_woking/thumbnail/49894446752_1f5b826ee8_b.jpg"}},{"id":1905,"common_name":"clematis","scientific_name":["Clematis 'Betty Corning'"],"other_name":null,"cycle":"Perennial","watering":"Average","sunlight":["Full sun","part shade"],"default_image":{"image_id":4610,"license":4,"license_name":"Attribution License","license_url":"https://creativecommons.org/licenses/by/2.0/","original_url":"https://perenual.com/storage/species_image/1905_clematis_betty_corning/og/20334697295_16703013ea_b.jpg","regular_url":"https://perenual.com/storage/species_image/1905_clematis_betty_corning/regular/20334697295_16703013ea_b.jpg","medium_url":"https://perenual.com/storage/species_image/1905_clematis_betty_corning/medium/20334697295_16703013ea_b.jpg","small_url":"https://perenual.com/storage/species_image/1905_clematis_betty_corning/small/20334697295_16703013ea_b.jpg","thumbnail":"https://perenual.com/storage/species_image/1905_clematis_betty_corning/thumbnail/20334697295_16703013ea_b.jpg"}},{"id":1906,"common_name":"clematis","scientific_name":["Clematis 'Cleminov 51' SAPPHIRE INDIGO"],"other_name":null,"cycle":"Perennial","watering":"Average","sunlight":["Full sun","part shade"],"default_image":{"image_id":4613,"license":5,"license_name":"Attribution-ShareAlike License","license_url":"https://creativecommons.org/licenses/by-sa/2.0/","original_url":"https://perenual.com/storage/species_image/1906_clematis_cleminov_51_sapphire_indigo/og/51242096716_a4c154527d_b.jpg","regular_url":"https://perenual.com/storage/species_image/1906_clematis_cleminov_51_sapphire_indigo/regular/51242096716_a4c154527d_b.jpg","medium_url":"https://perenual.com/storage/species_image/1906_clematis_cleminov_51_sapphire_indigo/medium/51242096716_a4c154527d_b.jpg","small_url":"https://perenual.com/storage/species_image/1906_clematis_cleminov_51_sapphire_indigo/small/51242096716_a4c154527d_b.jpg","thumbnail":"https://perenual.com/storage/species_image/1906_clematis_cleminov_51_sapphire_indigo/thumbnail/51242096716_a4c154527d_b.jpg"}},{"id":1907,"common_name":"clematis","scientific_name":["Clematis 'Comtesse de Bouchaud'"],"other_name":null,"cycle":"Perennial","watering":"Average","sunlight":["Full sun","part shade"],"default_image":null},{"id":1908,"common_name":"blue jasmine","scientific_name":["Clematis crispa"],"other_name":null,"cycle":"Perennial","watering":"Frequent","sunlight":["Full sun","part shade"],"default_image":{"image_id":4618,"license":4,"license_name":"Attribution License","license_url":"https://creativecommons.org/licenses/by/2.0/","original_url":"https://perenual.com/storage/species_image/1908_clematis_crispa/og/50234734136_6bd0839f85_b.jpg","regular_url":"https://perenual.com/storage/species_image/1908_clematis_crispa/regular/50234734136_6bd0839f85_b.jpg","medium_url":"https://perenual.com/storage/species_image/1908_clematis_crispa/medium/50234734136_6bd0839f85_b.jpg","small_url":"https://perenual.com/storage/species_image/1908_clematis_crispa/small/50234734136_6bd0839f85_b.jpg","thumbnail":"https://perenual.com/storage/species_image/1908_clematis_crispa/thumbnail/50234734136_6bd0839f85_b.jpg"}},{"id":1909,"common_name":"clematis","scientific_name":["Clematis 'Diamond Ball'"],"other_name":null,"cycle":"Perennial","watering":"Average","sunlight":["Full sun","part shade"],"default_image":{"image_id":9,"license":5,"license_name":"Attribution-ShareAlike License","license_url":"https://creativecommons.org/licenses/by-sa/2.0/","original_url":"https://perenual.com/storage/species_image/2_abies_alba_pyramidalis/og/49255769768_df55596553_b.jpg","regular_url":"https://perenual.com/storage/species_image/2_abies_alba_pyramidalis/regular/49255769768_df55596553_b.jpg","medium_url":"https://perenual.com/storage/species_image/2_abies_alba_pyramidalis/medium/49255769768_df55596553_b.jpg","small_url":"https://perenual.com/storage/species_image/2_abies_alba_pyramidalis/small/49255769768_df55596553_b.jpg","thumbnail":"https://perenual.com/storage/species_image/2_abies_alba_pyramidalis/thumbnail/49255769768_df55596553_b.jpg"}},{"id":1910,"common_name":"clematis","scientific_name":["Clematis 'Duchess of Albany'"],"other_name":null,"cycle":"Perennial","watering":"Average","sunlight":["Full sun","part shade"],"default_image":null},{"id":1911,"common_name":"clematis","scientific_name":["Clematis durandii"],"other_name":null,"cycle":"Perennial","watering":"Average","sunlight":["Full sun","part shade"],"default_image":{"image_id":9,"license":5,"license_name":"Attribution-ShareAlike License","license_url":"https://creativecommons.org/licenses/by-sa/2.0/","original_url":"https://perenual.com/storage/species_image/2_abies_alba_pyramidalis/og/49255769768_df55596553_b.jpg","regular_url":"https://perenual.com/storage/species_image/2_abies_alba_pyramidalis/regular/49255769768_df55596553_b.jpg","medium_url":"https://perenual.com/storage/species_image/2_abies_alba_pyramidalis/medium/49255769768_df55596553_b.jpg","small_url":"https://perenual.com/storage/species_image/2_abies_alba_pyramidalis/small/49255769768_df55596553_b.jpg","thumbnail":"https://perenual.com/storage/species_image/2_abies_alba_pyramidalis/thumbnail/49255769768_df55596553_b.jpg"}},{"id":1912,"common_name":"clematis","scientific_name":["Clematis 'Edouard Desfossé'"],"other_name":null,"cycle":"Perennial","watering":"Average","sunlight":["Full sun","part shade"],"default_image":{"image_id":4622,"license":5,"license_name":"Attribution-ShareAlike License","license_url":"https://creativecommons.org/licenses/by-sa/2.0/","original_url":"https://perenual.com/storage/species_image/1934_clematis_jackmanii_superba/og/52462026639_fdb821eaf9_b.jpg","regular_url":"https://perenual.com/storage/species_image/1934_clematis_jackmanii_superba/regular/52462026639_fdb821eaf9_b.jpg","medium_url":"https://perenual.com/storage/species_image/1934_clematis_jackmanii_superba/medium/52462026639_fdb821eaf9_b.jpg","small_url":"https://perenual.com/storage/species_image/1934_clematis_jackmanii_superba/small/52462026639_fdb821eaf9_b.jpg","thumbnail":"https://perenual.com/storage/species_image/1934_clematis_jackmanii_superba/thumbnail/52462026639_fdb821eaf9_b.jpg"}},{"id":1913,"common_name":"clematis","scientific_name":["Clematis 'Etoile Violette'"],"other_name":null,"cycle":"Perennial","watering":"Average","sunlight":["Full sun","part shade"],"default_image":{"image_id":4625,"license":4,"license_name":"Attribution License","license_url":"https://creativecommons.org/licenses/by/2.0/","original_url":"https://perenual.com/storage/species_image/1913_clematis_etoile_violette/og/5451906692_663941b5f8_b.jpg","regular_url":"https://perenual.com/storage/species_image/1913_clematis_etoile_violette/regular/5451906692_663941b5f8_b.jpg","medium_url":"https://perenual.com/storage/species_image/1913_clematis_etoile_violette/medium/5451906692_663941b5f8_b.jpg","small_url":"https://perenual.com/storage/species_image/1913_clematis_etoile_violette/small/5451906692_663941b5f8_b.jpg","thumbnail":"https://perenual.com/storage/species_image/1913_clematis_etoile_violette/thumbnail/5451906692_663941b5f8_b.jpg"}},{"id":1914,"common_name":"clematis","scientific_name":["Clematis 'Evijohill' JOSEPHINE"],"other_name":null,"cycle":"Perennial","watering":"Average","sunlight":["Full sun","part shade"],"default_image":{"image_id":4628,"license":4,"license_name":"Attribution License","license_url":"https://creativecommons.org/licenses/by/2.0/","original_url":"https://perenual.com/storage/species_image/1914_clematis_evijohill_josephine/og/52276519676_8d7e860997_b.jpg","regular_url":"https://perenual.com/storage/species_image/1914_clematis_evijohill_josephine/regular/52276519676_8d7e860997_b.jpg","medium_url":"https://perenual.com/storage/species_image/1914_clematis_evijohill_josephine/medium/52276519676_8d7e860997_b.jpg","small_url":"https://perenual.com/storage/species_image/1914_clematis_evijohill_josephine/small/52276519676_8d7e860997_b.jpg","thumbnail":"https://perenual.com/storage/species_image/1914_clematis_evijohill_josephine/thumbnail/52276519676_8d7e860997_b.jpg"}},{"id":1915,"common_name":"clematis","scientific_name":["Clematis 'Evipo018' BOURBON"],"other_name":null,"cycle":"Perennial","watering":"Average","sunlight":["Full sun","part shade"],"default_image":null},{"id":1916,"common_name":"clematis","scientific_name":["Clematis 'Evipo030' BIJOU"],"other_name":null,"cycle":"Perennial","watering":"Average","sunlight":["Full sun","part shade"],"default_image":{"image_id":4631,"license":4,"license_name":"Attribution License","license_url":"https://creativecommons.org/licenses/by/2.0/","original_url":"https://perenual.com/storage/species_image/1916_clematis_evipo030_bijou/og/52509514239_dd20706a8d_b.jpg","regular_url":"https://perenual.com/storage/species_image/1916_clematis_evipo030_bijou/regular/52509514239_dd20706a8d_b.jpg","medium_url":"https://perenual.com/storage/species_image/1916_clematis_evipo030_bijou/medium/52509514239_dd20706a8d_b.jpg","small_url":"https://perenual.com/storage/species_image/1916_clematis_evipo030_bijou/small/52509514239_dd20706a8d_b.jpg","thumbnail":"https://perenual.com/storage/species_image/1916_clematis_evipo030_bijou/thumbnail/52509514239_dd20706a8d_b.jpg"}},{"id":1917,"common_name":"clematis","scientific_name":["Clematis 'Evipo032' GALORE"],"other_name":null,"cycle":"Perennial","watering":"Average","sunlight":["Full sun","part shade"],"default_image":null},{"id":1918,"common_name":"clematis","scientific_name":["Clematis 'Evipo038' CRYSTAL FOUNTAIN"],"other_name":null,"cycle":"Perennial","watering":"Average","sunlight":["Full sun","part shade"],"default_image":{"image_id":9,"license":5,"license_name":"Attribution-ShareAlike License","license_url":"https://creativecommons.org/licenses/by-sa/2.0/","original_url":"https://perenual.com/storage/species_image/2_abies_alba_pyramidalis/og/49255769768_df55596553_b.jpg","regular_url":"https://perenual.com/storage/species_image/2_abies_alba_pyramidalis/regular/49255769768_df55596553_b.jpg","medium_url":"https://perenual.com/storage/species_image/2_abies_alba_pyramidalis/medium/49255769768_df55596553_b.jpg","small_url":"https://perenual.com/storage/species_image/2_abies_alba_pyramidalis/small/49255769768_df55596553_b.jpg","thumbnail":"https://perenual.com/storage/species_image/2_abies_alba_pyramidalis/thumbnail/49255769768_df55596553_b.jpg"}},{"id":1919,"common_name":"clematis","scientific_name":["Clematis 'Fair Rosamond'"],"other_name":null,"cycle":"Perennial","watering":"Average","sunlight":["Full sun","part shade"],"default_image":{"image_id":9,"license":5,"license_name":"Attribution-ShareAlike License","license_url":"https://creativecommons.org/licenses/by-sa/2.0/","original_url":"https://perenual.com/storage/species_image/2_abies_alba_pyramidalis/og/49255769768_df55596553_b.jpg","regular_url":"https://perenual.com/storage/species_image/2_abies_alba_pyramidalis/regular/49255769768_df55596553_b.jpg","medium_url":"https://perenual.com/storage/species_image/2_abies_alba_pyramidalis/medium/49255769768_df55596553_b.jpg","small_url":"https://perenual.com/storage/species_image/2_abies_alba_pyramidalis/small/49255769768_df55596553_b.jpg","thumbnail":"https://perenual.com/storage/species_image/2_abies_alba_pyramidalis/thumbnail/49255769768_df55596553_b.jpg"}},{"id":1920,"common_name":"clematis","scientific_name":["Clematis 'Fireworks'"],"other_name":null,"cycle":"Perennial","watering":"Average","sunlight":["Full sun","part shade"],"default_image":{"image_id":9,"license":5,"license_name":"Attribution-ShareAlike License","license_url":"https://creativecommons.org/licenses/by-sa/2.0/","original_url":"https://perenual.com/storage/species_image/2_abies_alba_pyramidalis/og/49255769768_df55596553_b.jpg","regular_url":"https://perenual.com/storage/species_image/2_abies_alba_pyramidalis/regular/49255769768_df55596553_b.jpg","medium_url":"https://perenual.com/storage/species_image/2_abies_alba_pyramidalis/medium/49255769768_df55596553_b.jpg","small_url":"https://perenual.com/storage/species_image/2_abies_alba_pyramidalis/small/49255769768_df55596553_b.jpg","thumbnail":"https://perenual.com/storage/species_image/2_abies_alba_pyramidalis/thumbnail/49255769768_df55596553_b.jpg"}}],"to":1920,"per_page":30,"current_page":64,"from":1891,"last_page":200,"total":6000}