{"data":[{"id":3241,"common_name":"globe amaranth","scientific_name":["Gomphrena globosa 'Buddy Rose'"],"other_name":null,"cycle":"Perennial","watering":"Average","sunlight":["Full sun"],"default_image":{"image_id":6916,"license":4,"license_name":"Attribution License","license_url":"https://creativecommons.org/licenses/by/2.0/","original_url":"https://perenual.com/storage/species_image/3240_gomphrena_globosa_buddy_purple/og/52329025824_596b13db78_b.jpg","regular_url":"https://perenual.com/storage/species_image/3240_gomphrena_globosa_buddy_purple/regular/52329025824_596b13db78_b.jpg","medium_url":"https://perenual.com/storage/species_image/3240_gomphrena_globosa_buddy_purple/medium/52329025824_596b13db78_b.jpg","small_url":"https://perenual.com/storage/species_image/3240_gomphrena_globosa_buddy_purple/small/52329025824_596b13db78_b.jpg","thumbnail":"https://perenual.com/storage/species_image/3240_gomphrena_globosa_buddy_purple/thumbnail/52329025824_596b13db78_b.jpg"}},{"id":3242,"common_name":"globe amaranth","scientific_name":["Gomphrena globosa 'Buddy White'"],"other_name":null,"cycle":"Perennial","watering":"Average","sunlight":["Full sun"],"default_image":null},{"id":3243,"common_name":"button flower","scientific_name":["Gomphrena haageana"],"other_name":null,"cycle":"Perennial","watering":"Average","sunlight":["Full sun"],"default_image":{"image_id":6918,"license":5,"license_name":"Attribution-ShareAlike License","license_url":"https://creativecommons.org/licenses/by-sa/2.0/","original_url":"https://perenual.com/storage/species_image/3243_gomphrena_haageana/og/51456811958_08af2e9d65_b.jpg","regular_url":"https://perenual.com/storage/species_image/3243_gomphrena_haageana/regular/51456811958_08af2e9d65_b.jpg","medium_url":"https://perenual.com/storage/species_image/3243_gomphrena_haageana/medium/51456811958_08af2e9d65_b.jpg","small_url":"https://perenual.com/storage/species_image/3243_gomphrena_haageana/small/51456811958_08af2e9d65_b.jpg","thumbnail":"https://perenual.com/storage/species_image/3243_gomphrena_haageana/thumbnail/51456811958_08af2e9d65_b.jpg"}},{"id":3244,"common_name":"goniolimon","scientific_name":["Goniolimon incanum"],"other_name":null,"cycle":"Perennial","watering":"Minimum","sunlight":["Full sun"],"default_image":{"image_id":9,"license":5,"license_name":"Attribution-ShareAlike License","license_url":"https://creativecommons.org/licenses/by-sa/2.0/","original_url":"https://perenual.com/storage/species_image/2_abies_alba_pyramidalis/og/49255769768_df55596553_b.jpg","regular_url":"https://perenual.com/storage/species_image/2_abies_alba_pyramidalis/regular/49255769768_df55596553_b.jpg","medium_url":"https://perenual.com/storage/species_image/2_abies_alba_pyramidalis/medium/49255769768_df55596553_b.jpg","small_url":"https://perenual.com/storage/species_image/2_abies_alba_pyramidalis/small/49255769768_df55596553_b.jpg","thumbnail":"https://perenual.com/storage/species_image/2_abies_alba_pyramidalis/thumbnail/49255769768_df55596553_b.jpg"}},{"id":3245,"common_name":"sea lavender","scientific_name":["Goniolimon incanum 'Blue Diamond'"],"other_name":null,"cycle":"Perennial","watering":"Minimum","sunlight":["Full sun"],"default_image":{"image_id":6922,"license":4,"license_name":"Attribution License","license_url":"https://creativecommons.org/licenses/by/2.0/","original_url":"https://perenual.com/storage/species_image/4718_lavandula_intermedia_niko_phenomenal/og/52606967175_972ab49331_b.jpg","regular_url":"https://perenual.com/storage/species_image/4718_lavandula_intermedia_niko_phenomenal/regular/52606967175_972ab49331_b.jpg","medium_url":"https://perenual.com/storage/species_image/4718_lavandula_intermedia_niko_phenomenal/medium/52606967175_972ab49331_b.jpg","small_url":"https://perenual.com/storage/species_image/4718_lavandula_intermedia_niko_phenomenal/small/52606967175_972ab49331_b.jpg","thumbnail":"https://perenual.com/storage/species_image/4718_lavandula_intermedia_niko_phenomenal/thumbnail/52606967175_972ab49331_b.jpg"}},{"id":3246,"common_name":"statice","scientific_name":["Goniolimon tataricum"],"other_name":null,"cycle":"Perennial","watering":"Minimum","sunlight":["Full sun"],"default_image":{"image_id":6922,"license":4,"license_name":"Attribution License","license_url":"https://creativecommons.org/licenses/by/2.0/","original_url":"https://perenual.com/storage/species_image/4718_lavandula_intermedia_niko_phenomenal/og/52606967175_972ab49331_b.jpg","regular_url":"https://perenual.com/storage/species_image/4718_lavandula_intermedia_niko_phenomenal/regular/52606967175_972ab49331_b.jpg","medium_url":"https://perenual.com/storage/species_image/4718_lavandula_intermedia_niko_phenomenal/medium/52606967175_972ab49331_b.jpg","small_url":"https://perenual.com/storage/species_image/4718_lavandula_intermedia_niko_phenomenal/small/52606967175_972ab49331_b.jpg","thumbnail":"https://perenual.com/storage/species_image/4718_lavandula_intermedia_niko_phenomenal/thumbnail/52606967175_972ab49331_b.jpg"}},{"id":3247,"common_name":"rattlesnake plantain","scientific_name":["Goodyera pubescens"],"other_name":null,"cycle":"Perennial","watering":"Average","sunlight":["Part shade","full shade"],"default_image":{"image_id":6924,"license":5,"license_name":"Attribution-ShareAlike License","license_url":"https://creativecommons.org/licenses/by-sa/2.0/","original_url":"https://perenual.com/storage/species_image/3247_goodyera_pubescens/og/52339169708_c4bb669c25_b.jpg","regular_url":"https://perenual.com/storage/species_image/3247_goodyera_pubescens/regular/52339169708_c4bb669c25_b.jpg","medium_url":"https://perenual.com/storage/species_image/3247_goodyera_pubescens/medium/52339169708_c4bb669c25_b.jpg","small_url":"https://perenual.com/storage/species_image/3247_goodyera_pubescens/small/52339169708_c4bb669c25_b.jpg","thumbnail":"https://perenual.com/storage/species_image/3247_goodyera_pubescens/thumbnail/52339169708_c4bb669c25_b.jpg"}},{"id":3248,"common_name":"levant cotton","scientific_name":["Gossypium herbaceum"],"other_name":null,"cycle":"Perennial","watering":"Average","sunlight":["Full sun"],"default_image":{"image_id":6927,"license":5,"license_name":"Attribution-ShareAlike License","license_url":"https://creativecommons.org/licenses/by-sa/2.0/","original_url":"https://perenual.com/storage/species_image/3248_gossypium_herbaceum/og/52323771651_929fd5c060_b.jpg","regular_url":"https://perenual.com/storage/species_image/3248_gossypium_herbaceum/regular/52323771651_929fd5c060_b.jpg","medium_url":"https://perenual.com/storage/species_image/3248_gossypium_herbaceum/medium/52323771651_929fd5c060_b.jpg","small_url":"https://perenual.com/storage/species_image/3248_gossypium_herbaceum/small/52323771651_929fd5c060_b.jpg","thumbnail":"https://perenual.com/storage/species_image/3248_gossypium_herbaceum/thumbnail/52323771651_929fd5c060_b.jpg"}},{"id":3249,"common_name":"Hawaiian cotton","scientific_name":["Gossypium tomentosum"],"other_name":null,"cycle":"Perennial","watering":"Average","sunlight":["Full sun"],"default_image":{"image_id":6932,"license":4,"license_name":"Attribution License","license_url":"https://creativecommons.org/licenses/by/2.0/","original_url":"https://perenual.com/storage/species_image/3249_gossypium_tomentosum/og/50338177552_d1b004d885_b.jpg","regular_url":"https://perenual.com/storage/species_image/3249_gossypium_tomentosum/regular/50338177552_d1b004d885_b.jpg","medium_url":"https://perenual.com/storage/species_image/3249_gossypium_tomentosum/medium/50338177552_d1b004d885_b.jpg","small_url":"https://perenual.com/storage/species_image/3249_gossypium_tomentosum/small/50338177552_d1b004d885_b.jpg","thumbnail":"https://perenual.com/storage/species_image/3249_gossypium_tomentosum/thumbnail/50338177552_d1b004d885_b.jpg"}},{"id":3250,"common_name":"caricature plant","scientific_name":["Graptophyllum pictum"],"other_name":null,"cycle":"Perennial","watering":"Average","sunlight":["Full sun","part shade"],"default_image":{"image_id":9,"license":5,"license_name":"Attribution-ShareAlike License","license_url":"https://creativecommons.org/licenses/by-sa/2.0/","original_url":"https://perenual.com/storage/species_image/2_abies_alba_pyramidalis/og/49255769768_df55596553_b.jpg","regular_url":"https://perenual.com/storage/species_image/2_abies_alba_pyramidalis/regular/49255769768_df55596553_b.jpg","medium_url":"https://perenual.com/storage/species_image/2_abies_alba_pyramidalis/medium/49255769768_df55596553_b.jpg","small_url":"https://perenual.com/storage/species_image/2_abies_alba_pyramidalis/small/49255769768_df55596553_b.jpg","thumbnail":"https://perenual.com/storage/species_image/2_abies_alba_pyramidalis/thumbnail/49255769768_df55596553_b.jpg"}},{"id":3251,"common_name":"gum plant","scientific_name":["Grindelia lanceolata"],"other_name":null,"cycle":"Perennial","watering":"Minimum","sunlight":["Full sun"],"default_image":{"image_id":9,"license":5,"license_name":"Attribution-ShareAlike License","license_url":"https://creativecommons.org/licenses/by-sa/2.0/","original_url":"https://perenual.com/storage/species_image/2_abies_alba_pyramidalis/og/49255769768_df55596553_b.jpg","regular_url":"https://perenual.com/storage/species_image/2_abies_alba_pyramidalis/regular/49255769768_df55596553_b.jpg","medium_url":"https://perenual.com/storage/species_image/2_abies_alba_pyramidalis/medium/49255769768_df55596553_b.jpg","small_url":"https://perenual.com/storage/species_image/2_abies_alba_pyramidalis/small/49255769768_df55596553_b.jpg","thumbnail":"https://perenual.com/storage/species_image/2_abies_alba_pyramidalis/thumbnail/49255769768_df55596553_b.jpg"}},{"id":3252,"common_name":"lignum vitae","scientific_name":["Guaiacum sanctum"],"other_name":null,"cycle":"Perennial","watering":"Average","sunlight":["Full sun","part shade"],"default_image":{"image_id":6939,"license":5,"license_name":"Attribution-ShareAlike License","license_url":"https://creativecommons.org/licenses/by-sa/2.0/","original_url":"https://perenual.com/storage/species_image/3252_guaiacum_sanctum/og/33224910338_0222cd8645_b.jpg","regular_url":"https://perenual.com/storage/species_image/3252_guaiacum_sanctum/regular/33224910338_0222cd8645_b.jpg","medium_url":"https://perenual.com/storage/species_image/3252_guaiacum_sanctum/medium/33224910338_0222cd8645_b.jpg","small_url":"https://perenual.com/storage/species_image/3252_guaiacum_sanctum/small/33224910338_0222cd8645_b.jpg","thumbnail":"https://perenual.com/storage/species_image/3252_guaiacum_sanctum/thumbnail/33224910338_0222cd8645_b.jpg"}},{"id":3253,"common_name":"West Indian elm","scientific_name":["Guazuma ulmifolia"],"other_name":null,"cycle":"Perennial","watering":"Average","sunlight":["Full sun"],"default_image":{"image_id":6945,"license":4,"license_name":"Attribution License","license_url":"https://creativecommons.org/licenses/by/2.0/","original_url":"https://perenual.com/storage/species_image/3253_guazuma_ulmifolia/og/25042641476_95ed0932ee_b.jpg","regular_url":"https://perenual.com/storage/species_image/3253_guazuma_ulmifolia/regular/25042641476_95ed0932ee_b.jpg","medium_url":"https://perenual.com/storage/species_image/3253_guazuma_ulmifolia/medium/25042641476_95ed0932ee_b.jpg","small_url":"https://perenual.com/storage/species_image/3253_guazuma_ulmifolia/small/25042641476_95ed0932ee_b.jpg","thumbnail":"https://perenual.com/storage/species_image/3253_guazuma_ulmifolia/thumbnail/25042641476_95ed0932ee_b.jpg"}},{"id":3254,"common_name":"giant rhubarb","scientific_name":["Gunnera manicata"],"other_name":["giant rhubarb"],"cycle":"Perennial","watering":"Frequent","sunlight":["Full sun"," Part sun/part shade"],"default_image":{"image_id":6948,"license":4,"license_name":"Attribution License","license_url":"https://creativecommons.org/licenses/by/2.0/","original_url":"https://perenual.com/storage/species_image/3254_gunnera_manicata/og/51805024197_567a69fb56_b.jpg","regular_url":"https://perenual.com/storage/species_image/3254_gunnera_manicata/regular/51805024197_567a69fb56_b.jpg","medium_url":"https://perenual.com/storage/species_image/3254_gunnera_manicata/medium/51805024197_567a69fb56_b.jpg","small_url":"https://perenual.com/storage/species_image/3254_gunnera_manicata/small/51805024197_567a69fb56_b.jpg","thumbnail":"https://perenual.com/storage/species_image/3254_gunnera_manicata/thumbnail/51805024197_567a69fb56_b.jpg"}},{"id":3255,"common_name":"gunnera","scientific_name":["Gunnera tinctoria"],"other_name":null,"cycle":"Perennial","watering":"Frequent","sunlight":["Part shade"],"default_image":{"image_id":9,"license":5,"license_name":"Attribution-ShareAlike License","license_url":"https://creativecommons.org/licenses/by-sa/2.0/","original_url":"https://perenual.com/storage/species_image/2_abies_alba_pyramidalis/og/49255769768_df55596553_b.jpg","regular_url":"https://perenual.com/storage/species_image/2_abies_alba_pyramidalis/regular/49255769768_df55596553_b.jpg","medium_url":"https://perenual.com/storage/species_image/2_abies_alba_pyramidalis/medium/49255769768_df55596553_b.jpg","small_url":"https://perenual.com/storage/species_image/2_abies_alba_pyramidalis/small/49255769768_df55596553_b.jpg","thumbnail":"https://perenual.com/storage/species_image/2_abies_alba_pyramidalis/thumbnail/49255769768_df55596553_b.jpg"}},{"id":3256,"common_name":"scarlet star","scientific_name":["Guzmania lingulata"],"other_name":["vase plant"],"cycle":"Perennial","watering":"Minimum","sunlight":["Part shade","full shade"],"default_image":{"image_id":9,"license":5,"license_name":"Attribution-ShareAlike License","license_url":"https://creativecommons.org/licenses/by-sa/2.0/","original_url":"https://perenual.com/storage/species_image/2_abies_alba_pyramidalis/og/49255769768_df55596553_b.jpg","regular_url":"https://perenual.com/storage/species_image/2_abies_alba_pyramidalis/regular/49255769768_df55596553_b.jpg","medium_url":"https://perenual.com/storage/species_image/2_abies_alba_pyramidalis/medium/49255769768_df55596553_b.jpg","small_url":"https://perenual.com/storage/species_image/2_abies_alba_pyramidalis/small/49255769768_df55596553_b.jpg","thumbnail":"https://perenual.com/storage/species_image/2_abies_alba_pyramidalis/thumbnail/49255769768_df55596553_b.jpg"}},{"id":3257,"common_name":"gymnaster","scientific_name":["Gymnaster savatieri"],"other_name":null,"cycle":"Perennial","watering":"Average","sunlight":["Full sun","part shade"],"default_image":{"image_id":6956,"license":5,"license_name":"Attribution-ShareAlike License","license_url":"https://creativecommons.org/licenses/by-sa/2.0/","original_url":"https://perenual.com/storage/species_image/3257_gymnaster_savatieri/og/17124253219_4abc6ec880_b.jpg","regular_url":"https://perenual.com/storage/species_image/3257_gymnaster_savatieri/regular/17124253219_4abc6ec880_b.jpg","medium_url":"https://perenual.com/storage/species_image/3257_gymnaster_savatieri/medium/17124253219_4abc6ec880_b.jpg","small_url":"https://perenual.com/storage/species_image/3257_gymnaster_savatieri/small/17124253219_4abc6ec880_b.jpg","thumbnail":"https://perenual.com/storage/species_image/3257_gymnaster_savatieri/thumbnail/17124253219_4abc6ec880_b.jpg"}},{"id":3258,"common_name":"Kentucky coffee tree","scientific_name":["Gymnocladus dioicus"],"other_name":null,"cycle":"Perennial","watering":"Average","sunlight":["Full sun"],"default_image":null},{"id":3259,"common_name":"velvet plant","scientific_name":["Gynura aurantiaca"],"other_name":null,"cycle":"Perennial","watering":"Average","sunlight":[],"default_image":{"image_id":9,"license":5,"license_name":"Attribution-ShareAlike License","license_url":"https://creativecommons.org/licenses/by-sa/2.0/","original_url":"https://perenual.com/storage/species_image/2_abies_alba_pyramidalis/og/49255769768_df55596553_b.jpg","regular_url":"https://perenual.com/storage/species_image/2_abies_alba_pyramidalis/regular/49255769768_df55596553_b.jpg","medium_url":"https://perenual.com/storage/species_image/2_abies_alba_pyramidalis/medium/49255769768_df55596553_b.jpg","small_url":"https://perenual.com/storage/species_image/2_abies_alba_pyramidalis/small/49255769768_df55596553_b.jpg","thumbnail":"https://perenual.com/storage/species_image/2_abies_alba_pyramidalis/thumbnail/49255769768_df55596553_b.jpg"}},{"id":3260,"common_name":"baby's breath","scientific_name":["Gypsophila paniculata 'Bristol Fairy'"],"other_name":null,"cycle":"Perennial","watering":"Minimum","sunlight":["Full sun"],"default_image":{"image_id":6964,"license":5,"license_name":"Attribution-ShareAlike License","license_url":"https://creativecommons.org/licenses/by-sa/2.0/","original_url":"https://perenual.com/storage/species_image/3260_gypsophila_paniculata_bristol_fairy/og/52214143167_6f6838fb59_b.jpg","regular_url":"https://perenual.com/storage/species_image/3260_gypsophila_paniculata_bristol_fairy/regular/52214143167_6f6838fb59_b.jpg","medium_url":"https://perenual.com/storage/species_image/3260_gypsophila_paniculata_bristol_fairy/medium/52214143167_6f6838fb59_b.jpg","small_url":"https://perenual.com/storage/species_image/3260_gypsophila_paniculata_bristol_fairy/small/52214143167_6f6838fb59_b.jpg","thumbnail":"https://perenual.com/storage/species_image/3260_gypsophila_paniculata_bristol_fairy/thumbnail/52214143167_6f6838fb59_b.jpg"}},{"id":3261,"common_name":"baby's breath","scientific_name":["Gypsophila paniculata 'Danfestar' FESTIVAL STAR"],"other_name":null,"cycle":"Perennial","watering":"Minimum","sunlight":["Full sun"],"default_image":{"image_id":6964,"license":5,"license_name":"Attribution-ShareAlike License","license_url":"https://creativecommons.org/licenses/by-sa/2.0/","original_url":"https://perenual.com/storage/species_image/3260_gypsophila_paniculata_bristol_fairy/og/52214143167_6f6838fb59_b.jpg","regular_url":"https://perenual.com/storage/species_image/3260_gypsophila_paniculata_bristol_fairy/regular/52214143167_6f6838fb59_b.jpg","medium_url":"https://perenual.com/storage/species_image/3260_gypsophila_paniculata_bristol_fairy/medium/52214143167_6f6838fb59_b.jpg","small_url":"https://perenual.com/storage/species_image/3260_gypsophila_paniculata_bristol_fairy/small/52214143167_6f6838fb59_b.jpg","thumbnail":"https://perenual.com/storage/species_image/3260_gypsophila_paniculata_bristol_fairy/thumbnail/52214143167_6f6838fb59_b.jpg"}},{"id":3262,"common_name":"baby's breath","scientific_name":["Gypsophila paniculata 'Perfekta'"],"other_name":null,"cycle":"Perennial","watering":"Minimum","sunlight":["Full sun"],"default_image":{"image_id":6965,"license":5,"license_name":"Attribution-ShareAlike License","license_url":"https://creativecommons.org/licenses/by-sa/2.0/","original_url":"https://perenual.com/storage/species_image/3262_gypsophila_paniculata_perfekta/og/52254267387_81cb5b4d12_b.jpg","regular_url":"https://perenual.com/storage/species_image/3262_gypsophila_paniculata_perfekta/regular/52254267387_81cb5b4d12_b.jpg","medium_url":"https://perenual.com/storage/species_image/3262_gypsophila_paniculata_perfekta/medium/52254267387_81cb5b4d12_b.jpg","small_url":"https://perenual.com/storage/species_image/3262_gypsophila_paniculata_perfekta/small/52254267387_81cb5b4d12_b.jpg","thumbnail":"https://perenual.com/storage/species_image/3262_gypsophila_paniculata_perfekta/thumbnail/52254267387_81cb5b4d12_b.jpg"}},{"id":3263,"common_name":"baby's breath","scientific_name":["Gypsophila paniculata 'Viette's Dwarf'"],"other_name":null,"cycle":"Perennial","watering":"Minimum","sunlight":["Full sun"],"default_image":{"image_id":6966,"license":4,"license_name":"Attribution License","license_url":"https://creativecommons.org/licenses/by/2.0/","original_url":"https://perenual.com/storage/species_image/3263_gypsophila_paniculata_viettes_dwarf/og/52100065651_5f4923538f_b.jpg","regular_url":"https://perenual.com/storage/species_image/3263_gypsophila_paniculata_viettes_dwarf/regular/52100065651_5f4923538f_b.jpg","medium_url":"https://perenual.com/storage/species_image/3263_gypsophila_paniculata_viettes_dwarf/medium/52100065651_5f4923538f_b.jpg","small_url":"https://perenual.com/storage/species_image/3263_gypsophila_paniculata_viettes_dwarf/small/52100065651_5f4923538f_b.jpg","thumbnail":"https://perenual.com/storage/species_image/3263_gypsophila_paniculata_viettes_dwarf/thumbnail/52100065651_5f4923538f_b.jpg"}},{"id":3264,"common_name":"hacquetia","scientific_name":["Hacquetia epipactis"],"other_name":null,"cycle":"Perennial","watering":"Average","sunlight":["Part shade","full shade"],"default_image":{"image_id":9,"license":5,"license_name":"Attribution-ShareAlike License","license_url":"https://creativecommons.org/licenses/by-sa/2.0/","original_url":"https://perenual.com/storage/species_image/2_abies_alba_pyramidalis/og/49255769768_df55596553_b.jpg","regular_url":"https://perenual.com/storage/species_image/2_abies_alba_pyramidalis/regular/49255769768_df55596553_b.jpg","medium_url":"https://perenual.com/storage/species_image/2_abies_alba_pyramidalis/medium/49255769768_df55596553_b.jpg","small_url":"https://perenual.com/storage/species_image/2_abies_alba_pyramidalis/small/49255769768_df55596553_b.jpg","thumbnail":"https://perenual.com/storage/species_image/2_abies_alba_pyramidalis/thumbnail/49255769768_df55596553_b.jpg"}},{"id":3265,"common_name":"Japanese forest grass","scientific_name":["Hakonechloa macra 'All Gold'"],"other_name":null,"cycle":"Perennial","watering":"Average","sunlight":["Part shade"],"default_image":{"image_id":6974,"license":4,"license_name":"Attribution License","license_url":"https://creativecommons.org/licenses/by/2.0/","original_url":"https://perenual.com/storage/species_image/3265_hakonechloa_macra_all_gold/og/13857226835_9dc131caa1_b.jpg","regular_url":"https://perenual.com/storage/species_image/3265_hakonechloa_macra_all_gold/regular/13857226835_9dc131caa1_b.jpg","medium_url":"https://perenual.com/storage/species_image/3265_hakonechloa_macra_all_gold/medium/13857226835_9dc131caa1_b.jpg","small_url":"https://perenual.com/storage/species_image/3265_hakonechloa_macra_all_gold/small/13857226835_9dc131caa1_b.jpg","thumbnail":"https://perenual.com/storage/species_image/3265_hakonechloa_macra_all_gold/thumbnail/13857226835_9dc131caa1_b.jpg"}},{"id":3266,"common_name":"Japanese forest grass","scientific_name":["Hakonechloa macra 'Fubuki'"],"other_name":null,"cycle":"Perennial","watering":"Average","sunlight":["Part shade"],"default_image":{"image_id":6976,"license":4,"license_name":"Attribution License","license_url":"https://creativecommons.org/licenses/by/2.0/","original_url":"https://perenual.com/storage/species_image/3266_hakonechloa_macra_fubuki/og/21991479569_a1288d3c1a_b.jpg","regular_url":"https://perenual.com/storage/species_image/3266_hakonechloa_macra_fubuki/regular/21991479569_a1288d3c1a_b.jpg","medium_url":"https://perenual.com/storage/species_image/3266_hakonechloa_macra_fubuki/medium/21991479569_a1288d3c1a_b.jpg","small_url":"https://perenual.com/storage/species_image/3266_hakonechloa_macra_fubuki/small/21991479569_a1288d3c1a_b.jpg","thumbnail":"https://perenual.com/storage/species_image/3266_hakonechloa_macra_fubuki/thumbnail/21991479569_a1288d3c1a_b.jpg"}},{"id":3267,"common_name":"Japanese forest grass","scientific_name":["Hakonechloa macra 'HABsf1007' SUNFLARE"],"other_name":null,"cycle":"Perennial","watering":"Average","sunlight":["Part shade"],"default_image":{"image_id":6977,"license":4,"license_name":"Attribution License","license_url":"https://creativecommons.org/licenses/by/2.0/","original_url":"https://perenual.com/storage/species_image/3269_hakonechloa_macra_stripe_it_rich/og/51187854823_26d19e8f54_b.jpg","regular_url":"https://perenual.com/storage/species_image/3269_hakonechloa_macra_stripe_it_rich/regular/51187854823_26d19e8f54_b.jpg","medium_url":"https://perenual.com/storage/species_image/3269_hakonechloa_macra_stripe_it_rich/medium/51187854823_26d19e8f54_b.jpg","small_url":"https://perenual.com/storage/species_image/3269_hakonechloa_macra_stripe_it_rich/small/51187854823_26d19e8f54_b.jpg","thumbnail":"https://perenual.com/storage/species_image/3269_hakonechloa_macra_stripe_it_rich/thumbnail/51187854823_26d19e8f54_b.jpg"}},{"id":3268,"common_name":"Japanese forest grass","scientific_name":["Hakonechloa macra 'Nicolas'"],"other_name":null,"cycle":"Perennial","watering":"Average","sunlight":["Part shade"],"default_image":{"image_id":6977,"license":4,"license_name":"Attribution License","license_url":"https://creativecommons.org/licenses/by/2.0/","original_url":"https://perenual.com/storage/species_image/3269_hakonechloa_macra_stripe_it_rich/og/51187854823_26d19e8f54_b.jpg","regular_url":"https://perenual.com/storage/species_image/3269_hakonechloa_macra_stripe_it_rich/regular/51187854823_26d19e8f54_b.jpg","medium_url":"https://perenual.com/storage/species_image/3269_hakonechloa_macra_stripe_it_rich/medium/51187854823_26d19e8f54_b.jpg","small_url":"https://perenual.com/storage/species_image/3269_hakonechloa_macra_stripe_it_rich/small/51187854823_26d19e8f54_b.jpg","thumbnail":"https://perenual.com/storage/species_image/3269_hakonechloa_macra_stripe_it_rich/thumbnail/51187854823_26d19e8f54_b.jpg"}},{"id":3269,"common_name":"Japanese forest grass","scientific_name":["Hakonechloa macra 'Stripe It Rich'"],"other_name":null,"cycle":"Perennial","watering":"Average","sunlight":["Part shade"],"default_image":{"image_id":6977,"license":4,"license_name":"Attribution License","license_url":"https://creativecommons.org/licenses/by/2.0/","original_url":"https://perenual.com/storage/species_image/3269_hakonechloa_macra_stripe_it_rich/og/51187854823_26d19e8f54_b.jpg","regular_url":"https://perenual.com/storage/species_image/3269_hakonechloa_macra_stripe_it_rich/regular/51187854823_26d19e8f54_b.jpg","medium_url":"https://perenual.com/storage/species_image/3269_hakonechloa_macra_stripe_it_rich/medium/51187854823_26d19e8f54_b.jpg","small_url":"https://perenual.com/storage/species_image/3269_hakonechloa_macra_stripe_it_rich/small/51187854823_26d19e8f54_b.jpg","thumbnail":"https://perenual.com/storage/species_image/3269_hakonechloa_macra_stripe_it_rich/thumbnail/51187854823_26d19e8f54_b.jpg"}},{"id":3270,"common_name":"witch hazel","scientific_name":["Hamamelis 'Amethyst'"],"other_name":null,"cycle":"Perennial","watering":"Average","sunlight":["Full sun","part shade"],"default_image":{"image_id":9,"license":5,"license_name":"Attribution-ShareAlike License","license_url":"https://creativecommons.org/licenses/by-sa/2.0/","original_url":"https://perenual.com/storage/species_image/2_abies_alba_pyramidalis/og/49255769768_df55596553_b.jpg","regular_url":"https://perenual.com/storage/species_image/2_abies_alba_pyramidalis/regular/49255769768_df55596553_b.jpg","medium_url":"https://perenual.com/storage/species_image/2_abies_alba_pyramidalis/medium/49255769768_df55596553_b.jpg","small_url":"https://perenual.com/storage/species_image/2_abies_alba_pyramidalis/small/49255769768_df55596553_b.jpg","thumbnail":"https://perenual.com/storage/species_image/2_abies_alba_pyramidalis/thumbnail/49255769768_df55596553_b.jpg"}}],"to":3270,"per_page":30,"current_page":109,"from":3241,"last_page":200,"total":6000}