{"data":[{"id":5071,"common_name":"magnolia","scientific_name":["Magnolia 'George Henry Kern'"],"other_name":null,"cycle":"Perennial","watering":"Average","sunlight":["Full sun","part shade"],"default_image":{"image_id":10860,"license":5,"license_name":"Attribution-ShareAlike License","license_url":"https://creativecommons.org/licenses/by-sa/2.0/","original_url":"https://perenual.com/storage/species_image/5071_magnolia_george_henry_kern/og/17075869640_d591ca1d17_b.jpg","regular_url":"https://perenual.com/storage/species_image/5071_magnolia_george_henry_kern/regular/17075869640_d591ca1d17_b.jpg","medium_url":"https://perenual.com/storage/species_image/5071_magnolia_george_henry_kern/medium/17075869640_d591ca1d17_b.jpg","small_url":"https://perenual.com/storage/species_image/5071_magnolia_george_henry_kern/small/17075869640_d591ca1d17_b.jpg","thumbnail":"https://perenual.com/storage/species_image/5071_magnolia_george_henry_kern/thumbnail/17075869640_d591ca1d17_b.jpg"}},{"id":5072,"common_name":"large-flowered magnolia","scientific_name":["Magnolia grandiflora 'Edith Bogue'"],"other_name":null,"cycle":"Perennial","watering":"Average","sunlight":["Full sun","part shade"],"default_image":{"image_id":9,"license":5,"license_name":"Attribution-ShareAlike License","license_url":"https://creativecommons.org/licenses/by-sa/2.0/","original_url":"https://perenual.com/storage/species_image/2_abies_alba_pyramidalis/og/49255769768_df55596553_b.jpg","regular_url":"https://perenual.com/storage/species_image/2_abies_alba_pyramidalis/regular/49255769768_df55596553_b.jpg","medium_url":"https://perenual.com/storage/species_image/2_abies_alba_pyramidalis/medium/49255769768_df55596553_b.jpg","small_url":"https://perenual.com/storage/species_image/2_abies_alba_pyramidalis/small/49255769768_df55596553_b.jpg","thumbnail":"https://perenual.com/storage/species_image/2_abies_alba_pyramidalis/thumbnail/49255769768_df55596553_b.jpg"}},{"id":5073,"common_name":"magnolia","scientific_name":["Magnolia 'Jane'"],"other_name":null,"cycle":"Perennial","watering":"Average","sunlight":["Full sun","part shade"],"default_image":{"image_id":10832,"license":5,"license_name":"Attribution-ShareAlike License","license_url":"https://creativecommons.org/licenses/by-sa/2.0/","original_url":"https://perenual.com/storage/species_image/5073_magnolia_jane/og/52067269579_2d64928054_b.jpg","regular_url":"https://perenual.com/storage/species_image/5073_magnolia_jane/regular/52067269579_2d64928054_b.jpg","medium_url":"https://perenual.com/storage/species_image/5073_magnolia_jane/medium/52067269579_2d64928054_b.jpg","small_url":"https://perenual.com/storage/species_image/5073_magnolia_jane/small/52067269579_2d64928054_b.jpg","thumbnail":"https://perenual.com/storage/species_image/5073_magnolia_jane/thumbnail/52067269579_2d64928054_b.jpg"}},{"id":5074,"common_name":"magnolia","scientific_name":["Magnolia 'Judy Zuk'"],"other_name":null,"cycle":"Perennial","watering":"Average","sunlight":["Full sun","part shade"],"default_image":{"image_id":9,"license":5,"license_name":"Attribution-ShareAlike License","license_url":"https://creativecommons.org/licenses/by-sa/2.0/","original_url":"https://perenual.com/storage/species_image/2_abies_alba_pyramidalis/og/49255769768_df55596553_b.jpg","regular_url":"https://perenual.com/storage/species_image/2_abies_alba_pyramidalis/regular/49255769768_df55596553_b.jpg","medium_url":"https://perenual.com/storage/species_image/2_abies_alba_pyramidalis/medium/49255769768_df55596553_b.jpg","small_url":"https://perenual.com/storage/species_image/2_abies_alba_pyramidalis/small/49255769768_df55596553_b.jpg","thumbnail":"https://perenual.com/storage/species_image/2_abies_alba_pyramidalis/thumbnail/49255769768_df55596553_b.jpg"}},{"id":5075,"common_name":"magnolia","scientific_name":["Magnolia laevifolia"],"other_name":null,"cycle":"Perennial","watering":"Average","sunlight":["Full sun","part shade"],"default_image":{"image_id":9,"license":5,"license_name":"Attribution-ShareAlike License","license_url":"https://creativecommons.org/licenses/by-sa/2.0/","original_url":"https://perenual.com/storage/species_image/2_abies_alba_pyramidalis/og/49255769768_df55596553_b.jpg","regular_url":"https://perenual.com/storage/species_image/2_abies_alba_pyramidalis/regular/49255769768_df55596553_b.jpg","medium_url":"https://perenual.com/storage/species_image/2_abies_alba_pyramidalis/medium/49255769768_df55596553_b.jpg","small_url":"https://perenual.com/storage/species_image/2_abies_alba_pyramidalis/small/49255769768_df55596553_b.jpg","thumbnail":"https://perenual.com/storage/species_image/2_abies_alba_pyramidalis/thumbnail/49255769768_df55596553_b.jpg"}},{"id":5076,"common_name":"kobus magnolia","scientific_name":["Magnolia 'Legacy'"],"other_name":null,"cycle":"Perennial","watering":"Average","sunlight":["Full sun","part shade"],"default_image":{"image_id":9,"license":5,"license_name":"Attribution-ShareAlike License","license_url":"https://creativecommons.org/licenses/by-sa/2.0/","original_url":"https://perenual.com/storage/species_image/2_abies_alba_pyramidalis/og/49255769768_df55596553_b.jpg","regular_url":"https://perenual.com/storage/species_image/2_abies_alba_pyramidalis/regular/49255769768_df55596553_b.jpg","medium_url":"https://perenual.com/storage/species_image/2_abies_alba_pyramidalis/medium/49255769768_df55596553_b.jpg","small_url":"https://perenual.com/storage/species_image/2_abies_alba_pyramidalis/small/49255769768_df55596553_b.jpg","thumbnail":"https://perenual.com/storage/species_image/2_abies_alba_pyramidalis/thumbnail/49255769768_df55596553_b.jpg"}},{"id":5077,"common_name":"mu-lan","scientific_name":["Magnolia lilliflora 'Nigra'"],"other_name":null,"cycle":"Perennial","watering":"Average","sunlight":["Full sun","part shade"],"default_image":{"image_id":10870,"license":5,"license_name":"Attribution-ShareAlike License","license_url":"https://creativecommons.org/licenses/by-sa/2.0/","original_url":"https://perenual.com/storage/species_image/5077_magnolia_lilliflora_nigra/og/46116898725_1b449ce39b_b.jpg","regular_url":"https://perenual.com/storage/species_image/5077_magnolia_lilliflora_nigra/regular/46116898725_1b449ce39b_b.jpg","medium_url":"https://perenual.com/storage/species_image/5077_magnolia_lilliflora_nigra/medium/46116898725_1b449ce39b_b.jpg","small_url":"https://perenual.com/storage/species_image/5077_magnolia_lilliflora_nigra/small/46116898725_1b449ce39b_b.jpg","thumbnail":"https://perenual.com/storage/species_image/5077_magnolia_lilliflora_nigra/thumbnail/46116898725_1b449ce39b_b.jpg"}},{"id":5078,"common_name":"magnolia","scientific_name":["Magnolia loebneri"],"other_name":null,"cycle":"Perennial","watering":"Average","sunlight":["Full sun","part shade"],"default_image":{"image_id":10871,"license":4,"license_name":"Attribution License","license_url":"https://creativecommons.org/licenses/by/2.0/","original_url":"https://perenual.com/storage/species_image/5078_magnolia_loebneri/og/13112836925_2aebae3cb4_b.jpg","regular_url":"https://perenual.com/storage/species_image/5078_magnolia_loebneri/regular/13112836925_2aebae3cb4_b.jpg","medium_url":"https://perenual.com/storage/species_image/5078_magnolia_loebneri/medium/13112836925_2aebae3cb4_b.jpg","small_url":"https://perenual.com/storage/species_image/5078_magnolia_loebneri/small/13112836925_2aebae3cb4_b.jpg","thumbnail":"https://perenual.com/storage/species_image/5078_magnolia_loebneri/thumbnail/13112836925_2aebae3cb4_b.jpg"}},{"id":5079,"common_name":"magnolia","scientific_name":["Magnolia loebneri 'Ballerina'"],"other_name":null,"cycle":"Perennial","watering":"Average","sunlight":["Full sun","part shade"],"default_image":{"image_id":9,"license":5,"license_name":"Attribution-ShareAlike License","license_url":"https://creativecommons.org/licenses/by-sa/2.0/","original_url":"https://perenual.com/storage/species_image/2_abies_alba_pyramidalis/og/49255769768_df55596553_b.jpg","regular_url":"https://perenual.com/storage/species_image/2_abies_alba_pyramidalis/regular/49255769768_df55596553_b.jpg","medium_url":"https://perenual.com/storage/species_image/2_abies_alba_pyramidalis/medium/49255769768_df55596553_b.jpg","small_url":"https://perenual.com/storage/species_image/2_abies_alba_pyramidalis/small/49255769768_df55596553_b.jpg","thumbnail":"https://perenual.com/storage/species_image/2_abies_alba_pyramidalis/thumbnail/49255769768_df55596553_b.jpg"}},{"id":5080,"common_name":"magnolia","scientific_name":["Magnolia loebneri 'Leonard Messel'"],"other_name":null,"cycle":"Perennial","watering":"Average","sunlight":["Full sun","part shade"],"default_image":{"image_id":711,"license":4,"license_name":"Attribution License","license_url":"https://creativecommons.org/licenses/by/2.0/","original_url":"https://perenual.com/storage/species_image/347_magnolia_x_loebneri_leonard_messel/og/8605674088_fd5a53bf0c_b.jpg","regular_url":"https://perenual.com/storage/species_image/347_magnolia_x_loebneri_leonard_messel/regular/8605674088_fd5a53bf0c_b.jpg","medium_url":"https://perenual.com/storage/species_image/347_magnolia_x_loebneri_leonard_messel/medium/8605674088_fd5a53bf0c_b.jpg","small_url":"https://perenual.com/storage/species_image/347_magnolia_x_loebneri_leonard_messel/small/8605674088_fd5a53bf0c_b.jpg","thumbnail":"https://perenual.com/storage/species_image/347_magnolia_x_loebneri_leonard_messel/thumbnail/8605674088_fd5a53bf0c_b.jpg"}},{"id":5081,"common_name":"magnolia","scientific_name":["Magnolia loebneri 'Merrill'"],"other_name":null,"cycle":"Perennial","watering":"Average","sunlight":["Full sun","part shade"],"default_image":{"image_id":10874,"license":5,"license_name":"Attribution-ShareAlike License","license_url":"https://creativecommons.org/licenses/by-sa/2.0/","original_url":"https://perenual.com/storage/species_image/5081_magnolia_loebneri_merrill/og/26025165681_4aa5715433_b.jpg","regular_url":"https://perenual.com/storage/species_image/5081_magnolia_loebneri_merrill/regular/26025165681_4aa5715433_b.jpg","medium_url":"https://perenual.com/storage/species_image/5081_magnolia_loebneri_merrill/medium/26025165681_4aa5715433_b.jpg","small_url":"https://perenual.com/storage/species_image/5081_magnolia_loebneri_merrill/small/26025165681_4aa5715433_b.jpg","thumbnail":"https://perenual.com/storage/species_image/5081_magnolia_loebneri_merrill/thumbnail/26025165681_4aa5715433_b.jpg"}},{"id":5082,"common_name":"magnolia","scientific_name":["Magnolia loebneri 'Powder Puff'"],"other_name":null,"cycle":"Perennial","watering":"Average","sunlight":["Full sun","part shade"],"default_image":{"image_id":9,"license":5,"license_name":"Attribution-ShareAlike License","license_url":"https://creativecommons.org/licenses/by-sa/2.0/","original_url":"https://perenual.com/storage/species_image/2_abies_alba_pyramidalis/og/49255769768_df55596553_b.jpg","regular_url":"https://perenual.com/storage/species_image/2_abies_alba_pyramidalis/regular/49255769768_df55596553_b.jpg","medium_url":"https://perenual.com/storage/species_image/2_abies_alba_pyramidalis/medium/49255769768_df55596553_b.jpg","small_url":"https://perenual.com/storage/species_image/2_abies_alba_pyramidalis/small/49255769768_df55596553_b.jpg","thumbnail":"https://perenual.com/storage/species_image/2_abies_alba_pyramidalis/thumbnail/49255769768_df55596553_b.jpg"}},{"id":5083,"common_name":"magnolia","scientific_name":["Magnolia loebneri 'Ruth' SPRING WELCOME"],"other_name":null,"cycle":"Perennial","watering":"Average","sunlight":["Full sun"],"default_image":{"image_id":9,"license":5,"license_name":"Attribution-ShareAlike License","license_url":"https://creativecommons.org/licenses/by-sa/2.0/","original_url":"https://perenual.com/storage/species_image/2_abies_alba_pyramidalis/og/49255769768_df55596553_b.jpg","regular_url":"https://perenual.com/storage/species_image/2_abies_alba_pyramidalis/regular/49255769768_df55596553_b.jpg","medium_url":"https://perenual.com/storage/species_image/2_abies_alba_pyramidalis/medium/49255769768_df55596553_b.jpg","small_url":"https://perenual.com/storage/species_image/2_abies_alba_pyramidalis/small/49255769768_df55596553_b.jpg","thumbnail":"https://perenual.com/storage/species_image/2_abies_alba_pyramidalis/thumbnail/49255769768_df55596553_b.jpg"}},{"id":5084,"common_name":"magnolia","scientific_name":["Magnolia loebneri 'Spring Joy'"],"other_name":null,"cycle":"Perennial","watering":"Average","sunlight":["Full sun","part shade"],"default_image":{"image_id":9,"license":5,"license_name":"Attribution-ShareAlike License","license_url":"https://creativecommons.org/licenses/by-sa/2.0/","original_url":"https://perenual.com/storage/species_image/2_abies_alba_pyramidalis/og/49255769768_df55596553_b.jpg","regular_url":"https://perenual.com/storage/species_image/2_abies_alba_pyramidalis/regular/49255769768_df55596553_b.jpg","medium_url":"https://perenual.com/storage/species_image/2_abies_alba_pyramidalis/medium/49255769768_df55596553_b.jpg","small_url":"https://perenual.com/storage/species_image/2_abies_alba_pyramidalis/small/49255769768_df55596553_b.jpg","thumbnail":"https://perenual.com/storage/species_image/2_abies_alba_pyramidalis/thumbnail/49255769768_df55596553_b.jpg"}},{"id":5085,"common_name":"large-leaved cucumber tree","scientific_name":["Magnolia macrophylla"],"other_name":null,"cycle":"","watering":"Average","sunlight":["Full sun","part shade"],"default_image":{"image_id":9,"license":5,"license_name":"Attribution-ShareAlike License","license_url":"https://creativecommons.org/licenses/by-sa/2.0/","original_url":"https://perenual.com/storage/species_image/2_abies_alba_pyramidalis/og/49255769768_df55596553_b.jpg","regular_url":"https://perenual.com/storage/species_image/2_abies_alba_pyramidalis/regular/49255769768_df55596553_b.jpg","medium_url":"https://perenual.com/storage/species_image/2_abies_alba_pyramidalis/medium/49255769768_df55596553_b.jpg","small_url":"https://perenual.com/storage/species_image/2_abies_alba_pyramidalis/small/49255769768_df55596553_b.jpg","thumbnail":"https://perenual.com/storage/species_image/2_abies_alba_pyramidalis/thumbnail/49255769768_df55596553_b.jpg"}},{"id":5086,"common_name":"whitebark magnolia","scientific_name":["Magnolia obovata"],"other_name":null,"cycle":"Perennial","watering":"Average","sunlight":["Full sun","part shade"],"default_image":{"image_id":10886,"license":4,"license_name":"Attribution License","license_url":"https://creativecommons.org/licenses/by/2.0/","original_url":"https://perenual.com/storage/species_image/5086_magnolia_obovata/og/4599575915_919fdeb391_b.jpg","regular_url":"https://perenual.com/storage/species_image/5086_magnolia_obovata/regular/4599575915_919fdeb391_b.jpg","medium_url":"https://perenual.com/storage/species_image/5086_magnolia_obovata/medium/4599575915_919fdeb391_b.jpg","small_url":"https://perenual.com/storage/species_image/5086_magnolia_obovata/small/4599575915_919fdeb391_b.jpg","thumbnail":"https://perenual.com/storage/species_image/5086_magnolia_obovata/thumbnail/4599575915_919fdeb391_b.jpg"}},{"id":5087,"common_name":"magnolia","scientific_name":["Magnolia 'Randy'"],"other_name":null,"cycle":"Perennial","watering":"Average","sunlight":["Full sun","part shade"],"default_image":{"image_id":10834,"license":5,"license_name":"Attribution-ShareAlike License","license_url":"https://creativecommons.org/licenses/by-sa/2.0/","original_url":"https://perenual.com/storage/species_image/5098_magnolia_susan/og/51187671078_9997a8a589_b.jpg","regular_url":"https://perenual.com/storage/species_image/5098_magnolia_susan/regular/51187671078_9997a8a589_b.jpg","medium_url":"https://perenual.com/storage/species_image/5098_magnolia_susan/medium/51187671078_9997a8a589_b.jpg","small_url":"https://perenual.com/storage/species_image/5098_magnolia_susan/small/51187671078_9997a8a589_b.jpg","thumbnail":"https://perenual.com/storage/species_image/5098_magnolia_susan/thumbnail/51187671078_9997a8a589_b.jpg"}},{"id":5088,"common_name":"magnolia","scientific_name":["Magnolia 'Ricki'"],"other_name":null,"cycle":"Perennial","watering":"Average","sunlight":["Full sun","part shade"],"default_image":{"image_id":10835,"license":5,"license_name":"Attribution-ShareAlike License","license_url":"https://creativecommons.org/licenses/by-sa/2.0/","original_url":"https://perenual.com/storage/species_image/5098_magnolia_susan/og/51188518310_029d1b2510_b.jpg","regular_url":"https://perenual.com/storage/species_image/5098_magnolia_susan/regular/51188518310_029d1b2510_b.jpg","medium_url":"https://perenual.com/storage/species_image/5098_magnolia_susan/medium/51188518310_029d1b2510_b.jpg","small_url":"https://perenual.com/storage/species_image/5098_magnolia_susan/small/51188518310_029d1b2510_b.jpg","thumbnail":"https://perenual.com/storage/species_image/5098_magnolia_susan/thumbnail/51188518310_029d1b2510_b.jpg"}},{"id":5089,"common_name":"magnolia","scientific_name":["Magnolia 'Solar Flair'"],"other_name":null,"cycle":"Perennial","watering":"Average","sunlight":["Full sun","part shade"],"default_image":{"image_id":9,"license":5,"license_name":"Attribution-ShareAlike License","license_url":"https://creativecommons.org/licenses/by-sa/2.0/","original_url":"https://perenual.com/storage/species_image/2_abies_alba_pyramidalis/og/49255769768_df55596553_b.jpg","regular_url":"https://perenual.com/storage/species_image/2_abies_alba_pyramidalis/regular/49255769768_df55596553_b.jpg","medium_url":"https://perenual.com/storage/species_image/2_abies_alba_pyramidalis/medium/49255769768_df55596553_b.jpg","small_url":"https://perenual.com/storage/species_image/2_abies_alba_pyramidalis/small/49255769768_df55596553_b.jpg","thumbnail":"https://perenual.com/storage/species_image/2_abies_alba_pyramidalis/thumbnail/49255769768_df55596553_b.jpg"}},{"id":5090,"common_name":"saucer magnolia","scientific_name":["Magnolia soulangeana"],"other_name":null,"cycle":"Perennial","watering":"Average","sunlight":["Full sun","part shade"],"default_image":{"image_id":10891,"license":5,"license_name":"Attribution-ShareAlike License","license_url":"https://creativecommons.org/licenses/by-sa/2.0/","original_url":"https://perenual.com/storage/species_image/5090_magnolia_soulangeana/og/51363839302_b688f167c2_b.jpg","regular_url":"https://perenual.com/storage/species_image/5090_magnolia_soulangeana/regular/51363839302_b688f167c2_b.jpg","medium_url":"https://perenual.com/storage/species_image/5090_magnolia_soulangeana/medium/51363839302_b688f167c2_b.jpg","small_url":"https://perenual.com/storage/species_image/5090_magnolia_soulangeana/small/51363839302_b688f167c2_b.jpg","thumbnail":"https://perenual.com/storage/species_image/5090_magnolia_soulangeana/thumbnail/51363839302_b688f167c2_b.jpg"}},{"id":5091,"common_name":"saucer magnolia","scientific_name":["Magnolia soulangeana 'Alexandrina'"],"other_name":null,"cycle":"Perennial","watering":"Average","sunlight":["Full sun","part shade"],"default_image":{"image_id":9,"license":5,"license_name":"Attribution-ShareAlike License","license_url":"https://creativecommons.org/licenses/by-sa/2.0/","original_url":"https://perenual.com/storage/species_image/2_abies_alba_pyramidalis/og/49255769768_df55596553_b.jpg","regular_url":"https://perenual.com/storage/species_image/2_abies_alba_pyramidalis/regular/49255769768_df55596553_b.jpg","medium_url":"https://perenual.com/storage/species_image/2_abies_alba_pyramidalis/medium/49255769768_df55596553_b.jpg","small_url":"https://perenual.com/storage/species_image/2_abies_alba_pyramidalis/small/49255769768_df55596553_b.jpg","thumbnail":"https://perenual.com/storage/species_image/2_abies_alba_pyramidalis/thumbnail/49255769768_df55596553_b.jpg"}},{"id":5092,"common_name":"saucer magnolia","scientific_name":["Magnolia soulangeana 'Lennei'"],"other_name":null,"cycle":"Perennial","watering":"Average","sunlight":["Full sun","part shade"],"default_image":{"image_id":9,"license":5,"license_name":"Attribution-ShareAlike License","license_url":"https://creativecommons.org/licenses/by-sa/2.0/","original_url":"https://perenual.com/storage/species_image/2_abies_alba_pyramidalis/og/49255769768_df55596553_b.jpg","regular_url":"https://perenual.com/storage/species_image/2_abies_alba_pyramidalis/regular/49255769768_df55596553_b.jpg","medium_url":"https://perenual.com/storage/species_image/2_abies_alba_pyramidalis/medium/49255769768_df55596553_b.jpg","small_url":"https://perenual.com/storage/species_image/2_abies_alba_pyramidalis/small/49255769768_df55596553_b.jpg","thumbnail":"https://perenual.com/storage/species_image/2_abies_alba_pyramidalis/thumbnail/49255769768_df55596553_b.jpg"}},{"id":5093,"common_name":"saucer magnolia","scientific_name":["Magnolia soulangeana 'Picture'"],"other_name":null,"cycle":"Perennial","watering":"Average","sunlight":["Full sun","part shade"],"default_image":{"image_id":10893,"license":4,"license_name":"Attribution License","license_url":"https://creativecommons.org/licenses/by/2.0/","original_url":"https://perenual.com/storage/species_image/5093_magnolia_soulangeana_picture/og/26020317920_97b6238a25_b.jpg","regular_url":"https://perenual.com/storage/species_image/5093_magnolia_soulangeana_picture/regular/26020317920_97b6238a25_b.jpg","medium_url":"https://perenual.com/storage/species_image/5093_magnolia_soulangeana_picture/medium/26020317920_97b6238a25_b.jpg","small_url":"https://perenual.com/storage/species_image/5093_magnolia_soulangeana_picture/small/26020317920_97b6238a25_b.jpg","thumbnail":"https://perenual.com/storage/species_image/5093_magnolia_soulangeana_picture/thumbnail/26020317920_97b6238a25_b.jpg"}},{"id":5094,"common_name":"star magnolia","scientific_name":["Magnolia stellata"],"other_name":null,"cycle":"Perennial","watering":"Average","sunlight":["Full sun","part shade"],"default_image":{"image_id":10894,"license":5,"license_name":"Attribution-ShareAlike License","license_url":"https://creativecommons.org/licenses/by-sa/2.0/","original_url":"https://perenual.com/storage/species_image/5094_magnolia_stellata/og/52058433051_a89b34018a_b.jpg","regular_url":"https://perenual.com/storage/species_image/5094_magnolia_stellata/regular/52058433051_a89b34018a_b.jpg","medium_url":"https://perenual.com/storage/species_image/5094_magnolia_stellata/medium/52058433051_a89b34018a_b.jpg","small_url":"https://perenual.com/storage/species_image/5094_magnolia_stellata/small/52058433051_a89b34018a_b.jpg","thumbnail":"https://perenual.com/storage/species_image/5094_magnolia_stellata/thumbnail/52058433051_a89b34018a_b.jpg"}},{"id":5095,"common_name":"star magnolia","scientific_name":["Magnolia stellata 'Royal Star'"],"other_name":null,"cycle":"Perennial","watering":"Average","sunlight":["Full sun","part shade"],"default_image":{"image_id":10896,"license":4,"license_name":"Attribution License","license_url":"https://creativecommons.org/licenses/by/2.0/","original_url":"https://perenual.com/storage/species_image/5095_magnolia_stellata_royal_star/og/51933552403_d312162f27_b.jpg","regular_url":"https://perenual.com/storage/species_image/5095_magnolia_stellata_royal_star/regular/51933552403_d312162f27_b.jpg","medium_url":"https://perenual.com/storage/species_image/5095_magnolia_stellata_royal_star/medium/51933552403_d312162f27_b.jpg","small_url":"https://perenual.com/storage/species_image/5095_magnolia_stellata_royal_star/small/51933552403_d312162f27_b.jpg","thumbnail":"https://perenual.com/storage/species_image/5095_magnolia_stellata_royal_star/thumbnail/51933552403_d312162f27_b.jpg"}},{"id":5096,"common_name":"star magnolia","scientific_name":["Magnolia stellata 'Waterlily'"],"other_name":null,"cycle":"Perennial","watering":"Average","sunlight":["Full sun","part shade"],"default_image":{"image_id":10898,"license":4,"license_name":"Attribution License","license_url":"https://creativecommons.org/licenses/by/2.0/","original_url":"https://perenual.com/storage/species_image/5096_magnolia_stellata_waterlily/og/7329237178_fc162e3be0_b.jpg","regular_url":"https://perenual.com/storage/species_image/5096_magnolia_stellata_waterlily/regular/7329237178_fc162e3be0_b.jpg","medium_url":"https://perenual.com/storage/species_image/5096_magnolia_stellata_waterlily/medium/7329237178_fc162e3be0_b.jpg","small_url":"https://perenual.com/storage/species_image/5096_magnolia_stellata_waterlily/small/7329237178_fc162e3be0_b.jpg","thumbnail":"https://perenual.com/storage/species_image/5096_magnolia_stellata_waterlily/thumbnail/7329237178_fc162e3be0_b.jpg"}},{"id":5097,"common_name":"magnolia","scientific_name":["Magnolia 'Sunspire'"],"other_name":null,"cycle":"Perennial","watering":"Average","sunlight":["Full sun","part shade"],"default_image":{"image_id":10899,"license":5,"license_name":"Attribution-ShareAlike License","license_url":"https://creativecommons.org/licenses/by-sa/2.0/","original_url":"https://perenual.com/storage/species_image/5097_magnolia_sunspire/og/9213352625_d99a32e2ce_b.jpg","regular_url":"https://perenual.com/storage/species_image/5097_magnolia_sunspire/regular/9213352625_d99a32e2ce_b.jpg","medium_url":"https://perenual.com/storage/species_image/5097_magnolia_sunspire/medium/9213352625_d99a32e2ce_b.jpg","small_url":"https://perenual.com/storage/species_image/5097_magnolia_sunspire/small/9213352625_d99a32e2ce_b.jpg","thumbnail":"https://perenual.com/storage/species_image/5097_magnolia_sunspire/thumbnail/9213352625_d99a32e2ce_b.jpg"}},{"id":5098,"common_name":"magnolia","scientific_name":["Magnolia 'Susan'"],"other_name":null,"cycle":"Perennial","watering":"Average","sunlight":["Full sun","part shade"],"default_image":{"image_id":10835,"license":5,"license_name":"Attribution-ShareAlike License","license_url":"https://creativecommons.org/licenses/by-sa/2.0/","original_url":"https://perenual.com/storage/species_image/5098_magnolia_susan/og/51188518310_029d1b2510_b.jpg","regular_url":"https://perenual.com/storage/species_image/5098_magnolia_susan/regular/51188518310_029d1b2510_b.jpg","medium_url":"https://perenual.com/storage/species_image/5098_magnolia_susan/medium/51188518310_029d1b2510_b.jpg","small_url":"https://perenual.com/storage/species_image/5098_magnolia_susan/small/51188518310_029d1b2510_b.jpg","thumbnail":"https://perenual.com/storage/species_image/5098_magnolia_susan/thumbnail/51188518310_029d1b2510_b.jpg"}},{"id":5099,"common_name":"umbrella tree","scientific_name":["Magnolia tripetala"],"other_name":null,"cycle":"Perennial","watering":"Average","sunlight":["Full sun","part shade"],"default_image":{"image_id":10900,"license":4,"license_name":"Attribution License","license_url":"https://creativecommons.org/licenses/by/2.0/","original_url":"https://perenual.com/storage/species_image/5099_magnolia_tripetala/og/34459654635_f644456163_b.jpg","regular_url":"https://perenual.com/storage/species_image/5099_magnolia_tripetala/regular/34459654635_f644456163_b.jpg","medium_url":"https://perenual.com/storage/species_image/5099_magnolia_tripetala/medium/34459654635_f644456163_b.jpg","small_url":"https://perenual.com/storage/species_image/5099_magnolia_tripetala/small/34459654635_f644456163_b.jpg","thumbnail":"https://perenual.com/storage/species_image/5099_magnolia_tripetala/thumbnail/34459654635_f644456163_b.jpg"}},{"id":5100,"common_name":"sweet bay magnolia","scientific_name":["Magnolia virginiana"],"other_name":null,"cycle":"Perennial","watering":"Frequent","sunlight":["Full sun","part shade"],"default_image":{"image_id":9,"license":5,"license_name":"Attribution-ShareAlike License","license_url":"https://creativecommons.org/licenses/by-sa/2.0/","original_url":"https://perenual.com/storage/species_image/2_abies_alba_pyramidalis/og/49255769768_df55596553_b.jpg","regular_url":"https://perenual.com/storage/species_image/2_abies_alba_pyramidalis/regular/49255769768_df55596553_b.jpg","medium_url":"https://perenual.com/storage/species_image/2_abies_alba_pyramidalis/medium/49255769768_df55596553_b.jpg","small_url":"https://perenual.com/storage/species_image/2_abies_alba_pyramidalis/small/49255769768_df55596553_b.jpg","thumbnail":"https://perenual.com/storage/species_image/2_abies_alba_pyramidalis/thumbnail/49255769768_df55596553_b.jpg"}}],"to":5100,"per_page":30,"current_page":170,"from":5071,"last_page":200,"total":6000}