{"data":[{"id":5191,"common_name":"lemon mint","scientific_name":["Mentha piperita f. citrata"],"other_name":null,"cycle":"Perennial","watering":"Frequent","sunlight":["Full sun","part shade"],"default_image":{"image_id":11042,"license":45,"license_name":"Attribution-ShareAlike 3.0 Unported (CC BY-SA 3.0)","license_url":"https://creativecommons.org/licenses/by-sa/3.0/deed.en","original_url":"https://perenual.com/storage/species_image/5191_mentha_piperita_f_citrata/og/Mentha_x_piperita_var._citrata_%27Eau_de_Cologne_Mint%27_%28Labatae%29_flower.jpg","regular_url":"https://perenual.com/storage/species_image/5191_mentha_piperita_f_citrata/regular/Mentha_x_piperita_var._citrata_%27Eau_de_Cologne_Mint%27_%28Labatae%29_flower.jpg","medium_url":"https://perenual.com/storage/species_image/5191_mentha_piperita_f_citrata/medium/Mentha_x_piperita_var._citrata_%27Eau_de_Cologne_Mint%27_%28Labatae%29_flower.jpg","small_url":"https://perenual.com/storage/species_image/5191_mentha_piperita_f_citrata/small/Mentha_x_piperita_var._citrata_%27Eau_de_Cologne_Mint%27_%28Labatae%29_flower.jpg","thumbnail":"https://perenual.com/storage/species_image/5191_mentha_piperita_f_citrata/thumbnail/Mentha_x_piperita_var._citrata_%27Eau_de_Cologne_Mint%27_%28Labatae%29_flower.jpg"}},{"id":5192,"common_name":"chocolate mint","scientific_name":["Mentha piperita f. citrata 'Chocolate'"],"other_name":null,"cycle":"Perennial","watering":"Frequent","sunlight":["Full sun","part shade"],"default_image":{"image_id":9,"license":5,"license_name":"Attribution-ShareAlike License","license_url":"https://creativecommons.org/licenses/by-sa/2.0/","original_url":"https://perenual.com/storage/species_image/2_abies_alba_pyramidalis/og/49255769768_df55596553_b.jpg","regular_url":"https://perenual.com/storage/species_image/2_abies_alba_pyramidalis/regular/49255769768_df55596553_b.jpg","medium_url":"https://perenual.com/storage/species_image/2_abies_alba_pyramidalis/medium/49255769768_df55596553_b.jpg","small_url":"https://perenual.com/storage/species_image/2_abies_alba_pyramidalis/small/49255769768_df55596553_b.jpg","thumbnail":"https://perenual.com/storage/species_image/2_abies_alba_pyramidalis/thumbnail/49255769768_df55596553_b.jpg"}},{"id":5193,"common_name":"spearmint","scientific_name":["Mentha spicata 'Kentucky Colonel'"],"other_name":null,"cycle":"Perennial","watering":"Frequent","sunlight":["Full sun"],"default_image":{"image_id":9,"license":5,"license_name":"Attribution-ShareAlike License","license_url":"https://creativecommons.org/licenses/by-sa/2.0/","original_url":"https://perenual.com/storage/species_image/2_abies_alba_pyramidalis/og/49255769768_df55596553_b.jpg","regular_url":"https://perenual.com/storage/species_image/2_abies_alba_pyramidalis/regular/49255769768_df55596553_b.jpg","medium_url":"https://perenual.com/storage/species_image/2_abies_alba_pyramidalis/medium/49255769768_df55596553_b.jpg","small_url":"https://perenual.com/storage/species_image/2_abies_alba_pyramidalis/small/49255769768_df55596553_b.jpg","thumbnail":"https://perenual.com/storage/species_image/2_abies_alba_pyramidalis/thumbnail/49255769768_df55596553_b.jpg"}},{"id":5194,"common_name":"apple mint","scientific_name":["Mentha suaveolens"],"other_name":null,"cycle":"Perennial","watering":"Frequent","sunlight":["Full sun","part shade"],"default_image":{"image_id":9,"license":5,"license_name":"Attribution-ShareAlike License","license_url":"https://creativecommons.org/licenses/by-sa/2.0/","original_url":"https://perenual.com/storage/species_image/2_abies_alba_pyramidalis/og/49255769768_df55596553_b.jpg","regular_url":"https://perenual.com/storage/species_image/2_abies_alba_pyramidalis/regular/49255769768_df55596553_b.jpg","medium_url":"https://perenual.com/storage/species_image/2_abies_alba_pyramidalis/medium/49255769768_df55596553_b.jpg","small_url":"https://perenual.com/storage/species_image/2_abies_alba_pyramidalis/small/49255769768_df55596553_b.jpg","thumbnail":"https://perenual.com/storage/species_image/2_abies_alba_pyramidalis/thumbnail/49255769768_df55596553_b.jpg"}},{"id":5195,"common_name":"bog bean","scientific_name":["Menyanthes trifoliata"],"other_name":null,"cycle":"Perennial","watering":"Frequent","sunlight":["Full sun","part shade"],"default_image":{"image_id":9,"license":5,"license_name":"Attribution-ShareAlike License","license_url":"https://creativecommons.org/licenses/by-sa/2.0/","original_url":"https://perenual.com/storage/species_image/2_abies_alba_pyramidalis/og/49255769768_df55596553_b.jpg","regular_url":"https://perenual.com/storage/species_image/2_abies_alba_pyramidalis/regular/49255769768_df55596553_b.jpg","medium_url":"https://perenual.com/storage/species_image/2_abies_alba_pyramidalis/medium/49255769768_df55596553_b.jpg","small_url":"https://perenual.com/storage/species_image/2_abies_alba_pyramidalis/small/49255769768_df55596553_b.jpg","thumbnail":"https://perenual.com/storage/species_image/2_abies_alba_pyramidalis/thumbnail/49255769768_df55596553_b.jpg"}},{"id":5196,"common_name":"heartleaf iceplant","scientific_name":["Mesembryanthemum cordifolium"],"other_name":null,"cycle":"Perennial","watering":"Minimum","sunlight":["Full sun"],"default_image":{"image_id":11046,"license":5,"license_name":"Attribution-ShareAlike License","license_url":"https://creativecommons.org/licenses/by-sa/2.0/","original_url":"https://perenual.com/storage/species_image/5196_mesembryanthemum_cordifolium/og/6846900699_7f8e36c15b_b.jpg","regular_url":"https://perenual.com/storage/species_image/5196_mesembryanthemum_cordifolium/regular/6846900699_7f8e36c15b_b.jpg","medium_url":"https://perenual.com/storage/species_image/5196_mesembryanthemum_cordifolium/medium/6846900699_7f8e36c15b_b.jpg","small_url":"https://perenual.com/storage/species_image/5196_mesembryanthemum_cordifolium/small/6846900699_7f8e36c15b_b.jpg","thumbnail":"https://perenual.com/storage/species_image/5196_mesembryanthemum_cordifolium/thumbnail/6846900699_7f8e36c15b_b.jpg"}},{"id":5197,"common_name":"medlar","scientific_name":["Mespilus germanica"],"other_name":null,"cycle":"Perennial","watering":"Average","sunlight":["Full sun"," Part sun/part shade"," Sheltered"],"default_image":{"image_id":11049,"license":5,"license_name":"Attribution-ShareAlike License","license_url":"https://creativecommons.org/licenses/by-sa/2.0/","original_url":"https://perenual.com/storage/species_image/5197_mespilus_germanica/og/37258508241_f823f0ac5e_b.jpg","regular_url":"https://perenual.com/storage/species_image/5197_mespilus_germanica/regular/37258508241_f823f0ac5e_b.jpg","medium_url":"https://perenual.com/storage/species_image/5197_mespilus_germanica/medium/37258508241_f823f0ac5e_b.jpg","small_url":"https://perenual.com/storage/species_image/5197_mespilus_germanica/small/37258508241_f823f0ac5e_b.jpg","thumbnail":"https://perenual.com/storage/species_image/5197_mespilus_germanica/thumbnail/37258508241_f823f0ac5e_b.jpg"}},{"id":5198,"common_name":"gaga-imo","scientific_name":["Metaplexis japonica"],"other_name":null,"cycle":"Perennial","watering":"Average","sunlight":["Full sun","part shade"],"default_image":{"image_id":11050,"license":5,"license_name":"Attribution-ShareAlike License","license_url":"https://creativecommons.org/licenses/by-sa/2.0/","original_url":"https://perenual.com/storage/species_image/5198_metaplexis_japonica/og/29099105377_47d12d20b6_b.jpg","regular_url":"https://perenual.com/storage/species_image/5198_metaplexis_japonica/regular/29099105377_47d12d20b6_b.jpg","medium_url":"https://perenual.com/storage/species_image/5198_metaplexis_japonica/medium/29099105377_47d12d20b6_b.jpg","small_url":"https://perenual.com/storage/species_image/5198_metaplexis_japonica/small/29099105377_47d12d20b6_b.jpg","thumbnail":"https://perenual.com/storage/species_image/5198_metaplexis_japonica/thumbnail/29099105377_47d12d20b6_b.jpg"}},{"id":5199,"common_name":"dawn redwood","scientific_name":["Metasequoia glyptostroboides 'Raven' SHAW'S LEGACY"],"other_name":null,"cycle":"Perennial","watering":"Frequent","sunlight":["Full sun"],"default_image":{"image_id":9,"license":5,"license_name":"Attribution-ShareAlike License","license_url":"https://creativecommons.org/licenses/by-sa/2.0/","original_url":"https://perenual.com/storage/species_image/2_abies_alba_pyramidalis/og/49255769768_df55596553_b.jpg","regular_url":"https://perenual.com/storage/species_image/2_abies_alba_pyramidalis/regular/49255769768_df55596553_b.jpg","medium_url":"https://perenual.com/storage/species_image/2_abies_alba_pyramidalis/medium/49255769768_df55596553_b.jpg","small_url":"https://perenual.com/storage/species_image/2_abies_alba_pyramidalis/small/49255769768_df55596553_b.jpg","thumbnail":"https://perenual.com/storage/species_image/2_abies_alba_pyramidalis/thumbnail/49255769768_df55596553_b.jpg"}},{"id":5200,"common_name":"Russian arborvitae","scientific_name":["Microbiota decussata 'Prides' CELTIC PRIDE"],"other_name":null,"cycle":"Perennial","watering":"Average","sunlight":["Full sun","part shade"],"default_image":{"image_id":9,"license":5,"license_name":"Attribution-ShareAlike License","license_url":"https://creativecommons.org/licenses/by-sa/2.0/","original_url":"https://perenual.com/storage/species_image/2_abies_alba_pyramidalis/og/49255769768_df55596553_b.jpg","regular_url":"https://perenual.com/storage/species_image/2_abies_alba_pyramidalis/regular/49255769768_df55596553_b.jpg","medium_url":"https://perenual.com/storage/species_image/2_abies_alba_pyramidalis/medium/49255769768_df55596553_b.jpg","small_url":"https://perenual.com/storage/species_image/2_abies_alba_pyramidalis/small/49255769768_df55596553_b.jpg","thumbnail":"https://perenual.com/storage/species_image/2_abies_alba_pyramidalis/thumbnail/49255769768_df55596553_b.jpg"}},{"id":5201,"common_name":"microsorum","scientific_name":["Microsorum musifolium"],"other_name":null,"cycle":"Perennial","watering":"Average","sunlight":["Part shade","full shade"],"default_image":{"image_id":9,"license":5,"license_name":"Attribution-ShareAlike License","license_url":"https://creativecommons.org/licenses/by-sa/2.0/","original_url":"https://perenual.com/storage/species_image/2_abies_alba_pyramidalis/og/49255769768_df55596553_b.jpg","regular_url":"https://perenual.com/storage/species_image/2_abies_alba_pyramidalis/regular/49255769768_df55596553_b.jpg","medium_url":"https://perenual.com/storage/species_image/2_abies_alba_pyramidalis/medium/49255769768_df55596553_b.jpg","small_url":"https://perenual.com/storage/species_image/2_abies_alba_pyramidalis/small/49255769768_df55596553_b.jpg","thumbnail":"https://perenual.com/storage/species_image/2_abies_alba_pyramidalis/thumbnail/49255769768_df55596553_b.jpg"}},{"id":5202,"common_name":"sensitive brier","scientific_name":["Mimosa quadrivalvis"],"other_name":null,"cycle":"Perennial","watering":"Minimum","sunlight":["Full sun"],"default_image":{"image_id":11054,"license":4,"license_name":"Attribution License","license_url":"https://creativecommons.org/licenses/by/2.0/","original_url":"https://perenual.com/storage/species_image/5202_mimosa_quadrivalvis/og/49643241342_50db14ba8e_b.jpg","regular_url":"https://perenual.com/storage/species_image/5202_mimosa_quadrivalvis/regular/49643241342_50db14ba8e_b.jpg","medium_url":"https://perenual.com/storage/species_image/5202_mimosa_quadrivalvis/medium/49643241342_50db14ba8e_b.jpg","small_url":"https://perenual.com/storage/species_image/5202_mimosa_quadrivalvis/small/49643241342_50db14ba8e_b.jpg","thumbnail":"https://perenual.com/storage/species_image/5202_mimosa_quadrivalvis/thumbnail/49643241342_50db14ba8e_b.jpg"}},{"id":5203,"common_name":"marvel of Peru","scientific_name":["Mirabilis jalapa"],"other_name":null,"cycle":"Perennial","watering":"Average","sunlight":["Full sun","part shade"],"default_image":{"image_id":11056,"license":5,"license_name":"Attribution-ShareAlike License","license_url":"https://creativecommons.org/licenses/by-sa/2.0/","original_url":"https://perenual.com/storage/species_image/5203_mirabilis_jalapa/og/52379148019_0f7c9305dd_b.jpg","regular_url":"https://perenual.com/storage/species_image/5203_mirabilis_jalapa/regular/52379148019_0f7c9305dd_b.jpg","medium_url":"https://perenual.com/storage/species_image/5203_mirabilis_jalapa/medium/52379148019_0f7c9305dd_b.jpg","small_url":"https://perenual.com/storage/species_image/5203_mirabilis_jalapa/small/52379148019_0f7c9305dd_b.jpg","thumbnail":"https://perenual.com/storage/species_image/5203_mirabilis_jalapa/thumbnail/52379148019_0f7c9305dd_b.jpg"}},{"id":5204,"common_name":"Pacific Island silvergrass","scientific_name":["Miscanthus floridulus"],"other_name":null,"cycle":"Perennial","watering":"Frequent","sunlight":["Full sun"],"default_image":{"image_id":9,"license":5,"license_name":"Attribution-ShareAlike License","license_url":"https://creativecommons.org/licenses/by-sa/2.0/","original_url":"https://perenual.com/storage/species_image/2_abies_alba_pyramidalis/og/49255769768_df55596553_b.jpg","regular_url":"https://perenual.com/storage/species_image/2_abies_alba_pyramidalis/regular/49255769768_df55596553_b.jpg","medium_url":"https://perenual.com/storage/species_image/2_abies_alba_pyramidalis/medium/49255769768_df55596553_b.jpg","small_url":"https://perenual.com/storage/species_image/2_abies_alba_pyramidalis/small/49255769768_df55596553_b.jpg","thumbnail":"https://perenual.com/storage/species_image/2_abies_alba_pyramidalis/thumbnail/49255769768_df55596553_b.jpg"}},{"id":5205,"common_name":"miscanthus","scientific_name":["Miscanthus oligostachyus"],"other_name":null,"cycle":"Perennial","watering":"Average","sunlight":["Full sun","part shade"],"default_image":{"image_id":11058,"license":5,"license_name":"Attribution-ShareAlike License","license_url":"https://creativecommons.org/licenses/by-sa/2.0/","original_url":"https://perenual.com/storage/species_image/5208_miscanthus_sinensis_gracillimus/og/52497594198_8fda9fd87e_b.jpg","regular_url":"https://perenual.com/storage/species_image/5208_miscanthus_sinensis_gracillimus/regular/52497594198_8fda9fd87e_b.jpg","medium_url":"https://perenual.com/storage/species_image/5208_miscanthus_sinensis_gracillimus/medium/52497594198_8fda9fd87e_b.jpg","small_url":"https://perenual.com/storage/species_image/5208_miscanthus_sinensis_gracillimus/small/52497594198_8fda9fd87e_b.jpg","thumbnail":"https://perenual.com/storage/species_image/5208_miscanthus_sinensis_gracillimus/thumbnail/52497594198_8fda9fd87e_b.jpg"}},{"id":5206,"common_name":"Amur silvergrass","scientific_name":["Miscanthus sacchariflorus"],"other_name":null,"cycle":"Perennial","watering":"Frequent","sunlight":["Full sun","part shade"],"default_image":{"image_id":9,"license":5,"license_name":"Attribution-ShareAlike License","license_url":"https://creativecommons.org/licenses/by-sa/2.0/","original_url":"https://perenual.com/storage/species_image/2_abies_alba_pyramidalis/og/49255769768_df55596553_b.jpg","regular_url":"https://perenual.com/storage/species_image/2_abies_alba_pyramidalis/regular/49255769768_df55596553_b.jpg","medium_url":"https://perenual.com/storage/species_image/2_abies_alba_pyramidalis/medium/49255769768_df55596553_b.jpg","small_url":"https://perenual.com/storage/species_image/2_abies_alba_pyramidalis/small/49255769768_df55596553_b.jpg","thumbnail":"https://perenual.com/storage/species_image/2_abies_alba_pyramidalis/thumbnail/49255769768_df55596553_b.jpg"}},{"id":5207,"common_name":"eulalia","scientific_name":["Miscanthus sinensis 'Autumn Light'"],"other_name":null,"cycle":"Perennial","watering":"Average","sunlight":["Full sun","part shade"],"default_image":{"image_id":11060,"license":5,"license_name":"Attribution-ShareAlike License","license_url":"https://creativecommons.org/licenses/by-sa/2.0/","original_url":"https://perenual.com/storage/species_image/5210_miscanthus_sinensis_morning_light/og/52494669126_f604012c72_b.jpg","regular_url":"https://perenual.com/storage/species_image/5210_miscanthus_sinensis_morning_light/regular/52494669126_f604012c72_b.jpg","medium_url":"https://perenual.com/storage/species_image/5210_miscanthus_sinensis_morning_light/medium/52494669126_f604012c72_b.jpg","small_url":"https://perenual.com/storage/species_image/5210_miscanthus_sinensis_morning_light/small/52494669126_f604012c72_b.jpg","thumbnail":"https://perenual.com/storage/species_image/5210_miscanthus_sinensis_morning_light/thumbnail/52494669126_f604012c72_b.jpg"}},{"id":5208,"common_name":"eulalia","scientific_name":["Miscanthus sinensis 'Gracillimus'"],"other_name":null,"cycle":"Perennial","watering":"Average","sunlight":["Full sun"],"default_image":{"image_id":11058,"license":5,"license_name":"Attribution-ShareAlike License","license_url":"https://creativecommons.org/licenses/by-sa/2.0/","original_url":"https://perenual.com/storage/species_image/5208_miscanthus_sinensis_gracillimus/og/52497594198_8fda9fd87e_b.jpg","regular_url":"https://perenual.com/storage/species_image/5208_miscanthus_sinensis_gracillimus/regular/52497594198_8fda9fd87e_b.jpg","medium_url":"https://perenual.com/storage/species_image/5208_miscanthus_sinensis_gracillimus/medium/52497594198_8fda9fd87e_b.jpg","small_url":"https://perenual.com/storage/species_image/5208_miscanthus_sinensis_gracillimus/small/52497594198_8fda9fd87e_b.jpg","thumbnail":"https://perenual.com/storage/species_image/5208_miscanthus_sinensis_gracillimus/thumbnail/52497594198_8fda9fd87e_b.jpg"}},{"id":5209,"common_name":"eulalia","scientific_name":["Miscanthus sinensis 'Little Kitten'"],"other_name":null,"cycle":"Perennial","watering":"Average","sunlight":["Full sun","part shade"],"default_image":{"image_id":9,"license":5,"license_name":"Attribution-ShareAlike License","license_url":"https://creativecommons.org/licenses/by-sa/2.0/","original_url":"https://perenual.com/storage/species_image/2_abies_alba_pyramidalis/og/49255769768_df55596553_b.jpg","regular_url":"https://perenual.com/storage/species_image/2_abies_alba_pyramidalis/regular/49255769768_df55596553_b.jpg","medium_url":"https://perenual.com/storage/species_image/2_abies_alba_pyramidalis/medium/49255769768_df55596553_b.jpg","small_url":"https://perenual.com/storage/species_image/2_abies_alba_pyramidalis/small/49255769768_df55596553_b.jpg","thumbnail":"https://perenual.com/storage/species_image/2_abies_alba_pyramidalis/thumbnail/49255769768_df55596553_b.jpg"}},{"id":5210,"common_name":"eulalia","scientific_name":["Miscanthus sinensis 'Morning Light'"],"other_name":null,"cycle":"Perennial","watering":"Average","sunlight":["Full sun","part shade"],"default_image":{"image_id":11060,"license":5,"license_name":"Attribution-ShareAlike License","license_url":"https://creativecommons.org/licenses/by-sa/2.0/","original_url":"https://perenual.com/storage/species_image/5210_miscanthus_sinensis_morning_light/og/52494669126_f604012c72_b.jpg","regular_url":"https://perenual.com/storage/species_image/5210_miscanthus_sinensis_morning_light/regular/52494669126_f604012c72_b.jpg","medium_url":"https://perenual.com/storage/species_image/5210_miscanthus_sinensis_morning_light/medium/52494669126_f604012c72_b.jpg","small_url":"https://perenual.com/storage/species_image/5210_miscanthus_sinensis_morning_light/small/52494669126_f604012c72_b.jpg","thumbnail":"https://perenual.com/storage/species_image/5210_miscanthus_sinensis_morning_light/thumbnail/52494669126_f604012c72_b.jpg"}},{"id":5211,"common_name":"eulalia","scientific_name":["Miscanthus sinensis 'Nippon'"],"other_name":null,"cycle":"Perennial","watering":"Average","sunlight":["Full sun","part shade"],"default_image":{"image_id":9,"license":5,"license_name":"Attribution-ShareAlike License","license_url":"https://creativecommons.org/licenses/by-sa/2.0/","original_url":"https://perenual.com/storage/species_image/2_abies_alba_pyramidalis/og/49255769768_df55596553_b.jpg","regular_url":"https://perenual.com/storage/species_image/2_abies_alba_pyramidalis/regular/49255769768_df55596553_b.jpg","medium_url":"https://perenual.com/storage/species_image/2_abies_alba_pyramidalis/medium/49255769768_df55596553_b.jpg","small_url":"https://perenual.com/storage/species_image/2_abies_alba_pyramidalis/small/49255769768_df55596553_b.jpg","thumbnail":"https://perenual.com/storage/species_image/2_abies_alba_pyramidalis/thumbnail/49255769768_df55596553_b.jpg"}},{"id":5212,"common_name":"eulalia","scientific_name":["Miscanthus sinensis 'November Sunset'"],"other_name":null,"cycle":"Perennial","watering":"Average","sunlight":["Full sun","part shade"],"default_image":{"image_id":9,"license":5,"license_name":"Attribution-ShareAlike License","license_url":"https://creativecommons.org/licenses/by-sa/2.0/","original_url":"https://perenual.com/storage/species_image/2_abies_alba_pyramidalis/og/49255769768_df55596553_b.jpg","regular_url":"https://perenual.com/storage/species_image/2_abies_alba_pyramidalis/regular/49255769768_df55596553_b.jpg","medium_url":"https://perenual.com/storage/species_image/2_abies_alba_pyramidalis/medium/49255769768_df55596553_b.jpg","small_url":"https://perenual.com/storage/species_image/2_abies_alba_pyramidalis/small/49255769768_df55596553_b.jpg","thumbnail":"https://perenual.com/storage/species_image/2_abies_alba_pyramidalis/thumbnail/49255769768_df55596553_b.jpg"}},{"id":5213,"common_name":"eulalia","scientific_name":["Miscanthus sinensis 'Punktchen'"],"other_name":null,"cycle":"Perennial","watering":"Average","sunlight":["Full sun","part shade"],"default_image":{"image_id":9,"license":5,"license_name":"Attribution-ShareAlike License","license_url":"https://creativecommons.org/licenses/by-sa/2.0/","original_url":"https://perenual.com/storage/species_image/2_abies_alba_pyramidalis/og/49255769768_df55596553_b.jpg","regular_url":"https://perenual.com/storage/species_image/2_abies_alba_pyramidalis/regular/49255769768_df55596553_b.jpg","medium_url":"https://perenual.com/storage/species_image/2_abies_alba_pyramidalis/medium/49255769768_df55596553_b.jpg","small_url":"https://perenual.com/storage/species_image/2_abies_alba_pyramidalis/small/49255769768_df55596553_b.jpg","thumbnail":"https://perenual.com/storage/species_image/2_abies_alba_pyramidalis/thumbnail/49255769768_df55596553_b.jpg"}},{"id":5214,"common_name":"eulalia","scientific_name":["Miscanthus sinensis 'Rigoletto'"],"other_name":null,"cycle":"Perennial","watering":"Average","sunlight":["Full sun","part shade"],"default_image":{"image_id":9,"license":5,"license_name":"Attribution-ShareAlike License","license_url":"https://creativecommons.org/licenses/by-sa/2.0/","original_url":"https://perenual.com/storage/species_image/2_abies_alba_pyramidalis/og/49255769768_df55596553_b.jpg","regular_url":"https://perenual.com/storage/species_image/2_abies_alba_pyramidalis/regular/49255769768_df55596553_b.jpg","medium_url":"https://perenual.com/storage/species_image/2_abies_alba_pyramidalis/medium/49255769768_df55596553_b.jpg","small_url":"https://perenual.com/storage/species_image/2_abies_alba_pyramidalis/small/49255769768_df55596553_b.jpg","thumbnail":"https://perenual.com/storage/species_image/2_abies_alba_pyramidalis/thumbnail/49255769768_df55596553_b.jpg"}},{"id":5215,"common_name":"eulalia","scientific_name":["Miscanthus sinensis 'Sarabande'"],"other_name":null,"cycle":"Perennial","watering":"Average","sunlight":["Full sun","part shade"],"default_image":{"image_id":9,"license":5,"license_name":"Attribution-ShareAlike License","license_url":"https://creativecommons.org/licenses/by-sa/2.0/","original_url":"https://perenual.com/storage/species_image/2_abies_alba_pyramidalis/og/49255769768_df55596553_b.jpg","regular_url":"https://perenual.com/storage/species_image/2_abies_alba_pyramidalis/regular/49255769768_df55596553_b.jpg","medium_url":"https://perenual.com/storage/species_image/2_abies_alba_pyramidalis/medium/49255769768_df55596553_b.jpg","small_url":"https://perenual.com/storage/species_image/2_abies_alba_pyramidalis/small/49255769768_df55596553_b.jpg","thumbnail":"https://perenual.com/storage/species_image/2_abies_alba_pyramidalis/thumbnail/49255769768_df55596553_b.jpg"}},{"id":5216,"common_name":"eulalia","scientific_name":["Miscanthus sinensis 'Silberspinne' SILVER SPIDER"],"other_name":null,"cycle":"Perennial","watering":"Average","sunlight":["Full sun","part shade"],"default_image":{"image_id":9,"license":5,"license_name":"Attribution-ShareAlike License","license_url":"https://creativecommons.org/licenses/by-sa/2.0/","original_url":"https://perenual.com/storage/species_image/2_abies_alba_pyramidalis/og/49255769768_df55596553_b.jpg","regular_url":"https://perenual.com/storage/species_image/2_abies_alba_pyramidalis/regular/49255769768_df55596553_b.jpg","medium_url":"https://perenual.com/storage/species_image/2_abies_alba_pyramidalis/medium/49255769768_df55596553_b.jpg","small_url":"https://perenual.com/storage/species_image/2_abies_alba_pyramidalis/small/49255769768_df55596553_b.jpg","thumbnail":"https://perenual.com/storage/species_image/2_abies_alba_pyramidalis/thumbnail/49255769768_df55596553_b.jpg"}},{"id":5217,"common_name":"eulalia","scientific_name":["Miscanthus sinensis 'Strictus'"],"other_name":null,"cycle":"Perennial","watering":"Average","sunlight":["Full sun"," Part sun/part shade"],"default_image":{"image_id":11062,"license":5,"license_name":"Attribution-ShareAlike License","license_url":"https://creativecommons.org/licenses/by-sa/2.0/","original_url":"https://perenual.com/storage/species_image/5217_miscanthus_sinensis_strictus/og/4886592134_5baa321101_b.jpg","regular_url":"https://perenual.com/storage/species_image/5217_miscanthus_sinensis_strictus/regular/4886592134_5baa321101_b.jpg","medium_url":"https://perenual.com/storage/species_image/5217_miscanthus_sinensis_strictus/medium/4886592134_5baa321101_b.jpg","small_url":"https://perenual.com/storage/species_image/5217_miscanthus_sinensis_strictus/small/4886592134_5baa321101_b.jpg","thumbnail":"https://perenual.com/storage/species_image/5217_miscanthus_sinensis_strictus/thumbnail/4886592134_5baa321101_b.jpg"}},{"id":5218,"common_name":"eulalia","scientific_name":["Miscanthus sinensis var. condensatus 'Cabaret'"],"other_name":null,"cycle":"Perennial","watering":"Average","sunlight":["Full sun","part shade"],"default_image":{"image_id":11063,"license":4,"license_name":"Attribution License","license_url":"https://creativecommons.org/licenses/by/2.0/","original_url":"https://perenual.com/storage/species_image/5218_miscanthus_sinensis_var_condensatus_cabaret/og/45172062801_5a5eab0855_b.jpg","regular_url":"https://perenual.com/storage/species_image/5218_miscanthus_sinensis_var_condensatus_cabaret/regular/45172062801_5a5eab0855_b.jpg","medium_url":"https://perenual.com/storage/species_image/5218_miscanthus_sinensis_var_condensatus_cabaret/medium/45172062801_5a5eab0855_b.jpg","small_url":"https://perenual.com/storage/species_image/5218_miscanthus_sinensis_var_condensatus_cabaret/small/45172062801_5a5eab0855_b.jpg","thumbnail":"https://perenual.com/storage/species_image/5218_miscanthus_sinensis_var_condensatus_cabaret/thumbnail/45172062801_5a5eab0855_b.jpg"}},{"id":5219,"common_name":"eulalia","scientific_name":["Miscanthus sinensis 'Variegatus'"],"other_name":null,"cycle":"Perennial","watering":"Average","sunlight":["Full sun","part shade"],"default_image":{"image_id":11064,"license":5,"license_name":"Attribution-ShareAlike License","license_url":"https://creativecommons.org/licenses/by-sa/2.0/","original_url":"https://perenual.com/storage/species_image/5219_miscanthus_sinensis_variegatus/og/52385898907_a5ce525880_b.jpg","regular_url":"https://perenual.com/storage/species_image/5219_miscanthus_sinensis_variegatus/regular/52385898907_a5ce525880_b.jpg","medium_url":"https://perenual.com/storage/species_image/5219_miscanthus_sinensis_variegatus/medium/52385898907_a5ce525880_b.jpg","small_url":"https://perenual.com/storage/species_image/5219_miscanthus_sinensis_variegatus/small/52385898907_a5ce525880_b.jpg","thumbnail":"https://perenual.com/storage/species_image/5219_miscanthus_sinensis_variegatus/thumbnail/52385898907_a5ce525880_b.jpg"}},{"id":5220,"common_name":"eulalia","scientific_name":["Miscanthus sinensis 'Yaku Jima'"],"other_name":null,"cycle":"Perennial","watering":"Average","sunlight":["Full sun","part shade"],"default_image":{"image_id":11066,"license":5,"license_name":"Attribution-ShareAlike License","license_url":"https://creativecommons.org/licenses/by-sa/2.0/","original_url":"https://perenual.com/storage/species_image/5220_miscanthus_sinensis_yaku_jima/og/52518068605_9651dded0e_b.jpg","regular_url":"https://perenual.com/storage/species_image/5220_miscanthus_sinensis_yaku_jima/regular/52518068605_9651dded0e_b.jpg","medium_url":"https://perenual.com/storage/species_image/5220_miscanthus_sinensis_yaku_jima/medium/52518068605_9651dded0e_b.jpg","small_url":"https://perenual.com/storage/species_image/5220_miscanthus_sinensis_yaku_jima/small/52518068605_9651dded0e_b.jpg","thumbnail":"https://perenual.com/storage/species_image/5220_miscanthus_sinensis_yaku_jima/thumbnail/52518068605_9651dded0e_b.jpg"}}],"to":5220,"per_page":30,"current_page":174,"from":5191,"last_page":200,"total":6000}