{"data":[{"id":451,"common_name":"ivy-leaved maple","scientific_name":["Acer cissifolium"],"other_name":null,"cycle":"Perennial","watering":"Average","sunlight":["Full sun","part shade"],"default_image":{"image_id":966,"license":5,"license_name":"Attribution-ShareAlike License","license_url":"https://creativecommons.org/licenses/by-sa/2.0/","original_url":"https://perenual.com/storage/species_image/451_acer_cissifolium/og/46142753255_d025429d49_b.jpg","regular_url":"https://perenual.com/storage/species_image/451_acer_cissifolium/regular/46142753255_d025429d49_b.jpg","medium_url":"https://perenual.com/storage/species_image/451_acer_cissifolium/medium/46142753255_d025429d49_b.jpg","small_url":"https://perenual.com/storage/species_image/451_acer_cissifolium/small/46142753255_d025429d49_b.jpg","thumbnail":"https://perenual.com/storage/species_image/451_acer_cissifolium/thumbnail/46142753255_d025429d49_b.jpg"}},{"id":452,"common_name":"snakebark maple","scientific_name":["Acer conspicuum 'Phoenix'"],"other_name":null,"cycle":"Perennial","watering":"Average","sunlight":["Part shade"],"default_image":{"image_id":968,"license":5,"license_name":"Attribution-ShareAlike License","license_url":"https://creativecommons.org/licenses/by-sa/2.0/","original_url":"https://perenual.com/storage/species_image/452_acer_conspicuum_phoenix/og/4847364629_825daaff21_b.jpg","regular_url":"https://perenual.com/storage/species_image/452_acer_conspicuum_phoenix/regular/4847364629_825daaff21_b.jpg","medium_url":"https://perenual.com/storage/species_image/452_acer_conspicuum_phoenix/medium/4847364629_825daaff21_b.jpg","small_url":"https://perenual.com/storage/species_image/452_acer_conspicuum_phoenix/small/4847364629_825daaff21_b.jpg","thumbnail":"https://perenual.com/storage/species_image/452_acer_conspicuum_phoenix/thumbnail/4847364629_825daaff21_b.jpg"}},{"id":453,"common_name":"Freeman maple","scientific_name":["Acer freemanii 'Marmo'"],"other_name":null,"cycle":"Perennial","watering":"Frequent","sunlight":["Full sun","part shade"],"default_image":{"image_id":970,"license":4,"license_name":"Attribution License","license_url":"https://creativecommons.org/licenses/by/2.0/","original_url":"https://perenual.com/storage/species_image/454_acer_freemanii_scarsen_scarlet_sentinel/og/46333073481_5ae76108c6_b.jpg","regular_url":"https://perenual.com/storage/species_image/454_acer_freemanii_scarsen_scarlet_sentinel/regular/46333073481_5ae76108c6_b.jpg","medium_url":"https://perenual.com/storage/species_image/454_acer_freemanii_scarsen_scarlet_sentinel/medium/46333073481_5ae76108c6_b.jpg","small_url":"https://perenual.com/storage/species_image/454_acer_freemanii_scarsen_scarlet_sentinel/small/46333073481_5ae76108c6_b.jpg","thumbnail":"https://perenual.com/storage/species_image/454_acer_freemanii_scarsen_scarlet_sentinel/thumbnail/46333073481_5ae76108c6_b.jpg"}},{"id":454,"common_name":"Freeman maple","scientific_name":["Acer freemanii 'Scarsen' SCARLET SENTINEL"],"other_name":null,"cycle":"Perennial","watering":"Frequent","sunlight":["Full sun","part shade"],"default_image":{"image_id":970,"license":4,"license_name":"Attribution License","license_url":"https://creativecommons.org/licenses/by/2.0/","original_url":"https://perenual.com/storage/species_image/454_acer_freemanii_scarsen_scarlet_sentinel/og/46333073481_5ae76108c6_b.jpg","regular_url":"https://perenual.com/storage/species_image/454_acer_freemanii_scarsen_scarlet_sentinel/regular/46333073481_5ae76108c6_b.jpg","medium_url":"https://perenual.com/storage/species_image/454_acer_freemanii_scarsen_scarlet_sentinel/medium/46333073481_5ae76108c6_b.jpg","small_url":"https://perenual.com/storage/species_image/454_acer_freemanii_scarsen_scarlet_sentinel/small/46333073481_5ae76108c6_b.jpg","thumbnail":"https://perenual.com/storage/species_image/454_acer_freemanii_scarsen_scarlet_sentinel/thumbnail/46333073481_5ae76108c6_b.jpg"}},{"id":455,"common_name":"full moon maple","scientific_name":["Acer japonicum 'O-isami'"],"other_name":null,"cycle":"Perennial","watering":"Average","sunlight":["Full sun","part shade"],"default_image":{"image_id":971,"license":5,"license_name":"Attribution-ShareAlike License","license_url":"https://creativecommons.org/licenses/by-sa/2.0/","original_url":"https://perenual.com/storage/species_image/455_acer_japonicum_o-isami/og/40091527453_06fde57c30_b.jpg","regular_url":"https://perenual.com/storage/species_image/455_acer_japonicum_o-isami/regular/40091527453_06fde57c30_b.jpg","medium_url":"https://perenual.com/storage/species_image/455_acer_japonicum_o-isami/medium/40091527453_06fde57c30_b.jpg","small_url":"https://perenual.com/storage/species_image/455_acer_japonicum_o-isami/small/40091527453_06fde57c30_b.jpg","thumbnail":"https://perenual.com/storage/species_image/455_acer_japonicum_o-isami/thumbnail/40091527453_06fde57c30_b.jpg"}},{"id":456,"common_name":"Montpellier maple","scientific_name":["Acer monspessulanum"],"other_name":null,"cycle":"Perennial","watering":"Average","sunlight":["Full sun","part shade"],"default_image":{"image_id":977,"license":5,"license_name":"Attribution-ShareAlike License","license_url":"https://creativecommons.org/licenses/by-sa/2.0/","original_url":"https://perenual.com/storage/species_image/456_acer_monspessulanum/og/37118296615_63394a793d_b.jpg","regular_url":"https://perenual.com/storage/species_image/456_acer_monspessulanum/regular/37118296615_63394a793d_b.jpg","medium_url":"https://perenual.com/storage/species_image/456_acer_monspessulanum/medium/37118296615_63394a793d_b.jpg","small_url":"https://perenual.com/storage/species_image/456_acer_monspessulanum/small/37118296615_63394a793d_b.jpg","thumbnail":"https://perenual.com/storage/species_image/456_acer_monspessulanum/thumbnail/37118296615_63394a793d_b.jpg"}},{"id":457,"common_name":"Japanese maple","scientific_name":["Acer palmatum 'Germaine's Gyration'"],"other_name":null,"cycle":"Perennial","watering":"Average","sunlight":["Full sun","part shade"],"default_image":{"image_id":9,"license":5,"license_name":"Attribution-ShareAlike License","license_url":"https://creativecommons.org/licenses/by-sa/2.0/","original_url":"https://perenual.com/storage/species_image/2_abies_alba_pyramidalis/og/49255769768_df55596553_b.jpg","regular_url":"https://perenual.com/storage/species_image/2_abies_alba_pyramidalis/regular/49255769768_df55596553_b.jpg","medium_url":"https://perenual.com/storage/species_image/2_abies_alba_pyramidalis/medium/49255769768_df55596553_b.jpg","small_url":"https://perenual.com/storage/species_image/2_abies_alba_pyramidalis/small/49255769768_df55596553_b.jpg","thumbnail":"https://perenual.com/storage/species_image/2_abies_alba_pyramidalis/thumbnail/49255769768_df55596553_b.jpg"}},{"id":458,"common_name":"Japanese maple","scientific_name":["Acer palmatum 'Shishio Improved'"],"other_name":null,"cycle":"Perennial","watering":"Average","sunlight":["Full sun","part shade"],"default_image":{"image_id":9,"license":5,"license_name":"Attribution-ShareAlike License","license_url":"https://creativecommons.org/licenses/by-sa/2.0/","original_url":"https://perenual.com/storage/species_image/2_abies_alba_pyramidalis/og/49255769768_df55596553_b.jpg","regular_url":"https://perenual.com/storage/species_image/2_abies_alba_pyramidalis/regular/49255769768_df55596553_b.jpg","medium_url":"https://perenual.com/storage/species_image/2_abies_alba_pyramidalis/medium/49255769768_df55596553_b.jpg","small_url":"https://perenual.com/storage/species_image/2_abies_alba_pyramidalis/small/49255769768_df55596553_b.jpg","thumbnail":"https://perenual.com/storage/species_image/2_abies_alba_pyramidalis/thumbnail/49255769768_df55596553_b.jpg"}},{"id":459,"common_name":"Japanese maple","scientific_name":["Acer palmatum var. dissectum 'Inaba-shidare'"],"other_name":null,"cycle":"Perennial","watering":"Average","sunlight":["Full sun","part shade"],"default_image":{"image_id":9,"license":5,"license_name":"Attribution-ShareAlike License","license_url":"https://creativecommons.org/licenses/by-sa/2.0/","original_url":"https://perenual.com/storage/species_image/2_abies_alba_pyramidalis/og/49255769768_df55596553_b.jpg","regular_url":"https://perenual.com/storage/species_image/2_abies_alba_pyramidalis/regular/49255769768_df55596553_b.jpg","medium_url":"https://perenual.com/storage/species_image/2_abies_alba_pyramidalis/medium/49255769768_df55596553_b.jpg","small_url":"https://perenual.com/storage/species_image/2_abies_alba_pyramidalis/small/49255769768_df55596553_b.jpg","thumbnail":"https://perenual.com/storage/species_image/2_abies_alba_pyramidalis/thumbnail/49255769768_df55596553_b.jpg"}},{"id":460,"common_name":"red maple","scientific_name":["Acer rubrum 'Brandywine'"],"other_name":null,"cycle":"Perennial","watering":"Frequent","sunlight":["Full sun","part shade"],"default_image":{"image_id":9,"license":5,"license_name":"Attribution-ShareAlike License","license_url":"https://creativecommons.org/licenses/by-sa/2.0/","original_url":"https://perenual.com/storage/species_image/2_abies_alba_pyramidalis/og/49255769768_df55596553_b.jpg","regular_url":"https://perenual.com/storage/species_image/2_abies_alba_pyramidalis/regular/49255769768_df55596553_b.jpg","medium_url":"https://perenual.com/storage/species_image/2_abies_alba_pyramidalis/medium/49255769768_df55596553_b.jpg","small_url":"https://perenual.com/storage/species_image/2_abies_alba_pyramidalis/small/49255769768_df55596553_b.jpg","thumbnail":"https://perenual.com/storage/species_image/2_abies_alba_pyramidalis/thumbnail/49255769768_df55596553_b.jpg"}},{"id":461,"common_name":"red maple","scientific_name":["Acer rubrum 'Columnare'"],"other_name":null,"cycle":"Perennial","watering":"Frequent","sunlight":["Full sun","part shade"],"default_image":{"image_id":21156,"license":45,"license_name":"Attribution-ShareAlike 3.0 Unported (CC BY-SA 3.0)","license_url":"https://creativecommons.org/licenses/by-sa/3.0/deed.en","original_url":"https://perenual.com/storage/species_image/461_acer_rubrum_columnare/og/Acer_rubrum_001.jpg","regular_url":"https://perenual.com/storage/species_image/461_acer_rubrum_columnare/regular/Acer_rubrum_001.jpg","medium_url":"https://perenual.com/storage/species_image/461_acer_rubrum_columnare/medium/Acer_rubrum_001.jpg","small_url":"https://perenual.com/storage/species_image/461_acer_rubrum_columnare/small/Acer_rubrum_001.jpg","thumbnail":"https://perenual.com/storage/species_image/461_acer_rubrum_columnare/thumbnail/Acer_rubrum_001.jpg"}},{"id":462,"common_name":"red maple","scientific_name":["Acer rubrum 'Franksred' RED SUNSET"],"other_name":null,"cycle":"Perennial","watering":"Frequent","sunlight":["Full sun","part shade"],"default_image":{"image_id":21064,"license":451,"license_name":"CC0 1.0 Universal (CC0 1.0) Public Domain Dedication","license_url":"https://creativecommons.org/publicdomain/zero/1.0/","original_url":"https://perenual.com/storage/species_image/462_acer_rubrum_franksred_red_sunset/og/tree_leaves_maple_autumn_fall_red_woods_forest-1017374.jpg","regular_url":"https://perenual.com/storage/species_image/462_acer_rubrum_franksred_red_sunset/regular/tree_leaves_maple_autumn_fall_red_woods_forest-1017374.jpg","medium_url":"https://perenual.com/storage/species_image/462_acer_rubrum_franksred_red_sunset/medium/tree_leaves_maple_autumn_fall_red_woods_forest-1017374.jpg","small_url":"https://perenual.com/storage/species_image/462_acer_rubrum_franksred_red_sunset/small/tree_leaves_maple_autumn_fall_red_woods_forest-1017374.jpg","thumbnail":"https://perenual.com/storage/species_image/462_acer_rubrum_franksred_red_sunset/thumbnail/tree_leaves_maple_autumn_fall_red_woods_forest-1017374.jpg"}},{"id":463,"common_name":"red maple","scientific_name":["Acer rubrum 'Karpick'"],"other_name":null,"cycle":"Perennial","watering":"Frequent","sunlight":["Full sun","part shade"],"default_image":{"image_id":9,"license":5,"license_name":"Attribution-ShareAlike License","license_url":"https://creativecommons.org/licenses/by-sa/2.0/","original_url":"https://perenual.com/storage/species_image/2_abies_alba_pyramidalis/og/49255769768_df55596553_b.jpg","regular_url":"https://perenual.com/storage/species_image/2_abies_alba_pyramidalis/regular/49255769768_df55596553_b.jpg","medium_url":"https://perenual.com/storage/species_image/2_abies_alba_pyramidalis/medium/49255769768_df55596553_b.jpg","small_url":"https://perenual.com/storage/species_image/2_abies_alba_pyramidalis/small/49255769768_df55596553_b.jpg","thumbnail":"https://perenual.com/storage/species_image/2_abies_alba_pyramidalis/thumbnail/49255769768_df55596553_b.jpg"}},{"id":464,"common_name":"red maple","scientific_name":["Acer rubrum 'Northwood'"],"other_name":null,"cycle":"Perennial","watering":"Frequent","sunlight":["Full sun","part shade"],"default_image":{"image_id":9,"license":5,"license_name":"Attribution-ShareAlike License","license_url":"https://creativecommons.org/licenses/by-sa/2.0/","original_url":"https://perenual.com/storage/species_image/2_abies_alba_pyramidalis/og/49255769768_df55596553_b.jpg","regular_url":"https://perenual.com/storage/species_image/2_abies_alba_pyramidalis/regular/49255769768_df55596553_b.jpg","medium_url":"https://perenual.com/storage/species_image/2_abies_alba_pyramidalis/medium/49255769768_df55596553_b.jpg","small_url":"https://perenual.com/storage/species_image/2_abies_alba_pyramidalis/small/49255769768_df55596553_b.jpg","thumbnail":"https://perenual.com/storage/species_image/2_abies_alba_pyramidalis/thumbnail/49255769768_df55596553_b.jpg"}},{"id":465,"common_name":"red maple","scientific_name":["Acer rubrum 'October Glory'"],"other_name":null,"cycle":"Perennial","watering":"Frequent","sunlight":["Full sun","part shade"],"default_image":{"image_id":9,"license":5,"license_name":"Attribution-ShareAlike License","license_url":"https://creativecommons.org/licenses/by-sa/2.0/","original_url":"https://perenual.com/storage/species_image/2_abies_alba_pyramidalis/og/49255769768_df55596553_b.jpg","regular_url":"https://perenual.com/storage/species_image/2_abies_alba_pyramidalis/regular/49255769768_df55596553_b.jpg","medium_url":"https://perenual.com/storage/species_image/2_abies_alba_pyramidalis/medium/49255769768_df55596553_b.jpg","small_url":"https://perenual.com/storage/species_image/2_abies_alba_pyramidalis/small/49255769768_df55596553_b.jpg","thumbnail":"https://perenual.com/storage/species_image/2_abies_alba_pyramidalis/thumbnail/49255769768_df55596553_b.jpg"}},{"id":466,"common_name":"silver maple","scientific_name":["Acer saccharinum 'Silver Queen'"],"other_name":null,"cycle":"Perennial","watering":"Frequent","sunlight":["Sun"," Partial Shade"," Shade"],"default_image":{"image_id":21158,"license":45,"license_name":"Attribution-ShareAlike 3.0 Unported (CC BY-SA 3.0)","license_url":"https://creativecommons.org/licenses/by-sa/3.0/deed.en","original_url":"https://perenual.com/storage/species_image/466_acer_saccharinum_silver_queen/og/Acer_Saccharinum_%27Laciniatum%27_JPG2.jpg","regular_url":"https://perenual.com/storage/species_image/466_acer_saccharinum_silver_queen/regular/Acer_Saccharinum_%27Laciniatum%27_JPG2.jpg","medium_url":"https://perenual.com/storage/species_image/466_acer_saccharinum_silver_queen/medium/Acer_Saccharinum_%27Laciniatum%27_JPG2.jpg","small_url":"https://perenual.com/storage/species_image/466_acer_saccharinum_silver_queen/small/Acer_Saccharinum_%27Laciniatum%27_JPG2.jpg","thumbnail":"https://perenual.com/storage/species_image/466_acer_saccharinum_silver_queen/thumbnail/Acer_Saccharinum_%27Laciniatum%27_JPG2.jpg"}},{"id":467,"common_name":"bigtooth maple","scientific_name":["Acer saccharum subsp. grandidentatum"],"other_name":["Hard Maple","Rock Maple","Hard Maple","Bird's Eye Maple","Curly Maple","Sweet Maple","Northern Sugar Maple","Head Maple"],"cycle":"Perennial","watering":"Average","sunlight":["Sun"," Partial Shade"," Shade"],"default_image":{"image_id":991,"license":4,"license_name":"Attribution License","license_url":"https://creativecommons.org/licenses/by/2.0/","original_url":"https://perenual.com/storage/species_image/467_acer_saccharum_subsp_grandidentatum/og/6431690699_b0b58f4dc5_b.jpg","regular_url":"https://perenual.com/storage/species_image/467_acer_saccharum_subsp_grandidentatum/regular/6431690699_b0b58f4dc5_b.jpg","medium_url":"https://perenual.com/storage/species_image/467_acer_saccharum_subsp_grandidentatum/medium/6431690699_b0b58f4dc5_b.jpg","small_url":"https://perenual.com/storage/species_image/467_acer_saccharum_subsp_grandidentatum/small/6431690699_b0b58f4dc5_b.jpg","thumbnail":"https://perenual.com/storage/species_image/467_acer_saccharum_subsp_grandidentatum/thumbnail/6431690699_b0b58f4dc5_b.jpg"}},{"id":468,"common_name":"sugar maple","scientific_name":["Acer saccharum 'Sweet Shadow'"],"other_name":["Hard Maple","Rock Maple","Hard Maple","Bird's Eye Maple","Curly Maple","Sweet Maple","Northern Sugar Maple","Head Maple"],"cycle":"Perennial","watering":"Average","sunlight":["Sun"," Partial Shade"," Shade"],"default_image":{"image_id":992,"license":5,"license_name":"Attribution-ShareAlike License","license_url":"https://creativecommons.org/licenses/by-sa/2.0/","original_url":"https://perenual.com/storage/species_image/468_acer_saccharum_sweet_shadow/og/26470317439_86f0498e17_b.jpg","regular_url":"https://perenual.com/storage/species_image/468_acer_saccharum_sweet_shadow/regular/26470317439_86f0498e17_b.jpg","medium_url":"https://perenual.com/storage/species_image/468_acer_saccharum_sweet_shadow/medium/26470317439_86f0498e17_b.jpg","small_url":"https://perenual.com/storage/species_image/468_acer_saccharum_sweet_shadow/small/26470317439_86f0498e17_b.jpg","thumbnail":"https://perenual.com/storage/species_image/468_acer_saccharum_sweet_shadow/thumbnail/26470317439_86f0498e17_b.jpg"}},{"id":469,"common_name":"Amur maple","scientific_name":["Acer tataricum subsp. ginnala 'Mandy' RED RHAPSODY"],"other_name":null,"cycle":"Perennial","watering":"Frequent","sunlight":[],"default_image":{"image_id":59,"license":4,"license_name":"Attribution License","license_url":"https://creativecommons.org/licenses/by/2.0/","original_url":"https://perenual.com/storage/species_image/12_acer_ginnala/og/52134549579_196756d109_b.jpg","regular_url":"https://perenual.com/storage/species_image/12_acer_ginnala/regular/52134549579_196756d109_b.jpg","medium_url":"https://perenual.com/storage/species_image/12_acer_ginnala/medium/52134549579_196756d109_b.jpg","small_url":"https://perenual.com/storage/species_image/12_acer_ginnala/small/52134549579_196756d109_b.jpg","thumbnail":"https://perenual.com/storage/species_image/12_acer_ginnala/thumbnail/52134549579_196756d109_b.jpg"}},{"id":470,"common_name":"shantung maple","scientific_name":["Acer truncatum"],"other_name":null,"cycle":"Perennial","watering":"Average","sunlight":["Full sun","part shade"],"default_image":{"image_id":995,"license":5,"license_name":"Attribution-ShareAlike License","license_url":"https://creativecommons.org/licenses/by-sa/2.0/","original_url":"https://perenual.com/storage/species_image/470_acer_truncatum/og/40480028000_557e582fb3_b.jpg","regular_url":"https://perenual.com/storage/species_image/470_acer_truncatum/regular/40480028000_557e582fb3_b.jpg","medium_url":"https://perenual.com/storage/species_image/470_acer_truncatum/medium/40480028000_557e582fb3_b.jpg","small_url":"https://perenual.com/storage/species_image/470_acer_truncatum/small/40480028000_557e582fb3_b.jpg","thumbnail":"https://perenual.com/storage/species_image/470_acer_truncatum/thumbnail/40480028000_557e582fb3_b.jpg"}},{"id":471,"common_name":"yarrow","scientific_name":["Achillea 'Anblo' ANTHEA"],"other_name":null,"cycle":"Perennial","watering":"Minimum","sunlight":["Full sun"],"default_image":{"image_id":21159,"license":45,"license_name":"Attribution-ShareAlike 3.0 Unported (CC BY-SA 3.0)","license_url":"https://creativecommons.org/licenses/by-sa/3.0/deed.en","original_url":"https://perenual.com/storage/species_image/471_achillea_anblo_anthea/og/Achillea_-_Civanper%C3%A7emi_01.jpg","regular_url":"https://perenual.com/storage/species_image/471_achillea_anblo_anthea/regular/Achillea_-_Civanper%C3%A7emi_01.jpg","medium_url":"https://perenual.com/storage/species_image/471_achillea_anblo_anthea/medium/Achillea_-_Civanper%C3%A7emi_01.jpg","small_url":"https://perenual.com/storage/species_image/471_achillea_anblo_anthea/small/Achillea_-_Civanper%C3%A7emi_01.jpg","thumbnail":"https://perenual.com/storage/species_image/471_achillea_anblo_anthea/thumbnail/Achillea_-_Civanper%C3%A7emi_01.jpg"}},{"id":472,"common_name":"yarrow","scientific_name":["Achillea 'Apfelblute' APPLEBLOSSOM"],"other_name":null,"cycle":"Perennial","watering":"Minimum","sunlight":["Full sun"],"default_image":{"image_id":21160,"license":45,"license_name":"Attribution-ShareAlike 3.0 Unported (CC BY-SA 3.0)","license_url":"https://creativecommons.org/licenses/by-sa/3.0/deed.en","original_url":"https://perenual.com/storage/species_image/472_achillea_apfelblute_appleblossom/og/Achillea_%27Rosea%27_01.jpg","regular_url":"https://perenual.com/storage/species_image/472_achillea_apfelblute_appleblossom/regular/Achillea_%27Rosea%27_01.jpg","medium_url":"https://perenual.com/storage/species_image/472_achillea_apfelblute_appleblossom/medium/Achillea_%27Rosea%27_01.jpg","small_url":"https://perenual.com/storage/species_image/472_achillea_apfelblute_appleblossom/small/Achillea_%27Rosea%27_01.jpg","thumbnail":"https://perenual.com/storage/species_image/472_achillea_apfelblute_appleblossom/thumbnail/Achillea_%27Rosea%27_01.jpg"}},{"id":473,"common_name":"Alps yarrow","scientific_name":["Achillea distans"],"other_name":null,"cycle":"Perennial","watering":"Minimum","sunlight":[],"default_image":{"image_id":999,"license":5,"license_name":"Attribution-ShareAlike License","license_url":"https://creativecommons.org/licenses/by-sa/2.0/","original_url":"https://perenual.com/storage/species_image/499_achillea_terracotta/og/51814554903_89600efb50_b.jpg","regular_url":"https://perenual.com/storage/species_image/499_achillea_terracotta/regular/51814554903_89600efb50_b.jpg","medium_url":"https://perenual.com/storage/species_image/499_achillea_terracotta/medium/51814554903_89600efb50_b.jpg","small_url":"https://perenual.com/storage/species_image/499_achillea_terracotta/small/51814554903_89600efb50_b.jpg","thumbnail":"https://perenual.com/storage/species_image/499_achillea_terracotta/thumbnail/51814554903_89600efb50_b.jpg"}},{"id":474,"common_name":"fern-leaf yarrow","scientific_name":["Achillea filipendulina"],"other_name":null,"cycle":"Perennial","watering":"Minimum","sunlight":["Full sun"],"default_image":{"image_id":1001,"license":4,"license_name":"Attribution License","license_url":"https://creativecommons.org/licenses/by/2.0/","original_url":"https://perenual.com/storage/species_image/474_achillea_filipendulina/og/50259114981_03ab5bfe29_b.jpg","regular_url":"https://perenual.com/storage/species_image/474_achillea_filipendulina/regular/50259114981_03ab5bfe29_b.jpg","medium_url":"https://perenual.com/storage/species_image/474_achillea_filipendulina/medium/50259114981_03ab5bfe29_b.jpg","small_url":"https://perenual.com/storage/species_image/474_achillea_filipendulina/small/50259114981_03ab5bfe29_b.jpg","thumbnail":"https://perenual.com/storage/species_image/474_achillea_filipendulina/thumbnail/50259114981_03ab5bfe29_b.jpg"}},{"id":475,"common_name":"fern-leaf yarrow","scientific_name":["Achillea filipendulina 'Altgold'"],"other_name":null,"cycle":"Perennial","watering":"Minimum","sunlight":["Full sun"],"default_image":{"image_id":9,"license":5,"license_name":"Attribution-ShareAlike License","license_url":"https://creativecommons.org/licenses/by-sa/2.0/","original_url":"https://perenual.com/storage/species_image/2_abies_alba_pyramidalis/og/49255769768_df55596553_b.jpg","regular_url":"https://perenual.com/storage/species_image/2_abies_alba_pyramidalis/regular/49255769768_df55596553_b.jpg","medium_url":"https://perenual.com/storage/species_image/2_abies_alba_pyramidalis/medium/49255769768_df55596553_b.jpg","small_url":"https://perenual.com/storage/species_image/2_abies_alba_pyramidalis/small/49255769768_df55596553_b.jpg","thumbnail":"https://perenual.com/storage/species_image/2_abies_alba_pyramidalis/thumbnail/49255769768_df55596553_b.jpg"}},{"id":476,"common_name":"fern-leaf yarrow","scientific_name":["Achillea filipendulina 'Gold Coin Dwarf'"],"other_name":null,"cycle":"Perennial","watering":"Minimum","sunlight":["Full sun"],"default_image":{"image_id":1008,"license":4,"license_name":"Attribution License","license_url":"https://creativecommons.org/licenses/by/2.0/","original_url":"https://perenual.com/storage/species_image/476_achillea_filipendulina_gold_coin_dwarf/og/2726528020_33fe12b8be_b.jpg","regular_url":"https://perenual.com/storage/species_image/476_achillea_filipendulina_gold_coin_dwarf/regular/2726528020_33fe12b8be_b.jpg","medium_url":"https://perenual.com/storage/species_image/476_achillea_filipendulina_gold_coin_dwarf/medium/2726528020_33fe12b8be_b.jpg","small_url":"https://perenual.com/storage/species_image/476_achillea_filipendulina_gold_coin_dwarf/small/2726528020_33fe12b8be_b.jpg","thumbnail":"https://perenual.com/storage/species_image/476_achillea_filipendulina_gold_coin_dwarf/thumbnail/2726528020_33fe12b8be_b.jpg"}},{"id":477,"common_name":"fern-leaf yarrow","scientific_name":["Achillea filipendulina 'Gold Plate'"],"other_name":null,"cycle":"Perennial","watering":"Minimum","sunlight":["Full sun"],"default_image":{"image_id":1009,"license":5,"license_name":"Attribution-ShareAlike License","license_url":"https://creativecommons.org/licenses/by-sa/2.0/","original_url":"https://perenual.com/storage/species_image/477_achillea_filipendulina_gold_plate/og/9216112258_9174c74775_b.jpg","regular_url":"https://perenual.com/storage/species_image/477_achillea_filipendulina_gold_plate/regular/9216112258_9174c74775_b.jpg","medium_url":"https://perenual.com/storage/species_image/477_achillea_filipendulina_gold_plate/medium/9216112258_9174c74775_b.jpg","small_url":"https://perenual.com/storage/species_image/477_achillea_filipendulina_gold_plate/small/9216112258_9174c74775_b.jpg","thumbnail":"https://perenual.com/storage/species_image/477_achillea_filipendulina_gold_plate/thumbnail/9216112258_9174c74775_b.jpg"}},{"id":478,"common_name":"fern-leaf yarrow","scientific_name":["Achillea filipendulina 'Parker's Variety'"],"other_name":null,"cycle":"Perennial","watering":"Minimum","sunlight":["Full sun"],"default_image":{"image_id":1012,"license":4,"license_name":"Attribution License","license_url":"https://creativecommons.org/licenses/by/2.0/","original_url":"https://perenual.com/storage/species_image/478_achillea_filipendulina_parkers_variety/og/49688851782_d2a195b73b_b.jpg","regular_url":"https://perenual.com/storage/species_image/478_achillea_filipendulina_parkers_variety/regular/49688851782_d2a195b73b_b.jpg","medium_url":"https://perenual.com/storage/species_image/478_achillea_filipendulina_parkers_variety/medium/49688851782_d2a195b73b_b.jpg","small_url":"https://perenual.com/storage/species_image/478_achillea_filipendulina_parkers_variety/small/49688851782_d2a195b73b_b.jpg","thumbnail":"https://perenual.com/storage/species_image/478_achillea_filipendulina_parkers_variety/thumbnail/49688851782_d2a195b73b_b.jpg"}},{"id":479,"common_name":"yarrow","scientific_name":["Achillea millefolium"],"other_name":null,"cycle":"Perennial","watering":"Minimum","sunlight":["Full sun"],"default_image":{"image_id":1014,"license":4,"license_name":"Attribution License","license_url":"https://creativecommons.org/licenses/by/2.0/","original_url":"https://perenual.com/storage/species_image/479_achillea_millefolium/og/52617047466_2ee6178774_b.jpg","regular_url":"https://perenual.com/storage/species_image/479_achillea_millefolium/regular/52617047466_2ee6178774_b.jpg","medium_url":"https://perenual.com/storage/species_image/479_achillea_millefolium/medium/52617047466_2ee6178774_b.jpg","small_url":"https://perenual.com/storage/species_image/479_achillea_millefolium/small/52617047466_2ee6178774_b.jpg","thumbnail":"https://perenual.com/storage/species_image/479_achillea_millefolium/thumbnail/52617047466_2ee6178774_b.jpg"}},{"id":480,"common_name":"yarrow","scientific_name":["Achillea millefolium 'ACBZ0002' LITTLE MOONSHINE"],"other_name":null,"cycle":"Perennial","watering":"Minimum","sunlight":["Full sun"],"default_image":{"image_id":9,"license":5,"license_name":"Attribution-ShareAlike License","license_url":"https://creativecommons.org/licenses/by-sa/2.0/","original_url":"https://perenual.com/storage/species_image/2_abies_alba_pyramidalis/og/49255769768_df55596553_b.jpg","regular_url":"https://perenual.com/storage/species_image/2_abies_alba_pyramidalis/regular/49255769768_df55596553_b.jpg","medium_url":"https://perenual.com/storage/species_image/2_abies_alba_pyramidalis/medium/49255769768_df55596553_b.jpg","small_url":"https://perenual.com/storage/species_image/2_abies_alba_pyramidalis/small/49255769768_df55596553_b.jpg","thumbnail":"https://perenual.com/storage/species_image/2_abies_alba_pyramidalis/thumbnail/49255769768_df55596553_b.jpg"}}],"to":480,"per_page":30,"current_page":16,"from":451,"last_page":200,"total":6000}