{"data":[{"id":5761,"common_name":"African feather grass","scientific_name":["Pennisetum macrourum"],"other_name":null,"cycle":"Perennial","watering":"Average","sunlight":["Full sun","part shade"],"default_image":{"image_id":9,"license":5,"license_name":"Attribution-ShareAlike License","license_url":"https://creativecommons.org/licenses/by-sa/2.0/","original_url":"https://perenual.com/storage/species_image/2_abies_alba_pyramidalis/og/49255769768_df55596553_b.jpg","regular_url":"https://perenual.com/storage/species_image/2_abies_alba_pyramidalis/regular/49255769768_df55596553_b.jpg","medium_url":"https://perenual.com/storage/species_image/2_abies_alba_pyramidalis/medium/49255769768_df55596553_b.jpg","small_url":"https://perenual.com/storage/species_image/2_abies_alba_pyramidalis/small/49255769768_df55596553_b.jpg","thumbnail":"https://perenual.com/storage/species_image/2_abies_alba_pyramidalis/thumbnail/49255769768_df55596553_b.jpg"}},{"id":5762,"common_name":"fountain grass","scientific_name":["Pennisetum messiacum 'Red Bunny Tails'"],"other_name":null,"cycle":"Perennial","watering":"Average","sunlight":["Full sun","part shade"],"default_image":{"image_id":9,"license":5,"license_name":"Attribution-ShareAlike License","license_url":"https://creativecommons.org/licenses/by-sa/2.0/","original_url":"https://perenual.com/storage/species_image/2_abies_alba_pyramidalis/og/49255769768_df55596553_b.jpg","regular_url":"https://perenual.com/storage/species_image/2_abies_alba_pyramidalis/regular/49255769768_df55596553_b.jpg","medium_url":"https://perenual.com/storage/species_image/2_abies_alba_pyramidalis/medium/49255769768_df55596553_b.jpg","small_url":"https://perenual.com/storage/species_image/2_abies_alba_pyramidalis/small/49255769768_df55596553_b.jpg","thumbnail":"https://perenual.com/storage/species_image/2_abies_alba_pyramidalis/thumbnail/49255769768_df55596553_b.jpg"}},{"id":5763,"common_name":"oriental fountain grass","scientific_name":["Pennisetum orientale 'Karley Rose'"],"other_name":null,"cycle":"Perennial","watering":"Average","sunlight":["Full sun"],"default_image":{"image_id":11601,"license":4,"license_name":"Attribution License","license_url":"https://creativecommons.org/licenses/by/2.0/","original_url":"https://perenual.com/storage/species_image/5763_pennisetum_orientale_karley_rose/og/6062684744_7a6cc398e3_b.jpg","regular_url":"https://perenual.com/storage/species_image/5763_pennisetum_orientale_karley_rose/regular/6062684744_7a6cc398e3_b.jpg","medium_url":"https://perenual.com/storage/species_image/5763_pennisetum_orientale_karley_rose/medium/6062684744_7a6cc398e3_b.jpg","small_url":"https://perenual.com/storage/species_image/5763_pennisetum_orientale_karley_rose/small/6062684744_7a6cc398e3_b.jpg","thumbnail":"https://perenual.com/storage/species_image/5763_pennisetum_orientale_karley_rose/thumbnail/6062684744_7a6cc398e3_b.jpg"}},{"id":5764,"common_name":"fountain grass","scientific_name":["Pennisetum orientale 'Tall Tails'"],"other_name":null,"cycle":"Perennial","watering":"Average","sunlight":["Full sun"],"default_image":{"image_id":9,"license":5,"license_name":"Attribution-ShareAlike License","license_url":"https://creativecommons.org/licenses/by-sa/2.0/","original_url":"https://perenual.com/storage/species_image/2_abies_alba_pyramidalis/og/49255769768_df55596553_b.jpg","regular_url":"https://perenual.com/storage/species_image/2_abies_alba_pyramidalis/regular/49255769768_df55596553_b.jpg","medium_url":"https://perenual.com/storage/species_image/2_abies_alba_pyramidalis/medium/49255769768_df55596553_b.jpg","small_url":"https://perenual.com/storage/species_image/2_abies_alba_pyramidalis/small/49255769768_df55596553_b.jpg","thumbnail":"https://perenual.com/storage/species_image/2_abies_alba_pyramidalis/thumbnail/49255769768_df55596553_b.jpg"}},{"id":5765,"common_name":"elephant grass","scientific_name":["Pennisetum purpureum"],"other_name":null,"cycle":"Perennial","watering":"Average","sunlight":["Full sun"],"default_image":{"image_id":9,"license":5,"license_name":"Attribution-ShareAlike License","license_url":"https://creativecommons.org/licenses/by-sa/2.0/","original_url":"https://perenual.com/storage/species_image/2_abies_alba_pyramidalis/og/49255769768_df55596553_b.jpg","regular_url":"https://perenual.com/storage/species_image/2_abies_alba_pyramidalis/regular/49255769768_df55596553_b.jpg","medium_url":"https://perenual.com/storage/species_image/2_abies_alba_pyramidalis/medium/49255769768_df55596553_b.jpg","small_url":"https://perenual.com/storage/species_image/2_abies_alba_pyramidalis/small/49255769768_df55596553_b.jpg","thumbnail":"https://perenual.com/storage/species_image/2_abies_alba_pyramidalis/thumbnail/49255769768_df55596553_b.jpg"}},{"id":5766,"common_name":"elephant grass","scientific_name":["Pennisetum purpureum 'Prince'"],"other_name":null,"cycle":"Perennial","watering":"Average","sunlight":["Full sun"],"default_image":{"image_id":9,"license":5,"license_name":"Attribution-ShareAlike License","license_url":"https://creativecommons.org/licenses/by-sa/2.0/","original_url":"https://perenual.com/storage/species_image/2_abies_alba_pyramidalis/og/49255769768_df55596553_b.jpg","regular_url":"https://perenual.com/storage/species_image/2_abies_alba_pyramidalis/regular/49255769768_df55596553_b.jpg","medium_url":"https://perenual.com/storage/species_image/2_abies_alba_pyramidalis/medium/49255769768_df55596553_b.jpg","small_url":"https://perenual.com/storage/species_image/2_abies_alba_pyramidalis/small/49255769768_df55596553_b.jpg","thumbnail":"https://perenual.com/storage/species_image/2_abies_alba_pyramidalis/thumbnail/49255769768_df55596553_b.jpg"}},{"id":5767,"common_name":"elephant grass","scientific_name":["Pennisetum purpureum 'Princess'"],"other_name":null,"cycle":"Perennial","watering":"Average","sunlight":["Full sun"],"default_image":{"image_id":9,"license":5,"license_name":"Attribution-ShareAlike License","license_url":"https://creativecommons.org/licenses/by-sa/2.0/","original_url":"https://perenual.com/storage/species_image/2_abies_alba_pyramidalis/og/49255769768_df55596553_b.jpg","regular_url":"https://perenual.com/storage/species_image/2_abies_alba_pyramidalis/regular/49255769768_df55596553_b.jpg","medium_url":"https://perenual.com/storage/species_image/2_abies_alba_pyramidalis/medium/49255769768_df55596553_b.jpg","small_url":"https://perenual.com/storage/species_image/2_abies_alba_pyramidalis/small/49255769768_df55596553_b.jpg","thumbnail":"https://perenual.com/storage/species_image/2_abies_alba_pyramidalis/thumbnail/49255769768_df55596553_b.jpg"}},{"id":5768,"common_name":"crimson fountaingrass","scientific_name":["Pennisetum setaceum"],"other_name":null,"cycle":"Perennial","watering":"Average","sunlight":["Full sun","part shade"],"default_image":{"image_id":11602,"license":4,"license_name":"Attribution License","license_url":"https://creativecommons.org/licenses/by/2.0/","original_url":"https://perenual.com/storage/species_image/5768_pennisetum_setaceum/og/31400878221_7744f33667_b.jpg","regular_url":"https://perenual.com/storage/species_image/5768_pennisetum_setaceum/regular/31400878221_7744f33667_b.jpg","medium_url":"https://perenual.com/storage/species_image/5768_pennisetum_setaceum/medium/31400878221_7744f33667_b.jpg","small_url":"https://perenual.com/storage/species_image/5768_pennisetum_setaceum/small/31400878221_7744f33667_b.jpg","thumbnail":"https://perenual.com/storage/species_image/5768_pennisetum_setaceum/thumbnail/31400878221_7744f33667_b.jpg"}},{"id":5769,"common_name":"fountain grass","scientific_name":["Pennisetum setaceum 'Fireworks'"],"other_name":null,"cycle":"Perennial","watering":"Average","sunlight":["Full sun","part shade"],"default_image":{"image_id":9,"license":5,"license_name":"Attribution-ShareAlike License","license_url":"https://creativecommons.org/licenses/by-sa/2.0/","original_url":"https://perenual.com/storage/species_image/2_abies_alba_pyramidalis/og/49255769768_df55596553_b.jpg","regular_url":"https://perenual.com/storage/species_image/2_abies_alba_pyramidalis/regular/49255769768_df55596553_b.jpg","medium_url":"https://perenual.com/storage/species_image/2_abies_alba_pyramidalis/medium/49255769768_df55596553_b.jpg","small_url":"https://perenual.com/storage/species_image/2_abies_alba_pyramidalis/small/49255769768_df55596553_b.jpg","thumbnail":"https://perenual.com/storage/species_image/2_abies_alba_pyramidalis/thumbnail/49255769768_df55596553_b.jpg"}},{"id":5770,"common_name":"fountain grass","scientific_name":["Pennisetum setaceum 'Red Riding Hood'"],"other_name":null,"cycle":"Perennial","watering":"Average","sunlight":["Full sun","part shade"],"default_image":{"image_id":9,"license":5,"license_name":"Attribution-ShareAlike License","license_url":"https://creativecommons.org/licenses/by-sa/2.0/","original_url":"https://perenual.com/storage/species_image/2_abies_alba_pyramidalis/og/49255769768_df55596553_b.jpg","regular_url":"https://perenual.com/storage/species_image/2_abies_alba_pyramidalis/regular/49255769768_df55596553_b.jpg","medium_url":"https://perenual.com/storage/species_image/2_abies_alba_pyramidalis/medium/49255769768_df55596553_b.jpg","small_url":"https://perenual.com/storage/species_image/2_abies_alba_pyramidalis/small/49255769768_df55596553_b.jpg","thumbnail":"https://perenual.com/storage/species_image/2_abies_alba_pyramidalis/thumbnail/49255769768_df55596553_b.jpg"}},{"id":5771,"common_name":"fountain grass","scientific_name":["Pennisetum setaceum 'Rubrum'"],"other_name":null,"cycle":"Perennial","watering":"Average","sunlight":["Full sun","part shade"],"default_image":{"image_id":11606,"license":4,"license_name":"Attribution License","license_url":"https://creativecommons.org/licenses/by/2.0/","original_url":"https://perenual.com/storage/species_image/5771_pennisetum_setaceum_rubrum/og/50513584173_1421f082bd_b.jpg","regular_url":"https://perenual.com/storage/species_image/5771_pennisetum_setaceum_rubrum/regular/50513584173_1421f082bd_b.jpg","medium_url":"https://perenual.com/storage/species_image/5771_pennisetum_setaceum_rubrum/medium/50513584173_1421f082bd_b.jpg","small_url":"https://perenual.com/storage/species_image/5771_pennisetum_setaceum_rubrum/small/50513584173_1421f082bd_b.jpg","thumbnail":"https://perenual.com/storage/species_image/5771_pennisetum_setaceum_rubrum/thumbnail/50513584173_1421f082bd_b.jpg"}},{"id":5772,"common_name":"fountain grass","scientific_name":["Pennisetum setaceum 'Sky Rocket'"],"other_name":null,"cycle":"Perennial","watering":"Average","sunlight":["Full sun","part shade"],"default_image":{"image_id":9,"license":5,"license_name":"Attribution-ShareAlike License","license_url":"https://creativecommons.org/licenses/by-sa/2.0/","original_url":"https://perenual.com/storage/species_image/2_abies_alba_pyramidalis/og/49255769768_df55596553_b.jpg","regular_url":"https://perenual.com/storage/species_image/2_abies_alba_pyramidalis/regular/49255769768_df55596553_b.jpg","medium_url":"https://perenual.com/storage/species_image/2_abies_alba_pyramidalis/medium/49255769768_df55596553_b.jpg","small_url":"https://perenual.com/storage/species_image/2_abies_alba_pyramidalis/small/49255769768_df55596553_b.jpg","thumbnail":"https://perenual.com/storage/species_image/2_abies_alba_pyramidalis/thumbnail/49255769768_df55596553_b.jpg"}},{"id":5773,"common_name":"elephant grass","scientific_name":["Pennisetum 'Tift 8' GRACEFUL GRASSES VERTIGO"],"other_name":null,"cycle":"Perennial","watering":"Average","sunlight":["Full sun"],"default_image":{"image_id":9,"license":5,"license_name":"Attribution-ShareAlike License","license_url":"https://creativecommons.org/licenses/by-sa/2.0/","original_url":"https://perenual.com/storage/species_image/2_abies_alba_pyramidalis/og/49255769768_df55596553_b.jpg","regular_url":"https://perenual.com/storage/species_image/2_abies_alba_pyramidalis/regular/49255769768_df55596553_b.jpg","medium_url":"https://perenual.com/storage/species_image/2_abies_alba_pyramidalis/medium/49255769768_df55596553_b.jpg","small_url":"https://perenual.com/storage/species_image/2_abies_alba_pyramidalis/small/49255769768_df55596553_b.jpg","thumbnail":"https://perenual.com/storage/species_image/2_abies_alba_pyramidalis/thumbnail/49255769768_df55596553_b.jpg"}},{"id":5774,"common_name":"bearded penstemon","scientific_name":["Penstemon barbatus"],"other_name":null,"cycle":"Perennial","watering":"Minimum","sunlight":["Full sun"],"default_image":{"image_id":11610,"license":5,"license_name":"Attribution-ShareAlike License","license_url":"https://creativecommons.org/licenses/by-sa/2.0/","original_url":"https://perenual.com/storage/species_image/5774_penstemon_barbatus/og/9190632295_56eaba3fdc_b.jpg","regular_url":"https://perenual.com/storage/species_image/5774_penstemon_barbatus/regular/9190632295_56eaba3fdc_b.jpg","medium_url":"https://perenual.com/storage/species_image/5774_penstemon_barbatus/medium/9190632295_56eaba3fdc_b.jpg","small_url":"https://perenual.com/storage/species_image/5774_penstemon_barbatus/small/9190632295_56eaba3fdc_b.jpg","thumbnail":"https://perenual.com/storage/species_image/5774_penstemon_barbatus/thumbnail/9190632295_56eaba3fdc_b.jpg"}},{"id":5775,"common_name":"bearded penstemon","scientific_name":["Penstemon barbatus 'Elfin Pink'"],"other_name":null,"cycle":"Perennial","watering":"Minimum","sunlight":["Full sun"],"default_image":{"image_id":9,"license":5,"license_name":"Attribution-ShareAlike License","license_url":"https://creativecommons.org/licenses/by-sa/2.0/","original_url":"https://perenual.com/storage/species_image/2_abies_alba_pyramidalis/og/49255769768_df55596553_b.jpg","regular_url":"https://perenual.com/storage/species_image/2_abies_alba_pyramidalis/regular/49255769768_df55596553_b.jpg","medium_url":"https://perenual.com/storage/species_image/2_abies_alba_pyramidalis/medium/49255769768_df55596553_b.jpg","small_url":"https://perenual.com/storage/species_image/2_abies_alba_pyramidalis/small/49255769768_df55596553_b.jpg","thumbnail":"https://perenual.com/storage/species_image/2_abies_alba_pyramidalis/thumbnail/49255769768_df55596553_b.jpg"}},{"id":5776,"common_name":"bearded penstemon","scientific_name":["Penstemon barbatus 'Jingle Bells'"],"other_name":null,"cycle":"Perennial","watering":"Minimum","sunlight":["Full sun"],"default_image":{"image_id":9,"license":5,"license_name":"Attribution-ShareAlike License","license_url":"https://creativecommons.org/licenses/by-sa/2.0/","original_url":"https://perenual.com/storage/species_image/2_abies_alba_pyramidalis/og/49255769768_df55596553_b.jpg","regular_url":"https://perenual.com/storage/species_image/2_abies_alba_pyramidalis/regular/49255769768_df55596553_b.jpg","medium_url":"https://perenual.com/storage/species_image/2_abies_alba_pyramidalis/medium/49255769768_df55596553_b.jpg","small_url":"https://perenual.com/storage/species_image/2_abies_alba_pyramidalis/small/49255769768_df55596553_b.jpg","thumbnail":"https://perenual.com/storage/species_image/2_abies_alba_pyramidalis/thumbnail/49255769768_df55596553_b.jpg"}},{"id":5777,"common_name":"bearded penstemon","scientific_name":["Penstemon barbatus subsp. coccineus"],"other_name":null,"cycle":"Perennial","watering":"Minimum","sunlight":["Full sun"],"default_image":{"image_id":9,"license":5,"license_name":"Attribution-ShareAlike License","license_url":"https://creativecommons.org/licenses/by-sa/2.0/","original_url":"https://perenual.com/storage/species_image/2_abies_alba_pyramidalis/og/49255769768_df55596553_b.jpg","regular_url":"https://perenual.com/storage/species_image/2_abies_alba_pyramidalis/regular/49255769768_df55596553_b.jpg","medium_url":"https://perenual.com/storage/species_image/2_abies_alba_pyramidalis/medium/49255769768_df55596553_b.jpg","small_url":"https://perenual.com/storage/species_image/2_abies_alba_pyramidalis/small/49255769768_df55596553_b.jpg","thumbnail":"https://perenual.com/storage/species_image/2_abies_alba_pyramidalis/thumbnail/49255769768_df55596553_b.jpg"}},{"id":5778,"common_name":"beardtongue","scientific_name":["Penstemon caespitosus"],"other_name":null,"cycle":"Perennial","watering":"Minimum","sunlight":["Full sun"],"default_image":{"image_id":11612,"license":4,"license_name":"Attribution License","license_url":"https://creativecommons.org/licenses/by/2.0/","original_url":"https://perenual.com/storage/species_image/5778_penstemon_caespitosus/og/10550837836_d400819d99_b.jpg","regular_url":"https://perenual.com/storage/species_image/5778_penstemon_caespitosus/regular/10550837836_d400819d99_b.jpg","medium_url":"https://perenual.com/storage/species_image/5778_penstemon_caespitosus/medium/10550837836_d400819d99_b.jpg","small_url":"https://perenual.com/storage/species_image/5778_penstemon_caespitosus/small/10550837836_d400819d99_b.jpg","thumbnail":"https://perenual.com/storage/species_image/5778_penstemon_caespitosus/thumbnail/10550837836_d400819d99_b.jpg"}},{"id":5779,"common_name":"bellflower beardtongue","scientific_name":["Penstemon campanulatus"],"other_name":null,"cycle":"Perennial","watering":"Minimum","sunlight":["Full sun"],"default_image":{"image_id":11613,"license":4,"license_name":"Attribution License","license_url":"https://creativecommons.org/licenses/by/2.0/","original_url":"https://perenual.com/storage/species_image/5779_penstemon_campanulatus/og/51417879604_43dc21e0f7_b.jpg","regular_url":"https://perenual.com/storage/species_image/5779_penstemon_campanulatus/regular/51417879604_43dc21e0f7_b.jpg","medium_url":"https://perenual.com/storage/species_image/5779_penstemon_campanulatus/medium/51417879604_43dc21e0f7_b.jpg","small_url":"https://perenual.com/storage/species_image/5779_penstemon_campanulatus/small/51417879604_43dc21e0f7_b.jpg","thumbnail":"https://perenual.com/storage/species_image/5779_penstemon_campanulatus/thumbnail/51417879604_43dc21e0f7_b.jpg"}},{"id":5780,"common_name":"beardtongue","scientific_name":["Penstemon canescens"],"other_name":null,"cycle":"Perennial","watering":"Minimum","sunlight":["Full sun"],"default_image":{"image_id":11614,"license":4,"license_name":"Attribution License","license_url":"https://creativecommons.org/licenses/by/2.0/","original_url":"https://perenual.com/storage/species_image/5780_penstemon_canescens/og/4690003958_e0f85d4597_b.jpg","regular_url":"https://perenual.com/storage/species_image/5780_penstemon_canescens/regular/4690003958_e0f85d4597_b.jpg","medium_url":"https://perenual.com/storage/species_image/5780_penstemon_canescens/medium/4690003958_e0f85d4597_b.jpg","small_url":"https://perenual.com/storage/species_image/5780_penstemon_canescens/small/4690003958_e0f85d4597_b.jpg","thumbnail":"https://perenual.com/storage/species_image/5780_penstemon_canescens/thumbnail/4690003958_e0f85d4597_b.jpg"}},{"id":5781,"common_name":"dew flower","scientific_name":["Penstemon cobaea"],"other_name":null,"cycle":"Perennial","watering":"Minimum","sunlight":["Full sun"],"default_image":{"image_id":9,"license":5,"license_name":"Attribution-ShareAlike License","license_url":"https://creativecommons.org/licenses/by-sa/2.0/","original_url":"https://perenual.com/storage/species_image/2_abies_alba_pyramidalis/og/49255769768_df55596553_b.jpg","regular_url":"https://perenual.com/storage/species_image/2_abies_alba_pyramidalis/regular/49255769768_df55596553_b.jpg","medium_url":"https://perenual.com/storage/species_image/2_abies_alba_pyramidalis/medium/49255769768_df55596553_b.jpg","small_url":"https://perenual.com/storage/species_image/2_abies_alba_pyramidalis/small/49255769768_df55596553_b.jpg","thumbnail":"https://perenual.com/storage/species_image/2_abies_alba_pyramidalis/thumbnail/49255769768_df55596553_b.jpg"}},{"id":5782,"common_name":"dew flower","scientific_name":["Penstemon cobaea var. purpureus"],"other_name":null,"cycle":"Perennial","watering":"Minimum","sunlight":["Full sun"],"default_image":{"image_id":9,"license":5,"license_name":"Attribution-ShareAlike License","license_url":"https://creativecommons.org/licenses/by-sa/2.0/","original_url":"https://perenual.com/storage/species_image/2_abies_alba_pyramidalis/og/49255769768_df55596553_b.jpg","regular_url":"https://perenual.com/storage/species_image/2_abies_alba_pyramidalis/regular/49255769768_df55596553_b.jpg","medium_url":"https://perenual.com/storage/species_image/2_abies_alba_pyramidalis/medium/49255769768_df55596553_b.jpg","small_url":"https://perenual.com/storage/species_image/2_abies_alba_pyramidalis/small/49255769768_df55596553_b.jpg","thumbnail":"https://perenual.com/storage/species_image/2_abies_alba_pyramidalis/thumbnail/49255769768_df55596553_b.jpg"}},{"id":5783,"common_name":"beardtongue","scientific_name":["Penstemon 'Czar'"],"other_name":null,"cycle":"Perennial","watering":"Minimum","sunlight":["Full sun"],"default_image":{"image_id":9,"license":5,"license_name":"Attribution-ShareAlike License","license_url":"https://creativecommons.org/licenses/by-sa/2.0/","original_url":"https://perenual.com/storage/species_image/2_abies_alba_pyramidalis/og/49255769768_df55596553_b.jpg","regular_url":"https://perenual.com/storage/species_image/2_abies_alba_pyramidalis/regular/49255769768_df55596553_b.jpg","medium_url":"https://perenual.com/storage/species_image/2_abies_alba_pyramidalis/medium/49255769768_df55596553_b.jpg","small_url":"https://perenual.com/storage/species_image/2_abies_alba_pyramidalis/small/49255769768_df55596553_b.jpg","thumbnail":"https://perenual.com/storage/species_image/2_abies_alba_pyramidalis/thumbnail/49255769768_df55596553_b.jpg"}},{"id":5784,"common_name":"beardtongue","scientific_name":["Penstemon 'Dark Towers'"],"other_name":null,"cycle":"Perennial","watering":"Minimum","sunlight":["Full sun"],"default_image":{"image_id":11617,"license":5,"license_name":"Attribution-ShareAlike License","license_url":"https://creativecommons.org/licenses/by-sa/2.0/","original_url":"https://perenual.com/storage/species_image/5784_penstemon_dark_towers/og/34526156244_3dfa37c606_b.jpg","regular_url":"https://perenual.com/storage/species_image/5784_penstemon_dark_towers/regular/34526156244_3dfa37c606_b.jpg","medium_url":"https://perenual.com/storage/species_image/5784_penstemon_dark_towers/medium/34526156244_3dfa37c606_b.jpg","small_url":"https://perenual.com/storage/species_image/5784_penstemon_dark_towers/small/34526156244_3dfa37c606_b.jpg","thumbnail":"https://perenual.com/storage/species_image/5784_penstemon_dark_towers/thumbnail/34526156244_3dfa37c606_b.jpg"}},{"id":5785,"common_name":"beardtongue","scientific_name":["Penstemon digitalis"],"other_name":null,"cycle":"Perennial","watering":"Minimum","sunlight":["Full sun Partial sun"],"default_image":{"image_id":9,"license":5,"license_name":"Attribution-ShareAlike License","license_url":"https://creativecommons.org/licenses/by-sa/2.0/","original_url":"https://perenual.com/storage/species_image/2_abies_alba_pyramidalis/og/49255769768_df55596553_b.jpg","regular_url":"https://perenual.com/storage/species_image/2_abies_alba_pyramidalis/regular/49255769768_df55596553_b.jpg","medium_url":"https://perenual.com/storage/species_image/2_abies_alba_pyramidalis/medium/49255769768_df55596553_b.jpg","small_url":"https://perenual.com/storage/species_image/2_abies_alba_pyramidalis/small/49255769768_df55596553_b.jpg","thumbnail":"https://perenual.com/storage/species_image/2_abies_alba_pyramidalis/thumbnail/49255769768_df55596553_b.jpg"}},{"id":5786,"common_name":"beardtongue","scientific_name":["Penstemon digitalis 'Blackbeard'"],"other_name":null,"cycle":"Perennial","watering":"Minimum","sunlight":["Full sun Partial sun"],"default_image":{"image_id":9,"license":5,"license_name":"Attribution-ShareAlike License","license_url":"https://creativecommons.org/licenses/by-sa/2.0/","original_url":"https://perenual.com/storage/species_image/2_abies_alba_pyramidalis/og/49255769768_df55596553_b.jpg","regular_url":"https://perenual.com/storage/species_image/2_abies_alba_pyramidalis/regular/49255769768_df55596553_b.jpg","medium_url":"https://perenual.com/storage/species_image/2_abies_alba_pyramidalis/medium/49255769768_df55596553_b.jpg","small_url":"https://perenual.com/storage/species_image/2_abies_alba_pyramidalis/small/49255769768_df55596553_b.jpg","thumbnail":"https://perenual.com/storage/species_image/2_abies_alba_pyramidalis/thumbnail/49255769768_df55596553_b.jpg"}},{"id":5787,"common_name":"beardtongue","scientific_name":["Penstemon digitalis 'Husker Red'"],"other_name":null,"cycle":"Perennial","watering":"Minimum","sunlight":["Full sun Partial sun"],"default_image":{"image_id":11619,"license":4,"license_name":"Attribution License","license_url":"https://creativecommons.org/licenses/by/2.0/","original_url":"https://perenual.com/storage/species_image/5787_penstemon_digitalis_husker_red/og/36550353775_8f427ac0f2_b.jpg","regular_url":"https://perenual.com/storage/species_image/5787_penstemon_digitalis_husker_red/regular/36550353775_8f427ac0f2_b.jpg","medium_url":"https://perenual.com/storage/species_image/5787_penstemon_digitalis_husker_red/medium/36550353775_8f427ac0f2_b.jpg","small_url":"https://perenual.com/storage/species_image/5787_penstemon_digitalis_husker_red/small/36550353775_8f427ac0f2_b.jpg","thumbnail":"https://perenual.com/storage/species_image/5787_penstemon_digitalis_husker_red/thumbnail/36550353775_8f427ac0f2_b.jpg"}},{"id":5788,"common_name":"beardtongue","scientific_name":["Penstemon digitalis 'Onyx and Pearls'"],"other_name":null,"cycle":"Perennial","watering":"Minimum","sunlight":["Full sun Partial sun"],"default_image":{"image_id":9,"license":5,"license_name":"Attribution-ShareAlike License","license_url":"https://creativecommons.org/licenses/by-sa/2.0/","original_url":"https://perenual.com/storage/species_image/2_abies_alba_pyramidalis/og/49255769768_df55596553_b.jpg","regular_url":"https://perenual.com/storage/species_image/2_abies_alba_pyramidalis/regular/49255769768_df55596553_b.jpg","medium_url":"https://perenual.com/storage/species_image/2_abies_alba_pyramidalis/medium/49255769768_df55596553_b.jpg","small_url":"https://perenual.com/storage/species_image/2_abies_alba_pyramidalis/small/49255769768_df55596553_b.jpg","thumbnail":"https://perenual.com/storage/species_image/2_abies_alba_pyramidalis/thumbnail/49255769768_df55596553_b.jpg"}},{"id":5789,"common_name":"beardtongue","scientific_name":["Penstemon digitalis 'Pocahontas'"],"other_name":null,"cycle":"Perennial","watering":"Minimum","sunlight":["Full sun Partial sun"],"default_image":{"image_id":9,"license":5,"license_name":"Attribution-ShareAlike License","license_url":"https://creativecommons.org/licenses/by-sa/2.0/","original_url":"https://perenual.com/storage/species_image/2_abies_alba_pyramidalis/og/49255769768_df55596553_b.jpg","regular_url":"https://perenual.com/storage/species_image/2_abies_alba_pyramidalis/regular/49255769768_df55596553_b.jpg","medium_url":"https://perenual.com/storage/species_image/2_abies_alba_pyramidalis/medium/49255769768_df55596553_b.jpg","small_url":"https://perenual.com/storage/species_image/2_abies_alba_pyramidalis/small/49255769768_df55596553_b.jpg","thumbnail":"https://perenual.com/storage/species_image/2_abies_alba_pyramidalis/thumbnail/49255769768_df55596553_b.jpg"}},{"id":5790,"common_name":"large beardtongue","scientific_name":["Penstemon grandiflorus"],"other_name":null,"cycle":"Perennial","watering":"Minimum","sunlight":["Full sun"],"default_image":{"image_id":11622,"license":4,"license_name":"Attribution License","license_url":"https://creativecommons.org/licenses/by/2.0/","original_url":"https://perenual.com/storage/species_image/5790_penstemon_grandiflorus/og/7036441755_f6a88cfac4_b.jpg","regular_url":"https://perenual.com/storage/species_image/5790_penstemon_grandiflorus/regular/7036441755_f6a88cfac4_b.jpg","medium_url":"https://perenual.com/storage/species_image/5790_penstemon_grandiflorus/medium/7036441755_f6a88cfac4_b.jpg","small_url":"https://perenual.com/storage/species_image/5790_penstemon_grandiflorus/small/7036441755_f6a88cfac4_b.jpg","thumbnail":"https://perenual.com/storage/species_image/5790_penstemon_grandiflorus/thumbnail/7036441755_f6a88cfac4_b.jpg"}}],"to":5790,"per_page":30,"current_page":193,"from":5761,"last_page":200,"total":6000}