{"data":[{"id":5011,"common_name":"lupine","scientific_name":["Lupinus hybrida"],"other_name":null,"cycle":"Perennial","watering":"Average","sunlight":["Full sun"],"default_image":{"image_id":10667,"license":5,"license_name":"Attribution-ShareAlike License","license_url":"https://creativecommons.org/licenses/by-sa/2.0/","original_url":"https://perenual.com/storage/species_image/5011_lupinus_hybrida/og/52461914104_fa7cf22916_b.jpg","regular_url":"https://perenual.com/storage/species_image/5011_lupinus_hybrida/regular/52461914104_fa7cf22916_b.jpg","medium_url":"https://perenual.com/storage/species_image/5011_lupinus_hybrida/medium/52461914104_fa7cf22916_b.jpg","small_url":"https://perenual.com/storage/species_image/5011_lupinus_hybrida/small/52461914104_fa7cf22916_b.jpg","thumbnail":"https://perenual.com/storage/species_image/5011_lupinus_hybrida/thumbnail/52461914104_fa7cf22916_b.jpg"}},{"id":5012,"common_name":"lupine","scientific_name":["Lupinus 'Manhattan Lights'"],"other_name":null,"cycle":"Perennial","watering":"Average","sunlight":["Full sun"],"default_image":{"image_id":10668,"license":5,"license_name":"Attribution-ShareAlike License","license_url":"https://creativecommons.org/licenses/by-sa/2.0/","original_url":"https://perenual.com/storage/species_image/5012_lupinus_manhattan_lights/og/52462090900_810f0a9510_b.jpg","regular_url":"https://perenual.com/storage/species_image/5012_lupinus_manhattan_lights/regular/52462090900_810f0a9510_b.jpg","medium_url":"https://perenual.com/storage/species_image/5012_lupinus_manhattan_lights/medium/52462090900_810f0a9510_b.jpg","small_url":"https://perenual.com/storage/species_image/5012_lupinus_manhattan_lights/small/52462090900_810f0a9510_b.jpg","thumbnail":"https://perenual.com/storage/species_image/5012_lupinus_manhattan_lights/thumbnail/52462090900_810f0a9510_b.jpg"}},{"id":5013,"common_name":"catchfly","scientific_name":["Lychnis arkwrightii 'Orange Zwerg' ORANGE DWARF"],"other_name":null,"cycle":"Perennial","watering":"Minimum","sunlight":["Full sun"],"default_image":{"image_id":9,"license":5,"license_name":"Attribution-ShareAlike License","license_url":"https://creativecommons.org/licenses/by-sa/2.0/","original_url":"https://perenual.com/storage/species_image/2_abies_alba_pyramidalis/og/49255769768_df55596553_b.jpg","regular_url":"https://perenual.com/storage/species_image/2_abies_alba_pyramidalis/regular/49255769768_df55596553_b.jpg","medium_url":"https://perenual.com/storage/species_image/2_abies_alba_pyramidalis/medium/49255769768_df55596553_b.jpg","small_url":"https://perenual.com/storage/species_image/2_abies_alba_pyramidalis/small/49255769768_df55596553_b.jpg","thumbnail":"https://perenual.com/storage/species_image/2_abies_alba_pyramidalis/thumbnail/49255769768_df55596553_b.jpg"}},{"id":5014,"common_name":"catchfly","scientific_name":["Lychnis coronaria"],"other_name":null,"cycle":"Perennial","watering":"Minimum","sunlight":["Full sun"],"default_image":{"image_id":10671,"license":4,"license_name":"Attribution License","license_url":"https://creativecommons.org/licenses/by/2.0/","original_url":"https://perenual.com/storage/species_image/5014_lychnis_coronaria/og/48749509021_acca5c44a2_b.jpg","regular_url":"https://perenual.com/storage/species_image/5014_lychnis_coronaria/regular/48749509021_acca5c44a2_b.jpg","medium_url":"https://perenual.com/storage/species_image/5014_lychnis_coronaria/medium/48749509021_acca5c44a2_b.jpg","small_url":"https://perenual.com/storage/species_image/5014_lychnis_coronaria/small/48749509021_acca5c44a2_b.jpg","thumbnail":"https://perenual.com/storage/species_image/5014_lychnis_coronaria/thumbnail/48749509021_acca5c44a2_b.jpg"}},{"id":5015,"common_name":"rose campion","scientific_name":["Lychnis coronaria 'Blych' GARDENERS' WORLD"],"other_name":null,"cycle":"Perennial","watering":"Minimum","sunlight":["Full sun"],"default_image":{"image_id":9,"license":5,"license_name":"Attribution-ShareAlike License","license_url":"https://creativecommons.org/licenses/by-sa/2.0/","original_url":"https://perenual.com/storage/species_image/2_abies_alba_pyramidalis/og/49255769768_df55596553_b.jpg","regular_url":"https://perenual.com/storage/species_image/2_abies_alba_pyramidalis/regular/49255769768_df55596553_b.jpg","medium_url":"https://perenual.com/storage/species_image/2_abies_alba_pyramidalis/medium/49255769768_df55596553_b.jpg","small_url":"https://perenual.com/storage/species_image/2_abies_alba_pyramidalis/small/49255769768_df55596553_b.jpg","thumbnail":"https://perenual.com/storage/species_image/2_abies_alba_pyramidalis/thumbnail/49255769768_df55596553_b.jpg"}},{"id":5016,"common_name":"catchfly","scientific_name":["Lychnis fulgens"],"other_name":null,"cycle":"Perennial","watering":"Average","sunlight":["Full sun"],"default_image":{"image_id":10672,"license":5,"license_name":"Attribution-ShareAlike License","license_url":"https://creativecommons.org/licenses/by-sa/2.0/","original_url":"https://perenual.com/storage/species_image/5016_lychnis_fulgens/og/49868992403_273c0400d8_b.jpg","regular_url":"https://perenual.com/storage/species_image/5016_lychnis_fulgens/regular/49868992403_273c0400d8_b.jpg","medium_url":"https://perenual.com/storage/species_image/5016_lychnis_fulgens/medium/49868992403_273c0400d8_b.jpg","small_url":"https://perenual.com/storage/species_image/5016_lychnis_fulgens/small/49868992403_273c0400d8_b.jpg","thumbnail":"https://perenual.com/storage/species_image/5016_lychnis_fulgens/thumbnail/49868992403_273c0400d8_b.jpg"}},{"id":5017,"common_name":"clammy campion","scientific_name":["Lychnis viscaria"],"other_name":null,"cycle":"Perennial","watering":"Minimum","sunlight":["Full sun"],"default_image":{"image_id":10674,"license":5,"license_name":"Attribution-ShareAlike License","license_url":"https://creativecommons.org/licenses/by-sa/2.0/","original_url":"https://perenual.com/storage/species_image/5017_lychnis_viscaria/og/9200932402_c0ca84e4a2_b.jpg","regular_url":"https://perenual.com/storage/species_image/5017_lychnis_viscaria/regular/9200932402_c0ca84e4a2_b.jpg","medium_url":"https://perenual.com/storage/species_image/5017_lychnis_viscaria/medium/9200932402_c0ca84e4a2_b.jpg","small_url":"https://perenual.com/storage/species_image/5017_lychnis_viscaria/small/9200932402_c0ca84e4a2_b.jpg","thumbnail":"https://perenual.com/storage/species_image/5017_lychnis_viscaria/thumbnail/9200932402_c0ca84e4a2_b.jpg"}},{"id":5018,"common_name":"catchfly","scientific_name":["Lychnis viscaria 'Splendens Plena'"],"other_name":null,"cycle":"Perennial","watering":"Minimum","sunlight":["Full sun"],"default_image":{"image_id":10675,"license":45,"license_name":"Attribution-ShareAlike 3.0 Unported (CC BY-SA 3.0)","license_url":"https://creativecommons.org/licenses/by-sa/3.0/deed.en","original_url":"https://perenual.com/storage/species_image/5018_lychnis_viscaria_splendens_plena/og/Lychnis_viscaria_%28X-1523-A%29_Flowers.jpg","regular_url":"https://perenual.com/storage/species_image/5018_lychnis_viscaria_splendens_plena/regular/Lychnis_viscaria_%28X-1523-A%29_Flowers.jpg","medium_url":"https://perenual.com/storage/species_image/5018_lychnis_viscaria_splendens_plena/medium/Lychnis_viscaria_%28X-1523-A%29_Flowers.jpg","small_url":"https://perenual.com/storage/species_image/5018_lychnis_viscaria_splendens_plena/small/Lychnis_viscaria_%28X-1523-A%29_Flowers.jpg","thumbnail":"https://perenual.com/storage/species_image/5018_lychnis_viscaria_splendens_plena/thumbnail/Lychnis_viscaria_%28X-1523-A%29_Flowers.jpg"}},{"id":5019,"common_name":"matrimony vine","scientific_name":["Lycium barbarum"],"other_name":null,"cycle":"Perennial","watering":"Average","sunlight":["Full sun"],"default_image":{"image_id":10676,"license":4,"license_name":"Attribution License","license_url":"https://creativecommons.org/licenses/by/2.0/","original_url":"https://perenual.com/storage/species_image/5019_lycium_barbarum/og/50645183817_5be45dab90_b.jpg","regular_url":"https://perenual.com/storage/species_image/5019_lycium_barbarum/regular/50645183817_5be45dab90_b.jpg","medium_url":"https://perenual.com/storage/species_image/5019_lycium_barbarum/medium/50645183817_5be45dab90_b.jpg","small_url":"https://perenual.com/storage/species_image/5019_lycium_barbarum/small/50645183817_5be45dab90_b.jpg","thumbnail":"https://perenual.com/storage/species_image/5019_lycium_barbarum/thumbnail/50645183817_5be45dab90_b.jpg"}},{"id":5020,"common_name":"Chinese desert-thorn","scientific_name":["Lycium chinense"],"other_name":null,"cycle":"Perennial","watering":"Average","sunlight":["Full sun"],"default_image":{"image_id":10684,"license":4,"license_name":"Attribution License","license_url":"https://creativecommons.org/licenses/by/2.0/","original_url":"https://perenual.com/storage/species_image/5020_lycium_chinense/og/52507538063_288d7816df_b.jpg","regular_url":"https://perenual.com/storage/species_image/5020_lycium_chinense/regular/52507538063_288d7816df_b.jpg","medium_url":"https://perenual.com/storage/species_image/5020_lycium_chinense/medium/52507538063_288d7816df_b.jpg","small_url":"https://perenual.com/storage/species_image/5020_lycium_chinense/small/52507538063_288d7816df_b.jpg","thumbnail":"https://perenual.com/storage/species_image/5020_lycium_chinense/thumbnail/52507538063_288d7816df_b.jpg"}},{"id":5021,"common_name":"tomato","scientific_name":["Lycopersicon esculentum"],"other_name":null,"cycle":"Perennial","watering":"Average","sunlight":["Full sun"],"default_image":{"image_id":10690,"license":5,"license_name":"Attribution-ShareAlike License","license_url":"https://creativecommons.org/licenses/by-sa/2.0/","original_url":"https://perenual.com/storage/species_image/8759_solanum_lycopersicum/og/52337849395_34971b3cf1_b.jpg","regular_url":"https://perenual.com/storage/species_image/8759_solanum_lycopersicum/regular/52337849395_34971b3cf1_b.jpg","medium_url":"https://perenual.com/storage/species_image/8759_solanum_lycopersicum/medium/52337849395_34971b3cf1_b.jpg","small_url":"https://perenual.com/storage/species_image/8759_solanum_lycopersicum/small/52337849395_34971b3cf1_b.jpg","thumbnail":"https://perenual.com/storage/species_image/8759_solanum_lycopersicum/thumbnail/52337849395_34971b3cf1_b.jpg"}},{"id":5022,"common_name":"tomato","scientific_name":["Lycopersicon esculentum 'Big Beef'"],"other_name":null,"cycle":"Perennial","watering":"Average","sunlight":["Full sun"],"default_image":{"image_id":10697,"license":4,"license_name":"Attribution License","license_url":"https://creativecommons.org/licenses/by/2.0/","original_url":"https://perenual.com/storage/species_image/5022_lycopersicon_esculentum_big_beef/og/52614055517_dca623a496_b.jpg","regular_url":"https://perenual.com/storage/species_image/5022_lycopersicon_esculentum_big_beef/regular/52614055517_dca623a496_b.jpg","medium_url":"https://perenual.com/storage/species_image/5022_lycopersicon_esculentum_big_beef/medium/52614055517_dca623a496_b.jpg","small_url":"https://perenual.com/storage/species_image/5022_lycopersicon_esculentum_big_beef/small/52614055517_dca623a496_b.jpg","thumbnail":"https://perenual.com/storage/species_image/5022_lycopersicon_esculentum_big_beef/thumbnail/52614055517_dca623a496_b.jpg"}},{"id":5023,"common_name":"tomato","scientific_name":["Lycopersicon esculentum 'Chef's Choice Orange'"],"other_name":null,"cycle":"Perennial","watering":"Average","sunlight":["Full sun"],"default_image":{"image_id":9,"license":5,"license_name":"Attribution-ShareAlike License","license_url":"https://creativecommons.org/licenses/by-sa/2.0/","original_url":"https://perenual.com/storage/species_image/2_abies_alba_pyramidalis/og/49255769768_df55596553_b.jpg","regular_url":"https://perenual.com/storage/species_image/2_abies_alba_pyramidalis/regular/49255769768_df55596553_b.jpg","medium_url":"https://perenual.com/storage/species_image/2_abies_alba_pyramidalis/medium/49255769768_df55596553_b.jpg","small_url":"https://perenual.com/storage/species_image/2_abies_alba_pyramidalis/small/49255769768_df55596553_b.jpg","thumbnail":"https://perenual.com/storage/species_image/2_abies_alba_pyramidalis/thumbnail/49255769768_df55596553_b.jpg"}},{"id":5024,"common_name":"tomato","scientific_name":["Lycopersicon esculentum 'Pink Girl'"],"other_name":null,"cycle":"Perennial","watering":"Average","sunlight":["Full sun"],"default_image":{"image_id":9,"license":5,"license_name":"Attribution-ShareAlike License","license_url":"https://creativecommons.org/licenses/by-sa/2.0/","original_url":"https://perenual.com/storage/species_image/2_abies_alba_pyramidalis/og/49255769768_df55596553_b.jpg","regular_url":"https://perenual.com/storage/species_image/2_abies_alba_pyramidalis/regular/49255769768_df55596553_b.jpg","medium_url":"https://perenual.com/storage/species_image/2_abies_alba_pyramidalis/medium/49255769768_df55596553_b.jpg","small_url":"https://perenual.com/storage/species_image/2_abies_alba_pyramidalis/small/49255769768_df55596553_b.jpg","thumbnail":"https://perenual.com/storage/species_image/2_abies_alba_pyramidalis/thumbnail/49255769768_df55596553_b.jpg"}},{"id":5025,"common_name":"tomato","scientific_name":["Lycopersicon esculentum 'Rapunzel'"],"other_name":null,"cycle":"Perennial","watering":"Average","sunlight":["Full sun"],"default_image":{"image_id":9,"license":5,"license_name":"Attribution-ShareAlike License","license_url":"https://creativecommons.org/licenses/by-sa/2.0/","original_url":"https://perenual.com/storage/species_image/2_abies_alba_pyramidalis/og/49255769768_df55596553_b.jpg","regular_url":"https://perenual.com/storage/species_image/2_abies_alba_pyramidalis/regular/49255769768_df55596553_b.jpg","medium_url":"https://perenual.com/storage/species_image/2_abies_alba_pyramidalis/medium/49255769768_df55596553_b.jpg","small_url":"https://perenual.com/storage/species_image/2_abies_alba_pyramidalis/small/49255769768_df55596553_b.jpg","thumbnail":"https://perenual.com/storage/species_image/2_abies_alba_pyramidalis/thumbnail/49255769768_df55596553_b.jpg"}},{"id":5026,"common_name":"tomato","scientific_name":["Lycopersicon esculentum 'Sungold'"],"other_name":null,"cycle":"Perennial","watering":"Average","sunlight":["Full sun"],"default_image":{"image_id":9,"license":5,"license_name":"Attribution-ShareAlike License","license_url":"https://creativecommons.org/licenses/by-sa/2.0/","original_url":"https://perenual.com/storage/species_image/2_abies_alba_pyramidalis/og/49255769768_df55596553_b.jpg","regular_url":"https://perenual.com/storage/species_image/2_abies_alba_pyramidalis/regular/49255769768_df55596553_b.jpg","medium_url":"https://perenual.com/storage/species_image/2_abies_alba_pyramidalis/medium/49255769768_df55596553_b.jpg","small_url":"https://perenual.com/storage/species_image/2_abies_alba_pyramidalis/small/49255769768_df55596553_b.jpg","thumbnail":"https://perenual.com/storage/species_image/2_abies_alba_pyramidalis/thumbnail/49255769768_df55596553_b.jpg"}},{"id":5027,"common_name":"foxtail bog clubmoss","scientific_name":["Lycopodiella alopecuroides"],"other_name":null,"cycle":"Perennial","watering":"Frequent","sunlight":["Full sun","part shade"],"default_image":{"image_id":10703,"license":4,"license_name":"Attribution License","license_url":"https://creativecommons.org/licenses/by/2.0/","original_url":"https://perenual.com/storage/species_image/5027_lycopodiella_alopecuroides/og/34261989180_b904224c72_b.jpg","regular_url":"https://perenual.com/storage/species_image/5027_lycopodiella_alopecuroides/regular/34261989180_b904224c72_b.jpg","medium_url":"https://perenual.com/storage/species_image/5027_lycopodiella_alopecuroides/medium/34261989180_b904224c72_b.jpg","small_url":"https://perenual.com/storage/species_image/5027_lycopodiella_alopecuroides/small/34261989180_b904224c72_b.jpg","thumbnail":"https://perenual.com/storage/species_image/5027_lycopodiella_alopecuroides/thumbnail/34261989180_b904224c72_b.jpg"}},{"id":5028,"common_name":"club moss","scientific_name":["Lycopodium squarrosum"],"other_name":null,"cycle":"Perennial","watering":"Average","sunlight":["Part shade","full shade"],"default_image":{"image_id":9,"license":5,"license_name":"Attribution-ShareAlike License","license_url":"https://creativecommons.org/licenses/by-sa/2.0/","original_url":"https://perenual.com/storage/species_image/2_abies_alba_pyramidalis/og/49255769768_df55596553_b.jpg","regular_url":"https://perenual.com/storage/species_image/2_abies_alba_pyramidalis/regular/49255769768_df55596553_b.jpg","medium_url":"https://perenual.com/storage/species_image/2_abies_alba_pyramidalis/medium/49255769768_df55596553_b.jpg","small_url":"https://perenual.com/storage/species_image/2_abies_alba_pyramidalis/small/49255769768_df55596553_b.jpg","thumbnail":"https://perenual.com/storage/species_image/2_abies_alba_pyramidalis/thumbnail/49255769768_df55596553_b.jpg"}},{"id":5029,"common_name":"lycoris","scientific_name":["Lycoris caldwellii"],"other_name":null,"cycle":"Perennial","watering":"Average","sunlight":["Full sun","part shade"],"default_image":{"image_id":10708,"license":5,"license_name":"Attribution-ShareAlike License","license_url":"https://creativecommons.org/licenses/by-sa/2.0/","original_url":"https://perenual.com/storage/species_image/5029_lycoris_caldwellii/og/51382114702_41b188228c_b.jpg","regular_url":"https://perenual.com/storage/species_image/5029_lycoris_caldwellii/regular/51382114702_41b188228c_b.jpg","medium_url":"https://perenual.com/storage/species_image/5029_lycoris_caldwellii/medium/51382114702_41b188228c_b.jpg","small_url":"https://perenual.com/storage/species_image/5029_lycoris_caldwellii/small/51382114702_41b188228c_b.jpg","thumbnail":"https://perenual.com/storage/species_image/5029_lycoris_caldwellii/thumbnail/51382114702_41b188228c_b.jpg"}},{"id":5030,"common_name":"lycoris","scientific_name":["Lycoris chinensis"],"other_name":null,"cycle":"Perennial","watering":"Average","sunlight":["Full sun","part shade"],"default_image":{"image_id":9,"license":5,"license_name":"Attribution-ShareAlike License","license_url":"https://creativecommons.org/licenses/by-sa/2.0/","original_url":"https://perenual.com/storage/species_image/2_abies_alba_pyramidalis/og/49255769768_df55596553_b.jpg","regular_url":"https://perenual.com/storage/species_image/2_abies_alba_pyramidalis/regular/49255769768_df55596553_b.jpg","medium_url":"https://perenual.com/storage/species_image/2_abies_alba_pyramidalis/medium/49255769768_df55596553_b.jpg","small_url":"https://perenual.com/storage/species_image/2_abies_alba_pyramidalis/small/49255769768_df55596553_b.jpg","thumbnail":"https://perenual.com/storage/species_image/2_abies_alba_pyramidalis/thumbnail/49255769768_df55596553_b.jpg"}},{"id":5031,"common_name":"peppermint spider lily","scientific_name":["Lycoris incarnata"],"other_name":null,"cycle":"Perennial","watering":"Average","sunlight":["Full sun","part shade"],"default_image":{"image_id":10710,"license":451,"license_name":"CC0 1.0 Universal (CC0 1.0) Public Domain Dedication","license_url":"https://creativecommons.org/publicdomain/zero/1.0/","original_url":"https://perenual.com/storage/species_image/5031_lycoris_incarnata/og/bb415890326232cc80b8284f559f-1635558.jpg","regular_url":"https://perenual.com/storage/species_image/5031_lycoris_incarnata/regular/bb415890326232cc80b8284f559f-1635558.jpg","medium_url":"https://perenual.com/storage/species_image/5031_lycoris_incarnata/medium/bb415890326232cc80b8284f559f-1635558.jpg","small_url":"https://perenual.com/storage/species_image/5031_lycoris_incarnata/small/bb415890326232cc80b8284f559f-1635558.jpg","thumbnail":"https://perenual.com/storage/species_image/5031_lycoris_incarnata/thumbnail/bb415890326232cc80b8284f559f-1635558.jpg"}},{"id":5032,"common_name":"spider lily","scientific_name":["Lycoris radiata"],"other_name":null,"cycle":"Perennial","watering":"Average","sunlight":["Full sun","part shade"],"default_image":{"image_id":10711,"license":6,"license_name":"Attribution-NoDerivs License","license_url":"https://creativecommons.org/licenses/by-nd/2.0/","original_url":"https://perenual.com/storage/species_image/5032_lycoris_radiata/og/50416280352_524d5d57e4_b.jpg"}},{"id":5033,"common_name":"lycoris","scientific_name":["Lycoris sanguinea"],"other_name":null,"cycle":"Perennial","watering":"Average","sunlight":["Full sun","part shade"],"default_image":{"image_id":9,"license":5,"license_name":"Attribution-ShareAlike License","license_url":"https://creativecommons.org/licenses/by-sa/2.0/","original_url":"https://perenual.com/storage/species_image/2_abies_alba_pyramidalis/og/49255769768_df55596553_b.jpg","regular_url":"https://perenual.com/storage/species_image/2_abies_alba_pyramidalis/regular/49255769768_df55596553_b.jpg","medium_url":"https://perenual.com/storage/species_image/2_abies_alba_pyramidalis/medium/49255769768_df55596553_b.jpg","small_url":"https://perenual.com/storage/species_image/2_abies_alba_pyramidalis/small/49255769768_df55596553_b.jpg","thumbnail":"https://perenual.com/storage/species_image/2_abies_alba_pyramidalis/thumbnail/49255769768_df55596553_b.jpg"}},{"id":5034,"common_name":"lycoris","scientific_name":["Lycoris sprengeri"],"other_name":null,"cycle":"Perennial","watering":"Average","sunlight":["Full sun"],"default_image":{"image_id":9,"license":5,"license_name":"Attribution-ShareAlike License","license_url":"https://creativecommons.org/licenses/by-sa/2.0/","original_url":"https://perenual.com/storage/species_image/2_abies_alba_pyramidalis/og/49255769768_df55596553_b.jpg","regular_url":"https://perenual.com/storage/species_image/2_abies_alba_pyramidalis/regular/49255769768_df55596553_b.jpg","medium_url":"https://perenual.com/storage/species_image/2_abies_alba_pyramidalis/medium/49255769768_df55596553_b.jpg","small_url":"https://perenual.com/storage/species_image/2_abies_alba_pyramidalis/small/49255769768_df55596553_b.jpg","thumbnail":"https://perenual.com/storage/species_image/2_abies_alba_pyramidalis/thumbnail/49255769768_df55596553_b.jpg"}},{"id":5035,"common_name":"Resurrection lily","scientific_name":["Lycoris squamigera"],"other_name":null,"cycle":"Perennial","watering":"Average","sunlight":["Full sun","part shade"],"default_image":{"image_id":9,"license":5,"license_name":"Attribution-ShareAlike License","license_url":"https://creativecommons.org/licenses/by-sa/2.0/","original_url":"https://perenual.com/storage/species_image/2_abies_alba_pyramidalis/og/49255769768_df55596553_b.jpg","regular_url":"https://perenual.com/storage/species_image/2_abies_alba_pyramidalis/regular/49255769768_df55596553_b.jpg","medium_url":"https://perenual.com/storage/species_image/2_abies_alba_pyramidalis/medium/49255769768_df55596553_b.jpg","small_url":"https://perenual.com/storage/species_image/2_abies_alba_pyramidalis/small/49255769768_df55596553_b.jpg","thumbnail":"https://perenual.com/storage/species_image/2_abies_alba_pyramidalis/thumbnail/49255769768_df55596553_b.jpg"}},{"id":5036,"common_name":"fetter bush","scientific_name":["Lyonia lucida"],"other_name":null,"cycle":"Perennial","watering":"Average","sunlight":["Full sun","part shade"],"default_image":{"image_id":10717,"license":4,"license_name":"Attribution License","license_url":"https://creativecommons.org/licenses/by/2.0/","original_url":"https://perenual.com/storage/species_image/5036_lyonia_lucida/og/49642445858_fc2db22a0a_b.jpg","regular_url":"https://perenual.com/storage/species_image/5036_lyonia_lucida/regular/49642445858_fc2db22a0a_b.jpg","medium_url":"https://perenual.com/storage/species_image/5036_lyonia_lucida/medium/49642445858_fc2db22a0a_b.jpg","small_url":"https://perenual.com/storage/species_image/5036_lyonia_lucida/small/49642445858_fc2db22a0a_b.jpg","thumbnail":"https://perenual.com/storage/species_image/5036_lyonia_lucida/thumbnail/49642445858_fc2db22a0a_b.jpg"}},{"id":5037,"common_name":"lyonia","scientific_name":["Lyonia ovalifolia var. elliptica"],"other_name":null,"cycle":"Perennial","watering":"Average","sunlight":["Full sun","part shade"],"default_image":{"image_id":10725,"license":5,"license_name":"Attribution-ShareAlike License","license_url":"https://creativecommons.org/licenses/by-sa/2.0/","original_url":"https://perenual.com/storage/species_image/5037_lyonia_ovalifolia_var_elliptica/og/16835255837_46e93e3e13_b.jpg","regular_url":"https://perenual.com/storage/species_image/5037_lyonia_ovalifolia_var_elliptica/regular/16835255837_46e93e3e13_b.jpg","medium_url":"https://perenual.com/storage/species_image/5037_lyonia_ovalifolia_var_elliptica/medium/16835255837_46e93e3e13_b.jpg","small_url":"https://perenual.com/storage/species_image/5037_lyonia_ovalifolia_var_elliptica/small/16835255837_46e93e3e13_b.jpg","thumbnail":"https://perenual.com/storage/species_image/5037_lyonia_ovalifolia_var_elliptica/thumbnail/16835255837_46e93e3e13_b.jpg"}},{"id":5038,"common_name":"skunk cabbage","scientific_name":["Lysichiton camtschatcensis"],"other_name":null,"cycle":"Perennial","watering":"Frequent","sunlight":["Full sun","part shade"],"default_image":{"image_id":10732,"license":5,"license_name":"Attribution-ShareAlike License","license_url":"https://creativecommons.org/licenses/by-sa/2.0/","original_url":"https://perenual.com/storage/species_image/5038_lysichiton_camtschatcensis/og/47057397962_96cc3257fb_b.jpg","regular_url":"https://perenual.com/storage/species_image/5038_lysichiton_camtschatcensis/regular/47057397962_96cc3257fb_b.jpg","medium_url":"https://perenual.com/storage/species_image/5038_lysichiton_camtschatcensis/medium/47057397962_96cc3257fb_b.jpg","small_url":"https://perenual.com/storage/species_image/5038_lysichiton_camtschatcensis/small/47057397962_96cc3257fb_b.jpg","thumbnail":"https://perenual.com/storage/species_image/5038_lysichiton_camtschatcensis/thumbnail/47057397962_96cc3257fb_b.jpg"}},{"id":5039,"common_name":"littleleaf false tamarind","scientific_name":["Lysiloma watsonii"],"other_name":null,"cycle":"Perennial","watering":"Minimum","sunlight":["Full sun"],"default_image":{"image_id":10736,"license":5,"license_name":"Attribution-ShareAlike License","license_url":"https://creativecommons.org/licenses/by-sa/2.0/","original_url":"https://perenual.com/storage/species_image/5039_lysiloma_watsonii/og/37521256776_6155a4a17a_b.jpg","regular_url":"https://perenual.com/storage/species_image/5039_lysiloma_watsonii/regular/37521256776_6155a4a17a_b.jpg","medium_url":"https://perenual.com/storage/species_image/5039_lysiloma_watsonii/medium/37521256776_6155a4a17a_b.jpg","small_url":"https://perenual.com/storage/species_image/5039_lysiloma_watsonii/small/37521256776_6155a4a17a_b.jpg","thumbnail":"https://perenual.com/storage/species_image/5039_lysiloma_watsonii/thumbnail/37521256776_6155a4a17a_b.jpg"}},{"id":5040,"common_name":"loosestrife","scientific_name":["Lysimachia atropurpurea 'Beaujolais'"],"other_name":null,"cycle":"Perennial","watering":"Frequent","sunlight":["Full sun","part shade"],"default_image":{"image_id":9,"license":5,"license_name":"Attribution-ShareAlike License","license_url":"https://creativecommons.org/licenses/by-sa/2.0/","original_url":"https://perenual.com/storage/species_image/2_abies_alba_pyramidalis/og/49255769768_df55596553_b.jpg","regular_url":"https://perenual.com/storage/species_image/2_abies_alba_pyramidalis/regular/49255769768_df55596553_b.jpg","medium_url":"https://perenual.com/storage/species_image/2_abies_alba_pyramidalis/medium/49255769768_df55596553_b.jpg","small_url":"https://perenual.com/storage/species_image/2_abies_alba_pyramidalis/small/49255769768_df55596553_b.jpg","thumbnail":"https://perenual.com/storage/species_image/2_abies_alba_pyramidalis/thumbnail/49255769768_df55596553_b.jpg"}}],"to":5040,"per_page":30,"current_page":168,"from":5011,"last_page":200,"total":6000}