{"data":[{"id":4531,"common_name":"Japanese garden juniper","scientific_name":["Juniperus procumbens 'Nana'"],"other_name":["green mound weeping juniper"],"cycle":"Perennial","watering":"Average","sunlight":["Full sun"],"default_image":null},{"id":4532,"common_name":"coffin juniper","scientific_name":["Juniperus recurva var. coxii"],"other_name":null,"cycle":"Perennial","watering":"Average","sunlight":["Full sun"],"default_image":{"image_id":9,"license":5,"license_name":"Attribution-ShareAlike License","license_url":"https://creativecommons.org/licenses/by-sa/2.0/","original_url":"https://perenual.com/storage/species_image/2_abies_alba_pyramidalis/og/49255769768_df55596553_b.jpg","regular_url":"https://perenual.com/storage/species_image/2_abies_alba_pyramidalis/regular/49255769768_df55596553_b.jpg","medium_url":"https://perenual.com/storage/species_image/2_abies_alba_pyramidalis/medium/49255769768_df55596553_b.jpg","small_url":"https://perenual.com/storage/species_image/2_abies_alba_pyramidalis/small/49255769768_df55596553_b.jpg","thumbnail":"https://perenual.com/storage/species_image/2_abies_alba_pyramidalis/thumbnail/49255769768_df55596553_b.jpg"}},{"id":4533,"common_name":"needle juniper","scientific_name":["Juniperus rigida"],"other_name":null,"cycle":"Perennial","watering":"Minimum","sunlight":["Full sun"],"default_image":{"image_id":9427,"license":5,"license_name":"Attribution-ShareAlike License","license_url":"https://creativecommons.org/licenses/by-sa/2.0/","original_url":"https://perenual.com/storage/species_image/4533_juniperus_rigida/og/49585032623_c6bf73f0c6_b.jpg","regular_url":"https://perenual.com/storage/species_image/4533_juniperus_rigida/regular/49585032623_c6bf73f0c6_b.jpg","medium_url":"https://perenual.com/storage/species_image/4533_juniperus_rigida/medium/49585032623_c6bf73f0c6_b.jpg","small_url":"https://perenual.com/storage/species_image/4533_juniperus_rigida/small/49585032623_c6bf73f0c6_b.jpg","thumbnail":"https://perenual.com/storage/species_image/4533_juniperus_rigida/thumbnail/49585032623_c6bf73f0c6_b.jpg"}},{"id":4534,"common_name":"savin juniper","scientific_name":["Juniperus sabina"],"other_name":["savin juniper"],"cycle":"Perennial","watering":"Average","sunlight":["Full sun"],"default_image":{"image_id":9430,"license":4,"license_name":"Attribution License","license_url":"https://creativecommons.org/licenses/by/2.0/","original_url":"https://perenual.com/storage/species_image/4534_juniperus_sabina/og/52344074220_f768cf115e_b.jpg","regular_url":"https://perenual.com/storage/species_image/4534_juniperus_sabina/regular/52344074220_f768cf115e_b.jpg","medium_url":"https://perenual.com/storage/species_image/4534_juniperus_sabina/medium/52344074220_f768cf115e_b.jpg","small_url":"https://perenual.com/storage/species_image/4534_juniperus_sabina/small/52344074220_f768cf115e_b.jpg","thumbnail":"https://perenual.com/storage/species_image/4534_juniperus_sabina/thumbnail/52344074220_f768cf115e_b.jpg"}},{"id":4535,"common_name":"savin juniper","scientific_name":["Juniperus sabina 'Broadmoor'"],"other_name":null,"cycle":"Perennial","watering":"Average","sunlight":["Full sun"],"default_image":{"image_id":9432,"license":5,"license_name":"Attribution-ShareAlike License","license_url":"https://creativecommons.org/licenses/by-sa/2.0/","original_url":"https://perenual.com/storage/species_image/4535_juniperus_sabina_broadmoor/og/49558831692_bd2dcc942d_b.jpg","regular_url":"https://perenual.com/storage/species_image/4535_juniperus_sabina_broadmoor/regular/49558831692_bd2dcc942d_b.jpg","medium_url":"https://perenual.com/storage/species_image/4535_juniperus_sabina_broadmoor/medium/49558831692_bd2dcc942d_b.jpg","small_url":"https://perenual.com/storage/species_image/4535_juniperus_sabina_broadmoor/small/49558831692_bd2dcc942d_b.jpg","thumbnail":"https://perenual.com/storage/species_image/4535_juniperus_sabina_broadmoor/thumbnail/49558831692_bd2dcc942d_b.jpg"}},{"id":4536,"common_name":"savin juniper","scientific_name":["Juniperus sabina 'Mini Arcade'"],"other_name":null,"cycle":"Perennial","watering":"Average","sunlight":["Full sun"],"default_image":{"image_id":9435,"license":4,"license_name":"Attribution License","license_url":"https://creativecommons.org/licenses/by/2.0/","original_url":"https://perenual.com/storage/species_image/4539_juniperus_sabina_variegata/og/30926374990_1fb6f214f5_b.jpg","regular_url":"https://perenual.com/storage/species_image/4539_juniperus_sabina_variegata/regular/30926374990_1fb6f214f5_b.jpg","medium_url":"https://perenual.com/storage/species_image/4539_juniperus_sabina_variegata/medium/30926374990_1fb6f214f5_b.jpg","small_url":"https://perenual.com/storage/species_image/4539_juniperus_sabina_variegata/small/30926374990_1fb6f214f5_b.jpg","thumbnail":"https://perenual.com/storage/species_image/4539_juniperus_sabina_variegata/thumbnail/30926374990_1fb6f214f5_b.jpg"}},{"id":4537,"common_name":"savin juniper","scientific_name":["Juniperus sabina 'Monard' MOOR-DENSE"],"other_name":null,"cycle":"Perennial","watering":"Average","sunlight":["Full sun"],"default_image":{"image_id":9434,"license":5,"license_name":"Attribution-ShareAlike License","license_url":"https://creativecommons.org/licenses/by-sa/2.0/","original_url":"https://perenual.com/storage/species_image/4537_juniperus_sabina_monard_moor-dense/og/51019095223_77869416f5_b.jpg","regular_url":"https://perenual.com/storage/species_image/4537_juniperus_sabina_monard_moor-dense/regular/51019095223_77869416f5_b.jpg","medium_url":"https://perenual.com/storage/species_image/4537_juniperus_sabina_monard_moor-dense/medium/51019095223_77869416f5_b.jpg","small_url":"https://perenual.com/storage/species_image/4537_juniperus_sabina_monard_moor-dense/small/51019095223_77869416f5_b.jpg","thumbnail":"https://perenual.com/storage/species_image/4537_juniperus_sabina_monard_moor-dense/thumbnail/51019095223_77869416f5_b.jpg"}},{"id":4538,"common_name":"savin juniper","scientific_name":["Juniperus sabina 'Skandia'"],"other_name":null,"cycle":"Perennial","watering":"Average","sunlight":["Full sun"],"default_image":{"image_id":9435,"license":4,"license_name":"Attribution License","license_url":"https://creativecommons.org/licenses/by/2.0/","original_url":"https://perenual.com/storage/species_image/4539_juniperus_sabina_variegata/og/30926374990_1fb6f214f5_b.jpg","regular_url":"https://perenual.com/storage/species_image/4539_juniperus_sabina_variegata/regular/30926374990_1fb6f214f5_b.jpg","medium_url":"https://perenual.com/storage/species_image/4539_juniperus_sabina_variegata/medium/30926374990_1fb6f214f5_b.jpg","small_url":"https://perenual.com/storage/species_image/4539_juniperus_sabina_variegata/small/30926374990_1fb6f214f5_b.jpg","thumbnail":"https://perenual.com/storage/species_image/4539_juniperus_sabina_variegata/thumbnail/30926374990_1fb6f214f5_b.jpg"}},{"id":4539,"common_name":"savin juniper","scientific_name":["Juniperus sabina 'Variegata'"],"other_name":null,"cycle":"Perennial","watering":"Average","sunlight":["Full sun"],"default_image":{"image_id":9435,"license":4,"license_name":"Attribution License","license_url":"https://creativecommons.org/licenses/by/2.0/","original_url":"https://perenual.com/storage/species_image/4539_juniperus_sabina_variegata/og/30926374990_1fb6f214f5_b.jpg","regular_url":"https://perenual.com/storage/species_image/4539_juniperus_sabina_variegata/regular/30926374990_1fb6f214f5_b.jpg","medium_url":"https://perenual.com/storage/species_image/4539_juniperus_sabina_variegata/medium/30926374990_1fb6f214f5_b.jpg","small_url":"https://perenual.com/storage/species_image/4539_juniperus_sabina_variegata/small/30926374990_1fb6f214f5_b.jpg","thumbnail":"https://perenual.com/storage/species_image/4539_juniperus_sabina_variegata/thumbnail/30926374990_1fb6f214f5_b.jpg"}},{"id":4540,"common_name":"Rocky Mountain juniper","scientific_name":["Juniperus scopulorum 'Wichita Blue'"],"other_name":null,"cycle":"Perennial","watering":"Average","sunlight":["Full sun"],"default_image":{"image_id":605,"license":5,"license_name":"Attribution-ShareAlike License","license_url":"https://creativecommons.org/licenses/by-sa/2.0/","original_url":"https://perenual.com/storage/species_image/4540_juniperus_scopulorum_wichita_blue/og/52150927411_90eb160ee5_b.jpg","regular_url":"https://perenual.com/storage/species_image/4540_juniperus_scopulorum_wichita_blue/regular/52150927411_90eb160ee5_b.jpg","medium_url":"https://perenual.com/storage/species_image/4540_juniperus_scopulorum_wichita_blue/medium/52150927411_90eb160ee5_b.jpg","small_url":"https://perenual.com/storage/species_image/4540_juniperus_scopulorum_wichita_blue/small/52150927411_90eb160ee5_b.jpg","thumbnail":"https://perenual.com/storage/species_image/4540_juniperus_scopulorum_wichita_blue/thumbnail/52150927411_90eb160ee5_b.jpg"}},{"id":4541,"common_name":"singleseed juniper","scientific_name":["Juniperus squamata 'Blue Carpet'"],"other_name":["Singleseed Juniper","Blue Star juniper"],"cycle":"Perennial","watering":"Average","sunlight":["Full sun"," Part sun/part shade"],"default_image":{"image_id":614,"license":5,"license_name":"Attribution-ShareAlike License","license_url":"https://creativecommons.org/licenses/by-sa/2.0/","original_url":"https://perenual.com/storage/species_image/4544_juniperus_squamata_meyeri/og/52579851771_47e08c5b79_b.jpg","regular_url":"https://perenual.com/storage/species_image/4544_juniperus_squamata_meyeri/regular/52579851771_47e08c5b79_b.jpg","medium_url":"https://perenual.com/storage/species_image/4544_juniperus_squamata_meyeri/medium/52579851771_47e08c5b79_b.jpg","small_url":"https://perenual.com/storage/species_image/4544_juniperus_squamata_meyeri/small/52579851771_47e08c5b79_b.jpg","thumbnail":"https://perenual.com/storage/species_image/4544_juniperus_squamata_meyeri/thumbnail/52579851771_47e08c5b79_b.jpg"}},{"id":4542,"common_name":"singleseed juniper","scientific_name":["Juniperus squamata 'Blue Star'"],"other_name":["Singleseed Juniper","Blue Star juniper"],"cycle":"Perennial","watering":"Average","sunlight":["Full sun"," Part sun/part shade"],"default_image":{"image_id":615,"license":5,"license_name":"Attribution-ShareAlike License","license_url":"https://creativecommons.org/licenses/by-sa/2.0/","original_url":"https://perenual.com/storage/species_image/4542_juniperus_squamata_blue_star/og/32840123458_0381bb7c39_b.jpg","regular_url":"https://perenual.com/storage/species_image/4542_juniperus_squamata_blue_star/regular/32840123458_0381bb7c39_b.jpg","medium_url":"https://perenual.com/storage/species_image/4542_juniperus_squamata_blue_star/medium/32840123458_0381bb7c39_b.jpg","small_url":"https://perenual.com/storage/species_image/4542_juniperus_squamata_blue_star/small/32840123458_0381bb7c39_b.jpg","thumbnail":"https://perenual.com/storage/species_image/4542_juniperus_squamata_blue_star/thumbnail/32840123458_0381bb7c39_b.jpg"}},{"id":4543,"common_name":"singleseed juniper","scientific_name":["Juniperus squamata 'Holger'"],"other_name":["Singleseed Juniper","Blue Star juniper"],"cycle":"Perennial","watering":"Average","sunlight":["Full sun"," Part sun/part shade"],"default_image":{"image_id":9440,"license":5,"license_name":"Attribution-ShareAlike License","license_url":"https://creativecommons.org/licenses/by-sa/2.0/","original_url":"https://perenual.com/storage/species_image/4543_juniperus_squamata_holger/og/52580119174_6b2a0d7c85_b.jpg","regular_url":"https://perenual.com/storage/species_image/4543_juniperus_squamata_holger/regular/52580119174_6b2a0d7c85_b.jpg","medium_url":"https://perenual.com/storage/species_image/4543_juniperus_squamata_holger/medium/52580119174_6b2a0d7c85_b.jpg","small_url":"https://perenual.com/storage/species_image/4543_juniperus_squamata_holger/small/52580119174_6b2a0d7c85_b.jpg","thumbnail":"https://perenual.com/storage/species_image/4543_juniperus_squamata_holger/thumbnail/52580119174_6b2a0d7c85_b.jpg"}},{"id":4544,"common_name":"singleseed juniper","scientific_name":["Juniperus squamata 'Meyeri'"],"other_name":["Singleseed Juniper","Blue Star juniper"],"cycle":"Perennial","watering":"Average","sunlight":["Full sun"," Part sun/part shade"],"default_image":{"image_id":613,"license":5,"license_name":"Attribution-ShareAlike License","license_url":"https://creativecommons.org/licenses/by-sa/2.0/","original_url":"https://perenual.com/storage/species_image/4544_juniperus_squamata_meyeri/og/52579851871_5ee59e67dd_b.jpg","regular_url":"https://perenual.com/storage/species_image/4544_juniperus_squamata_meyeri/regular/52579851871_5ee59e67dd_b.jpg","medium_url":"https://perenual.com/storage/species_image/4544_juniperus_squamata_meyeri/medium/52579851871_5ee59e67dd_b.jpg","small_url":"https://perenual.com/storage/species_image/4544_juniperus_squamata_meyeri/small/52579851871_5ee59e67dd_b.jpg","thumbnail":"https://perenual.com/storage/species_image/4544_juniperus_squamata_meyeri/thumbnail/52579851871_5ee59e67dd_b.jpg"}},{"id":4545,"common_name":"red cedar","scientific_name":["Juniperus virginiana"],"other_name":null,"cycle":"Perennial","watering":"Minimum","sunlight":["Full sun"],"default_image":{"image_id":9,"license":5,"license_name":"Attribution-ShareAlike License","license_url":"https://creativecommons.org/licenses/by-sa/2.0/","original_url":"https://perenual.com/storage/species_image/2_abies_alba_pyramidalis/og/49255769768_df55596553_b.jpg","regular_url":"https://perenual.com/storage/species_image/2_abies_alba_pyramidalis/regular/49255769768_df55596553_b.jpg","medium_url":"https://perenual.com/storage/species_image/2_abies_alba_pyramidalis/medium/49255769768_df55596553_b.jpg","small_url":"https://perenual.com/storage/species_image/2_abies_alba_pyramidalis/small/49255769768_df55596553_b.jpg","thumbnail":"https://perenual.com/storage/species_image/2_abies_alba_pyramidalis/thumbnail/49255769768_df55596553_b.jpg"}},{"id":4546,"common_name":"red cedar","scientific_name":["Juniperus virginiana 'Burkii'"],"other_name":null,"cycle":"Perennial","watering":"Average","sunlight":["Full sun"],"default_image":{"image_id":9,"license":5,"license_name":"Attribution-ShareAlike License","license_url":"https://creativecommons.org/licenses/by-sa/2.0/","original_url":"https://perenual.com/storage/species_image/2_abies_alba_pyramidalis/og/49255769768_df55596553_b.jpg","regular_url":"https://perenual.com/storage/species_image/2_abies_alba_pyramidalis/regular/49255769768_df55596553_b.jpg","medium_url":"https://perenual.com/storage/species_image/2_abies_alba_pyramidalis/medium/49255769768_df55596553_b.jpg","small_url":"https://perenual.com/storage/species_image/2_abies_alba_pyramidalis/small/49255769768_df55596553_b.jpg","thumbnail":"https://perenual.com/storage/species_image/2_abies_alba_pyramidalis/thumbnail/49255769768_df55596553_b.jpg"}},{"id":4547,"common_name":"red cedar","scientific_name":["Juniperus virginiana 'Canaertii'"],"other_name":null,"cycle":"Perennial","watering":"Average","sunlight":["Full sun"],"default_image":{"image_id":9,"license":5,"license_name":"Attribution-ShareAlike License","license_url":"https://creativecommons.org/licenses/by-sa/2.0/","original_url":"https://perenual.com/storage/species_image/2_abies_alba_pyramidalis/og/49255769768_df55596553_b.jpg","regular_url":"https://perenual.com/storage/species_image/2_abies_alba_pyramidalis/regular/49255769768_df55596553_b.jpg","medium_url":"https://perenual.com/storage/species_image/2_abies_alba_pyramidalis/medium/49255769768_df55596553_b.jpg","small_url":"https://perenual.com/storage/species_image/2_abies_alba_pyramidalis/small/49255769768_df55596553_b.jpg","thumbnail":"https://perenual.com/storage/species_image/2_abies_alba_pyramidalis/thumbnail/49255769768_df55596553_b.jpg"}},{"id":4548,"common_name":"red cedar","scientific_name":["Juniperus virginiana 'Grey Owl'"],"other_name":null,"cycle":"Perennial","watering":"Average","sunlight":["Full sun"],"default_image":{"image_id":22025,"license":2,"license_name":null,"license_url":null,"original_url":"https://perenual.com/storage/species_image/4548_juniperus_virginiana_grey_owl/og/52532036306_b1b02f2eb3_b.jpg","regular_url":"https://perenual.com/storage/species_image/4548_juniperus_virginiana_grey_owl/regular/52532036306_b1b02f2eb3_b.jpg","medium_url":"https://perenual.com/storage/species_image/4548_juniperus_virginiana_grey_owl/medium/52532036306_b1b02f2eb3_b.jpg","small_url":"https://perenual.com/storage/species_image/4548_juniperus_virginiana_grey_owl/small/52532036306_b1b02f2eb3_b.jpg","thumbnail":"https://perenual.com/storage/species_image/4548_juniperus_virginiana_grey_owl/thumbnail/52532036306_b1b02f2eb3_b.jpg"}},{"id":4549,"common_name":"red cedar","scientific_name":["Juniperus virginiana 'Hetzii'"],"other_name":null,"cycle":"Perennial","watering":"Average","sunlight":["Full sun"],"default_image":{"image_id":9,"license":5,"license_name":"Attribution-ShareAlike License","license_url":"https://creativecommons.org/licenses/by-sa/2.0/","original_url":"https://perenual.com/storage/species_image/2_abies_alba_pyramidalis/og/49255769768_df55596553_b.jpg","regular_url":"https://perenual.com/storage/species_image/2_abies_alba_pyramidalis/regular/49255769768_df55596553_b.jpg","medium_url":"https://perenual.com/storage/species_image/2_abies_alba_pyramidalis/medium/49255769768_df55596553_b.jpg","small_url":"https://perenual.com/storage/species_image/2_abies_alba_pyramidalis/small/49255769768_df55596553_b.jpg","thumbnail":"https://perenual.com/storage/species_image/2_abies_alba_pyramidalis/thumbnail/49255769768_df55596553_b.jpg"}},{"id":4550,"common_name":"red cedar","scientific_name":["Juniperus virginiana 'Hillspire'"],"other_name":null,"cycle":"Perennial","watering":"Average","sunlight":["Full sun"],"default_image":{"image_id":22027,"license":2,"license_name":null,"license_url":null,"original_url":"https://perenual.com/storage/species_image/4550_juniperus_virginiana_hillspire/og/52607326867_e45bcf7c3a_b.jpg","regular_url":"https://perenual.com/storage/species_image/4550_juniperus_virginiana_hillspire/regular/52607326867_e45bcf7c3a_b.jpg","medium_url":"https://perenual.com/storage/species_image/4550_juniperus_virginiana_hillspire/medium/52607326867_e45bcf7c3a_b.jpg","small_url":"https://perenual.com/storage/species_image/4550_juniperus_virginiana_hillspire/small/52607326867_e45bcf7c3a_b.jpg","thumbnail":"https://perenual.com/storage/species_image/4550_juniperus_virginiana_hillspire/thumbnail/52607326867_e45bcf7c3a_b.jpg"}},{"id":4551,"common_name":"red cedar","scientific_name":["Juniperus virginiana 'Taylor'"],"other_name":null,"cycle":"Perennial","watering":"Average","sunlight":["Full sun"],"default_image":{"image_id":9,"license":5,"license_name":"Attribution-ShareAlike License","license_url":"https://creativecommons.org/licenses/by-sa/2.0/","original_url":"https://perenual.com/storage/species_image/2_abies_alba_pyramidalis/og/49255769768_df55596553_b.jpg","regular_url":"https://perenual.com/storage/species_image/2_abies_alba_pyramidalis/regular/49255769768_df55596553_b.jpg","medium_url":"https://perenual.com/storage/species_image/2_abies_alba_pyramidalis/medium/49255769768_df55596553_b.jpg","small_url":"https://perenual.com/storage/species_image/2_abies_alba_pyramidalis/small/49255769768_df55596553_b.jpg","thumbnail":"https://perenual.com/storage/species_image/2_abies_alba_pyramidalis/thumbnail/49255769768_df55596553_b.jpg"}},{"id":4552,"common_name":"yellow jacobinia","scientific_name":["Justicia aurea"],"other_name":null,"cycle":"Perennial","watering":"Average","sunlight":["Part shade"],"default_image":{"image_id":9447,"license":4,"license_name":"Attribution License","license_url":"https://creativecommons.org/licenses/by/2.0/","original_url":"https://perenual.com/storage/species_image/4552_justicia_aurea/og/24599819290_7f31445b58_b.jpg","regular_url":"https://perenual.com/storage/species_image/4552_justicia_aurea/regular/24599819290_7f31445b58_b.jpg","medium_url":"https://perenual.com/storage/species_image/4552_justicia_aurea/medium/24599819290_7f31445b58_b.jpg","small_url":"https://perenual.com/storage/species_image/4552_justicia_aurea/small/24599819290_7f31445b58_b.jpg","thumbnail":"https://perenual.com/storage/species_image/4552_justicia_aurea/thumbnail/24599819290_7f31445b58_b.jpg"}},{"id":4553,"common_name":"shrimp plant","scientific_name":["Justicia brandegeeana"],"other_name":null,"cycle":"Perennial","watering":"Average","sunlight":["Full sun","part shade"],"default_image":{"image_id":9452,"license":4,"license_name":"Attribution License","license_url":"https://creativecommons.org/licenses/by/2.0/","original_url":"https://perenual.com/storage/species_image/4553_justicia_brandegeeana/og/51362729236_d27e1a50bc_b.jpg","regular_url":"https://perenual.com/storage/species_image/4553_justicia_brandegeeana/regular/51362729236_d27e1a50bc_b.jpg","medium_url":"https://perenual.com/storage/species_image/4553_justicia_brandegeeana/medium/51362729236_d27e1a50bc_b.jpg","small_url":"https://perenual.com/storage/species_image/4553_justicia_brandegeeana/small/51362729236_d27e1a50bc_b.jpg","thumbnail":"https://perenual.com/storage/species_image/4553_justicia_brandegeeana/thumbnail/51362729236_d27e1a50bc_b.jpg"}},{"id":4554,"common_name":"shrimp plant","scientific_name":["Justicia brandegeeana 'Yellow Queen'"],"other_name":null,"cycle":"Perennial","watering":"Average","sunlight":["Full sun","part shade"],"default_image":{"image_id":9460,"license":4,"license_name":"Attribution License","license_url":"https://creativecommons.org/licenses/by/2.0/","original_url":"https://perenual.com/storage/species_image/4554_justicia_brandegeeana_yellow_queen/og/52549876314_74dcaf5ca9_b.jpg","regular_url":"https://perenual.com/storage/species_image/4554_justicia_brandegeeana_yellow_queen/regular/52549876314_74dcaf5ca9_b.jpg","medium_url":"https://perenual.com/storage/species_image/4554_justicia_brandegeeana_yellow_queen/medium/52549876314_74dcaf5ca9_b.jpg","small_url":"https://perenual.com/storage/species_image/4554_justicia_brandegeeana_yellow_queen/small/52549876314_74dcaf5ca9_b.jpg","thumbnail":"https://perenual.com/storage/species_image/4554_justicia_brandegeeana_yellow_queen/thumbnail/52549876314_74dcaf5ca9_b.jpg"}},{"id":4555,"common_name":"purple shrimp plant","scientific_name":["Justicia scheidweileri"],"other_name":null,"cycle":"Perennial","watering":"Average","sunlight":["Part shade","full shade"],"default_image":{"image_id":9464,"license":4,"license_name":"Attribution License","license_url":"https://creativecommons.org/licenses/by/2.0/","original_url":"https://perenual.com/storage/species_image/4555_justicia_scheidweileri/og/18688423026_86c298caf1_b.jpg","regular_url":"https://perenual.com/storage/species_image/4555_justicia_scheidweileri/regular/18688423026_86c298caf1_b.jpg","medium_url":"https://perenual.com/storage/species_image/4555_justicia_scheidweileri/medium/18688423026_86c298caf1_b.jpg","small_url":"https://perenual.com/storage/species_image/4555_justicia_scheidweileri/small/18688423026_86c298caf1_b.jpg","thumbnail":"https://perenual.com/storage/species_image/4555_justicia_scheidweileri/thumbnail/18688423026_86c298caf1_b.jpg"}},{"id":4556,"common_name":"water willow","scientific_name":["Justicia tweediana"],"other_name":null,"cycle":"Perennial","watering":"Minimum","sunlight":["Full sun"],"default_image":{"image_id":9467,"license":5,"license_name":"Attribution-ShareAlike License","license_url":"https://creativecommons.org/licenses/by-sa/2.0/","original_url":"https://perenual.com/storage/species_image/4556_justicia_tweediana/og/52256128860_158d7ffc4d_b.jpg","regular_url":"https://perenual.com/storage/species_image/4556_justicia_tweediana/regular/52256128860_158d7ffc4d_b.jpg","medium_url":"https://perenual.com/storage/species_image/4556_justicia_tweediana/medium/52256128860_158d7ffc4d_b.jpg","small_url":"https://perenual.com/storage/species_image/4556_justicia_tweediana/small/52256128860_158d7ffc4d_b.jpg","thumbnail":"https://perenual.com/storage/species_image/4556_justicia_tweediana/thumbnail/52256128860_158d7ffc4d_b.jpg"}},{"id":4557,"common_name":"velvet leaf kalanchoe","scientific_name":["Kalanchoe beharensis"],"other_name":null,"cycle":"Perennial","watering":"Minimum","sunlight":["Full sun","part shade"],"default_image":{"image_id":9469,"license":4,"license_name":"Attribution License","license_url":"https://creativecommons.org/licenses/by/2.0/","original_url":"https://perenual.com/storage/species_image/4557_kalanchoe_beharensis/og/49939728313_b2d31f94eb_b.jpg","regular_url":"https://perenual.com/storage/species_image/4557_kalanchoe_beharensis/regular/49939728313_b2d31f94eb_b.jpg","medium_url":"https://perenual.com/storage/species_image/4557_kalanchoe_beharensis/medium/49939728313_b2d31f94eb_b.jpg","small_url":"https://perenual.com/storage/species_image/4557_kalanchoe_beharensis/small/49939728313_b2d31f94eb_b.jpg","thumbnail":"https://perenual.com/storage/species_image/4557_kalanchoe_beharensis/thumbnail/49939728313_b2d31f94eb_b.jpg"}},{"id":4558,"common_name":"kalanchoe","scientific_name":["Kalanchoe blossfeldiana"],"other_name":null,"cycle":"Perennial","watering":"Minimum","sunlight":[],"default_image":{"image_id":9474,"license":4,"license_name":"Attribution License","license_url":"https://creativecommons.org/licenses/by/2.0/","original_url":"https://perenual.com/storage/species_image/4558_kalanchoe_blossfeldiana/og/52581762769_9d11559baa_b.jpg","regular_url":"https://perenual.com/storage/species_image/4558_kalanchoe_blossfeldiana/regular/52581762769_9d11559baa_b.jpg","medium_url":"https://perenual.com/storage/species_image/4558_kalanchoe_blossfeldiana/medium/52581762769_9d11559baa_b.jpg","small_url":"https://perenual.com/storage/species_image/4558_kalanchoe_blossfeldiana/small/52581762769_9d11559baa_b.jpg","thumbnail":"https://perenual.com/storage/species_image/4558_kalanchoe_blossfeldiana/thumbnail/52581762769_9d11559baa_b.jpg"}},{"id":4559,"common_name":"kalanchoe","scientific_name":["Kalanchoe thyrsiflora 'Flapjacks'"],"other_name":null,"cycle":"Perennial","watering":"Minimum","sunlight":["Full sun","part shade"],"default_image":{"image_id":9479,"license":5,"license_name":"Attribution-ShareAlike License","license_url":"https://creativecommons.org/licenses/by-sa/2.0/","original_url":"https://perenual.com/storage/species_image/4559_kalanchoe_thyrsiflora_flapjacks/og/14019895008_9b101daa09_b.jpg","regular_url":"https://perenual.com/storage/species_image/4559_kalanchoe_thyrsiflora_flapjacks/regular/14019895008_9b101daa09_b.jpg","medium_url":"https://perenual.com/storage/species_image/4559_kalanchoe_thyrsiflora_flapjacks/medium/14019895008_9b101daa09_b.jpg","small_url":"https://perenual.com/storage/species_image/4559_kalanchoe_thyrsiflora_flapjacks/small/14019895008_9b101daa09_b.jpg","thumbnail":"https://perenual.com/storage/species_image/4559_kalanchoe_thyrsiflora_flapjacks/thumbnail/14019895008_9b101daa09_b.jpg"}},{"id":4560,"common_name":"kalimeris","scientific_name":["Kalimeris incisa 'Blue Star'"],"other_name":null,"cycle":"Perennial","watering":"Average","sunlight":["Full sun","part shade"],"default_image":{"image_id":9481,"license":5,"license_name":"Attribution-ShareAlike License","license_url":"https://creativecommons.org/licenses/by-sa/2.0/","original_url":"https://perenual.com/storage/species_image/4560_kalimeris_incisa_blue_star/og/20666938180_0c6edb2533_b.jpg","regular_url":"https://perenual.com/storage/species_image/4560_kalimeris_incisa_blue_star/regular/20666938180_0c6edb2533_b.jpg","medium_url":"https://perenual.com/storage/species_image/4560_kalimeris_incisa_blue_star/medium/20666938180_0c6edb2533_b.jpg","small_url":"https://perenual.com/storage/species_image/4560_kalimeris_incisa_blue_star/small/20666938180_0c6edb2533_b.jpg","thumbnail":"https://perenual.com/storage/species_image/4560_kalimeris_incisa_blue_star/thumbnail/20666938180_0c6edb2533_b.jpg"}}],"to":4560,"per_page":30,"current_page":152,"from":4531,"last_page":200,"total":6000}