{"data":[{"id":2731,"common_name":"eastern Cape blue cycad","scientific_name":["Encephalartos horridus"],"other_name":null,"cycle":"Perennial","watering":"Minimum","sunlight":["Full sun"],"default_image":{"image_id":5998,"license":4,"license_name":"Attribution License","license_url":"https://creativecommons.org/licenses/by/2.0/","original_url":"https://perenual.com/storage/species_image/2731_encephalartos_horridus/og/24414094554_41ff99f331_b.jpg","regular_url":"https://perenual.com/storage/species_image/2731_encephalartos_horridus/regular/24414094554_41ff99f331_b.jpg","medium_url":"https://perenual.com/storage/species_image/2731_encephalartos_horridus/medium/24414094554_41ff99f331_b.jpg","small_url":"https://perenual.com/storage/species_image/2731_encephalartos_horridus/small/24414094554_41ff99f331_b.jpg","thumbnail":"https://perenual.com/storage/species_image/2731_encephalartos_horridus/thumbnail/24414094554_41ff99f331_b.jpg"}},{"id":2732,"common_name":"false rue anemone","scientific_name":["Enemion biternatum"],"other_name":null,"cycle":"Perennial","watering":"Average","sunlight":["Part shade"],"default_image":{"image_id":6000,"license":5,"license_name":"Attribution-ShareAlike License","license_url":"https://creativecommons.org/licenses/by-sa/2.0/","original_url":"https://perenual.com/storage/species_image/2732_enemion_biternatum/og/52350986618_b1e726123d_b.jpg","regular_url":"https://perenual.com/storage/species_image/2732_enemion_biternatum/regular/52350986618_b1e726123d_b.jpg","medium_url":"https://perenual.com/storage/species_image/2732_enemion_biternatum/medium/52350986618_b1e726123d_b.jpg","small_url":"https://perenual.com/storage/species_image/2732_enemion_biternatum/small/52350986618_b1e726123d_b.jpg","thumbnail":"https://perenual.com/storage/species_image/2732_enemion_biternatum/thumbnail/52350986618_b1e726123d_b.jpg"}},{"id":2733,"common_name":"furin-tsutsuji","scientific_name":["Enkianthus campanulatus"],"other_name":null,"cycle":"Perennial","watering":"Average","sunlight":["Full sun"," Part sun/part shade"],"default_image":{"image_id":9,"license":5,"license_name":"Attribution-ShareAlike License","license_url":"https://creativecommons.org/licenses/by-sa/2.0/","original_url":"https://perenual.com/storage/species_image/2_abies_alba_pyramidalis/og/49255769768_df55596553_b.jpg","regular_url":"https://perenual.com/storage/species_image/2_abies_alba_pyramidalis/regular/49255769768_df55596553_b.jpg","medium_url":"https://perenual.com/storage/species_image/2_abies_alba_pyramidalis/medium/49255769768_df55596553_b.jpg","small_url":"https://perenual.com/storage/species_image/2_abies_alba_pyramidalis/small/49255769768_df55596553_b.jpg","thumbnail":"https://perenual.com/storage/species_image/2_abies_alba_pyramidalis/thumbnail/49255769768_df55596553_b.jpg"}},{"id":2734,"common_name":"furin-tsutsuji","scientific_name":["Enkianthus campanulatus 'Showy Lantern'"],"other_name":null,"cycle":"Perennial","watering":"Average","sunlight":["Full sun"," Part sun/part shade"],"default_image":{"image_id":9,"license":5,"license_name":"Attribution-ShareAlike License","license_url":"https://creativecommons.org/licenses/by-sa/2.0/","original_url":"https://perenual.com/storage/species_image/2_abies_alba_pyramidalis/og/49255769768_df55596553_b.jpg","regular_url":"https://perenual.com/storage/species_image/2_abies_alba_pyramidalis/regular/49255769768_df55596553_b.jpg","medium_url":"https://perenual.com/storage/species_image/2_abies_alba_pyramidalis/medium/49255769768_df55596553_b.jpg","small_url":"https://perenual.com/storage/species_image/2_abies_alba_pyramidalis/small/49255769768_df55596553_b.jpg","thumbnail":"https://perenual.com/storage/species_image/2_abies_alba_pyramidalis/thumbnail/49255769768_df55596553_b.jpg"}},{"id":2735,"common_name":"redvein enkianthus","scientific_name":["Enkianthus campanulatus var. sikokianus"],"other_name":null,"cycle":"Perennial","watering":"Average","sunlight":["Full sun"," Part sun/part shade"],"default_image":{"image_id":9,"license":5,"license_name":"Attribution-ShareAlike License","license_url":"https://creativecommons.org/licenses/by-sa/2.0/","original_url":"https://perenual.com/storage/species_image/2_abies_alba_pyramidalis/og/49255769768_df55596553_b.jpg","regular_url":"https://perenual.com/storage/species_image/2_abies_alba_pyramidalis/regular/49255769768_df55596553_b.jpg","medium_url":"https://perenual.com/storage/species_image/2_abies_alba_pyramidalis/medium/49255769768_df55596553_b.jpg","small_url":"https://perenual.com/storage/species_image/2_abies_alba_pyramidalis/small/49255769768_df55596553_b.jpg","thumbnail":"https://perenual.com/storage/species_image/2_abies_alba_pyramidalis/thumbnail/49255769768_df55596553_b.jpg"}},{"id":2736,"common_name":"white enkianthus","scientific_name":["Enkianthus perulatus"],"other_name":null,"cycle":"Perennial","watering":"Average","sunlight":["Full sun","part shade"],"default_image":{"image_id":9,"license":5,"license_name":"Attribution-ShareAlike License","license_url":"https://creativecommons.org/licenses/by-sa/2.0/","original_url":"https://perenual.com/storage/species_image/2_abies_alba_pyramidalis/og/49255769768_df55596553_b.jpg","regular_url":"https://perenual.com/storage/species_image/2_abies_alba_pyramidalis/regular/49255769768_df55596553_b.jpg","medium_url":"https://perenual.com/storage/species_image/2_abies_alba_pyramidalis/medium/49255769768_df55596553_b.jpg","small_url":"https://perenual.com/storage/species_image/2_abies_alba_pyramidalis/small/49255769768_df55596553_b.jpg","thumbnail":"https://perenual.com/storage/species_image/2_abies_alba_pyramidalis/thumbnail/49255769768_df55596553_b.jpg"}},{"id":2737,"common_name":"Abyssinian banana","scientific_name":["Ensete ventricosum"],"other_name":null,"cycle":"Perennial","watering":"Average","sunlight":["Full sun"],"default_image":{"image_id":6008,"license":4,"license_name":"Attribution License","license_url":"https://creativecommons.org/licenses/by/2.0/","original_url":"https://perenual.com/storage/species_image/2737_ensete_ventricosum/og/24805853642_c4ab751d3c_b.jpg","regular_url":"https://perenual.com/storage/species_image/2737_ensete_ventricosum/regular/24805853642_c4ab751d3c_b.jpg","medium_url":"https://perenual.com/storage/species_image/2737_ensete_ventricosum/medium/24805853642_c4ab751d3c_b.jpg","small_url":"https://perenual.com/storage/species_image/2737_ensete_ventricosum/small/24805853642_c4ab751d3c_b.jpg","thumbnail":"https://perenual.com/storage/species_image/2737_ensete_ventricosum/thumbnail/24805853642_c4ab751d3c_b.jpg"}},{"id":2738,"common_name":"red banana","scientific_name":["Ensete ventricosum 'Maurelii'"],"other_name":null,"cycle":"Perennial","watering":"Average","sunlight":["Full sun"],"default_image":{"image_id":6011,"license":5,"license_name":"Attribution-ShareAlike License","license_url":"https://creativecommons.org/licenses/by-sa/2.0/","original_url":"https://perenual.com/storage/species_image/2738_ensete_ventricosum_maurelii/og/30521107165_6c5cc7a5c3_b.jpg","regular_url":"https://perenual.com/storage/species_image/2738_ensete_ventricosum_maurelii/regular/30521107165_6c5cc7a5c3_b.jpg","medium_url":"https://perenual.com/storage/species_image/2738_ensete_ventricosum_maurelii/medium/30521107165_6c5cc7a5c3_b.jpg","small_url":"https://perenual.com/storage/species_image/2738_ensete_ventricosum_maurelii/small/30521107165_6c5cc7a5c3_b.jpg","thumbnail":"https://perenual.com/storage/species_image/2738_ensete_ventricosum_maurelii/thumbnail/30521107165_6c5cc7a5c3_b.jpg"}},{"id":2739,"common_name":"snow poppy","scientific_name":["Eomecon chionantha"],"other_name":null,"cycle":"Perennial","watering":"Average","sunlight":["Full sun","part shade"],"default_image":{"image_id":6014,"license":5,"license_name":"Attribution-ShareAlike License","license_url":"https://creativecommons.org/licenses/by-sa/2.0/","original_url":"https://perenual.com/storage/species_image/2739_eomecon_chionantha/og/32623058390_e2ff9327dd_b.jpg","regular_url":"https://perenual.com/storage/species_image/2739_eomecon_chionantha/regular/32623058390_e2ff9327dd_b.jpg","medium_url":"https://perenual.com/storage/species_image/2739_eomecon_chionantha/medium/32623058390_e2ff9327dd_b.jpg","small_url":"https://perenual.com/storage/species_image/2739_eomecon_chionantha/small/32623058390_e2ff9327dd_b.jpg","thumbnail":"https://perenual.com/storage/species_image/2739_eomecon_chionantha/thumbnail/32623058390_e2ff9327dd_b.jpg"}},{"id":2740,"common_name":"hummingbird's trumpet","scientific_name":["Epilobium californica 'Bowman'"],"other_name":null,"cycle":"Perennial","watering":"Minimum","sunlight":["Full sun","part shade"],"default_image":{"image_id":9,"license":5,"license_name":"Attribution-ShareAlike License","license_url":"https://creativecommons.org/licenses/by-sa/2.0/","original_url":"https://perenual.com/storage/species_image/2_abies_alba_pyramidalis/og/49255769768_df55596553_b.jpg","regular_url":"https://perenual.com/storage/species_image/2_abies_alba_pyramidalis/regular/49255769768_df55596553_b.jpg","medium_url":"https://perenual.com/storage/species_image/2_abies_alba_pyramidalis/medium/49255769768_df55596553_b.jpg","small_url":"https://perenual.com/storage/species_image/2_abies_alba_pyramidalis/small/49255769768_df55596553_b.jpg","thumbnail":"https://perenual.com/storage/species_image/2_abies_alba_pyramidalis/thumbnail/49255769768_df55596553_b.jpg"}},{"id":2741,"common_name":"bishop's hat","scientific_name":["Epimedium (#530)"],"other_name":null,"cycle":"Perennial","watering":"Minimum","sunlight":["Part shade","full shade"],"default_image":{"image_id":9,"license":5,"license_name":"Attribution-ShareAlike License","license_url":"https://creativecommons.org/licenses/by-sa/2.0/","original_url":"https://perenual.com/storage/species_image/2_abies_alba_pyramidalis/og/49255769768_df55596553_b.jpg","regular_url":"https://perenual.com/storage/species_image/2_abies_alba_pyramidalis/regular/49255769768_df55596553_b.jpg","medium_url":"https://perenual.com/storage/species_image/2_abies_alba_pyramidalis/medium/49255769768_df55596553_b.jpg","small_url":"https://perenual.com/storage/species_image/2_abies_alba_pyramidalis/small/49255769768_df55596553_b.jpg","thumbnail":"https://perenual.com/storage/species_image/2_abies_alba_pyramidalis/thumbnail/49255769768_df55596553_b.jpg"}},{"id":2742,"common_name":"bishop's hat","scientific_name":["Epimedium acuminatum"],"other_name":null,"cycle":"Perennial","watering":"Minimum","sunlight":["Part shade","full shade"],"default_image":{"image_id":9,"license":5,"license_name":"Attribution-ShareAlike License","license_url":"https://creativecommons.org/licenses/by-sa/2.0/","original_url":"https://perenual.com/storage/species_image/2_abies_alba_pyramidalis/og/49255769768_df55596553_b.jpg","regular_url":"https://perenual.com/storage/species_image/2_abies_alba_pyramidalis/regular/49255769768_df55596553_b.jpg","medium_url":"https://perenual.com/storage/species_image/2_abies_alba_pyramidalis/medium/49255769768_df55596553_b.jpg","small_url":"https://perenual.com/storage/species_image/2_abies_alba_pyramidalis/small/49255769768_df55596553_b.jpg","thumbnail":"https://perenual.com/storage/species_image/2_abies_alba_pyramidalis/thumbnail/49255769768_df55596553_b.jpg"}},{"id":2743,"common_name":"bishop's hat","scientific_name":["Epimedium alpinum"],"other_name":null,"cycle":"Perennial","watering":"Minimum","sunlight":["Part shade","full shade"],"default_image":{"image_id":6018,"license":5,"license_name":"Attribution-ShareAlike License","license_url":"https://creativecommons.org/licenses/by-sa/2.0/","original_url":"https://perenual.com/storage/species_image/2743_epimedium_alpinum/og/4555081204_a942935a76_b.jpg","regular_url":"https://perenual.com/storage/species_image/2743_epimedium_alpinum/regular/4555081204_a942935a76_b.jpg","medium_url":"https://perenual.com/storage/species_image/2743_epimedium_alpinum/medium/4555081204_a942935a76_b.jpg","small_url":"https://perenual.com/storage/species_image/2743_epimedium_alpinum/small/4555081204_a942935a76_b.jpg","thumbnail":"https://perenual.com/storage/species_image/2743_epimedium_alpinum/thumbnail/4555081204_a942935a76_b.jpg"}},{"id":2744,"common_name":"bishop's hat","scientific_name":["Epimedium brachyrrhizum"],"other_name":null,"cycle":"Perennial","watering":"Minimum","sunlight":["Part shade","full shade"],"default_image":{"image_id":9,"license":5,"license_name":"Attribution-ShareAlike License","license_url":"https://creativecommons.org/licenses/by-sa/2.0/","original_url":"https://perenual.com/storage/species_image/2_abies_alba_pyramidalis/og/49255769768_df55596553_b.jpg","regular_url":"https://perenual.com/storage/species_image/2_abies_alba_pyramidalis/regular/49255769768_df55596553_b.jpg","medium_url":"https://perenual.com/storage/species_image/2_abies_alba_pyramidalis/medium/49255769768_df55596553_b.jpg","small_url":"https://perenual.com/storage/species_image/2_abies_alba_pyramidalis/small/49255769768_df55596553_b.jpg","thumbnail":"https://perenual.com/storage/species_image/2_abies_alba_pyramidalis/thumbnail/49255769768_df55596553_b.jpg"}},{"id":2745,"common_name":"bishop's hat","scientific_name":["Epimedium brevicornu"],"other_name":null,"cycle":"Perennial","watering":"Minimum","sunlight":["Part shade","full shade"],"default_image":{"image_id":6019,"license":5,"license_name":"Attribution-ShareAlike License","license_url":"https://creativecommons.org/licenses/by-sa/2.0/","original_url":"https://perenual.com/storage/species_image/2745_epimedium_brevicornu/og/9227116763_e8c3728d3b_b.jpg","regular_url":"https://perenual.com/storage/species_image/2745_epimedium_brevicornu/regular/9227116763_e8c3728d3b_b.jpg","medium_url":"https://perenual.com/storage/species_image/2745_epimedium_brevicornu/medium/9227116763_e8c3728d3b_b.jpg","small_url":"https://perenual.com/storage/species_image/2745_epimedium_brevicornu/small/9227116763_e8c3728d3b_b.jpg","thumbnail":"https://perenual.com/storage/species_image/2745_epimedium_brevicornu/thumbnail/9227116763_e8c3728d3b_b.jpg"}},{"id":2746,"common_name":"bishop's hat","scientific_name":["Epimedium cantabrigiense"],"other_name":null,"cycle":"Perennial","watering":"Minimum","sunlight":["Part shade","full shade"],"default_image":{"image_id":6020,"license":4,"license_name":"Attribution License","license_url":"https://creativecommons.org/licenses/by/2.0/","original_url":"https://perenual.com/storage/species_image/2746_epimedium_cantabrigiense/og/10720745143_04eb2a8be7_b.jpg","regular_url":"https://perenual.com/storage/species_image/2746_epimedium_cantabrigiense/regular/10720745143_04eb2a8be7_b.jpg","medium_url":"https://perenual.com/storage/species_image/2746_epimedium_cantabrigiense/medium/10720745143_04eb2a8be7_b.jpg","small_url":"https://perenual.com/storage/species_image/2746_epimedium_cantabrigiense/small/10720745143_04eb2a8be7_b.jpg","thumbnail":"https://perenual.com/storage/species_image/2746_epimedium_cantabrigiense/thumbnail/10720745143_04eb2a8be7_b.jpg"}},{"id":2747,"common_name":"bishop's hat","scientific_name":["Epimedium diphyllum"],"other_name":null,"cycle":"Perennial","watering":"Minimum","sunlight":["Part shade","full shade"],"default_image":{"image_id":9,"license":5,"license_name":"Attribution-ShareAlike License","license_url":"https://creativecommons.org/licenses/by-sa/2.0/","original_url":"https://perenual.com/storage/species_image/2_abies_alba_pyramidalis/og/49255769768_df55596553_b.jpg","regular_url":"https://perenual.com/storage/species_image/2_abies_alba_pyramidalis/regular/49255769768_df55596553_b.jpg","medium_url":"https://perenual.com/storage/species_image/2_abies_alba_pyramidalis/medium/49255769768_df55596553_b.jpg","small_url":"https://perenual.com/storage/species_image/2_abies_alba_pyramidalis/small/49255769768_df55596553_b.jpg","thumbnail":"https://perenual.com/storage/species_image/2_abies_alba_pyramidalis/thumbnail/49255769768_df55596553_b.jpg"}},{"id":2748,"common_name":"bishop's hat","scientific_name":["Epimedium fargesii"],"other_name":null,"cycle":"Perennial","watering":"Minimum","sunlight":["Part shade","full shade"],"default_image":{"image_id":9,"license":5,"license_name":"Attribution-ShareAlike License","license_url":"https://creativecommons.org/licenses/by-sa/2.0/","original_url":"https://perenual.com/storage/species_image/2_abies_alba_pyramidalis/og/49255769768_df55596553_b.jpg","regular_url":"https://perenual.com/storage/species_image/2_abies_alba_pyramidalis/regular/49255769768_df55596553_b.jpg","medium_url":"https://perenual.com/storage/species_image/2_abies_alba_pyramidalis/medium/49255769768_df55596553_b.jpg","small_url":"https://perenual.com/storage/species_image/2_abies_alba_pyramidalis/small/49255769768_df55596553_b.jpg","thumbnail":"https://perenual.com/storage/species_image/2_abies_alba_pyramidalis/thumbnail/49255769768_df55596553_b.jpg"}},{"id":2749,"common_name":"bishop's hat","scientific_name":["Epimedium franchetii"],"other_name":null,"cycle":"Perennial","watering":"Minimum","sunlight":["Part shade","full shade"],"default_image":{"image_id":9,"license":5,"license_name":"Attribution-ShareAlike License","license_url":"https://creativecommons.org/licenses/by-sa/2.0/","original_url":"https://perenual.com/storage/species_image/2_abies_alba_pyramidalis/og/49255769768_df55596553_b.jpg","regular_url":"https://perenual.com/storage/species_image/2_abies_alba_pyramidalis/regular/49255769768_df55596553_b.jpg","medium_url":"https://perenual.com/storage/species_image/2_abies_alba_pyramidalis/medium/49255769768_df55596553_b.jpg","small_url":"https://perenual.com/storage/species_image/2_abies_alba_pyramidalis/small/49255769768_df55596553_b.jpg","thumbnail":"https://perenual.com/storage/species_image/2_abies_alba_pyramidalis/thumbnail/49255769768_df55596553_b.jpg"}},{"id":2750,"common_name":"bishop's hat","scientific_name":["Epimedium grandiflorum"],"other_name":null,"cycle":"Perennial","watering":"Minimum","sunlight":["Part shade","full shade"],"default_image":{"image_id":6024,"license":4,"license_name":"Attribution License","license_url":"https://creativecommons.org/licenses/by/2.0/","original_url":"https://perenual.com/storage/species_image/2750_epimedium_grandiflorum/og/26716283162_a5f70cd814_b.jpg","regular_url":"https://perenual.com/storage/species_image/2750_epimedium_grandiflorum/regular/26716283162_a5f70cd814_b.jpg","medium_url":"https://perenual.com/storage/species_image/2750_epimedium_grandiflorum/medium/26716283162_a5f70cd814_b.jpg","small_url":"https://perenual.com/storage/species_image/2750_epimedium_grandiflorum/small/26716283162_a5f70cd814_b.jpg","thumbnail":"https://perenual.com/storage/species_image/2750_epimedium_grandiflorum/thumbnail/26716283162_a5f70cd814_b.jpg"}},{"id":2751,"common_name":"bishop's hat","scientific_name":["Epimedium grandiflorum 'Lilafee'"],"other_name":null,"cycle":"Perennial","watering":"Minimum","sunlight":["Part shade","full shade"],"default_image":{"image_id":9,"license":5,"license_name":"Attribution-ShareAlike License","license_url":"https://creativecommons.org/licenses/by-sa/2.0/","original_url":"https://perenual.com/storage/species_image/2_abies_alba_pyramidalis/og/49255769768_df55596553_b.jpg","regular_url":"https://perenual.com/storage/species_image/2_abies_alba_pyramidalis/regular/49255769768_df55596553_b.jpg","medium_url":"https://perenual.com/storage/species_image/2_abies_alba_pyramidalis/medium/49255769768_df55596553_b.jpg","small_url":"https://perenual.com/storage/species_image/2_abies_alba_pyramidalis/small/49255769768_df55596553_b.jpg","thumbnail":"https://perenual.com/storage/species_image/2_abies_alba_pyramidalis/thumbnail/49255769768_df55596553_b.jpg"}},{"id":2752,"common_name":"bishop's hat","scientific_name":["Epimedium grandiflorum 'Pierre's Purple'"],"other_name":null,"cycle":"Perennial","watering":"Minimum","sunlight":["Part shade","full shade"],"default_image":{"image_id":9,"license":5,"license_name":"Attribution-ShareAlike License","license_url":"https://creativecommons.org/licenses/by-sa/2.0/","original_url":"https://perenual.com/storage/species_image/2_abies_alba_pyramidalis/og/49255769768_df55596553_b.jpg","regular_url":"https://perenual.com/storage/species_image/2_abies_alba_pyramidalis/regular/49255769768_df55596553_b.jpg","medium_url":"https://perenual.com/storage/species_image/2_abies_alba_pyramidalis/medium/49255769768_df55596553_b.jpg","small_url":"https://perenual.com/storage/species_image/2_abies_alba_pyramidalis/small/49255769768_df55596553_b.jpg","thumbnail":"https://perenual.com/storage/species_image/2_abies_alba_pyramidalis/thumbnail/49255769768_df55596553_b.jpg"}},{"id":2753,"common_name":"bishop's hat","scientific_name":["Epimedium ilicifolium"],"other_name":null,"cycle":"Perennial","watering":"Average","sunlight":["Part shade","full shade"],"default_image":{"image_id":6032,"license":5,"license_name":"Attribution-ShareAlike License","license_url":"https://creativecommons.org/licenses/by-sa/2.0/","original_url":"https://perenual.com/storage/species_image/2753_epimedium_ilicifolium/og/9216131016_94cf83fa4a_b.jpg","regular_url":"https://perenual.com/storage/species_image/2753_epimedium_ilicifolium/regular/9216131016_94cf83fa4a_b.jpg","medium_url":"https://perenual.com/storage/species_image/2753_epimedium_ilicifolium/medium/9216131016_94cf83fa4a_b.jpg","small_url":"https://perenual.com/storage/species_image/2753_epimedium_ilicifolium/small/9216131016_94cf83fa4a_b.jpg","thumbnail":"https://perenual.com/storage/species_image/2753_epimedium_ilicifolium/thumbnail/9216131016_94cf83fa4a_b.jpg"}},{"id":2754,"common_name":"bishop's hat","scientific_name":["Epimedium latisepalum"],"other_name":null,"cycle":"Perennial","watering":"Minimum","sunlight":["Part shade","full shade"],"default_image":{"image_id":9,"license":5,"license_name":"Attribution-ShareAlike License","license_url":"https://creativecommons.org/licenses/by-sa/2.0/","original_url":"https://perenual.com/storage/species_image/2_abies_alba_pyramidalis/og/49255769768_df55596553_b.jpg","regular_url":"https://perenual.com/storage/species_image/2_abies_alba_pyramidalis/regular/49255769768_df55596553_b.jpg","medium_url":"https://perenual.com/storage/species_image/2_abies_alba_pyramidalis/medium/49255769768_df55596553_b.jpg","small_url":"https://perenual.com/storage/species_image/2_abies_alba_pyramidalis/small/49255769768_df55596553_b.jpg","thumbnail":"https://perenual.com/storage/species_image/2_abies_alba_pyramidalis/thumbnail/49255769768_df55596553_b.jpg"}},{"id":2755,"common_name":"bishop's hat","scientific_name":["Epimedium leptorrhizum"],"other_name":null,"cycle":"Perennial","watering":"Minimum","sunlight":["Part shade","full shade"],"default_image":{"image_id":6033,"license":5,"license_name":"Attribution-ShareAlike License","license_url":"https://creativecommons.org/licenses/by-sa/2.0/","original_url":"https://perenual.com/storage/species_image/2755_epimedium_leptorrhizum/og/4554452459_607a96d2a5_b.jpg","regular_url":"https://perenual.com/storage/species_image/2755_epimedium_leptorrhizum/regular/4554452459_607a96d2a5_b.jpg","medium_url":"https://perenual.com/storage/species_image/2755_epimedium_leptorrhizum/medium/4554452459_607a96d2a5_b.jpg","small_url":"https://perenual.com/storage/species_image/2755_epimedium_leptorrhizum/small/4554452459_607a96d2a5_b.jpg","thumbnail":"https://perenual.com/storage/species_image/2755_epimedium_leptorrhizum/thumbnail/4554452459_607a96d2a5_b.jpg"}},{"id":2756,"common_name":"bishop's hat","scientific_name":["Epimedium lishihchenii"],"other_name":null,"cycle":"Perennial","watering":"Minimum","sunlight":["Part shade","full shade"],"default_image":{"image_id":9,"license":5,"license_name":"Attribution-ShareAlike License","license_url":"https://creativecommons.org/licenses/by-sa/2.0/","original_url":"https://perenual.com/storage/species_image/2_abies_alba_pyramidalis/og/49255769768_df55596553_b.jpg","regular_url":"https://perenual.com/storage/species_image/2_abies_alba_pyramidalis/regular/49255769768_df55596553_b.jpg","medium_url":"https://perenual.com/storage/species_image/2_abies_alba_pyramidalis/medium/49255769768_df55596553_b.jpg","small_url":"https://perenual.com/storage/species_image/2_abies_alba_pyramidalis/small/49255769768_df55596553_b.jpg","thumbnail":"https://perenual.com/storage/species_image/2_abies_alba_pyramidalis/thumbnail/49255769768_df55596553_b.jpg"}},{"id":2757,"common_name":"barrenwort","scientific_name":["Epimedium perralchicum 'Frohnleiten'"],"other_name":null,"cycle":"Perennial","watering":"Minimum","sunlight":["Part shade","full shade"],"default_image":{"image_id":6034,"license":5,"license_name":"Attribution-ShareAlike License","license_url":"https://creativecommons.org/licenses/by-sa/2.0/","original_url":"https://perenual.com/storage/species_image/2757_epimedium_perralchicum_frohnleiten/og/16751397843_5899f89e7a_b.jpg","regular_url":"https://perenual.com/storage/species_image/2757_epimedium_perralchicum_frohnleiten/regular/16751397843_5899f89e7a_b.jpg","medium_url":"https://perenual.com/storage/species_image/2757_epimedium_perralchicum_frohnleiten/medium/16751397843_5899f89e7a_b.jpg","small_url":"https://perenual.com/storage/species_image/2757_epimedium_perralchicum_frohnleiten/small/16751397843_5899f89e7a_b.jpg","thumbnail":"https://perenual.com/storage/species_image/2757_epimedium_perralchicum_frohnleiten/thumbnail/16751397843_5899f89e7a_b.jpg"}},{"id":2758,"common_name":"bishop's hat","scientific_name":["Epimedium perralderianum"],"other_name":null,"cycle":"Perennial","watering":"Minimum","sunlight":["Part shade","full shade"],"default_image":{"image_id":6035,"license":5,"license_name":"Attribution-ShareAlike License","license_url":"https://creativecommons.org/licenses/by-sa/2.0/","original_url":"https://perenual.com/storage/species_image/2758_epimedium_perralderianum/og/52107206371_1f5aa3b975_b.jpg","regular_url":"https://perenual.com/storage/species_image/2758_epimedium_perralderianum/regular/52107206371_1f5aa3b975_b.jpg","medium_url":"https://perenual.com/storage/species_image/2758_epimedium_perralderianum/medium/52107206371_1f5aa3b975_b.jpg","small_url":"https://perenual.com/storage/species_image/2758_epimedium_perralderianum/small/52107206371_1f5aa3b975_b.jpg","thumbnail":"https://perenual.com/storage/species_image/2758_epimedium_perralderianum/thumbnail/52107206371_1f5aa3b975_b.jpg"}},{"id":2759,"common_name":"bishop's hat","scientific_name":["Epimedium pinnatum"],"other_name":null,"cycle":"Perennial","watering":"Minimum","sunlight":["Part shade","full shade"],"default_image":{"image_id":6040,"license":5,"license_name":"Attribution-ShareAlike License","license_url":"https://creativecommons.org/licenses/by-sa/2.0/","original_url":"https://perenual.com/storage/species_image/2759_epimedium_pinnatum/og/10743437475_f24fb12361_b.jpg","regular_url":"https://perenual.com/storage/species_image/2759_epimedium_pinnatum/regular/10743437475_f24fb12361_b.jpg","medium_url":"https://perenual.com/storage/species_image/2759_epimedium_pinnatum/medium/10743437475_f24fb12361_b.jpg","small_url":"https://perenual.com/storage/species_image/2759_epimedium_pinnatum/small/10743437475_f24fb12361_b.jpg","thumbnail":"https://perenual.com/storage/species_image/2759_epimedium_pinnatum/thumbnail/10743437475_f24fb12361_b.jpg"}},{"id":2760,"common_name":"bishop's hat","scientific_name":["Epimedium pinnatum subsp. colchicum"],"other_name":null,"cycle":"Perennial","watering":"Minimum","sunlight":["Part shade","full shade"],"default_image":{"image_id":9,"license":5,"license_name":"Attribution-ShareAlike License","license_url":"https://creativecommons.org/licenses/by-sa/2.0/","original_url":"https://perenual.com/storage/species_image/2_abies_alba_pyramidalis/og/49255769768_df55596553_b.jpg","regular_url":"https://perenual.com/storage/species_image/2_abies_alba_pyramidalis/regular/49255769768_df55596553_b.jpg","medium_url":"https://perenual.com/storage/species_image/2_abies_alba_pyramidalis/medium/49255769768_df55596553_b.jpg","small_url":"https://perenual.com/storage/species_image/2_abies_alba_pyramidalis/small/49255769768_df55596553_b.jpg","thumbnail":"https://perenual.com/storage/species_image/2_abies_alba_pyramidalis/thumbnail/49255769768_df55596553_b.jpg"}}],"to":2760,"per_page":30,"current_page":92,"from":2731,"last_page":200,"total":6000}