{"data":[{"id":5131,"common_name":"Japanese crabapple","scientific_name":["Malus floribunda"],"other_name":null,"cycle":"Perennial","watering":"Average","sunlight":["Full sun"," Part sun/part shade"],"default_image":{"image_id":9,"license":5,"license_name":"Attribution-ShareAlike License","license_url":"https://creativecommons.org/licenses/by-sa/2.0/","original_url":"https://perenual.com/storage/species_image/2_abies_alba_pyramidalis/og/49255769768_df55596553_b.jpg","regular_url":"https://perenual.com/storage/species_image/2_abies_alba_pyramidalis/regular/49255769768_df55596553_b.jpg","medium_url":"https://perenual.com/storage/species_image/2_abies_alba_pyramidalis/medium/49255769768_df55596553_b.jpg","small_url":"https://perenual.com/storage/species_image/2_abies_alba_pyramidalis/small/49255769768_df55596553_b.jpg","thumbnail":"https://perenual.com/storage/species_image/2_abies_alba_pyramidalis/thumbnail/49255769768_df55596553_b.jpg"}},{"id":5132,"common_name":"crabapple","scientific_name":["Malus 'Fozam' FOX FIRE"],"other_name":null,"cycle":"Perennial","watering":"Average","sunlight":["Full sun"],"default_image":{"image_id":10948,"license":4,"license_name":"Attribution License","license_url":"https://creativecommons.org/licenses/by/2.0/","original_url":"https://perenual.com/storage/species_image/5122_malus_amerspirzam_american_spirit/og/52432875923_f43b842518_b.jpg","regular_url":"https://perenual.com/storage/species_image/5122_malus_amerspirzam_american_spirit/regular/52432875923_f43b842518_b.jpg","medium_url":"https://perenual.com/storage/species_image/5122_malus_amerspirzam_american_spirit/medium/52432875923_f43b842518_b.jpg","small_url":"https://perenual.com/storage/species_image/5122_malus_amerspirzam_american_spirit/small/52432875923_f43b842518_b.jpg","thumbnail":"https://perenual.com/storage/species_image/5122_malus_amerspirzam_american_spirit/thumbnail/52432875923_f43b842518_b.jpg"}},{"id":5133,"common_name":"flowering crabapple","scientific_name":["Malus 'Henry Kohankie'"],"other_name":null,"cycle":"Annual","watering":"Average","sunlight":["Full sun"],"default_image":{"image_id":9,"license":5,"license_name":"Attribution-ShareAlike License","license_url":"https://creativecommons.org/licenses/by-sa/2.0/","original_url":"https://perenual.com/storage/species_image/2_abies_alba_pyramidalis/og/49255769768_df55596553_b.jpg","regular_url":"https://perenual.com/storage/species_image/2_abies_alba_pyramidalis/regular/49255769768_df55596553_b.jpg","medium_url":"https://perenual.com/storage/species_image/2_abies_alba_pyramidalis/medium/49255769768_df55596553_b.jpg","small_url":"https://perenual.com/storage/species_image/2_abies_alba_pyramidalis/small/49255769768_df55596553_b.jpg","thumbnail":"https://perenual.com/storage/species_image/2_abies_alba_pyramidalis/thumbnail/49255769768_df55596553_b.jpg"}},{"id":5134,"common_name":"flowering crabapple","scientific_name":["Malus 'Inglis' WHITE ANGEL"],"other_name":null,"cycle":"Perennial","watering":"Average","sunlight":["Full sun"],"default_image":{"image_id":9,"license":5,"license_name":"Attribution-ShareAlike License","license_url":"https://creativecommons.org/licenses/by-sa/2.0/","original_url":"https://perenual.com/storage/species_image/2_abies_alba_pyramidalis/og/49255769768_df55596553_b.jpg","regular_url":"https://perenual.com/storage/species_image/2_abies_alba_pyramidalis/regular/49255769768_df55596553_b.jpg","medium_url":"https://perenual.com/storage/species_image/2_abies_alba_pyramidalis/medium/49255769768_df55596553_b.jpg","small_url":"https://perenual.com/storage/species_image/2_abies_alba_pyramidalis/small/49255769768_df55596553_b.jpg","thumbnail":"https://perenual.com/storage/species_image/2_abies_alba_pyramidalis/thumbnail/49255769768_df55596553_b.jpg"}},{"id":5135,"common_name":"flowering crabapple","scientific_name":["Malus 'Jewelberry'"],"other_name":null,"cycle":"Annual","watering":"Average","sunlight":["Full sun"],"default_image":{"image_id":9,"license":5,"license_name":"Attribution-ShareAlike License","license_url":"https://creativecommons.org/licenses/by-sa/2.0/","original_url":"https://perenual.com/storage/species_image/2_abies_alba_pyramidalis/og/49255769768_df55596553_b.jpg","regular_url":"https://perenual.com/storage/species_image/2_abies_alba_pyramidalis/regular/49255769768_df55596553_b.jpg","medium_url":"https://perenual.com/storage/species_image/2_abies_alba_pyramidalis/medium/49255769768_df55596553_b.jpg","small_url":"https://perenual.com/storage/species_image/2_abies_alba_pyramidalis/small/49255769768_df55596553_b.jpg","thumbnail":"https://perenual.com/storage/species_image/2_abies_alba_pyramidalis/thumbnail/49255769768_df55596553_b.jpg"}},{"id":5136,"common_name":"apple","scientific_name":["Malus 'Mary Potter'"],"other_name":null,"cycle":"Perennial","watering":"Average","sunlight":["Full sun"],"default_image":{"image_id":9,"license":5,"license_name":"Attribution-ShareAlike License","license_url":"https://creativecommons.org/licenses/by-sa/2.0/","original_url":"https://perenual.com/storage/species_image/2_abies_alba_pyramidalis/og/49255769768_df55596553_b.jpg","regular_url":"https://perenual.com/storage/species_image/2_abies_alba_pyramidalis/regular/49255769768_df55596553_b.jpg","medium_url":"https://perenual.com/storage/species_image/2_abies_alba_pyramidalis/medium/49255769768_df55596553_b.jpg","small_url":"https://perenual.com/storage/species_image/2_abies_alba_pyramidalis/small/49255769768_df55596553_b.jpg","thumbnail":"https://perenual.com/storage/species_image/2_abies_alba_pyramidalis/thumbnail/49255769768_df55596553_b.jpg"}},{"id":5137,"common_name":"dwarf apple","scientific_name":["Malus pumila 'Dewar' STARKSPUR ULTRA MAC"],"other_name":null,"cycle":"Perennial","watering":"Average","sunlight":["Full sun"],"default_image":{"image_id":10964,"license":45,"license_name":"Attribution-ShareAlike 3.0 Unported (CC BY-SA 3.0)","license_url":"https://creativecommons.org/licenses/by-sa/3.0/deed.en","original_url":"https://perenual.com/storage/species_image/5137_malus_pumila_dewar_starkspur_ultra_mac/og/Rosaceae_Malus_pumila_Malus_pumila_Var_domestica_Apples_Fuji.jpg","regular_url":"https://perenual.com/storage/species_image/5137_malus_pumila_dewar_starkspur_ultra_mac/regular/Rosaceae_Malus_pumila_Malus_pumila_Var_domestica_Apples_Fuji.jpg","medium_url":"https://perenual.com/storage/species_image/5137_malus_pumila_dewar_starkspur_ultra_mac/medium/Rosaceae_Malus_pumila_Malus_pumila_Var_domestica_Apples_Fuji.jpg","small_url":"https://perenual.com/storage/species_image/5137_malus_pumila_dewar_starkspur_ultra_mac/small/Rosaceae_Malus_pumila_Malus_pumila_Var_domestica_Apples_Fuji.jpg","thumbnail":"https://perenual.com/storage/species_image/5137_malus_pumila_dewar_starkspur_ultra_mac/thumbnail/Rosaceae_Malus_pumila_Malus_pumila_Var_domestica_Apples_Fuji.jpg"}},{"id":5138,"common_name":"columnar apple","scientific_name":["Malus pumila 'Obelisk' STARK CRIMSON SPIRE"],"other_name":null,"cycle":"Perennial","watering":"Average","sunlight":["Full sun"],"default_image":{"image_id":9,"license":5,"license_name":"Attribution-ShareAlike License","license_url":"https://creativecommons.org/licenses/by-sa/2.0/","original_url":"https://perenual.com/storage/species_image/2_abies_alba_pyramidalis/og/49255769768_df55596553_b.jpg","regular_url":"https://perenual.com/storage/species_image/2_abies_alba_pyramidalis/regular/49255769768_df55596553_b.jpg","medium_url":"https://perenual.com/storage/species_image/2_abies_alba_pyramidalis/medium/49255769768_df55596553_b.jpg","small_url":"https://perenual.com/storage/species_image/2_abies_alba_pyramidalis/small/49255769768_df55596553_b.jpg","thumbnail":"https://perenual.com/storage/species_image/2_abies_alba_pyramidalis/thumbnail/49255769768_df55596553_b.jpg"}},{"id":5139,"common_name":"columnar apple","scientific_name":["Malus pumila 'Tuscan' STARK EMERALD SPIRE"],"other_name":null,"cycle":"Perennial","watering":"Average","sunlight":["Full sun"],"default_image":{"image_id":9,"license":5,"license_name":"Attribution-ShareAlike License","license_url":"https://creativecommons.org/licenses/by-sa/2.0/","original_url":"https://perenual.com/storage/species_image/2_abies_alba_pyramidalis/og/49255769768_df55596553_b.jpg","regular_url":"https://perenual.com/storage/species_image/2_abies_alba_pyramidalis/regular/49255769768_df55596553_b.jpg","medium_url":"https://perenual.com/storage/species_image/2_abies_alba_pyramidalis/medium/49255769768_df55596553_b.jpg","small_url":"https://perenual.com/storage/species_image/2_abies_alba_pyramidalis/small/49255769768_df55596553_b.jpg","thumbnail":"https://perenual.com/storage/species_image/2_abies_alba_pyramidalis/thumbnail/49255769768_df55596553_b.jpg"}},{"id":5140,"common_name":"dwarf apple","scientific_name":["Malus 'Redfree'"],"other_name":null,"cycle":"Perennial","watering":"Average","sunlight":["Full sun"],"default_image":{"image_id":10967,"license":4,"license_name":"Attribution License","license_url":"https://creativecommons.org/licenses/by/2.0/","original_url":"https://perenual.com/storage/species_image/5140_malus_redfree/og/51365007047_eeb7fdf002_b.jpg","regular_url":"https://perenual.com/storage/species_image/5140_malus_redfree/regular/51365007047_eeb7fdf002_b.jpg","medium_url":"https://perenual.com/storage/species_image/5140_malus_redfree/medium/51365007047_eeb7fdf002_b.jpg","small_url":"https://perenual.com/storage/species_image/5140_malus_redfree/small/51365007047_eeb7fdf002_b.jpg","thumbnail":"https://perenual.com/storage/species_image/5140_malus_redfree/thumbnail/51365007047_eeb7fdf002_b.jpg"}},{"id":5141,"common_name":"Sargent crabapple","scientific_name":["Malus sargentii"],"other_name":null,"cycle":"Perennial","watering":"Average","sunlight":["Full sun"],"default_image":{"image_id":9,"license":5,"license_name":"Attribution-ShareAlike License","license_url":"https://creativecommons.org/licenses/by-sa/2.0/","original_url":"https://perenual.com/storage/species_image/2_abies_alba_pyramidalis/og/49255769768_df55596553_b.jpg","regular_url":"https://perenual.com/storage/species_image/2_abies_alba_pyramidalis/regular/49255769768_df55596553_b.jpg","medium_url":"https://perenual.com/storage/species_image/2_abies_alba_pyramidalis/medium/49255769768_df55596553_b.jpg","small_url":"https://perenual.com/storage/species_image/2_abies_alba_pyramidalis/small/49255769768_df55596553_b.jpg","thumbnail":"https://perenual.com/storage/species_image/2_abies_alba_pyramidalis/thumbnail/49255769768_df55596553_b.jpg"}},{"id":5142,"common_name":"Sargent crabapple","scientific_name":["Malus sargentii 'Candymint'"],"other_name":null,"cycle":"Perennial","watering":"Average","sunlight":["Full sun"],"default_image":{"image_id":9,"license":5,"license_name":"Attribution-ShareAlike License","license_url":"https://creativecommons.org/licenses/by-sa/2.0/","original_url":"https://perenual.com/storage/species_image/2_abies_alba_pyramidalis/og/49255769768_df55596553_b.jpg","regular_url":"https://perenual.com/storage/species_image/2_abies_alba_pyramidalis/regular/49255769768_df55596553_b.jpg","medium_url":"https://perenual.com/storage/species_image/2_abies_alba_pyramidalis/medium/49255769768_df55596553_b.jpg","small_url":"https://perenual.com/storage/species_image/2_abies_alba_pyramidalis/small/49255769768_df55596553_b.jpg","thumbnail":"https://perenual.com/storage/species_image/2_abies_alba_pyramidalis/thumbnail/49255769768_df55596553_b.jpg"}},{"id":5143,"common_name":"flowering crabapple","scientific_name":["Malus 'Scbrazam' SCARLET BRANDYWINE"],"other_name":null,"cycle":"Perennial","watering":"Average","sunlight":["Full sun"],"default_image":{"image_id":22048,"license":3,"license_name":null,"license_url":null,"original_url":"https://perenual.com/storage/species_image/5146_malus_weepcanzam_candied_apple/og/52448942623_b3957d885b_b.jpg","regular_url":"https://perenual.com/storage/species_image/5146_malus_weepcanzam_candied_apple/regular/52448942623_b3957d885b_b.jpg","medium_url":"https://perenual.com/storage/species_image/5146_malus_weepcanzam_candied_apple/medium/52448942623_b3957d885b_b.jpg","small_url":"https://perenual.com/storage/species_image/5146_malus_weepcanzam_candied_apple/small/52448942623_b3957d885b_b.jpg","thumbnail":"https://perenual.com/storage/species_image/5146_malus_weepcanzam_candied_apple/thumbnail/52448942623_b3957d885b_b.jpg"}},{"id":5144,"common_name":"crabapple","scientific_name":["Malus 'Spring Snow'"],"other_name":null,"cycle":"Perennial","watering":"Average","sunlight":["Full sun"],"default_image":{"image_id":9,"license":5,"license_name":"Attribution-ShareAlike License","license_url":"https://creativecommons.org/licenses/by-sa/2.0/","original_url":"https://perenual.com/storage/species_image/2_abies_alba_pyramidalis/og/49255769768_df55596553_b.jpg","regular_url":"https://perenual.com/storage/species_image/2_abies_alba_pyramidalis/regular/49255769768_df55596553_b.jpg","medium_url":"https://perenual.com/storage/species_image/2_abies_alba_pyramidalis/medium/49255769768_df55596553_b.jpg","small_url":"https://perenual.com/storage/species_image/2_abies_alba_pyramidalis/small/49255769768_df55596553_b.jpg","thumbnail":"https://perenual.com/storage/species_image/2_abies_alba_pyramidalis/thumbnail/49255769768_df55596553_b.jpg"}},{"id":5145,"common_name":"flowering crabapple","scientific_name":["Malus 'Sutyzam' SUGAR TYME"],"other_name":null,"cycle":"Perennial","watering":"Average","sunlight":["Full sun"],"default_image":{"image_id":22048,"license":3,"license_name":null,"license_url":null,"original_url":"https://perenual.com/storage/species_image/5146_malus_weepcanzam_candied_apple/og/52448942623_b3957d885b_b.jpg","regular_url":"https://perenual.com/storage/species_image/5146_malus_weepcanzam_candied_apple/regular/52448942623_b3957d885b_b.jpg","medium_url":"https://perenual.com/storage/species_image/5146_malus_weepcanzam_candied_apple/medium/52448942623_b3957d885b_b.jpg","small_url":"https://perenual.com/storage/species_image/5146_malus_weepcanzam_candied_apple/small/52448942623_b3957d885b_b.jpg","thumbnail":"https://perenual.com/storage/species_image/5146_malus_weepcanzam_candied_apple/thumbnail/52448942623_b3957d885b_b.jpg"}},{"id":5146,"common_name":"flowering crabapple","scientific_name":["Malus 'Weepcanzam' CANDIED APPLE"],"other_name":null,"cycle":"Perennial","watering":"Average","sunlight":["Full sun"],"default_image":{"image_id":22048,"license":3,"license_name":null,"license_url":null,"original_url":"https://perenual.com/storage/species_image/5146_malus_weepcanzam_candied_apple/og/52448942623_b3957d885b_b.jpg","regular_url":"https://perenual.com/storage/species_image/5146_malus_weepcanzam_candied_apple/regular/52448942623_b3957d885b_b.jpg","medium_url":"https://perenual.com/storage/species_image/5146_malus_weepcanzam_candied_apple/medium/52448942623_b3957d885b_b.jpg","small_url":"https://perenual.com/storage/species_image/5146_malus_weepcanzam_candied_apple/small/52448942623_b3957d885b_b.jpg","thumbnail":"https://perenual.com/storage/species_image/5146_malus_weepcanzam_candied_apple/thumbnail/52448942623_b3957d885b_b.jpg"}},{"id":5147,"common_name":"flowering crabapple","scientific_name":["Malus 'Winter Gold'"],"other_name":null,"cycle":"Perennial","watering":"Average","sunlight":["Full sun"],"default_image":{"image_id":9,"license":5,"license_name":"Attribution-ShareAlike License","license_url":"https://creativecommons.org/licenses/by-sa/2.0/","original_url":"https://perenual.com/storage/species_image/2_abies_alba_pyramidalis/og/49255769768_df55596553_b.jpg","regular_url":"https://perenual.com/storage/species_image/2_abies_alba_pyramidalis/regular/49255769768_df55596553_b.jpg","medium_url":"https://perenual.com/storage/species_image/2_abies_alba_pyramidalis/medium/49255769768_df55596553_b.jpg","small_url":"https://perenual.com/storage/species_image/2_abies_alba_pyramidalis/small/49255769768_df55596553_b.jpg","thumbnail":"https://perenual.com/storage/species_image/2_abies_alba_pyramidalis/thumbnail/49255769768_df55596553_b.jpg"}},{"id":5148,"common_name":"redbud crabapple","scientific_name":["Malus zumi var. calocarpa"],"other_name":null,"cycle":"Perennial","watering":"Average","sunlight":["Full sun"],"default_image":{"image_id":10973,"license":45,"license_name":"Attribution-ShareAlike 3.0 Unported (CC BY-SA 3.0)","license_url":"https://creativecommons.org/licenses/by-sa/3.0/deed.en","original_url":"https://perenual.com/storage/species_image/5148_malus_zumi_var_calocarpa/og/Malus_%C3%97_zumi_var._calocarpa.jpg","regular_url":"https://perenual.com/storage/species_image/5148_malus_zumi_var_calocarpa/regular/Malus_%C3%97_zumi_var._calocarpa.jpg","medium_url":"https://perenual.com/storage/species_image/5148_malus_zumi_var_calocarpa/medium/Malus_%C3%97_zumi_var._calocarpa.jpg","small_url":"https://perenual.com/storage/species_image/5148_malus_zumi_var_calocarpa/small/Malus_%C3%97_zumi_var._calocarpa.jpg","thumbnail":"https://perenual.com/storage/species_image/5148_malus_zumi_var_calocarpa/thumbnail/Malus_%C3%97_zumi_var._calocarpa.jpg"}},{"id":5149,"common_name":"musk mallow","scientific_name":["Malva moschata"],"other_name":null,"cycle":"Perennial","watering":"Average","sunlight":["Full sun"],"default_image":{"image_id":10974,"license":5,"license_name":"Attribution-ShareAlike License","license_url":"https://creativecommons.org/licenses/by-sa/2.0/","original_url":"https://perenual.com/storage/species_image/5149_malva_moschata/og/52361259432_25e1dac3c4_b.jpg","regular_url":"https://perenual.com/storage/species_image/5149_malva_moschata/regular/52361259432_25e1dac3c4_b.jpg","medium_url":"https://perenual.com/storage/species_image/5149_malva_moschata/medium/52361259432_25e1dac3c4_b.jpg","small_url":"https://perenual.com/storage/species_image/5149_malva_moschata/small/52361259432_25e1dac3c4_b.jpg","thumbnail":"https://perenual.com/storage/species_image/5149_malva_moschata/thumbnail/52361259432_25e1dac3c4_b.jpg"}},{"id":5150,"common_name":"musk mallow","scientific_name":["Malva moschata f. alba"],"other_name":null,"cycle":"Perennial","watering":"Average","sunlight":["Full sun"],"default_image":{"image_id":9,"license":5,"license_name":"Attribution-ShareAlike License","license_url":"https://creativecommons.org/licenses/by-sa/2.0/","original_url":"https://perenual.com/storage/species_image/2_abies_alba_pyramidalis/og/49255769768_df55596553_b.jpg","regular_url":"https://perenual.com/storage/species_image/2_abies_alba_pyramidalis/regular/49255769768_df55596553_b.jpg","medium_url":"https://perenual.com/storage/species_image/2_abies_alba_pyramidalis/medium/49255769768_df55596553_b.jpg","small_url":"https://perenual.com/storage/species_image/2_abies_alba_pyramidalis/small/49255769768_df55596553_b.jpg","thumbnail":"https://perenual.com/storage/species_image/2_abies_alba_pyramidalis/thumbnail/49255769768_df55596553_b.jpg"}},{"id":5151,"common_name":"high mallow","scientific_name":["Malva sylvestris"],"other_name":null,"cycle":"Perennial","watering":"Average","sunlight":["Full sun","part shade"],"default_image":{"image_id":9,"license":5,"license_name":"Attribution-ShareAlike License","license_url":"https://creativecommons.org/licenses/by-sa/2.0/","original_url":"https://perenual.com/storage/species_image/2_abies_alba_pyramidalis/og/49255769768_df55596553_b.jpg","regular_url":"https://perenual.com/storage/species_image/2_abies_alba_pyramidalis/regular/49255769768_df55596553_b.jpg","medium_url":"https://perenual.com/storage/species_image/2_abies_alba_pyramidalis/medium/49255769768_df55596553_b.jpg","small_url":"https://perenual.com/storage/species_image/2_abies_alba_pyramidalis/small/49255769768_df55596553_b.jpg","thumbnail":"https://perenual.com/storage/species_image/2_abies_alba_pyramidalis/thumbnail/49255769768_df55596553_b.jpg"}},{"id":5152,"common_name":"pink turk's-cap","scientific_name":["Malvaviscus drummondii 'Pam Puryear'"],"other_name":null,"cycle":"Perennial","watering":"Average","sunlight":["Part shade"],"default_image":{"image_id":9,"license":5,"license_name":"Attribution-ShareAlike License","license_url":"https://creativecommons.org/licenses/by-sa/2.0/","original_url":"https://perenual.com/storage/species_image/2_abies_alba_pyramidalis/og/49255769768_df55596553_b.jpg","regular_url":"https://perenual.com/storage/species_image/2_abies_alba_pyramidalis/regular/49255769768_df55596553_b.jpg","medium_url":"https://perenual.com/storage/species_image/2_abies_alba_pyramidalis/medium/49255769768_df55596553_b.jpg","small_url":"https://perenual.com/storage/species_image/2_abies_alba_pyramidalis/small/49255769768_df55596553_b.jpg","thumbnail":"https://perenual.com/storage/species_image/2_abies_alba_pyramidalis/thumbnail/49255769768_df55596553_b.jpg"}},{"id":5153,"common_name":"mandevilla","scientific_name":["Mandevilla amabilis"],"other_name":null,"cycle":"Perennial","watering":"Average","sunlight":["Full sun","part shade"],"default_image":{"image_id":10980,"license":4,"license_name":"Attribution License","license_url":"https://creativecommons.org/licenses/by/2.0/","original_url":"https://perenual.com/storage/species_image/5153_mandevilla_amabilis/og/24838966576_4d95a18664_b.jpg","regular_url":"https://perenual.com/storage/species_image/5153_mandevilla_amabilis/regular/24838966576_4d95a18664_b.jpg","medium_url":"https://perenual.com/storage/species_image/5153_mandevilla_amabilis/medium/24838966576_4d95a18664_b.jpg","small_url":"https://perenual.com/storage/species_image/5153_mandevilla_amabilis/small/24838966576_4d95a18664_b.jpg","thumbnail":"https://perenual.com/storage/species_image/5153_mandevilla_amabilis/thumbnail/24838966576_4d95a18664_b.jpg"}},{"id":5154,"common_name":"white dipladenia","scientific_name":["Mandevilla boliviensis"],"other_name":null,"cycle":"Perennial","watering":"Average","sunlight":["Full sun","part shade"],"default_image":{"image_id":9,"license":5,"license_name":"Attribution-ShareAlike License","license_url":"https://creativecommons.org/licenses/by-sa/2.0/","original_url":"https://perenual.com/storage/species_image/2_abies_alba_pyramidalis/og/49255769768_df55596553_b.jpg","regular_url":"https://perenual.com/storage/species_image/2_abies_alba_pyramidalis/regular/49255769768_df55596553_b.jpg","medium_url":"https://perenual.com/storage/species_image/2_abies_alba_pyramidalis/medium/49255769768_df55596553_b.jpg","small_url":"https://perenual.com/storage/species_image/2_abies_alba_pyramidalis/small/49255769768_df55596553_b.jpg","thumbnail":"https://perenual.com/storage/species_image/2_abies_alba_pyramidalis/thumbnail/49255769768_df55596553_b.jpg"}},{"id":5155,"common_name":"American agave","scientific_name":["Manfreda virginica"],"other_name":null,"cycle":"Perennial","watering":"Minimum","sunlight":["Full sun","part shade"],"default_image":{"image_id":9,"license":5,"license_name":"Attribution-ShareAlike License","license_url":"https://creativecommons.org/licenses/by-sa/2.0/","original_url":"https://perenual.com/storage/species_image/2_abies_alba_pyramidalis/og/49255769768_df55596553_b.jpg","regular_url":"https://perenual.com/storage/species_image/2_abies_alba_pyramidalis/regular/49255769768_df55596553_b.jpg","medium_url":"https://perenual.com/storage/species_image/2_abies_alba_pyramidalis/medium/49255769768_df55596553_b.jpg","small_url":"https://perenual.com/storage/species_image/2_abies_alba_pyramidalis/small/49255769768_df55596553_b.jpg","thumbnail":"https://perenual.com/storage/species_image/2_abies_alba_pyramidalis/thumbnail/49255769768_df55596553_b.jpg"}},{"id":5156,"common_name":"cassava","scientific_name":["Manihot esculenta"],"other_name":null,"cycle":"Perennial","watering":"Average","sunlight":["Full sun","part shade"],"default_image":{"image_id":9,"license":5,"license_name":"Attribution-ShareAlike License","license_url":"https://creativecommons.org/licenses/by-sa/2.0/","original_url":"https://perenual.com/storage/species_image/2_abies_alba_pyramidalis/og/49255769768_df55596553_b.jpg","regular_url":"https://perenual.com/storage/species_image/2_abies_alba_pyramidalis/regular/49255769768_df55596553_b.jpg","medium_url":"https://perenual.com/storage/species_image/2_abies_alba_pyramidalis/medium/49255769768_df55596553_b.jpg","small_url":"https://perenual.com/storage/species_image/2_abies_alba_pyramidalis/small/49255769768_df55596553_b.jpg","thumbnail":"https://perenual.com/storage/species_image/2_abies_alba_pyramidalis/thumbnail/49255769768_df55596553_b.jpg"}},{"id":5157,"common_name":"bitter cassava","scientific_name":["Manihot esculenta 'Variegata'"],"other_name":null,"cycle":"Perennial","watering":"Average","sunlight":["Full sun","part shade"],"default_image":{"image_id":10990,"license":4,"license_name":"Attribution License","license_url":"https://creativecommons.org/licenses/by/2.0/","original_url":"https://perenual.com/storage/species_image/5157_manihot_esculenta_variegata/og/14072622071_677ed41bbb_b.jpg","regular_url":"https://perenual.com/storage/species_image/5157_manihot_esculenta_variegata/regular/14072622071_677ed41bbb_b.jpg","medium_url":"https://perenual.com/storage/species_image/5157_manihot_esculenta_variegata/medium/14072622071_677ed41bbb_b.jpg","small_url":"https://perenual.com/storage/species_image/5157_manihot_esculenta_variegata/small/14072622071_677ed41bbb_b.jpg","thumbnail":"https://perenual.com/storage/species_image/5157_manihot_esculenta_variegata/thumbnail/14072622071_677ed41bbb_b.jpg"}},{"id":5158,"common_name":"sapodilla","scientific_name":["Manilkara zapota"],"other_name":null,"cycle":"Perennial","watering":"Average","sunlight":["Full sun","part shade"],"default_image":{"image_id":10992,"license":5,"license_name":"Attribution-ShareAlike License","license_url":"https://creativecommons.org/licenses/by-sa/2.0/","original_url":"https://perenual.com/storage/species_image/5158_manilkara_zapota/og/51008258318_f596b446e5_b.jpg","regular_url":"https://perenual.com/storage/species_image/5158_manilkara_zapota/regular/51008258318_f596b446e5_b.jpg","medium_url":"https://perenual.com/storage/species_image/5158_manilkara_zapota/medium/51008258318_f596b446e5_b.jpg","small_url":"https://perenual.com/storage/species_image/5158_manilkara_zapota/small/51008258318_f596b446e5_b.jpg","thumbnail":"https://perenual.com/storage/species_image/5158_manilkara_zapota/thumbnail/51008258318_f596b446e5_b.jpg"}},{"id":5159,"common_name":"prayer plant","scientific_name":["Maranta leuconeura var. erythroneura"],"other_name":null,"cycle":"Perennial","watering":"Average","sunlight":["Part shade"],"default_image":{"image_id":9,"license":5,"license_name":"Attribution-ShareAlike License","license_url":"https://creativecommons.org/licenses/by-sa/2.0/","original_url":"https://perenual.com/storage/species_image/2_abies_alba_pyramidalis/og/49255769768_df55596553_b.jpg","regular_url":"https://perenual.com/storage/species_image/2_abies_alba_pyramidalis/regular/49255769768_df55596553_b.jpg","medium_url":"https://perenual.com/storage/species_image/2_abies_alba_pyramidalis/medium/49255769768_df55596553_b.jpg","small_url":"https://perenual.com/storage/species_image/2_abies_alba_pyramidalis/small/49255769768_df55596553_b.jpg","thumbnail":"https://perenual.com/storage/species_image/2_abies_alba_pyramidalis/thumbnail/49255769768_df55596553_b.jpg"}},{"id":5160,"common_name":"bridal bouquet","scientific_name":["Marsdenia floribunda"],"other_name":null,"cycle":"Perennial","watering":"Average","sunlight":["Full sun","part shade"],"default_image":{"image_id":9,"license":5,"license_name":"Attribution-ShareAlike License","license_url":"https://creativecommons.org/licenses/by-sa/2.0/","original_url":"https://perenual.com/storage/species_image/2_abies_alba_pyramidalis/og/49255769768_df55596553_b.jpg","regular_url":"https://perenual.com/storage/species_image/2_abies_alba_pyramidalis/regular/49255769768_df55596553_b.jpg","medium_url":"https://perenual.com/storage/species_image/2_abies_alba_pyramidalis/medium/49255769768_df55596553_b.jpg","small_url":"https://perenual.com/storage/species_image/2_abies_alba_pyramidalis/small/49255769768_df55596553_b.jpg","thumbnail":"https://perenual.com/storage/species_image/2_abies_alba_pyramidalis/thumbnail/49255769768_df55596553_b.jpg"}}],"to":5160,"per_page":30,"current_page":172,"from":5131,"last_page":200,"total":6000}