{"data":[{"id":4831,"common_name":"longiflorum-Asiatic lily","scientific_name":["Lilium 'Algarve'"],"other_name":null,"cycle":"Perennial","watering":"Average","sunlight":["Full sun","part shade"],"default_image":{"image_id":9,"license":5,"license_name":"Attribution-ShareAlike License","license_url":"https://creativecommons.org/licenses/by-sa/2.0/","original_url":"https://perenual.com/storage/species_image/2_abies_alba_pyramidalis/og/49255769768_df55596553_b.jpg","regular_url":"https://perenual.com/storage/species_image/2_abies_alba_pyramidalis/regular/49255769768_df55596553_b.jpg","medium_url":"https://perenual.com/storage/species_image/2_abies_alba_pyramidalis/medium/49255769768_df55596553_b.jpg","small_url":"https://perenual.com/storage/species_image/2_abies_alba_pyramidalis/small/49255769768_df55596553_b.jpg","thumbnail":"https://perenual.com/storage/species_image/2_abies_alba_pyramidalis/thumbnail/49255769768_df55596553_b.jpg"}},{"id":4832,"common_name":"trumpet lily","scientific_name":["Lilium 'American Classic Hybrids'"],"other_name":null,"cycle":"Perennial","watering":"Average","sunlight":["Full sun","part shade"],"default_image":{"image_id":10165,"license":5,"license_name":"Attribution-ShareAlike License","license_url":"https://creativecommons.org/licenses/by-sa/2.0/","original_url":"https://perenual.com/storage/species_image/4859_lilium_golden_sunburst/og/52164685642_637582e061_b.jpg","regular_url":"https://perenual.com/storage/species_image/4859_lilium_golden_sunburst/regular/52164685642_637582e061_b.jpg","medium_url":"https://perenual.com/storage/species_image/4859_lilium_golden_sunburst/medium/52164685642_637582e061_b.jpg","small_url":"https://perenual.com/storage/species_image/4859_lilium_golden_sunburst/small/52164685642_637582e061_b.jpg","thumbnail":"https://perenual.com/storage/species_image/4859_lilium_golden_sunburst/thumbnail/52164685642_637582e061_b.jpg"}},{"id":4833,"common_name":"orienpet lily","scientific_name":["Lilium 'American Dream'"],"other_name":null,"cycle":"Perennial","watering":"Average","sunlight":["Full sun","part shade"],"default_image":{"image_id":10182,"license":4,"license_name":"Attribution License","license_url":"https://creativecommons.org/licenses/by/2.0/","original_url":"https://perenual.com/storage/species_image/4833_lilium_american_dream/og/43358809075_29c9822743_b.jpg","regular_url":"https://perenual.com/storage/species_image/4833_lilium_american_dream/regular/43358809075_29c9822743_b.jpg","medium_url":"https://perenual.com/storage/species_image/4833_lilium_american_dream/medium/43358809075_29c9822743_b.jpg","small_url":"https://perenual.com/storage/species_image/4833_lilium_american_dream/small/43358809075_29c9822743_b.jpg","thumbnail":"https://perenual.com/storage/species_image/4833_lilium_american_dream/thumbnail/43358809075_29c9822743_b.jpg"}},{"id":4834,"common_name":"orienpet lily","scientific_name":["Lilium 'American Heritage'"],"other_name":null,"cycle":"Perennial","watering":"Average","sunlight":["Full sun","part shade"],"default_image":{"image_id":10185,"license":5,"license_name":"Attribution-ShareAlike License","license_url":"https://creativecommons.org/licenses/by-sa/2.0/","original_url":"https://perenual.com/storage/species_image/4834_lilium_american_heritage/og/35947821056_3199ee25ba_b.jpg","regular_url":"https://perenual.com/storage/species_image/4834_lilium_american_heritage/regular/35947821056_3199ee25ba_b.jpg","medium_url":"https://perenual.com/storage/species_image/4834_lilium_american_heritage/medium/35947821056_3199ee25ba_b.jpg","small_url":"https://perenual.com/storage/species_image/4834_lilium_american_heritage/small/35947821056_3199ee25ba_b.jpg","thumbnail":"https://perenual.com/storage/species_image/4834_lilium_american_heritage/thumbnail/35947821056_3199ee25ba_b.jpg"}},{"id":4835,"common_name":"orienpet lily","scientific_name":["Lilium 'American Sensation'"],"other_name":null,"cycle":"Perennial","watering":"Average","sunlight":["Full sun","part shade"],"default_image":{"image_id":9,"license":5,"license_name":"Attribution-ShareAlike License","license_url":"https://creativecommons.org/licenses/by-sa/2.0/","original_url":"https://perenual.com/storage/species_image/2_abies_alba_pyramidalis/og/49255769768_df55596553_b.jpg","regular_url":"https://perenual.com/storage/species_image/2_abies_alba_pyramidalis/regular/49255769768_df55596553_b.jpg","medium_url":"https://perenual.com/storage/species_image/2_abies_alba_pyramidalis/medium/49255769768_df55596553_b.jpg","small_url":"https://perenual.com/storage/species_image/2_abies_alba_pyramidalis/small/49255769768_df55596553_b.jpg","thumbnail":"https://perenual.com/storage/species_image/2_abies_alba_pyramidalis/thumbnail/49255769768_df55596553_b.jpg"}},{"id":4836,"common_name":"orienpet lily","scientific_name":["Lilium 'American Spirit'"],"other_name":null,"cycle":"Perennial","watering":"Average","sunlight":["Full sun","part shade"],"default_image":{"image_id":10188,"license":5,"license_name":"Attribution-ShareAlike License","license_url":"https://creativecommons.org/licenses/by-sa/2.0/","original_url":"https://perenual.com/storage/species_image/4836_lilium_american_spirit/og/48273462491_cab5e8eca3_b.jpg","regular_url":"https://perenual.com/storage/species_image/4836_lilium_american_spirit/regular/48273462491_cab5e8eca3_b.jpg","medium_url":"https://perenual.com/storage/species_image/4836_lilium_american_spirit/medium/48273462491_cab5e8eca3_b.jpg","small_url":"https://perenual.com/storage/species_image/4836_lilium_american_spirit/small/48273462491_cab5e8eca3_b.jpg","thumbnail":"https://perenual.com/storage/species_image/4836_lilium_american_spirit/thumbnail/48273462491_cab5e8eca3_b.jpg"}},{"id":4837,"common_name":"orienpet lily","scientific_name":["Lilium 'American Way'"],"other_name":null,"cycle":"Perennial","watering":"Average","sunlight":["Full sun","part shade"],"default_image":{"image_id":9,"license":5,"license_name":"Attribution-ShareAlike License","license_url":"https://creativecommons.org/licenses/by-sa/2.0/","original_url":"https://perenual.com/storage/species_image/2_abies_alba_pyramidalis/og/49255769768_df55596553_b.jpg","regular_url":"https://perenual.com/storage/species_image/2_abies_alba_pyramidalis/regular/49255769768_df55596553_b.jpg","medium_url":"https://perenual.com/storage/species_image/2_abies_alba_pyramidalis/medium/49255769768_df55596553_b.jpg","small_url":"https://perenual.com/storage/species_image/2_abies_alba_pyramidalis/small/49255769768_df55596553_b.jpg","thumbnail":"https://perenual.com/storage/species_image/2_abies_alba_pyramidalis/thumbnail/49255769768_df55596553_b.jpg"}},{"id":4838,"common_name":"trumpet lily","scientific_name":["Lilium 'Amethyst Temple'"],"other_name":null,"cycle":"Perennial","watering":"Average","sunlight":["Full sun","part shade"],"default_image":{"image_id":10199,"license":5,"license_name":"Attribution-ShareAlike License","license_url":"https://creativecommons.org/licenses/by-sa/2.0/","original_url":"https://perenual.com/storage/species_image/4838_lilium_amethyst_temple/og/50093413253_8af98189c8_b.jpg","regular_url":"https://perenual.com/storage/species_image/4838_lilium_amethyst_temple/regular/50093413253_8af98189c8_b.jpg","medium_url":"https://perenual.com/storage/species_image/4838_lilium_amethyst_temple/medium/50093413253_8af98189c8_b.jpg","small_url":"https://perenual.com/storage/species_image/4838_lilium_amethyst_temple/small/50093413253_8af98189c8_b.jpg","thumbnail":"https://perenual.com/storage/species_image/4838_lilium_amethyst_temple/thumbnail/50093413253_8af98189c8_b.jpg"}},{"id":4839,"common_name":"golden-rayed lily","scientific_name":["Lilium auratum"],"other_name":null,"cycle":"Perennial","watering":"Average","sunlight":["Full sun","part shade"],"default_image":{"image_id":10200,"license":4,"license_name":"Attribution License","license_url":"https://creativecommons.org/licenses/by/2.0/","original_url":"https://perenual.com/storage/species_image/4839_lilium_auratum/og/52366330029_fcc3840765_b.jpg","regular_url":"https://perenual.com/storage/species_image/4839_lilium_auratum/regular/52366330029_fcc3840765_b.jpg","medium_url":"https://perenual.com/storage/species_image/4839_lilium_auratum/medium/52366330029_fcc3840765_b.jpg","small_url":"https://perenual.com/storage/species_image/4839_lilium_auratum/small/52366330029_fcc3840765_b.jpg","thumbnail":"https://perenual.com/storage/species_image/4839_lilium_auratum/thumbnail/52366330029_fcc3840765_b.jpg"}},{"id":4840,"common_name":"lily","scientific_name":["Lilium 'Barbaresco'"],"other_name":null,"cycle":"Perennial","watering":"Average","sunlight":["Full sun","part shade"],"default_image":{"image_id":10205,"license":4,"license_name":"Attribution License","license_url":"https://creativecommons.org/licenses/by/2.0/","original_url":"https://perenual.com/storage/species_image/4880_lilium_nandina/og/52602366708_f207e598fe_b.jpg","regular_url":"https://perenual.com/storage/species_image/4880_lilium_nandina/regular/52602366708_f207e598fe_b.jpg","medium_url":"https://perenual.com/storage/species_image/4880_lilium_nandina/medium/52602366708_f207e598fe_b.jpg","small_url":"https://perenual.com/storage/species_image/4880_lilium_nandina/small/52602366708_f207e598fe_b.jpg","thumbnail":"https://perenual.com/storage/species_image/4880_lilium_nandina/thumbnail/52602366708_f207e598fe_b.jpg"}},{"id":4841,"common_name":"oriental lily","scientific_name":["Lilium 'Black Beauty'"],"other_name":null,"cycle":"Perennial","watering":"Average","sunlight":["Full sun","part shade"],"default_image":{"image_id":9,"license":5,"license_name":"Attribution-ShareAlike License","license_url":"https://creativecommons.org/licenses/by-sa/2.0/","original_url":"https://perenual.com/storage/species_image/2_abies_alba_pyramidalis/og/49255769768_df55596553_b.jpg","regular_url":"https://perenual.com/storage/species_image/2_abies_alba_pyramidalis/regular/49255769768_df55596553_b.jpg","medium_url":"https://perenual.com/storage/species_image/2_abies_alba_pyramidalis/medium/49255769768_df55596553_b.jpg","small_url":"https://perenual.com/storage/species_image/2_abies_alba_pyramidalis/small/49255769768_df55596553_b.jpg","thumbnail":"https://perenual.com/storage/species_image/2_abies_alba_pyramidalis/thumbnail/49255769768_df55596553_b.jpg"}},{"id":4842,"common_name":"Asiatic lily","scientific_name":["Lilium 'Black Out'"],"other_name":null,"cycle":"Perennial","watering":"Average","sunlight":["Full sun","part shade"],"default_image":{"image_id":9,"license":5,"license_name":"Attribution-ShareAlike License","license_url":"https://creativecommons.org/licenses/by-sa/2.0/","original_url":"https://perenual.com/storage/species_image/2_abies_alba_pyramidalis/og/49255769768_df55596553_b.jpg","regular_url":"https://perenual.com/storage/species_image/2_abies_alba_pyramidalis/regular/49255769768_df55596553_b.jpg","medium_url":"https://perenual.com/storage/species_image/2_abies_alba_pyramidalis/medium/49255769768_df55596553_b.jpg","small_url":"https://perenual.com/storage/species_image/2_abies_alba_pyramidalis/small/49255769768_df55596553_b.jpg","thumbnail":"https://perenual.com/storage/species_image/2_abies_alba_pyramidalis/thumbnail/49255769768_df55596553_b.jpg"}},{"id":4843,"common_name":"Asiatic lily","scientific_name":["Lilium 'Brunello'"],"other_name":null,"cycle":"Perennial","watering":"Average","sunlight":["Full sun","part shade"],"default_image":{"image_id":9,"license":5,"license_name":"Attribution-ShareAlike License","license_url":"https://creativecommons.org/licenses/by-sa/2.0/","original_url":"https://perenual.com/storage/species_image/2_abies_alba_pyramidalis/og/49255769768_df55596553_b.jpg","regular_url":"https://perenual.com/storage/species_image/2_abies_alba_pyramidalis/regular/49255769768_df55596553_b.jpg","medium_url":"https://perenual.com/storage/species_image/2_abies_alba_pyramidalis/medium/49255769768_df55596553_b.jpg","small_url":"https://perenual.com/storage/species_image/2_abies_alba_pyramidalis/small/49255769768_df55596553_b.jpg","thumbnail":"https://perenual.com/storage/species_image/2_abies_alba_pyramidalis/thumbnail/49255769768_df55596553_b.jpg"}},{"id":4844,"common_name":"oriental lily","scientific_name":["Lilium 'Casa Blanca'"],"other_name":null,"cycle":"Perennial","watering":"Average","sunlight":["Full sun","part shade"],"default_image":{"image_id":10222,"license":4,"license_name":"Attribution License","license_url":"https://creativecommons.org/licenses/by/2.0/","original_url":"https://perenual.com/storage/species_image/4844_lilium_casa_blanca/og/50900479233_45c775f952_b.jpg","regular_url":"https://perenual.com/storage/species_image/4844_lilium_casa_blanca/regular/50900479233_45c775f952_b.jpg","medium_url":"https://perenual.com/storage/species_image/4844_lilium_casa_blanca/medium/50900479233_45c775f952_b.jpg","small_url":"https://perenual.com/storage/species_image/4844_lilium_casa_blanca/small/50900479233_45c775f952_b.jpg","thumbnail":"https://perenual.com/storage/species_image/4844_lilium_casa_blanca/thumbnail/50900479233_45c775f952_b.jpg"}},{"id":4845,"common_name":"Asiatic lily","scientific_name":["Lilium 'Commander In Chief'"],"other_name":null,"cycle":"Perennial","watering":"Average","sunlight":["Full sun","part shade"],"default_image":{"image_id":10225,"license":5,"license_name":"Attribution-ShareAlike License","license_url":"https://creativecommons.org/licenses/by-sa/2.0/","original_url":"https://perenual.com/storage/species_image/4845_lilium_commander_in_chief/og/19276565309_4a5025d8fa_b.jpg","regular_url":"https://perenual.com/storage/species_image/4845_lilium_commander_in_chief/regular/19276565309_4a5025d8fa_b.jpg","medium_url":"https://perenual.com/storage/species_image/4845_lilium_commander_in_chief/medium/19276565309_4a5025d8fa_b.jpg","small_url":"https://perenual.com/storage/species_image/4845_lilium_commander_in_chief/small/19276565309_4a5025d8fa_b.jpg","thumbnail":"https://perenual.com/storage/species_image/4845_lilium_commander_in_chief/thumbnail/19276565309_4a5025d8fa_b.jpg"}},{"id":4846,"common_name":"Asiatic lily","scientific_name":["Lilium 'Connecticut King'"],"other_name":null,"cycle":"Perennial","watering":"Average","sunlight":["Full sun","part shade"],"default_image":{"image_id":9,"license":5,"license_name":"Attribution-ShareAlike License","license_url":"https://creativecommons.org/licenses/by-sa/2.0/","original_url":"https://perenual.com/storage/species_image/2_abies_alba_pyramidalis/og/49255769768_df55596553_b.jpg","regular_url":"https://perenual.com/storage/species_image/2_abies_alba_pyramidalis/regular/49255769768_df55596553_b.jpg","medium_url":"https://perenual.com/storage/species_image/2_abies_alba_pyramidalis/medium/49255769768_df55596553_b.jpg","small_url":"https://perenual.com/storage/species_image/2_abies_alba_pyramidalis/small/49255769768_df55596553_b.jpg","thumbnail":"https://perenual.com/storage/species_image/2_abies_alba_pyramidalis/thumbnail/49255769768_df55596553_b.jpg"}},{"id":4847,"common_name":"oriental lily","scientific_name":["Lilium 'Dolce Vita'"],"other_name":null,"cycle":"Perennial","watering":"Average","sunlight":["Full sun","part shade"],"default_image":{"image_id":9,"license":5,"license_name":"Attribution-ShareAlike License","license_url":"https://creativecommons.org/licenses/by-sa/2.0/","original_url":"https://perenual.com/storage/species_image/2_abies_alba_pyramidalis/og/49255769768_df55596553_b.jpg","regular_url":"https://perenual.com/storage/species_image/2_abies_alba_pyramidalis/regular/49255769768_df55596553_b.jpg","medium_url":"https://perenual.com/storage/species_image/2_abies_alba_pyramidalis/medium/49255769768_df55596553_b.jpg","small_url":"https://perenual.com/storage/species_image/2_abies_alba_pyramidalis/small/49255769768_df55596553_b.jpg","thumbnail":"https://perenual.com/storage/species_image/2_abies_alba_pyramidalis/thumbnail/49255769768_df55596553_b.jpg"}},{"id":4848,"common_name":"Asiatic lily","scientific_name":["Lilium 'Dolly Madison'"],"other_name":null,"cycle":"Perennial","watering":"Average","sunlight":["Full sun","part shade"],"default_image":{"image_id":9,"license":5,"license_name":"Attribution-ShareAlike License","license_url":"https://creativecommons.org/licenses/by-sa/2.0/","original_url":"https://perenual.com/storage/species_image/2_abies_alba_pyramidalis/og/49255769768_df55596553_b.jpg","regular_url":"https://perenual.com/storage/species_image/2_abies_alba_pyramidalis/regular/49255769768_df55596553_b.jpg","medium_url":"https://perenual.com/storage/species_image/2_abies_alba_pyramidalis/medium/49255769768_df55596553_b.jpg","small_url":"https://perenual.com/storage/species_image/2_abies_alba_pyramidalis/small/49255769768_df55596553_b.jpg","thumbnail":"https://perenual.com/storage/species_image/2_abies_alba_pyramidalis/thumbnail/49255769768_df55596553_b.jpg"}},{"id":4849,"common_name":"Asiatic lily","scientific_name":["Lilium 'Dot Com'"],"other_name":null,"cycle":"Perennial","watering":"Average","sunlight":["Full sun","part shade"],"default_image":{"image_id":10235,"license":5,"license_name":"Attribution-ShareAlike License","license_url":"https://creativecommons.org/licenses/by-sa/2.0/","original_url":"https://perenual.com/storage/species_image/4849_lilium_dot_com/og/52173578327_a98e99270f_b.jpg","regular_url":"https://perenual.com/storage/species_image/4849_lilium_dot_com/regular/52173578327_a98e99270f_b.jpg","medium_url":"https://perenual.com/storage/species_image/4849_lilium_dot_com/medium/52173578327_a98e99270f_b.jpg","small_url":"https://perenual.com/storage/species_image/4849_lilium_dot_com/small/52173578327_a98e99270f_b.jpg","thumbnail":"https://perenual.com/storage/species_image/4849_lilium_dot_com/thumbnail/52173578327_a98e99270f_b.jpg"}},{"id":4850,"common_name":"Asiatic lily","scientific_name":["Lilium 'Dreamland'"],"other_name":null,"cycle":"Perennial","watering":"Average","sunlight":["Full sun","part shade"],"default_image":{"image_id":9,"license":5,"license_name":"Attribution-ShareAlike License","license_url":"https://creativecommons.org/licenses/by-sa/2.0/","original_url":"https://perenual.com/storage/species_image/2_abies_alba_pyramidalis/og/49255769768_df55596553_b.jpg","regular_url":"https://perenual.com/storage/species_image/2_abies_alba_pyramidalis/regular/49255769768_df55596553_b.jpg","medium_url":"https://perenual.com/storage/species_image/2_abies_alba_pyramidalis/medium/49255769768_df55596553_b.jpg","small_url":"https://perenual.com/storage/species_image/2_abies_alba_pyramidalis/small/49255769768_df55596553_b.jpg","thumbnail":"https://perenual.com/storage/species_image/2_abies_alba_pyramidalis/thumbnail/49255769768_df55596553_b.jpg"}},{"id":4851,"common_name":"lily","scientific_name":["Lilium 'Embarrassment'"],"other_name":null,"cycle":"Perennial","watering":"Average","sunlight":["Full sun","part shade"],"default_image":{"image_id":9,"license":5,"license_name":"Attribution-ShareAlike License","license_url":"https://creativecommons.org/licenses/by-sa/2.0/","original_url":"https://perenual.com/storage/species_image/2_abies_alba_pyramidalis/og/49255769768_df55596553_b.jpg","regular_url":"https://perenual.com/storage/species_image/2_abies_alba_pyramidalis/regular/49255769768_df55596553_b.jpg","medium_url":"https://perenual.com/storage/species_image/2_abies_alba_pyramidalis/medium/49255769768_df55596553_b.jpg","small_url":"https://perenual.com/storage/species_image/2_abies_alba_pyramidalis/small/49255769768_df55596553_b.jpg","thumbnail":"https://perenual.com/storage/species_image/2_abies_alba_pyramidalis/thumbnail/49255769768_df55596553_b.jpg"}},{"id":4852,"common_name":"lily","scientific_name":["Lilium 'Emerald Temple'"],"other_name":null,"cycle":"Perennial","watering":"Average","sunlight":["Full sun","part shade"],"default_image":{"image_id":10238,"license":4,"license_name":"Attribution License","license_url":"https://creativecommons.org/licenses/by/2.0/","original_url":"https://perenual.com/storage/species_image/4852_lilium_emerald_temple/og/52602366783_f5abf416e3_b.jpg","regular_url":"https://perenual.com/storage/species_image/4852_lilium_emerald_temple/regular/52602366783_f5abf416e3_b.jpg","medium_url":"https://perenual.com/storage/species_image/4852_lilium_emerald_temple/medium/52602366783_f5abf416e3_b.jpg","small_url":"https://perenual.com/storage/species_image/4852_lilium_emerald_temple/small/52602366783_f5abf416e3_b.jpg","thumbnail":"https://perenual.com/storage/species_image/4852_lilium_emerald_temple/thumbnail/52602366783_f5abf416e3_b.jpg"}},{"id":4853,"common_name":"Asiatic lily","scientific_name":["Lilium 'Enchantment'"],"other_name":null,"cycle":"Perennial","watering":"Average","sunlight":["Full sun","part shade"],"default_image":{"image_id":9,"license":5,"license_name":"Attribution-ShareAlike License","license_url":"https://creativecommons.org/licenses/by-sa/2.0/","original_url":"https://perenual.com/storage/species_image/2_abies_alba_pyramidalis/og/49255769768_df55596553_b.jpg","regular_url":"https://perenual.com/storage/species_image/2_abies_alba_pyramidalis/regular/49255769768_df55596553_b.jpg","medium_url":"https://perenual.com/storage/species_image/2_abies_alba_pyramidalis/medium/49255769768_df55596553_b.jpg","small_url":"https://perenual.com/storage/species_image/2_abies_alba_pyramidalis/small/49255769768_df55596553_b.jpg","thumbnail":"https://perenual.com/storage/species_image/2_abies_alba_pyramidalis/thumbnail/49255769768_df55596553_b.jpg"}},{"id":4854,"common_name":"Asiatic lily","scientific_name":["Lilium 'Fata Morgana'"],"other_name":null,"cycle":"Perennial","watering":"Average","sunlight":["Full sun","part shade"],"default_image":{"image_id":9,"license":5,"license_name":"Attribution-ShareAlike License","license_url":"https://creativecommons.org/licenses/by-sa/2.0/","original_url":"https://perenual.com/storage/species_image/2_abies_alba_pyramidalis/og/49255769768_df55596553_b.jpg","regular_url":"https://perenual.com/storage/species_image/2_abies_alba_pyramidalis/regular/49255769768_df55596553_b.jpg","medium_url":"https://perenual.com/storage/species_image/2_abies_alba_pyramidalis/medium/49255769768_df55596553_b.jpg","small_url":"https://perenual.com/storage/species_image/2_abies_alba_pyramidalis/small/49255769768_df55596553_b.jpg","thumbnail":"https://perenual.com/storage/species_image/2_abies_alba_pyramidalis/thumbnail/49255769768_df55596553_b.jpg"}},{"id":4855,"common_name":"Asiatic lily","scientific_name":["Lilium 'First Lady'"],"other_name":null,"cycle":"Perennial","watering":"Average","sunlight":["Full sun","part shade"],"default_image":{"image_id":9,"license":5,"license_name":"Attribution-ShareAlike License","license_url":"https://creativecommons.org/licenses/by-sa/2.0/","original_url":"https://perenual.com/storage/species_image/2_abies_alba_pyramidalis/og/49255769768_df55596553_b.jpg","regular_url":"https://perenual.com/storage/species_image/2_abies_alba_pyramidalis/regular/49255769768_df55596553_b.jpg","medium_url":"https://perenual.com/storage/species_image/2_abies_alba_pyramidalis/medium/49255769768_df55596553_b.jpg","small_url":"https://perenual.com/storage/species_image/2_abies_alba_pyramidalis/small/49255769768_df55596553_b.jpg","thumbnail":"https://perenual.com/storage/species_image/2_abies_alba_pyramidalis/thumbnail/49255769768_df55596553_b.jpg"}},{"id":4856,"common_name":"Asiatic lily","scientific_name":["Lilium 'Forever Susan'"],"other_name":null,"cycle":"Perennial","watering":"Average","sunlight":["Full sun","part shade"],"default_image":{"image_id":10243,"license":5,"license_name":"Attribution-ShareAlike License","license_url":"https://creativecommons.org/licenses/by-sa/2.0/","original_url":"https://perenual.com/storage/species_image/4856_lilium_forever_susan/og/33320881330_c0e482ce4e_b.jpg","regular_url":"https://perenual.com/storage/species_image/4856_lilium_forever_susan/regular/33320881330_c0e482ce4e_b.jpg","medium_url":"https://perenual.com/storage/species_image/4856_lilium_forever_susan/medium/33320881330_c0e482ce4e_b.jpg","small_url":"https://perenual.com/storage/species_image/4856_lilium_forever_susan/small/33320881330_c0e482ce4e_b.jpg","thumbnail":"https://perenual.com/storage/species_image/4856_lilium_forever_susan/thumbnail/33320881330_c0e482ce4e_b.jpg"}},{"id":4857,"common_name":"formosan lily","scientific_name":["Lilium formosanum"],"other_name":null,"cycle":"Perennial","watering":"Average","sunlight":["Full sun","part shade"],"default_image":{"image_id":9,"license":5,"license_name":"Attribution-ShareAlike License","license_url":"https://creativecommons.org/licenses/by-sa/2.0/","original_url":"https://perenual.com/storage/species_image/2_abies_alba_pyramidalis/og/49255769768_df55596553_b.jpg","regular_url":"https://perenual.com/storage/species_image/2_abies_alba_pyramidalis/regular/49255769768_df55596553_b.jpg","medium_url":"https://perenual.com/storage/species_image/2_abies_alba_pyramidalis/medium/49255769768_df55596553_b.jpg","small_url":"https://perenual.com/storage/species_image/2_abies_alba_pyramidalis/small/49255769768_df55596553_b.jpg","thumbnail":"https://perenual.com/storage/species_image/2_abies_alba_pyramidalis/thumbnail/49255769768_df55596553_b.jpg"}},{"id":4858,"common_name":"trumpet lily","scientific_name":["Lilium (Golden Splendor Group)"],"other_name":null,"cycle":"Perennial","watering":"Average","sunlight":["Full sun","part shade"],"default_image":{"image_id":10165,"license":5,"license_name":"Attribution-ShareAlike License","license_url":"https://creativecommons.org/licenses/by-sa/2.0/","original_url":"https://perenual.com/storage/species_image/4859_lilium_golden_sunburst/og/52164685642_637582e061_b.jpg","regular_url":"https://perenual.com/storage/species_image/4859_lilium_golden_sunburst/regular/52164685642_637582e061_b.jpg","medium_url":"https://perenual.com/storage/species_image/4859_lilium_golden_sunburst/medium/52164685642_637582e061_b.jpg","small_url":"https://perenual.com/storage/species_image/4859_lilium_golden_sunburst/small/52164685642_637582e061_b.jpg","thumbnail":"https://perenual.com/storage/species_image/4859_lilium_golden_sunburst/thumbnail/52164685642_637582e061_b.jpg"}},{"id":4859,"common_name":"trumpet lily","scientific_name":["Lilium 'Golden Sunburst'"],"other_name":null,"cycle":"Perennial","watering":"Average","sunlight":["Full sun","part shade"],"default_image":{"image_id":10165,"license":5,"license_name":"Attribution-ShareAlike License","license_url":"https://creativecommons.org/licenses/by-sa/2.0/","original_url":"https://perenual.com/storage/species_image/4859_lilium_golden_sunburst/og/52164685642_637582e061_b.jpg","regular_url":"https://perenual.com/storage/species_image/4859_lilium_golden_sunburst/regular/52164685642_637582e061_b.jpg","medium_url":"https://perenual.com/storage/species_image/4859_lilium_golden_sunburst/medium/52164685642_637582e061_b.jpg","small_url":"https://perenual.com/storage/species_image/4859_lilium_golden_sunburst/small/52164685642_637582e061_b.jpg","thumbnail":"https://perenual.com/storage/species_image/4859_lilium_golden_sunburst/thumbnail/52164685642_637582e061_b.jpg"}},{"id":4860,"common_name":"Asiatic lily","scientific_name":["Lilium 'Grand Cru'"],"other_name":null,"cycle":"Perennial","watering":"Average","sunlight":["Full sun","part shade"],"default_image":{"image_id":9,"license":5,"license_name":"Attribution-ShareAlike License","license_url":"https://creativecommons.org/licenses/by-sa/2.0/","original_url":"https://perenual.com/storage/species_image/2_abies_alba_pyramidalis/og/49255769768_df55596553_b.jpg","regular_url":"https://perenual.com/storage/species_image/2_abies_alba_pyramidalis/regular/49255769768_df55596553_b.jpg","medium_url":"https://perenual.com/storage/species_image/2_abies_alba_pyramidalis/medium/49255769768_df55596553_b.jpg","small_url":"https://perenual.com/storage/species_image/2_abies_alba_pyramidalis/small/49255769768_df55596553_b.jpg","thumbnail":"https://perenual.com/storage/species_image/2_abies_alba_pyramidalis/thumbnail/49255769768_df55596553_b.jpg"}}],"to":4860,"per_page":30,"current_page":162,"from":4831,"last_page":200,"total":6000}