{"data":[{"id":5551,"common_name":"Russian oregano","scientific_name":["Origanum vulgare subsp. gracile"],"other_name":null,"cycle":"Perennial","watering":"Minimum","sunlight":["Full sun"," Part sun/part shade"],"default_image":{"image_id":9,"license":5,"license_name":"Attribution-ShareAlike License","license_url":"https://creativecommons.org/licenses/by-sa/2.0/","original_url":"https://perenual.com/storage/species_image/2_abies_alba_pyramidalis/og/49255769768_df55596553_b.jpg","regular_url":"https://perenual.com/storage/species_image/2_abies_alba_pyramidalis/regular/49255769768_df55596553_b.jpg","medium_url":"https://perenual.com/storage/species_image/2_abies_alba_pyramidalis/medium/49255769768_df55596553_b.jpg","small_url":"https://perenual.com/storage/species_image/2_abies_alba_pyramidalis/small/49255769768_df55596553_b.jpg","thumbnail":"https://perenual.com/storage/species_image/2_abies_alba_pyramidalis/thumbnail/49255769768_df55596553_b.jpg"}},{"id":5552,"common_name":"Greek oregano","scientific_name":["Origanum vulgare subsp. hirtum"],"other_name":null,"cycle":"Perennial","watering":"Minimum","sunlight":["Full sun"," Part sun/part shade"],"default_image":{"image_id":11397,"license":4,"license_name":"Attribution License","license_url":"https://creativecommons.org/licenses/by/2.0/","original_url":"https://perenual.com/storage/species_image/5552_origanum_vulgare_subsp_hirtum/og/24892157255_ee2e90a8d3_b.jpg","regular_url":"https://perenual.com/storage/species_image/5552_origanum_vulgare_subsp_hirtum/regular/24892157255_ee2e90a8d3_b.jpg","medium_url":"https://perenual.com/storage/species_image/5552_origanum_vulgare_subsp_hirtum/medium/24892157255_ee2e90a8d3_b.jpg","small_url":"https://perenual.com/storage/species_image/5552_origanum_vulgare_subsp_hirtum/small/24892157255_ee2e90a8d3_b.jpg","thumbnail":"https://perenual.com/storage/species_image/5552_origanum_vulgare_subsp_hirtum/thumbnail/24892157255_ee2e90a8d3_b.jpg"}},{"id":5553,"common_name":"Star of Bethlehem","scientific_name":["Ornithogalum arabicum"],"other_name":null,"cycle":"Perennial","watering":"Average","sunlight":["Full sun","part shade"],"default_image":{"image_id":9,"license":5,"license_name":"Attribution-ShareAlike License","license_url":"https://creativecommons.org/licenses/by-sa/2.0/","original_url":"https://perenual.com/storage/species_image/2_abies_alba_pyramidalis/og/49255769768_df55596553_b.jpg","regular_url":"https://perenual.com/storage/species_image/2_abies_alba_pyramidalis/regular/49255769768_df55596553_b.jpg","medium_url":"https://perenual.com/storage/species_image/2_abies_alba_pyramidalis/medium/49255769768_df55596553_b.jpg","small_url":"https://perenual.com/storage/species_image/2_abies_alba_pyramidalis/small/49255769768_df55596553_b.jpg","thumbnail":"https://perenual.com/storage/species_image/2_abies_alba_pyramidalis/thumbnail/49255769768_df55596553_b.jpg"}},{"id":5554,"common_name":"giant summer hyacinth","scientific_name":["Ornithogalum candicans"],"other_name":null,"cycle":"Perennial","watering":"Average","sunlight":["Full sun"],"default_image":{"image_id":11398,"license":4,"license_name":"Attribution License","license_url":"https://creativecommons.org/licenses/by/2.0/","original_url":"https://perenual.com/storage/species_image/5554_ornithogalum_candicans/og/24415544524_09998c5b6b_b.jpg","regular_url":"https://perenual.com/storage/species_image/5554_ornithogalum_candicans/regular/24415544524_09998c5b6b_b.jpg","medium_url":"https://perenual.com/storage/species_image/5554_ornithogalum_candicans/medium/24415544524_09998c5b6b_b.jpg","small_url":"https://perenual.com/storage/species_image/5554_ornithogalum_candicans/small/24415544524_09998c5b6b_b.jpg","thumbnail":"https://perenual.com/storage/species_image/5554_ornithogalum_candicans/thumbnail/24415544524_09998c5b6b_b.jpg"}},{"id":5555,"common_name":"Star of Bethlehem","scientific_name":["Ornithogalum magnum"],"other_name":null,"cycle":"Perennial","watering":"Average","sunlight":["Full sun","part shade"],"default_image":{"image_id":9,"license":5,"license_name":"Attribution-ShareAlike License","license_url":"https://creativecommons.org/licenses/by-sa/2.0/","original_url":"https://perenual.com/storage/species_image/2_abies_alba_pyramidalis/og/49255769768_df55596553_b.jpg","regular_url":"https://perenual.com/storage/species_image/2_abies_alba_pyramidalis/regular/49255769768_df55596553_b.jpg","medium_url":"https://perenual.com/storage/species_image/2_abies_alba_pyramidalis/medium/49255769768_df55596553_b.jpg","small_url":"https://perenual.com/storage/species_image/2_abies_alba_pyramidalis/small/49255769768_df55596553_b.jpg","thumbnail":"https://perenual.com/storage/species_image/2_abies_alba_pyramidalis/thumbnail/49255769768_df55596553_b.jpg"}},{"id":5556,"common_name":"Star of Bethlehem","scientific_name":["Ornithogalum regale"],"other_name":null,"cycle":"Perennial","watering":"Average","sunlight":["Full sun","part shade"],"default_image":{"image_id":9,"license":5,"license_name":"Attribution-ShareAlike License","license_url":"https://creativecommons.org/licenses/by-sa/2.0/","original_url":"https://perenual.com/storage/species_image/2_abies_alba_pyramidalis/og/49255769768_df55596553_b.jpg","regular_url":"https://perenual.com/storage/species_image/2_abies_alba_pyramidalis/regular/49255769768_df55596553_b.jpg","medium_url":"https://perenual.com/storage/species_image/2_abies_alba_pyramidalis/medium/49255769768_df55596553_b.jpg","small_url":"https://perenual.com/storage/species_image/2_abies_alba_pyramidalis/small/49255769768_df55596553_b.jpg","thumbnail":"https://perenual.com/storage/species_image/2_abies_alba_pyramidalis/thumbnail/49255769768_df55596553_b.jpg"}},{"id":5557,"common_name":"Star of Bethlehem","scientific_name":["Ornithogalum umbellatum"],"other_name":null,"cycle":"Perennial","watering":"Average","sunlight":["Full sun","part shade"],"default_image":{"image_id":9,"license":5,"license_name":"Attribution-ShareAlike License","license_url":"https://creativecommons.org/licenses/by-sa/2.0/","original_url":"https://perenual.com/storage/species_image/2_abies_alba_pyramidalis/og/49255769768_df55596553_b.jpg","regular_url":"https://perenual.com/storage/species_image/2_abies_alba_pyramidalis/regular/49255769768_df55596553_b.jpg","medium_url":"https://perenual.com/storage/species_image/2_abies_alba_pyramidalis/medium/49255769768_df55596553_b.jpg","small_url":"https://perenual.com/storage/species_image/2_abies_alba_pyramidalis/small/49255769768_df55596553_b.jpg","thumbnail":"https://perenual.com/storage/species_image/2_abies_alba_pyramidalis/thumbnail/49255769768_df55596553_b.jpg"}},{"id":5558,"common_name":"golden club","scientific_name":["Orontium aquaticum"],"other_name":null,"cycle":"Perennial","watering":"Frequent","sunlight":["Full sun"],"default_image":{"image_id":9,"license":5,"license_name":"Attribution-ShareAlike License","license_url":"https://creativecommons.org/licenses/by-sa/2.0/","original_url":"https://perenual.com/storage/species_image/2_abies_alba_pyramidalis/og/49255769768_df55596553_b.jpg","regular_url":"https://perenual.com/storage/species_image/2_abies_alba_pyramidalis/regular/49255769768_df55596553_b.jpg","medium_url":"https://perenual.com/storage/species_image/2_abies_alba_pyramidalis/medium/49255769768_df55596553_b.jpg","small_url":"https://perenual.com/storage/species_image/2_abies_alba_pyramidalis/small/49255769768_df55596553_b.jpg","thumbnail":"https://perenual.com/storage/species_image/2_abies_alba_pyramidalis/thumbnail/49255769768_df55596553_b.jpg"}},{"id":5559,"common_name":"orostachys","scientific_name":["Orostachys aggregata"],"other_name":null,"cycle":"Perennial","watering":"Minimum","sunlight":["Full sun"],"default_image":{"image_id":9,"license":5,"license_name":"Attribution-ShareAlike License","license_url":"https://creativecommons.org/licenses/by-sa/2.0/","original_url":"https://perenual.com/storage/species_image/2_abies_alba_pyramidalis/og/49255769768_df55596553_b.jpg","regular_url":"https://perenual.com/storage/species_image/2_abies_alba_pyramidalis/regular/49255769768_df55596553_b.jpg","medium_url":"https://perenual.com/storage/species_image/2_abies_alba_pyramidalis/medium/49255769768_df55596553_b.jpg","small_url":"https://perenual.com/storage/species_image/2_abies_alba_pyramidalis/small/49255769768_df55596553_b.jpg","thumbnail":"https://perenual.com/storage/species_image/2_abies_alba_pyramidalis/thumbnail/49255769768_df55596553_b.jpg"}},{"id":5560,"common_name":"duncecap","scientific_name":["Orostachys boehmeri"],"other_name":null,"cycle":"Perennial","watering":"Minimum","sunlight":["Full sun"],"default_image":{"image_id":9,"license":5,"license_name":"Attribution-ShareAlike License","license_url":"https://creativecommons.org/licenses/by-sa/2.0/","original_url":"https://perenual.com/storage/species_image/2_abies_alba_pyramidalis/og/49255769768_df55596553_b.jpg","regular_url":"https://perenual.com/storage/species_image/2_abies_alba_pyramidalis/regular/49255769768_df55596553_b.jpg","medium_url":"https://perenual.com/storage/species_image/2_abies_alba_pyramidalis/medium/49255769768_df55596553_b.jpg","small_url":"https://perenual.com/storage/species_image/2_abies_alba_pyramidalis/small/49255769768_df55596553_b.jpg","thumbnail":"https://perenual.com/storage/species_image/2_abies_alba_pyramidalis/thumbnail/49255769768_df55596553_b.jpg"}},{"id":5561,"common_name":"Chinese violet cress","scientific_name":["Orychophragmus violaceus"],"other_name":null,"cycle":"Perennial","watering":"Average","sunlight":["Full sun"],"default_image":{"image_id":9,"license":5,"license_name":"Attribution-ShareAlike License","license_url":"https://creativecommons.org/licenses/by-sa/2.0/","original_url":"https://perenual.com/storage/species_image/2_abies_alba_pyramidalis/og/49255769768_df55596553_b.jpg","regular_url":"https://perenual.com/storage/species_image/2_abies_alba_pyramidalis/regular/49255769768_df55596553_b.jpg","medium_url":"https://perenual.com/storage/species_image/2_abies_alba_pyramidalis/medium/49255769768_df55596553_b.jpg","small_url":"https://perenual.com/storage/species_image/2_abies_alba_pyramidalis/small/49255769768_df55596553_b.jpg","thumbnail":"https://perenual.com/storage/species_image/2_abies_alba_pyramidalis/thumbnail/49255769768_df55596553_b.jpg"}},{"id":5562,"common_name":"rice plant","scientific_name":["Oryza sativa 'Red Dragon'"],"other_name":null,"cycle":"Perennial","watering":"Frequent","sunlight":["Full sun"],"default_image":{"image_id":9,"license":5,"license_name":"Attribution-ShareAlike License","license_url":"https://creativecommons.org/licenses/by-sa/2.0/","original_url":"https://perenual.com/storage/species_image/2_abies_alba_pyramidalis/og/49255769768_df55596553_b.jpg","regular_url":"https://perenual.com/storage/species_image/2_abies_alba_pyramidalis/regular/49255769768_df55596553_b.jpg","medium_url":"https://perenual.com/storage/species_image/2_abies_alba_pyramidalis/medium/49255769768_df55596553_b.jpg","small_url":"https://perenual.com/storage/species_image/2_abies_alba_pyramidalis/small/49255769768_df55596553_b.jpg","thumbnail":"https://perenual.com/storage/species_image/2_abies_alba_pyramidalis/thumbnail/49255769768_df55596553_b.jpg"}},{"id":5563,"common_name":"devilwood","scientific_name":["Osmanthus armatus"],"other_name":null,"cycle":"Perennial","watering":"Average","sunlight":["Full sun","part shade"],"default_image":{"image_id":11405,"license":5,"license_name":"Attribution-ShareAlike License","license_url":"https://creativecommons.org/licenses/by-sa/2.0/","original_url":"https://perenual.com/storage/species_image/5563_osmanthus_armatus/og/37291038294_0a20b4de43_b.jpg","regular_url":"https://perenual.com/storage/species_image/5563_osmanthus_armatus/regular/37291038294_0a20b4de43_b.jpg","medium_url":"https://perenual.com/storage/species_image/5563_osmanthus_armatus/medium/37291038294_0a20b4de43_b.jpg","small_url":"https://perenual.com/storage/species_image/5563_osmanthus_armatus/small/37291038294_0a20b4de43_b.jpg","thumbnail":"https://perenual.com/storage/species_image/5563_osmanthus_armatus/thumbnail/37291038294_0a20b4de43_b.jpg"}},{"id":5564,"common_name":"fragrant olive","scientific_name":["Osmanthus fragrans"],"other_name":null,"cycle":"Perennial","watering":"Average","sunlight":["Full sun","part shade"],"default_image":{"image_id":11407,"license":4,"license_name":"Attribution License","license_url":"https://creativecommons.org/licenses/by/2.0/","original_url":"https://perenual.com/storage/species_image/5564_osmanthus_fragrans/og/24860844216_4f1d0f3006_b.jpg","regular_url":"https://perenual.com/storage/species_image/5564_osmanthus_fragrans/regular/24860844216_4f1d0f3006_b.jpg","medium_url":"https://perenual.com/storage/species_image/5564_osmanthus_fragrans/medium/24860844216_4f1d0f3006_b.jpg","small_url":"https://perenual.com/storage/species_image/5564_osmanthus_fragrans/small/24860844216_4f1d0f3006_b.jpg","thumbnail":"https://perenual.com/storage/species_image/5564_osmanthus_fragrans/thumbnail/24860844216_4f1d0f3006_b.jpg"}},{"id":5565,"common_name":"fragrant tea olive","scientific_name":["Osmanthus fragrans f. aurantiacus"],"other_name":null,"cycle":"Perennial","watering":"Average","sunlight":["Full sun","part shade"],"default_image":{"image_id":11408,"license":4,"license_name":"Attribution License","license_url":"https://creativecommons.org/licenses/by/2.0/","original_url":"https://perenual.com/storage/species_image/5565_osmanthus_fragrans_f_aurantiacus/og/6211413410_54ed22e4a0_b.jpg","regular_url":"https://perenual.com/storage/species_image/5565_osmanthus_fragrans_f_aurantiacus/regular/6211413410_54ed22e4a0_b.jpg","medium_url":"https://perenual.com/storage/species_image/5565_osmanthus_fragrans_f_aurantiacus/medium/6211413410_54ed22e4a0_b.jpg","small_url":"https://perenual.com/storage/species_image/5565_osmanthus_fragrans_f_aurantiacus/small/6211413410_54ed22e4a0_b.jpg","thumbnail":"https://perenual.com/storage/species_image/5565_osmanthus_fragrans_f_aurantiacus/thumbnail/6211413410_54ed22e4a0_b.jpg"}},{"id":5566,"common_name":"fragrant tea olive","scientific_name":["Osmanthus fragrans f. aurantiacus 'Orange Supreme'"],"other_name":null,"cycle":"Perennial","watering":"Average","sunlight":["Full sun","part shade"],"default_image":{"image_id":9,"license":5,"license_name":"Attribution-ShareAlike License","license_url":"https://creativecommons.org/licenses/by-sa/2.0/","original_url":"https://perenual.com/storage/species_image/2_abies_alba_pyramidalis/og/49255769768_df55596553_b.jpg","regular_url":"https://perenual.com/storage/species_image/2_abies_alba_pyramidalis/regular/49255769768_df55596553_b.jpg","medium_url":"https://perenual.com/storage/species_image/2_abies_alba_pyramidalis/medium/49255769768_df55596553_b.jpg","small_url":"https://perenual.com/storage/species_image/2_abies_alba_pyramidalis/small/49255769768_df55596553_b.jpg","thumbnail":"https://perenual.com/storage/species_image/2_abies_alba_pyramidalis/thumbnail/49255769768_df55596553_b.jpg"}},{"id":5567,"common_name":"holly olive","scientific_name":["Osmanthus heterophyllus"],"other_name":null,"cycle":"Perennial","watering":"Average","sunlight":["Full sun","part shade"],"default_image":{"image_id":11410,"license":5,"license_name":"Attribution-ShareAlike License","license_url":"https://creativecommons.org/licenses/by-sa/2.0/","original_url":"https://perenual.com/storage/species_image/5567_osmanthus_heterophyllus/og/33168459878_f2e372b2ee_b.jpg","regular_url":"https://perenual.com/storage/species_image/5567_osmanthus_heterophyllus/regular/33168459878_f2e372b2ee_b.jpg","medium_url":"https://perenual.com/storage/species_image/5567_osmanthus_heterophyllus/medium/33168459878_f2e372b2ee_b.jpg","small_url":"https://perenual.com/storage/species_image/5567_osmanthus_heterophyllus/small/33168459878_f2e372b2ee_b.jpg","thumbnail":"https://perenual.com/storage/species_image/5567_osmanthus_heterophyllus/thumbnail/33168459878_f2e372b2ee_b.jpg"}},{"id":5568,"common_name":"holly olive","scientific_name":["Osmanthus heterophyllus 'Variegatus'"],"other_name":["false holly"],"cycle":"Perennial","watering":"Average","sunlight":["Full sun","part shade"],"default_image":{"image_id":9,"license":5,"license_name":"Attribution-ShareAlike License","license_url":"https://creativecommons.org/licenses/by-sa/2.0/","original_url":"https://perenual.com/storage/species_image/2_abies_alba_pyramidalis/og/49255769768_df55596553_b.jpg","regular_url":"https://perenual.com/storage/species_image/2_abies_alba_pyramidalis/regular/49255769768_df55596553_b.jpg","medium_url":"https://perenual.com/storage/species_image/2_abies_alba_pyramidalis/medium/49255769768_df55596553_b.jpg","small_url":"https://perenual.com/storage/species_image/2_abies_alba_pyramidalis/small/49255769768_df55596553_b.jpg","thumbnail":"https://perenual.com/storage/species_image/2_abies_alba_pyramidalis/thumbnail/49255769768_df55596553_b.jpg"}},{"id":5569,"common_name":"sweet olive","scientific_name":["Osmanthus suavis"],"other_name":null,"cycle":"Perennial","watering":"Average","sunlight":["Full sun","part shade"],"default_image":{"image_id":9,"license":5,"license_name":"Attribution-ShareAlike License","license_url":"https://creativecommons.org/licenses/by-sa/2.0/","original_url":"https://perenual.com/storage/species_image/2_abies_alba_pyramidalis/og/49255769768_df55596553_b.jpg","regular_url":"https://perenual.com/storage/species_image/2_abies_alba_pyramidalis/regular/49255769768_df55596553_b.jpg","medium_url":"https://perenual.com/storage/species_image/2_abies_alba_pyramidalis/medium/49255769768_df55596553_b.jpg","small_url":"https://perenual.com/storage/species_image/2_abies_alba_pyramidalis/small/49255769768_df55596553_b.jpg","thumbnail":"https://perenual.com/storage/species_image/2_abies_alba_pyramidalis/thumbnail/49255769768_df55596553_b.jpg"}},{"id":5570,"common_name":"sweet cicely","scientific_name":["Osmorhiza longistylis"],"other_name":null,"cycle":"Perennial","watering":"Average","sunlight":["Full sun","part shade"],"default_image":{"image_id":9,"license":5,"license_name":"Attribution-ShareAlike License","license_url":"https://creativecommons.org/licenses/by-sa/2.0/","original_url":"https://perenual.com/storage/species_image/2_abies_alba_pyramidalis/og/49255769768_df55596553_b.jpg","regular_url":"https://perenual.com/storage/species_image/2_abies_alba_pyramidalis/regular/49255769768_df55596553_b.jpg","medium_url":"https://perenual.com/storage/species_image/2_abies_alba_pyramidalis/medium/49255769768_df55596553_b.jpg","small_url":"https://perenual.com/storage/species_image/2_abies_alba_pyramidalis/small/49255769768_df55596553_b.jpg","thumbnail":"https://perenual.com/storage/species_image/2_abies_alba_pyramidalis/thumbnail/49255769768_df55596553_b.jpg"}},{"id":5571,"common_name":"miagos bush","scientific_name":["Osmoxylon lineare"],"other_name":null,"cycle":"Perennial","watering":"Average","sunlight":["Full sun","part shade"],"default_image":{"image_id":11419,"license":4,"license_name":"Attribution License","license_url":"https://creativecommons.org/licenses/by/2.0/","original_url":"https://perenual.com/storage/species_image/5571_osmoxylon_lineare/og/24593699390_866f173196_b.jpg","regular_url":"https://perenual.com/storage/species_image/5571_osmoxylon_lineare/regular/24593699390_866f173196_b.jpg","medium_url":"https://perenual.com/storage/species_image/5571_osmoxylon_lineare/medium/24593699390_866f173196_b.jpg","small_url":"https://perenual.com/storage/species_image/5571_osmoxylon_lineare/small/24593699390_866f173196_b.jpg","thumbnail":"https://perenual.com/storage/species_image/5571_osmoxylon_lineare/thumbnail/24593699390_866f173196_b.jpg"}},{"id":5572,"common_name":"interrupted fern","scientific_name":["Osmunda claytoniana"],"other_name":null,"cycle":"Perennial","watering":"Frequent","sunlight":["Part shade","full shade"],"default_image":{"image_id":9,"license":5,"license_name":"Attribution-ShareAlike License","license_url":"https://creativecommons.org/licenses/by-sa/2.0/","original_url":"https://perenual.com/storage/species_image/2_abies_alba_pyramidalis/og/49255769768_df55596553_b.jpg","regular_url":"https://perenual.com/storage/species_image/2_abies_alba_pyramidalis/regular/49255769768_df55596553_b.jpg","medium_url":"https://perenual.com/storage/species_image/2_abies_alba_pyramidalis/medium/49255769768_df55596553_b.jpg","small_url":"https://perenual.com/storage/species_image/2_abies_alba_pyramidalis/small/49255769768_df55596553_b.jpg","thumbnail":"https://perenual.com/storage/species_image/2_abies_alba_pyramidalis/thumbnail/49255769768_df55596553_b.jpg"}},{"id":5573,"common_name":"royal fern","scientific_name":["Osmunda regalis"],"other_name":null,"cycle":"Perennial","watering":"Frequent","sunlight":["Filtered shade"," Full sun only if soil kept moist"," Part sun/part shade"],"default_image":{"image_id":9,"license":5,"license_name":"Attribution-ShareAlike License","license_url":"https://creativecommons.org/licenses/by-sa/2.0/","original_url":"https://perenual.com/storage/species_image/2_abies_alba_pyramidalis/og/49255769768_df55596553_b.jpg","regular_url":"https://perenual.com/storage/species_image/2_abies_alba_pyramidalis/regular/49255769768_df55596553_b.jpg","medium_url":"https://perenual.com/storage/species_image/2_abies_alba_pyramidalis/medium/49255769768_df55596553_b.jpg","small_url":"https://perenual.com/storage/species_image/2_abies_alba_pyramidalis/small/49255769768_df55596553_b.jpg","thumbnail":"https://perenual.com/storage/species_image/2_abies_alba_pyramidalis/thumbnail/49255769768_df55596553_b.jpg"}},{"id":5574,"common_name":"royal fern","scientific_name":["Osmunda regalis 'Cristata'"],"other_name":null,"cycle":"Perennial","watering":"Frequent","sunlight":["Filtered shade"," Full sun only if soil kept moist"," Part sun/part shade"],"default_image":{"image_id":9,"license":5,"license_name":"Attribution-ShareAlike License","license_url":"https://creativecommons.org/licenses/by-sa/2.0/","original_url":"https://perenual.com/storage/species_image/2_abies_alba_pyramidalis/og/49255769768_df55596553_b.jpg","regular_url":"https://perenual.com/storage/species_image/2_abies_alba_pyramidalis/regular/49255769768_df55596553_b.jpg","medium_url":"https://perenual.com/storage/species_image/2_abies_alba_pyramidalis/medium/49255769768_df55596553_b.jpg","small_url":"https://perenual.com/storage/species_image/2_abies_alba_pyramidalis/small/49255769768_df55596553_b.jpg","thumbnail":"https://perenual.com/storage/species_image/2_abies_alba_pyramidalis/thumbnail/49255769768_df55596553_b.jpg"}},{"id":5575,"common_name":"royal fern","scientific_name":["Osmunda regalis 'Purpurascens'"],"other_name":null,"cycle":"Perennial","watering":"Frequent","sunlight":["Filtered shade"," Full sun only if soil kept moist"," Part sun/part shade"],"default_image":{"image_id":9,"license":5,"license_name":"Attribution-ShareAlike License","license_url":"https://creativecommons.org/licenses/by-sa/2.0/","original_url":"https://perenual.com/storage/species_image/2_abies_alba_pyramidalis/og/49255769768_df55596553_b.jpg","regular_url":"https://perenual.com/storage/species_image/2_abies_alba_pyramidalis/regular/49255769768_df55596553_b.jpg","medium_url":"https://perenual.com/storage/species_image/2_abies_alba_pyramidalis/medium/49255769768_df55596553_b.jpg","small_url":"https://perenual.com/storage/species_image/2_abies_alba_pyramidalis/small/49255769768_df55596553_b.jpg","thumbnail":"https://perenual.com/storage/species_image/2_abies_alba_pyramidalis/thumbnail/49255769768_df55596553_b.jpg"}},{"id":5576,"common_name":"royal fern","scientific_name":["Osmunda regalis var. spectabilis"],"other_name":null,"cycle":"Perennial","watering":"Frequent","sunlight":["Filtered shade"," Full sun only if soil kept moist"," Part sun/part shade"],"default_image":{"image_id":11426,"license":4,"license_name":"Attribution License","license_url":"https://creativecommons.org/licenses/by/2.0/","original_url":"https://perenual.com/storage/species_image/5576_osmunda_regalis_var_spectabilis/og/20871678726_7807397425_b.jpg","regular_url":"https://perenual.com/storage/species_image/5576_osmunda_regalis_var_spectabilis/regular/20871678726_7807397425_b.jpg","medium_url":"https://perenual.com/storage/species_image/5576_osmunda_regalis_var_spectabilis/medium/20871678726_7807397425_b.jpg","small_url":"https://perenual.com/storage/species_image/5576_osmunda_regalis_var_spectabilis/small/20871678726_7807397425_b.jpg","thumbnail":"https://perenual.com/storage/species_image/5576_osmunda_regalis_var_spectabilis/thumbnail/20871678726_7807397425_b.jpg"}},{"id":5577,"common_name":"cinnamon fern","scientific_name":["Osmundastrum cinnamomeum"],"other_name":null,"cycle":"Perennial","watering":"Frequent","sunlight":["Partial sun Shade"],"default_image":{"image_id":11427,"license":4,"license_name":"Attribution License","license_url":"https://creativecommons.org/licenses/by/2.0/","original_url":"https://perenual.com/storage/species_image/5577_osmundastrum_cinnamomeum/og/29374697572_2da51e09a8_b.jpg","regular_url":"https://perenual.com/storage/species_image/5577_osmundastrum_cinnamomeum/regular/29374697572_2da51e09a8_b.jpg","medium_url":"https://perenual.com/storage/species_image/5577_osmundastrum_cinnamomeum/medium/29374697572_2da51e09a8_b.jpg","small_url":"https://perenual.com/storage/species_image/5577_osmundastrum_cinnamomeum/small/29374697572_2da51e09a8_b.jpg","thumbnail":"https://perenual.com/storage/species_image/5577_osmundastrum_cinnamomeum/thumbnail/29374697572_2da51e09a8_b.jpg"}},{"id":5578,"common_name":"African daisy","scientific_name":["Osteospermum (group)"],"other_name":null,"cycle":"Perennial","watering":"Average","sunlight":["Full sun"],"default_image":{"image_id":9,"license":5,"license_name":"Attribution-ShareAlike License","license_url":"https://creativecommons.org/licenses/by-sa/2.0/","original_url":"https://perenual.com/storage/species_image/2_abies_alba_pyramidalis/og/49255769768_df55596553_b.jpg","regular_url":"https://perenual.com/storage/species_image/2_abies_alba_pyramidalis/regular/49255769768_df55596553_b.jpg","medium_url":"https://perenual.com/storage/species_image/2_abies_alba_pyramidalis/medium/49255769768_df55596553_b.jpg","small_url":"https://perenual.com/storage/species_image/2_abies_alba_pyramidalis/small/49255769768_df55596553_b.jpg","thumbnail":"https://perenual.com/storage/species_image/2_abies_alba_pyramidalis/thumbnail/49255769768_df55596553_b.jpg"}},{"id":5579,"common_name":"African daisy","scientific_name":["Osteospermum 'Wildside'"],"other_name":null,"cycle":"Perennial","watering":"Average","sunlight":["Full sun"],"default_image":{"image_id":9,"license":5,"license_name":"Attribution-ShareAlike License","license_url":"https://creativecommons.org/licenses/by-sa/2.0/","original_url":"https://perenual.com/storage/species_image/2_abies_alba_pyramidalis/og/49255769768_df55596553_b.jpg","regular_url":"https://perenual.com/storage/species_image/2_abies_alba_pyramidalis/regular/49255769768_df55596553_b.jpg","medium_url":"https://perenual.com/storage/species_image/2_abies_alba_pyramidalis/medium/49255769768_df55596553_b.jpg","small_url":"https://perenual.com/storage/species_image/2_abies_alba_pyramidalis/small/49255769768_df55596553_b.jpg","thumbnail":"https://perenual.com/storage/species_image/2_abies_alba_pyramidalis/thumbnail/49255769768_df55596553_b.jpg"}},{"id":5580,"common_name":"hop hornbeam","scientific_name":["Ostrya carpinifolia"],"other_name":null,"cycle":"Perennial","watering":"Average","sunlight":["Full sun","part shade"],"default_image":{"image_id":11436,"license":45,"license_name":"Attribution-ShareAlike 3.0 Unported (CC BY-SA 3.0)","license_url":"https://creativecommons.org/licenses/by-sa/3.0/deed.en","original_url":"https://perenual.com/storage/species_image/5580_ostrya_carpinifolia/og/Ostrya_carpinifolia_1.jpg","regular_url":"https://perenual.com/storage/species_image/5580_ostrya_carpinifolia/regular/Ostrya_carpinifolia_1.jpg","medium_url":"https://perenual.com/storage/species_image/5580_ostrya_carpinifolia/medium/Ostrya_carpinifolia_1.jpg","small_url":"https://perenual.com/storage/species_image/5580_ostrya_carpinifolia/small/Ostrya_carpinifolia_1.jpg","thumbnail":"https://perenual.com/storage/species_image/5580_ostrya_carpinifolia/thumbnail/Ostrya_carpinifolia_1.jpg"}}],"to":5580,"per_page":30,"current_page":186,"from":5551,"last_page":200,"total":6000}