{"data":[{"id":2131,"common_name":"kousa dogwood","scientific_name":["Cornus kousa 'Peve Limbo'"],"other_name":null,"cycle":"Perennial","watering":"Average","sunlight":["Full sun","part shade"],"default_image":{"image_id":9,"license":5,"license_name":"Attribution-ShareAlike License","license_url":"https://creativecommons.org/licenses/by-sa/2.0/","original_url":"https://perenual.com/storage/species_image/2_abies_alba_pyramidalis/og/49255769768_df55596553_b.jpg","regular_url":"https://perenual.com/storage/species_image/2_abies_alba_pyramidalis/regular/49255769768_df55596553_b.jpg","medium_url":"https://perenual.com/storage/species_image/2_abies_alba_pyramidalis/medium/49255769768_df55596553_b.jpg","small_url":"https://perenual.com/storage/species_image/2_abies_alba_pyramidalis/small/49255769768_df55596553_b.jpg","thumbnail":"https://perenual.com/storage/species_image/2_abies_alba_pyramidalis/thumbnail/49255769768_df55596553_b.jpg"}},{"id":2132,"common_name":"kousa dogwood","scientific_name":["Cornus kousa 'Snow Tower'"],"other_name":null,"cycle":"Perennial","watering":"Average","sunlight":["Full sun","part shade"],"default_image":{"image_id":9,"license":5,"license_name":"Attribution-ShareAlike License","license_url":"https://creativecommons.org/licenses/by-sa/2.0/","original_url":"https://perenual.com/storage/species_image/2_abies_alba_pyramidalis/og/49255769768_df55596553_b.jpg","regular_url":"https://perenual.com/storage/species_image/2_abies_alba_pyramidalis/regular/49255769768_df55596553_b.jpg","medium_url":"https://perenual.com/storage/species_image/2_abies_alba_pyramidalis/medium/49255769768_df55596553_b.jpg","small_url":"https://perenual.com/storage/species_image/2_abies_alba_pyramidalis/small/49255769768_df55596553_b.jpg","thumbnail":"https://perenual.com/storage/species_image/2_abies_alba_pyramidalis/thumbnail/49255769768_df55596553_b.jpg"}},{"id":2133,"common_name":"Chinese dogwood","scientific_name":["Cornus kousa var. chinensis"],"other_name":["kousa dogwood"],"cycle":"Perennial","watering":"Average","sunlight":["Full sun","part shade"],"default_image":{"image_id":9,"license":5,"license_name":"Attribution-ShareAlike License","license_url":"https://creativecommons.org/licenses/by-sa/2.0/","original_url":"https://perenual.com/storage/species_image/2_abies_alba_pyramidalis/og/49255769768_df55596553_b.jpg","regular_url":"https://perenual.com/storage/species_image/2_abies_alba_pyramidalis/regular/49255769768_df55596553_b.jpg","medium_url":"https://perenual.com/storage/species_image/2_abies_alba_pyramidalis/medium/49255769768_df55596553_b.jpg","small_url":"https://perenual.com/storage/species_image/2_abies_alba_pyramidalis/small/49255769768_df55596553_b.jpg","thumbnail":"https://perenual.com/storage/species_image/2_abies_alba_pyramidalis/thumbnail/49255769768_df55596553_b.jpg"}},{"id":2134,"common_name":"kousa dogwood","scientific_name":["Cornus kousa var. chinensis 'Madison' CROWN JEWEL"],"other_name":null,"cycle":"Perennial","watering":"Average","sunlight":["Full sun","part shade"],"default_image":{"image_id":5065,"license":5,"license_name":"Attribution-ShareAlike License","license_url":"https://creativecommons.org/licenses/by-sa/2.0/","original_url":"https://perenual.com/storage/species_image/2134_cornus_kousa_var_chinensis_madison_crown_jewel/og/52147594544_08108beb9c_b.jpg","regular_url":"https://perenual.com/storage/species_image/2134_cornus_kousa_var_chinensis_madison_crown_jewel/regular/52147594544_08108beb9c_b.jpg","medium_url":"https://perenual.com/storage/species_image/2134_cornus_kousa_var_chinensis_madison_crown_jewel/medium/52147594544_08108beb9c_b.jpg","small_url":"https://perenual.com/storage/species_image/2134_cornus_kousa_var_chinensis_madison_crown_jewel/small/52147594544_08108beb9c_b.jpg","thumbnail":"https://perenual.com/storage/species_image/2134_cornus_kousa_var_chinensis_madison_crown_jewel/thumbnail/52147594544_08108beb9c_b.jpg"}},{"id":2135,"common_name":"Chinese dogwood","scientific_name":["Cornus kousa var. chinensis 'Milky Way'"],"other_name":null,"cycle":"Perennial","watering":"Average","sunlight":["Full sun","part shade"],"default_image":{"image_id":5068,"license":5,"license_name":"Attribution-ShareAlike License","license_url":"https://creativecommons.org/licenses/by-sa/2.0/","original_url":"https://perenual.com/storage/species_image/2135_cornus_kousa_var_chinensis_milky_way/og/50013141361_8f12df3605_b.jpg","regular_url":"https://perenual.com/storage/species_image/2135_cornus_kousa_var_chinensis_milky_way/regular/50013141361_8f12df3605_b.jpg","medium_url":"https://perenual.com/storage/species_image/2135_cornus_kousa_var_chinensis_milky_way/medium/50013141361_8f12df3605_b.jpg","small_url":"https://perenual.com/storage/species_image/2135_cornus_kousa_var_chinensis_milky_way/small/50013141361_8f12df3605_b.jpg","thumbnail":"https://perenual.com/storage/species_image/2135_cornus_kousa_var_chinensis_milky_way/thumbnail/50013141361_8f12df3605_b.jpg"}},{"id":2136,"common_name":"kousa dogwood","scientific_name":["Cornus kousa 'Weaver's Weeping'"],"other_name":null,"cycle":"Perennial","watering":"Average","sunlight":["Full sun","part shade"],"default_image":{"image_id":9,"license":5,"license_name":"Attribution-ShareAlike License","license_url":"https://creativecommons.org/licenses/by-sa/2.0/","original_url":"https://perenual.com/storage/species_image/2_abies_alba_pyramidalis/og/49255769768_df55596553_b.jpg","regular_url":"https://perenual.com/storage/species_image/2_abies_alba_pyramidalis/regular/49255769768_df55596553_b.jpg","medium_url":"https://perenual.com/storage/species_image/2_abies_alba_pyramidalis/medium/49255769768_df55596553_b.jpg","small_url":"https://perenual.com/storage/species_image/2_abies_alba_pyramidalis/small/49255769768_df55596553_b.jpg","thumbnail":"https://perenual.com/storage/species_image/2_abies_alba_pyramidalis/thumbnail/49255769768_df55596553_b.jpg"}},{"id":2137,"common_name":"cornelian cherry dogwood","scientific_name":["Cornus mas 'Golden Glory'"],"other_name":null,"cycle":"Perennial","watering":"Average","sunlight":["Full sun","part shade"],"default_image":{"image_id":5070,"license":5,"license_name":"Attribution-ShareAlike License","license_url":"https://creativecommons.org/licenses/by-sa/2.0/","original_url":"https://perenual.com/storage/species_image/2137_cornus_mas_golden_glory/og/51054726811_82a6bf1410_b.jpg","regular_url":"https://perenual.com/storage/species_image/2137_cornus_mas_golden_glory/regular/51054726811_82a6bf1410_b.jpg","medium_url":"https://perenual.com/storage/species_image/2137_cornus_mas_golden_glory/medium/51054726811_82a6bf1410_b.jpg","small_url":"https://perenual.com/storage/species_image/2137_cornus_mas_golden_glory/small/51054726811_82a6bf1410_b.jpg","thumbnail":"https://perenual.com/storage/species_image/2137_cornus_mas_golden_glory/thumbnail/51054726811_82a6bf1410_b.jpg"}},{"id":2138,"common_name":"mountain dogwood","scientific_name":["Cornus nuttallii"],"other_name":null,"cycle":"Perennial","watering":"Frequent","sunlight":["Deep shade"," Filtered shade"," Full sun"," Part sun/part shade"],"default_image":{"image_id":5072,"license":4,"license_name":"Attribution License","license_url":"https://creativecommons.org/licenses/by/2.0/","original_url":"https://perenual.com/storage/species_image/2138_cornus_nuttallii/og/2594196669_d402652086_b.jpg","regular_url":"https://perenual.com/storage/species_image/2138_cornus_nuttallii/regular/2594196669_d402652086_b.jpg","medium_url":"https://perenual.com/storage/species_image/2138_cornus_nuttallii/medium/2594196669_d402652086_b.jpg","small_url":"https://perenual.com/storage/species_image/2138_cornus_nuttallii/small/2594196669_d402652086_b.jpg","thumbnail":"https://perenual.com/storage/species_image/2138_cornus_nuttallii/thumbnail/2594196669_d402652086_b.jpg"}},{"id":2139,"common_name":"Japanese cornelian cherry","scientific_name":["Cornus officinalis"],"other_name":null,"cycle":"Perennial","watering":"Average","sunlight":["Full sun","part shade"],"default_image":{"image_id":9,"license":5,"license_name":"Attribution-ShareAlike License","license_url":"https://creativecommons.org/licenses/by-sa/2.0/","original_url":"https://perenual.com/storage/species_image/2_abies_alba_pyramidalis/og/49255769768_df55596553_b.jpg","regular_url":"https://perenual.com/storage/species_image/2_abies_alba_pyramidalis/regular/49255769768_df55596553_b.jpg","medium_url":"https://perenual.com/storage/species_image/2_abies_alba_pyramidalis/medium/49255769768_df55596553_b.jpg","small_url":"https://perenual.com/storage/species_image/2_abies_alba_pyramidalis/small/49255769768_df55596553_b.jpg","thumbnail":"https://perenual.com/storage/species_image/2_abies_alba_pyramidalis/thumbnail/49255769768_df55596553_b.jpg"}},{"id":2140,"common_name":"gray dogwood","scientific_name":["Cornus racemosa"],"other_name":null,"cycle":"Perennial","watering":"Frequent","sunlight":["Full sun","part shade"],"default_image":{"image_id":5080,"license":5,"license_name":"Attribution-ShareAlike License","license_url":"https://creativecommons.org/licenses/by-sa/2.0/","original_url":"https://perenual.com/storage/species_image/2140_cornus_racemosa/og/50178426687_f0db2e4e9c_b.jpg","regular_url":"https://perenual.com/storage/species_image/2140_cornus_racemosa/regular/50178426687_f0db2e4e9c_b.jpg","medium_url":"https://perenual.com/storage/species_image/2140_cornus_racemosa/medium/50178426687_f0db2e4e9c_b.jpg","small_url":"https://perenual.com/storage/species_image/2140_cornus_racemosa/small/50178426687_f0db2e4e9c_b.jpg","thumbnail":"https://perenual.com/storage/species_image/2140_cornus_racemosa/thumbnail/50178426687_f0db2e4e9c_b.jpg"}},{"id":2141,"common_name":"dogwood","scientific_name":["Cornus 'Rutcan' CONSTELLATION"],"other_name":null,"cycle":"Perennial","watering":"Average","sunlight":["Full sun","part shade"],"default_image":{"image_id":9,"license":5,"license_name":"Attribution-ShareAlike License","license_url":"https://creativecommons.org/licenses/by-sa/2.0/","original_url":"https://perenual.com/storage/species_image/2_abies_alba_pyramidalis/og/49255769768_df55596553_b.jpg","regular_url":"https://perenual.com/storage/species_image/2_abies_alba_pyramidalis/regular/49255769768_df55596553_b.jpg","medium_url":"https://perenual.com/storage/species_image/2_abies_alba_pyramidalis/medium/49255769768_df55596553_b.jpg","small_url":"https://perenual.com/storage/species_image/2_abies_alba_pyramidalis/small/49255769768_df55596553_b.jpg","thumbnail":"https://perenual.com/storage/species_image/2_abies_alba_pyramidalis/thumbnail/49255769768_df55596553_b.jpg"}},{"id":2142,"common_name":"dogwood","scientific_name":["Cornus 'Rutdan' CELESTIAL"],"other_name":null,"cycle":"Perennial","watering":"Average","sunlight":["Full sun","part shade"],"default_image":{"image_id":9,"license":5,"license_name":"Attribution-ShareAlike License","license_url":"https://creativecommons.org/licenses/by-sa/2.0/","original_url":"https://perenual.com/storage/species_image/2_abies_alba_pyramidalis/og/49255769768_df55596553_b.jpg","regular_url":"https://perenual.com/storage/species_image/2_abies_alba_pyramidalis/regular/49255769768_df55596553_b.jpg","medium_url":"https://perenual.com/storage/species_image/2_abies_alba_pyramidalis/medium/49255769768_df55596553_b.jpg","small_url":"https://perenual.com/storage/species_image/2_abies_alba_pyramidalis/small/49255769768_df55596553_b.jpg","thumbnail":"https://perenual.com/storage/species_image/2_abies_alba_pyramidalis/thumbnail/49255769768_df55596553_b.jpg"}},{"id":2143,"common_name":"dogwood","scientific_name":["Cornus 'Rutfan' STARDUST"],"other_name":null,"cycle":"Perennial","watering":"Average","sunlight":["Full sun","part shade"],"default_image":{"image_id":9,"license":5,"license_name":"Attribution-ShareAlike License","license_url":"https://creativecommons.org/licenses/by-sa/2.0/","original_url":"https://perenual.com/storage/species_image/2_abies_alba_pyramidalis/og/49255769768_df55596553_b.jpg","regular_url":"https://perenual.com/storage/species_image/2_abies_alba_pyramidalis/regular/49255769768_df55596553_b.jpg","medium_url":"https://perenual.com/storage/species_image/2_abies_alba_pyramidalis/medium/49255769768_df55596553_b.jpg","small_url":"https://perenual.com/storage/species_image/2_abies_alba_pyramidalis/small/49255769768_df55596553_b.jpg","thumbnail":"https://perenual.com/storage/species_image/2_abies_alba_pyramidalis/thumbnail/49255769768_df55596553_b.jpg"}},{"id":2144,"common_name":"dogwood","scientific_name":["Cornus 'Rutgan' STELLAR PINK"],"other_name":null,"cycle":"Perennial","watering":"Average","sunlight":["Full sun","part shade"],"default_image":{"image_id":5086,"license":4,"license_name":"Attribution License","license_url":"https://creativecommons.org/licenses/by/2.0/","original_url":"https://perenual.com/storage/species_image/2144_cornus_rutgan_stellar_pink/og/52508317487_0815c17231_b.jpg","regular_url":"https://perenual.com/storage/species_image/2144_cornus_rutgan_stellar_pink/regular/52508317487_0815c17231_b.jpg","medium_url":"https://perenual.com/storage/species_image/2144_cornus_rutgan_stellar_pink/medium/52508317487_0815c17231_b.jpg","small_url":"https://perenual.com/storage/species_image/2144_cornus_rutgan_stellar_pink/small/52508317487_0815c17231_b.jpg","thumbnail":"https://perenual.com/storage/species_image/2144_cornus_rutgan_stellar_pink/thumbnail/52508317487_0815c17231_b.jpg"}},{"id":2145,"common_name":"bloodtwig dogwood","scientific_name":["Cornus sanguinea"],"other_name":null,"cycle":"Perennial","watering":"Average","sunlight":["Full sun","part shade"],"default_image":{"image_id":5089,"license":4,"license_name":"Attribution License","license_url":"https://creativecommons.org/licenses/by/2.0/","original_url":"https://perenual.com/storage/species_image/2145_cornus_sanguinea/og/52117605101_8e6e89b485_b.jpg","regular_url":"https://perenual.com/storage/species_image/2145_cornus_sanguinea/regular/52117605101_8e6e89b485_b.jpg","medium_url":"https://perenual.com/storage/species_image/2145_cornus_sanguinea/medium/52117605101_8e6e89b485_b.jpg","small_url":"https://perenual.com/storage/species_image/2145_cornus_sanguinea/small/52117605101_8e6e89b485_b.jpg","thumbnail":"https://perenual.com/storage/species_image/2145_cornus_sanguinea/thumbnail/52117605101_8e6e89b485_b.jpg"}},{"id":2146,"common_name":"bloodtwig dogwood","scientific_name":["Cornus sanguinea 'Compressa'"],"other_name":null,"cycle":"Perennial","watering":"Average","sunlight":["Full sun","part shade"],"default_image":{"image_id":9,"license":5,"license_name":"Attribution-ShareAlike License","license_url":"https://creativecommons.org/licenses/by-sa/2.0/","original_url":"https://perenual.com/storage/species_image/2_abies_alba_pyramidalis/og/49255769768_df55596553_b.jpg","regular_url":"https://perenual.com/storage/species_image/2_abies_alba_pyramidalis/regular/49255769768_df55596553_b.jpg","medium_url":"https://perenual.com/storage/species_image/2_abies_alba_pyramidalis/medium/49255769768_df55596553_b.jpg","small_url":"https://perenual.com/storage/species_image/2_abies_alba_pyramidalis/small/49255769768_df55596553_b.jpg","thumbnail":"https://perenual.com/storage/species_image/2_abies_alba_pyramidalis/thumbnail/49255769768_df55596553_b.jpg"}},{"id":2147,"common_name":"bloodtwig dogwood","scientific_name":["Cornus sanguinea 'Winter Beauty'"],"other_name":null,"cycle":"Perennial","watering":"Average","sunlight":["Full sun","part shade"],"default_image":{"image_id":9,"license":5,"license_name":"Attribution-ShareAlike License","license_url":"https://creativecommons.org/licenses/by-sa/2.0/","original_url":"https://perenual.com/storage/species_image/2_abies_alba_pyramidalis/og/49255769768_df55596553_b.jpg","regular_url":"https://perenual.com/storage/species_image/2_abies_alba_pyramidalis/regular/49255769768_df55596553_b.jpg","medium_url":"https://perenual.com/storage/species_image/2_abies_alba_pyramidalis/medium/49255769768_df55596553_b.jpg","small_url":"https://perenual.com/storage/species_image/2_abies_alba_pyramidalis/small/49255769768_df55596553_b.jpg","thumbnail":"https://perenual.com/storage/species_image/2_abies_alba_pyramidalis/thumbnail/49255769768_df55596553_b.jpg"}},{"id":2148,"common_name":"red twig dogwood","scientific_name":["Cornus sericea"],"other_name":null,"cycle":"Perennial","watering":"Frequent","sunlight":["Full sun","part shade"],"default_image":{"image_id":5094,"license":5,"license_name":"Attribution-ShareAlike License","license_url":"https://creativecommons.org/licenses/by-sa/2.0/","original_url":"https://perenual.com/storage/species_image/2148_cornus_sericea/og/40476725970_4631514224_b.jpg","regular_url":"https://perenual.com/storage/species_image/2148_cornus_sericea/regular/40476725970_4631514224_b.jpg","medium_url":"https://perenual.com/storage/species_image/2148_cornus_sericea/medium/40476725970_4631514224_b.jpg","small_url":"https://perenual.com/storage/species_image/2148_cornus_sericea/small/40476725970_4631514224_b.jpg","thumbnail":"https://perenual.com/storage/species_image/2148_cornus_sericea/thumbnail/40476725970_4631514224_b.jpg"}},{"id":2149,"common_name":"red twig dogwood","scientific_name":["Cornus sericea 'Allemans'"],"other_name":null,"cycle":"Perennial","watering":"Frequent","sunlight":["Full sun","part shade"],"default_image":{"image_id":9,"license":5,"license_name":"Attribution-ShareAlike License","license_url":"https://creativecommons.org/licenses/by-sa/2.0/","original_url":"https://perenual.com/storage/species_image/2_abies_alba_pyramidalis/og/49255769768_df55596553_b.jpg","regular_url":"https://perenual.com/storage/species_image/2_abies_alba_pyramidalis/regular/49255769768_df55596553_b.jpg","medium_url":"https://perenual.com/storage/species_image/2_abies_alba_pyramidalis/medium/49255769768_df55596553_b.jpg","small_url":"https://perenual.com/storage/species_image/2_abies_alba_pyramidalis/small/49255769768_df55596553_b.jpg","thumbnail":"https://perenual.com/storage/species_image/2_abies_alba_pyramidalis/thumbnail/49255769768_df55596553_b.jpg"}},{"id":2150,"common_name":"yellowtwig dogwood","scientific_name":["Cornus sericea 'Budd's Yellow'"],"other_name":null,"cycle":"Perennial","watering":"Frequent","sunlight":["Full sun","part shade"],"default_image":{"image_id":5096,"license":5,"license_name":"Attribution-ShareAlike License","license_url":"https://creativecommons.org/licenses/by-sa/2.0/","original_url":"https://perenual.com/storage/species_image/2150_cornus_sericea_budds_yellow/og/32157867860_f6cf1c464f_b.jpg","regular_url":"https://perenual.com/storage/species_image/2150_cornus_sericea_budds_yellow/regular/32157867860_f6cf1c464f_b.jpg","medium_url":"https://perenual.com/storage/species_image/2150_cornus_sericea_budds_yellow/medium/32157867860_f6cf1c464f_b.jpg","small_url":"https://perenual.com/storage/species_image/2150_cornus_sericea_budds_yellow/small/32157867860_f6cf1c464f_b.jpg","thumbnail":"https://perenual.com/storage/species_image/2150_cornus_sericea_budds_yellow/thumbnail/32157867860_f6cf1c464f_b.jpg"}},{"id":2151,"common_name":"yellow twig dogwood","scientific_name":["Cornus sericea 'Flaviramea'"],"other_name":null,"cycle":"Perennial","watering":"Frequent","sunlight":["Full sun"," Part sun/part shade"],"default_image":{"image_id":9,"license":5,"license_name":"Attribution-ShareAlike License","license_url":"https://creativecommons.org/licenses/by-sa/2.0/","original_url":"https://perenual.com/storage/species_image/2_abies_alba_pyramidalis/og/49255769768_df55596553_b.jpg","regular_url":"https://perenual.com/storage/species_image/2_abies_alba_pyramidalis/regular/49255769768_df55596553_b.jpg","medium_url":"https://perenual.com/storage/species_image/2_abies_alba_pyramidalis/medium/49255769768_df55596553_b.jpg","small_url":"https://perenual.com/storage/species_image/2_abies_alba_pyramidalis/small/49255769768_df55596553_b.jpg","thumbnail":"https://perenual.com/storage/species_image/2_abies_alba_pyramidalis/thumbnail/49255769768_df55596553_b.jpg"}},{"id":2152,"common_name":"red twig dogwood","scientific_name":["Cornus sericea 'Hedgerows Gold'"],"other_name":null,"cycle":"Perennial","watering":"Frequent","sunlight":["Full sun","part shade"],"default_image":{"image_id":5099,"license":5,"license_name":"Attribution-ShareAlike License","license_url":"https://creativecommons.org/licenses/by-sa/2.0/","original_url":"https://perenual.com/storage/species_image/2152_cornus_sericea_hedgerows_gold/og/6241408437_3ba2dee041_b.jpg","regular_url":"https://perenual.com/storage/species_image/2152_cornus_sericea_hedgerows_gold/regular/6241408437_3ba2dee041_b.jpg","medium_url":"https://perenual.com/storage/species_image/2152_cornus_sericea_hedgerows_gold/medium/6241408437_3ba2dee041_b.jpg","small_url":"https://perenual.com/storage/species_image/2152_cornus_sericea_hedgerows_gold/small/6241408437_3ba2dee041_b.jpg","thumbnail":"https://perenual.com/storage/species_image/2152_cornus_sericea_hedgerows_gold/thumbnail/6241408437_3ba2dee041_b.jpg"}},{"id":2153,"common_name":"red twig dogwood","scientific_name":["Cornus sericea 'KLM RR' ERIKA THE BLONDE"],"other_name":null,"cycle":"Perennial","watering":"Frequent","sunlight":["Full sun","part shade"],"default_image":{"image_id":9,"license":5,"license_name":"Attribution-ShareAlike License","license_url":"https://creativecommons.org/licenses/by-sa/2.0/","original_url":"https://perenual.com/storage/species_image/2_abies_alba_pyramidalis/og/49255769768_df55596553_b.jpg","regular_url":"https://perenual.com/storage/species_image/2_abies_alba_pyramidalis/regular/49255769768_df55596553_b.jpg","medium_url":"https://perenual.com/storage/species_image/2_abies_alba_pyramidalis/medium/49255769768_df55596553_b.jpg","small_url":"https://perenual.com/storage/species_image/2_abies_alba_pyramidalis/small/49255769768_df55596553_b.jpg","thumbnail":"https://perenual.com/storage/species_image/2_abies_alba_pyramidalis/thumbnail/49255769768_df55596553_b.jpg"}},{"id":2154,"common_name":"red twig dogwood","scientific_name":["Cornus sericea 'Neil Z' PUCKER UP"],"other_name":null,"cycle":"Perennial","watering":"Frequent","sunlight":["Full sun","part shade"],"default_image":{"image_id":5089,"license":4,"license_name":"Attribution License","license_url":"https://creativecommons.org/licenses/by/2.0/","original_url":"https://perenual.com/storage/species_image/2145_cornus_sanguinea/og/52117605101_8e6e89b485_b.jpg","regular_url":"https://perenual.com/storage/species_image/2145_cornus_sanguinea/regular/52117605101_8e6e89b485_b.jpg","medium_url":"https://perenual.com/storage/species_image/2145_cornus_sanguinea/medium/52117605101_8e6e89b485_b.jpg","small_url":"https://perenual.com/storage/species_image/2145_cornus_sanguinea/small/52117605101_8e6e89b485_b.jpg","thumbnail":"https://perenual.com/storage/species_image/2145_cornus_sanguinea/thumbnail/52117605101_8e6e89b485_b.jpg"}},{"id":2155,"common_name":"dogwood","scientific_name":["Cornus wilsoniana"],"other_name":null,"cycle":"Perennial","watering":"Average","sunlight":["Full sun","part shade"],"default_image":{"image_id":5102,"license":4,"license_name":"Attribution License","license_url":"https://creativecommons.org/licenses/by/2.0/","original_url":"https://perenual.com/storage/species_image/2155_cornus_wilsoniana/og/52313102500_aeac115942_b.jpg","regular_url":"https://perenual.com/storage/species_image/2155_cornus_wilsoniana/regular/52313102500_aeac115942_b.jpg","medium_url":"https://perenual.com/storage/species_image/2155_cornus_wilsoniana/medium/52313102500_aeac115942_b.jpg","small_url":"https://perenual.com/storage/species_image/2155_cornus_wilsoniana/small/52313102500_aeac115942_b.jpg","thumbnail":"https://perenual.com/storage/species_image/2155_cornus_wilsoniana/thumbnail/52313102500_aeac115942_b.jpg"}},{"id":2156,"common_name":"corydalis","scientific_name":["Corydalis 'Berry Exciting'"],"other_name":null,"cycle":"Perennial","watering":"Average","sunlight":["Part shade","full shade"],"default_image":{"image_id":9,"license":5,"license_name":"Attribution-ShareAlike License","license_url":"https://creativecommons.org/licenses/by-sa/2.0/","original_url":"https://perenual.com/storage/species_image/2_abies_alba_pyramidalis/og/49255769768_df55596553_b.jpg","regular_url":"https://perenual.com/storage/species_image/2_abies_alba_pyramidalis/regular/49255769768_df55596553_b.jpg","medium_url":"https://perenual.com/storage/species_image/2_abies_alba_pyramidalis/medium/49255769768_df55596553_b.jpg","small_url":"https://perenual.com/storage/species_image/2_abies_alba_pyramidalis/small/49255769768_df55596553_b.jpg","thumbnail":"https://perenual.com/storage/species_image/2_abies_alba_pyramidalis/thumbnail/49255769768_df55596553_b.jpg"}},{"id":2157,"common_name":"corydalis","scientific_name":["Corydalis 'Blackberry Wine'"],"other_name":null,"cycle":"Perennial","watering":"Average","sunlight":["Part shade","full shade"],"default_image":{"image_id":5105,"license":5,"license_name":"Attribution-ShareAlike License","license_url":"https://creativecommons.org/licenses/by-sa/2.0/","original_url":"https://perenual.com/storage/species_image/2157_corydalis_blackberry_wine/og/49937177438_d0f96d7b89_b.jpg","regular_url":"https://perenual.com/storage/species_image/2157_corydalis_blackberry_wine/regular/49937177438_d0f96d7b89_b.jpg","medium_url":"https://perenual.com/storage/species_image/2157_corydalis_blackberry_wine/medium/49937177438_d0f96d7b89_b.jpg","small_url":"https://perenual.com/storage/species_image/2157_corydalis_blackberry_wine/small/49937177438_d0f96d7b89_b.jpg","thumbnail":"https://perenual.com/storage/species_image/2157_corydalis_blackberry_wine/thumbnail/49937177438_d0f96d7b89_b.jpg"}},{"id":2158,"common_name":"corydalis","scientific_name":["Corydalis 'Canary Feathers'"],"other_name":null,"cycle":"Perennial","watering":"Average","sunlight":["Part shade","full shade"],"default_image":{"image_id":9,"license":5,"license_name":"Attribution-ShareAlike License","license_url":"https://creativecommons.org/licenses/by-sa/2.0/","original_url":"https://perenual.com/storage/species_image/2_abies_alba_pyramidalis/og/49255769768_df55596553_b.jpg","regular_url":"https://perenual.com/storage/species_image/2_abies_alba_pyramidalis/regular/49255769768_df55596553_b.jpg","medium_url":"https://perenual.com/storage/species_image/2_abies_alba_pyramidalis/medium/49255769768_df55596553_b.jpg","small_url":"https://perenual.com/storage/species_image/2_abies_alba_pyramidalis/small/49255769768_df55596553_b.jpg","thumbnail":"https://perenual.com/storage/species_image/2_abies_alba_pyramidalis/thumbnail/49255769768_df55596553_b.jpg"}},{"id":2159,"common_name":"corydalis","scientific_name":["Corydalis flexuosa"],"other_name":null,"cycle":"Perennial","watering":"Average","sunlight":["Part shade"],"default_image":{"image_id":5106,"license":5,"license_name":"Attribution-ShareAlike License","license_url":"https://creativecommons.org/licenses/by-sa/2.0/","original_url":"https://perenual.com/storage/species_image/2159_corydalis_flexuosa/og/7995142642_9da1f4876b_b.jpg","regular_url":"https://perenual.com/storage/species_image/2159_corydalis_flexuosa/regular/7995142642_9da1f4876b_b.jpg","medium_url":"https://perenual.com/storage/species_image/2159_corydalis_flexuosa/medium/7995142642_9da1f4876b_b.jpg","small_url":"https://perenual.com/storage/species_image/2159_corydalis_flexuosa/small/7995142642_9da1f4876b_b.jpg","thumbnail":"https://perenual.com/storage/species_image/2159_corydalis_flexuosa/thumbnail/7995142642_9da1f4876b_b.jpg"}},{"id":2160,"common_name":"corydalis","scientific_name":["Corydalis lutea"],"other_name":null,"cycle":"Perennial","watering":"Average","sunlight":["Part shade","full shade"],"default_image":{"image_id":5114,"license":5,"license_name":"Attribution-ShareAlike License","license_url":"https://creativecommons.org/licenses/by-sa/2.0/","original_url":"https://perenual.com/storage/species_image/8716_pseudofumaria_lutea/og/35728971423_a51c663cb3_b.jpg","regular_url":"https://perenual.com/storage/species_image/8716_pseudofumaria_lutea/regular/35728971423_a51c663cb3_b.jpg","medium_url":"https://perenual.com/storage/species_image/8716_pseudofumaria_lutea/medium/35728971423_a51c663cb3_b.jpg","small_url":"https://perenual.com/storage/species_image/8716_pseudofumaria_lutea/small/35728971423_a51c663cb3_b.jpg","thumbnail":"https://perenual.com/storage/species_image/8716_pseudofumaria_lutea/thumbnail/35728971423_a51c663cb3_b.jpg"}}],"to":2160,"per_page":30,"current_page":72,"from":2131,"last_page":200,"total":6000}