{"data":[{"id":5941,"common_name":"Canary Island date palm","scientific_name":["Phoenix canariensis"],"other_name":null,"cycle":"Perennial","watering":"Average","sunlight":["Full sun"],"default_image":{"image_id":9,"license":5,"license_name":"Attribution-ShareAlike License","license_url":"https://creativecommons.org/licenses/by-sa/2.0/","original_url":"https://perenual.com/storage/species_image/2_abies_alba_pyramidalis/og/49255769768_df55596553_b.jpg","regular_url":"https://perenual.com/storage/species_image/2_abies_alba_pyramidalis/regular/49255769768_df55596553_b.jpg","medium_url":"https://perenual.com/storage/species_image/2_abies_alba_pyramidalis/medium/49255769768_df55596553_b.jpg","small_url":"https://perenual.com/storage/species_image/2_abies_alba_pyramidalis/small/49255769768_df55596553_b.jpg","thumbnail":"https://perenual.com/storage/species_image/2_abies_alba_pyramidalis/thumbnail/49255769768_df55596553_b.jpg"}},{"id":5942,"common_name":"New Zealand flax","scientific_name":["Phormium 'Jester'"],"other_name":null,"cycle":"Perennial","watering":"Average","sunlight":["Full sun","part shade"],"default_image":{"image_id":11814,"license":4,"license_name":"Attribution License","license_url":"https://creativecommons.org/licenses/by/2.0/","original_url":"https://perenual.com/storage/species_image/5942_phormium_jester/og/28529732658_9b853129a1_b.jpg","regular_url":"https://perenual.com/storage/species_image/5942_phormium_jester/regular/28529732658_9b853129a1_b.jpg","medium_url":"https://perenual.com/storage/species_image/5942_phormium_jester/medium/28529732658_9b853129a1_b.jpg","small_url":"https://perenual.com/storage/species_image/5942_phormium_jester/small/28529732658_9b853129a1_b.jpg","thumbnail":"https://perenual.com/storage/species_image/5942_phormium_jester/thumbnail/28529732658_9b853129a1_b.jpg"}},{"id":5943,"common_name":"New Zealand flax","scientific_name":["Phormium tenax"],"other_name":null,"cycle":"Perennial","watering":"Average","sunlight":["Full sun","part shade"],"default_image":{"image_id":9,"license":5,"license_name":"Attribution-ShareAlike License","license_url":"https://creativecommons.org/licenses/by-sa/2.0/","original_url":"https://perenual.com/storage/species_image/2_abies_alba_pyramidalis/og/49255769768_df55596553_b.jpg","regular_url":"https://perenual.com/storage/species_image/2_abies_alba_pyramidalis/regular/49255769768_df55596553_b.jpg","medium_url":"https://perenual.com/storage/species_image/2_abies_alba_pyramidalis/medium/49255769768_df55596553_b.jpg","small_url":"https://perenual.com/storage/species_image/2_abies_alba_pyramidalis/small/49255769768_df55596553_b.jpg","thumbnail":"https://perenual.com/storage/species_image/2_abies_alba_pyramidalis/thumbnail/49255769768_df55596553_b.jpg"}},{"id":5944,"common_name":"Christmas berry","scientific_name":["Photinia beauverdiana"],"other_name":null,"cycle":"Perennial","watering":"Average","sunlight":["Full sun","part shade"],"default_image":{"image_id":11817,"license":4,"license_name":"Attribution License","license_url":"https://creativecommons.org/licenses/by/2.0/","original_url":"https://perenual.com/storage/species_image/5944_photinia_beauverdiana/og/10215146635_bb15bfe908_b.jpg","regular_url":"https://perenual.com/storage/species_image/5944_photinia_beauverdiana/regular/10215146635_bb15bfe908_b.jpg","medium_url":"https://perenual.com/storage/species_image/5944_photinia_beauverdiana/medium/10215146635_bb15bfe908_b.jpg","small_url":"https://perenual.com/storage/species_image/5944_photinia_beauverdiana/small/10215146635_bb15bfe908_b.jpg","thumbnail":"https://perenual.com/storage/species_image/5944_photinia_beauverdiana/thumbnail/10215146635_bb15bfe908_b.jpg"}},{"id":5945,"common_name":"Fraser photinia","scientific_name":["Photinia fraseri"],"other_name":null,"cycle":"Perennial","watering":"Average","sunlight":["Full sun","part shade"],"default_image":{"image_id":9,"license":5,"license_name":"Attribution-ShareAlike License","license_url":"https://creativecommons.org/licenses/by-sa/2.0/","original_url":"https://perenual.com/storage/species_image/2_abies_alba_pyramidalis/og/49255769768_df55596553_b.jpg","regular_url":"https://perenual.com/storage/species_image/2_abies_alba_pyramidalis/regular/49255769768_df55596553_b.jpg","medium_url":"https://perenual.com/storage/species_image/2_abies_alba_pyramidalis/medium/49255769768_df55596553_b.jpg","small_url":"https://perenual.com/storage/species_image/2_abies_alba_pyramidalis/small/49255769768_df55596553_b.jpg","thumbnail":"https://perenual.com/storage/species_image/2_abies_alba_pyramidalis/thumbnail/49255769768_df55596553_b.jpg"}},{"id":5946,"common_name":"Fraser photinia","scientific_name":["Photinia fraseri 'Red Robin'"],"other_name":null,"cycle":"Perennial","watering":"Average","sunlight":["Full sun","part shade"],"default_image":{"image_id":9,"license":5,"license_name":"Attribution-ShareAlike License","license_url":"https://creativecommons.org/licenses/by-sa/2.0/","original_url":"https://perenual.com/storage/species_image/2_abies_alba_pyramidalis/og/49255769768_df55596553_b.jpg","regular_url":"https://perenual.com/storage/species_image/2_abies_alba_pyramidalis/regular/49255769768_df55596553_b.jpg","medium_url":"https://perenual.com/storage/species_image/2_abies_alba_pyramidalis/medium/49255769768_df55596553_b.jpg","small_url":"https://perenual.com/storage/species_image/2_abies_alba_pyramidalis/small/49255769768_df55596553_b.jpg","thumbnail":"https://perenual.com/storage/species_image/2_abies_alba_pyramidalis/thumbnail/49255769768_df55596553_b.jpg"}},{"id":5947,"common_name":"Christmas berry","scientific_name":["Photinia 'Parsur' RED FURY"],"other_name":null,"cycle":"Perennial","watering":"Average","sunlight":["Full sun","part shade"],"default_image":{"image_id":11823,"license":6,"license_name":"Attribution-NoDerivs License","license_url":"https://creativecommons.org/licenses/by-nd/2.0/","original_url":"https://perenual.com/storage/species_image/5947_photinia_parsur_red_fury/og/49377203527_43700482db_b.jpg"}},{"id":5948,"common_name":"Chinese hawthorn","scientific_name":["Photinia serratifolia"],"other_name":null,"cycle":"Perennial","watering":"Average","sunlight":["Full sun","part shade"],"default_image":{"image_id":9,"license":5,"license_name":"Attribution-ShareAlike License","license_url":"https://creativecommons.org/licenses/by-sa/2.0/","original_url":"https://perenual.com/storage/species_image/2_abies_alba_pyramidalis/og/49255769768_df55596553_b.jpg","regular_url":"https://perenual.com/storage/species_image/2_abies_alba_pyramidalis/regular/49255769768_df55596553_b.jpg","medium_url":"https://perenual.com/storage/species_image/2_abies_alba_pyramidalis/medium/49255769768_df55596553_b.jpg","small_url":"https://perenual.com/storage/species_image/2_abies_alba_pyramidalis/small/49255769768_df55596553_b.jpg","thumbnail":"https://perenual.com/storage/species_image/2_abies_alba_pyramidalis/thumbnail/49255769768_df55596553_b.jpg"}},{"id":5949,"common_name":"Christmas berry","scientific_name":["Photinia villosa"],"other_name":null,"cycle":"Perennial","watering":"Average","sunlight":["Full sun","part shade"],"default_image":{"image_id":11826,"license":5,"license_name":"Attribution-ShareAlike License","license_url":"https://creativecommons.org/licenses/by-sa/2.0/","original_url":"https://perenual.com/storage/species_image/5949_photinia_villosa/og/7180769536_defd749fc1_b.jpg","regular_url":"https://perenual.com/storage/species_image/5949_photinia_villosa/regular/7180769536_defd749fc1_b.jpg","medium_url":"https://perenual.com/storage/species_image/5949_photinia_villosa/medium/7180769536_defd749fc1_b.jpg","small_url":"https://perenual.com/storage/species_image/5949_photinia_villosa/small/7180769536_defd749fc1_b.jpg","thumbnail":"https://perenual.com/storage/species_image/5949_photinia_villosa/thumbnail/7180769536_defd749fc1_b.jpg"}},{"id":5950,"common_name":"orchid","scientific_name":["Phragmipedium (group)"],"other_name":null,"cycle":"Perennial","watering":"Average","sunlight":["Part shade"],"default_image":{"image_id":9,"license":5,"license_name":"Attribution-ShareAlike License","license_url":"https://creativecommons.org/licenses/by-sa/2.0/","original_url":"https://perenual.com/storage/species_image/2_abies_alba_pyramidalis/og/49255769768_df55596553_b.jpg","regular_url":"https://perenual.com/storage/species_image/2_abies_alba_pyramidalis/regular/49255769768_df55596553_b.jpg","medium_url":"https://perenual.com/storage/species_image/2_abies_alba_pyramidalis/medium/49255769768_df55596553_b.jpg","small_url":"https://perenual.com/storage/species_image/2_abies_alba_pyramidalis/small/49255769768_df55596553_b.jpg","thumbnail":"https://perenual.com/storage/species_image/2_abies_alba_pyramidalis/thumbnail/49255769768_df55596553_b.jpg"}},{"id":5951,"common_name":"large-styled crosswort","scientific_name":["Phuopsis stylosa"],"other_name":null,"cycle":"Perennial","watering":"Minimum","sunlight":["Full sun","part shade"],"default_image":{"image_id":11829,"license":4,"license_name":"Attribution License","license_url":"https://creativecommons.org/licenses/by/2.0/","original_url":"https://perenual.com/storage/species_image/5951_phuopsis_stylosa/og/50074399272_8a9d0fb75e_b.jpg","regular_url":"https://perenual.com/storage/species_image/5951_phuopsis_stylosa/regular/50074399272_8a9d0fb75e_b.jpg","medium_url":"https://perenual.com/storage/species_image/5951_phuopsis_stylosa/medium/50074399272_8a9d0fb75e_b.jpg","small_url":"https://perenual.com/storage/species_image/5951_phuopsis_stylosa/small/50074399272_8a9d0fb75e_b.jpg","thumbnail":"https://perenual.com/storage/species_image/5951_phuopsis_stylosa/thumbnail/50074399272_8a9d0fb75e_b.jpg"}},{"id":5952,"common_name":"Caucasian Crosswort","scientific_name":["Phuopsis stylosa 'Purpurea'"],"other_name":null,"cycle":"Perennial","watering":"Minimum","sunlight":["Full sun","part shade"],"default_image":{"image_id":11830,"license":5,"license_name":"Attribution-ShareAlike License","license_url":"https://creativecommons.org/licenses/by-sa/2.0/","original_url":"https://perenual.com/storage/species_image/5952_phuopsis_stylosa_purpurea/og/36871613642_b2ec7c3bd6_b.jpg","regular_url":"https://perenual.com/storage/species_image/5952_phuopsis_stylosa_purpurea/regular/36871613642_b2ec7c3bd6_b.jpg","medium_url":"https://perenual.com/storage/species_image/5952_phuopsis_stylosa_purpurea/medium/36871613642_b2ec7c3bd6_b.jpg","small_url":"https://perenual.com/storage/species_image/5952_phuopsis_stylosa_purpurea/small/36871613642_b2ec7c3bd6_b.jpg","thumbnail":"https://perenual.com/storage/species_image/5952_phuopsis_stylosa_purpurea/thumbnail/36871613642_b2ec7c3bd6_b.jpg"}},{"id":5953,"common_name":"phygelius","scientific_name":["Phygelius aequalis"],"other_name":null,"cycle":"Perennial","watering":"Average","sunlight":["Full sun","part shade"],"default_image":{"image_id":9,"license":5,"license_name":"Attribution-ShareAlike License","license_url":"https://creativecommons.org/licenses/by-sa/2.0/","original_url":"https://perenual.com/storage/species_image/2_abies_alba_pyramidalis/og/49255769768_df55596553_b.jpg","regular_url":"https://perenual.com/storage/species_image/2_abies_alba_pyramidalis/regular/49255769768_df55596553_b.jpg","medium_url":"https://perenual.com/storage/species_image/2_abies_alba_pyramidalis/medium/49255769768_df55596553_b.jpg","small_url":"https://perenual.com/storage/species_image/2_abies_alba_pyramidalis/small/49255769768_df55596553_b.jpg","thumbnail":"https://perenual.com/storage/species_image/2_abies_alba_pyramidalis/thumbnail/49255769768_df55596553_b.jpg"}},{"id":5954,"common_name":"Cape fuchsia","scientific_name":["Phygelius aequalis 'Crocorpri' CROFTWAY CORAL PRINCESS"],"other_name":null,"cycle":"Perennial","watering":"Average","sunlight":["Full sun","part shade"],"default_image":{"image_id":11833,"license":4,"license_name":"Attribution License","license_url":"https://creativecommons.org/licenses/by/2.0/","original_url":"https://perenual.com/storage/species_image/5954_phygelius_aequalis_crocorpri_croftway_coral_princess/og/9170602251_72c0be6d9f_b.jpg","regular_url":"https://perenual.com/storage/species_image/5954_phygelius_aequalis_crocorpri_croftway_coral_princess/regular/9170602251_72c0be6d9f_b.jpg","medium_url":"https://perenual.com/storage/species_image/5954_phygelius_aequalis_crocorpri_croftway_coral_princess/medium/9170602251_72c0be6d9f_b.jpg","small_url":"https://perenual.com/storage/species_image/5954_phygelius_aequalis_crocorpri_croftway_coral_princess/small/9170602251_72c0be6d9f_b.jpg","thumbnail":"https://perenual.com/storage/species_image/5954_phygelius_aequalis_crocorpri_croftway_coral_princess/thumbnail/9170602251_72c0be6d9f_b.jpg"}},{"id":5955,"common_name":"Cape fuchsia","scientific_name":["Phygelius aequalis 'Cropurpri' CROFTWAY PURPLE PRINCE"],"other_name":null,"cycle":"Perennial","watering":"Average","sunlight":["Full sun","part shade"],"default_image":{"image_id":9,"license":5,"license_name":"Attribution-ShareAlike License","license_url":"https://creativecommons.org/licenses/by-sa/2.0/","original_url":"https://perenual.com/storage/species_image/2_abies_alba_pyramidalis/og/49255769768_df55596553_b.jpg","regular_url":"https://perenual.com/storage/species_image/2_abies_alba_pyramidalis/regular/49255769768_df55596553_b.jpg","medium_url":"https://perenual.com/storage/species_image/2_abies_alba_pyramidalis/medium/49255769768_df55596553_b.jpg","small_url":"https://perenual.com/storage/species_image/2_abies_alba_pyramidalis/small/49255769768_df55596553_b.jpg","thumbnail":"https://perenual.com/storage/species_image/2_abies_alba_pyramidalis/thumbnail/49255769768_df55596553_b.jpg"}},{"id":5956,"common_name":"Cape fuchsia","scientific_name":["Phygelius aequalis 'Crosnoque' CROFTWAY SNOW QUEEN"],"other_name":null,"cycle":"Perennial","watering":"Average","sunlight":["Full sun","part shade"],"default_image":{"image_id":11836,"license":4,"license_name":"Attribution License","license_url":"https://creativecommons.org/licenses/by/2.0/","original_url":"https://perenual.com/storage/species_image/5956_phygelius_aequalis_crosnoque_croftway_snow_queen/og/7739705898_e55e5f2987_b.jpg","regular_url":"https://perenual.com/storage/species_image/5956_phygelius_aequalis_crosnoque_croftway_snow_queen/regular/7739705898_e55e5f2987_b.jpg","medium_url":"https://perenual.com/storage/species_image/5956_phygelius_aequalis_crosnoque_croftway_snow_queen/medium/7739705898_e55e5f2987_b.jpg","small_url":"https://perenual.com/storage/species_image/5956_phygelius_aequalis_crosnoque_croftway_snow_queen/small/7739705898_e55e5f2987_b.jpg","thumbnail":"https://perenual.com/storage/species_image/5956_phygelius_aequalis_crosnoque_croftway_snow_queen/thumbnail/7739705898_e55e5f2987_b.jpg"}},{"id":5957,"common_name":"Cape fuchsia","scientific_name":["Phygelius 'Blacher' CHERRY RIPE"],"other_name":null,"cycle":"Perennial","watering":"Average","sunlight":["Full sun","part shade"],"default_image":{"image_id":9,"license":5,"license_name":"Attribution-ShareAlike License","license_url":"https://creativecommons.org/licenses/by-sa/2.0/","original_url":"https://perenual.com/storage/species_image/2_abies_alba_pyramidalis/og/49255769768_df55596553_b.jpg","regular_url":"https://perenual.com/storage/species_image/2_abies_alba_pyramidalis/regular/49255769768_df55596553_b.jpg","medium_url":"https://perenual.com/storage/species_image/2_abies_alba_pyramidalis/medium/49255769768_df55596553_b.jpg","small_url":"https://perenual.com/storage/species_image/2_abies_alba_pyramidalis/small/49255769768_df55596553_b.jpg","thumbnail":"https://perenual.com/storage/species_image/2_abies_alba_pyramidalis/thumbnail/49255769768_df55596553_b.jpg"}},{"id":5958,"common_name":"Cape fuchsia","scientific_name":["Phygelius 'Blaphy' NEW SENSATION"],"other_name":null,"cycle":"Perennial","watering":"Average","sunlight":["Full sun"],"default_image":{"image_id":9,"license":5,"license_name":"Attribution-ShareAlike License","license_url":"https://creativecommons.org/licenses/by-sa/2.0/","original_url":"https://perenual.com/storage/species_image/2_abies_alba_pyramidalis/og/49255769768_df55596553_b.jpg","regular_url":"https://perenual.com/storage/species_image/2_abies_alba_pyramidalis/regular/49255769768_df55596553_b.jpg","medium_url":"https://perenual.com/storage/species_image/2_abies_alba_pyramidalis/medium/49255769768_df55596553_b.jpg","small_url":"https://perenual.com/storage/species_image/2_abies_alba_pyramidalis/small/49255769768_df55596553_b.jpg","thumbnail":"https://perenual.com/storage/species_image/2_abies_alba_pyramidalis/thumbnail/49255769768_df55596553_b.jpg"}},{"id":5959,"common_name":"Cape fuchsia","scientific_name":["Phygelius 'Lemon Spritzer'"],"other_name":null,"cycle":"Perennial","watering":"Average","sunlight":["Full sun","part shade"],"default_image":{"image_id":9,"license":5,"license_name":"Attribution-ShareAlike License","license_url":"https://creativecommons.org/licenses/by-sa/2.0/","original_url":"https://perenual.com/storage/species_image/2_abies_alba_pyramidalis/og/49255769768_df55596553_b.jpg","regular_url":"https://perenual.com/storage/species_image/2_abies_alba_pyramidalis/regular/49255769768_df55596553_b.jpg","medium_url":"https://perenual.com/storage/species_image/2_abies_alba_pyramidalis/medium/49255769768_df55596553_b.jpg","small_url":"https://perenual.com/storage/species_image/2_abies_alba_pyramidalis/small/49255769768_df55596553_b.jpg","thumbnail":"https://perenual.com/storage/species_image/2_abies_alba_pyramidalis/thumbnail/49255769768_df55596553_b.jpg"}},{"id":5960,"common_name":"Tahitian gooseberry tree","scientific_name":["Phyllanthus acidus"],"other_name":null,"cycle":"Perennial","watering":"Average","sunlight":["Full sun"],"default_image":{"image_id":11840,"license":6,"license_name":"Attribution-NoDerivs License","license_url":"https://creativecommons.org/licenses/by-nd/2.0/","original_url":"https://perenual.com/storage/species_image/5960_phyllanthus_acidus/og/6981998437_948fbe0929_b.jpg"}},{"id":5961,"common_name":"floating spurge","scientific_name":["Phyllanthus fluitans"],"other_name":null,"cycle":"Perennial","watering":"Frequent","sunlight":["Full sun"],"default_image":{"image_id":9,"license":5,"license_name":"Attribution-ShareAlike License","license_url":"https://creativecommons.org/licenses/by-sa/2.0/","original_url":"https://perenual.com/storage/species_image/2_abies_alba_pyramidalis/og/49255769768_df55596553_b.jpg","regular_url":"https://perenual.com/storage/species_image/2_abies_alba_pyramidalis/regular/49255769768_df55596553_b.jpg","medium_url":"https://perenual.com/storage/species_image/2_abies_alba_pyramidalis/medium/49255769768_df55596553_b.jpg","small_url":"https://perenual.com/storage/species_image/2_abies_alba_pyramidalis/small/49255769768_df55596553_b.jpg","thumbnail":"https://perenual.com/storage/species_image/2_abies_alba_pyramidalis/thumbnail/49255769768_df55596553_b.jpg"}},{"id":5962,"common_name":"yellow groove bamboo","scientific_name":["Phyllostachys aureosulcata"],"other_name":null,"cycle":"Perennial","watering":"Average","sunlight":["Full sun"],"default_image":{"image_id":11848,"license":5,"license_name":"Attribution-ShareAlike License","license_url":"https://creativecommons.org/licenses/by-sa/2.0/","original_url":"https://perenual.com/storage/species_image/5962_phyllostachys_aureosulcata/og/33684722233_810853b68c_b.jpg","regular_url":"https://perenual.com/storage/species_image/5962_phyllostachys_aureosulcata/regular/33684722233_810853b68c_b.jpg","medium_url":"https://perenual.com/storage/species_image/5962_phyllostachys_aureosulcata/medium/33684722233_810853b68c_b.jpg","small_url":"https://perenual.com/storage/species_image/5962_phyllostachys_aureosulcata/small/33684722233_810853b68c_b.jpg","thumbnail":"https://perenual.com/storage/species_image/5962_phyllostachys_aureosulcata/thumbnail/33684722233_810853b68c_b.jpg"}},{"id":5963,"common_name":"moso bamboo","scientific_name":["Phyllostachys edulis"],"other_name":null,"cycle":"Perennial","watering":"Average","sunlight":["Full sun","part shade"],"default_image":{"image_id":9,"license":5,"license_name":"Attribution-ShareAlike License","license_url":"https://creativecommons.org/licenses/by-sa/2.0/","original_url":"https://perenual.com/storage/species_image/2_abies_alba_pyramidalis/og/49255769768_df55596553_b.jpg","regular_url":"https://perenual.com/storage/species_image/2_abies_alba_pyramidalis/regular/49255769768_df55596553_b.jpg","medium_url":"https://perenual.com/storage/species_image/2_abies_alba_pyramidalis/medium/49255769768_df55596553_b.jpg","small_url":"https://perenual.com/storage/species_image/2_abies_alba_pyramidalis/small/49255769768_df55596553_b.jpg","thumbnail":"https://perenual.com/storage/species_image/2_abies_alba_pyramidalis/thumbnail/49255769768_df55596553_b.jpg"}},{"id":5964,"common_name":"kangaroo fern","scientific_name":["Phymatosorus diversifolius"],"other_name":null,"cycle":"Perennial","watering":"Average","sunlight":["Part shade","full shade"],"default_image":{"image_id":11850,"license":4,"license_name":"Attribution License","license_url":"https://creativecommons.org/licenses/by/2.0/","original_url":"https://perenual.com/storage/species_image/5964_phymatosorus_diversifolius/og/17001402485_c4efd65bd5_b.jpg","regular_url":"https://perenual.com/storage/species_image/5964_phymatosorus_diversifolius/regular/17001402485_c4efd65bd5_b.jpg","medium_url":"https://perenual.com/storage/species_image/5964_phymatosorus_diversifolius/medium/17001402485_c4efd65bd5_b.jpg","small_url":"https://perenual.com/storage/species_image/5964_phymatosorus_diversifolius/small/17001402485_c4efd65bd5_b.jpg","thumbnail":"https://perenual.com/storage/species_image/5964_phymatosorus_diversifolius/thumbnail/17001402485_c4efd65bd5_b.jpg"}},{"id":5965,"common_name":"wart fern","scientific_name":["Phymatosorus scolopendria"],"other_name":null,"cycle":"Perennial","watering":"Average","sunlight":["Full sun","part shade"],"default_image":{"image_id":11851,"license":4,"license_name":"Attribution License","license_url":"https://creativecommons.org/licenses/by/2.0/","original_url":"https://perenual.com/storage/species_image/5965_phymatosorus_scolopendria/og/24563618693_ac2e761f4e_b.jpg","regular_url":"https://perenual.com/storage/species_image/5965_phymatosorus_scolopendria/regular/24563618693_ac2e761f4e_b.jpg","medium_url":"https://perenual.com/storage/species_image/5965_phymatosorus_scolopendria/medium/24563618693_ac2e761f4e_b.jpg","small_url":"https://perenual.com/storage/species_image/5965_phymatosorus_scolopendria/small/24563618693_ac2e761f4e_b.jpg","thumbnail":"https://perenual.com/storage/species_image/5965_phymatosorus_scolopendria/thumbnail/24563618693_ac2e761f4e_b.jpg"}},{"id":5966,"common_name":"Chinese lantern","scientific_name":["Physalis alkekengi"],"other_name":null,"cycle":"Perennial","watering":"Average","sunlight":["Full sun"],"default_image":{"image_id":11857,"license":4,"license_name":"Attribution License","license_url":"https://creativecommons.org/licenses/by/2.0/","original_url":"https://perenual.com/storage/species_image/5966_physalis_alkekengi/og/50953283668_012dfba0f0_b.jpg","regular_url":"https://perenual.com/storage/species_image/5966_physalis_alkekengi/regular/50953283668_012dfba0f0_b.jpg","medium_url":"https://perenual.com/storage/species_image/5966_physalis_alkekengi/medium/50953283668_012dfba0f0_b.jpg","small_url":"https://perenual.com/storage/species_image/5966_physalis_alkekengi/small/50953283668_012dfba0f0_b.jpg","thumbnail":"https://perenual.com/storage/species_image/5966_physalis_alkekengi/thumbnail/50953283668_012dfba0f0_b.jpg"}},{"id":5967,"common_name":"tomatillo","scientific_name":["Physalis ixocarpa"],"other_name":null,"cycle":"Perennial","watering":"Average","sunlight":["Full sun"],"default_image":{"image_id":11859,"license":4,"license_name":"Attribution License","license_url":"https://creativecommons.org/licenses/by/2.0/","original_url":"https://perenual.com/storage/species_image/5967_physalis_ixocarpa/og/48937942736_20df4b7b36_b.jpg","regular_url":"https://perenual.com/storage/species_image/5967_physalis_ixocarpa/regular/48937942736_20df4b7b36_b.jpg","medium_url":"https://perenual.com/storage/species_image/5967_physalis_ixocarpa/medium/48937942736_20df4b7b36_b.jpg","small_url":"https://perenual.com/storage/species_image/5967_physalis_ixocarpa/small/48937942736_20df4b7b36_b.jpg","thumbnail":"https://perenual.com/storage/species_image/5967_physalis_ixocarpa/thumbnail/48937942736_20df4b7b36_b.jpg"}},{"id":5968,"common_name":"tomatillo","scientific_name":["Physalis ixocarpa 'Grande Rio Verde'"],"other_name":null,"cycle":"Perennial","watering":"Average","sunlight":["Full sun"],"default_image":{"image_id":9,"license":5,"license_name":"Attribution-ShareAlike License","license_url":"https://creativecommons.org/licenses/by-sa/2.0/","original_url":"https://perenual.com/storage/species_image/2_abies_alba_pyramidalis/og/49255769768_df55596553_b.jpg","regular_url":"https://perenual.com/storage/species_image/2_abies_alba_pyramidalis/regular/49255769768_df55596553_b.jpg","medium_url":"https://perenual.com/storage/species_image/2_abies_alba_pyramidalis/medium/49255769768_df55596553_b.jpg","small_url":"https://perenual.com/storage/species_image/2_abies_alba_pyramidalis/small/49255769768_df55596553_b.jpg","thumbnail":"https://perenual.com/storage/species_image/2_abies_alba_pyramidalis/thumbnail/49255769768_df55596553_b.jpg"}},{"id":5969,"common_name":"ninebark","scientific_name":["Physocarpus opulifolius"],"other_name":null,"cycle":"Perennial","watering":"Frequent","sunlight":["Full sun","part shade"],"default_image":{"image_id":11861,"license":4,"license_name":"Attribution License","license_url":"https://creativecommons.org/licenses/by/2.0/","original_url":"https://perenual.com/storage/species_image/5969_physocarpus_opulifolius/og/49918811736_417e220211_b.jpg","regular_url":"https://perenual.com/storage/species_image/5969_physocarpus_opulifolius/regular/49918811736_417e220211_b.jpg","medium_url":"https://perenual.com/storage/species_image/5969_physocarpus_opulifolius/medium/49918811736_417e220211_b.jpg","small_url":"https://perenual.com/storage/species_image/5969_physocarpus_opulifolius/small/49918811736_417e220211_b.jpg","thumbnail":"https://perenual.com/storage/species_image/5969_physocarpus_opulifolius/thumbnail/49918811736_417e220211_b.jpg"}},{"id":5970,"common_name":"ninebark","scientific_name":["Physocarpus opulifolius 'Center Glow'"],"other_name":null,"cycle":"Perennial","watering":"Minimum","sunlight":["Full sun","part shade"],"default_image":{"image_id":9,"license":5,"license_name":"Attribution-ShareAlike License","license_url":"https://creativecommons.org/licenses/by-sa/2.0/","original_url":"https://perenual.com/storage/species_image/2_abies_alba_pyramidalis/og/49255769768_df55596553_b.jpg","regular_url":"https://perenual.com/storage/species_image/2_abies_alba_pyramidalis/regular/49255769768_df55596553_b.jpg","medium_url":"https://perenual.com/storage/species_image/2_abies_alba_pyramidalis/medium/49255769768_df55596553_b.jpg","small_url":"https://perenual.com/storage/species_image/2_abies_alba_pyramidalis/small/49255769768_df55596553_b.jpg","thumbnail":"https://perenual.com/storage/species_image/2_abies_alba_pyramidalis/thumbnail/49255769768_df55596553_b.jpg"}}],"to":5970,"per_page":30,"current_page":199,"from":5941,"last_page":200,"total":6000}