{"data":[{"id":513,"common_name":"sweet flag","scientific_name":["Acorus calamus"],"other_name":["Single Vein Sweet Flag"],"cycle":"Perennial","watering":"Frequent","sunlight":["Full sun","part shade"],"default_image":{"image_id":1077,"license":5,"license_name":"Attribution-ShareAlike License","license_url":"https://creativecommons.org/licenses/by-sa/2.0/","original_url":"https://perenual.com/storage/species_image/520_acorus_gramineus_variegatus/og/5023687658_c7e24a88ca_b.jpg","regular_url":"https://perenual.com/storage/species_image/520_acorus_gramineus_variegatus/regular/5023687658_c7e24a88ca_b.jpg","medium_url":"https://perenual.com/storage/species_image/520_acorus_gramineus_variegatus/medium/5023687658_c7e24a88ca_b.jpg","small_url":"https://perenual.com/storage/species_image/520_acorus_gramineus_variegatus/small/5023687658_c7e24a88ca_b.jpg","thumbnail":"https://perenual.com/storage/species_image/520_acorus_gramineus_variegatus/thumbnail/5023687658_c7e24a88ca_b.jpg"}},{"id":514,"common_name":"sweet flag","scientific_name":["Acorus calamus 'Variegatus'"],"other_name":null,"cycle":"Perennial","watering":"Frequent","sunlight":["Full sun","part shade"],"default_image":{"image_id":1077,"license":5,"license_name":"Attribution-ShareAlike License","license_url":"https://creativecommons.org/licenses/by-sa/2.0/","original_url":"https://perenual.com/storage/species_image/520_acorus_gramineus_variegatus/og/5023687658_c7e24a88ca_b.jpg","regular_url":"https://perenual.com/storage/species_image/520_acorus_gramineus_variegatus/regular/5023687658_c7e24a88ca_b.jpg","medium_url":"https://perenual.com/storage/species_image/520_acorus_gramineus_variegatus/medium/5023687658_c7e24a88ca_b.jpg","small_url":"https://perenual.com/storage/species_image/520_acorus_gramineus_variegatus/small/5023687658_c7e24a88ca_b.jpg","thumbnail":"https://perenual.com/storage/species_image/520_acorus_gramineus_variegatus/thumbnail/5023687658_c7e24a88ca_b.jpg"}},{"id":515,"common_name":"grassy-leaved sweet flag","scientific_name":["Acorus gramineus"],"other_name":null,"cycle":"Perennial","watering":"Frequent","sunlight":["Full sun","part shade"],"default_image":{"image_id":1083,"license":4,"license_name":"Attribution License","license_url":"https://creativecommons.org/licenses/by/2.0/","original_url":"https://perenual.com/storage/species_image/520_acorus_gramineus_variegatus/og/43357997720_ae5f9d1fe6_b.jpg","regular_url":"https://perenual.com/storage/species_image/520_acorus_gramineus_variegatus/regular/43357997720_ae5f9d1fe6_b.jpg","medium_url":"https://perenual.com/storage/species_image/520_acorus_gramineus_variegatus/medium/43357997720_ae5f9d1fe6_b.jpg","small_url":"https://perenual.com/storage/species_image/520_acorus_gramineus_variegatus/small/43357997720_ae5f9d1fe6_b.jpg","thumbnail":"https://perenual.com/storage/species_image/520_acorus_gramineus_variegatus/thumbnail/43357997720_ae5f9d1fe6_b.jpg"}},{"id":516,"common_name":"grassy-leaved sweet flag","scientific_name":["Acorus gramineus 'Minimus Aureus'"],"other_name":null,"cycle":"Perennial","watering":"Frequent","sunlight":["Full sun","part shade"],"default_image":{"image_id":1084,"license":4,"license_name":"Attribution License","license_url":"https://creativecommons.org/licenses/by/2.0/","original_url":"https://perenual.com/storage/species_image/516_acorus_gramineus_minimus_aureus/og/13938856244_ed0b08dc04_b.jpg","regular_url":"https://perenual.com/storage/species_image/516_acorus_gramineus_minimus_aureus/regular/13938856244_ed0b08dc04_b.jpg","medium_url":"https://perenual.com/storage/species_image/516_acorus_gramineus_minimus_aureus/medium/13938856244_ed0b08dc04_b.jpg","small_url":"https://perenual.com/storage/species_image/516_acorus_gramineus_minimus_aureus/small/13938856244_ed0b08dc04_b.jpg","thumbnail":"https://perenual.com/storage/species_image/516_acorus_gramineus_minimus_aureus/thumbnail/13938856244_ed0b08dc04_b.jpg"}},{"id":517,"common_name":"grassy-leaved sweet flag","scientific_name":["Acorus gramineus 'Oborozuki'"],"other_name":null,"cycle":"Perennial","watering":"Frequent","sunlight":["Full sun","part shade"],"default_image":{"image_id":9,"license":5,"license_name":"Attribution-ShareAlike License","license_url":"https://creativecommons.org/licenses/by-sa/2.0/","original_url":"https://perenual.com/storage/species_image/2_abies_alba_pyramidalis/og/49255769768_df55596553_b.jpg","regular_url":"https://perenual.com/storage/species_image/2_abies_alba_pyramidalis/regular/49255769768_df55596553_b.jpg","medium_url":"https://perenual.com/storage/species_image/2_abies_alba_pyramidalis/medium/49255769768_df55596553_b.jpg","small_url":"https://perenual.com/storage/species_image/2_abies_alba_pyramidalis/small/49255769768_df55596553_b.jpg","thumbnail":"https://perenual.com/storage/species_image/2_abies_alba_pyramidalis/thumbnail/49255769768_df55596553_b.jpg"}},{"id":518,"common_name":"grassy-leaved sweet flag","scientific_name":["Acorus gramineus 'Ogon'"],"other_name":null,"cycle":"Perennial","watering":"Frequent","sunlight":["Full sun","part shade"],"default_image":{"image_id":1088,"license":5,"license_name":"Attribution-ShareAlike License","license_url":"https://creativecommons.org/licenses/by-sa/2.0/","original_url":"https://perenual.com/storage/species_image/518_acorus_gramineus_ogon/og/19541613170_d0dbdeee66_b.jpg","regular_url":"https://perenual.com/storage/species_image/518_acorus_gramineus_ogon/regular/19541613170_d0dbdeee66_b.jpg","medium_url":"https://perenual.com/storage/species_image/518_acorus_gramineus_ogon/medium/19541613170_d0dbdeee66_b.jpg","small_url":"https://perenual.com/storage/species_image/518_acorus_gramineus_ogon/small/19541613170_d0dbdeee66_b.jpg","thumbnail":"https://perenual.com/storage/species_image/518_acorus_gramineus_ogon/thumbnail/19541613170_d0dbdeee66_b.jpg"}},{"id":519,"common_name":"grassy-leaved sweet flag","scientific_name":["Acorus gramineus 'Pusillus Minimus Aureus'"],"other_name":null,"cycle":"Perennial","watering":"Frequent","sunlight":["Full sun","part shade"],"default_image":{"image_id":9,"license":5,"license_name":"Attribution-ShareAlike License","license_url":"https://creativecommons.org/licenses/by-sa/2.0/","original_url":"https://perenual.com/storage/species_image/2_abies_alba_pyramidalis/og/49255769768_df55596553_b.jpg","regular_url":"https://perenual.com/storage/species_image/2_abies_alba_pyramidalis/regular/49255769768_df55596553_b.jpg","medium_url":"https://perenual.com/storage/species_image/2_abies_alba_pyramidalis/medium/49255769768_df55596553_b.jpg","small_url":"https://perenual.com/storage/species_image/2_abies_alba_pyramidalis/small/49255769768_df55596553_b.jpg","thumbnail":"https://perenual.com/storage/species_image/2_abies_alba_pyramidalis/thumbnail/49255769768_df55596553_b.jpg"}},{"id":520,"common_name":"grassy-leaved sweet flag","scientific_name":["Acorus gramineus 'Variegatus'"],"other_name":["variegated Japanese flag"],"cycle":"Perennial","watering":"Frequent","sunlight":["Full sun","part shade"],"default_image":{"image_id":1083,"license":4,"license_name":"Attribution License","license_url":"https://creativecommons.org/licenses/by/2.0/","original_url":"https://perenual.com/storage/species_image/520_acorus_gramineus_variegatus/og/43357997720_ae5f9d1fe6_b.jpg","regular_url":"https://perenual.com/storage/species_image/520_acorus_gramineus_variegatus/regular/43357997720_ae5f9d1fe6_b.jpg","medium_url":"https://perenual.com/storage/species_image/520_acorus_gramineus_variegatus/medium/43357997720_ae5f9d1fe6_b.jpg","small_url":"https://perenual.com/storage/species_image/520_acorus_gramineus_variegatus/small/43357997720_ae5f9d1fe6_b.jpg","thumbnail":"https://perenual.com/storage/species_image/520_acorus_gramineus_variegatus/thumbnail/43357997720_ae5f9d1fe6_b.jpg"}},{"id":521,"common_name":"bugbane","scientific_name":["Actaea 'Chocoholic'"],"other_name":null,"cycle":"Perennial","watering":"Average","sunlight":["Part shade","full shade"],"default_image":{"image_id":9,"license":5,"license_name":"Attribution-ShareAlike License","license_url":"https://creativecommons.org/licenses/by-sa/2.0/","original_url":"https://perenual.com/storage/species_image/2_abies_alba_pyramidalis/og/49255769768_df55596553_b.jpg","regular_url":"https://perenual.com/storage/species_image/2_abies_alba_pyramidalis/regular/49255769768_df55596553_b.jpg","medium_url":"https://perenual.com/storage/species_image/2_abies_alba_pyramidalis/medium/49255769768_df55596553_b.jpg","small_url":"https://perenual.com/storage/species_image/2_abies_alba_pyramidalis/small/49255769768_df55596553_b.jpg","thumbnail":"https://perenual.com/storage/species_image/2_abies_alba_pyramidalis/thumbnail/49255769768_df55596553_b.jpg"}},{"id":522,"common_name":"bugbane","scientific_name":["Actaea dahurica"],"other_name":null,"cycle":"Perennial","watering":"Average","sunlight":["Part shade","full shade"],"default_image":{"image_id":1091,"license":5,"license_name":"Attribution-ShareAlike License","license_url":"https://creativecommons.org/licenses/by-sa/2.0/","original_url":"https://perenual.com/storage/species_image/522_actaea_dahurica/og/52172229098_b25b21206d_b.jpg","regular_url":"https://perenual.com/storage/species_image/522_actaea_dahurica/regular/52172229098_b25b21206d_b.jpg","medium_url":"https://perenual.com/storage/species_image/522_actaea_dahurica/medium/52172229098_b25b21206d_b.jpg","small_url":"https://perenual.com/storage/species_image/522_actaea_dahurica/small/52172229098_b25b21206d_b.jpg","thumbnail":"https://perenual.com/storage/species_image/522_actaea_dahurica/thumbnail/52172229098_b25b21206d_b.jpg"}},{"id":523,"common_name":"bugbane","scientific_name":["Actaea matsumurae 'White Pearl'"],"other_name":null,"cycle":"Perennial","watering":"Average","sunlight":["Part shade","full shade"],"default_image":{"image_id":1093,"license":5,"license_name":"Attribution-ShareAlike License","license_url":"https://creativecommons.org/licenses/by-sa/2.0/","original_url":"https://perenual.com/storage/species_image/528_actaea_simplex/og/51618506667_d2af922035_b.jpg","regular_url":"https://perenual.com/storage/species_image/528_actaea_simplex/regular/51618506667_d2af922035_b.jpg","medium_url":"https://perenual.com/storage/species_image/528_actaea_simplex/medium/51618506667_d2af922035_b.jpg","small_url":"https://perenual.com/storage/species_image/528_actaea_simplex/small/51618506667_d2af922035_b.jpg","thumbnail":"https://perenual.com/storage/species_image/528_actaea_simplex/thumbnail/51618506667_d2af922035_b.jpg"}},{"id":524,"common_name":"white baneberry","scientific_name":["Actaea pachypoda"],"other_name":["doll's eyes","White Baneberry","Doll's Eyes","White Cohosh"],"cycle":"Perennial","watering":"Average","sunlight":["Partial Shade"," Shade"," Deciduous Shade (Spring Sun)"],"default_image":{"image_id":1097,"license":5,"license_name":"Attribution-ShareAlike License","license_url":"https://creativecommons.org/licenses/by-sa/2.0/","original_url":"https://perenual.com/storage/species_image/524_actaea_pachypoda/og/25484939465_d30c5fac03_b.jpg","regular_url":"https://perenual.com/storage/species_image/524_actaea_pachypoda/regular/25484939465_d30c5fac03_b.jpg","medium_url":"https://perenual.com/storage/species_image/524_actaea_pachypoda/medium/25484939465_d30c5fac03_b.jpg","small_url":"https://perenual.com/storage/species_image/524_actaea_pachypoda/small/25484939465_d30c5fac03_b.jpg","thumbnail":"https://perenual.com/storage/species_image/524_actaea_pachypoda/thumbnail/25484939465_d30c5fac03_b.jpg"}},{"id":525,"common_name":"bugbane","scientific_name":["Actaea 'Pink Spire'"],"other_name":null,"cycle":"Perennial","watering":"Average","sunlight":["Part shade","full shade"],"default_image":{"image_id":9,"license":5,"license_name":"Attribution-ShareAlike License","license_url":"https://creativecommons.org/licenses/by-sa/2.0/","original_url":"https://perenual.com/storage/species_image/2_abies_alba_pyramidalis/og/49255769768_df55596553_b.jpg","regular_url":"https://perenual.com/storage/species_image/2_abies_alba_pyramidalis/regular/49255769768_df55596553_b.jpg","medium_url":"https://perenual.com/storage/species_image/2_abies_alba_pyramidalis/medium/49255769768_df55596553_b.jpg","small_url":"https://perenual.com/storage/species_image/2_abies_alba_pyramidalis/small/49255769768_df55596553_b.jpg","thumbnail":"https://perenual.com/storage/species_image/2_abies_alba_pyramidalis/thumbnail/49255769768_df55596553_b.jpg"}},{"id":510,"common_name":"monkshood","scientific_name":["Aconitum napellus"],"other_name":null,"cycle":"Perennial","watering":"Average","sunlight":[],"default_image":{"image_id":1066,"license":5,"license_name":"Attribution-ShareAlike License","license_url":"https://creativecommons.org/licenses/by-sa/2.0/","original_url":"https://perenual.com/storage/species_image/510_aconitum_napellus/og/38214790954_f875a2bd9e_b.jpg","regular_url":"https://perenual.com/storage/species_image/510_aconitum_napellus/regular/38214790954_f875a2bd9e_b.jpg","medium_url":"https://perenual.com/storage/species_image/510_aconitum_napellus/medium/38214790954_f875a2bd9e_b.jpg","small_url":"https://perenual.com/storage/species_image/510_aconitum_napellus/small/38214790954_f875a2bd9e_b.jpg","thumbnail":"https://perenual.com/storage/species_image/510_aconitum_napellus/thumbnail/38214790954_f875a2bd9e_b.jpg"}},{"id":511,"common_name":"monkshood","scientific_name":["Aconitum 'Spark's Variety'"],"other_name":null,"cycle":"Perennial","watering":"Average","sunlight":["Full sun","part shade"],"default_image":{"image_id":1072,"license":5,"license_name":"Attribution-ShareAlike License","license_url":"https://creativecommons.org/licenses/by-sa/2.0/","original_url":"https://perenual.com/storage/species_image/511_aconitum_sparks_variety/og/3764812235_21736901e5_b.jpg","regular_url":"https://perenual.com/storage/species_image/511_aconitum_sparks_variety/regular/3764812235_21736901e5_b.jpg","medium_url":"https://perenual.com/storage/species_image/511_aconitum_sparks_variety/medium/3764812235_21736901e5_b.jpg","small_url":"https://perenual.com/storage/species_image/511_aconitum_sparks_variety/small/3764812235_21736901e5_b.jpg","thumbnail":"https://perenual.com/storage/species_image/511_aconitum_sparks_variety/thumbnail/3764812235_21736901e5_b.jpg"}},{"id":526,"common_name":"bugbane","scientific_name":["Actaea podocarpa"],"other_name":null,"cycle":"Perennial","watering":"Average","sunlight":["Part shade","full shade"],"default_image":{"image_id":9,"license":5,"license_name":"Attribution-ShareAlike License","license_url":"https://creativecommons.org/licenses/by-sa/2.0/","original_url":"https://perenual.com/storage/species_image/2_abies_alba_pyramidalis/og/49255769768_df55596553_b.jpg","regular_url":"https://perenual.com/storage/species_image/2_abies_alba_pyramidalis/regular/49255769768_df55596553_b.jpg","medium_url":"https://perenual.com/storage/species_image/2_abies_alba_pyramidalis/medium/49255769768_df55596553_b.jpg","small_url":"https://perenual.com/storage/species_image/2_abies_alba_pyramidalis/small/49255769768_df55596553_b.jpg","thumbnail":"https://perenual.com/storage/species_image/2_abies_alba_pyramidalis/thumbnail/49255769768_df55596553_b.jpg"}},{"id":527,"common_name":"black cohosh","scientific_name":["Actaea racemosa"],"other_name":["Bugbane","Black Snakeroot","Fairy Candles","Black Bugbane","Black Snakeroot","Fairy Candles","Black Bugbane"],"cycle":"Perennial","watering":"Average","sunlight":["Partial Shade"," Shade"],"default_image":{"image_id":9,"license":5,"license_name":"Attribution-ShareAlike License","license_url":"https://creativecommons.org/licenses/by-sa/2.0/","original_url":"https://perenual.com/storage/species_image/2_abies_alba_pyramidalis/og/49255769768_df55596553_b.jpg","regular_url":"https://perenual.com/storage/species_image/2_abies_alba_pyramidalis/regular/49255769768_df55596553_b.jpg","medium_url":"https://perenual.com/storage/species_image/2_abies_alba_pyramidalis/medium/49255769768_df55596553_b.jpg","small_url":"https://perenual.com/storage/species_image/2_abies_alba_pyramidalis/small/49255769768_df55596553_b.jpg","thumbnail":"https://perenual.com/storage/species_image/2_abies_alba_pyramidalis/thumbnail/49255769768_df55596553_b.jpg"}},{"id":528,"common_name":"bugbane","scientific_name":["Actaea simplex"],"other_name":null,"cycle":"Perennial","watering":"Average","sunlight":["Part shade","full shade"],"default_image":{"image_id":1093,"license":5,"license_name":"Attribution-ShareAlike License","license_url":"https://creativecommons.org/licenses/by-sa/2.0/","original_url":"https://perenual.com/storage/species_image/528_actaea_simplex/og/51618506667_d2af922035_b.jpg","regular_url":"https://perenual.com/storage/species_image/528_actaea_simplex/regular/51618506667_d2af922035_b.jpg","medium_url":"https://perenual.com/storage/species_image/528_actaea_simplex/medium/51618506667_d2af922035_b.jpg","small_url":"https://perenual.com/storage/species_image/528_actaea_simplex/small/51618506667_d2af922035_b.jpg","thumbnail":"https://perenual.com/storage/species_image/528_actaea_simplex/thumbnail/51618506667_d2af922035_b.jpg"}},{"id":529,"common_name":"bugbane","scientific_name":["Actaea simplex (Atropurpurea Group)"],"other_name":["cimicifuga"],"cycle":"Perennial","watering":"Average","sunlight":["Deep shade"," Filtered shade"," Part sun/part shade"],"default_image":{"image_id":1115,"license":5,"license_name":"Attribution-ShareAlike License","license_url":"https://creativecommons.org/licenses/by-sa/2.0/","original_url":"https://perenual.com/storage/species_image/531_actaea_simplex_atropurpurea_group_brunette/og/6195900163_28e83a7771_b.jpg","regular_url":"https://perenual.com/storage/species_image/531_actaea_simplex_atropurpurea_group_brunette/regular/6195900163_28e83a7771_b.jpg","medium_url":"https://perenual.com/storage/species_image/531_actaea_simplex_atropurpurea_group_brunette/medium/6195900163_28e83a7771_b.jpg","small_url":"https://perenual.com/storage/species_image/531_actaea_simplex_atropurpurea_group_brunette/small/6195900163_28e83a7771_b.jpg","thumbnail":"https://perenual.com/storage/species_image/531_actaea_simplex_atropurpurea_group_brunette/thumbnail/6195900163_28e83a7771_b.jpg"}},{"id":530,"common_name":"bugbane","scientific_name":["Actaea simplex (Atropurpurea Group) 'Black Negligee'"],"other_name":["cimicifuga"],"cycle":"Perennial","watering":"Average","sunlight":["Deep shade"," Filtered shade"," Part sun/part shade"],"default_image":{"image_id":1115,"license":5,"license_name":"Attribution-ShareAlike License","license_url":"https://creativecommons.org/licenses/by-sa/2.0/","original_url":"https://perenual.com/storage/species_image/531_actaea_simplex_atropurpurea_group_brunette/og/6195900163_28e83a7771_b.jpg","regular_url":"https://perenual.com/storage/species_image/531_actaea_simplex_atropurpurea_group_brunette/regular/6195900163_28e83a7771_b.jpg","medium_url":"https://perenual.com/storage/species_image/531_actaea_simplex_atropurpurea_group_brunette/medium/6195900163_28e83a7771_b.jpg","small_url":"https://perenual.com/storage/species_image/531_actaea_simplex_atropurpurea_group_brunette/small/6195900163_28e83a7771_b.jpg","thumbnail":"https://perenual.com/storage/species_image/531_actaea_simplex_atropurpurea_group_brunette/thumbnail/6195900163_28e83a7771_b.jpg"}},{"id":531,"common_name":"bugbane","scientific_name":["Actaea simplex (Atropurpurea Group) 'Brunette'"],"other_name":["cimicifuga"],"cycle":"Perennial","watering":"Average","sunlight":["Deep shade"," Filtered shade"," Part sun/part shade"],"default_image":{"image_id":1115,"license":5,"license_name":"Attribution-ShareAlike License","license_url":"https://creativecommons.org/licenses/by-sa/2.0/","original_url":"https://perenual.com/storage/species_image/531_actaea_simplex_atropurpurea_group_brunette/og/6195900163_28e83a7771_b.jpg","regular_url":"https://perenual.com/storage/species_image/531_actaea_simplex_atropurpurea_group_brunette/regular/6195900163_28e83a7771_b.jpg","medium_url":"https://perenual.com/storage/species_image/531_actaea_simplex_atropurpurea_group_brunette/medium/6195900163_28e83a7771_b.jpg","small_url":"https://perenual.com/storage/species_image/531_actaea_simplex_atropurpurea_group_brunette/small/6195900163_28e83a7771_b.jpg","thumbnail":"https://perenual.com/storage/species_image/531_actaea_simplex_atropurpurea_group_brunette/thumbnail/6195900163_28e83a7771_b.jpg"}},{"id":532,"common_name":"bugbane","scientific_name":["Actaea simplex (Atropurpurea Group) 'Hillside Black Beauty'"],"other_name":["cimicifuga"],"cycle":"Perennial","watering":"Average","sunlight":["Deep shade"," Filtered shade"," Part sun/part shade"],"default_image":{"image_id":9,"license":5,"license_name":"Attribution-ShareAlike License","license_url":"https://creativecommons.org/licenses/by-sa/2.0/","original_url":"https://perenual.com/storage/species_image/2_abies_alba_pyramidalis/og/49255769768_df55596553_b.jpg","regular_url":"https://perenual.com/storage/species_image/2_abies_alba_pyramidalis/regular/49255769768_df55596553_b.jpg","medium_url":"https://perenual.com/storage/species_image/2_abies_alba_pyramidalis/medium/49255769768_df55596553_b.jpg","small_url":"https://perenual.com/storage/species_image/2_abies_alba_pyramidalis/small/49255769768_df55596553_b.jpg","thumbnail":"https://perenual.com/storage/species_image/2_abies_alba_pyramidalis/thumbnail/49255769768_df55596553_b.jpg"}},{"id":533,"common_name":"bugbane","scientific_name":["Actaea simplex (Atropurpurea Group) 'James Compton'"],"other_name":["cimicifuga"],"cycle":"Perennial","watering":"Average","sunlight":["Deep shade"," Filtered shade"," Part sun/part shade"],"default_image":{"image_id":9,"license":5,"license_name":"Attribution-ShareAlike License","license_url":"https://creativecommons.org/licenses/by-sa/2.0/","original_url":"https://perenual.com/storage/species_image/2_abies_alba_pyramidalis/og/49255769768_df55596553_b.jpg","regular_url":"https://perenual.com/storage/species_image/2_abies_alba_pyramidalis/regular/49255769768_df55596553_b.jpg","medium_url":"https://perenual.com/storage/species_image/2_abies_alba_pyramidalis/medium/49255769768_df55596553_b.jpg","small_url":"https://perenual.com/storage/species_image/2_abies_alba_pyramidalis/small/49255769768_df55596553_b.jpg","thumbnail":"https://perenual.com/storage/species_image/2_abies_alba_pyramidalis/thumbnail/49255769768_df55596553_b.jpg"}},{"id":534,"common_name":"hardy kiwi","scientific_name":["Actinidia arguta"],"other_name":null,"cycle":"Perennial","watering":"Average","sunlight":["Full sun","part shade"],"default_image":{"image_id":9,"license":5,"license_name":"Attribution-ShareAlike License","license_url":"https://creativecommons.org/licenses/by-sa/2.0/","original_url":"https://perenual.com/storage/species_image/2_abies_alba_pyramidalis/og/49255769768_df55596553_b.jpg","regular_url":"https://perenual.com/storage/species_image/2_abies_alba_pyramidalis/regular/49255769768_df55596553_b.jpg","medium_url":"https://perenual.com/storage/species_image/2_abies_alba_pyramidalis/medium/49255769768_df55596553_b.jpg","small_url":"https://perenual.com/storage/species_image/2_abies_alba_pyramidalis/small/49255769768_df55596553_b.jpg","thumbnail":"https://perenual.com/storage/species_image/2_abies_alba_pyramidalis/thumbnail/49255769768_df55596553_b.jpg"}},{"id":535,"common_name":"hardy kiwi vine","scientific_name":["Actinidia arguta 'Issai'"],"other_name":null,"cycle":"Perennial","watering":"Average","sunlight":["Full sun","part shade"],"default_image":{"image_id":1120,"license":5,"license_name":"Attribution-ShareAlike License","license_url":"https://creativecommons.org/licenses/by-sa/2.0/","original_url":"https://perenual.com/storage/species_image/535_actinidia_arguta_issai/og/34451388751_202d8a0677_b.jpg","regular_url":"https://perenual.com/storage/species_image/535_actinidia_arguta_issai/regular/34451388751_202d8a0677_b.jpg","medium_url":"https://perenual.com/storage/species_image/535_actinidia_arguta_issai/medium/34451388751_202d8a0677_b.jpg","small_url":"https://perenual.com/storage/species_image/535_actinidia_arguta_issai/small/34451388751_202d8a0677_b.jpg","thumbnail":"https://perenual.com/storage/species_image/535_actinidia_arguta_issai/thumbnail/34451388751_202d8a0677_b.jpg"}},{"id":536,"common_name":"kiwifruit","scientific_name":["Actinidia deliciosa"],"other_name":null,"cycle":"Perennial","watering":"Average","sunlight":["Full sun"],"default_image":{"image_id":1123,"license":4,"license_name":"Attribution License","license_url":"https://creativecommons.org/licenses/by/2.0/","original_url":"https://perenual.com/storage/species_image/536_actinidia_deliciosa/og/25119432356_f10218d971_b.jpg","regular_url":"https://perenual.com/storage/species_image/536_actinidia_deliciosa/regular/25119432356_f10218d971_b.jpg","medium_url":"https://perenual.com/storage/species_image/536_actinidia_deliciosa/medium/25119432356_f10218d971_b.jpg","small_url":"https://perenual.com/storage/species_image/536_actinidia_deliciosa/small/25119432356_f10218d971_b.jpg","thumbnail":"https://perenual.com/storage/species_image/536_actinidia_deliciosa/thumbnail/25119432356_f10218d971_b.jpg"}},{"id":537,"common_name":"variegated kiwi vine","scientific_name":["Actinidia kolomikta"],"other_name":null,"cycle":"Perennial","watering":"Average","sunlight":["Full sun","part shade"],"default_image":{"image_id":1125,"license":4,"license_name":"Attribution License","license_url":"https://creativecommons.org/licenses/by/2.0/","original_url":"https://perenual.com/storage/species_image/537_actinidia_kolomikta/og/51490517809_fc47df43b2_b.jpg","regular_url":"https://perenual.com/storage/species_image/537_actinidia_kolomikta/regular/51490517809_fc47df43b2_b.jpg","medium_url":"https://perenual.com/storage/species_image/537_actinidia_kolomikta/medium/51490517809_fc47df43b2_b.jpg","small_url":"https://perenual.com/storage/species_image/537_actinidia_kolomikta/small/51490517809_fc47df43b2_b.jpg","thumbnail":"https://perenual.com/storage/species_image/537_actinidia_kolomikta/thumbnail/51490517809_fc47df43b2_b.jpg"}},{"id":538,"common_name":"variegated kiwi vine","scientific_name":["Actinidia kolomikta 'Arctic Beauty'"],"other_name":null,"cycle":"Perennial","watering":"Average","sunlight":["Full sun","part shade"],"default_image":{"image_id":9,"license":5,"license_name":"Attribution-ShareAlike License","license_url":"https://creativecommons.org/licenses/by-sa/2.0/","original_url":"https://perenual.com/storage/species_image/2_abies_alba_pyramidalis/og/49255769768_df55596553_b.jpg","regular_url":"https://perenual.com/storage/species_image/2_abies_alba_pyramidalis/regular/49255769768_df55596553_b.jpg","medium_url":"https://perenual.com/storage/species_image/2_abies_alba_pyramidalis/medium/49255769768_df55596553_b.jpg","small_url":"https://perenual.com/storage/species_image/2_abies_alba_pyramidalis/small/49255769768_df55596553_b.jpg","thumbnail":"https://perenual.com/storage/species_image/2_abies_alba_pyramidalis/thumbnail/49255769768_df55596553_b.jpg"}},{"id":539,"common_name":"baobab","scientific_name":["Adansonia digitata"],"other_name":null,"cycle":"Perennial","watering":"Minimum","sunlight":["Full sun"],"default_image":{"image_id":1131,"license":5,"license_name":"Attribution-ShareAlike License","license_url":"https://creativecommons.org/licenses/by-sa/2.0/","original_url":"https://perenual.com/storage/species_image/539_adansonia_digitata/og/52185616677_5e7ccc0374_b.jpg","regular_url":"https://perenual.com/storage/species_image/539_adansonia_digitata/regular/52185616677_5e7ccc0374_b.jpg","medium_url":"https://perenual.com/storage/species_image/539_adansonia_digitata/medium/52185616677_5e7ccc0374_b.jpg","small_url":"https://perenual.com/storage/species_image/539_adansonia_digitata/small/52185616677_5e7ccc0374_b.jpg","thumbnail":"https://perenual.com/storage/species_image/539_adansonia_digitata/thumbnail/52185616677_5e7ccc0374_b.jpg"}},{"id":540,"common_name":"desert rose","scientific_name":["Adenium obesum"],"other_name":null,"cycle":"Perennial","watering":"Minimum","sunlight":["Full sun"],"default_image":{"image_id":1139,"license":5,"license_name":"Attribution-ShareAlike License","license_url":"https://creativecommons.org/licenses/by-sa/2.0/","original_url":"https://perenual.com/storage/species_image/540_adenium_obesum/og/9244335137_6d662ed77c_b.jpg","regular_url":"https://perenual.com/storage/species_image/540_adenium_obesum/regular/9244335137_6d662ed77c_b.jpg","medium_url":"https://perenual.com/storage/species_image/540_adenium_obesum/medium/9244335137_6d662ed77c_b.jpg","small_url":"https://perenual.com/storage/species_image/540_adenium_obesum/small/9244335137_6d662ed77c_b.jpg","thumbnail":"https://perenual.com/storage/species_image/540_adenium_obesum/thumbnail/9244335137_6d662ed77c_b.jpg"}}],"to":540,"per_page":30,"current_page":18,"from":511,"last_page":200,"total":6000}