{"data":[{"id":4141,"common_name":"stonecrop","scientific_name":["Hylotelephium 'Sunset Cloud'"],"other_name":null,"cycle":"Perennial","watering":"Minimum","sunlight":["Full sun"],"default_image":{"image_id":9,"license":5,"license_name":"Attribution-ShareAlike License","license_url":"https://creativecommons.org/licenses/by-sa/2.0/","original_url":"https://perenual.com/storage/species_image/2_abies_alba_pyramidalis/og/49255769768_df55596553_b.jpg","regular_url":"https://perenual.com/storage/species_image/2_abies_alba_pyramidalis/regular/49255769768_df55596553_b.jpg","medium_url":"https://perenual.com/storage/species_image/2_abies_alba_pyramidalis/medium/49255769768_df55596553_b.jpg","small_url":"https://perenual.com/storage/species_image/2_abies_alba_pyramidalis/small/49255769768_df55596553_b.jpg","thumbnail":"https://perenual.com/storage/species_image/2_abies_alba_pyramidalis/thumbnail/49255769768_df55596553_b.jpg"}},{"id":4142,"common_name":"stonecrop","scientific_name":["Hylotelephium telephium"],"other_name":null,"cycle":"Perennial","watering":"Minimum","sunlight":["Full sun"],"default_image":{"image_id":22011,"license":1,"license_name":null,"license_url":null,"original_url":"https://perenual.com/storage/species_image/4142_hylotelephium_telephium/og/51433636225_1d3c2ec64c_b.jpg","regular_url":"https://perenual.com/storage/species_image/4142_hylotelephium_telephium/regular/51433636225_1d3c2ec64c_b.jpg","medium_url":"https://perenual.com/storage/species_image/4142_hylotelephium_telephium/medium/51433636225_1d3c2ec64c_b.jpg","small_url":"https://perenual.com/storage/species_image/4142_hylotelephium_telephium/small/51433636225_1d3c2ec64c_b.jpg","thumbnail":"https://perenual.com/storage/species_image/4142_hylotelephium_telephium/thumbnail/51433636225_1d3c2ec64c_b.jpg"}},{"id":4143,"common_name":"stonecrop","scientific_name":["Hylotelephium telephium (Atropurpureum Group) 'Postman's Pride'"],"other_name":null,"cycle":"Perennial","watering":"Minimum","sunlight":["Full sun"],"default_image":{"image_id":8332,"license":5,"license_name":"Attribution-ShareAlike License","license_url":"https://creativecommons.org/licenses/by-sa/2.0/","original_url":"https://perenual.com/storage/species_image/4148_hylotelephium_telephium_munstead_dark_red/og/52072565816_121a485d5f_b.jpg","regular_url":"https://perenual.com/storage/species_image/4148_hylotelephium_telephium_munstead_dark_red/regular/52072565816_121a485d5f_b.jpg","medium_url":"https://perenual.com/storage/species_image/4148_hylotelephium_telephium_munstead_dark_red/medium/52072565816_121a485d5f_b.jpg","small_url":"https://perenual.com/storage/species_image/4148_hylotelephium_telephium_munstead_dark_red/small/52072565816_121a485d5f_b.jpg","thumbnail":"https://perenual.com/storage/species_image/4148_hylotelephium_telephium_munstead_dark_red/thumbnail/52072565816_121a485d5f_b.jpg"}},{"id":4144,"common_name":"stonecrop","scientific_name":["Hylotelephium telephium 'Blackjack'"],"other_name":null,"cycle":"Perennial","watering":"Minimum","sunlight":["Full sun"],"default_image":{"image_id":8332,"license":5,"license_name":"Attribution-ShareAlike License","license_url":"https://creativecommons.org/licenses/by-sa/2.0/","original_url":"https://perenual.com/storage/species_image/4148_hylotelephium_telephium_munstead_dark_red/og/52072565816_121a485d5f_b.jpg","regular_url":"https://perenual.com/storage/species_image/4148_hylotelephium_telephium_munstead_dark_red/regular/52072565816_121a485d5f_b.jpg","medium_url":"https://perenual.com/storage/species_image/4148_hylotelephium_telephium_munstead_dark_red/medium/52072565816_121a485d5f_b.jpg","small_url":"https://perenual.com/storage/species_image/4148_hylotelephium_telephium_munstead_dark_red/small/52072565816_121a485d5f_b.jpg","thumbnail":"https://perenual.com/storage/species_image/4148_hylotelephium_telephium_munstead_dark_red/thumbnail/52072565816_121a485d5f_b.jpg"}},{"id":4145,"common_name":"stonecrop","scientific_name":["Hylotelephium telephium 'Cherry Truffle'"],"other_name":null,"cycle":"Perennial","watering":"Minimum","sunlight":["Full sun"],"default_image":{"image_id":8366,"license":45,"license_name":"Attribution-ShareAlike 3.0 Unported (CC BY-SA 3.0)","license_url":"https://creativecommons.org/licenses/by-sa/3.0/deed.en","original_url":"https://perenual.com/storage/species_image/4152_hylotelephium_vera_jameson/og/Hylotelephium_telephium%2C_jard%C3%ADn_bot%C3%A1nico_de_Tallinn%2C_Estonia%2C_2012-08-13%2C_DD_01.jpg","regular_url":"https://perenual.com/storage/species_image/4152_hylotelephium_vera_jameson/regular/Hylotelephium_telephium%2C_jard%C3%ADn_bot%C3%A1nico_de_Tallinn%2C_Estonia%2C_2012-08-13%2C_DD_01.jpg","medium_url":"https://perenual.com/storage/species_image/4152_hylotelephium_vera_jameson/medium/Hylotelephium_telephium%2C_jard%C3%ADn_bot%C3%A1nico_de_Tallinn%2C_Estonia%2C_2012-08-13%2C_DD_01.jpg","small_url":"https://perenual.com/storage/species_image/4152_hylotelephium_vera_jameson/small/Hylotelephium_telephium%2C_jard%C3%ADn_bot%C3%A1nico_de_Tallinn%2C_Estonia%2C_2012-08-13%2C_DD_01.jpg","thumbnail":"https://perenual.com/storage/species_image/4152_hylotelephium_vera_jameson/thumbnail/Hylotelephium_telephium%2C_jard%C3%ADn_bot%C3%A1nico_de_Tallinn%2C_Estonia%2C_2012-08-13%2C_DD_01.jpg"}},{"id":4146,"common_name":"stonecrop","scientific_name":["Hylotelephium telephium 'Matrona'"],"other_name":null,"cycle":"Perennial","watering":"Minimum","sunlight":["Full sun"],"default_image":{"image_id":8367,"license":5,"license_name":"Attribution-ShareAlike License","license_url":"https://creativecommons.org/licenses/by-sa/2.0/","original_url":"https://perenual.com/storage/species_image/4146_hylotelephium_telephium_matrona/og/51426890681_906f7debd5_b.jpg","regular_url":"https://perenual.com/storage/species_image/4146_hylotelephium_telephium_matrona/regular/51426890681_906f7debd5_b.jpg","medium_url":"https://perenual.com/storage/species_image/4146_hylotelephium_telephium_matrona/medium/51426890681_906f7debd5_b.jpg","small_url":"https://perenual.com/storage/species_image/4146_hylotelephium_telephium_matrona/small/51426890681_906f7debd5_b.jpg","thumbnail":"https://perenual.com/storage/species_image/4146_hylotelephium_telephium_matrona/thumbnail/51426890681_906f7debd5_b.jpg"}},{"id":4147,"common_name":"stonecrop","scientific_name":["Hylotelephium telephium 'Mohrchen'"],"other_name":null,"cycle":"Perennial","watering":"Minimum","sunlight":["Full sun"],"default_image":{"image_id":8335,"license":4,"license_name":"Attribution License","license_url":"https://creativecommons.org/licenses/by/2.0/","original_url":"https://perenual.com/storage/species_image/4147_hylotelephium_telephium_mohrchen/og/52225082285_df2a68b3ed_b.jpg","regular_url":"https://perenual.com/storage/species_image/4147_hylotelephium_telephium_mohrchen/regular/52225082285_df2a68b3ed_b.jpg","medium_url":"https://perenual.com/storage/species_image/4147_hylotelephium_telephium_mohrchen/medium/52225082285_df2a68b3ed_b.jpg","small_url":"https://perenual.com/storage/species_image/4147_hylotelephium_telephium_mohrchen/small/52225082285_df2a68b3ed_b.jpg","thumbnail":"https://perenual.com/storage/species_image/4147_hylotelephium_telephium_mohrchen/thumbnail/52225082285_df2a68b3ed_b.jpg"}},{"id":4148,"common_name":"stonecrop","scientific_name":["Hylotelephium telephium 'Munstead Dark Red'"],"other_name":null,"cycle":"Perennial","watering":"Minimum","sunlight":["Full sun"],"default_image":{"image_id":8332,"license":5,"license_name":"Attribution-ShareAlike License","license_url":"https://creativecommons.org/licenses/by-sa/2.0/","original_url":"https://perenual.com/storage/species_image/4148_hylotelephium_telephium_munstead_dark_red/og/52072565816_121a485d5f_b.jpg","regular_url":"https://perenual.com/storage/species_image/4148_hylotelephium_telephium_munstead_dark_red/regular/52072565816_121a485d5f_b.jpg","medium_url":"https://perenual.com/storage/species_image/4148_hylotelephium_telephium_munstead_dark_red/medium/52072565816_121a485d5f_b.jpg","small_url":"https://perenual.com/storage/species_image/4148_hylotelephium_telephium_munstead_dark_red/small/52072565816_121a485d5f_b.jpg","thumbnail":"https://perenual.com/storage/species_image/4148_hylotelephium_telephium_munstead_dark_red/thumbnail/52072565816_121a485d5f_b.jpg"}},{"id":4149,"common_name":"stonecrop","scientific_name":["Hylotelephium telephium 'Samuel Oliphant'"],"other_name":null,"cycle":"Perennial","watering":"Minimum","sunlight":["Full sun"],"default_image":{"image_id":8335,"license":4,"license_name":"Attribution License","license_url":"https://creativecommons.org/licenses/by/2.0/","original_url":"https://perenual.com/storage/species_image/4147_hylotelephium_telephium_mohrchen/og/52225082285_df2a68b3ed_b.jpg","regular_url":"https://perenual.com/storage/species_image/4147_hylotelephium_telephium_mohrchen/regular/52225082285_df2a68b3ed_b.jpg","medium_url":"https://perenual.com/storage/species_image/4147_hylotelephium_telephium_mohrchen/medium/52225082285_df2a68b3ed_b.jpg","small_url":"https://perenual.com/storage/species_image/4147_hylotelephium_telephium_mohrchen/small/52225082285_df2a68b3ed_b.jpg","thumbnail":"https://perenual.com/storage/species_image/4147_hylotelephium_telephium_mohrchen/thumbnail/52225082285_df2a68b3ed_b.jpg"}},{"id":4150,"common_name":"stonecrop","scientific_name":["Hylotelephium telephium subsp. ruprechtii"],"other_name":null,"cycle":"Perennial","watering":"Minimum","sunlight":["Full sun"],"default_image":{"image_id":8340,"license":4,"license_name":"Attribution License","license_url":"https://creativecommons.org/licenses/by/2.0/","original_url":"https://perenual.com/storage/species_image/4150_hylotelephium_telephium_subsp_ruprechtii/og/52220689516_5c64f00d72_b.jpg","regular_url":"https://perenual.com/storage/species_image/4150_hylotelephium_telephium_subsp_ruprechtii/regular/52220689516_5c64f00d72_b.jpg","medium_url":"https://perenual.com/storage/species_image/4150_hylotelephium_telephium_subsp_ruprechtii/medium/52220689516_5c64f00d72_b.jpg","small_url":"https://perenual.com/storage/species_image/4150_hylotelephium_telephium_subsp_ruprechtii/small/52220689516_5c64f00d72_b.jpg","thumbnail":"https://perenual.com/storage/species_image/4150_hylotelephium_telephium_subsp_ruprechtii/thumbnail/52220689516_5c64f00d72_b.jpg"}},{"id":4151,"common_name":"stonecrop","scientific_name":["Hylotelephium telephium subsp. ruprechtii 'Hab Gray'"],"other_name":null,"cycle":"Perennial","watering":"Minimum","sunlight":["Full sun"],"default_image":{"image_id":9,"license":5,"license_name":"Attribution-ShareAlike License","license_url":"https://creativecommons.org/licenses/by-sa/2.0/","original_url":"https://perenual.com/storage/species_image/2_abies_alba_pyramidalis/og/49255769768_df55596553_b.jpg","regular_url":"https://perenual.com/storage/species_image/2_abies_alba_pyramidalis/regular/49255769768_df55596553_b.jpg","medium_url":"https://perenual.com/storage/species_image/2_abies_alba_pyramidalis/medium/49255769768_df55596553_b.jpg","small_url":"https://perenual.com/storage/species_image/2_abies_alba_pyramidalis/small/49255769768_df55596553_b.jpg","thumbnail":"https://perenual.com/storage/species_image/2_abies_alba_pyramidalis/thumbnail/49255769768_df55596553_b.jpg"}},{"id":4152,"common_name":"stonecrop","scientific_name":["Hylotelephium 'Vera Jameson'"],"other_name":null,"cycle":"Perennial","watering":"Minimum","sunlight":["Full sun"],"default_image":{"image_id":8366,"license":45,"license_name":"Attribution-ShareAlike 3.0 Unported (CC BY-SA 3.0)","license_url":"https://creativecommons.org/licenses/by-sa/3.0/deed.en","original_url":"https://perenual.com/storage/species_image/4152_hylotelephium_vera_jameson/og/Hylotelephium_telephium%2C_jard%C3%ADn_bot%C3%A1nico_de_Tallinn%2C_Estonia%2C_2012-08-13%2C_DD_01.jpg","regular_url":"https://perenual.com/storage/species_image/4152_hylotelephium_vera_jameson/regular/Hylotelephium_telephium%2C_jard%C3%ADn_bot%C3%A1nico_de_Tallinn%2C_Estonia%2C_2012-08-13%2C_DD_01.jpg","medium_url":"https://perenual.com/storage/species_image/4152_hylotelephium_vera_jameson/medium/Hylotelephium_telephium%2C_jard%C3%ADn_bot%C3%A1nico_de_Tallinn%2C_Estonia%2C_2012-08-13%2C_DD_01.jpg","small_url":"https://perenual.com/storage/species_image/4152_hylotelephium_vera_jameson/small/Hylotelephium_telephium%2C_jard%C3%ADn_bot%C3%A1nico_de_Tallinn%2C_Estonia%2C_2012-08-13%2C_DD_01.jpg","thumbnail":"https://perenual.com/storage/species_image/4152_hylotelephium_vera_jameson/thumbnail/Hylotelephium_telephium%2C_jard%C3%ADn_bot%C3%A1nico_de_Tallinn%2C_Estonia%2C_2012-08-13%2C_DD_01.jpg"}},{"id":4153,"common_name":"spider lily","scientific_name":["Hymenocallis caroliniana"],"other_name":null,"cycle":"Perennial","watering":"Frequent","sunlight":["Full sun","part shade"],"default_image":{"image_id":8373,"license":4,"license_name":"Attribution License","license_url":"https://creativecommons.org/licenses/by/2.0/","original_url":"https://perenual.com/storage/species_image/4153_hymenocallis_caroliniana/og/20146724055_7bb6936e1d_b.jpg","regular_url":"https://perenual.com/storage/species_image/4153_hymenocallis_caroliniana/regular/20146724055_7bb6936e1d_b.jpg","medium_url":"https://perenual.com/storage/species_image/4153_hymenocallis_caroliniana/medium/20146724055_7bb6936e1d_b.jpg","small_url":"https://perenual.com/storage/species_image/4153_hymenocallis_caroliniana/small/20146724055_7bb6936e1d_b.jpg","thumbnail":"https://perenual.com/storage/species_image/4153_hymenocallis_caroliniana/thumbnail/20146724055_7bb6936e1d_b.jpg"}},{"id":4154,"common_name":"spider lily","scientific_name":["Hymenocallis festalis"],"other_name":null,"cycle":"Perennial","watering":"Average","sunlight":["Full sun","part shade"],"default_image":{"image_id":8378,"license":5,"license_name":"Attribution-ShareAlike License","license_url":"https://creativecommons.org/licenses/by-sa/2.0/","original_url":"https://perenual.com/storage/species_image/4154_hymenocallis_festalis/og/48632695151_586b0caa97_b.jpg","regular_url":"https://perenual.com/storage/species_image/4154_hymenocallis_festalis/regular/48632695151_586b0caa97_b.jpg","medium_url":"https://perenual.com/storage/species_image/4154_hymenocallis_festalis/medium/48632695151_586b0caa97_b.jpg","small_url":"https://perenual.com/storage/species_image/4154_hymenocallis_festalis/small/48632695151_586b0caa97_b.jpg","thumbnail":"https://perenual.com/storage/species_image/4154_hymenocallis_festalis/thumbnail/48632695151_586b0caa97_b.jpg"}},{"id":4155,"common_name":"spider lily","scientific_name":["Hymenocallis festalis 'Zwanenburg'"],"other_name":null,"cycle":"Perennial","watering":"Average","sunlight":["Full sun","part shade"],"default_image":{"image_id":9,"license":5,"license_name":"Attribution-ShareAlike License","license_url":"https://creativecommons.org/licenses/by-sa/2.0/","original_url":"https://perenual.com/storage/species_image/2_abies_alba_pyramidalis/og/49255769768_df55596553_b.jpg","regular_url":"https://perenual.com/storage/species_image/2_abies_alba_pyramidalis/regular/49255769768_df55596553_b.jpg","medium_url":"https://perenual.com/storage/species_image/2_abies_alba_pyramidalis/medium/49255769768_df55596553_b.jpg","small_url":"https://perenual.com/storage/species_image/2_abies_alba_pyramidalis/small/49255769768_df55596553_b.jpg","thumbnail":"https://perenual.com/storage/species_image/2_abies_alba_pyramidalis/thumbnail/49255769768_df55596553_b.jpg"}},{"id":4156,"common_name":"Cayman Islands spider-lily","scientific_name":["Hymenocallis latifolia"],"other_name":null,"cycle":"Perennial","watering":"Frequent","sunlight":["Full sun only if soil kept moist"," Part sun/part shade"],"default_image":{"image_id":8386,"license":5,"license_name":"Attribution-ShareAlike License","license_url":"https://creativecommons.org/licenses/by-sa/2.0/","original_url":"https://perenual.com/storage/species_image/4156_hymenocallis_latifolia/og/48410222152_4e896027c4_b.jpg","regular_url":"https://perenual.com/storage/species_image/4156_hymenocallis_latifolia/regular/48410222152_4e896027c4_b.jpg","medium_url":"https://perenual.com/storage/species_image/4156_hymenocallis_latifolia/medium/48410222152_4e896027c4_b.jpg","small_url":"https://perenual.com/storage/species_image/4156_hymenocallis_latifolia/small/48410222152_4e896027c4_b.jpg","thumbnail":"https://perenual.com/storage/species_image/4156_hymenocallis_latifolia/thumbnail/48410222152_4e896027c4_b.jpg"}},{"id":4157,"common_name":"spider lily","scientific_name":["Hymenocallis liriosme"],"other_name":null,"cycle":"Perennial","watering":"Average","sunlight":["Full sun","part shade"],"default_image":{"image_id":9,"license":5,"license_name":"Attribution-ShareAlike License","license_url":"https://creativecommons.org/licenses/by-sa/2.0/","original_url":"https://perenual.com/storage/species_image/2_abies_alba_pyramidalis/og/49255769768_df55596553_b.jpg","regular_url":"https://perenual.com/storage/species_image/2_abies_alba_pyramidalis/regular/49255769768_df55596553_b.jpg","medium_url":"https://perenual.com/storage/species_image/2_abies_alba_pyramidalis/medium/49255769768_df55596553_b.jpg","small_url":"https://perenual.com/storage/species_image/2_abies_alba_pyramidalis/small/49255769768_df55596553_b.jpg","thumbnail":"https://perenual.com/storage/species_image/2_abies_alba_pyramidalis/thumbnail/49255769768_df55596553_b.jpg"}},{"id":4158,"common_name":"sweet-amber","scientific_name":["Hypericum androsaemum"],"other_name":null,"cycle":"Perennial","watering":"Average","sunlight":["Full sun","part shade"],"default_image":{"image_id":8400,"license":4,"license_name":"Attribution License","license_url":"https://creativecommons.org/licenses/by/2.0/","original_url":"https://perenual.com/storage/species_image/4158_hypericum_androsaemum/og/51350616585_2873c959a6_b.jpg","regular_url":"https://perenual.com/storage/species_image/4158_hypericum_androsaemum/regular/51350616585_2873c959a6_b.jpg","medium_url":"https://perenual.com/storage/species_image/4158_hypericum_androsaemum/medium/51350616585_2873c959a6_b.jpg","small_url":"https://perenual.com/storage/species_image/4158_hypericum_androsaemum/small/51350616585_2873c959a6_b.jpg","thumbnail":"https://perenual.com/storage/species_image/4158_hypericum_androsaemum/thumbnail/51350616585_2873c959a6_b.jpg"}},{"id":4159,"common_name":"tutsan","scientific_name":["Hypericum androsaemum 'Albury Purple'"],"other_name":null,"cycle":"Perennial","watering":"Average","sunlight":["Full sun","part shade"],"default_image":{"image_id":8409,"license":6,"license_name":"Attribution-NoDerivs License","license_url":"https://creativecommons.org/licenses/by-nd/2.0/","original_url":"https://perenual.com/storage/species_image/4159_hypericum_androsaemum_albury_purple/og/50126759912_9968743a32_b.jpg"}},{"id":4160,"common_name":"tutsan","scientific_name":["Hypericum androsaemum 'Golden Tutsan'"],"other_name":null,"cycle":"Perennial","watering":"Average","sunlight":["Full sun","part shade"],"default_image":{"image_id":8405,"license":4,"license_name":"Attribution License","license_url":"https://creativecommons.org/licenses/by/2.0/","original_url":"https://perenual.com/storage/species_image/4160_hypericum_androsaemum_golden_tutsan/og/51331434274_39fe681f9f_b.jpg","regular_url":"https://perenual.com/storage/species_image/4160_hypericum_androsaemum_golden_tutsan/regular/51331434274_39fe681f9f_b.jpg","medium_url":"https://perenual.com/storage/species_image/4160_hypericum_androsaemum_golden_tutsan/medium/51331434274_39fe681f9f_b.jpg","small_url":"https://perenual.com/storage/species_image/4160_hypericum_androsaemum_golden_tutsan/small/51331434274_39fe681f9f_b.jpg","thumbnail":"https://perenual.com/storage/species_image/4160_hypericum_androsaemum_golden_tutsan/thumbnail/51331434274_39fe681f9f_b.jpg"}},{"id":4161,"common_name":"St. John's wort","scientific_name":["Hypericum beanii"],"other_name":null,"cycle":"Perennial","watering":"Average","sunlight":["Full sun","part shade"],"default_image":{"image_id":8413,"license":5,"license_name":"Attribution-ShareAlike License","license_url":"https://creativecommons.org/licenses/by-sa/2.0/","original_url":"https://perenual.com/storage/species_image/4166_hypericum_hidcote/og/52295506574_286488b403_b.jpg","regular_url":"https://perenual.com/storage/species_image/4166_hypericum_hidcote/regular/52295506574_286488b403_b.jpg","medium_url":"https://perenual.com/storage/species_image/4166_hypericum_hidcote/medium/52295506574_286488b403_b.jpg","small_url":"https://perenual.com/storage/species_image/4166_hypericum_hidcote/small/52295506574_286488b403_b.jpg","thumbnail":"https://perenual.com/storage/species_image/4166_hypericum_hidcote/thumbnail/52295506574_286488b403_b.jpg"}},{"id":4162,"common_name":"Buckley's St. Johnswort","scientific_name":["Hypericum buckleyi"],"other_name":null,"cycle":"Perennial","watering":"Average","sunlight":["Full sun"],"default_image":{"image_id":9,"license":5,"license_name":"Attribution-ShareAlike License","license_url":"https://creativecommons.org/licenses/by-sa/2.0/","original_url":"https://perenual.com/storage/species_image/2_abies_alba_pyramidalis/og/49255769768_df55596553_b.jpg","regular_url":"https://perenual.com/storage/species_image/2_abies_alba_pyramidalis/regular/49255769768_df55596553_b.jpg","medium_url":"https://perenual.com/storage/species_image/2_abies_alba_pyramidalis/medium/49255769768_df55596553_b.jpg","small_url":"https://perenual.com/storage/species_image/2_abies_alba_pyramidalis/small/49255769768_df55596553_b.jpg","thumbnail":"https://perenual.com/storage/species_image/2_abies_alba_pyramidalis/thumbnail/49255769768_df55596553_b.jpg"}},{"id":4163,"common_name":"St. John's wort","scientific_name":["Hypericum calycinum"],"other_name":null,"cycle":"Perennial","watering":"Average","sunlight":["Full sun","part shade"],"default_image":{"image_id":8416,"license":4,"license_name":"Attribution License","license_url":"https://creativecommons.org/licenses/by/2.0/","original_url":"https://perenual.com/storage/species_image/4163_hypericum_calycinum/og/51504369489_33ec8533a8_b.jpg","regular_url":"https://perenual.com/storage/species_image/4163_hypericum_calycinum/regular/51504369489_33ec8533a8_b.jpg","medium_url":"https://perenual.com/storage/species_image/4163_hypericum_calycinum/medium/51504369489_33ec8533a8_b.jpg","small_url":"https://perenual.com/storage/species_image/4163_hypericum_calycinum/small/51504369489_33ec8533a8_b.jpg","thumbnail":"https://perenual.com/storage/species_image/4163_hypericum_calycinum/thumbnail/51504369489_33ec8533a8_b.jpg"}},{"id":4164,"common_name":"St. John's wort","scientific_name":["Hypericum calycinum 'Briggadoon'"],"other_name":null,"cycle":"Perennial","watering":"Average","sunlight":["Full sun","part shade"],"default_image":{"image_id":8422,"license":4,"license_name":"Attribution License","license_url":"https://creativecommons.org/licenses/by/2.0/","original_url":"https://perenual.com/storage/species_image/4164_hypericum_calycinum_briggadoon/og/52449682530_d15b170ca2_b.jpg","regular_url":"https://perenual.com/storage/species_image/4164_hypericum_calycinum_briggadoon/regular/52449682530_d15b170ca2_b.jpg","medium_url":"https://perenual.com/storage/species_image/4164_hypericum_calycinum_briggadoon/medium/52449682530_d15b170ca2_b.jpg","small_url":"https://perenual.com/storage/species_image/4164_hypericum_calycinum_briggadoon/small/52449682530_d15b170ca2_b.jpg","thumbnail":"https://perenual.com/storage/species_image/4164_hypericum_calycinum_briggadoon/thumbnail/52449682530_d15b170ca2_b.jpg"}},{"id":4165,"common_name":"St. John's wort","scientific_name":["Hypericum frondosum 'Sunburst'"],"other_name":null,"cycle":"Perennial","watering":"Average","sunlight":["Full sun","part shade"],"default_image":{"image_id":9,"license":5,"license_name":"Attribution-ShareAlike License","license_url":"https://creativecommons.org/licenses/by-sa/2.0/","original_url":"https://perenual.com/storage/species_image/2_abies_alba_pyramidalis/og/49255769768_df55596553_b.jpg","regular_url":"https://perenual.com/storage/species_image/2_abies_alba_pyramidalis/regular/49255769768_df55596553_b.jpg","medium_url":"https://perenual.com/storage/species_image/2_abies_alba_pyramidalis/medium/49255769768_df55596553_b.jpg","small_url":"https://perenual.com/storage/species_image/2_abies_alba_pyramidalis/small/49255769768_df55596553_b.jpg","thumbnail":"https://perenual.com/storage/species_image/2_abies_alba_pyramidalis/thumbnail/49255769768_df55596553_b.jpg"}},{"id":4166,"common_name":"St. John's wort","scientific_name":["Hypericum 'Hidcote'"],"other_name":null,"cycle":"Perennial","watering":"Average","sunlight":["Full sun","part shade"],"default_image":{"image_id":8413,"license":5,"license_name":"Attribution-ShareAlike License","license_url":"https://creativecommons.org/licenses/by-sa/2.0/","original_url":"https://perenual.com/storage/species_image/4166_hypericum_hidcote/og/52295506574_286488b403_b.jpg","regular_url":"https://perenual.com/storage/species_image/4166_hypericum_hidcote/regular/52295506574_286488b403_b.jpg","medium_url":"https://perenual.com/storage/species_image/4166_hypericum_hidcote/medium/52295506574_286488b403_b.jpg","small_url":"https://perenual.com/storage/species_image/4166_hypericum_hidcote/small/52295506574_286488b403_b.jpg","thumbnail":"https://perenual.com/storage/species_image/4166_hypericum_hidcote/thumbnail/52295506574_286488b403_b.jpg"}},{"id":4167,"common_name":"hypericum","scientific_name":["Hypericum HYPEARLS RENU"],"other_name":null,"cycle":"Perennial","watering":"Average","sunlight":["Full sun","part shade"],"default_image":{"image_id":9,"license":5,"license_name":"Attribution-ShareAlike License","license_url":"https://creativecommons.org/licenses/by-sa/2.0/","original_url":"https://perenual.com/storage/species_image/2_abies_alba_pyramidalis/og/49255769768_df55596553_b.jpg","regular_url":"https://perenual.com/storage/species_image/2_abies_alba_pyramidalis/regular/49255769768_df55596553_b.jpg","medium_url":"https://perenual.com/storage/species_image/2_abies_alba_pyramidalis/medium/49255769768_df55596553_b.jpg","small_url":"https://perenual.com/storage/species_image/2_abies_alba_pyramidalis/small/49255769768_df55596553_b.jpg","thumbnail":"https://perenual.com/storage/species_image/2_abies_alba_pyramidalis/thumbnail/49255769768_df55596553_b.jpg"}},{"id":4168,"common_name":"St. John's wort","scientific_name":["Hypericum inodorum 'Elstead'"],"other_name":null,"cycle":"Perennial","watering":"Average","sunlight":["Full sun","part shade"],"default_image":{"image_id":8436,"license":4,"license_name":"Attribution License","license_url":"https://creativecommons.org/licenses/by/2.0/","original_url":"https://perenual.com/storage/species_image/4177_hypericum_perforatum_topas/og/52590270020_4c19ea4a24_b.jpg","regular_url":"https://perenual.com/storage/species_image/4177_hypericum_perforatum_topas/regular/52590270020_4c19ea4a24_b.jpg","medium_url":"https://perenual.com/storage/species_image/4177_hypericum_perforatum_topas/medium/52590270020_4c19ea4a24_b.jpg","small_url":"https://perenual.com/storage/species_image/4177_hypericum_perforatum_topas/small/52590270020_4c19ea4a24_b.jpg","thumbnail":"https://perenual.com/storage/species_image/4177_hypericum_perforatum_topas/thumbnail/52590270020_4c19ea4a24_b.jpg"}},{"id":4169,"common_name":"hypericum","scientific_name":["Hypericum inodorum 'Kolsan' FLORALBERRY SANGRIA"],"other_name":null,"cycle":"Perennial","watering":"Average","sunlight":["Full sun","part shade"],"default_image":{"image_id":8440,"license":4,"license_name":"Attribution License","license_url":"https://creativecommons.org/licenses/by/2.0/","original_url":"https://perenual.com/storage/species_image/4169_hypericum_inodorum_kolsan_floralberry_sangria/og/52210855726_07c7e2323c_b.jpg","regular_url":"https://perenual.com/storage/species_image/4169_hypericum_inodorum_kolsan_floralberry_sangria/regular/52210855726_07c7e2323c_b.jpg","medium_url":"https://perenual.com/storage/species_image/4169_hypericum_inodorum_kolsan_floralberry_sangria/medium/52210855726_07c7e2323c_b.jpg","small_url":"https://perenual.com/storage/species_image/4169_hypericum_inodorum_kolsan_floralberry_sangria/small/52210855726_07c7e2323c_b.jpg","thumbnail":"https://perenual.com/storage/species_image/4169_hypericum_inodorum_kolsan_floralberry_sangria/thumbnail/52210855726_07c7e2323c_b.jpg"}},{"id":4170,"common_name":"Kalm's St. John's wort","scientific_name":["Hypericum kalmianum"],"other_name":null,"cycle":"Perennial","watering":"Frequent","sunlight":["Full sun","part shade"],"default_image":{"image_id":8446,"license":5,"license_name":"Attribution-ShareAlike License","license_url":"https://creativecommons.org/licenses/by-sa/2.0/","original_url":"https://perenual.com/storage/species_image/4170_hypericum_kalmianum/og/50025800571_c4ea75c77e_b.jpg","regular_url":"https://perenual.com/storage/species_image/4170_hypericum_kalmianum/regular/50025800571_c4ea75c77e_b.jpg","medium_url":"https://perenual.com/storage/species_image/4170_hypericum_kalmianum/medium/50025800571_c4ea75c77e_b.jpg","small_url":"https://perenual.com/storage/species_image/4170_hypericum_kalmianum/small/50025800571_c4ea75c77e_b.jpg","thumbnail":"https://perenual.com/storage/species_image/4170_hypericum_kalmianum/thumbnail/50025800571_c4ea75c77e_b.jpg"}}],"to":4170,"per_page":30,"current_page":139,"from":4141,"last_page":200,"total":6000}