{"data":[{"id":1201,"common_name":"begonia","scientific_name":["Begonia 'Dangling Pearls'"],"other_name":null,"cycle":"Perennial","watering":"Average","sunlight":["Part shade","full shade"],"default_image":{"image_id":9,"license":5,"license_name":"Attribution-ShareAlike License","license_url":"https://creativecommons.org/licenses/by-sa/2.0/","original_url":"https://perenual.com/storage/species_image/2_abies_alba_pyramidalis/og/49255769768_df55596553_b.jpg","regular_url":"https://perenual.com/storage/species_image/2_abies_alba_pyramidalis/regular/49255769768_df55596553_b.jpg","medium_url":"https://perenual.com/storage/species_image/2_abies_alba_pyramidalis/medium/49255769768_df55596553_b.jpg","small_url":"https://perenual.com/storage/species_image/2_abies_alba_pyramidalis/small/49255769768_df55596553_b.jpg","thumbnail":"https://perenual.com/storage/species_image/2_abies_alba_pyramidalis/thumbnail/49255769768_df55596553_b.jpg"}},{"id":1202,"common_name":"begonia","scientific_name":["Begonia 'Emerald Glow'"],"other_name":null,"cycle":"Perennial","watering":"Average","sunlight":["Part shade","full shade"],"default_image":{"image_id":9,"license":5,"license_name":"Attribution-ShareAlike License","license_url":"https://creativecommons.org/licenses/by-sa/2.0/","original_url":"https://perenual.com/storage/species_image/2_abies_alba_pyramidalis/og/49255769768_df55596553_b.jpg","regular_url":"https://perenual.com/storage/species_image/2_abies_alba_pyramidalis/regular/49255769768_df55596553_b.jpg","medium_url":"https://perenual.com/storage/species_image/2_abies_alba_pyramidalis/medium/49255769768_df55596553_b.jpg","small_url":"https://perenual.com/storage/species_image/2_abies_alba_pyramidalis/small/49255769768_df55596553_b.jpg","thumbnail":"https://perenual.com/storage/species_image/2_abies_alba_pyramidalis/thumbnail/49255769768_df55596553_b.jpg"}},{"id":1203,"common_name":"hybrid tuberous begonia","scientific_name":["Begonia FUNKY PINK"],"other_name":null,"cycle":"Perennial","watering":"Average","sunlight":["Part shade"],"default_image":{"image_id":9,"license":5,"license_name":"Attribution-ShareAlike License","license_url":"https://creativecommons.org/licenses/by-sa/2.0/","original_url":"https://perenual.com/storage/species_image/2_abies_alba_pyramidalis/og/49255769768_df55596553_b.jpg","regular_url":"https://perenual.com/storage/species_image/2_abies_alba_pyramidalis/regular/49255769768_df55596553_b.jpg","medium_url":"https://perenual.com/storage/species_image/2_abies_alba_pyramidalis/medium/49255769768_df55596553_b.jpg","small_url":"https://perenual.com/storage/species_image/2_abies_alba_pyramidalis/small/49255769768_df55596553_b.jpg","thumbnail":"https://perenual.com/storage/species_image/2_abies_alba_pyramidalis/thumbnail/49255769768_df55596553_b.jpg"}},{"id":1204,"common_name":"hardy begonia","scientific_name":["Begonia grandis"],"other_name":["giant begonia"],"cycle":"Perennial","watering":"Frequent","sunlight":["Deep shade"," Filtered shade"," Full sun only if soil kept moist"," Part sun/part shade"],"default_image":{"image_id":2845,"license":4,"license_name":"Attribution License","license_url":"https://creativecommons.org/licenses/by/2.0/","original_url":"https://perenual.com/storage/species_image/1204_begonia_grandis/og/50351525871_8929004bae_b.jpg","regular_url":"https://perenual.com/storage/species_image/1204_begonia_grandis/regular/50351525871_8929004bae_b.jpg","medium_url":"https://perenual.com/storage/species_image/1204_begonia_grandis/medium/50351525871_8929004bae_b.jpg","small_url":"https://perenual.com/storage/species_image/1204_begonia_grandis/small/50351525871_8929004bae_b.jpg","thumbnail":"https://perenual.com/storage/species_image/1204_begonia_grandis/thumbnail/50351525871_8929004bae_b.jpg"}},{"id":1205,"common_name":"hardy begonia","scientific_name":["Begonia grandis subsp. evansiana"],"other_name":["giant begonia"],"cycle":"Perennial","watering":"Frequent","sunlight":["Deep shade"," Filtered shade"," Full sun only if soil kept moist"," Part sun/part shade"],"default_image":{"image_id":2850,"license":4,"license_name":"Attribution License","license_url":"https://creativecommons.org/licenses/by/2.0/","original_url":"https://perenual.com/storage/species_image/1205_begonia_grandis_subsp_evansiana/og/3970623217_612770362c_b.jpg","regular_url":"https://perenual.com/storage/species_image/1205_begonia_grandis_subsp_evansiana/regular/3970623217_612770362c_b.jpg","medium_url":"https://perenual.com/storage/species_image/1205_begonia_grandis_subsp_evansiana/medium/3970623217_612770362c_b.jpg","small_url":"https://perenual.com/storage/species_image/1205_begonia_grandis_subsp_evansiana/small/3970623217_612770362c_b.jpg","thumbnail":"https://perenual.com/storage/species_image/1205_begonia_grandis_subsp_evansiana/thumbnail/3970623217_612770362c_b.jpg"}},{"id":1206,"common_name":"hardy begonia","scientific_name":["Begonia grandis subsp. evansiana 'Alba'"],"other_name":["giant begonia"],"cycle":"Perennial","watering":"Frequent","sunlight":["Deep shade"," Filtered shade"," Full sun only if soil kept moist"," Part sun/part shade"],"default_image":{"image_id":9,"license":5,"license_name":"Attribution-ShareAlike License","license_url":"https://creativecommons.org/licenses/by-sa/2.0/","original_url":"https://perenual.com/storage/species_image/2_abies_alba_pyramidalis/og/49255769768_df55596553_b.jpg","regular_url":"https://perenual.com/storage/species_image/2_abies_alba_pyramidalis/regular/49255769768_df55596553_b.jpg","medium_url":"https://perenual.com/storage/species_image/2_abies_alba_pyramidalis/medium/49255769768_df55596553_b.jpg","small_url":"https://perenual.com/storage/species_image/2_abies_alba_pyramidalis/small/49255769768_df55596553_b.jpg","thumbnail":"https://perenual.com/storage/species_image/2_abies_alba_pyramidalis/thumbnail/49255769768_df55596553_b.jpg"}},{"id":1207,"common_name":"hardy begonia","scientific_name":["Begonia grandis 'Wildwood Premier'"],"other_name":["giant begonia"],"cycle":"Perennial","watering":"Frequent","sunlight":["Deep shade"," Filtered shade"," Full sun only if soil kept moist"," Part sun/part shade"],"default_image":{"image_id":9,"license":5,"license_name":"Attribution-ShareAlike License","license_url":"https://creativecommons.org/licenses/by-sa/2.0/","original_url":"https://perenual.com/storage/species_image/2_abies_alba_pyramidalis/og/49255769768_df55596553_b.jpg","regular_url":"https://perenual.com/storage/species_image/2_abies_alba_pyramidalis/regular/49255769768_df55596553_b.jpg","medium_url":"https://perenual.com/storage/species_image/2_abies_alba_pyramidalis/medium/49255769768_df55596553_b.jpg","small_url":"https://perenual.com/storage/species_image/2_abies_alba_pyramidalis/small/49255769768_df55596553_b.jpg","thumbnail":"https://perenual.com/storage/species_image/2_abies_alba_pyramidalis/thumbnail/49255769768_df55596553_b.jpg"}},{"id":1208,"common_name":"begonia","scientific_name":["Begonia 'Green Gold'"],"other_name":null,"cycle":"Perennial","watering":"Average","sunlight":["Full sun","part shade"],"default_image":{"image_id":21807,"license":45,"license_name":"Attribution-ShareAlike 3.0 Unported (CC BY-SA 3.0)","license_url":"https://creativecommons.org/licenses/by-sa/3.0/deed.en","original_url":"https://perenual.com/storage/species_image/1208_begonia_green_gold/og/Begonia_%28Rex-hybrid%29_%27Merry_Christmas%27_02.jpg","regular_url":"https://perenual.com/storage/species_image/1208_begonia_green_gold/regular/Begonia_%28Rex-hybrid%29_%27Merry_Christmas%27_02.jpg","medium_url":"https://perenual.com/storage/species_image/1208_begonia_green_gold/medium/Begonia_%28Rex-hybrid%29_%27Merry_Christmas%27_02.jpg","small_url":"https://perenual.com/storage/species_image/1208_begonia_green_gold/small/Begonia_%28Rex-hybrid%29_%27Merry_Christmas%27_02.jpg","thumbnail":"https://perenual.com/storage/species_image/1208_begonia_green_gold/thumbnail/Begonia_%28Rex-hybrid%29_%27Merry_Christmas%27_02.jpg"}},{"id":1209,"common_name":"begonia","scientific_name":["Begonia 'Gryphon'"],"other_name":null,"cycle":"Perennial","watering":"Average","sunlight":["Part shade","full shade"],"default_image":{"image_id":2856,"license":4,"license_name":"Attribution License","license_url":"https://creativecommons.org/licenses/by/2.0/","original_url":"https://perenual.com/storage/species_image/1209_begonia_gryphon/og/9656051530_21f82c3dc7_b.jpg","regular_url":"https://perenual.com/storage/species_image/1209_begonia_gryphon/regular/9656051530_21f82c3dc7_b.jpg","medium_url":"https://perenual.com/storage/species_image/1209_begonia_gryphon/medium/9656051530_21f82c3dc7_b.jpg","small_url":"https://perenual.com/storage/species_image/1209_begonia_gryphon/small/9656051530_21f82c3dc7_b.jpg","thumbnail":"https://perenual.com/storage/species_image/1209_begonia_gryphon/thumbnail/9656051530_21f82c3dc7_b.jpg"}},{"id":1210,"common_name":"begonia","scientific_name":["Begonia 'Lime Royale'"],"other_name":null,"cycle":"Perennial","watering":"Average","sunlight":["Part shade","full shade"],"default_image":{"image_id":9,"license":5,"license_name":"Attribution-ShareAlike License","license_url":"https://creativecommons.org/licenses/by-sa/2.0/","original_url":"https://perenual.com/storage/species_image/2_abies_alba_pyramidalis/og/49255769768_df55596553_b.jpg","regular_url":"https://perenual.com/storage/species_image/2_abies_alba_pyramidalis/regular/49255769768_df55596553_b.jpg","medium_url":"https://perenual.com/storage/species_image/2_abies_alba_pyramidalis/medium/49255769768_df55596553_b.jpg","small_url":"https://perenual.com/storage/species_image/2_abies_alba_pyramidalis/small/49255769768_df55596553_b.jpg","thumbnail":"https://perenual.com/storage/species_image/2_abies_alba_pyramidalis/thumbnail/49255769768_df55596553_b.jpg"}},{"id":1211,"common_name":"begonia","scientific_name":["Begonia 'Martha Stewart'"],"other_name":null,"cycle":"Perennial","watering":"Average","sunlight":["Part shade","full shade"],"default_image":{"image_id":2857,"license":5,"license_name":"Attribution-ShareAlike License","license_url":"https://creativecommons.org/licenses/by-sa/2.0/","original_url":"https://perenual.com/storage/species_image/1211_begonia_martha_stewart/og/52599838828_d48aa4283c_b.jpg","regular_url":"https://perenual.com/storage/species_image/1211_begonia_martha_stewart/regular/52599838828_d48aa4283c_b.jpg","medium_url":"https://perenual.com/storage/species_image/1211_begonia_martha_stewart/medium/52599838828_d48aa4283c_b.jpg","small_url":"https://perenual.com/storage/species_image/1211_begonia_martha_stewart/small/52599838828_d48aa4283c_b.jpg","thumbnail":"https://perenual.com/storage/species_image/1211_begonia_martha_stewart/thumbnail/52599838828_d48aa4283c_b.jpg"}},{"id":1212,"common_name":"iron cross begonia","scientific_name":["Begonia masoniana"],"other_name":null,"cycle":"Perennial","watering":"Average","sunlight":["Part sun/part shade"," Sheltered"],"default_image":{"image_id":9,"license":5,"license_name":"Attribution-ShareAlike License","license_url":"https://creativecommons.org/licenses/by-sa/2.0/","original_url":"https://perenual.com/storage/species_image/2_abies_alba_pyramidalis/og/49255769768_df55596553_b.jpg","regular_url":"https://perenual.com/storage/species_image/2_abies_alba_pyramidalis/regular/49255769768_df55596553_b.jpg","medium_url":"https://perenual.com/storage/species_image/2_abies_alba_pyramidalis/medium/49255769768_df55596553_b.jpg","small_url":"https://perenual.com/storage/species_image/2_abies_alba_pyramidalis/small/49255769768_df55596553_b.jpg","thumbnail":"https://perenual.com/storage/species_image/2_abies_alba_pyramidalis/thumbnail/49255769768_df55596553_b.jpg"}},{"id":1213,"common_name":"begonia","scientific_name":["Begonia 'Penny Lahn'"],"other_name":null,"cycle":"Perennial","watering":"Average","sunlight":["Part shade","full shade"],"default_image":{"image_id":2832,"license":4,"license_name":"Attribution License","license_url":"https://creativecommons.org/licenses/by/2.0/","original_url":"https://perenual.com/storage/species_image/1213_begonia_penny_lahn/og/52496552436_073086053b_b.jpg","regular_url":"https://perenual.com/storage/species_image/1213_begonia_penny_lahn/regular/52496552436_073086053b_b.jpg","medium_url":"https://perenual.com/storage/species_image/1213_begonia_penny_lahn/medium/52496552436_073086053b_b.jpg","small_url":"https://perenual.com/storage/species_image/1213_begonia_penny_lahn/small/52496552436_073086053b_b.jpg","thumbnail":"https://perenual.com/storage/species_image/1213_begonia_penny_lahn/thumbnail/52496552436_073086053b_b.jpg"}},{"id":1214,"common_name":"rex begonia","scientific_name":["Begonia rex-cultorum"],"other_name":null,"cycle":"Perennial","watering":"Average","sunlight":["Part shade","full shade"],"default_image":{"image_id":2862,"license":4,"license_name":"Attribution License","license_url":"https://creativecommons.org/licenses/by/2.0/","original_url":"https://perenual.com/storage/species_image/1214_begonia_rex-cultorum/og/28485232700_2b71265572_b.jpg","regular_url":"https://perenual.com/storage/species_image/1214_begonia_rex-cultorum/regular/28485232700_2b71265572_b.jpg","medium_url":"https://perenual.com/storage/species_image/1214_begonia_rex-cultorum/medium/28485232700_2b71265572_b.jpg","small_url":"https://perenual.com/storage/species_image/1214_begonia_rex-cultorum/small/28485232700_2b71265572_b.jpg","thumbnail":"https://perenual.com/storage/species_image/1214_begonia_rex-cultorum/thumbnail/28485232700_2b71265572_b.jpg"}},{"id":1215,"common_name":"rex begonia","scientific_name":["Begonia rex-cultorum 'Super Curl'"],"other_name":null,"cycle":"Perennial","watering":"Average","sunlight":["Full sun","part shade"],"default_image":{"image_id":2863,"license":4,"license_name":"Attribution License","license_url":"https://creativecommons.org/licenses/by/2.0/","original_url":"https://perenual.com/storage/species_image/1224_begonia_tuberhybrida_jurassic_silver_swirl/og/28152488224_06e2aca626_b.jpg","regular_url":"https://perenual.com/storage/species_image/1224_begonia_tuberhybrida_jurassic_silver_swirl/regular/28152488224_06e2aca626_b.jpg","medium_url":"https://perenual.com/storage/species_image/1224_begonia_tuberhybrida_jurassic_silver_swirl/medium/28152488224_06e2aca626_b.jpg","small_url":"https://perenual.com/storage/species_image/1224_begonia_tuberhybrida_jurassic_silver_swirl/small/28152488224_06e2aca626_b.jpg","thumbnail":"https://perenual.com/storage/species_image/1224_begonia_tuberhybrida_jurassic_silver_swirl/thumbnail/28152488224_06e2aca626_b.jpg"}},{"id":1216,"common_name":"begonia","scientific_name":["Begonia 'River Nile'"],"other_name":null,"cycle":"Perennial","watering":"Average","sunlight":["Part shade","full shade"],"default_image":{"image_id":2865,"license":4,"license_name":"Attribution License","license_url":"https://creativecommons.org/licenses/by/2.0/","original_url":"https://perenual.com/storage/species_image/1216_begonia_river_nile/og/48273820461_444a667bea_b.jpg","regular_url":"https://perenual.com/storage/species_image/1216_begonia_river_nile/regular/48273820461_444a667bea_b.jpg","medium_url":"https://perenual.com/storage/species_image/1216_begonia_river_nile/medium/48273820461_444a667bea_b.jpg","small_url":"https://perenual.com/storage/species_image/1216_begonia_river_nile/small/48273820461_444a667bea_b.jpg","thumbnail":"https://perenual.com/storage/species_image/1216_begonia_river_nile/thumbnail/48273820461_444a667bea_b.jpg"}},{"id":1217,"common_name":"begonia","scientific_name":["Begonia (Semperflorens Cultorum Group)"],"other_name":null,"cycle":"Perennial","watering":"Average","sunlight":["Full sun","part shade"],"default_image":{"image_id":2866,"license":4,"license_name":"Attribution License","license_url":"https://creativecommons.org/licenses/by/2.0/","original_url":"https://perenual.com/storage/species_image/1217_begonia_semperflorens_cultorum_group/og/28769541485_d149269ecc_b.jpg","regular_url":"https://perenual.com/storage/species_image/1217_begonia_semperflorens_cultorum_group/regular/28769541485_d149269ecc_b.jpg","medium_url":"https://perenual.com/storage/species_image/1217_begonia_semperflorens_cultorum_group/medium/28769541485_d149269ecc_b.jpg","small_url":"https://perenual.com/storage/species_image/1217_begonia_semperflorens_cultorum_group/small/28769541485_d149269ecc_b.jpg","thumbnail":"https://perenual.com/storage/species_image/1217_begonia_semperflorens_cultorum_group/thumbnail/28769541485_d149269ecc_b.jpg"}},{"id":1218,"common_name":"begonia","scientific_name":["Begonia semperflorens 'Senator Deep Rose'"],"other_name":null,"cycle":"Perennial","watering":"Average","sunlight":["Full sun","part shade"],"default_image":{"image_id":2867,"license":4,"license_name":"Attribution License","license_url":"https://creativecommons.org/licenses/by/2.0/","original_url":"https://perenual.com/storage/species_image/1218_begonia_semperflorens_senator_deep_rose/og/8884235929_8f2eaa2082_b.jpg","regular_url":"https://perenual.com/storage/species_image/1218_begonia_semperflorens_senator_deep_rose/regular/8884235929_8f2eaa2082_b.jpg","medium_url":"https://perenual.com/storage/species_image/1218_begonia_semperflorens_senator_deep_rose/medium/8884235929_8f2eaa2082_b.jpg","small_url":"https://perenual.com/storage/species_image/1218_begonia_semperflorens_senator_deep_rose/small/8884235929_8f2eaa2082_b.jpg","thumbnail":"https://perenual.com/storage/species_image/1218_begonia_semperflorens_senator_deep_rose/thumbnail/8884235929_8f2eaa2082_b.jpg"}},{"id":1219,"common_name":"wax begonia","scientific_name":["Begonia semperflorens-cultorum 'Harmony Scarlet'"],"other_name":null,"cycle":"Perennial","watering":"Average","sunlight":["Full sun","part shade"],"default_image":{"image_id":2869,"license":4,"license_name":"Attribution License","license_url":"https://creativecommons.org/licenses/by/2.0/","original_url":"https://perenual.com/storage/species_image/1219_begonia_semperflorens-cultorum_harmony_scarlet/og/51577380672_f496c3f7c8_b.jpg","regular_url":"https://perenual.com/storage/species_image/1219_begonia_semperflorens-cultorum_harmony_scarlet/regular/51577380672_f496c3f7c8_b.jpg","medium_url":"https://perenual.com/storage/species_image/1219_begonia_semperflorens-cultorum_harmony_scarlet/medium/51577380672_f496c3f7c8_b.jpg","small_url":"https://perenual.com/storage/species_image/1219_begonia_semperflorens-cultorum_harmony_scarlet/small/51577380672_f496c3f7c8_b.jpg","thumbnail":"https://perenual.com/storage/species_image/1219_begonia_semperflorens-cultorum_harmony_scarlet/thumbnail/51577380672_f496c3f7c8_b.jpg"}},{"id":1220,"common_name":"angelwing begonia","scientific_name":["Begonia 'Sinbad'"],"other_name":null,"cycle":"Perennial","watering":"Average","sunlight":["Part shade","full shade"],"default_image":{"image_id":2870,"license":5,"license_name":"Attribution-ShareAlike License","license_url":"https://creativecommons.org/licenses/by-sa/2.0/","original_url":"https://perenual.com/storage/species_image/1220_begonia_sinbad/og/3789073932_9453547ff0_b.jpg","regular_url":"https://perenual.com/storage/species_image/1220_begonia_sinbad/regular/3789073932_9453547ff0_b.jpg","medium_url":"https://perenual.com/storage/species_image/1220_begonia_sinbad/medium/3789073932_9453547ff0_b.jpg","small_url":"https://perenual.com/storage/species_image/1220_begonia_sinbad/small/3789073932_9453547ff0_b.jpg","thumbnail":"https://perenual.com/storage/species_image/1220_begonia_sinbad/thumbnail/3789073932_9453547ff0_b.jpg"}},{"id":1221,"common_name":"begonia","scientific_name":["Begonia 'Solar Flare'"],"other_name":null,"cycle":"Perennial","watering":"Average","sunlight":["Part shade"],"default_image":{"image_id":9,"license":5,"license_name":"Attribution-ShareAlike License","license_url":"https://creativecommons.org/licenses/by-sa/2.0/","original_url":"https://perenual.com/storage/species_image/2_abies_alba_pyramidalis/og/49255769768_df55596553_b.jpg","regular_url":"https://perenual.com/storage/species_image/2_abies_alba_pyramidalis/regular/49255769768_df55596553_b.jpg","medium_url":"https://perenual.com/storage/species_image/2_abies_alba_pyramidalis/medium/49255769768_df55596553_b.jpg","small_url":"https://perenual.com/storage/species_image/2_abies_alba_pyramidalis/small/49255769768_df55596553_b.jpg","thumbnail":"https://perenual.com/storage/species_image/2_abies_alba_pyramidalis/thumbnail/49255769768_df55596553_b.jpg"}},{"id":1222,"common_name":"angelwing begonia","scientific_name":["Begonia 'Sophia'"],"other_name":null,"cycle":"Perennial","watering":"Average","sunlight":["Part shade"],"default_image":{"image_id":21004,"license":45,"license_name":"Attribution-ShareAlike 3.0 Unported (CC BY-SA 3.0)","license_url":"https://creativecommons.org/licenses/by-sa/3.0/deed.en","original_url":"https://perenual.com/storage/species_image/1222_begonia_sophia/og/Begonia_%27Sophie_C%C3%A9cile%27_1.jpg","regular_url":"https://perenual.com/storage/species_image/1222_begonia_sophia/regular/Begonia_%27Sophie_C%C3%A9cile%27_1.jpg","medium_url":"https://perenual.com/storage/species_image/1222_begonia_sophia/medium/Begonia_%27Sophie_C%C3%A9cile%27_1.jpg","small_url":"https://perenual.com/storage/species_image/1222_begonia_sophia/small/Begonia_%27Sophie_C%C3%A9cile%27_1.jpg","thumbnail":"https://perenual.com/storage/species_image/1222_begonia_sophia/thumbnail/Begonia_%27Sophie_C%C3%A9cile%27_1.jpg"}},{"id":1223,"common_name":"hybrid tuberous begonia","scientific_name":["Begonia tuberhybrida 'Jurassic Pink Splash'"],"other_name":null,"cycle":"Perennial","watering":"Average","sunlight":["Part shade","full shade"],"default_image":{"image_id":21808,"license":4,"license_name":"Attribution License","license_url":"https://creativecommons.org/licenses/by/2.0/","original_url":"https://perenual.com/storage/species_image/1223_begonia_tuberhybrida_jurassic_pink_splash/og/22656824786_be81bc2887_b.jpg","regular_url":"https://perenual.com/storage/species_image/1223_begonia_tuberhybrida_jurassic_pink_splash/regular/22656824786_be81bc2887_b.jpg","medium_url":"https://perenual.com/storage/species_image/1223_begonia_tuberhybrida_jurassic_pink_splash/medium/22656824786_be81bc2887_b.jpg","small_url":"https://perenual.com/storage/species_image/1223_begonia_tuberhybrida_jurassic_pink_splash/small/22656824786_be81bc2887_b.jpg","thumbnail":"https://perenual.com/storage/species_image/1223_begonia_tuberhybrida_jurassic_pink_splash/thumbnail/22656824786_be81bc2887_b.jpg"}},{"id":1224,"common_name":"hybrid tuberous begonia","scientific_name":["Begonia tuberhybrida 'Jurassic Silver Swirl'"],"other_name":null,"cycle":"Perennial","watering":"Average","sunlight":["Part shade","full shade"],"default_image":{"image_id":2863,"license":4,"license_name":"Attribution License","license_url":"https://creativecommons.org/licenses/by/2.0/","original_url":"https://perenual.com/storage/species_image/1224_begonia_tuberhybrida_jurassic_silver_swirl/og/28152488224_06e2aca626_b.jpg","regular_url":"https://perenual.com/storage/species_image/1224_begonia_tuberhybrida_jurassic_silver_swirl/regular/28152488224_06e2aca626_b.jpg","medium_url":"https://perenual.com/storage/species_image/1224_begonia_tuberhybrida_jurassic_silver_swirl/medium/28152488224_06e2aca626_b.jpg","small_url":"https://perenual.com/storage/species_image/1224_begonia_tuberhybrida_jurassic_silver_swirl/small/28152488224_06e2aca626_b.jpg","thumbnail":"https://perenual.com/storage/species_image/1224_begonia_tuberhybrida_jurassic_silver_swirl/thumbnail/28152488224_06e2aca626_b.jpg"}},{"id":1225,"common_name":"begonia","scientific_name":["Begonia tuberosa 'Fortune Peach Shades'"],"other_name":null,"cycle":"Perennial","watering":"Average","sunlight":["Part shade"],"default_image":{"image_id":9,"license":5,"license_name":"Attribution-ShareAlike License","license_url":"https://creativecommons.org/licenses/by-sa/2.0/","original_url":"https://perenual.com/storage/species_image/2_abies_alba_pyramidalis/og/49255769768_df55596553_b.jpg","regular_url":"https://perenual.com/storage/species_image/2_abies_alba_pyramidalis/regular/49255769768_df55596553_b.jpg","medium_url":"https://perenual.com/storage/species_image/2_abies_alba_pyramidalis/medium/49255769768_df55596553_b.jpg","small_url":"https://perenual.com/storage/species_image/2_abies_alba_pyramidalis/small/49255769768_df55596553_b.jpg","thumbnail":"https://perenual.com/storage/species_image/2_abies_alba_pyramidalis/thumbnail/49255769768_df55596553_b.jpg"}},{"id":1226,"common_name":"hybrid tuberous begonia","scientific_name":["Begonia (Tuberosa Group)"],"other_name":null,"cycle":"Perennial","watering":"Average","sunlight":["Part shade"],"default_image":{"image_id":9,"license":5,"license_name":"Attribution-ShareAlike License","license_url":"https://creativecommons.org/licenses/by-sa/2.0/","original_url":"https://perenual.com/storage/species_image/2_abies_alba_pyramidalis/og/49255769768_df55596553_b.jpg","regular_url":"https://perenual.com/storage/species_image/2_abies_alba_pyramidalis/regular/49255769768_df55596553_b.jpg","medium_url":"https://perenual.com/storage/species_image/2_abies_alba_pyramidalis/medium/49255769768_df55596553_b.jpg","small_url":"https://perenual.com/storage/species_image/2_abies_alba_pyramidalis/small/49255769768_df55596553_b.jpg","thumbnail":"https://perenual.com/storage/species_image/2_abies_alba_pyramidalis/thumbnail/49255769768_df55596553_b.jpg"}},{"id":1227,"common_name":"English daisy","scientific_name":["Bellis perennis"],"other_name":["English Daisy"],"cycle":"Perennial","watering":"Average","sunlight":[],"default_image":{"image_id":2873,"license":4,"license_name":"Attribution License","license_url":"https://creativecommons.org/licenses/by/2.0/","original_url":"https://perenual.com/storage/species_image/1227_bellis_perennis/og/52596198660_443c34ed63_b.jpg","regular_url":"https://perenual.com/storage/species_image/1227_bellis_perennis/regular/52596198660_443c34ed63_b.jpg","medium_url":"https://perenual.com/storage/species_image/1227_bellis_perennis/medium/52596198660_443c34ed63_b.jpg","small_url":"https://perenual.com/storage/species_image/1227_bellis_perennis/small/52596198660_443c34ed63_b.jpg","thumbnail":"https://perenual.com/storage/species_image/1227_bellis_perennis/thumbnail/52596198660_443c34ed63_b.jpg"}},{"id":1228,"common_name":"English daisy","scientific_name":["Bellis perennis 'PAS285179' BELLISSIMA RED"],"other_name":["English Daisy"],"cycle":"Perennial","watering":"Average","sunlight":[],"default_image":{"image_id":9,"license":5,"license_name":"Attribution-ShareAlike License","license_url":"https://creativecommons.org/licenses/by-sa/2.0/","original_url":"https://perenual.com/storage/species_image/2_abies_alba_pyramidalis/og/49255769768_df55596553_b.jpg","regular_url":"https://perenual.com/storage/species_image/2_abies_alba_pyramidalis/regular/49255769768_df55596553_b.jpg","medium_url":"https://perenual.com/storage/species_image/2_abies_alba_pyramidalis/medium/49255769768_df55596553_b.jpg","small_url":"https://perenual.com/storage/species_image/2_abies_alba_pyramidalis/small/49255769768_df55596553_b.jpg","thumbnail":"https://perenual.com/storage/species_image/2_abies_alba_pyramidalis/thumbnail/49255769768_df55596553_b.jpg"}},{"id":1229,"common_name":"wax gourd","scientific_name":["Benincasa hispida"],"other_name":null,"cycle":"Perennial","watering":"Average","sunlight":["Full sun"],"default_image":{"image_id":2883,"license":6,"license_name":"Attribution-NoDerivs License","license_url":"https://creativecommons.org/licenses/by-nd/2.0/","original_url":"https://perenual.com/storage/species_image/1229_benincasa_hispida/og/14397805714_f84f9abde5_b.jpg"}},{"id":1230,"common_name":"holly-leaved barberry","scientific_name":["Berberis aquifolium"],"other_name":null,"cycle":"Perennial","watering":"Average","sunlight":["Part shade","full shade"],"default_image":{"image_id":2885,"license":4,"license_name":"Attribution License","license_url":"https://creativecommons.org/licenses/by/2.0/","original_url":"https://perenual.com/storage/species_image/1230_berberis_aquifolium/og/51093554136_76d8dd16c9_b.jpg","regular_url":"https://perenual.com/storage/species_image/1230_berberis_aquifolium/regular/51093554136_76d8dd16c9_b.jpg","medium_url":"https://perenual.com/storage/species_image/1230_berberis_aquifolium/medium/51093554136_76d8dd16c9_b.jpg","small_url":"https://perenual.com/storage/species_image/1230_berberis_aquifolium/small/51093554136_76d8dd16c9_b.jpg","thumbnail":"https://perenual.com/storage/species_image/1230_berberis_aquifolium/thumbnail/51093554136_76d8dd16c9_b.jpg"}}],"to":1230,"per_page":30,"current_page":41,"from":1201,"last_page":200,"total":6000}