{
  "data": [
    {
      "id": 1861,
      "common_name": "garden mum",
      "scientific_name": ["Chrysanthemum morifolium 'Bedazzled Bronze'"],
      "other_name": null,
      "cycle": "Perennial",
      "watering": "Average",
      "sunlight": ["Full sun"],
      "default_image": {
        "license": 45,
        "license_name": "Attribution-ShareAlike 3.0 Unported (CC BY-SA 3.0)",
        "license_url": "https://creativecommons.org/licenses/by-sa/3.0/deed.en",
        "original_url": "https://perenual.com/storage/species_image/1861_chrysanthemum_morifolium_bedazzled_bronze/og/Chrysanthemum_morifolium_4.jpg",
        "regular_url": "https://perenual.com/storage/species_image/1861_chrysanthemum_morifolium_bedazzled_bronze/regular/Chrysanthemum_morifolium_4.jpg",
        "medium_url": "https://perenual.com/storage/species_image/1861_chrysanthemum_morifolium_bedazzled_bronze/medium/Chrysanthemum_morifolium_4.jpg",
        "small_url": "https://perenual.com/storage/species_image/1861_chrysanthemum_morifolium_bedazzled_bronze/small/Chrysanthemum_morifolium_4.jpg",
        "thumbnail": "https://perenual.com/storage/species_image/1861_chrysanthemum_morifolium_bedazzled_bronze/thumbnail/Chrysanthemum_morifolium_4.jpg"
      }
    },
    {
      "id": 1862,
      "common_name": "daisy garden mum",
      "scientific_name": ["Chrysanthemum 'Niche's October Glow'"],
      "other_name": null,
      "cycle": "Perennial",
      "watering": "Average",
      "sunlight": ["Full sun"],
      "default_image": null
    },
    {
      "id": 1863,
      "common_name": "chrysanthemum",
      "scientific_name": ["Chrysanthemum 'Pumpkin Igloo'"],
      "other_name": null,
      "cycle": "Perennial",
      "watering": "Average",
      "sunlight": ["Full sun"],
      "default_image": {
        "license": 4,
        "license_name": "Attribution License",
        "license_url": "https://creativecommons.org/licenses/by/2.0/",
        "original_url": "https://perenual.com/storage/species_image/1863_chrysanthemum_pumpkin_igloo/og/52498292477_bc5732c995_b.jpg",
        "regular_url": "https://perenual.com/storage/species_image/1863_chrysanthemum_pumpkin_igloo/regular/52498292477_bc5732c995_b.jpg",
        "medium_url": "https://perenual.com/storage/species_image/1863_chrysanthemum_pumpkin_igloo/medium/52498292477_bc5732c995_b.jpg",
        "small_url": "https://perenual.com/storage/species_image/1863_chrysanthemum_pumpkin_igloo/small/52498292477_bc5732c995_b.jpg",
        "thumbnail": "https://perenual.com/storage/species_image/1863_chrysanthemum_pumpkin_igloo/thumbnail/52498292477_bc5732c995_b.jpg"
      }
    },
    {
      "id": 1864,
      "common_name": "chrysanthemum",
      "scientific_name": ["Chrysanthemum 'Radiant Igloo'"],
      "other_name": null,
      "cycle": "Perennial",
      "watering": "Average",
      "sunlight": ["Full sun"],
      "default_image": null
    },
    {
      "id": 1865,
      "common_name": "chrysanthemum",
      "scientific_name": ["Chrysanthemum 'Roadrunner Bronze'"],
      "other_name": null,
      "cycle": "Perennial",
      "watering": "Average",
      "sunlight": ["Full sun"],
      "default_image": {
        "license": 5,
        "license_name": "Attribution-ShareAlike License",
        "license_url": "https://creativecommons.org/licenses/by-sa/2.0/",
        "original_url": "https://perenual.com/storage/species_image/2_abies_alba_pyramidalis/og/49255769768_df55596553_b.jpg",
        "regular_url": "https://perenual.com/storage/species_image/2_abies_alba_pyramidalis/regular/49255769768_df55596553_b.jpg",
        "medium_url": "https://perenual.com/storage/species_image/2_abies_alba_pyramidalis/medium/49255769768_df55596553_b.jpg",
        "small_url": "https://perenual.com/storage/species_image/2_abies_alba_pyramidalis/small/49255769768_df55596553_b.jpg",
        "thumbnail": "https://perenual.com/storage/species_image/2_abies_alba_pyramidalis/thumbnail/49255769768_df55596553_b.jpg"
      }
    },
    {
      "id": 1866,
      "common_name": "mum",
      "scientific_name": ["Chrysanthemum 'Saxapahaw'"],
      "other_name": null,
      "cycle": "Perennial",
      "watering": "Average",
      "sunlight": ["Full sun"],
      "default_image": null
    },
    {
      "id": 1867,
      "common_name": "mum",
      "scientific_name": ["Chrysanthemum 'Virginia's Sunshine'"],
      "other_name": null,
      "cycle": "Perennial",
      "watering": "Average",
      "sunlight": ["Full sun"],
      "default_image": {
        "license": 6,
        "license_name": "Attribution-NoDerivs License",
        "license_url": "https://creativecommons.org/licenses/by-nd/2.0/",
        "original_url": "https://perenual.com/storage/species_image/1867_chrysanthemum_virginias_sunshine/og/52082469690_2a1ab4987e_b.jpg"
      }
    },
    {
      "id": 1868,
      "common_name": "chrysanthemum",
      "scientific_name": ["Chrysanthemum 'Yobra' BRAVO"],
      "other_name": null,
      "cycle": "Perennial",
      "watering": "Average",
      "sunlight": ["Full sun"],
      "default_image": {
        "license": 4,
        "license_name": "Attribution License",
        "license_url": "https://creativecommons.org/licenses/by/2.0/",
        "original_url": "https://perenual.com/storage/species_image/1868_chrysanthemum_yobra_bravo/og/52490115127_4f2864351f_b.jpg",
        "regular_url": "https://perenual.com/storage/species_image/1868_chrysanthemum_yobra_bravo/regular/52490115127_4f2864351f_b.jpg",
        "medium_url": "https://perenual.com/storage/species_image/1868_chrysanthemum_yobra_bravo/medium/52490115127_4f2864351f_b.jpg",
        "small_url": "https://perenual.com/storage/species_image/1868_chrysanthemum_yobra_bravo/small/52490115127_4f2864351f_b.jpg",
        "thumbnail": "https://perenual.com/storage/species_image/1868_chrysanthemum_yobra_bravo/thumbnail/52490115127_4f2864351f_b.jpg"
      }
    },
    {
      "id": 1869,
      "common_name": "chrysanthemum",
      "scientific_name": ["Chrysanthemum 'Yobrandi' BRANDI"],
      "other_name": null,
      "cycle": "Perennial",
      "watering": "Average",
      "sunlight": ["Full sun"],
      "default_image": {
        "license": 4,
        "license_name": "Attribution License",
        "license_url": "https://creativecommons.org/licenses/by/2.0/",
        "original_url": "https://perenual.com/storage/species_image/1855_chrysanthemum_fireworks_igloo/og/52490883914_96f0252e60_b.jpg",
        "regular_url": "https://perenual.com/storage/species_image/1855_chrysanthemum_fireworks_igloo/regular/52490883914_96f0252e60_b.jpg",
        "medium_url": "https://perenual.com/storage/species_image/1855_chrysanthemum_fireworks_igloo/medium/52490883914_96f0252e60_b.jpg",
        "small_url": "https://perenual.com/storage/species_image/1855_chrysanthemum_fireworks_igloo/small/52490883914_96f0252e60_b.jpg",
        "thumbnail": "https://perenual.com/storage/species_image/1855_chrysanthemum_fireworks_igloo/thumbnail/52490883914_96f0252e60_b.jpg"
      }
    },
    {
      "id": 1870,
      "common_name": "chrysanthemum",
      "scientific_name": ["Chrysanthemum 'Yogin' GINGER"],
      "other_name": null,
      "cycle": "Perennial",
      "watering": "Average",
      "sunlight": ["Full sun"],
      "default_image": {
        "license": 5,
        "license_name": "Attribution-ShareAlike License",
        "license_url": "https://creativecommons.org/licenses/by-sa/2.0/",
        "original_url": "https://perenual.com/storage/species_image/2_abies_alba_pyramidalis/og/49255769768_df55596553_b.jpg",
        "regular_url": "https://perenual.com/storage/species_image/2_abies_alba_pyramidalis/regular/49255769768_df55596553_b.jpg",
        "medium_url": "https://perenual.com/storage/species_image/2_abies_alba_pyramidalis/medium/49255769768_df55596553_b.jpg",
        "small_url": "https://perenual.com/storage/species_image/2_abies_alba_pyramidalis/small/49255769768_df55596553_b.jpg",
        "thumbnail": "https://perenual.com/storage/species_image/2_abies_alba_pyramidalis/thumbnail/49255769768_df55596553_b.jpg"
      }
    },
    {
      "id": 1871,
      "common_name": "chrysanthemum",
      "scientific_name": ["Chrysanthemum 'Yogrena' GRENADINE"],
      "other_name": null,
      "cycle": "Perennial",
      "watering": "Average",
      "sunlight": ["Full sun"],
      "default_image": {
        "license": 451,
        "license_name": "CC0 1.0 Universal (CC0 1.0) Public Domain Dedication",
        "license_url": "https://creativecommons.org/publicdomain/zero/1.0/",
        "original_url": "https://perenual.com/storage/species_image/1871_chrysanthemum_yogrena_grenadine/og/g20a34d9a43fd3fe5557dc7e76de44fcbc1f2a32356b3018467fb1b19d739358a5b6cf0b12b5bea8cc676f723a1e703e7e74fa5a769a6902ec38e069a37cf76d4_1280.jpg",
        "regular_url": "https://perenual.com/storage/species_image/1871_chrysanthemum_yogrena_grenadine/regular/g20a34d9a43fd3fe5557dc7e76de44fcbc1f2a32356b3018467fb1b19d739358a5b6cf0b12b5bea8cc676f723a1e703e7e74fa5a769a6902ec38e069a37cf76d4_1280.jpg",
        "medium_url": "https://perenual.com/storage/species_image/1871_chrysanthemum_yogrena_grenadine/medium/g20a34d9a43fd3fe5557dc7e76de44fcbc1f2a32356b3018467fb1b19d739358a5b6cf0b12b5bea8cc676f723a1e703e7e74fa5a769a6902ec38e069a37cf76d4_1280.jpg",
        "small_url": "https://perenual.com/storage/species_image/1871_chrysanthemum_yogrena_grenadine/small/g20a34d9a43fd3fe5557dc7e76de44fcbc1f2a32356b3018467fb1b19d739358a5b6cf0b12b5bea8cc676f723a1e703e7e74fa5a769a6902ec38e069a37cf76d4_1280.jpg",
        "thumbnail": "https://perenual.com/storage/species_image/1871_chrysanthemum_yogrena_grenadine/thumbnail/g20a34d9a43fd3fe5557dc7e76de44fcbc1f2a32356b3018467fb1b19d739358a5b6cf0b12b5bea8cc676f723a1e703e7e74fa5a769a6902ec38e069a37cf76d4_1280.jpg"
      }
    },
    {
      "id": 1872,
      "common_name": "decorative garden mum",
      "scientific_name": ["Chrysanthemum 'Yohannah' HANNAH"],
      "other_name": null,
      "cycle": "Perennial",
      "watering": "Average",
      "sunlight": ["Full sun"],
      "default_image": {
        "license": 5,
        "license_name": "Attribution-ShareAlike License",
        "license_url": "https://creativecommons.org/licenses/by-sa/2.0/",
        "original_url": "https://perenual.com/storage/species_image/1872_chrysanthemum_yohannah_hannah/og/50533014633_2341b7bb8e_b.jpg",
        "regular_url": "https://perenual.com/storage/species_image/1872_chrysanthemum_yohannah_hannah/regular/50533014633_2341b7bb8e_b.jpg",
        "medium_url": "https://perenual.com/storage/species_image/1872_chrysanthemum_yohannah_hannah/medium/50533014633_2341b7bb8e_b.jpg",
        "small_url": "https://perenual.com/storage/species_image/1872_chrysanthemum_yohannah_hannah/small/50533014633_2341b7bb8e_b.jpg",
        "thumbnail": "https://perenual.com/storage/species_image/1872_chrysanthemum_yohannah_hannah/thumbnail/50533014633_2341b7bb8e_b.jpg"
      }
    },
    {
      "id": 1873,
      "common_name": "chrysanthemum",
      "scientific_name": ["Chrysanthemum 'Yoraquel' RAQUEL"],
      "other_name": null,
      "cycle": "Perennial",
      "watering": "Average",
      "sunlight": ["Full sun"],
      "default_image": {
        "license": 4,
        "license_name": "Attribution License",
        "license_url": "https://creativecommons.org/licenses/by/2.0/",
        "original_url": "https://perenual.com/storage/species_image/1873_chrysanthemum_yoraquel_raquel/og/52490883594_700e4a4d22_b.jpg",
        "regular_url": "https://perenual.com/storage/species_image/1873_chrysanthemum_yoraquel_raquel/regular/52490883594_700e4a4d22_b.jpg",
        "medium_url": "https://perenual.com/storage/species_image/1873_chrysanthemum_yoraquel_raquel/medium/52490883594_700e4a4d22_b.jpg",
        "small_url": "https://perenual.com/storage/species_image/1873_chrysanthemum_yoraquel_raquel/small/52490883594_700e4a4d22_b.jpg",
        "thumbnail": "https://perenual.com/storage/species_image/1873_chrysanthemum_yoraquel_raquel/thumbnail/52490883594_700e4a4d22_b.jpg"
      }
    },
    {
      "id": 1874,
      "common_name": "chrysanthemum",
      "scientific_name": ["Chrysanthemum 'Yosun' SUNDORO"],
      "other_name": null,
      "cycle": "Perennial",
      "watering": "Average",
      "sunlight": ["Full sun"],
      "default_image": {
        "license": 5,
        "license_name": "Attribution-ShareAlike License",
        "license_url": "https://creativecommons.org/licenses/by-sa/2.0/",
        "original_url": "https://perenual.com/storage/species_image/2_abies_alba_pyramidalis/og/49255769768_df55596553_b.jpg",
        "regular_url": "https://perenual.com/storage/species_image/2_abies_alba_pyramidalis/regular/49255769768_df55596553_b.jpg",
        "medium_url": "https://perenual.com/storage/species_image/2_abies_alba_pyramidalis/medium/49255769768_df55596553_b.jpg",
        "small_url": "https://perenual.com/storage/species_image/2_abies_alba_pyramidalis/small/49255769768_df55596553_b.jpg",
        "thumbnail": "https://perenual.com/storage/species_image/2_abies_alba_pyramidalis/thumbnail/49255769768_df55596553_b.jpg"
      }
    },
    {
      "id": 1875,
      "common_name": "golden knee",
      "scientific_name": ["Chrysogonum virginianum"],
      "other_name": null,
      "cycle": "",
      "watering": "Frequent",
      "sunlight": ["Part shade", "full shade"],
      "default_image": {
        "license": 4,
        "license_name": "Attribution License",
        "license_url": "https://creativecommons.org/licenses/by/2.0/",
        "original_url": "https://perenual.com/storage/species_image/1875_chrysogonum_virginianum/og/52060286368_b4f0e6abc2_b.jpg",
        "regular_url": "https://perenual.com/storage/species_image/1875_chrysogonum_virginianum/regular/52060286368_b4f0e6abc2_b.jpg",
        "medium_url": "https://perenual.com/storage/species_image/1875_chrysogonum_virginianum/medium/52060286368_b4f0e6abc2_b.jpg",
        "small_url": "https://perenual.com/storage/species_image/1875_chrysogonum_virginianum/small/52060286368_b4f0e6abc2_b.jpg",
        "thumbnail": "https://perenual.com/storage/species_image/1875_chrysogonum_virginianum/thumbnail/52060286368_b4f0e6abc2_b.jpg"
      }
    },
    {
      "id": 1876,
      "common_name": "goldenstar",
      "scientific_name": ["Chrysogonum virginianum 'Allen Bush'"],
      "other_name": null,
      "cycle": "Perennial",
      "watering": "Average",
      "sunlight": ["Part shade", "full shade"],
      "default_image": {
        "license": 5,
        "license_name": "Attribution-ShareAlike License",
        "license_url": "https://creativecommons.org/licenses/by-sa/2.0/",
        "original_url": "https://perenual.com/storage/species_image/2_abies_alba_pyramidalis/og/49255769768_df55596553_b.jpg",
        "regular_url": "https://perenual.com/storage/species_image/2_abies_alba_pyramidalis/regular/49255769768_df55596553_b.jpg",
        "medium_url": "https://perenual.com/storage/species_image/2_abies_alba_pyramidalis/medium/49255769768_df55596553_b.jpg",
        "small_url": "https://perenual.com/storage/species_image/2_abies_alba_pyramidalis/small/49255769768_df55596553_b.jpg",
        "thumbnail": "https://perenual.com/storage/species_image/2_abies_alba_pyramidalis/thumbnail/49255769768_df55596553_b.jpg"
      }
    },
    {
      "id": 1877,
      "common_name": "star apple",
      "scientific_name": ["Chrysophyllum cainito"],
      "other_name": null,
      "cycle": "Perennial",
      "watering": "Minimum",
      "sunlight": ["Full sun"],
      "default_image": {
        "license": 4,
        "license_name": "Attribution License",
        "license_url": "https://creativecommons.org/licenses/by/2.0/",
        "original_url": "https://perenual.com/storage/species_image/1877_chrysophyllum_cainito/og/24516065483_28701b38e1_b.jpg",
        "regular_url": "https://perenual.com/storage/species_image/1877_chrysophyllum_cainito/regular/24516065483_28701b38e1_b.jpg",
        "medium_url": "https://perenual.com/storage/species_image/1877_chrysophyllum_cainito/medium/24516065483_28701b38e1_b.jpg",
        "small_url": "https://perenual.com/storage/species_image/1877_chrysophyllum_cainito/small/24516065483_28701b38e1_b.jpg",
        "thumbnail": "https://perenual.com/storage/species_image/1877_chrysophyllum_cainito/thumbnail/24516065483_28701b38e1_b.jpg"
      }
    },
    {
      "id": 1878,
      "common_name": "golden aster",
      "scientific_name": ["Chrysopsis mariana"],
      "other_name": null,
      "cycle": "Perennial",
      "watering": "Minimum",
      "sunlight": ["Full sun", "part shade"],
      "default_image": {
        "license": 5,
        "license_name": "Attribution-ShareAlike License",
        "license_url": "https://creativecommons.org/licenses/by-sa/2.0/",
        "original_url": "https://perenual.com/storage/species_image/2_abies_alba_pyramidalis/og/49255769768_df55596553_b.jpg",
        "regular_url": "https://perenual.com/storage/species_image/2_abies_alba_pyramidalis/regular/49255769768_df55596553_b.jpg",
        "medium_url": "https://perenual.com/storage/species_image/2_abies_alba_pyramidalis/medium/49255769768_df55596553_b.jpg",
        "small_url": "https://perenual.com/storage/species_image/2_abies_alba_pyramidalis/small/49255769768_df55596553_b.jpg",
        "thumbnail": "https://perenual.com/storage/species_image/2_abies_alba_pyramidalis/thumbnail/49255769768_df55596553_b.jpg"
      }
    },
    {
      "id": 1879,
      "common_name": "chicory",
      "scientific_name": ["Cichorium intybus"],
      "other_name": null,
      "cycle": "Perennial",
      "watering": "Average",
      "sunlight": ["Full sun"],
      "default_image": {
        "license": 5,
        "license_name": "Attribution-ShareAlike License",
        "license_url": "https://creativecommons.org/licenses/by-sa/2.0/",
        "original_url": "https://perenual.com/storage/species_image/1879_cichorium_intybus/og/52347380770_908f5f52e9_b.jpg",
        "regular_url": "https://perenual.com/storage/species_image/1879_cichorium_intybus/regular/52347380770_908f5f52e9_b.jpg",
        "medium_url": "https://perenual.com/storage/species_image/1879_cichorium_intybus/medium/52347380770_908f5f52e9_b.jpg",
        "small_url": "https://perenual.com/storage/species_image/1879_cichorium_intybus/small/52347380770_908f5f52e9_b.jpg",
        "thumbnail": "https://perenual.com/storage/species_image/1879_cichorium_intybus/thumbnail/52347380770_908f5f52e9_b.jpg"
      }
    },
    {
      "id": 1880,
      "common_name": "wood reed grass",
      "scientific_name": ["Cinna arundinacea"],
      "other_name": ["Sweet Woodreed"],
      "cycle": "Perennial",
      "watering": "Frequent",
      "sunlight": ["Partial Shade"],
      "default_image": null
    },
    {
      "id": 1881,
      "common_name": "Chinese cinnamon tree",
      "scientific_name": ["Cinnamomum cassia"],
      "other_name": null,
      "cycle": "Perennial",
      "watering": "Average",
      "sunlight": ["Full sun", "part shade"],
      "default_image": {
        "license": 4,
        "license_name": "Attribution License",
        "license_url": "https://creativecommons.org/licenses/by/2.0/",
        "original_url": "https://perenual.com/storage/species_image/1881_cinnamomum_cassia/og/24863710281_f765890747_b.jpg",
        "regular_url": "https://perenual.com/storage/species_image/1881_cinnamomum_cassia/regular/24863710281_f765890747_b.jpg",
        "medium_url": "https://perenual.com/storage/species_image/1881_cinnamomum_cassia/medium/24863710281_f765890747_b.jpg",
        "small_url": "https://perenual.com/storage/species_image/1881_cinnamomum_cassia/small/24863710281_f765890747_b.jpg",
        "thumbnail": "https://perenual.com/storage/species_image/1881_cinnamomum_cassia/thumbnail/24863710281_f765890747_b.jpg"
      }
    },
    {
      "id": 1882,
      "common_name": "cinnamon",
      "scientific_name": ["Cinnamomum verum"],
      "other_name": null,
      "cycle": "Perennial",
      "watering": "Average",
      "sunlight": ["Full sun", "part shade"],
      "default_image": {
        "license": 5,
        "license_name": "Attribution-ShareAlike License",
        "license_url": "https://creativecommons.org/licenses/by-sa/2.0/",
        "original_url": "https://perenual.com/storage/species_image/1882_cinnamomum_verum/og/6674347847_0921897054_b.jpg",
        "regular_url": "https://perenual.com/storage/species_image/1882_cinnamomum_verum/regular/6674347847_0921897054_b.jpg",
        "medium_url": "https://perenual.com/storage/species_image/1882_cinnamomum_verum/medium/6674347847_0921897054_b.jpg",
        "small_url": "https://perenual.com/storage/species_image/1882_cinnamomum_verum/small/6674347847_0921897054_b.jpg",
        "thumbnail": "https://perenual.com/storage/species_image/1882_cinnamomum_verum/thumbnail/6674347847_0921897054_b.jpg"
      }
    },
    {
      "id": 1883,
      "common_name": "grape ivy",
      "scientific_name": ["Cissus alata"],
      "other_name": null,
      "cycle": "Perennial",
      "watering": "Average",
      "sunlight": ["Part shade"],
      "default_image": {
        "license": 5,
        "license_name": "Attribution-ShareAlike License",
        "license_url": "https://creativecommons.org/licenses/by-sa/2.0/",
        "original_url": "https://perenual.com/storage/species_image/2_abies_alba_pyramidalis/og/49255769768_df55596553_b.jpg",
        "regular_url": "https://perenual.com/storage/species_image/2_abies_alba_pyramidalis/regular/49255769768_df55596553_b.jpg",
        "medium_url": "https://perenual.com/storage/species_image/2_abies_alba_pyramidalis/medium/49255769768_df55596553_b.jpg",
        "small_url": "https://perenual.com/storage/species_image/2_abies_alba_pyramidalis/small/49255769768_df55596553_b.jpg",
        "thumbnail": "https://perenual.com/storage/species_image/2_abies_alba_pyramidalis/thumbnail/49255769768_df55596553_b.jpg"
      }
    },
    {
      "id": 1884,
      "common_name": "marine ivy",
      "scientific_name": ["Cissus trifoliata"],
      "other_name": null,
      "cycle": "Perennial",
      "watering": "Average",
      "sunlight": ["Full sun"],
      "default_image": {
        "license": 5,
        "license_name": "Attribution-ShareAlike License",
        "license_url": "https://creativecommons.org/licenses/by-sa/2.0/",
        "original_url": "https://perenual.com/storage/species_image/2_abies_alba_pyramidalis/og/49255769768_df55596553_b.jpg",
        "regular_url": "https://perenual.com/storage/species_image/2_abies_alba_pyramidalis/regular/49255769768_df55596553_b.jpg",
        "medium_url": "https://perenual.com/storage/species_image/2_abies_alba_pyramidalis/medium/49255769768_df55596553_b.jpg",
        "small_url": "https://perenual.com/storage/species_image/2_abies_alba_pyramidalis/small/49255769768_df55596553_b.jpg",
        "thumbnail": "https://perenual.com/storage/species_image/2_abies_alba_pyramidalis/thumbnail/49255769768_df55596553_b.jpg"
      }
    },
    {
      "id": 1885,
      "common_name": "watermelon",
      "scientific_name": ["Citrullus lanatus"],
      "other_name": null,
      "cycle": "Perennial",
      "watering": "Average",
      "sunlight": [],
      "default_image": {
        "license": 4,
        "license_name": "Attribution License",
        "license_url": "https://creativecommons.org/licenses/by/2.0/",
        "original_url": "https://perenual.com/storage/species_image/1885_citrullus_lanatus/og/24563439383_073cc7d9dd_b.jpg",
        "regular_url": "https://perenual.com/storage/species_image/1885_citrullus_lanatus/regular/24563439383_073cc7d9dd_b.jpg",
        "medium_url": "https://perenual.com/storage/species_image/1885_citrullus_lanatus/medium/24563439383_073cc7d9dd_b.jpg",
        "small_url": "https://perenual.com/storage/species_image/1885_citrullus_lanatus/small/24563439383_073cc7d9dd_b.jpg",
        "thumbnail": "https://perenual.com/storage/species_image/1885_citrullus_lanatus/thumbnail/24563439383_073cc7d9dd_b.jpg"
      }
    },
    {
      "id": 1886,
      "common_name": "Thai lime",
      "scientific_name": ["Citrus hystrix"],
      "other_name": null,
      "cycle": "Perennial",
      "watering": "Average",
      "sunlight": ["Full sun"],
      "default_image": {
        "license": 4,
        "license_name": "Attribution License",
        "license_url": "https://creativecommons.org/licenses/by/2.0/",
        "original_url": "https://perenual.com/storage/species_image/1886_citrus_hystrix/og/52497420446_f1e97c4900_b.jpg",
        "regular_url": "https://perenual.com/storage/species_image/1886_citrus_hystrix/regular/52497420446_f1e97c4900_b.jpg",
        "medium_url": "https://perenual.com/storage/species_image/1886_citrus_hystrix/medium/52497420446_f1e97c4900_b.jpg",
        "small_url": "https://perenual.com/storage/species_image/1886_citrus_hystrix/small/52497420446_f1e97c4900_b.jpg",
        "thumbnail": "https://perenual.com/storage/species_image/1886_citrus_hystrix/thumbnail/52497420446_f1e97c4900_b.jpg"
      }
    },
    {
      "id": 1887,
      "common_name": "kumquat",
      "scientific_name": ["Citrus japonica 'Centennial Variegated'"],
      "other_name": null,
      "cycle": "Perennial",
      "watering": "Average",
      "sunlight": ["Full sun"],
      "default_image": {
        "license": 4,
        "license_name": "Attribution License",
        "license_url": "https://creativecommons.org/licenses/by/2.0/",
        "original_url": "https://perenual.com/storage/species_image/1887_citrus_japonica_centennial_variegated/og/52388128456_cfb6e458f1_b.jpg",
        "regular_url": "https://perenual.com/storage/species_image/1887_citrus_japonica_centennial_variegated/regular/52388128456_cfb6e458f1_b.jpg",
        "medium_url": "https://perenual.com/storage/species_image/1887_citrus_japonica_centennial_variegated/medium/52388128456_cfb6e458f1_b.jpg",
        "small_url": "https://perenual.com/storage/species_image/1887_citrus_japonica_centennial_variegated/small/52388128456_cfb6e458f1_b.jpg",
        "thumbnail": "https://perenual.com/storage/species_image/1887_citrus_japonica_centennial_variegated/thumbnail/52388128456_cfb6e458f1_b.jpg"
      }
    },
    {
      "id": 1888,
      "common_name": "lemon",
      "scientific_name": ["Citrus limon"],
      "other_name": null,
      "cycle": "Perennial",
      "watering": "Average",
      "sunlight": ["Full sun"],
      "default_image": {
        "license": 4,
        "license_name": "Attribution License",
        "license_url": "https://creativecommons.org/licenses/by/2.0/",
        "original_url": "https://perenual.com/storage/species_image/1888_citrus_limon/og/52457383899_cd1df60899_b.jpg",
        "regular_url": "https://perenual.com/storage/species_image/1888_citrus_limon/regular/52457383899_cd1df60899_b.jpg",
        "medium_url": "https://perenual.com/storage/species_image/1888_citrus_limon/medium/52457383899_cd1df60899_b.jpg",
        "small_url": "https://perenual.com/storage/species_image/1888_citrus_limon/small/52457383899_cd1df60899_b.jpg",
        "thumbnail": "https://perenual.com/storage/species_image/1888_citrus_limon/thumbnail/52457383899_cd1df60899_b.jpg"
      }
    },
    {
      "id": 1889,
      "common_name": "pummelo",
      "scientific_name": ["Citrus maxima"],
      "other_name": null,
      "cycle": "Perennial",
      "watering": "Average",
      "sunlight": ["Full sun"],
      "default_image": {
        "license": 5,
        "license_name": "Attribution-ShareAlike License",
        "license_url": "https://creativecommons.org/licenses/by-sa/2.0/",
        "original_url": "https://perenual.com/storage/species_image/1889_citrus_maxima/og/51008956827_5733a1c387_b.jpg",
        "regular_url": "https://perenual.com/storage/species_image/1889_citrus_maxima/regular/51008956827_5733a1c387_b.jpg",
        "medium_url": "https://perenual.com/storage/species_image/1889_citrus_maxima/medium/51008956827_5733a1c387_b.jpg",
        "small_url": "https://perenual.com/storage/species_image/1889_citrus_maxima/small/51008956827_5733a1c387_b.jpg",
        "thumbnail": "https://perenual.com/storage/species_image/1889_citrus_maxima/thumbnail/51008956827_5733a1c387_b.jpg"
      }
    },
    {
      "id": 1890,
      "common_name": "Buddha's hand",
      "scientific_name": ["Citrus medica var. sarcodactylis"],
      "other_name": null,
      "cycle": "Perennial",
      "watering": "Average",
      "sunlight": ["Full sun"],
      "default_image": {
        "license": 5,
        "license_name": "Attribution-ShareAlike License",
        "license_url": "https://creativecommons.org/licenses/by-sa/2.0/",
        "original_url": "https://perenual.com/storage/species_image/2_abies_alba_pyramidalis/og/49255769768_df55596553_b.jpg",
        "regular_url": "https://perenual.com/storage/species_image/2_abies_alba_pyramidalis/regular/49255769768_df55596553_b.jpg",
        "medium_url": "https://perenual.com/storage/species_image/2_abies_alba_pyramidalis/medium/49255769768_df55596553_b.jpg",
        "small_url": "https://perenual.com/storage/species_image/2_abies_alba_pyramidalis/small/49255769768_df55596553_b.jpg",
        "thumbnail": "https://perenual.com/storage/species_image/2_abies_alba_pyramidalis/thumbnail/49255769768_df55596553_b.jpg"
      }
    }
  ],
  "to": 1890,
  "per_page": 30,
  "current_page": 63,
  "from": 1861,
  "last_page": 200,
  "total": 6000
}
