{"data":[{"id":3961,"common_name":"hosta","scientific_name":["Hosta venusta 'Variegated'"],"other_name":null,"cycle":"Perennial","watering":"Average","sunlight":["Part shade","full shade"],"default_image":{"image_id":9,"license":5,"license_name":"Attribution-ShareAlike License","license_url":"https://creativecommons.org/licenses/by-sa/2.0/","original_url":"https://perenual.com/storage/species_image/2_abies_alba_pyramidalis/og/49255769768_df55596553_b.jpg","regular_url":"https://perenual.com/storage/species_image/2_abies_alba_pyramidalis/regular/49255769768_df55596553_b.jpg","medium_url":"https://perenual.com/storage/species_image/2_abies_alba_pyramidalis/medium/49255769768_df55596553_b.jpg","small_url":"https://perenual.com/storage/species_image/2_abies_alba_pyramidalis/small/49255769768_df55596553_b.jpg","thumbnail":"https://perenual.com/storage/species_image/2_abies_alba_pyramidalis/thumbnail/49255769768_df55596553_b.jpg"}},{"id":3962,"common_name":"hosta","scientific_name":["Hosta 'Vera Verde'"],"other_name":null,"cycle":"Perennial","watering":"Average","sunlight":["Part shade","full shade"],"default_image":{"image_id":9,"license":5,"license_name":"Attribution-ShareAlike License","license_url":"https://creativecommons.org/licenses/by-sa/2.0/","original_url":"https://perenual.com/storage/species_image/2_abies_alba_pyramidalis/og/49255769768_df55596553_b.jpg","regular_url":"https://perenual.com/storage/species_image/2_abies_alba_pyramidalis/regular/49255769768_df55596553_b.jpg","medium_url":"https://perenual.com/storage/species_image/2_abies_alba_pyramidalis/medium/49255769768_df55596553_b.jpg","small_url":"https://perenual.com/storage/species_image/2_abies_alba_pyramidalis/small/49255769768_df55596553_b.jpg","thumbnail":"https://perenual.com/storage/species_image/2_abies_alba_pyramidalis/thumbnail/49255769768_df55596553_b.jpg"}},{"id":3963,"common_name":"hosta","scientific_name":["Hosta 'Vim and Vigor'"],"other_name":null,"cycle":"Perennial","watering":"Average","sunlight":["Part shade","full shade"],"default_image":{"image_id":9,"license":5,"license_name":"Attribution-ShareAlike License","license_url":"https://creativecommons.org/licenses/by-sa/2.0/","original_url":"https://perenual.com/storage/species_image/2_abies_alba_pyramidalis/og/49255769768_df55596553_b.jpg","regular_url":"https://perenual.com/storage/species_image/2_abies_alba_pyramidalis/regular/49255769768_df55596553_b.jpg","medium_url":"https://perenual.com/storage/species_image/2_abies_alba_pyramidalis/medium/49255769768_df55596553_b.jpg","small_url":"https://perenual.com/storage/species_image/2_abies_alba_pyramidalis/small/49255769768_df55596553_b.jpg","thumbnail":"https://perenual.com/storage/species_image/2_abies_alba_pyramidalis/thumbnail/49255769768_df55596553_b.jpg"}},{"id":3964,"common_name":"hosta","scientific_name":["Hosta 'Wheee!'"],"other_name":null,"cycle":"Perennial","watering":"Average","sunlight":["Part shade","full shade"],"default_image":{"image_id":9,"license":5,"license_name":"Attribution-ShareAlike License","license_url":"https://creativecommons.org/licenses/by-sa/2.0/","original_url":"https://perenual.com/storage/species_image/2_abies_alba_pyramidalis/og/49255769768_df55596553_b.jpg","regular_url":"https://perenual.com/storage/species_image/2_abies_alba_pyramidalis/regular/49255769768_df55596553_b.jpg","medium_url":"https://perenual.com/storage/species_image/2_abies_alba_pyramidalis/medium/49255769768_df55596553_b.jpg","small_url":"https://perenual.com/storage/species_image/2_abies_alba_pyramidalis/small/49255769768_df55596553_b.jpg","thumbnail":"https://perenual.com/storage/species_image/2_abies_alba_pyramidalis/thumbnail/49255769768_df55596553_b.jpg"}},{"id":3965,"common_name":"hosta","scientific_name":["Hosta 'White Christmas'"],"other_name":null,"cycle":"Perennial","watering":"Average","sunlight":["Part shade","full shade"],"default_image":{"image_id":9,"license":5,"license_name":"Attribution-ShareAlike License","license_url":"https://creativecommons.org/licenses/by-sa/2.0/","original_url":"https://perenual.com/storage/species_image/2_abies_alba_pyramidalis/og/49255769768_df55596553_b.jpg","regular_url":"https://perenual.com/storage/species_image/2_abies_alba_pyramidalis/regular/49255769768_df55596553_b.jpg","medium_url":"https://perenual.com/storage/species_image/2_abies_alba_pyramidalis/medium/49255769768_df55596553_b.jpg","small_url":"https://perenual.com/storage/species_image/2_abies_alba_pyramidalis/small/49255769768_df55596553_b.jpg","thumbnail":"https://perenual.com/storage/species_image/2_abies_alba_pyramidalis/thumbnail/49255769768_df55596553_b.jpg"}},{"id":3966,"common_name":"hosta","scientific_name":["Hosta 'White Feather'"],"other_name":null,"cycle":"Perennial","watering":"Average","sunlight":["Full Shade"],"default_image":{"image_id":7953,"license":5,"license_name":"Attribution-ShareAlike License","license_url":"https://creativecommons.org/licenses/by-sa/2.0/","original_url":"https://perenual.com/storage/species_image/3966_hosta_white_feather/og/52380749339_f82e8332e2_b.jpg","regular_url":"https://perenual.com/storage/species_image/3966_hosta_white_feather/regular/52380749339_f82e8332e2_b.jpg","medium_url":"https://perenual.com/storage/species_image/3966_hosta_white_feather/medium/52380749339_f82e8332e2_b.jpg","small_url":"https://perenual.com/storage/species_image/3966_hosta_white_feather/small/52380749339_f82e8332e2_b.jpg","thumbnail":"https://perenual.com/storage/species_image/3966_hosta_white_feather/thumbnail/52380749339_f82e8332e2_b.jpg"}},{"id":3967,"common_name":"hosta","scientific_name":["Hosta 'Wide Brim'"],"other_name":null,"cycle":"Perennial","watering":"Average","sunlight":["Part shade","full shade"],"default_image":{"image_id":7955,"license":5,"license_name":"Attribution-ShareAlike License","license_url":"https://creativecommons.org/licenses/by-sa/2.0/","original_url":"https://perenual.com/storage/species_image/3967_hosta_wide_brim/og/51185761581_4894a35baa_b.jpg","regular_url":"https://perenual.com/storage/species_image/3967_hosta_wide_brim/regular/51185761581_4894a35baa_b.jpg","medium_url":"https://perenual.com/storage/species_image/3967_hosta_wide_brim/medium/51185761581_4894a35baa_b.jpg","small_url":"https://perenual.com/storage/species_image/3967_hosta_wide_brim/small/51185761581_4894a35baa_b.jpg","thumbnail":"https://perenual.com/storage/species_image/3967_hosta_wide_brim/thumbnail/51185761581_4894a35baa_b.jpg"}},{"id":3968,"common_name":"hosta","scientific_name":["Hosta 'Wolverine'"],"other_name":null,"cycle":"Perennial","watering":"Average","sunlight":["Part shade","full shade"],"default_image":{"image_id":9,"license":5,"license_name":"Attribution-ShareAlike License","license_url":"https://creativecommons.org/licenses/by-sa/2.0/","original_url":"https://perenual.com/storage/species_image/2_abies_alba_pyramidalis/og/49255769768_df55596553_b.jpg","regular_url":"https://perenual.com/storage/species_image/2_abies_alba_pyramidalis/regular/49255769768_df55596553_b.jpg","medium_url":"https://perenual.com/storage/species_image/2_abies_alba_pyramidalis/medium/49255769768_df55596553_b.jpg","small_url":"https://perenual.com/storage/species_image/2_abies_alba_pyramidalis/small/49255769768_df55596553_b.jpg","thumbnail":"https://perenual.com/storage/species_image/2_abies_alba_pyramidalis/thumbnail/49255769768_df55596553_b.jpg"}},{"id":3969,"common_name":"hosta","scientific_name":["Hosta 'Zounds'"],"other_name":null,"cycle":"Perennial","watering":"Average","sunlight":["Part shade","full shade"],"default_image":{"image_id":7961,"license":5,"license_name":"Attribution-ShareAlike License","license_url":"https://creativecommons.org/licenses/by-sa/2.0/","original_url":"https://perenual.com/storage/species_image/3969_hosta_zounds/og/19731814834_05d763ce38_b.jpg","regular_url":"https://perenual.com/storage/species_image/3969_hosta_zounds/regular/19731814834_05d763ce38_b.jpg","medium_url":"https://perenual.com/storage/species_image/3969_hosta_zounds/medium/19731814834_05d763ce38_b.jpg","small_url":"https://perenual.com/storage/species_image/3969_hosta_zounds/small/19731814834_05d763ce38_b.jpg","thumbnail":"https://perenual.com/storage/species_image/3969_hosta_zounds/thumbnail/19731814834_05d763ce38_b.jpg"}},{"id":3970,"common_name":"houttuynia","scientific_name":["Houttuynia cordata 'Chameleon'"],"other_name":["chameleon plant"],"cycle":"Perennial","watering":"Frequent","sunlight":["Filtered shade"," Full sun"," Part sun/part shade"],"default_image":{"image_id":9,"license":5,"license_name":"Attribution-ShareAlike License","license_url":"https://creativecommons.org/licenses/by-sa/2.0/","original_url":"https://perenual.com/storage/species_image/2_abies_alba_pyramidalis/og/49255769768_df55596553_b.jpg","regular_url":"https://perenual.com/storage/species_image/2_abies_alba_pyramidalis/regular/49255769768_df55596553_b.jpg","medium_url":"https://perenual.com/storage/species_image/2_abies_alba_pyramidalis/medium/49255769768_df55596553_b.jpg","small_url":"https://perenual.com/storage/species_image/2_abies_alba_pyramidalis/small/49255769768_df55596553_b.jpg","thumbnail":"https://perenual.com/storage/species_image/2_abies_alba_pyramidalis/thumbnail/49255769768_df55596553_b.jpg"}},{"id":3971,"common_name":"wax plant","scientific_name":["Hoya carnosa"],"other_name":null,"cycle":"Perennial","watering":"Average","sunlight":["Full sun"],"default_image":{"image_id":9,"license":5,"license_name":"Attribution-ShareAlike License","license_url":"https://creativecommons.org/licenses/by-sa/2.0/","original_url":"https://perenual.com/storage/species_image/2_abies_alba_pyramidalis/og/49255769768_df55596553_b.jpg","regular_url":"https://perenual.com/storage/species_image/2_abies_alba_pyramidalis/regular/49255769768_df55596553_b.jpg","medium_url":"https://perenual.com/storage/species_image/2_abies_alba_pyramidalis/medium/49255769768_df55596553_b.jpg","small_url":"https://perenual.com/storage/species_image/2_abies_alba_pyramidalis/small/49255769768_df55596553_b.jpg","thumbnail":"https://perenual.com/storage/species_image/2_abies_alba_pyramidalis/thumbnail/49255769768_df55596553_b.jpg"}},{"id":3972,"common_name":"miniature wax plant","scientific_name":["Hoya lanceolata subsp. bella"],"other_name":null,"cycle":"Perennial","watering":"Average","sunlight":["Full sun","part shade"],"default_image":{"image_id":9,"license":5,"license_name":"Attribution-ShareAlike License","license_url":"https://creativecommons.org/licenses/by-sa/2.0/","original_url":"https://perenual.com/storage/species_image/2_abies_alba_pyramidalis/og/49255769768_df55596553_b.jpg","regular_url":"https://perenual.com/storage/species_image/2_abies_alba_pyramidalis/regular/49255769768_df55596553_b.jpg","medium_url":"https://perenual.com/storage/species_image/2_abies_alba_pyramidalis/medium/49255769768_df55596553_b.jpg","small_url":"https://perenual.com/storage/species_image/2_abies_alba_pyramidalis/small/49255769768_df55596553_b.jpg","thumbnail":"https://perenual.com/storage/species_image/2_abies_alba_pyramidalis/thumbnail/49255769768_df55596553_b.jpg"}},{"id":3973,"common_name":"common hop","scientific_name":["Humulus lupulus"],"other_name":null,"cycle":"Perennial","watering":"Average","sunlight":["Full sun","part shade"],"default_image":{"image_id":7969,"license":4,"license_name":"Attribution License","license_url":"https://creativecommons.org/licenses/by/2.0/","original_url":"https://perenual.com/storage/species_image/3973_humulus_lupulus/og/52290931685_0064e3453e_b.jpg","regular_url":"https://perenual.com/storage/species_image/3973_humulus_lupulus/regular/52290931685_0064e3453e_b.jpg","medium_url":"https://perenual.com/storage/species_image/3973_humulus_lupulus/medium/52290931685_0064e3453e_b.jpg","small_url":"https://perenual.com/storage/species_image/3973_humulus_lupulus/small/52290931685_0064e3453e_b.jpg","thumbnail":"https://perenual.com/storage/species_image/3973_humulus_lupulus/thumbnail/52290931685_0064e3453e_b.jpg"}},{"id":3974,"common_name":"common hop","scientific_name":["Humulus lupulus 'Aureus'"],"other_name":null,"cycle":"Perennial","watering":"Average","sunlight":["Full sun","part shade"],"default_image":{"image_id":7973,"license":4,"license_name":"Attribution License","license_url":"https://creativecommons.org/licenses/by/2.0/","original_url":"https://perenual.com/storage/species_image/3974_humulus_lupulus_aureus/og/1118793363_614095d2b7_b.jpg","regular_url":"https://perenual.com/storage/species_image/3974_humulus_lupulus_aureus/regular/1118793363_614095d2b7_b.jpg","medium_url":"https://perenual.com/storage/species_image/3974_humulus_lupulus_aureus/medium/1118793363_614095d2b7_b.jpg","small_url":"https://perenual.com/storage/species_image/3974_humulus_lupulus_aureus/small/1118793363_614095d2b7_b.jpg","thumbnail":"https://perenual.com/storage/species_image/3974_humulus_lupulus_aureus/thumbnail/1118793363_614095d2b7_b.jpg"}},{"id":3975,"common_name":"common hop","scientific_name":["Humulus lupulus 'Cascade'"],"other_name":null,"cycle":"Perennial","watering":"Average","sunlight":["Full sun","part shade"],"default_image":{"image_id":9,"license":5,"license_name":"Attribution-ShareAlike License","license_url":"https://creativecommons.org/licenses/by-sa/2.0/","original_url":"https://perenual.com/storage/species_image/2_abies_alba_pyramidalis/og/49255769768_df55596553_b.jpg","regular_url":"https://perenual.com/storage/species_image/2_abies_alba_pyramidalis/regular/49255769768_df55596553_b.jpg","medium_url":"https://perenual.com/storage/species_image/2_abies_alba_pyramidalis/medium/49255769768_df55596553_b.jpg","small_url":"https://perenual.com/storage/species_image/2_abies_alba_pyramidalis/small/49255769768_df55596553_b.jpg","thumbnail":"https://perenual.com/storage/species_image/2_abies_alba_pyramidalis/thumbnail/49255769768_df55596553_b.jpg"}},{"id":3976,"common_name":"common hop","scientific_name":["Humulus lupulus 'Centennial'"],"other_name":null,"cycle":"Perennial","watering":"Average","sunlight":["Full sun","part shade"],"default_image":{"image_id":9,"license":5,"license_name":"Attribution-ShareAlike License","license_url":"https://creativecommons.org/licenses/by-sa/2.0/","original_url":"https://perenual.com/storage/species_image/2_abies_alba_pyramidalis/og/49255769768_df55596553_b.jpg","regular_url":"https://perenual.com/storage/species_image/2_abies_alba_pyramidalis/regular/49255769768_df55596553_b.jpg","medium_url":"https://perenual.com/storage/species_image/2_abies_alba_pyramidalis/medium/49255769768_df55596553_b.jpg","small_url":"https://perenual.com/storage/species_image/2_abies_alba_pyramidalis/small/49255769768_df55596553_b.jpg","thumbnail":"https://perenual.com/storage/species_image/2_abies_alba_pyramidalis/thumbnail/49255769768_df55596553_b.jpg"}},{"id":3977,"common_name":"common hop","scientific_name":["Humulus lupulus 'Chinook'"],"other_name":null,"cycle":"Perennial","watering":"Average","sunlight":["Full sun","part shade"],"default_image":{"image_id":7977,"license":451,"license_name":"CC0 1.0 Universal (CC0 1.0) Public Domain Dedication","license_url":"https://creativecommons.org/publicdomain/zero/1.0/","original_url":"https://perenual.com/storage/species_image/3977_humulus_lupulus_chinook/og/gf7efb85fcdbb47d78e9acb28a96dc4f236e9af4f515360152e6cecb59aaafbdef6e6f3374a78cb63b6ddc610f15cc8e4370e8b3c45f8daf4f6cd73a2be528cf6_1280.jpg","regular_url":"https://perenual.com/storage/species_image/3977_humulus_lupulus_chinook/regular/gf7efb85fcdbb47d78e9acb28a96dc4f236e9af4f515360152e6cecb59aaafbdef6e6f3374a78cb63b6ddc610f15cc8e4370e8b3c45f8daf4f6cd73a2be528cf6_1280.jpg","medium_url":"https://perenual.com/storage/species_image/3977_humulus_lupulus_chinook/medium/gf7efb85fcdbb47d78e9acb28a96dc4f236e9af4f515360152e6cecb59aaafbdef6e6f3374a78cb63b6ddc610f15cc8e4370e8b3c45f8daf4f6cd73a2be528cf6_1280.jpg","small_url":"https://perenual.com/storage/species_image/3977_humulus_lupulus_chinook/small/gf7efb85fcdbb47d78e9acb28a96dc4f236e9af4f515360152e6cecb59aaafbdef6e6f3374a78cb63b6ddc610f15cc8e4370e8b3c45f8daf4f6cd73a2be528cf6_1280.jpg","thumbnail":"https://perenual.com/storage/species_image/3977_humulus_lupulus_chinook/thumbnail/gf7efb85fcdbb47d78e9acb28a96dc4f236e9af4f515360152e6cecb59aaafbdef6e6f3374a78cb63b6ddc610f15cc8e4370e8b3c45f8daf4f6cd73a2be528cf6_1280.jpg"}},{"id":3978,"common_name":"common hop","scientific_name":["Humulus lupulus 'Sumner' SUMMER SHANDY"],"other_name":null,"cycle":"Perennial","watering":"Average","sunlight":["Full sun","part shade"],"default_image":{"image_id":9,"license":5,"license_name":"Attribution-ShareAlike License","license_url":"https://creativecommons.org/licenses/by-sa/2.0/","original_url":"https://perenual.com/storage/species_image/2_abies_alba_pyramidalis/og/49255769768_df55596553_b.jpg","regular_url":"https://perenual.com/storage/species_image/2_abies_alba_pyramidalis/regular/49255769768_df55596553_b.jpg","medium_url":"https://perenual.com/storage/species_image/2_abies_alba_pyramidalis/medium/49255769768_df55596553_b.jpg","small_url":"https://perenual.com/storage/species_image/2_abies_alba_pyramidalis/small/49255769768_df55596553_b.jpg","thumbnail":"https://perenual.com/storage/species_image/2_abies_alba_pyramidalis/thumbnail/49255769768_df55596553_b.jpg"}},{"id":3979,"common_name":"Spanish bluebell","scientific_name":["Hyacinthoides hispanica"],"other_name":null,"cycle":"Perennial","watering":"Average","sunlight":["Full sun","part shade"],"default_image":{"image_id":9,"license":5,"license_name":"Attribution-ShareAlike License","license_url":"https://creativecommons.org/licenses/by-sa/2.0/","original_url":"https://perenual.com/storage/species_image/2_abies_alba_pyramidalis/og/49255769768_df55596553_b.jpg","regular_url":"https://perenual.com/storage/species_image/2_abies_alba_pyramidalis/regular/49255769768_df55596553_b.jpg","medium_url":"https://perenual.com/storage/species_image/2_abies_alba_pyramidalis/medium/49255769768_df55596553_b.jpg","small_url":"https://perenual.com/storage/species_image/2_abies_alba_pyramidalis/small/49255769768_df55596553_b.jpg","thumbnail":"https://perenual.com/storage/species_image/2_abies_alba_pyramidalis/thumbnail/49255769768_df55596553_b.jpg"}},{"id":3980,"common_name":"Spanish bluebell","scientific_name":["Hyacinthoides hispanica 'Excelsior'"],"other_name":null,"cycle":"Perennial","watering":"Average","sunlight":["Full sun","part shade"],"default_image":{"image_id":9,"license":5,"license_name":"Attribution-ShareAlike License","license_url":"https://creativecommons.org/licenses/by-sa/2.0/","original_url":"https://perenual.com/storage/species_image/2_abies_alba_pyramidalis/og/49255769768_df55596553_b.jpg","regular_url":"https://perenual.com/storage/species_image/2_abies_alba_pyramidalis/regular/49255769768_df55596553_b.jpg","medium_url":"https://perenual.com/storage/species_image/2_abies_alba_pyramidalis/medium/49255769768_df55596553_b.jpg","small_url":"https://perenual.com/storage/species_image/2_abies_alba_pyramidalis/small/49255769768_df55596553_b.jpg","thumbnail":"https://perenual.com/storage/species_image/2_abies_alba_pyramidalis/thumbnail/49255769768_df55596553_b.jpg"}},{"id":3981,"common_name":"Spanish bluebell","scientific_name":["Hyacinthoides hispanica 'Rosabella'"],"other_name":null,"cycle":"Perennial","watering":"Average","sunlight":["Full sun","part shade"],"default_image":{"image_id":9,"license":5,"license_name":"Attribution-ShareAlike License","license_url":"https://creativecommons.org/licenses/by-sa/2.0/","original_url":"https://perenual.com/storage/species_image/2_abies_alba_pyramidalis/og/49255769768_df55596553_b.jpg","regular_url":"https://perenual.com/storage/species_image/2_abies_alba_pyramidalis/regular/49255769768_df55596553_b.jpg","medium_url":"https://perenual.com/storage/species_image/2_abies_alba_pyramidalis/medium/49255769768_df55596553_b.jpg","small_url":"https://perenual.com/storage/species_image/2_abies_alba_pyramidalis/small/49255769768_df55596553_b.jpg","thumbnail":"https://perenual.com/storage/species_image/2_abies_alba_pyramidalis/thumbnail/49255769768_df55596553_b.jpg"}},{"id":3982,"common_name":"Spanish bluebell","scientific_name":["Hyacinthoides hispanica 'Rose Queen'"],"other_name":null,"cycle":"Perennial","watering":"Average","sunlight":["Full sun","part shade"],"default_image":{"image_id":9,"license":5,"license_name":"Attribution-ShareAlike License","license_url":"https://creativecommons.org/licenses/by-sa/2.0/","original_url":"https://perenual.com/storage/species_image/2_abies_alba_pyramidalis/og/49255769768_df55596553_b.jpg","regular_url":"https://perenual.com/storage/species_image/2_abies_alba_pyramidalis/regular/49255769768_df55596553_b.jpg","medium_url":"https://perenual.com/storage/species_image/2_abies_alba_pyramidalis/medium/49255769768_df55596553_b.jpg","small_url":"https://perenual.com/storage/species_image/2_abies_alba_pyramidalis/small/49255769768_df55596553_b.jpg","thumbnail":"https://perenual.com/storage/species_image/2_abies_alba_pyramidalis/thumbnail/49255769768_df55596553_b.jpg"}},{"id":3983,"common_name":"Spanish bluebell","scientific_name":["Hyacinthoides hispanica 'White City'"],"other_name":null,"cycle":"Perennial","watering":"Average","sunlight":["Full sun","part shade"],"default_image":{"image_id":9,"license":5,"license_name":"Attribution-ShareAlike License","license_url":"https://creativecommons.org/licenses/by-sa/2.0/","original_url":"https://perenual.com/storage/species_image/2_abies_alba_pyramidalis/og/49255769768_df55596553_b.jpg","regular_url":"https://perenual.com/storage/species_image/2_abies_alba_pyramidalis/regular/49255769768_df55596553_b.jpg","medium_url":"https://perenual.com/storage/species_image/2_abies_alba_pyramidalis/medium/49255769768_df55596553_b.jpg","small_url":"https://perenual.com/storage/species_image/2_abies_alba_pyramidalis/small/49255769768_df55596553_b.jpg","thumbnail":"https://perenual.com/storage/species_image/2_abies_alba_pyramidalis/thumbnail/49255769768_df55596553_b.jpg"}},{"id":3984,"common_name":"Spanish bluebell","scientific_name":["Hyacinthoides hispanica 'White Triumphator'"],"other_name":null,"cycle":"Perennial","watering":"Average","sunlight":["Full sun","part shade"],"default_image":{"image_id":22008,"license":1,"license_name":null,"license_url":null,"original_url":"https://perenual.com/storage/species_image/3984_hyacinthoides_hispanica_white_triumphator/og/52079303739_01c9c206be_b.jpg","regular_url":"https://perenual.com/storage/species_image/3984_hyacinthoides_hispanica_white_triumphator/regular/52079303739_01c9c206be_b.jpg","medium_url":"https://perenual.com/storage/species_image/3984_hyacinthoides_hispanica_white_triumphator/medium/52079303739_01c9c206be_b.jpg","small_url":"https://perenual.com/storage/species_image/3984_hyacinthoides_hispanica_white_triumphator/small/52079303739_01c9c206be_b.jpg","thumbnail":"https://perenual.com/storage/species_image/3984_hyacinthoides_hispanica_white_triumphator/thumbnail/52079303739_01c9c206be_b.jpg"}},{"id":3985,"common_name":"English bluebell","scientific_name":["Hyacinthoides non-scripta"],"other_name":null,"cycle":"Perennial","watering":"Average","sunlight":["Full sun"," Part sun/part shade"],"default_image":{"image_id":7984,"license":6,"license_name":"Attribution-NoDerivs License","license_url":"https://creativecommons.org/licenses/by-nd/2.0/","original_url":"https://perenual.com/storage/species_image/3985_hyacinthoides_non-scripta/og/52062293025_842dfc3dbf_b.jpg"}},{"id":3986,"common_name":"common hyacinth","scientific_name":["Hyacinthus orientalis"],"other_name":null,"cycle":"Perennial","watering":"Average","sunlight":["Full sun"],"default_image":{"image_id":9,"license":5,"license_name":"Attribution-ShareAlike License","license_url":"https://creativecommons.org/licenses/by-sa/2.0/","original_url":"https://perenual.com/storage/species_image/2_abies_alba_pyramidalis/og/49255769768_df55596553_b.jpg","regular_url":"https://perenual.com/storage/species_image/2_abies_alba_pyramidalis/regular/49255769768_df55596553_b.jpg","medium_url":"https://perenual.com/storage/species_image/2_abies_alba_pyramidalis/medium/49255769768_df55596553_b.jpg","small_url":"https://perenual.com/storage/species_image/2_abies_alba_pyramidalis/small/49255769768_df55596553_b.jpg","thumbnail":"https://perenual.com/storage/species_image/2_abies_alba_pyramidalis/thumbnail/49255769768_df55596553_b.jpg"}},{"id":3987,"common_name":"common hyacinth","scientific_name":["Hyacinthus orientalis 'Blue Jacket'"],"other_name":null,"cycle":"Perennial","watering":"Average","sunlight":["Full sun"],"default_image":{"image_id":9,"license":5,"license_name":"Attribution-ShareAlike License","license_url":"https://creativecommons.org/licenses/by-sa/2.0/","original_url":"https://perenual.com/storage/species_image/2_abies_alba_pyramidalis/og/49255769768_df55596553_b.jpg","regular_url":"https://perenual.com/storage/species_image/2_abies_alba_pyramidalis/regular/49255769768_df55596553_b.jpg","medium_url":"https://perenual.com/storage/species_image/2_abies_alba_pyramidalis/medium/49255769768_df55596553_b.jpg","small_url":"https://perenual.com/storage/species_image/2_abies_alba_pyramidalis/small/49255769768_df55596553_b.jpg","thumbnail":"https://perenual.com/storage/species_image/2_abies_alba_pyramidalis/thumbnail/49255769768_df55596553_b.jpg"}},{"id":3988,"common_name":"common hyacinth","scientific_name":["Hyacinthus orientalis ETOUFFEE"],"other_name":null,"cycle":"Perennial","watering":"Average","sunlight":["Full sun"],"default_image":{"image_id":7985,"license":4,"license_name":"Attribution License","license_url":"https://creativecommons.org/licenses/by/2.0/","original_url":"https://perenual.com/storage/species_image/3988_hyacinthus_orientalis_etouffee/og/51873660144_9c0dceba17_b.jpg","regular_url":"https://perenual.com/storage/species_image/3988_hyacinthus_orientalis_etouffee/regular/51873660144_9c0dceba17_b.jpg","medium_url":"https://perenual.com/storage/species_image/3988_hyacinthus_orientalis_etouffee/medium/51873660144_9c0dceba17_b.jpg","small_url":"https://perenual.com/storage/species_image/3988_hyacinthus_orientalis_etouffee/small/51873660144_9c0dceba17_b.jpg","thumbnail":"https://perenual.com/storage/species_image/3988_hyacinthus_orientalis_etouffee/thumbnail/51873660144_9c0dceba17_b.jpg"}},{"id":3989,"common_name":"common hyacinth","scientific_name":["Hyacinthus orientalis 'Woodstock'"],"other_name":null,"cycle":"Perennial","watering":"Average","sunlight":["Full sun"],"default_image":{"image_id":9,"license":5,"license_name":"Attribution-ShareAlike License","license_url":"https://creativecommons.org/licenses/by-sa/2.0/","original_url":"https://perenual.com/storage/species_image/2_abies_alba_pyramidalis/og/49255769768_df55596553_b.jpg","regular_url":"https://perenual.com/storage/species_image/2_abies_alba_pyramidalis/regular/49255769768_df55596553_b.jpg","medium_url":"https://perenual.com/storage/species_image/2_abies_alba_pyramidalis/medium/49255769768_df55596553_b.jpg","small_url":"https://perenual.com/storage/species_image/2_abies_alba_pyramidalis/small/49255769768_df55596553_b.jpg","thumbnail":"https://perenual.com/storage/species_image/2_abies_alba_pyramidalis/thumbnail/49255769768_df55596553_b.jpg"}},{"id":3990,"common_name":"hydnocarpus","scientific_name":["Hydnocarpus anthelminthicus"],"other_name":null,"cycle":"Perennial","watering":"Average","sunlight":["Full sun"],"default_image":{"image_id":7996,"license":5,"license_name":"Attribution-ShareAlike License","license_url":"https://creativecommons.org/licenses/by-sa/2.0/","original_url":"https://perenual.com/storage/species_image/3990_hydnocarpus_anthelminthicus/og/49109161112_f349aa595a_b.jpg","regular_url":"https://perenual.com/storage/species_image/3990_hydnocarpus_anthelminthicus/regular/49109161112_f349aa595a_b.jpg","medium_url":"https://perenual.com/storage/species_image/3990_hydnocarpus_anthelminthicus/medium/49109161112_f349aa595a_b.jpg","small_url":"https://perenual.com/storage/species_image/3990_hydnocarpus_anthelminthicus/small/49109161112_f349aa595a_b.jpg","thumbnail":"https://perenual.com/storage/species_image/3990_hydnocarpus_anthelminthicus/thumbnail/49109161112_f349aa595a_b.jpg"}}],"to":3990,"per_page":30,"current_page":133,"from":3961,"last_page":200,"total":6000}