{"data":[{"id":2971,"common_name":"meadowsweet","scientific_name":["Filipendula ulmaria"],"other_name":null,"cycle":"Perennial","watering":"Frequent","sunlight":["Full sun","part shade"],"default_image":{"image_id":6426,"license":4,"license_name":"Attribution License","license_url":"https://creativecommons.org/licenses/by/2.0/","original_url":"https://perenual.com/storage/species_image/2971_filipendula_ulmaria/og/51339307289_4ef146bf8b_b.jpg","regular_url":"https://perenual.com/storage/species_image/2971_filipendula_ulmaria/regular/51339307289_4ef146bf8b_b.jpg","medium_url":"https://perenual.com/storage/species_image/2971_filipendula_ulmaria/medium/51339307289_4ef146bf8b_b.jpg","small_url":"https://perenual.com/storage/species_image/2971_filipendula_ulmaria/small/51339307289_4ef146bf8b_b.jpg","thumbnail":"https://perenual.com/storage/species_image/2971_filipendula_ulmaria/thumbnail/51339307289_4ef146bf8b_b.jpg"}},{"id":2972,"common_name":"meadowsweet","scientific_name":["Filipendula ulmaria 'Aurea'"],"other_name":null,"cycle":"Perennial","watering":"Frequent","sunlight":["Full sun","part shade"],"default_image":{"image_id":6427,"license":5,"license_name":"Attribution-ShareAlike License","license_url":"https://creativecommons.org/licenses/by-sa/2.0/","original_url":"https://perenual.com/storage/species_image/2972_filipendula_ulmaria_aurea/og/49949465237_a477231922_b.jpg","regular_url":"https://perenual.com/storage/species_image/2972_filipendula_ulmaria_aurea/regular/49949465237_a477231922_b.jpg","medium_url":"https://perenual.com/storage/species_image/2972_filipendula_ulmaria_aurea/medium/49949465237_a477231922_b.jpg","small_url":"https://perenual.com/storage/species_image/2972_filipendula_ulmaria_aurea/small/49949465237_a477231922_b.jpg","thumbnail":"https://perenual.com/storage/species_image/2972_filipendula_ulmaria_aurea/thumbnail/49949465237_a477231922_b.jpg"}},{"id":2973,"common_name":"meadowsweet","scientific_name":["Filipendula ulmaria 'Variegata'"],"other_name":null,"cycle":"Perennial","watering":"Frequent","sunlight":["Full sun","part shade"],"default_image":{"image_id":6428,"license":5,"license_name":"Attribution-ShareAlike License","license_url":"https://creativecommons.org/licenses/by-sa/2.0/","original_url":"https://perenual.com/storage/species_image/2973_filipendula_ulmaria_variegata/og/51189796733_2b3948bccf_b.jpg","regular_url":"https://perenual.com/storage/species_image/2973_filipendula_ulmaria_variegata/regular/51189796733_2b3948bccf_b.jpg","medium_url":"https://perenual.com/storage/species_image/2973_filipendula_ulmaria_variegata/medium/51189796733_2b3948bccf_b.jpg","small_url":"https://perenual.com/storage/species_image/2973_filipendula_ulmaria_variegata/small/51189796733_2b3948bccf_b.jpg","thumbnail":"https://perenual.com/storage/species_image/2973_filipendula_ulmaria_variegata/thumbnail/51189796733_2b3948bccf_b.jpg"}},{"id":2974,"common_name":"dropwort","scientific_name":["Filipendula vulgaris"],"other_name":null,"cycle":"Perennial","watering":"Minimum","sunlight":["Full sun"],"default_image":{"image_id":6429,"license":5,"license_name":"Attribution-ShareAlike License","license_url":"https://creativecommons.org/licenses/by-sa/2.0/","original_url":"https://perenual.com/storage/species_image/2974_filipendula_vulgaris/og/35924537233_4a6eea83ac_b.jpg","regular_url":"https://perenual.com/storage/species_image/2974_filipendula_vulgaris/regular/35924537233_4a6eea83ac_b.jpg","medium_url":"https://perenual.com/storage/species_image/2974_filipendula_vulgaris/medium/35924537233_4a6eea83ac_b.jpg","small_url":"https://perenual.com/storage/species_image/2974_filipendula_vulgaris/small/35924537233_4a6eea83ac_b.jpg","thumbnail":"https://perenual.com/storage/species_image/2974_filipendula_vulgaris/thumbnail/35924537233_4a6eea83ac_b.jpg"}},{"id":2975,"common_name":"dropwort","scientific_name":["Filipendula vulgaris 'Multiplex'"],"other_name":null,"cycle":"Perennial","watering":"Minimum","sunlight":["Full sun"],"default_image":{"image_id":6436,"license":5,"license_name":"Attribution-ShareAlike License","license_url":"https://creativecommons.org/licenses/by-sa/2.0/","original_url":"https://perenual.com/storage/species_image/2975_filipendula_vulgaris_multiplex/og/9187614702_fdb7352983_b.jpg","regular_url":"https://perenual.com/storage/species_image/2975_filipendula_vulgaris_multiplex/regular/9187614702_fdb7352983_b.jpg","medium_url":"https://perenual.com/storage/species_image/2975_filipendula_vulgaris_multiplex/medium/9187614702_fdb7352983_b.jpg","small_url":"https://perenual.com/storage/species_image/2975_filipendula_vulgaris_multiplex/small/9187614702_fdb7352983_b.jpg","thumbnail":"https://perenual.com/storage/species_image/2975_filipendula_vulgaris_multiplex/thumbnail/9187614702_fdb7352983_b.jpg"}},{"id":2976,"common_name":"silver fittonia","scientific_name":["Fittonia albivenis (Argyroneura Group)"],"other_name":null,"cycle":"Perennial","watering":"Average","sunlight":["Part shade"],"default_image":{"image_id":6437,"license":4,"license_name":"Attribution License","license_url":"https://creativecommons.org/licenses/by/2.0/","original_url":"https://perenual.com/storage/species_image/2976_fittonia_albivenis_argyroneura_group/og/31305214210_9ba80cb730_b.jpg","regular_url":"https://perenual.com/storage/species_image/2976_fittonia_albivenis_argyroneura_group/regular/31305214210_9ba80cb730_b.jpg","medium_url":"https://perenual.com/storage/species_image/2976_fittonia_albivenis_argyroneura_group/medium/31305214210_9ba80cb730_b.jpg","small_url":"https://perenual.com/storage/species_image/2976_fittonia_albivenis_argyroneura_group/small/31305214210_9ba80cb730_b.jpg","thumbnail":"https://perenual.com/storage/species_image/2976_fittonia_albivenis_argyroneura_group/thumbnail/31305214210_9ba80cb730_b.jpg"}},{"id":2977,"common_name":"yi yè qiu","scientific_name":["Flueggea suffruticosa"],"other_name":null,"cycle":"Perennial","watering":"Average","sunlight":["Full sun"],"default_image":{"image_id":9,"license":5,"license_name":"Attribution-ShareAlike License","license_url":"https://creativecommons.org/licenses/by-sa/2.0/","original_url":"https://perenual.com/storage/species_image/2_abies_alba_pyramidalis/og/49255769768_df55596553_b.jpg","regular_url":"https://perenual.com/storage/species_image/2_abies_alba_pyramidalis/regular/49255769768_df55596553_b.jpg","medium_url":"https://perenual.com/storage/species_image/2_abies_alba_pyramidalis/medium/49255769768_df55596553_b.jpg","small_url":"https://perenual.com/storage/species_image/2_abies_alba_pyramidalis/small/49255769768_df55596553_b.jpg","thumbnail":"https://perenual.com/storage/species_image/2_abies_alba_pyramidalis/thumbnail/49255769768_df55596553_b.jpg"}},{"id":2978,"common_name":"sweet fennel","scientific_name":["Foeniculum vulgare"],"other_name":null,"cycle":"Perennial","watering":"Average","sunlight":["Full sun"],"default_image":{"image_id":6443,"license":4,"license_name":"Attribution License","license_url":"https://creativecommons.org/licenses/by/2.0/","original_url":"https://perenual.com/storage/species_image/2978_foeniculum_vulgare/og/52216230274_ff3a047be4_b.jpg","regular_url":"https://perenual.com/storage/species_image/2978_foeniculum_vulgare/regular/52216230274_ff3a047be4_b.jpg","medium_url":"https://perenual.com/storage/species_image/2978_foeniculum_vulgare/medium/52216230274_ff3a047be4_b.jpg","small_url":"https://perenual.com/storage/species_image/2978_foeniculum_vulgare/small/52216230274_ff3a047be4_b.jpg","thumbnail":"https://perenual.com/storage/species_image/2978_foeniculum_vulgare/thumbnail/52216230274_ff3a047be4_b.jpg"}},{"id":2979,"common_name":"fennel","scientific_name":["Foeniculum vulgare 'Purpureum'"],"other_name":null,"cycle":"Perennial","watering":"Average","sunlight":["Full sun"],"default_image":{"image_id":9,"license":5,"license_name":"Attribution-ShareAlike License","license_url":"https://creativecommons.org/licenses/by-sa/2.0/","original_url":"https://perenual.com/storage/species_image/2_abies_alba_pyramidalis/og/49255769768_df55596553_b.jpg","regular_url":"https://perenual.com/storage/species_image/2_abies_alba_pyramidalis/regular/49255769768_df55596553_b.jpg","medium_url":"https://perenual.com/storage/species_image/2_abies_alba_pyramidalis/medium/49255769768_df55596553_b.jpg","small_url":"https://perenual.com/storage/species_image/2_abies_alba_pyramidalis/small/49255769768_df55596553_b.jpg","thumbnail":"https://perenual.com/storage/species_image/2_abies_alba_pyramidalis/thumbnail/49255769768_df55596553_b.jpg"}},{"id":2980,"common_name":"fennel","scientific_name":["Foeniculum vulgare 'Smokey'"],"other_name":null,"cycle":"Perennial","watering":"Average","sunlight":["Full sun"],"default_image":{"image_id":9,"license":5,"license_name":"Attribution-ShareAlike License","license_url":"https://creativecommons.org/licenses/by-sa/2.0/","original_url":"https://perenual.com/storage/species_image/2_abies_alba_pyramidalis/og/49255769768_df55596553_b.jpg","regular_url":"https://perenual.com/storage/species_image/2_abies_alba_pyramidalis/regular/49255769768_df55596553_b.jpg","medium_url":"https://perenual.com/storage/species_image/2_abies_alba_pyramidalis/medium/49255769768_df55596553_b.jpg","small_url":"https://perenual.com/storage/species_image/2_abies_alba_pyramidalis/small/49255769768_df55596553_b.jpg","thumbnail":"https://perenual.com/storage/species_image/2_abies_alba_pyramidalis/thumbnail/49255769768_df55596553_b.jpg"}},{"id":2981,"common_name":"fokienia","scientific_name":["Fokienia hodginsii"],"other_name":null,"cycle":"Perennial","watering":"Average","sunlight":["Full sun","part shade"],"default_image":{"image_id":9,"license":5,"license_name":"Attribution-ShareAlike License","license_url":"https://creativecommons.org/licenses/by-sa/2.0/","original_url":"https://perenual.com/storage/species_image/2_abies_alba_pyramidalis/og/49255769768_df55596553_b.jpg","regular_url":"https://perenual.com/storage/species_image/2_abies_alba_pyramidalis/regular/49255769768_df55596553_b.jpg","medium_url":"https://perenual.com/storage/species_image/2_abies_alba_pyramidalis/medium/49255769768_df55596553_b.jpg","small_url":"https://perenual.com/storage/species_image/2_abies_alba_pyramidalis/small/49255769768_df55596553_b.jpg","thumbnail":"https://perenual.com/storage/species_image/2_abies_alba_pyramidalis/thumbnail/49255769768_df55596553_b.jpg"}},{"id":2982,"common_name":"forsythia","scientific_name":["Forsythia 'Arnold Dwarf'"],"other_name":null,"cycle":"Perennial","watering":"Average","sunlight":["Full sun","part shade"],"default_image":{"image_id":9,"license":5,"license_name":"Attribution-ShareAlike License","license_url":"https://creativecommons.org/licenses/by-sa/2.0/","original_url":"https://perenual.com/storage/species_image/2_abies_alba_pyramidalis/og/49255769768_df55596553_b.jpg","regular_url":"https://perenual.com/storage/species_image/2_abies_alba_pyramidalis/regular/49255769768_df55596553_b.jpg","medium_url":"https://perenual.com/storage/species_image/2_abies_alba_pyramidalis/medium/49255769768_df55596553_b.jpg","small_url":"https://perenual.com/storage/species_image/2_abies_alba_pyramidalis/small/49255769768_df55596553_b.jpg","thumbnail":"https://perenual.com/storage/species_image/2_abies_alba_pyramidalis/thumbnail/49255769768_df55596553_b.jpg"}},{"id":2983,"common_name":"forsythia","scientific_name":["Forsythia 'Courtacour' GOLDILOCKS"],"other_name":null,"cycle":"Perennial","watering":"Average","sunlight":["Full sun","part shade"],"default_image":{"image_id":6456,"license":4,"license_name":"Attribution License","license_url":"https://creativecommons.org/licenses/by/2.0/","original_url":"https://perenual.com/storage/species_image/2983_forsythia_courtacour_goldilocks/og/52051721986_b6e005f235_b.jpg","regular_url":"https://perenual.com/storage/species_image/2983_forsythia_courtacour_goldilocks/regular/52051721986_b6e005f235_b.jpg","medium_url":"https://perenual.com/storage/species_image/2983_forsythia_courtacour_goldilocks/medium/52051721986_b6e005f235_b.jpg","small_url":"https://perenual.com/storage/species_image/2983_forsythia_courtacour_goldilocks/small/52051721986_b6e005f235_b.jpg","thumbnail":"https://perenual.com/storage/species_image/2983_forsythia_courtacour_goldilocks/thumbnail/52051721986_b6e005f235_b.jpg"}},{"id":2984,"common_name":"forsythia","scientific_name":["Forsythia 'Courtasol' GOLD TIDE"],"other_name":null,"cycle":"Perennial","watering":"Average","sunlight":["Full sun","part shade"],"default_image":{"image_id":9,"license":5,"license_name":"Attribution-ShareAlike License","license_url":"https://creativecommons.org/licenses/by-sa/2.0/","original_url":"https://perenual.com/storage/species_image/2_abies_alba_pyramidalis/og/49255769768_df55596553_b.jpg","regular_url":"https://perenual.com/storage/species_image/2_abies_alba_pyramidalis/regular/49255769768_df55596553_b.jpg","medium_url":"https://perenual.com/storage/species_image/2_abies_alba_pyramidalis/medium/49255769768_df55596553_b.jpg","small_url":"https://perenual.com/storage/species_image/2_abies_alba_pyramidalis/small/49255769768_df55596553_b.jpg","thumbnail":"https://perenual.com/storage/species_image/2_abies_alba_pyramidalis/thumbnail/49255769768_df55596553_b.jpg"}},{"id":2985,"common_name":"forsythia","scientific_name":["Forsythia 'Fiesta'"],"other_name":null,"cycle":"Perennial","watering":"Average","sunlight":["Full sun","part shade"],"default_image":{"image_id":6458,"license":5,"license_name":"Attribution-ShareAlike License","license_url":"https://creativecommons.org/licenses/by-sa/2.0/","original_url":"https://perenual.com/storage/species_image/2985_forsythia_fiesta/og/27738333626_3c1f8f7be2_b.jpg","regular_url":"https://perenual.com/storage/species_image/2985_forsythia_fiesta/regular/27738333626_3c1f8f7be2_b.jpg","medium_url":"https://perenual.com/storage/species_image/2985_forsythia_fiesta/medium/27738333626_3c1f8f7be2_b.jpg","small_url":"https://perenual.com/storage/species_image/2985_forsythia_fiesta/small/27738333626_3c1f8f7be2_b.jpg","thumbnail":"https://perenual.com/storage/species_image/2985_forsythia_fiesta/thumbnail/27738333626_3c1f8f7be2_b.jpg"}},{"id":2986,"common_name":"forsythia","scientific_name":["Forsythia 'Happy Centennial'"],"other_name":null,"cycle":"Perennial","watering":"Average","sunlight":["Full sun","part shade"],"default_image":{"image_id":9,"license":5,"license_name":"Attribution-ShareAlike License","license_url":"https://creativecommons.org/licenses/by-sa/2.0/","original_url":"https://perenual.com/storage/species_image/2_abies_alba_pyramidalis/og/49255769768_df55596553_b.jpg","regular_url":"https://perenual.com/storage/species_image/2_abies_alba_pyramidalis/regular/49255769768_df55596553_b.jpg","medium_url":"https://perenual.com/storage/species_image/2_abies_alba_pyramidalis/medium/49255769768_df55596553_b.jpg","small_url":"https://perenual.com/storage/species_image/2_abies_alba_pyramidalis/small/49255769768_df55596553_b.jpg","thumbnail":"https://perenual.com/storage/species_image/2_abies_alba_pyramidalis/thumbnail/49255769768_df55596553_b.jpg"}},{"id":2987,"common_name":"border forsythia","scientific_name":["Forsythia intermedia 'Arnold Giant'"],"other_name":null,"cycle":"Perennial","watering":"Average","sunlight":["Full sun","part shade"],"default_image":{"image_id":6460,"license":45,"license_name":"Attribution-ShareAlike 3.0 Unported (CC BY-SA 3.0)","license_url":"https://creativecommons.org/licenses/by-sa/3.0/deed.en","original_url":"https://perenual.com/storage/species_image/2987_forsythia_intermedia_arnold_giant/og/20160408Forsythia_x_intermedia1.jpg","regular_url":"https://perenual.com/storage/species_image/2987_forsythia_intermedia_arnold_giant/regular/20160408Forsythia_x_intermedia1.jpg","medium_url":"https://perenual.com/storage/species_image/2987_forsythia_intermedia_arnold_giant/medium/20160408Forsythia_x_intermedia1.jpg","small_url":"https://perenual.com/storage/species_image/2987_forsythia_intermedia_arnold_giant/small/20160408Forsythia_x_intermedia1.jpg","thumbnail":"https://perenual.com/storage/species_image/2987_forsythia_intermedia_arnold_giant/thumbnail/20160408Forsythia_x_intermedia1.jpg"}},{"id":2988,"common_name":"border forsythia","scientific_name":["Forsythia intermedia 'Courdijau' GOLDEN PEEP"],"other_name":null,"cycle":"Perennial","watering":"Average","sunlight":["Full sun","part shade"],"default_image":{"image_id":6461,"license":4,"license_name":"Attribution License","license_url":"https://creativecommons.org/licenses/by/2.0/","original_url":"https://perenual.com/storage/species_image/2994_forsythia_intermedia_sunrise/og/4592591556_84b8f7f51b_b.jpg","regular_url":"https://perenual.com/storage/species_image/2994_forsythia_intermedia_sunrise/regular/4592591556_84b8f7f51b_b.jpg","medium_url":"https://perenual.com/storage/species_image/2994_forsythia_intermedia_sunrise/medium/4592591556_84b8f7f51b_b.jpg","small_url":"https://perenual.com/storage/species_image/2994_forsythia_intermedia_sunrise/small/4592591556_84b8f7f51b_b.jpg","thumbnail":"https://perenual.com/storage/species_image/2994_forsythia_intermedia_sunrise/thumbnail/4592591556_84b8f7f51b_b.jpg"}},{"id":2989,"common_name":"border forsythia","scientific_name":["Forsythia intermedia 'Flojor' MINIGOLD"],"other_name":null,"cycle":"Perennial","watering":"Average","sunlight":["Full sun","part shade"],"default_image":{"image_id":6462,"license":4,"license_name":"Attribution License","license_url":"https://creativecommons.org/licenses/by/2.0/","original_url":"https://perenual.com/storage/species_image/2989_forsythia_intermedia_flojor_minigold/og/4527384747_74ee433a1e_b.jpg","regular_url":"https://perenual.com/storage/species_image/2989_forsythia_intermedia_flojor_minigold/regular/4527384747_74ee433a1e_b.jpg","medium_url":"https://perenual.com/storage/species_image/2989_forsythia_intermedia_flojor_minigold/medium/4527384747_74ee433a1e_b.jpg","small_url":"https://perenual.com/storage/species_image/2989_forsythia_intermedia_flojor_minigold/small/4527384747_74ee433a1e_b.jpg","thumbnail":"https://perenual.com/storage/species_image/2989_forsythia_intermedia_flojor_minigold/thumbnail/4527384747_74ee433a1e_b.jpg"}},{"id":2990,"common_name":"forsythia","scientific_name":["Forsythia intermedia 'Gold Leaf'"],"other_name":null,"cycle":"Perennial","watering":"Average","sunlight":["Full sun","part shade"],"default_image":{"image_id":6463,"license":4,"license_name":"Attribution License","license_url":"https://creativecommons.org/licenses/by/2.0/","original_url":"https://perenual.com/storage/species_image/2990_forsythia_intermedia_gold_leaf/og/52036567415_22ee79de8a_b.jpg","regular_url":"https://perenual.com/storage/species_image/2990_forsythia_intermedia_gold_leaf/regular/52036567415_22ee79de8a_b.jpg","medium_url":"https://perenual.com/storage/species_image/2990_forsythia_intermedia_gold_leaf/medium/52036567415_22ee79de8a_b.jpg","small_url":"https://perenual.com/storage/species_image/2990_forsythia_intermedia_gold_leaf/small/52036567415_22ee79de8a_b.jpg","thumbnail":"https://perenual.com/storage/species_image/2990_forsythia_intermedia_gold_leaf/thumbnail/52036567415_22ee79de8a_b.jpg"}},{"id":2991,"common_name":"border forsythia","scientific_name":["Forsythia intermedia 'Kolgold' MAGICAL GOLD"],"other_name":null,"cycle":"Perennial","watering":"Average","sunlight":["Full sun","part shade"],"default_image":{"image_id":6464,"license":4,"license_name":"Attribution License","license_url":"https://creativecommons.org/licenses/by/2.0/","original_url":"https://perenual.com/storage/species_image/2991_forsythia_intermedia_kolgold_magical_gold/og/4528015512_578958f7a7_b.jpg","regular_url":"https://perenual.com/storage/species_image/2991_forsythia_intermedia_kolgold_magical_gold/regular/4528015512_578958f7a7_b.jpg","medium_url":"https://perenual.com/storage/species_image/2991_forsythia_intermedia_kolgold_magical_gold/medium/4528015512_578958f7a7_b.jpg","small_url":"https://perenual.com/storage/species_image/2991_forsythia_intermedia_kolgold_magical_gold/small/4528015512_578958f7a7_b.jpg","thumbnail":"https://perenual.com/storage/species_image/2991_forsythia_intermedia_kolgold_magical_gold/thumbnail/4528015512_578958f7a7_b.jpg"}},{"id":2992,"common_name":"border forsythia","scientific_name":["Forsythia intermedia 'Lynwood Variety'"],"other_name":null,"cycle":"Perennial","watering":"Average","sunlight":["Full sun","part shade"],"default_image":{"image_id":6465,"license":4,"license_name":"Attribution License","license_url":"https://creativecommons.org/licenses/by/2.0/","original_url":"https://perenual.com/storage/species_image/2992_forsythia_intermedia_lynwood_variety/og/26367694312_017a6fa365_b.jpg","regular_url":"https://perenual.com/storage/species_image/2992_forsythia_intermedia_lynwood_variety/regular/26367694312_017a6fa365_b.jpg","medium_url":"https://perenual.com/storage/species_image/2992_forsythia_intermedia_lynwood_variety/medium/26367694312_017a6fa365_b.jpg","small_url":"https://perenual.com/storage/species_image/2992_forsythia_intermedia_lynwood_variety/small/26367694312_017a6fa365_b.jpg","thumbnail":"https://perenual.com/storage/species_image/2992_forsythia_intermedia_lynwood_variety/thumbnail/26367694312_017a6fa365_b.jpg"}},{"id":2993,"common_name":"border forsythia","scientific_name":["Forsythia intermedia 'Mindor' SHOW OFF"],"other_name":null,"cycle":"Perennial","watering":"Average","sunlight":["Full sun","part shade"],"default_image":{"image_id":9,"license":5,"license_name":"Attribution-ShareAlike License","license_url":"https://creativecommons.org/licenses/by-sa/2.0/","original_url":"https://perenual.com/storage/species_image/2_abies_alba_pyramidalis/og/49255769768_df55596553_b.jpg","regular_url":"https://perenual.com/storage/species_image/2_abies_alba_pyramidalis/regular/49255769768_df55596553_b.jpg","medium_url":"https://perenual.com/storage/species_image/2_abies_alba_pyramidalis/medium/49255769768_df55596553_b.jpg","small_url":"https://perenual.com/storage/species_image/2_abies_alba_pyramidalis/small/49255769768_df55596553_b.jpg","thumbnail":"https://perenual.com/storage/species_image/2_abies_alba_pyramidalis/thumbnail/49255769768_df55596553_b.jpg"}},{"id":2994,"common_name":"border forsythia","scientific_name":["Forsythia intermedia 'Sunrise'"],"other_name":null,"cycle":"Perennial","watering":"Average","sunlight":["Full sun","part shade"],"default_image":{"image_id":6461,"license":4,"license_name":"Attribution License","license_url":"https://creativecommons.org/licenses/by/2.0/","original_url":"https://perenual.com/storage/species_image/2994_forsythia_intermedia_sunrise/og/4592591556_84b8f7f51b_b.jpg","regular_url":"https://perenual.com/storage/species_image/2994_forsythia_intermedia_sunrise/regular/4592591556_84b8f7f51b_b.jpg","medium_url":"https://perenual.com/storage/species_image/2994_forsythia_intermedia_sunrise/medium/4592591556_84b8f7f51b_b.jpg","small_url":"https://perenual.com/storage/species_image/2994_forsythia_intermedia_sunrise/small/4592591556_84b8f7f51b_b.jpg","thumbnail":"https://perenual.com/storage/species_image/2994_forsythia_intermedia_sunrise/thumbnail/4592591556_84b8f7f51b_b.jpg"}},{"id":2995,"common_name":"border forsythia","scientific_name":["Forsythia intermedia 'Variegata'"],"other_name":null,"cycle":"Perennial","watering":"Average","sunlight":["Full sun","part shade"],"default_image":{"image_id":6467,"license":45,"license_name":"Attribution-ShareAlike 3.0 Unported (CC BY-SA 3.0)","license_url":"https://creativecommons.org/licenses/by-sa/3.0/deed.en","original_url":"https://perenual.com/storage/species_image/2995_forsythia_intermedia_variegata/og/Forsythia_-intermedia-golden-times2.jpg","regular_url":"https://perenual.com/storage/species_image/2995_forsythia_intermedia_variegata/regular/Forsythia_-intermedia-golden-times2.jpg","medium_url":"https://perenual.com/storage/species_image/2995_forsythia_intermedia_variegata/medium/Forsythia_-intermedia-golden-times2.jpg","small_url":"https://perenual.com/storage/species_image/2995_forsythia_intermedia_variegata/small/Forsythia_-intermedia-golden-times2.jpg","thumbnail":"https://perenual.com/storage/species_image/2995_forsythia_intermedia_variegata/thumbnail/Forsythia_-intermedia-golden-times2.jpg"}},{"id":2996,"common_name":"forsythia","scientific_name":["Forsythia 'Meadowlark'"],"other_name":null,"cycle":"Perennial","watering":"Average","sunlight":["Full sun","part shade"],"default_image":{"image_id":9,"license":5,"license_name":"Attribution-ShareAlike License","license_url":"https://creativecommons.org/licenses/by-sa/2.0/","original_url":"https://perenual.com/storage/species_image/2_abies_alba_pyramidalis/og/49255769768_df55596553_b.jpg","regular_url":"https://perenual.com/storage/species_image/2_abies_alba_pyramidalis/regular/49255769768_df55596553_b.jpg","medium_url":"https://perenual.com/storage/species_image/2_abies_alba_pyramidalis/medium/49255769768_df55596553_b.jpg","small_url":"https://perenual.com/storage/species_image/2_abies_alba_pyramidalis/small/49255769768_df55596553_b.jpg","thumbnail":"https://perenual.com/storage/species_image/2_abies_alba_pyramidalis/thumbnail/49255769768_df55596553_b.jpg"}},{"id":2997,"common_name":"Korean forsythia","scientific_name":["Forsythia ovata"],"other_name":null,"cycle":"Perennial","watering":"Average","sunlight":["Full sun","part shade"],"default_image":{"image_id":9,"license":5,"license_name":"Attribution-ShareAlike License","license_url":"https://creativecommons.org/licenses/by-sa/2.0/","original_url":"https://perenual.com/storage/species_image/2_abies_alba_pyramidalis/og/49255769768_df55596553_b.jpg","regular_url":"https://perenual.com/storage/species_image/2_abies_alba_pyramidalis/regular/49255769768_df55596553_b.jpg","medium_url":"https://perenual.com/storage/species_image/2_abies_alba_pyramidalis/medium/49255769768_df55596553_b.jpg","small_url":"https://perenual.com/storage/species_image/2_abies_alba_pyramidalis/small/49255769768_df55596553_b.jpg","thumbnail":"https://perenual.com/storage/species_image/2_abies_alba_pyramidalis/thumbnail/49255769768_df55596553_b.jpg"}},{"id":2998,"common_name":"weeping forsythia","scientific_name":["Forsythia suspensa"],"other_name":null,"cycle":"Perennial","watering":"Average","sunlight":["Full sun","part shade"],"default_image":{"image_id":6476,"license":5,"license_name":"Attribution-ShareAlike License","license_url":"https://creativecommons.org/licenses/by-sa/2.0/","original_url":"https://perenual.com/storage/species_image/3000_forsythia_viridissima_bronxensis/og/26170857033_214e4fbb27_b.jpg","regular_url":"https://perenual.com/storage/species_image/3000_forsythia_viridissima_bronxensis/regular/26170857033_214e4fbb27_b.jpg","medium_url":"https://perenual.com/storage/species_image/3000_forsythia_viridissima_bronxensis/medium/26170857033_214e4fbb27_b.jpg","small_url":"https://perenual.com/storage/species_image/3000_forsythia_viridissima_bronxensis/small/26170857033_214e4fbb27_b.jpg","thumbnail":"https://perenual.com/storage/species_image/3000_forsythia_viridissima_bronxensis/thumbnail/26170857033_214e4fbb27_b.jpg"}},{"id":2999,"common_name":"greenstem forsythia","scientific_name":["Forsythia viridissima 'Border Gem'"],"other_name":null,"cycle":"Perennial","watering":"Average","sunlight":["Full sun","part shade"],"default_image":{"image_id":9,"license":5,"license_name":"Attribution-ShareAlike License","license_url":"https://creativecommons.org/licenses/by-sa/2.0/","original_url":"https://perenual.com/storage/species_image/2_abies_alba_pyramidalis/og/49255769768_df55596553_b.jpg","regular_url":"https://perenual.com/storage/species_image/2_abies_alba_pyramidalis/regular/49255769768_df55596553_b.jpg","medium_url":"https://perenual.com/storage/species_image/2_abies_alba_pyramidalis/medium/49255769768_df55596553_b.jpg","small_url":"https://perenual.com/storage/species_image/2_abies_alba_pyramidalis/small/49255769768_df55596553_b.jpg","thumbnail":"https://perenual.com/storage/species_image/2_abies_alba_pyramidalis/thumbnail/49255769768_df55596553_b.jpg"}},{"id":3000,"common_name":"greenstem forsythia","scientific_name":["Forsythia viridissima 'Bronxensis'"],"other_name":null,"cycle":"Perennial","watering":"Average","sunlight":["Full sun","part shade"],"default_image":{"image_id":6476,"license":5,"license_name":"Attribution-ShareAlike License","license_url":"https://creativecommons.org/licenses/by-sa/2.0/","original_url":"https://perenual.com/storage/species_image/3000_forsythia_viridissima_bronxensis/og/26170857033_214e4fbb27_b.jpg","regular_url":"https://perenual.com/storage/species_image/3000_forsythia_viridissima_bronxensis/regular/26170857033_214e4fbb27_b.jpg","medium_url":"https://perenual.com/storage/species_image/3000_forsythia_viridissima_bronxensis/medium/26170857033_214e4fbb27_b.jpg","small_url":"https://perenual.com/storage/species_image/3000_forsythia_viridissima_bronxensis/small/26170857033_214e4fbb27_b.jpg","thumbnail":"https://perenual.com/storage/species_image/3000_forsythia_viridissima_bronxensis/thumbnail/26170857033_214e4fbb27_b.jpg"}}],"to":3000,"per_page":30,"current_page":100,"from":2971,"last_page":200,"total":6000}