{"data":[{"id":3061,"common_name":"blanket flower","scientific_name":["Gaillardia aristata BARBICAN YELLOW RED RING"],"other_name":null,"cycle":"Perennial","watering":"Minimum","sunlight":["Full sun"],"default_image":{"image_id":6616,"license":451,"license_name":"CC0 1.0 Universal (CC0 1.0) Public Domain Dedication","license_url":"https://creativecommons.org/publicdomain/zero/1.0/","original_url":"https://perenual.com/storage/species_image/3061_gaillardia_aristata_barbican_yellow_red_ring/og/pexels-photo-14773521.jpg","regular_url":"https://perenual.com/storage/species_image/3061_gaillardia_aristata_barbican_yellow_red_ring/regular/pexels-photo-14773521.jpg","medium_url":"https://perenual.com/storage/species_image/3061_gaillardia_aristata_barbican_yellow_red_ring/medium/pexels-photo-14773521.jpg","small_url":"https://perenual.com/storage/species_image/3061_gaillardia_aristata_barbican_yellow_red_ring/small/pexels-photo-14773521.jpg","thumbnail":"https://perenual.com/storage/species_image/3061_gaillardia_aristata_barbican_yellow_red_ring/thumbnail/pexels-photo-14773521.jpg"}},{"id":3062,"common_name":"blanket flower","scientific_name":["Gaillardia aristata 'Bijou'"],"other_name":null,"cycle":"Perennial","watering":"Minimum","sunlight":["Full sun"],"default_image":{"image_id":6617,"license":451,"license_name":"CC0 1.0 Universal (CC0 1.0) Public Domain Dedication","license_url":"https://creativecommons.org/publicdomain/zero/1.0/","original_url":"https://perenual.com/storage/species_image/3062_gaillardia_aristata_bijou/og/pexels-photo-7448744.jpg","regular_url":"https://perenual.com/storage/species_image/3062_gaillardia_aristata_bijou/regular/pexels-photo-7448744.jpg","medium_url":"https://perenual.com/storage/species_image/3062_gaillardia_aristata_bijou/medium/pexels-photo-7448744.jpg","small_url":"https://perenual.com/storage/species_image/3062_gaillardia_aristata_bijou/small/pexels-photo-7448744.jpg","thumbnail":"https://perenual.com/storage/species_image/3062_gaillardia_aristata_bijou/thumbnail/pexels-photo-7448744.jpg"}},{"id":3063,"common_name":"blanket flower","scientific_name":["Gaillardia 'Arizona Apricot'"],"other_name":null,"cycle":"Perennial","watering":"Minimum","sunlight":["Full sun"],"default_image":{"image_id":6619,"license":5,"license_name":"Attribution-ShareAlike License","license_url":"https://creativecommons.org/licenses/by-sa/2.0/","original_url":"https://perenual.com/storage/species_image/3063_gaillardia_arizona_apricot/og/36330637956_34cc8c7301_b.jpg","regular_url":"https://perenual.com/storage/species_image/3063_gaillardia_arizona_apricot/regular/36330637956_34cc8c7301_b.jpg","medium_url":"https://perenual.com/storage/species_image/3063_gaillardia_arizona_apricot/medium/36330637956_34cc8c7301_b.jpg","small_url":"https://perenual.com/storage/species_image/3063_gaillardia_arizona_apricot/small/36330637956_34cc8c7301_b.jpg","thumbnail":"https://perenual.com/storage/species_image/3063_gaillardia_arizona_apricot/thumbnail/36330637956_34cc8c7301_b.jpg"}},{"id":3064,"common_name":"blanket flower","scientific_name":["Gaillardia 'Arizona Sun'"],"other_name":null,"cycle":"Perennial","watering":"Minimum","sunlight":["Full sun"],"default_image":{"image_id":9,"license":5,"license_name":"Attribution-ShareAlike License","license_url":"https://creativecommons.org/licenses/by-sa/2.0/","original_url":"https://perenual.com/storage/species_image/2_abies_alba_pyramidalis/og/49255769768_df55596553_b.jpg","regular_url":"https://perenual.com/storage/species_image/2_abies_alba_pyramidalis/regular/49255769768_df55596553_b.jpg","medium_url":"https://perenual.com/storage/species_image/2_abies_alba_pyramidalis/medium/49255769768_df55596553_b.jpg","small_url":"https://perenual.com/storage/species_image/2_abies_alba_pyramidalis/small/49255769768_df55596553_b.jpg","thumbnail":"https://perenual.com/storage/species_image/2_abies_alba_pyramidalis/thumbnail/49255769768_df55596553_b.jpg"}},{"id":3065,"common_name":"blanket flower","scientific_name":["Gaillardia 'Frenzy'"],"other_name":null,"cycle":"Perennial","watering":"Minimum","sunlight":["Full sun"],"default_image":{"image_id":9,"license":5,"license_name":"Attribution-ShareAlike License","license_url":"https://creativecommons.org/licenses/by-sa/2.0/","original_url":"https://perenual.com/storage/species_image/2_abies_alba_pyramidalis/og/49255769768_df55596553_b.jpg","regular_url":"https://perenual.com/storage/species_image/2_abies_alba_pyramidalis/regular/49255769768_df55596553_b.jpg","medium_url":"https://perenual.com/storage/species_image/2_abies_alba_pyramidalis/medium/49255769768_df55596553_b.jpg","small_url":"https://perenual.com/storage/species_image/2_abies_alba_pyramidalis/small/49255769768_df55596553_b.jpg","thumbnail":"https://perenual.com/storage/species_image/2_abies_alba_pyramidalis/thumbnail/49255769768_df55596553_b.jpg"}},{"id":3066,"common_name":"blanket flower","scientific_name":["Gaillardia grandiflora"],"other_name":null,"cycle":"Perennial","watering":"Minimum","sunlight":["Full sun"],"default_image":{"image_id":9,"license":5,"license_name":"Attribution-ShareAlike License","license_url":"https://creativecommons.org/licenses/by-sa/2.0/","original_url":"https://perenual.com/storage/species_image/2_abies_alba_pyramidalis/og/49255769768_df55596553_b.jpg","regular_url":"https://perenual.com/storage/species_image/2_abies_alba_pyramidalis/regular/49255769768_df55596553_b.jpg","medium_url":"https://perenual.com/storage/species_image/2_abies_alba_pyramidalis/medium/49255769768_df55596553_b.jpg","small_url":"https://perenual.com/storage/species_image/2_abies_alba_pyramidalis/small/49255769768_df55596553_b.jpg","thumbnail":"https://perenual.com/storage/species_image/2_abies_alba_pyramidalis/thumbnail/49255769768_df55596553_b.jpg"}},{"id":3067,"common_name":"blanket flower","scientific_name":["Gaillardia grandiflora 'Burgunder'"],"other_name":null,"cycle":"Perennial","watering":"Minimum","sunlight":["Full sun"],"default_image":{"image_id":9,"license":5,"license_name":"Attribution-ShareAlike License","license_url":"https://creativecommons.org/licenses/by-sa/2.0/","original_url":"https://perenual.com/storage/species_image/2_abies_alba_pyramidalis/og/49255769768_df55596553_b.jpg","regular_url":"https://perenual.com/storage/species_image/2_abies_alba_pyramidalis/regular/49255769768_df55596553_b.jpg","medium_url":"https://perenual.com/storage/species_image/2_abies_alba_pyramidalis/medium/49255769768_df55596553_b.jpg","small_url":"https://perenual.com/storage/species_image/2_abies_alba_pyramidalis/small/49255769768_df55596553_b.jpg","thumbnail":"https://perenual.com/storage/species_image/2_abies_alba_pyramidalis/thumbnail/49255769768_df55596553_b.jpg"}},{"id":3068,"common_name":"blanket flower","scientific_name":["Gaillardia grandiflora 'Sun Devil'"],"other_name":null,"cycle":"Perennial","watering":"Minimum","sunlight":["Full sun"],"default_image":{"image_id":6625,"license":5,"license_name":"Attribution-ShareAlike License","license_url":"https://creativecommons.org/licenses/by-sa/2.0/","original_url":"https://perenual.com/storage/species_image/3068_gaillardia_grandiflora_sun_devil/og/51911939261_d89d35c248_b.jpg","regular_url":"https://perenual.com/storage/species_image/3068_gaillardia_grandiflora_sun_devil/regular/51911939261_d89d35c248_b.jpg","medium_url":"https://perenual.com/storage/species_image/3068_gaillardia_grandiflora_sun_devil/medium/51911939261_d89d35c248_b.jpg","small_url":"https://perenual.com/storage/species_image/3068_gaillardia_grandiflora_sun_devil/small/51911939261_d89d35c248_b.jpg","thumbnail":"https://perenual.com/storage/species_image/3068_gaillardia_grandiflora_sun_devil/thumbnail/51911939261_d89d35c248_b.jpg"}},{"id":3072,"common_name":"blanket flower","scientific_name":["Gaillardia 'Tizzy'"],"other_name":null,"cycle":"Perennial","watering":"Minimum","sunlight":["Full sun"],"default_image":{"image_id":6633,"license":4,"license_name":"Attribution License","license_url":"https://creativecommons.org/licenses/by/2.0/","original_url":"https://perenual.com/storage/species_image/3072_gaillardia_tizzy/og/51380761788_a6f6d74fd7_b.jpg","regular_url":"https://perenual.com/storage/species_image/3072_gaillardia_tizzy/regular/51380761788_a6f6d74fd7_b.jpg","medium_url":"https://perenual.com/storage/species_image/3072_gaillardia_tizzy/medium/51380761788_a6f6d74fd7_b.jpg","small_url":"https://perenual.com/storage/species_image/3072_gaillardia_tizzy/small/51380761788_a6f6d74fd7_b.jpg","thumbnail":"https://perenual.com/storage/species_image/3072_gaillardia_tizzy/thumbnail/51380761788_a6f6d74fd7_b.jpg"}},{"id":3073,"common_name":"blanket flower","scientific_name":["Gaillardia 'Tokajer'"],"other_name":null,"cycle":"Perennial","watering":"Minimum","sunlight":["Full sun"],"default_image":{"image_id":9,"license":5,"license_name":"Attribution-ShareAlike License","license_url":"https://creativecommons.org/licenses/by-sa/2.0/","original_url":"https://perenual.com/storage/species_image/2_abies_alba_pyramidalis/og/49255769768_df55596553_b.jpg","regular_url":"https://perenual.com/storage/species_image/2_abies_alba_pyramidalis/regular/49255769768_df55596553_b.jpg","medium_url":"https://perenual.com/storage/species_image/2_abies_alba_pyramidalis/medium/49255769768_df55596553_b.jpg","small_url":"https://perenual.com/storage/species_image/2_abies_alba_pyramidalis/small/49255769768_df55596553_b.jpg","thumbnail":"https://perenual.com/storage/species_image/2_abies_alba_pyramidalis/thumbnail/49255769768_df55596553_b.jpg"}},{"id":3074,"common_name":"snowdrop","scientific_name":["Galanthus alpinus"],"other_name":null,"cycle":"Perennial","watering":"Average","sunlight":["Full sun","part shade"],"default_image":{"image_id":9,"license":5,"license_name":"Attribution-ShareAlike License","license_url":"https://creativecommons.org/licenses/by-sa/2.0/","original_url":"https://perenual.com/storage/species_image/2_abies_alba_pyramidalis/og/49255769768_df55596553_b.jpg","regular_url":"https://perenual.com/storage/species_image/2_abies_alba_pyramidalis/regular/49255769768_df55596553_b.jpg","medium_url":"https://perenual.com/storage/species_image/2_abies_alba_pyramidalis/medium/49255769768_df55596553_b.jpg","small_url":"https://perenual.com/storage/species_image/2_abies_alba_pyramidalis/small/49255769768_df55596553_b.jpg","thumbnail":"https://perenual.com/storage/species_image/2_abies_alba_pyramidalis/thumbnail/49255769768_df55596553_b.jpg"}},{"id":3075,"common_name":"snowdrop","scientific_name":["Galanthus elwesii"],"other_name":null,"cycle":"Perennial","watering":"Average","sunlight":["Full sun","part shade"],"default_image":{"image_id":6639,"license":6,"license_name":"Attribution-NoDerivs License","license_url":"https://creativecommons.org/licenses/by-nd/2.0/","original_url":"https://perenual.com/storage/species_image/3075_galanthus_elwesii/og/52601036730_df77767fd8_b.jpg"}},{"id":3076,"common_name":"snowdrop","scientific_name":["Galanthus ikariae"],"other_name":null,"cycle":"Perennial","watering":"Average","sunlight":["Full sun","part shade"],"default_image":{"image_id":6641,"license":5,"license_name":"Attribution-ShareAlike License","license_url":"https://creativecommons.org/licenses/by-sa/2.0/","original_url":"https://perenual.com/storage/species_image/3076_galanthus_ikariae/og/46752366541_b95af20853_b.jpg","regular_url":"https://perenual.com/storage/species_image/3076_galanthus_ikariae/regular/46752366541_b95af20853_b.jpg","medium_url":"https://perenual.com/storage/species_image/3076_galanthus_ikariae/medium/46752366541_b95af20853_b.jpg","small_url":"https://perenual.com/storage/species_image/3076_galanthus_ikariae/small/46752366541_b95af20853_b.jpg","thumbnail":"https://perenual.com/storage/species_image/3076_galanthus_ikariae/thumbnail/46752366541_b95af20853_b.jpg"}},{"id":3077,"common_name":"snowdrop","scientific_name":["Galanthus nivalis"],"other_name":null,"cycle":"Perennial","watering":"Average","sunlight":["Full sun","part shade"],"default_image":{"image_id":6643,"license":5,"license_name":"Attribution-ShareAlike License","license_url":"https://creativecommons.org/licenses/by-sa/2.0/","original_url":"https://perenual.com/storage/species_image/3077_galanthus_nivalis/og/51949718034_4141507fd8_b.jpg","regular_url":"https://perenual.com/storage/species_image/3077_galanthus_nivalis/regular/51949718034_4141507fd8_b.jpg","medium_url":"https://perenual.com/storage/species_image/3077_galanthus_nivalis/medium/51949718034_4141507fd8_b.jpg","small_url":"https://perenual.com/storage/species_image/3077_galanthus_nivalis/small/51949718034_4141507fd8_b.jpg","thumbnail":"https://perenual.com/storage/species_image/3077_galanthus_nivalis/thumbnail/51949718034_4141507fd8_b.jpg"}},{"id":3078,"common_name":"snowdrop","scientific_name":["Galanthus nivalis 'Flore Pleno'"],"other_name":null,"cycle":"Perennial","watering":"Average","sunlight":["Full sun","part shade"],"default_image":{"image_id":9,"license":5,"license_name":"Attribution-ShareAlike License","license_url":"https://creativecommons.org/licenses/by-sa/2.0/","original_url":"https://perenual.com/storage/species_image/2_abies_alba_pyramidalis/og/49255769768_df55596553_b.jpg","regular_url":"https://perenual.com/storage/species_image/2_abies_alba_pyramidalis/regular/49255769768_df55596553_b.jpg","medium_url":"https://perenual.com/storage/species_image/2_abies_alba_pyramidalis/medium/49255769768_df55596553_b.jpg","small_url":"https://perenual.com/storage/species_image/2_abies_alba_pyramidalis/small/49255769768_df55596553_b.jpg","thumbnail":"https://perenual.com/storage/species_image/2_abies_alba_pyramidalis/thumbnail/49255769768_df55596553_b.jpg"}},{"id":3079,"common_name":"snowdrop","scientific_name":["Galanthus nivalis 'Viridi-apice'"],"other_name":null,"cycle":"Perennial","watering":"Average","sunlight":["Full sun","part shade"],"default_image":{"image_id":6647,"license":4,"license_name":"Attribution License","license_url":"https://creativecommons.org/licenses/by/2.0/","original_url":"https://perenual.com/storage/species_image/3079_galanthus_nivalis_viridi-apice/og/52607507425_c62b646561_b.jpg","regular_url":"https://perenual.com/storage/species_image/3079_galanthus_nivalis_viridi-apice/regular/52607507425_c62b646561_b.jpg","medium_url":"https://perenual.com/storage/species_image/3079_galanthus_nivalis_viridi-apice/medium/52607507425_c62b646561_b.jpg","small_url":"https://perenual.com/storage/species_image/3079_galanthus_nivalis_viridi-apice/small/52607507425_c62b646561_b.jpg","thumbnail":"https://perenual.com/storage/species_image/3079_galanthus_nivalis_viridi-apice/thumbnail/52607507425_c62b646561_b.jpg"}},{"id":3080,"common_name":"orchid","scientific_name":["Galearis spectabilis"],"other_name":null,"cycle":"Perennial","watering":"Average","sunlight":["Part shade","full shade"],"default_image":{"image_id":6652,"license":4,"license_name":"Attribution License","license_url":"https://creativecommons.org/licenses/by/2.0/","original_url":"https://perenual.com/storage/species_image/3080_galearis_spectabilis/og/49654187207_aed1b37e7e_b.jpg","regular_url":"https://perenual.com/storage/species_image/3080_galearis_spectabilis/regular/49654187207_aed1b37e7e_b.jpg","medium_url":"https://perenual.com/storage/species_image/3080_galearis_spectabilis/medium/49654187207_aed1b37e7e_b.jpg","small_url":"https://perenual.com/storage/species_image/3080_galearis_spectabilis/small/49654187207_aed1b37e7e_b.jpg","thumbnail":"https://perenual.com/storage/species_image/3080_galearis_spectabilis/thumbnail/49654187207_aed1b37e7e_b.jpg"}},{"id":3081,"common_name":"northern bedstraw","scientific_name":["Galium boreale"],"other_name":null,"cycle":"Perennial","watering":"Average","sunlight":["Part shade"],"default_image":{"image_id":6653,"license":5,"license_name":"Attribution-ShareAlike License","license_url":"https://creativecommons.org/licenses/by-sa/2.0/","original_url":"https://perenual.com/storage/species_image/3081_galium_boreale/og/52370738836_4994a67655_b.jpg","regular_url":"https://perenual.com/storage/species_image/3081_galium_boreale/regular/52370738836_4994a67655_b.jpg","medium_url":"https://perenual.com/storage/species_image/3081_galium_boreale/medium/52370738836_4994a67655_b.jpg","small_url":"https://perenual.com/storage/species_image/3081_galium_boreale/small/52370738836_4994a67655_b.jpg","thumbnail":"https://perenual.com/storage/species_image/3081_galium_boreale/thumbnail/52370738836_4994a67655_b.jpg"}},{"id":3082,"common_name":"licorice bedstraw","scientific_name":["Galium circaezans"],"other_name":null,"cycle":"Perennial","watering":"Minimum","sunlight":["Part shade"],"default_image":{"image_id":9,"license":5,"license_name":"Attribution-ShareAlike License","license_url":"https://creativecommons.org/licenses/by-sa/2.0/","original_url":"https://perenual.com/storage/species_image/2_abies_alba_pyramidalis/og/49255769768_df55596553_b.jpg","regular_url":"https://perenual.com/storage/species_image/2_abies_alba_pyramidalis/regular/49255769768_df55596553_b.jpg","medium_url":"https://perenual.com/storage/species_image/2_abies_alba_pyramidalis/medium/49255769768_df55596553_b.jpg","small_url":"https://perenual.com/storage/species_image/2_abies_alba_pyramidalis/small/49255769768_df55596553_b.jpg","thumbnail":"https://perenual.com/storage/species_image/2_abies_alba_pyramidalis/thumbnail/49255769768_df55596553_b.jpg"}},{"id":3069,"common_name":"blanket flower","scientific_name":["Gaillardia grandiflora 'TNSF' SUN FLARE"],"other_name":null,"cycle":"Perennial","watering":"Minimum","sunlight":["Full sun"],"default_image":{"image_id":9,"license":5,"license_name":"Attribution-ShareAlike License","license_url":"https://creativecommons.org/licenses/by-sa/2.0/","original_url":"https://perenual.com/storage/species_image/2_abies_alba_pyramidalis/og/49255769768_df55596553_b.jpg","regular_url":"https://perenual.com/storage/species_image/2_abies_alba_pyramidalis/regular/49255769768_df55596553_b.jpg","medium_url":"https://perenual.com/storage/species_image/2_abies_alba_pyramidalis/medium/49255769768_df55596553_b.jpg","small_url":"https://perenual.com/storage/species_image/2_abies_alba_pyramidalis/small/49255769768_df55596553_b.jpg","thumbnail":"https://perenual.com/storage/species_image/2_abies_alba_pyramidalis/thumbnail/49255769768_df55596553_b.jpg"}},{"id":3070,"common_name":"blanket flower","scientific_name":["Gaillardia 'Oranges and Lemons'"],"other_name":null,"cycle":"Perennial","watering":"Minimum","sunlight":["Full sun"],"default_image":{"image_id":9,"license":5,"license_name":"Attribution-ShareAlike License","license_url":"https://creativecommons.org/licenses/by-sa/2.0/","original_url":"https://perenual.com/storage/species_image/2_abies_alba_pyramidalis/og/49255769768_df55596553_b.jpg","regular_url":"https://perenual.com/storage/species_image/2_abies_alba_pyramidalis/regular/49255769768_df55596553_b.jpg","medium_url":"https://perenual.com/storage/species_image/2_abies_alba_pyramidalis/medium/49255769768_df55596553_b.jpg","small_url":"https://perenual.com/storage/species_image/2_abies_alba_pyramidalis/small/49255769768_df55596553_b.jpg","thumbnail":"https://perenual.com/storage/species_image/2_abies_alba_pyramidalis/thumbnail/49255769768_df55596553_b.jpg"}},{"id":3071,"common_name":"Indian blanket","scientific_name":["Gaillardia pulchella"],"other_name":null,"cycle":"Perennial","watering":"Minimum","sunlight":["Full sun"],"default_image":{"image_id":6631,"license":6,"license_name":"Attribution-NoDerivs License","license_url":"https://creativecommons.org/licenses/by-nd/2.0/","original_url":"https://perenual.com/storage/species_image/3071_gaillardia_pulchella/og/52434465742_092344ec5c_b.jpg"}},{"id":3083,"common_name":"sweetscented bedstraw","scientific_name":["Galium odoratum"],"other_name":null,"cycle":"Perennial","watering":"Frequent","sunlight":["Filtered shade"," Full sun"," Part sun/part shade"],"default_image":{"image_id":9,"license":5,"license_name":"Attribution-ShareAlike License","license_url":"https://creativecommons.org/licenses/by-sa/2.0/","original_url":"https://perenual.com/storage/species_image/2_abies_alba_pyramidalis/og/49255769768_df55596553_b.jpg","regular_url":"https://perenual.com/storage/species_image/2_abies_alba_pyramidalis/regular/49255769768_df55596553_b.jpg","medium_url":"https://perenual.com/storage/species_image/2_abies_alba_pyramidalis/medium/49255769768_df55596553_b.jpg","small_url":"https://perenual.com/storage/species_image/2_abies_alba_pyramidalis/small/49255769768_df55596553_b.jpg","thumbnail":"https://perenual.com/storage/species_image/2_abies_alba_pyramidalis/thumbnail/49255769768_df55596553_b.jpg"}},{"id":3084,"common_name":"yellow spring bedstraw","scientific_name":["Galium verum"],"other_name":null,"cycle":"Perennial","watering":"Minimum","sunlight":["Full sun","part shade"],"default_image":{"image_id":6658,"license":4,"license_name":"Attribution License","license_url":"https://creativecommons.org/licenses/by/2.0/","original_url":"https://perenual.com/storage/species_image/3084_galium_verum/og/52285401639_cda85deb8e_b.jpg","regular_url":"https://perenual.com/storage/species_image/3084_galium_verum/regular/52285401639_cda85deb8e_b.jpg","medium_url":"https://perenual.com/storage/species_image/3084_galium_verum/medium/52285401639_cda85deb8e_b.jpg","small_url":"https://perenual.com/storage/species_image/3084_galium_verum/small/52285401639_cda85deb8e_b.jpg","thumbnail":"https://perenual.com/storage/species_image/3084_galium_verum/thumbnail/52285401639_cda85deb8e_b.jpg"}},{"id":3085,"common_name":"slender goldshower","scientific_name":["Galphimia gracilis"],"other_name":null,"cycle":"Perennial","watering":"Average","sunlight":["Full sun","part shade"],"default_image":{"image_id":6661,"license":4,"license_name":"Attribution License","license_url":"https://creativecommons.org/licenses/by/2.0/","original_url":"https://perenual.com/storage/species_image/3085_galphimia_gracilis/og/24273392664_c60a98e069_b.jpg","regular_url":"https://perenual.com/storage/species_image/3085_galphimia_gracilis/regular/24273392664_c60a98e069_b.jpg","medium_url":"https://perenual.com/storage/species_image/3085_galphimia_gracilis/medium/24273392664_c60a98e069_b.jpg","small_url":"https://perenual.com/storage/species_image/3085_galphimia_gracilis/small/24273392664_c60a98e069_b.jpg","thumbnail":"https://perenual.com/storage/species_image/3085_galphimia_gracilis/thumbnail/24273392664_c60a98e069_b.jpg"}},{"id":3086,"common_name":"mangosteen","scientific_name":["Garcinia mangostana"],"other_name":null,"cycle":"Perennial","watering":"Average","sunlight":["Full sun"],"default_image":{"image_id":6662,"license":5,"license_name":"Attribution-ShareAlike License","license_url":"https://creativecommons.org/licenses/by-sa/2.0/","original_url":"https://perenual.com/storage/species_image/3086_garcinia_mangostana/og/7126762579_0c3270ee80_b.jpg","regular_url":"https://perenual.com/storage/species_image/3086_garcinia_mangostana/regular/7126762579_0c3270ee80_b.jpg","medium_url":"https://perenual.com/storage/species_image/3086_garcinia_mangostana/medium/7126762579_0c3270ee80_b.jpg","small_url":"https://perenual.com/storage/species_image/3086_garcinia_mangostana/small/7126762579_0c3270ee80_b.jpg","thumbnail":"https://perenual.com/storage/species_image/3086_garcinia_mangostana/thumbnail/7126762579_0c3270ee80_b.jpg"}},{"id":3087,"common_name":"gardenia","scientific_name":["Gardenia jasminoides"],"other_name":null,"cycle":"Perennial","watering":"Average","sunlight":["Part sun/part shade"],"default_image":{"image_id":9,"license":5,"license_name":"Attribution-ShareAlike License","license_url":"https://creativecommons.org/licenses/by-sa/2.0/","original_url":"https://perenual.com/storage/species_image/2_abies_alba_pyramidalis/og/49255769768_df55596553_b.jpg","regular_url":"https://perenual.com/storage/species_image/2_abies_alba_pyramidalis/regular/49255769768_df55596553_b.jpg","medium_url":"https://perenual.com/storage/species_image/2_abies_alba_pyramidalis/medium/49255769768_df55596553_b.jpg","small_url":"https://perenual.com/storage/species_image/2_abies_alba_pyramidalis/small/49255769768_df55596553_b.jpg","thumbnail":"https://perenual.com/storage/species_image/2_abies_alba_pyramidalis/thumbnail/49255769768_df55596553_b.jpg"}},{"id":3088,"common_name":"gardenia","scientific_name":["Gardenia jasminoides 'Bab1183' SUMMER SNOW"],"other_name":null,"cycle":"Perennial","watering":"Average","sunlight":["Part sun/part shade"],"default_image":{"image_id":9,"license":5,"license_name":"Attribution-ShareAlike License","license_url":"https://creativecommons.org/licenses/by-sa/2.0/","original_url":"https://perenual.com/storage/species_image/2_abies_alba_pyramidalis/og/49255769768_df55596553_b.jpg","regular_url":"https://perenual.com/storage/species_image/2_abies_alba_pyramidalis/regular/49255769768_df55596553_b.jpg","medium_url":"https://perenual.com/storage/species_image/2_abies_alba_pyramidalis/medium/49255769768_df55596553_b.jpg","small_url":"https://perenual.com/storage/species_image/2_abies_alba_pyramidalis/small/49255769768_df55596553_b.jpg","thumbnail":"https://perenual.com/storage/species_image/2_abies_alba_pyramidalis/thumbnail/49255769768_df55596553_b.jpg"}},{"id":3089,"common_name":"gardenia","scientific_name":["Gardenia jasminoides 'Crown Jewel'"],"other_name":null,"cycle":"Perennial","watering":"Average","sunlight":["Part sun/part shade"],"default_image":{"image_id":9,"license":5,"license_name":"Attribution-ShareAlike License","license_url":"https://creativecommons.org/licenses/by-sa/2.0/","original_url":"https://perenual.com/storage/species_image/2_abies_alba_pyramidalis/og/49255769768_df55596553_b.jpg","regular_url":"https://perenual.com/storage/species_image/2_abies_alba_pyramidalis/regular/49255769768_df55596553_b.jpg","medium_url":"https://perenual.com/storage/species_image/2_abies_alba_pyramidalis/medium/49255769768_df55596553_b.jpg","small_url":"https://perenual.com/storage/species_image/2_abies_alba_pyramidalis/small/49255769768_df55596553_b.jpg","thumbnail":"https://perenual.com/storage/species_image/2_abies_alba_pyramidalis/thumbnail/49255769768_df55596553_b.jpg"}},{"id":3090,"common_name":"gardenia","scientific_name":["Gardenia jasminoides 'Grif's Select'"],"other_name":null,"cycle":"Perennial","watering":"Average","sunlight":["Part sun/part shade"],"default_image":{"image_id":9,"license":5,"license_name":"Attribution-ShareAlike License","license_url":"https://creativecommons.org/licenses/by-sa/2.0/","original_url":"https://perenual.com/storage/species_image/2_abies_alba_pyramidalis/og/49255769768_df55596553_b.jpg","regular_url":"https://perenual.com/storage/species_image/2_abies_alba_pyramidalis/regular/49255769768_df55596553_b.jpg","medium_url":"https://perenual.com/storage/species_image/2_abies_alba_pyramidalis/medium/49255769768_df55596553_b.jpg","small_url":"https://perenual.com/storage/species_image/2_abies_alba_pyramidalis/small/49255769768_df55596553_b.jpg","thumbnail":"https://perenual.com/storage/species_image/2_abies_alba_pyramidalis/thumbnail/49255769768_df55596553_b.jpg"}}],"to":3090,"per_page":30,"current_page":103,"from":3061,"last_page":200,"total":6000}