{"data":[{"id":3451,"common_name":"hellebore","scientific_name":["Helleborus purpurascens 'Red Power'"],"other_name":null,"cycle":"Perennial","watering":"Average","sunlight":["Part shade","full shade"],"default_image":{"image_id":9,"license":5,"license_name":"Attribution-ShareAlike License","license_url":"https://creativecommons.org/licenses/by-sa/2.0/","original_url":"https://perenual.com/storage/species_image/2_abies_alba_pyramidalis/og/49255769768_df55596553_b.jpg","regular_url":"https://perenual.com/storage/species_image/2_abies_alba_pyramidalis/regular/49255769768_df55596553_b.jpg","medium_url":"https://perenual.com/storage/species_image/2_abies_alba_pyramidalis/medium/49255769768_df55596553_b.jpg","small_url":"https://perenual.com/storage/species_image/2_abies_alba_pyramidalis/small/49255769768_df55596553_b.jpg","thumbnail":"https://perenual.com/storage/species_image/2_abies_alba_pyramidalis/thumbnail/49255769768_df55596553_b.jpg"}},{"id":3452,"common_name":"hellebore","scientific_name":["Helleborus 'Red Racer'"],"other_name":null,"cycle":"Perennial","watering":"Average","sunlight":["Part shade","full shade"],"default_image":{"image_id":7291,"license":5,"license_name":"Attribution-ShareAlike License","license_url":"https://creativecommons.org/licenses/by-sa/2.0/","original_url":"https://perenual.com/storage/species_image/3452_helleborus_red_racer/og/52028430662_534e00a2b0_b.jpg","regular_url":"https://perenual.com/storage/species_image/3452_helleborus_red_racer/regular/52028430662_534e00a2b0_b.jpg","medium_url":"https://perenual.com/storage/species_image/3452_helleborus_red_racer/medium/52028430662_534e00a2b0_b.jpg","small_url":"https://perenual.com/storage/species_image/3452_helleborus_red_racer/small/52028430662_534e00a2b0_b.jpg","thumbnail":"https://perenual.com/storage/species_image/3452_helleborus_red_racer/thumbnail/52028430662_534e00a2b0_b.jpg"}},{"id":3453,"common_name":"hellebore","scientific_name":["Helleborus 'Regal Ruffles'"],"other_name":null,"cycle":"Perennial","watering":"Average","sunlight":["Part shade","full shade"],"default_image":{"image_id":7312,"license":6,"license_name":"Attribution-NoDerivs License","license_url":"https://creativecommons.org/licenses/by-nd/2.0/","original_url":"https://perenual.com/storage/species_image/3453_helleborus_regal_ruffles/og/52054275238_43a2293060_b.jpg"}},{"id":3454,"common_name":"hellebore","scientific_name":["Helleborus 'Royal Heritage'"],"other_name":null,"cycle":"Perennial","watering":"Average","sunlight":["Part shade","full shade"],"default_image":{"image_id":9,"license":5,"license_name":"Attribution-ShareAlike License","license_url":"https://creativecommons.org/licenses/by-sa/2.0/","original_url":"https://perenual.com/storage/species_image/2_abies_alba_pyramidalis/og/49255769768_df55596553_b.jpg","regular_url":"https://perenual.com/storage/species_image/2_abies_alba_pyramidalis/regular/49255769768_df55596553_b.jpg","medium_url":"https://perenual.com/storage/species_image/2_abies_alba_pyramidalis/medium/49255769768_df55596553_b.jpg","small_url":"https://perenual.com/storage/species_image/2_abies_alba_pyramidalis/small/49255769768_df55596553_b.jpg","thumbnail":"https://perenual.com/storage/species_image/2_abies_alba_pyramidalis/thumbnail/49255769768_df55596553_b.jpg"}},{"id":3455,"common_name":"hellebore","scientific_name":["Helleborus 'Snowbells'"],"other_name":null,"cycle":"Perennial","watering":"Average","sunlight":["Part shade","full shade"],"default_image":{"image_id":9,"license":5,"license_name":"Attribution-ShareAlike License","license_url":"https://creativecommons.org/licenses/by-sa/2.0/","original_url":"https://perenual.com/storage/species_image/2_abies_alba_pyramidalis/og/49255769768_df55596553_b.jpg","regular_url":"https://perenual.com/storage/species_image/2_abies_alba_pyramidalis/regular/49255769768_df55596553_b.jpg","medium_url":"https://perenual.com/storage/species_image/2_abies_alba_pyramidalis/medium/49255769768_df55596553_b.jpg","small_url":"https://perenual.com/storage/species_image/2_abies_alba_pyramidalis/small/49255769768_df55596553_b.jpg","thumbnail":"https://perenual.com/storage/species_image/2_abies_alba_pyramidalis/thumbnail/49255769768_df55596553_b.jpg"}},{"id":3456,"common_name":"Christmas rose","scientific_name":["Helleborus 'Walhelivor' IVORY PRINCE"],"other_name":null,"cycle":"Perennial","watering":"Average","sunlight":["Part shade","full shade"],"default_image":{"image_id":7317,"license":4,"license_name":"Attribution License","license_url":"https://creativecommons.org/licenses/by/2.0/","original_url":"https://perenual.com/storage/species_image/3456_helleborus_walhelivor_ivory_prince/og/50930314682_3221d29bb0_b.jpg","regular_url":"https://perenual.com/storage/species_image/3456_helleborus_walhelivor_ivory_prince/regular/50930314682_3221d29bb0_b.jpg","medium_url":"https://perenual.com/storage/species_image/3456_helleborus_walhelivor_ivory_prince/medium/50930314682_3221d29bb0_b.jpg","small_url":"https://perenual.com/storage/species_image/3456_helleborus_walhelivor_ivory_prince/small/50930314682_3221d29bb0_b.jpg","thumbnail":"https://perenual.com/storage/species_image/3456_helleborus_walhelivor_ivory_prince/thumbnail/50930314682_3221d29bb0_b.jpg"}},{"id":3457,"common_name":"hellebore","scientific_name":["Helleborus 'Winter Joy Bouquet'"],"other_name":null,"cycle":"Perennial","watering":"Average","sunlight":["Part shade","full shade"],"default_image":{"image_id":9,"license":5,"license_name":"Attribution-ShareAlike License","license_url":"https://creativecommons.org/licenses/by-sa/2.0/","original_url":"https://perenual.com/storage/species_image/2_abies_alba_pyramidalis/og/49255769768_df55596553_b.jpg","regular_url":"https://perenual.com/storage/species_image/2_abies_alba_pyramidalis/regular/49255769768_df55596553_b.jpg","medium_url":"https://perenual.com/storage/species_image/2_abies_alba_pyramidalis/medium/49255769768_df55596553_b.jpg","small_url":"https://perenual.com/storage/species_image/2_abies_alba_pyramidalis/small/49255769768_df55596553_b.jpg","thumbnail":"https://perenual.com/storage/species_image/2_abies_alba_pyramidalis/thumbnail/49255769768_df55596553_b.jpg"}},{"id":3458,"common_name":"daylily","scientific_name":["Hemerocallis 'Adams Street'"],"other_name":null,"cycle":"Perennial","watering":"Average","sunlight":["Full sun","part shade"],"default_image":{"image_id":9,"license":5,"license_name":"Attribution-ShareAlike License","license_url":"https://creativecommons.org/licenses/by-sa/2.0/","original_url":"https://perenual.com/storage/species_image/2_abies_alba_pyramidalis/og/49255769768_df55596553_b.jpg","regular_url":"https://perenual.com/storage/species_image/2_abies_alba_pyramidalis/regular/49255769768_df55596553_b.jpg","medium_url":"https://perenual.com/storage/species_image/2_abies_alba_pyramidalis/medium/49255769768_df55596553_b.jpg","small_url":"https://perenual.com/storage/species_image/2_abies_alba_pyramidalis/small/49255769768_df55596553_b.jpg","thumbnail":"https://perenual.com/storage/species_image/2_abies_alba_pyramidalis/thumbnail/49255769768_df55596553_b.jpg"}},{"id":3459,"common_name":"daylily","scientific_name":["Hemerocallis 'Almost Paradise'"],"other_name":null,"cycle":"Perennial","watering":"Average","sunlight":["Full sun","part shade"],"default_image":{"image_id":7320,"license":5,"license_name":"Attribution-ShareAlike License","license_url":"https://creativecommons.org/licenses/by-sa/2.0/","original_url":"https://perenual.com/storage/species_image/3459_hemerocallis_almost_paradise/og/51431902905_82d49f2bdb_b.jpg","regular_url":"https://perenual.com/storage/species_image/3459_hemerocallis_almost_paradise/regular/51431902905_82d49f2bdb_b.jpg","medium_url":"https://perenual.com/storage/species_image/3459_hemerocallis_almost_paradise/medium/51431902905_82d49f2bdb_b.jpg","small_url":"https://perenual.com/storage/species_image/3459_hemerocallis_almost_paradise/small/51431902905_82d49f2bdb_b.jpg","thumbnail":"https://perenual.com/storage/species_image/3459_hemerocallis_almost_paradise/thumbnail/51431902905_82d49f2bdb_b.jpg"}},{"id":3460,"common_name":"daylily","scientific_name":["Hemerocallis 'Angelotti'"],"other_name":null,"cycle":"Perennial","watering":"Average","sunlight":["Full sun","part shade"],"default_image":{"image_id":9,"license":5,"license_name":"Attribution-ShareAlike License","license_url":"https://creativecommons.org/licenses/by-sa/2.0/","original_url":"https://perenual.com/storage/species_image/2_abies_alba_pyramidalis/og/49255769768_df55596553_b.jpg","regular_url":"https://perenual.com/storage/species_image/2_abies_alba_pyramidalis/regular/49255769768_df55596553_b.jpg","medium_url":"https://perenual.com/storage/species_image/2_abies_alba_pyramidalis/medium/49255769768_df55596553_b.jpg","small_url":"https://perenual.com/storage/species_image/2_abies_alba_pyramidalis/small/49255769768_df55596553_b.jpg","thumbnail":"https://perenual.com/storage/species_image/2_abies_alba_pyramidalis/thumbnail/49255769768_df55596553_b.jpg"}},{"id":3461,"common_name":"daylily","scientific_name":["Hemerocallis 'Apricot'"],"other_name":null,"cycle":"Perennial","watering":"Average","sunlight":["Full sun","part shade"],"default_image":{"image_id":7323,"license":5,"license_name":"Attribution-ShareAlike License","license_url":"https://creativecommons.org/licenses/by-sa/2.0/","original_url":"https://perenual.com/storage/species_image/3461_hemerocallis_apricot/og/50097339173_51e39c0bf9_b.jpg","regular_url":"https://perenual.com/storage/species_image/3461_hemerocallis_apricot/regular/50097339173_51e39c0bf9_b.jpg","medium_url":"https://perenual.com/storage/species_image/3461_hemerocallis_apricot/medium/50097339173_51e39c0bf9_b.jpg","small_url":"https://perenual.com/storage/species_image/3461_hemerocallis_apricot/small/50097339173_51e39c0bf9_b.jpg","thumbnail":"https://perenual.com/storage/species_image/3461_hemerocallis_apricot/thumbnail/50097339173_51e39c0bf9_b.jpg"}},{"id":3462,"common_name":"daylily","scientific_name":["Hemerocallis 'Apricot Beauty'"],"other_name":null,"cycle":"Perennial","watering":"Average","sunlight":["Full sun","part shade"],"default_image":{"image_id":9,"license":5,"license_name":"Attribution-ShareAlike License","license_url":"https://creativecommons.org/licenses/by-sa/2.0/","original_url":"https://perenual.com/storage/species_image/2_abies_alba_pyramidalis/og/49255769768_df55596553_b.jpg","regular_url":"https://perenual.com/storage/species_image/2_abies_alba_pyramidalis/regular/49255769768_df55596553_b.jpg","medium_url":"https://perenual.com/storage/species_image/2_abies_alba_pyramidalis/medium/49255769768_df55596553_b.jpg","small_url":"https://perenual.com/storage/species_image/2_abies_alba_pyramidalis/small/49255769768_df55596553_b.jpg","thumbnail":"https://perenual.com/storage/species_image/2_abies_alba_pyramidalis/thumbnail/49255769768_df55596553_b.jpg"}},{"id":3463,"common_name":"daylily","scientific_name":["Hemerocallis 'Apricot Honey'"],"other_name":null,"cycle":"Perennial","watering":"Average","sunlight":["Full sun","part shade"],"default_image":{"image_id":7326,"license":5,"license_name":"Attribution-ShareAlike License","license_url":"https://creativecommons.org/licenses/by-sa/2.0/","original_url":"https://perenual.com/storage/species_image/3630_hemerocallis_ver00204_everydaylily_yellow_punch/og/52332119471_200e73af3d_b.jpg","regular_url":"https://perenual.com/storage/species_image/3630_hemerocallis_ver00204_everydaylily_yellow_punch/regular/52332119471_200e73af3d_b.jpg","medium_url":"https://perenual.com/storage/species_image/3630_hemerocallis_ver00204_everydaylily_yellow_punch/medium/52332119471_200e73af3d_b.jpg","small_url":"https://perenual.com/storage/species_image/3630_hemerocallis_ver00204_everydaylily_yellow_punch/small/52332119471_200e73af3d_b.jpg","thumbnail":"https://perenual.com/storage/species_image/3630_hemerocallis_ver00204_everydaylily_yellow_punch/thumbnail/52332119471_200e73af3d_b.jpg"}},{"id":3464,"common_name":"daylily","scientific_name":["Hemerocallis 'Apricot Petticoats'"],"other_name":null,"cycle":"Perennial","watering":"Average","sunlight":["Full sun","part shade"],"default_image":{"image_id":9,"license":5,"license_name":"Attribution-ShareAlike License","license_url":"https://creativecommons.org/licenses/by-sa/2.0/","original_url":"https://perenual.com/storage/species_image/2_abies_alba_pyramidalis/og/49255769768_df55596553_b.jpg","regular_url":"https://perenual.com/storage/species_image/2_abies_alba_pyramidalis/regular/49255769768_df55596553_b.jpg","medium_url":"https://perenual.com/storage/species_image/2_abies_alba_pyramidalis/medium/49255769768_df55596553_b.jpg","small_url":"https://perenual.com/storage/species_image/2_abies_alba_pyramidalis/small/49255769768_df55596553_b.jpg","thumbnail":"https://perenual.com/storage/species_image/2_abies_alba_pyramidalis/thumbnail/49255769768_df55596553_b.jpg"}},{"id":3465,"common_name":"daylily","scientific_name":["Hemerocallis 'Apricot Sparkles'"],"other_name":null,"cycle":"Perennial","watering":"Average","sunlight":["Full sun","part shade"],"default_image":{"image_id":7324,"license":5,"license_name":"Attribution-ShareAlike License","license_url":"https://creativecommons.org/licenses/by-sa/2.0/","original_url":"https://perenual.com/storage/species_image/3465_hemerocallis_apricot_sparkles/og/52193417996_362555d654_b.jpg","regular_url":"https://perenual.com/storage/species_image/3465_hemerocallis_apricot_sparkles/regular/52193417996_362555d654_b.jpg","medium_url":"https://perenual.com/storage/species_image/3465_hemerocallis_apricot_sparkles/medium/52193417996_362555d654_b.jpg","small_url":"https://perenual.com/storage/species_image/3465_hemerocallis_apricot_sparkles/small/52193417996_362555d654_b.jpg","thumbnail":"https://perenual.com/storage/species_image/3465_hemerocallis_apricot_sparkles/thumbnail/52193417996_362555d654_b.jpg"}},{"id":3466,"common_name":"tetraploid daylily","scientific_name":["Hemerocallis 'Arabian Magic'"],"other_name":null,"cycle":"Perennial","watering":"Average","sunlight":["Full sun","part shade"],"default_image":{"image_id":7329,"license":5,"license_name":"Attribution-ShareAlike License","license_url":"https://creativecommons.org/licenses/by-sa/2.0/","original_url":"https://perenual.com/storage/species_image/3599_hemerocallis_rosana/og/52377894822_58e27b6592_b.jpg","regular_url":"https://perenual.com/storage/species_image/3599_hemerocallis_rosana/regular/52377894822_58e27b6592_b.jpg","medium_url":"https://perenual.com/storage/species_image/3599_hemerocallis_rosana/medium/52377894822_58e27b6592_b.jpg","small_url":"https://perenual.com/storage/species_image/3599_hemerocallis_rosana/small/52377894822_58e27b6592_b.jpg","thumbnail":"https://perenual.com/storage/species_image/3599_hemerocallis_rosana/thumbnail/52377894822_58e27b6592_b.jpg"}},{"id":3467,"common_name":"daylily","scientific_name":["Hemerocallis 'Atoll'"],"other_name":null,"cycle":"Perennial","watering":"Average","sunlight":["Full sun","part shade"],"default_image":{"image_id":9,"license":5,"license_name":"Attribution-ShareAlike License","license_url":"https://creativecommons.org/licenses/by-sa/2.0/","original_url":"https://perenual.com/storage/species_image/2_abies_alba_pyramidalis/og/49255769768_df55596553_b.jpg","regular_url":"https://perenual.com/storage/species_image/2_abies_alba_pyramidalis/regular/49255769768_df55596553_b.jpg","medium_url":"https://perenual.com/storage/species_image/2_abies_alba_pyramidalis/medium/49255769768_df55596553_b.jpg","small_url":"https://perenual.com/storage/species_image/2_abies_alba_pyramidalis/small/49255769768_df55596553_b.jpg","thumbnail":"https://perenual.com/storage/species_image/2_abies_alba_pyramidalis/thumbnail/49255769768_df55596553_b.jpg"}},{"id":3468,"common_name":"daylily","scientific_name":["Hemerocallis 'Autumn Minaret'"],"other_name":null,"cycle":"Perennial","watering":"Average","sunlight":["Full sun","part shade"],"default_image":{"image_id":7332,"license":5,"license_name":"Attribution-ShareAlike License","license_url":"https://creativecommons.org/licenses/by-sa/2.0/","original_url":"https://perenual.com/storage/species_image/3468_hemerocallis_autumn_minaret/og/52265693180_0b8246911f_b.jpg","regular_url":"https://perenual.com/storage/species_image/3468_hemerocallis_autumn_minaret/regular/52265693180_0b8246911f_b.jpg","medium_url":"https://perenual.com/storage/species_image/3468_hemerocallis_autumn_minaret/medium/52265693180_0b8246911f_b.jpg","small_url":"https://perenual.com/storage/species_image/3468_hemerocallis_autumn_minaret/small/52265693180_0b8246911f_b.jpg","thumbnail":"https://perenual.com/storage/species_image/3468_hemerocallis_autumn_minaret/thumbnail/52265693180_0b8246911f_b.jpg"}},{"id":3469,"common_name":"daylily","scientific_name":["Hemerocallis 'Autumn Red'"],"other_name":null,"cycle":"Perennial","watering":"Average","sunlight":["Full sun","part shade"],"default_image":{"image_id":7334,"license":5,"license_name":"Attribution-ShareAlike License","license_url":"https://creativecommons.org/licenses/by-sa/2.0/","original_url":"https://perenual.com/storage/species_image/3469_hemerocallis_autumn_red/og/52224756688_cf13f0b82e_b.jpg","regular_url":"https://perenual.com/storage/species_image/3469_hemerocallis_autumn_red/regular/52224756688_cf13f0b82e_b.jpg","medium_url":"https://perenual.com/storage/species_image/3469_hemerocallis_autumn_red/medium/52224756688_cf13f0b82e_b.jpg","small_url":"https://perenual.com/storage/species_image/3469_hemerocallis_autumn_red/small/52224756688_cf13f0b82e_b.jpg","thumbnail":"https://perenual.com/storage/species_image/3469_hemerocallis_autumn_red/thumbnail/52224756688_cf13f0b82e_b.jpg"}},{"id":3470,"common_name":"tetraploid daylily","scientific_name":["Hemerocallis 'Aztec Priestess'"],"other_name":null,"cycle":"Perennial","watering":"Average","sunlight":["Full sun","part shade"],"default_image":{"image_id":7336,"license":5,"license_name":"Attribution-ShareAlike License","license_url":"https://creativecommons.org/licenses/by-sa/2.0/","original_url":"https://perenual.com/storage/species_image/3470_hemerocallis_aztec_priestess/og/52274624026_83ac8a8998_b.jpg","regular_url":"https://perenual.com/storage/species_image/3470_hemerocallis_aztec_priestess/regular/52274624026_83ac8a8998_b.jpg","medium_url":"https://perenual.com/storage/species_image/3470_hemerocallis_aztec_priestess/medium/52274624026_83ac8a8998_b.jpg","small_url":"https://perenual.com/storage/species_image/3470_hemerocallis_aztec_priestess/small/52274624026_83ac8a8998_b.jpg","thumbnail":"https://perenual.com/storage/species_image/3470_hemerocallis_aztec_priestess/thumbnail/52274624026_83ac8a8998_b.jpg"}},{"id":3471,"common_name":"tetraploid daylily","scientific_name":["Hemerocallis 'Baby Lamb'"],"other_name":null,"cycle":"Perennial","watering":"Average","sunlight":["Full sun","part shade"],"default_image":{"image_id":7338,"license":5,"license_name":"Attribution-ShareAlike License","license_url":"https://creativecommons.org/licenses/by-sa/2.0/","original_url":"https://perenual.com/storage/species_image/3616_hemerocallis_spacecoast_tiny_perfection/og/52260468727_c19cbdded1_b.jpg","regular_url":"https://perenual.com/storage/species_image/3616_hemerocallis_spacecoast_tiny_perfection/regular/52260468727_c19cbdded1_b.jpg","medium_url":"https://perenual.com/storage/species_image/3616_hemerocallis_spacecoast_tiny_perfection/medium/52260468727_c19cbdded1_b.jpg","small_url":"https://perenual.com/storage/species_image/3616_hemerocallis_spacecoast_tiny_perfection/small/52260468727_c19cbdded1_b.jpg","thumbnail":"https://perenual.com/storage/species_image/3616_hemerocallis_spacecoast_tiny_perfection/thumbnail/52260468727_c19cbdded1_b.jpg"}},{"id":3472,"common_name":"daylily","scientific_name":["Hemerocallis 'Baltimore Oriole'"],"other_name":null,"cycle":"Perennial","watering":"Average","sunlight":["Full sun","part shade"],"default_image":{"image_id":7341,"license":5,"license_name":"Attribution-ShareAlike License","license_url":"https://creativecommons.org/licenses/by-sa/2.0/","original_url":"https://perenual.com/storage/species_image/3472_hemerocallis_baltimore_oriole/og/35512531480_53619922d1_b.jpg","regular_url":"https://perenual.com/storage/species_image/3472_hemerocallis_baltimore_oriole/regular/35512531480_53619922d1_b.jpg","medium_url":"https://perenual.com/storage/species_image/3472_hemerocallis_baltimore_oriole/medium/35512531480_53619922d1_b.jpg","small_url":"https://perenual.com/storage/species_image/3472_hemerocallis_baltimore_oriole/small/35512531480_53619922d1_b.jpg","thumbnail":"https://perenual.com/storage/species_image/3472_hemerocallis_baltimore_oriole/thumbnail/35512531480_53619922d1_b.jpg"}},{"id":3473,"common_name":"daylily","scientific_name":["Hemerocallis 'Black Eyed Stella'"],"other_name":null,"cycle":"Perennial","watering":"Average","sunlight":["Full sun","part shade"],"default_image":{"image_id":7343,"license":5,"license_name":"Attribution-ShareAlike License","license_url":"https://creativecommons.org/licenses/by-sa/2.0/","original_url":"https://perenual.com/storage/species_image/3473_hemerocallis_black_eyed_stella/og/34610862634_6409e6f0d1_b.jpg","regular_url":"https://perenual.com/storage/species_image/3473_hemerocallis_black_eyed_stella/regular/34610862634_6409e6f0d1_b.jpg","medium_url":"https://perenual.com/storage/species_image/3473_hemerocallis_black_eyed_stella/medium/34610862634_6409e6f0d1_b.jpg","small_url":"https://perenual.com/storage/species_image/3473_hemerocallis_black_eyed_stella/small/34610862634_6409e6f0d1_b.jpg","thumbnail":"https://perenual.com/storage/species_image/3473_hemerocallis_black_eyed_stella/thumbnail/34610862634_6409e6f0d1_b.jpg"}},{"id":3474,"common_name":"daylily","scientific_name":["Hemerocallis 'Black Stockings'"],"other_name":null,"cycle":"Perennial","watering":"Average","sunlight":["Full sun","part shade"],"default_image":{"image_id":9,"license":5,"license_name":"Attribution-ShareAlike License","license_url":"https://creativecommons.org/licenses/by-sa/2.0/","original_url":"https://perenual.com/storage/species_image/2_abies_alba_pyramidalis/og/49255769768_df55596553_b.jpg","regular_url":"https://perenual.com/storage/species_image/2_abies_alba_pyramidalis/regular/49255769768_df55596553_b.jpg","medium_url":"https://perenual.com/storage/species_image/2_abies_alba_pyramidalis/medium/49255769768_df55596553_b.jpg","small_url":"https://perenual.com/storage/species_image/2_abies_alba_pyramidalis/small/49255769768_df55596553_b.jpg","thumbnail":"https://perenual.com/storage/species_image/2_abies_alba_pyramidalis/thumbnail/49255769768_df55596553_b.jpg"}},{"id":3475,"common_name":"tetraploid daylily","scientific_name":["Hemerocallis 'Bob Barker'"],"other_name":null,"cycle":"Perennial","watering":"Average","sunlight":["Full sun","part shade"],"default_image":{"image_id":7337,"license":5,"license_name":"Attribution-ShareAlike License","license_url":"https://creativecommons.org/licenses/by-sa/2.0/","original_url":"https://perenual.com/storage/species_image/3542_hemerocallis_judith/og/52274885139_351154fe11_b.jpg","regular_url":"https://perenual.com/storage/species_image/3542_hemerocallis_judith/regular/52274885139_351154fe11_b.jpg","medium_url":"https://perenual.com/storage/species_image/3542_hemerocallis_judith/medium/52274885139_351154fe11_b.jpg","small_url":"https://perenual.com/storage/species_image/3542_hemerocallis_judith/small/52274885139_351154fe11_b.jpg","thumbnail":"https://perenual.com/storage/species_image/3542_hemerocallis_judith/thumbnail/52274885139_351154fe11_b.jpg"}},{"id":3476,"common_name":"daylily","scientific_name":["Hemerocallis 'Bookmark'"],"other_name":null,"cycle":"Perennial","watering":"Average","sunlight":["Full sun","part shade"],"default_image":{"image_id":7346,"license":4,"license_name":"Attribution License","license_url":"https://creativecommons.org/licenses/by/2.0/","original_url":"https://perenual.com/storage/species_image/3564_hemerocallis_marshmallow_cloud/og/52325937693_6580961ed7_b.jpg","regular_url":"https://perenual.com/storage/species_image/3564_hemerocallis_marshmallow_cloud/regular/52325937693_6580961ed7_b.jpg","medium_url":"https://perenual.com/storage/species_image/3564_hemerocallis_marshmallow_cloud/medium/52325937693_6580961ed7_b.jpg","small_url":"https://perenual.com/storage/species_image/3564_hemerocallis_marshmallow_cloud/small/52325937693_6580961ed7_b.jpg","thumbnail":"https://perenual.com/storage/species_image/3564_hemerocallis_marshmallow_cloud/thumbnail/52325937693_6580961ed7_b.jpg"}},{"id":3477,"common_name":"daylily","scientific_name":["Hemerocallis 'Border Class'"],"other_name":null,"cycle":"Perennial","watering":"Average","sunlight":["Full sun","part shade"],"default_image":{"image_id":9,"license":5,"license_name":"Attribution-ShareAlike License","license_url":"https://creativecommons.org/licenses/by-sa/2.0/","original_url":"https://perenual.com/storage/species_image/2_abies_alba_pyramidalis/og/49255769768_df55596553_b.jpg","regular_url":"https://perenual.com/storage/species_image/2_abies_alba_pyramidalis/regular/49255769768_df55596553_b.jpg","medium_url":"https://perenual.com/storage/species_image/2_abies_alba_pyramidalis/medium/49255769768_df55596553_b.jpg","small_url":"https://perenual.com/storage/species_image/2_abies_alba_pyramidalis/small/49255769768_df55596553_b.jpg","thumbnail":"https://perenual.com/storage/species_image/2_abies_alba_pyramidalis/thumbnail/49255769768_df55596553_b.jpg"}},{"id":3478,"common_name":"daylily","scientific_name":["Hemerocallis 'Brookwood Ojo Poco'"],"other_name":null,"cycle":"Perennial","watering":"Average","sunlight":["Full sun","part shade"],"default_image":{"image_id":9,"license":5,"license_name":"Attribution-ShareAlike License","license_url":"https://creativecommons.org/licenses/by-sa/2.0/","original_url":"https://perenual.com/storage/species_image/2_abies_alba_pyramidalis/og/49255769768_df55596553_b.jpg","regular_url":"https://perenual.com/storage/species_image/2_abies_alba_pyramidalis/regular/49255769768_df55596553_b.jpg","medium_url":"https://perenual.com/storage/species_image/2_abies_alba_pyramidalis/medium/49255769768_df55596553_b.jpg","small_url":"https://perenual.com/storage/species_image/2_abies_alba_pyramidalis/small/49255769768_df55596553_b.jpg","thumbnail":"https://perenual.com/storage/species_image/2_abies_alba_pyramidalis/thumbnail/49255769768_df55596553_b.jpg"}},{"id":3479,"common_name":"daylily","scientific_name":["Hemerocallis 'Burlesque'"],"other_name":null,"cycle":"Perennial","watering":"Average","sunlight":["Full sun","part shade"],"default_image":{"image_id":9,"license":5,"license_name":"Attribution-ShareAlike License","license_url":"https://creativecommons.org/licenses/by-sa/2.0/","original_url":"https://perenual.com/storage/species_image/2_abies_alba_pyramidalis/og/49255769768_df55596553_b.jpg","regular_url":"https://perenual.com/storage/species_image/2_abies_alba_pyramidalis/regular/49255769768_df55596553_b.jpg","medium_url":"https://perenual.com/storage/species_image/2_abies_alba_pyramidalis/medium/49255769768_df55596553_b.jpg","small_url":"https://perenual.com/storage/species_image/2_abies_alba_pyramidalis/small/49255769768_df55596553_b.jpg","thumbnail":"https://perenual.com/storage/species_image/2_abies_alba_pyramidalis/thumbnail/49255769768_df55596553_b.jpg"}},{"id":3480,"common_name":"tetraploid daylily","scientific_name":["Hemerocallis 'Call To Worship'"],"other_name":null,"cycle":"Perennial","watering":"Average","sunlight":["Full sun","part shade"],"default_image":{"image_id":7349,"license":5,"license_name":"Attribution-ShareAlike License","license_url":"https://creativecommons.org/licenses/by-sa/2.0/","original_url":"https://perenual.com/storage/species_image/3480_hemerocallis_call_to_worship/og/52275110875_21b2025d31_b.jpg","regular_url":"https://perenual.com/storage/species_image/3480_hemerocallis_call_to_worship/regular/52275110875_21b2025d31_b.jpg","medium_url":"https://perenual.com/storage/species_image/3480_hemerocallis_call_to_worship/medium/52275110875_21b2025d31_b.jpg","small_url":"https://perenual.com/storage/species_image/3480_hemerocallis_call_to_worship/small/52275110875_21b2025d31_b.jpg","thumbnail":"https://perenual.com/storage/species_image/3480_hemerocallis_call_to_worship/thumbnail/52275110875_21b2025d31_b.jpg"}}],"to":3480,"per_page":30,"current_page":116,"from":3451,"last_page":200,"total":6000}