{"data":[{"id":811,"common_name":"windflower","scientific_name":["Anemone coronaria"],"other_name":null,"cycle":"Perennial","watering":"Average","sunlight":["Full sun","part shade"],"default_image":{"image_id":1847,"license":4,"license_name":"Attribution License","license_url":"https://creativecommons.org/licenses/by/2.0/","original_url":"https://perenual.com/storage/species_image/811_anemone_coronaria/og/52260833549_23ea6dc46a_b.jpg","regular_url":"https://perenual.com/storage/species_image/811_anemone_coronaria/regular/52260833549_23ea6dc46a_b.jpg","medium_url":"https://perenual.com/storage/species_image/811_anemone_coronaria/medium/52260833549_23ea6dc46a_b.jpg","small_url":"https://perenual.com/storage/species_image/811_anemone_coronaria/small/52260833549_23ea6dc46a_b.jpg","thumbnail":"https://perenual.com/storage/species_image/811_anemone_coronaria/thumbnail/52260833549_23ea6dc46a_b.jpg"}},{"id":812,"common_name":"windflower","scientific_name":["Anemone cylindrica"],"other_name":["Prairie Thimbleweed","Long Fruited Anemone","Long Headed Thimbleweed","Long Fruited Anemone","Long Headed Thimbleweed"],"cycle":"Perennial","watering":"Minimum","sunlight":["Sun"," Partial Shade"],"default_image":{"image_id":1855,"license":5,"license_name":"Attribution-ShareAlike License","license_url":"https://creativecommons.org/licenses/by-sa/2.0/","original_url":"https://perenual.com/storage/species_image/812_anemone_cylindrica/og/5959733369_0139125c27_b.jpg","regular_url":"https://perenual.com/storage/species_image/812_anemone_cylindrica/regular/5959733369_0139125c27_b.jpg","medium_url":"https://perenual.com/storage/species_image/812_anemone_cylindrica/medium/5959733369_0139125c27_b.jpg","small_url":"https://perenual.com/storage/species_image/812_anemone_cylindrica/small/5959733369_0139125c27_b.jpg","thumbnail":"https://perenual.com/storage/species_image/812_anemone_cylindrica/thumbnail/5959733369_0139125c27_b.jpg"}},{"id":813,"common_name":"Japanese thimbleweed","scientific_name":["Anemone hupehensis"],"other_name":null,"cycle":"Perennial","watering":"Average","sunlight":["Full sun","part shade"],"default_image":{"image_id":1858,"license":6,"license_name":"Attribution-NoDerivs License","license_url":"https://creativecommons.org/licenses/by-nd/2.0/","original_url":"https://perenual.com/storage/species_image/813_anemone_hupehensis/og/52608428002_6b03ebb072_b.jpg"}},{"id":814,"common_name":"Japanese anemone","scientific_name":["Anemone hupehensis 'Hadspen Abundance'"],"other_name":null,"cycle":"Perennial","watering":"Average","sunlight":["Full sun","part shade"],"default_image":{"image_id":21236,"license":45,"license_name":"Attribution-ShareAlike 3.0 Unported (CC BY-SA 3.0)","license_url":"https://creativecommons.org/licenses/by-sa/3.0/deed.en","original_url":"https://perenual.com/storage/species_image/814_anemone_hupehensis_hadspen_abundance/og/Anemone_vitifolia_-_Botanischer_Garten%2C_Frankfurt_am_Main_-_DSC03300.jpg","regular_url":"https://perenual.com/storage/species_image/814_anemone_hupehensis_hadspen_abundance/regular/Anemone_vitifolia_-_Botanischer_Garten%2C_Frankfurt_am_Main_-_DSC03300.jpg","medium_url":"https://perenual.com/storage/species_image/814_anemone_hupehensis_hadspen_abundance/medium/Anemone_vitifolia_-_Botanischer_Garten%2C_Frankfurt_am_Main_-_DSC03300.jpg","small_url":"https://perenual.com/storage/species_image/814_anemone_hupehensis_hadspen_abundance/small/Anemone_vitifolia_-_Botanischer_Garten%2C_Frankfurt_am_Main_-_DSC03300.jpg","thumbnail":"https://perenual.com/storage/species_image/814_anemone_hupehensis_hadspen_abundance/thumbnail/Anemone_vitifolia_-_Botanischer_Garten%2C_Frankfurt_am_Main_-_DSC03300.jpg"}},{"id":815,"common_name":"Japanese anemone","scientific_name":["Anemone hupehensis var. japonica 'Bodnant Burgundy'"],"other_name":null,"cycle":"Perennial","watering":"Average","sunlight":["Full sun","part shade"],"default_image":{"image_id":1866,"license":4,"license_name":"Attribution License","license_url":"https://creativecommons.org/licenses/by/2.0/","original_url":"https://perenual.com/storage/species_image/815_anemone_hupehensis_var_japonica_bodnant_burgundy/og/52300293719_c54dcdc233_b.jpg","regular_url":"https://perenual.com/storage/species_image/815_anemone_hupehensis_var_japonica_bodnant_burgundy/regular/52300293719_c54dcdc233_b.jpg","medium_url":"https://perenual.com/storage/species_image/815_anemone_hupehensis_var_japonica_bodnant_burgundy/medium/52300293719_c54dcdc233_b.jpg","small_url":"https://perenual.com/storage/species_image/815_anemone_hupehensis_var_japonica_bodnant_burgundy/small/52300293719_c54dcdc233_b.jpg","thumbnail":"https://perenual.com/storage/species_image/815_anemone_hupehensis_var_japonica_bodnant_burgundy/thumbnail/52300293719_c54dcdc233_b.jpg"}},{"id":816,"common_name":"Japanese anemone","scientific_name":["Anemone hupehensis var. japonica 'Pamina'"],"other_name":null,"cycle":"Perennial","watering":"Average","sunlight":["Full sun","part shade"],"default_image":{"image_id":1867,"license":5,"license_name":"Attribution-ShareAlike License","license_url":"https://creativecommons.org/licenses/by-sa/2.0/","original_url":"https://perenual.com/storage/species_image/816_anemone_hupehensis_var_japonica_pamina/og/9652131321_b41d54fe89_b.jpg","regular_url":"https://perenual.com/storage/species_image/816_anemone_hupehensis_var_japonica_pamina/regular/9652131321_b41d54fe89_b.jpg","medium_url":"https://perenual.com/storage/species_image/816_anemone_hupehensis_var_japonica_pamina/medium/9652131321_b41d54fe89_b.jpg","small_url":"https://perenual.com/storage/species_image/816_anemone_hupehensis_var_japonica_pamina/small/9652131321_b41d54fe89_b.jpg","thumbnail":"https://perenual.com/storage/species_image/816_anemone_hupehensis_var_japonica_pamina/thumbnail/9652131321_b41d54fe89_b.jpg"}},{"id":817,"common_name":"Japanese anemone","scientific_name":["Anemone hupehensis var. japonica 'Prinz Heinrich'"],"other_name":null,"cycle":"Perennial","watering":"Average","sunlight":["Full sun","part shade"],"default_image":{"image_id":9,"license":5,"license_name":"Attribution-ShareAlike License","license_url":"https://creativecommons.org/licenses/by-sa/2.0/","original_url":"https://perenual.com/storage/species_image/2_abies_alba_pyramidalis/og/49255769768_df55596553_b.jpg","regular_url":"https://perenual.com/storage/species_image/2_abies_alba_pyramidalis/regular/49255769768_df55596553_b.jpg","medium_url":"https://perenual.com/storage/species_image/2_abies_alba_pyramidalis/medium/49255769768_df55596553_b.jpg","small_url":"https://perenual.com/storage/species_image/2_abies_alba_pyramidalis/small/49255769768_df55596553_b.jpg","thumbnail":"https://perenual.com/storage/species_image/2_abies_alba_pyramidalis/thumbnail/49255769768_df55596553_b.jpg"}},{"id":818,"common_name":"windflower","scientific_name":["Anemone hybrida 'Andrea Atkinson'"],"other_name":null,"cycle":"Perennial","watering":"Average","sunlight":["Full sun","part shade"],"default_image":{"image_id":1870,"license":5,"license_name":"Attribution-ShareAlike License","license_url":"https://creativecommons.org/licenses/by-sa/2.0/","original_url":"https://perenual.com/storage/species_image/819_anemone_hybrida_honorine_jobert/og/51559268558_10f14c4f4d_b.jpg","regular_url":"https://perenual.com/storage/species_image/819_anemone_hybrida_honorine_jobert/regular/51559268558_10f14c4f4d_b.jpg","medium_url":"https://perenual.com/storage/species_image/819_anemone_hybrida_honorine_jobert/medium/51559268558_10f14c4f4d_b.jpg","small_url":"https://perenual.com/storage/species_image/819_anemone_hybrida_honorine_jobert/small/51559268558_10f14c4f4d_b.jpg","thumbnail":"https://perenual.com/storage/species_image/819_anemone_hybrida_honorine_jobert/thumbnail/51559268558_10f14c4f4d_b.jpg"}},{"id":819,"common_name":"windflower","scientific_name":["Anemone hybrida 'Honorine Jobert'"],"other_name":null,"cycle":"Perennial","watering":"Average","sunlight":["Full sun","part shade"],"default_image":{"image_id":1877,"license":5,"license_name":"Attribution-ShareAlike License","license_url":"https://creativecommons.org/licenses/by-sa/2.0/","original_url":"https://perenual.com/storage/species_image/819_anemone_hybrida_honorine_jobert/og/52425466309_585747043d_b.jpg","regular_url":"https://perenual.com/storage/species_image/819_anemone_hybrida_honorine_jobert/regular/52425466309_585747043d_b.jpg","medium_url":"https://perenual.com/storage/species_image/819_anemone_hybrida_honorine_jobert/medium/52425466309_585747043d_b.jpg","small_url":"https://perenual.com/storage/species_image/819_anemone_hybrida_honorine_jobert/small/52425466309_585747043d_b.jpg","thumbnail":"https://perenual.com/storage/species_image/819_anemone_hybrida_honorine_jobert/thumbnail/52425466309_585747043d_b.jpg"}},{"id":820,"common_name":"windflower","scientific_name":["Anemone hybrida 'Königin Charlotte' QUEEN CHARLOTTE"],"other_name":null,"cycle":"Perennial","watering":"Average","sunlight":["Full sun","part shade"],"default_image":{"image_id":1882,"license":5,"license_name":"Attribution-ShareAlike License","license_url":"https://creativecommons.org/licenses/by-sa/2.0/","original_url":"https://perenual.com/storage/species_image/820_anemone_hybrida_königin_charlotte_queen_charlotte/og/51559945315_4df8ec30b5_b.jpg","regular_url":"https://perenual.com/storage/species_image/820_anemone_hybrida_königin_charlotte_queen_charlotte/regular/51559945315_4df8ec30b5_b.jpg","medium_url":"https://perenual.com/storage/species_image/820_anemone_hybrida_königin_charlotte_queen_charlotte/medium/51559945315_4df8ec30b5_b.jpg","small_url":"https://perenual.com/storage/species_image/820_anemone_hybrida_königin_charlotte_queen_charlotte/small/51559945315_4df8ec30b5_b.jpg","thumbnail":"https://perenual.com/storage/species_image/820_anemone_hybrida_königin_charlotte_queen_charlotte/thumbnail/51559945315_4df8ec30b5_b.jpg"}},{"id":821,"common_name":"windflower","scientific_name":["Anemone hybrida 'Lady Gilmour'"],"other_name":null,"cycle":"Perennial","watering":"Average","sunlight":["Full sun","part shade"],"default_image":{"image_id":9,"license":5,"license_name":"Attribution-ShareAlike License","license_url":"https://creativecommons.org/licenses/by-sa/2.0/","original_url":"https://perenual.com/storage/species_image/2_abies_alba_pyramidalis/og/49255769768_df55596553_b.jpg","regular_url":"https://perenual.com/storage/species_image/2_abies_alba_pyramidalis/regular/49255769768_df55596553_b.jpg","medium_url":"https://perenual.com/storage/species_image/2_abies_alba_pyramidalis/medium/49255769768_df55596553_b.jpg","small_url":"https://perenual.com/storage/species_image/2_abies_alba_pyramidalis/small/49255769768_df55596553_b.jpg","thumbnail":"https://perenual.com/storage/species_image/2_abies_alba_pyramidalis/thumbnail/49255769768_df55596553_b.jpg"}},{"id":822,"common_name":"windflower","scientific_name":["Anemone hybrida 'Pretty Lady Diana'"],"other_name":null,"cycle":"Perennial","watering":"Average","sunlight":["Full sun","part shade"],"default_image":{"image_id":1884,"license":5,"license_name":"Attribution-ShareAlike License","license_url":"https://creativecommons.org/licenses/by-sa/2.0/","original_url":"https://perenual.com/storage/species_image/822_anemone_hybrida_pretty_lady_diana/og/52319580076_763cef45d9_b.jpg","regular_url":"https://perenual.com/storage/species_image/822_anemone_hybrida_pretty_lady_diana/regular/52319580076_763cef45d9_b.jpg","medium_url":"https://perenual.com/storage/species_image/822_anemone_hybrida_pretty_lady_diana/medium/52319580076_763cef45d9_b.jpg","small_url":"https://perenual.com/storage/species_image/822_anemone_hybrida_pretty_lady_diana/small/52319580076_763cef45d9_b.jpg","thumbnail":"https://perenual.com/storage/species_image/822_anemone_hybrida_pretty_lady_diana/thumbnail/52319580076_763cef45d9_b.jpg"}},{"id":823,"common_name":"Japanese anemone","scientific_name":["Anemone hybrida 'September Charm'"],"other_name":null,"cycle":"Perennial","watering":"Average","sunlight":["Full sun","part shade"],"default_image":{"image_id":1870,"license":5,"license_name":"Attribution-ShareAlike License","license_url":"https://creativecommons.org/licenses/by-sa/2.0/","original_url":"https://perenual.com/storage/species_image/819_anemone_hybrida_honorine_jobert/og/51559268558_10f14c4f4d_b.jpg","regular_url":"https://perenual.com/storage/species_image/819_anemone_hybrida_honorine_jobert/regular/51559268558_10f14c4f4d_b.jpg","medium_url":"https://perenual.com/storage/species_image/819_anemone_hybrida_honorine_jobert/medium/51559268558_10f14c4f4d_b.jpg","small_url":"https://perenual.com/storage/species_image/819_anemone_hybrida_honorine_jobert/small/51559268558_10f14c4f4d_b.jpg","thumbnail":"https://perenual.com/storage/species_image/819_anemone_hybrida_honorine_jobert/thumbnail/51559268558_10f14c4f4d_b.jpg"}},{"id":824,"common_name":"windflower","scientific_name":["Anemone lesseri"],"other_name":null,"cycle":"Perennial","watering":"Average","sunlight":["Part shade"],"default_image":{"image_id":1891,"license":5,"license_name":"Attribution-ShareAlike License","license_url":"https://creativecommons.org/licenses/by-sa/2.0/","original_url":"https://perenual.com/storage/species_image/824_anemone_lesseri/og/43338290505_fcec8c2095_b.jpg","regular_url":"https://perenual.com/storage/species_image/824_anemone_lesseri/regular/43338290505_fcec8c2095_b.jpg","medium_url":"https://perenual.com/storage/species_image/824_anemone_lesseri/medium/43338290505_fcec8c2095_b.jpg","small_url":"https://perenual.com/storage/species_image/824_anemone_lesseri/small/43338290505_fcec8c2095_b.jpg","thumbnail":"https://perenual.com/storage/species_image/824_anemone_lesseri/thumbnail/43338290505_fcec8c2095_b.jpg"}},{"id":825,"common_name":"windflower","scientific_name":["Anemone narcissiflora"],"other_name":null,"cycle":"Perennial","watering":"Average","sunlight":["Full sun","part shade"],"default_image":{"image_id":1895,"license":5,"license_name":"Attribution-ShareAlike License","license_url":"https://creativecommons.org/licenses/by-sa/2.0/","original_url":"https://perenual.com/storage/species_image/825_anemone_narcissiflora/og/14217262619_b5abd1be88_b.jpg","regular_url":"https://perenual.com/storage/species_image/825_anemone_narcissiflora/regular/14217262619_b5abd1be88_b.jpg","medium_url":"https://perenual.com/storage/species_image/825_anemone_narcissiflora/medium/14217262619_b5abd1be88_b.jpg","small_url":"https://perenual.com/storage/species_image/825_anemone_narcissiflora/small/14217262619_b5abd1be88_b.jpg","thumbnail":"https://perenual.com/storage/species_image/825_anemone_narcissiflora/thumbnail/14217262619_b5abd1be88_b.jpg"}},{"id":826,"common_name":"wood anemone","scientific_name":["Anemone nemorosa"],"other_name":null,"cycle":"Perennial","watering":"Average","sunlight":[],"default_image":{"image_id":1900,"license":4,"license_name":"Attribution License","license_url":"https://creativecommons.org/licenses/by/2.0/","original_url":"https://perenual.com/storage/species_image/826_anemone_nemorosa/og/52443714108_e9618a2a5b_b.jpg","regular_url":"https://perenual.com/storage/species_image/826_anemone_nemorosa/regular/52443714108_e9618a2a5b_b.jpg","medium_url":"https://perenual.com/storage/species_image/826_anemone_nemorosa/medium/52443714108_e9618a2a5b_b.jpg","small_url":"https://perenual.com/storage/species_image/826_anemone_nemorosa/small/52443714108_e9618a2a5b_b.jpg","thumbnail":"https://perenual.com/storage/species_image/826_anemone_nemorosa/thumbnail/52443714108_e9618a2a5b_b.jpg"}},{"id":827,"common_name":"wood anemone","scientific_name":["Anemone nemorosa 'Blue Eyes'"],"other_name":null,"cycle":"Perennial","watering":"Average","sunlight":[],"default_image":{"image_id":9,"license":5,"license_name":"Attribution-ShareAlike License","license_url":"https://creativecommons.org/licenses/by-sa/2.0/","original_url":"https://perenual.com/storage/species_image/2_abies_alba_pyramidalis/og/49255769768_df55596553_b.jpg","regular_url":"https://perenual.com/storage/species_image/2_abies_alba_pyramidalis/regular/49255769768_df55596553_b.jpg","medium_url":"https://perenual.com/storage/species_image/2_abies_alba_pyramidalis/medium/49255769768_df55596553_b.jpg","small_url":"https://perenual.com/storage/species_image/2_abies_alba_pyramidalis/small/49255769768_df55596553_b.jpg","thumbnail":"https://perenual.com/storage/species_image/2_abies_alba_pyramidalis/thumbnail/49255769768_df55596553_b.jpg"}},{"id":828,"common_name":"wood anemone","scientific_name":["Anemone nemorosa 'Lychette'"],"other_name":null,"cycle":"Perennial","watering":"Average","sunlight":[],"default_image":{"image_id":21237,"license":4,"license_name":"Attribution License","license_url":"https://creativecommons.org/licenses/by/2.0/","original_url":"https://perenual.com/storage/species_image/828_anemone_nemorosa_lychette/og/5660933866_cb30a833f9_b.jpg","regular_url":"https://perenual.com/storage/species_image/828_anemone_nemorosa_lychette/regular/5660933866_cb30a833f9_b.jpg","medium_url":"https://perenual.com/storage/species_image/828_anemone_nemorosa_lychette/medium/5660933866_cb30a833f9_b.jpg","small_url":"https://perenual.com/storage/species_image/828_anemone_nemorosa_lychette/small/5660933866_cb30a833f9_b.jpg","thumbnail":"https://perenual.com/storage/species_image/828_anemone_nemorosa_lychette/thumbnail/5660933866_cb30a833f9_b.jpg"}},{"id":829,"common_name":"small-flowered anemone","scientific_name":["Anemone parviflora"],"other_name":["Few Flowered Anemone","Northern White Anemone","Northern Anemone","Northern White Anemone","Northern Anemone"],"cycle":"Perennial","watering":"Average","sunlight":["Partial Shade"],"default_image":{"image_id":1904,"license":6,"license_name":"Attribution-NoDerivs License","license_url":"https://creativecommons.org/licenses/by-nd/2.0/","original_url":"https://perenual.com/storage/species_image/829_anemone_parviflora/og/48384220576_b47c56a026_b.jpg"}},{"id":830,"common_name":"Japanese anemone","scientific_name":["Anemone 'Red Riding Hood'"],"other_name":null,"cycle":"Perennial","watering":"Average","sunlight":["Full sun","part shade"],"default_image":{"image_id":21239,"license":45,"license_name":"Attribution-ShareAlike 3.0 Unported (CC BY-SA 3.0)","license_url":"https://creativecommons.org/licenses/by-sa/3.0/deed.en","original_url":"https://perenual.com/storage/species_image/830_anemone_red_riding_hood/og/Anemone_hupehensis_%27Splendens%27_J1.jpg","regular_url":"https://perenual.com/storage/species_image/830_anemone_red_riding_hood/regular/Anemone_hupehensis_%27Splendens%27_J1.jpg","medium_url":"https://perenual.com/storage/species_image/830_anemone_red_riding_hood/medium/Anemone_hupehensis_%27Splendens%27_J1.jpg","small_url":"https://perenual.com/storage/species_image/830_anemone_red_riding_hood/small/Anemone_hupehensis_%27Splendens%27_J1.jpg","thumbnail":"https://perenual.com/storage/species_image/830_anemone_red_riding_hood/thumbnail/Anemone_hupehensis_%27Splendens%27_J1.jpg"}},{"id":831,"common_name":"snowdrop windflower","scientific_name":["Anemone sylvestris"],"other_name":null,"cycle":"Perennial","watering":"Average","sunlight":["Part shade"],"default_image":{"image_id":1911,"license":6,"license_name":"Attribution-NoDerivs License","license_url":"https://creativecommons.org/licenses/by-nd/2.0/","original_url":"https://perenual.com/storage/species_image/831_anemone_sylvestris/og/52128583712_9d5e9ee8b6_b.jpg"}},{"id":832,"common_name":"windflower","scientific_name":["Anemone tomentosa"],"other_name":null,"cycle":"Perennial","watering":"Average","sunlight":["Full sun","part shade"],"default_image":{"image_id":1919,"license":5,"license_name":"Attribution-ShareAlike License","license_url":"https://creativecommons.org/licenses/by-sa/2.0/","original_url":"https://perenual.com/storage/species_image/832_anemone_tomentosa/og/8380351694_9c902c1225_b.jpg","regular_url":"https://perenual.com/storage/species_image/832_anemone_tomentosa/regular/8380351694_9c902c1225_b.jpg","medium_url":"https://perenual.com/storage/species_image/832_anemone_tomentosa/medium/8380351694_9c902c1225_b.jpg","small_url":"https://perenual.com/storage/species_image/832_anemone_tomentosa/small/8380351694_9c902c1225_b.jpg","thumbnail":"https://perenual.com/storage/species_image/832_anemone_tomentosa/thumbnail/8380351694_9c902c1225_b.jpg"}},{"id":833,"common_name":"thimbleweed","scientific_name":["Anemone virginiana"],"other_name":["Thimbleweed","Tall Thimbleweed"],"cycle":"Perennial","watering":"Minimum","sunlight":["Full sun","part shade"],"default_image":{"image_id":1921,"license":4,"license_name":"Attribution License","license_url":"https://creativecommons.org/licenses/by/2.0/","original_url":"https://perenual.com/storage/species_image/833_anemone_virginiana/og/51378330438_1d02259787_b.jpg","regular_url":"https://perenual.com/storage/species_image/833_anemone_virginiana/regular/51378330438_1d02259787_b.jpg","medium_url":"https://perenual.com/storage/species_image/833_anemone_virginiana/medium/51378330438_1d02259787_b.jpg","small_url":"https://perenual.com/storage/species_image/833_anemone_virginiana/small/51378330438_1d02259787_b.jpg","thumbnail":"https://perenual.com/storage/species_image/833_anemone_virginiana/thumbnail/51378330438_1d02259787_b.jpg"}},{"id":834,"common_name":"dill","scientific_name":["Anethum graveolens"],"other_name":null,"cycle":"Perennial","watering":"Average","sunlight":[],"default_image":{"image_id":1924,"license":4,"license_name":"Attribution License","license_url":"https://creativecommons.org/licenses/by/2.0/","original_url":"https://perenual.com/storage/species_image/834_anethum_graveolens/og/52142605681_267b587549_b.jpg","regular_url":"https://perenual.com/storage/species_image/834_anethum_graveolens/regular/52142605681_267b587549_b.jpg","medium_url":"https://perenual.com/storage/species_image/834_anethum_graveolens/medium/52142605681_267b587549_b.jpg","small_url":"https://perenual.com/storage/species_image/834_anethum_graveolens/small/52142605681_267b587549_b.jpg","thumbnail":"https://perenual.com/storage/species_image/834_anethum_graveolens/thumbnail/52142605681_267b587549_b.jpg"}},{"id":835,"common_name":"garden angelica","scientific_name":["Angelica archangelica"],"other_name":null,"cycle":"Perennial","watering":"Frequent","sunlight":[],"default_image":{"image_id":1930,"license":6,"license_name":"Attribution-NoDerivs License","license_url":"https://creativecommons.org/licenses/by-nd/2.0/","original_url":"https://perenual.com/storage/species_image/835_angelica_archangelica/og/51176080890_5d26acfcb9_b.jpg"}},{"id":836,"common_name":"masterwort","scientific_name":["Angelica atropurpurea"],"other_name":["Purplestem Angelica"],"cycle":"Perennial","watering":"Frequent","sunlight":["Full sun","part shade"],"default_image":{"image_id":1935,"license":4,"license_name":"Attribution License","license_url":"https://creativecommons.org/licenses/by/2.0/","original_url":"https://perenual.com/storage/species_image/836_angelica_atropurpurea/og/35714170910_fd537f4e01_b.jpg","regular_url":"https://perenual.com/storage/species_image/836_angelica_atropurpurea/regular/35714170910_fd537f4e01_b.jpg","medium_url":"https://perenual.com/storage/species_image/836_angelica_atropurpurea/medium/35714170910_fd537f4e01_b.jpg","small_url":"https://perenual.com/storage/species_image/836_angelica_atropurpurea/small/35714170910_fd537f4e01_b.jpg","thumbnail":"https://perenual.com/storage/species_image/836_angelica_atropurpurea/thumbnail/35714170910_fd537f4e01_b.jpg"}},{"id":837,"common_name":"angelonia","scientific_name":["Angelonia angustifolia"],"other_name":null,"cycle":"Perennial","watering":"Average","sunlight":["Full sun"],"default_image":{"image_id":1943,"license":5,"license_name":"Attribution-ShareAlike License","license_url":"https://creativecommons.org/licenses/by-sa/2.0/","original_url":"https://perenual.com/storage/species_image/837_angelonia_angustifolia/og/49828843068_aca58431e8_b.jpg","regular_url":"https://perenual.com/storage/species_image/837_angelonia_angustifolia/regular/49828843068_aca58431e8_b.jpg","medium_url":"https://perenual.com/storage/species_image/837_angelonia_angustifolia/medium/49828843068_aca58431e8_b.jpg","small_url":"https://perenual.com/storage/species_image/837_angelonia_angustifolia/small/49828843068_aca58431e8_b.jpg","thumbnail":"https://perenual.com/storage/species_image/837_angelonia_angustifolia/thumbnail/49828843068_aca58431e8_b.jpg"}},{"id":838,"common_name":"angelonia","scientific_name":["Angelonia angustifolia SERENA MIXTURE"],"other_name":null,"cycle":"Perennial","watering":"Average","sunlight":["Full sun"],"default_image":{"image_id":1948,"license":4,"license_name":"Attribution License","license_url":"https://creativecommons.org/licenses/by/2.0/","original_url":"https://perenual.com/storage/species_image/838_angelonia_angustifolia_serena_mixture/og/52274368957_b523f5f315_b.jpg","regular_url":"https://perenual.com/storage/species_image/838_angelonia_angustifolia_serena_mixture/regular/52274368957_b523f5f315_b.jpg","medium_url":"https://perenual.com/storage/species_image/838_angelonia_angustifolia_serena_mixture/medium/52274368957_b523f5f315_b.jpg","small_url":"https://perenual.com/storage/species_image/838_angelonia_angustifolia_serena_mixture/small/52274368957_b523f5f315_b.jpg","thumbnail":"https://perenual.com/storage/species_image/838_angelonia_angustifolia_serena_mixture/thumbnail/52274368957_b523f5f315_b.jpg"}},{"id":839,"common_name":"tall kangaroo paw","scientific_name":["Anigozanthos flavidus"],"other_name":null,"cycle":"Perennial","watering":"Average","sunlight":["Full sun","part shade"],"default_image":{"image_id":1949,"license":4,"license_name":"Attribution License","license_url":"https://creativecommons.org/licenses/by/2.0/","original_url":"https://perenual.com/storage/species_image/839_anigozanthos_flavidus/og/50336336492_6d9c104690_b.jpg","regular_url":"https://perenual.com/storage/species_image/839_anigozanthos_flavidus/regular/50336336492_6d9c104690_b.jpg","medium_url":"https://perenual.com/storage/species_image/839_anigozanthos_flavidus/medium/50336336492_6d9c104690_b.jpg","small_url":"https://perenual.com/storage/species_image/839_anigozanthos_flavidus/small/50336336492_6d9c104690_b.jpg","thumbnail":"https://perenual.com/storage/species_image/839_anigozanthos_flavidus/thumbnail/50336336492_6d9c104690_b.jpg"}},{"id":840,"common_name":"kangaroo paw","scientific_name":["Anigozanthos 'Joe Joe Red'"],"other_name":null,"cycle":"Perennial","watering":"Average","sunlight":["Full sun"],"default_image":{"image_id":21240,"license":4,"license_name":"Attribution License","license_url":"https://creativecommons.org/licenses/by/2.0/","original_url":"https://perenual.com/storage/species_image/840_anigozanthos_joe_joe_red/og/15699356497_9b52c7dae1_b.jpg","regular_url":"https://perenual.com/storage/species_image/840_anigozanthos_joe_joe_red/regular/15699356497_9b52c7dae1_b.jpg","medium_url":"https://perenual.com/storage/species_image/840_anigozanthos_joe_joe_red/medium/15699356497_9b52c7dae1_b.jpg","small_url":"https://perenual.com/storage/species_image/840_anigozanthos_joe_joe_red/small/15699356497_9b52c7dae1_b.jpg","thumbnail":"https://perenual.com/storage/species_image/840_anigozanthos_joe_joe_red/thumbnail/15699356497_9b52c7dae1_b.jpg"}}],"to":840,"per_page":30,"current_page":28,"from":811,"last_page":200,"total":6000}