{"data":[{"id":4951,"common_name":"lobelia","scientific_name":["Lobelia 'Purple Towers'"],"other_name":null,"cycle":"Perennial","watering":"Frequent","sunlight":["Full sun","part shade"],"default_image":{"image_id":10517,"license":4,"license_name":"Attribution License","license_url":"https://creativecommons.org/licenses/by/2.0/","original_url":"https://perenual.com/storage/species_image/4951_lobelia_purple_towers/og/52220957124_3c7f49d33d_b.jpg","regular_url":"https://perenual.com/storage/species_image/4951_lobelia_purple_towers/regular/52220957124_3c7f49d33d_b.jpg","medium_url":"https://perenual.com/storage/species_image/4951_lobelia_purple_towers/medium/52220957124_3c7f49d33d_b.jpg","small_url":"https://perenual.com/storage/species_image/4951_lobelia_purple_towers/small/52220957124_3c7f49d33d_b.jpg","thumbnail":"https://perenual.com/storage/species_image/4951_lobelia_purple_towers/thumbnail/52220957124_3c7f49d33d_b.jpg"}},{"id":4952,"common_name":"lobelia","scientific_name":["Lobelia 'Rose Beacon'"],"other_name":null,"cycle":"Perennial","watering":"Frequent","sunlight":["Full sun","part shade"],"default_image":{"image_id":10515,"license":4,"license_name":"Attribution License","license_url":"https://creativecommons.org/licenses/by/2.0/","original_url":"https://perenual.com/storage/species_image/4961_lobelia_speciosa_wildwood_splendor/og/52591104216_5c5578331e_b.jpg","regular_url":"https://perenual.com/storage/species_image/4961_lobelia_speciosa_wildwood_splendor/regular/52591104216_5c5578331e_b.jpg","medium_url":"https://perenual.com/storage/species_image/4961_lobelia_speciosa_wildwood_splendor/medium/52591104216_5c5578331e_b.jpg","small_url":"https://perenual.com/storage/species_image/4961_lobelia_speciosa_wildwood_splendor/small/52591104216_5c5578331e_b.jpg","thumbnail":"https://perenual.com/storage/species_image/4961_lobelia_speciosa_wildwood_splendor/thumbnail/52591104216_5c5578331e_b.jpg"}},{"id":4953,"common_name":"lobelia","scientific_name":["Lobelia 'Ruby Slippers'"],"other_name":null,"cycle":"Perennial","watering":"Frequent","sunlight":["Full sun","part shade"],"default_image":{"image_id":10518,"license":5,"license_name":"Attribution-ShareAlike License","license_url":"https://creativecommons.org/licenses/by-sa/2.0/","original_url":"https://perenual.com/storage/species_image/4958_lobelia_speciosa_compliment_deep_pink/og/52439190130_94fe93862a_b.jpg","regular_url":"https://perenual.com/storage/species_image/4958_lobelia_speciosa_compliment_deep_pink/regular/52439190130_94fe93862a_b.jpg","medium_url":"https://perenual.com/storage/species_image/4958_lobelia_speciosa_compliment_deep_pink/medium/52439190130_94fe93862a_b.jpg","small_url":"https://perenual.com/storage/species_image/4958_lobelia_speciosa_compliment_deep_pink/small/52439190130_94fe93862a_b.jpg","thumbnail":"https://perenual.com/storage/species_image/4958_lobelia_speciosa_compliment_deep_pink/thumbnail/52439190130_94fe93862a_b.jpg"}},{"id":4954,"common_name":"blue cardinal flower","scientific_name":["Lobelia siphilitica"],"other_name":null,"cycle":"Perennial","watering":"Frequent","sunlight":["Full sun Partial sun"],"default_image":{"image_id":9,"license":5,"license_name":"Attribution-ShareAlike License","license_url":"https://creativecommons.org/licenses/by-sa/2.0/","original_url":"https://perenual.com/storage/species_image/2_abies_alba_pyramidalis/og/49255769768_df55596553_b.jpg","regular_url":"https://perenual.com/storage/species_image/2_abies_alba_pyramidalis/regular/49255769768_df55596553_b.jpg","medium_url":"https://perenual.com/storage/species_image/2_abies_alba_pyramidalis/medium/49255769768_df55596553_b.jpg","small_url":"https://perenual.com/storage/species_image/2_abies_alba_pyramidalis/small/49255769768_df55596553_b.jpg","thumbnail":"https://perenual.com/storage/species_image/2_abies_alba_pyramidalis/thumbnail/49255769768_df55596553_b.jpg"}},{"id":4955,"common_name":"great blue cardinal flower","scientific_name":["Lobelia siphilitica 'Lilac Candles'"],"other_name":null,"cycle":"Perennial","watering":"Frequent","sunlight":["Full sun Partial sun"],"default_image":{"image_id":10524,"license":4,"license_name":"Attribution License","license_url":"https://creativecommons.org/licenses/by/2.0/","original_url":"https://perenual.com/storage/species_image/4955_lobelia_siphilitica_lilac_candles/og/51578829973_1a077f5a65_b.jpg","regular_url":"https://perenual.com/storage/species_image/4955_lobelia_siphilitica_lilac_candles/regular/51578829973_1a077f5a65_b.jpg","medium_url":"https://perenual.com/storage/species_image/4955_lobelia_siphilitica_lilac_candles/medium/51578829973_1a077f5a65_b.jpg","small_url":"https://perenual.com/storage/species_image/4955_lobelia_siphilitica_lilac_candles/small/51578829973_1a077f5a65_b.jpg","thumbnail":"https://perenual.com/storage/species_image/4955_lobelia_siphilitica_lilac_candles/thumbnail/51578829973_1a077f5a65_b.jpg"}},{"id":4956,"common_name":"lobelia","scientific_name":["Lobelia 'Sparkle DeVine'"],"other_name":null,"cycle":"Perennial","watering":"Frequent","sunlight":["Full sun","part shade"],"default_image":{"image_id":9,"license":5,"license_name":"Attribution-ShareAlike License","license_url":"https://creativecommons.org/licenses/by-sa/2.0/","original_url":"https://perenual.com/storage/species_image/2_abies_alba_pyramidalis/og/49255769768_df55596553_b.jpg","regular_url":"https://perenual.com/storage/species_image/2_abies_alba_pyramidalis/regular/49255769768_df55596553_b.jpg","medium_url":"https://perenual.com/storage/species_image/2_abies_alba_pyramidalis/medium/49255769768_df55596553_b.jpg","small_url":"https://perenual.com/storage/species_image/2_abies_alba_pyramidalis/small/49255769768_df55596553_b.jpg","thumbnail":"https://perenual.com/storage/species_image/2_abies_alba_pyramidalis/thumbnail/49255769768_df55596553_b.jpg"}},{"id":4957,"common_name":"lobelia","scientific_name":["Lobelia speciosa"],"other_name":null,"cycle":"Perennial","watering":"Frequent","sunlight":["Full sun","part shade"],"default_image":{"image_id":9,"license":5,"license_name":"Attribution-ShareAlike License","license_url":"https://creativecommons.org/licenses/by-sa/2.0/","original_url":"https://perenual.com/storage/species_image/2_abies_alba_pyramidalis/og/49255769768_df55596553_b.jpg","regular_url":"https://perenual.com/storage/species_image/2_abies_alba_pyramidalis/regular/49255769768_df55596553_b.jpg","medium_url":"https://perenual.com/storage/species_image/2_abies_alba_pyramidalis/medium/49255769768_df55596553_b.jpg","small_url":"https://perenual.com/storage/species_image/2_abies_alba_pyramidalis/small/49255769768_df55596553_b.jpg","thumbnail":"https://perenual.com/storage/species_image/2_abies_alba_pyramidalis/thumbnail/49255769768_df55596553_b.jpg"}},{"id":4958,"common_name":"lobelia","scientific_name":["Lobelia speciosa 'Compliment Deep Pink'"],"other_name":null,"cycle":"Perennial","watering":"Frequent","sunlight":["Full sun","part shade"],"default_image":{"image_id":10532,"license":4,"license_name":"Attribution License","license_url":"https://creativecommons.org/licenses/by/2.0/","original_url":"https://perenual.com/storage/species_image/4958_lobelia_speciosa_compliment_deep_pink/og/52482412458_2b5639043e_b.jpg","regular_url":"https://perenual.com/storage/species_image/4958_lobelia_speciosa_compliment_deep_pink/regular/52482412458_2b5639043e_b.jpg","medium_url":"https://perenual.com/storage/species_image/4958_lobelia_speciosa_compliment_deep_pink/medium/52482412458_2b5639043e_b.jpg","small_url":"https://perenual.com/storage/species_image/4958_lobelia_speciosa_compliment_deep_pink/small/52482412458_2b5639043e_b.jpg","thumbnail":"https://perenual.com/storage/species_image/4958_lobelia_speciosa_compliment_deep_pink/thumbnail/52482412458_2b5639043e_b.jpg"}},{"id":4959,"common_name":"lobelia","scientific_name":["Lobelia speciosa 'Russian Princess'"],"other_name":null,"cycle":"Perennial","watering":"Frequent","sunlight":["Full sun","part shade"],"default_image":{"image_id":10535,"license":4,"license_name":"Attribution License","license_url":"https://creativecommons.org/licenses/by/2.0/","original_url":"https://perenual.com/storage/species_image/4959_lobelia_speciosa_russian_princess/og/36481889992_bf9e7a1967_b.jpg","regular_url":"https://perenual.com/storage/species_image/4959_lobelia_speciosa_russian_princess/regular/36481889992_bf9e7a1967_b.jpg","medium_url":"https://perenual.com/storage/species_image/4959_lobelia_speciosa_russian_princess/medium/36481889992_bf9e7a1967_b.jpg","small_url":"https://perenual.com/storage/species_image/4959_lobelia_speciosa_russian_princess/small/36481889992_bf9e7a1967_b.jpg","thumbnail":"https://perenual.com/storage/species_image/4959_lobelia_speciosa_russian_princess/thumbnail/36481889992_bf9e7a1967_b.jpg"}},{"id":4960,"common_name":"lobelia","scientific_name":["Lobelia speciosa STARSHIP SCARLET"],"other_name":null,"cycle":"Perennial","watering":"Frequent","sunlight":["Full sun","part shade"],"default_image":{"image_id":10518,"license":5,"license_name":"Attribution-ShareAlike License","license_url":"https://creativecommons.org/licenses/by-sa/2.0/","original_url":"https://perenual.com/storage/species_image/4958_lobelia_speciosa_compliment_deep_pink/og/52439190130_94fe93862a_b.jpg","regular_url":"https://perenual.com/storage/species_image/4958_lobelia_speciosa_compliment_deep_pink/regular/52439190130_94fe93862a_b.jpg","medium_url":"https://perenual.com/storage/species_image/4958_lobelia_speciosa_compliment_deep_pink/medium/52439190130_94fe93862a_b.jpg","small_url":"https://perenual.com/storage/species_image/4958_lobelia_speciosa_compliment_deep_pink/small/52439190130_94fe93862a_b.jpg","thumbnail":"https://perenual.com/storage/species_image/4958_lobelia_speciosa_compliment_deep_pink/thumbnail/52439190130_94fe93862a_b.jpg"}},{"id":4961,"common_name":"lobelia","scientific_name":["Lobelia speciosa 'Wildwood Splendor'"],"other_name":null,"cycle":"Perennial","watering":"Frequent","sunlight":["Full sun","part shade"],"default_image":{"image_id":10515,"license":4,"license_name":"Attribution License","license_url":"https://creativecommons.org/licenses/by/2.0/","original_url":"https://perenual.com/storage/species_image/4961_lobelia_speciosa_wildwood_splendor/og/52591104216_5c5578331e_b.jpg","regular_url":"https://perenual.com/storage/species_image/4961_lobelia_speciosa_wildwood_splendor/regular/52591104216_5c5578331e_b.jpg","medium_url":"https://perenual.com/storage/species_image/4961_lobelia_speciosa_wildwood_splendor/medium/52591104216_5c5578331e_b.jpg","small_url":"https://perenual.com/storage/species_image/4961_lobelia_speciosa_wildwood_splendor/small/52591104216_5c5578331e_b.jpg","thumbnail":"https://perenual.com/storage/species_image/4961_lobelia_speciosa_wildwood_splendor/thumbnail/52591104216_5c5578331e_b.jpg"}},{"id":4962,"common_name":"lobelia","scientific_name":["Lobelia 'Tania'"],"other_name":null,"cycle":"Perennial","watering":"Frequent","sunlight":["Full sun","part shade"],"default_image":{"image_id":9,"license":5,"license_name":"Attribution-ShareAlike License","license_url":"https://creativecommons.org/licenses/by-sa/2.0/","original_url":"https://perenual.com/storage/species_image/2_abies_alba_pyramidalis/og/49255769768_df55596553_b.jpg","regular_url":"https://perenual.com/storage/species_image/2_abies_alba_pyramidalis/regular/49255769768_df55596553_b.jpg","medium_url":"https://perenual.com/storage/species_image/2_abies_alba_pyramidalis/medium/49255769768_df55596553_b.jpg","small_url":"https://perenual.com/storage/species_image/2_abies_alba_pyramidalis/small/49255769768_df55596553_b.jpg","thumbnail":"https://perenual.com/storage/species_image/2_abies_alba_pyramidalis/thumbnail/49255769768_df55596553_b.jpg"}},{"id":4963,"common_name":"sweet alyssum","scientific_name":["Lobularia 'Inlbusnopr' SNOW PRINCESS"],"other_name":null,"cycle":"Perennial","watering":"Average","sunlight":["Full sun","part shade"],"default_image":null},{"id":4964,"common_name":"sweet alyssum","scientific_name":["Lobularia maritima"],"other_name":["alyssum"],"cycle":"Perennial","watering":"Minimum","sunlight":["Full sun","part shade"],"default_image":{"image_id":10544,"license":5,"license_name":"Attribution-ShareAlike License","license_url":"https://creativecommons.org/licenses/by-sa/2.0/","original_url":"https://perenual.com/storage/species_image/4964_lobularia_maritima/og/51963946264_2a4354bdee_b.jpg","regular_url":"https://perenual.com/storage/species_image/4964_lobularia_maritima/regular/51963946264_2a4354bdee_b.jpg","medium_url":"https://perenual.com/storage/species_image/4964_lobularia_maritima/medium/51963946264_2a4354bdee_b.jpg","small_url":"https://perenual.com/storage/species_image/4964_lobularia_maritima/small/51963946264_2a4354bdee_b.jpg","thumbnail":"https://perenual.com/storage/species_image/4964_lobularia_maritima/thumbnail/51963946264_2a4354bdee_b.jpg"}},{"id":4965,"common_name":"sweet alyssum","scientific_name":["Lobularia maritima 'Snow Crystals'"],"other_name":null,"cycle":"Perennial","watering":"Minimum","sunlight":["Full sun","part shade"],"default_image":{"image_id":10547,"license":5,"license_name":"Attribution-ShareAlike License","license_url":"https://creativecommons.org/licenses/by-sa/2.0/","original_url":"https://perenual.com/storage/species_image/4965_lobularia_maritima_snow_crystals/og/6086035453_84b2315d39_b.jpg","regular_url":"https://perenual.com/storage/species_image/4965_lobularia_maritima_snow_crystals/regular/6086035453_84b2315d39_b.jpg","medium_url":"https://perenual.com/storage/species_image/4965_lobularia_maritima_snow_crystals/medium/6086035453_84b2315d39_b.jpg","small_url":"https://perenual.com/storage/species_image/4965_lobularia_maritima_snow_crystals/small/6086035453_84b2315d39_b.jpg","thumbnail":"https://perenual.com/storage/species_image/4965_lobularia_maritima_snow_crystals/thumbnail/6086035453_84b2315d39_b.jpg"}},{"id":4966,"common_name":"double coconut palm","scientific_name":["Lodoicea maldivica"],"other_name":null,"cycle":"Perennial","watering":"Average","sunlight":["Full sun"],"default_image":{"image_id":10551,"license":4,"license_name":"Attribution License","license_url":"https://creativecommons.org/licenses/by/2.0/","original_url":"https://perenual.com/storage/species_image/4966_lodoicea_maldivica/og/11059980366_1b044c9b3d_b.jpg","regular_url":"https://perenual.com/storage/species_image/4966_lodoicea_maldivica/regular/11059980366_1b044c9b3d_b.jpg","medium_url":"https://perenual.com/storage/species_image/4966_lodoicea_maldivica/medium/11059980366_1b044c9b3d_b.jpg","small_url":"https://perenual.com/storage/species_image/4966_lodoicea_maldivica/small/11059980366_1b044c9b3d_b.jpg","thumbnail":"https://perenual.com/storage/species_image/4966_lodoicea_maldivica/thumbnail/11059980366_1b044c9b3d_b.jpg"}},{"id":4967,"common_name":"English ryegrass","scientific_name":["Lolium perenne 'Manhattan'"],"other_name":null,"cycle":"Perennial","watering":"Average","sunlight":["Full sun"," Part sun/part shade"],"default_image":{"image_id":9,"license":5,"license_name":"Attribution-ShareAlike License","license_url":"https://creativecommons.org/licenses/by-sa/2.0/","original_url":"https://perenual.com/storage/species_image/2_abies_alba_pyramidalis/og/49255769768_df55596553_b.jpg","regular_url":"https://perenual.com/storage/species_image/2_abies_alba_pyramidalis/regular/49255769768_df55596553_b.jpg","medium_url":"https://perenual.com/storage/species_image/2_abies_alba_pyramidalis/medium/49255769768_df55596553_b.jpg","small_url":"https://perenual.com/storage/species_image/2_abies_alba_pyramidalis/small/49255769768_df55596553_b.jpg","thumbnail":"https://perenual.com/storage/species_image/2_abies_alba_pyramidalis/thumbnail/49255769768_df55596553_b.jpg"}},{"id":4968,"common_name":"mat rush","scientific_name":["Lomandra confertifolia subsp. rubiginosa 'Seascape'"],"other_name":null,"cycle":"Perennial","watering":"Minimum","sunlight":["Full sun","part shade"],"default_image":{"image_id":10557,"license":4,"license_name":"Attribution License","license_url":"https://creativecommons.org/licenses/by/2.0/","original_url":"https://perenual.com/storage/species_image/4968_lomandra_confertifolia_subsp_rubiginosa_seascape/og/50352131922_f74cd40f33_b.jpg","regular_url":"https://perenual.com/storage/species_image/4968_lomandra_confertifolia_subsp_rubiginosa_seascape/regular/50352131922_f74cd40f33_b.jpg","medium_url":"https://perenual.com/storage/species_image/4968_lomandra_confertifolia_subsp_rubiginosa_seascape/medium/50352131922_f74cd40f33_b.jpg","small_url":"https://perenual.com/storage/species_image/4968_lomandra_confertifolia_subsp_rubiginosa_seascape/small/50352131922_f74cd40f33_b.jpg","thumbnail":"https://perenual.com/storage/species_image/4968_lomandra_confertifolia_subsp_rubiginosa_seascape/thumbnail/50352131922_f74cd40f33_b.jpg"}},{"id":4969,"common_name":"dwarf mat rush","scientific_name":["Lomandra longifolia 'LM300' BREEZE"],"other_name":null,"cycle":"Perennial","watering":"Average","sunlight":["Full sun","part shade"],"default_image":{"image_id":10563,"license":4,"license_name":"Attribution License","license_url":"https://creativecommons.org/licenses/by/2.0/","original_url":"https://perenual.com/storage/species_image/4969_lomandra_longifolia_lm300_breeze/og/24947319975_a797f1b970_b.jpg","regular_url":"https://perenual.com/storage/species_image/4969_lomandra_longifolia_lm300_breeze/regular/24947319975_a797f1b970_b.jpg","medium_url":"https://perenual.com/storage/species_image/4969_lomandra_longifolia_lm300_breeze/medium/24947319975_a797f1b970_b.jpg","small_url":"https://perenual.com/storage/species_image/4969_lomandra_longifolia_lm300_breeze/small/24947319975_a797f1b970_b.jpg","thumbnail":"https://perenual.com/storage/species_image/4969_lomandra_longifolia_lm300_breeze/thumbnail/24947319975_a797f1b970_b.jpg"}},{"id":4970,"common_name":"honeysuckle","scientific_name":["Lonicera alseuosmoides"],"other_name":null,"cycle":"Perennial","watering":"Average","sunlight":["Full sun","part shade"],"default_image":{"image_id":10564,"license":5,"license_name":"Attribution-ShareAlike License","license_url":"https://creativecommons.org/licenses/by-sa/2.0/","original_url":"https://perenual.com/storage/species_image/4970_lonicera_alseuosmoides/og/4855043030_1f40f132d8_b.jpg","regular_url":"https://perenual.com/storage/species_image/4970_lonicera_alseuosmoides/regular/4855043030_1f40f132d8_b.jpg","medium_url":"https://perenual.com/storage/species_image/4970_lonicera_alseuosmoides/medium/4855043030_1f40f132d8_b.jpg","small_url":"https://perenual.com/storage/species_image/4970_lonicera_alseuosmoides/small/4855043030_1f40f132d8_b.jpg","thumbnail":"https://perenual.com/storage/species_image/4970_lonicera_alseuosmoides/thumbnail/4855043030_1f40f132d8_b.jpg"}},{"id":4971,"common_name":"honeysuckle","scientific_name":["Lonicera caerulea"],"other_name":null,"cycle":"Perennial","watering":"Average","sunlight":["Full sun","part shade"],"default_image":null},{"id":4972,"common_name":"honeyberry","scientific_name":["Lonicera caerulea 'Blue Moon'"],"other_name":null,"cycle":"Perennial","watering":"Average","sunlight":["Full sun","part shade"],"default_image":{"image_id":10566,"license":5,"license_name":"Attribution-ShareAlike License","license_url":"https://creativecommons.org/licenses/by-sa/2.0/","original_url":"https://perenual.com/storage/species_image/4972_lonicera_caerulea_blue_moon/og/14323523754_ca2d977706_b.jpg","regular_url":"https://perenual.com/storage/species_image/4972_lonicera_caerulea_blue_moon/regular/14323523754_ca2d977706_b.jpg","medium_url":"https://perenual.com/storage/species_image/4972_lonicera_caerulea_blue_moon/medium/14323523754_ca2d977706_b.jpg","small_url":"https://perenual.com/storage/species_image/4972_lonicera_caerulea_blue_moon/small/14323523754_ca2d977706_b.jpg","thumbnail":"https://perenual.com/storage/species_image/4972_lonicera_caerulea_blue_moon/thumbnail/14323523754_ca2d977706_b.jpg"}},{"id":4973,"common_name":"honeyberry","scientific_name":["Lonicera caerulea 'Borealis'"],"other_name":null,"cycle":"Perennial","watering":"Average","sunlight":["Full sun","part shade"],"default_image":{"image_id":9,"license":5,"license_name":"Attribution-ShareAlike License","license_url":"https://creativecommons.org/licenses/by-sa/2.0/","original_url":"https://perenual.com/storage/species_image/2_abies_alba_pyramidalis/og/49255769768_df55596553_b.jpg","regular_url":"https://perenual.com/storage/species_image/2_abies_alba_pyramidalis/regular/49255769768_df55596553_b.jpg","medium_url":"https://perenual.com/storage/species_image/2_abies_alba_pyramidalis/medium/49255769768_df55596553_b.jpg","small_url":"https://perenual.com/storage/species_image/2_abies_alba_pyramidalis/small/49255769768_df55596553_b.jpg","thumbnail":"https://perenual.com/storage/species_image/2_abies_alba_pyramidalis/thumbnail/49255769768_df55596553_b.jpg"}},{"id":4974,"common_name":"honeyberry","scientific_name":["Lonicera caerulea 'Kiev #8' BLUE VELVET"],"other_name":null,"cycle":"Perennial","watering":"Average","sunlight":["Full sun","part shade"],"default_image":{"image_id":9,"license":5,"license_name":"Attribution-ShareAlike License","license_url":"https://creativecommons.org/licenses/by-sa/2.0/","original_url":"https://perenual.com/storage/species_image/2_abies_alba_pyramidalis/og/49255769768_df55596553_b.jpg","regular_url":"https://perenual.com/storage/species_image/2_abies_alba_pyramidalis/regular/49255769768_df55596553_b.jpg","medium_url":"https://perenual.com/storage/species_image/2_abies_alba_pyramidalis/medium/49255769768_df55596553_b.jpg","small_url":"https://perenual.com/storage/species_image/2_abies_alba_pyramidalis/small/49255769768_df55596553_b.jpg","thumbnail":"https://perenual.com/storage/species_image/2_abies_alba_pyramidalis/thumbnail/49255769768_df55596553_b.jpg"}},{"id":4975,"common_name":"honeyberry","scientific_name":["Lonicera caerulea 'Magadan' BLUE FOREST"],"other_name":null,"cycle":"Perennial","watering":"Average","sunlight":["Full sun","part shade"],"default_image":{"image_id":9,"license":5,"license_name":"Attribution-ShareAlike License","license_url":"https://creativecommons.org/licenses/by-sa/2.0/","original_url":"https://perenual.com/storage/species_image/2_abies_alba_pyramidalis/og/49255769768_df55596553_b.jpg","regular_url":"https://perenual.com/storage/species_image/2_abies_alba_pyramidalis/regular/49255769768_df55596553_b.jpg","medium_url":"https://perenual.com/storage/species_image/2_abies_alba_pyramidalis/medium/49255769768_df55596553_b.jpg","small_url":"https://perenual.com/storage/species_image/2_abies_alba_pyramidalis/small/49255769768_df55596553_b.jpg","thumbnail":"https://perenual.com/storage/species_image/2_abies_alba_pyramidalis/thumbnail/49255769768_df55596553_b.jpg"}},{"id":4976,"common_name":"honeyberry","scientific_name":["Lonicera caerulea 'Polar Jewel'"],"other_name":null,"cycle":"Perennial","watering":"Average","sunlight":["Full sun","part shade"],"default_image":{"image_id":22047,"license":1,"license_name":null,"license_url":null,"original_url":"https://perenual.com/storage/species_image/4977_lonicera_caerulea_var_edulis/og/4915995993_c9742e6ef4_b.jpg","regular_url":"https://perenual.com/storage/species_image/4977_lonicera_caerulea_var_edulis/regular/4915995993_c9742e6ef4_b.jpg","medium_url":"https://perenual.com/storage/species_image/4977_lonicera_caerulea_var_edulis/medium/4915995993_c9742e6ef4_b.jpg","small_url":"https://perenual.com/storage/species_image/4977_lonicera_caerulea_var_edulis/small/4915995993_c9742e6ef4_b.jpg","thumbnail":"https://perenual.com/storage/species_image/4977_lonicera_caerulea_var_edulis/thumbnail/4915995993_c9742e6ef4_b.jpg"}},{"id":4977,"common_name":"honeyberry","scientific_name":["Lonicera caerulea var. edulis"],"other_name":null,"cycle":"Perennial","watering":"Average","sunlight":["Full sun","part shade"],"default_image":{"image_id":22047,"license":1,"license_name":null,"license_url":null,"original_url":"https://perenual.com/storage/species_image/4977_lonicera_caerulea_var_edulis/og/4915995993_c9742e6ef4_b.jpg","regular_url":"https://perenual.com/storage/species_image/4977_lonicera_caerulea_var_edulis/regular/4915995993_c9742e6ef4_b.jpg","medium_url":"https://perenual.com/storage/species_image/4977_lonicera_caerulea_var_edulis/medium/4915995993_c9742e6ef4_b.jpg","small_url":"https://perenual.com/storage/species_image/4977_lonicera_caerulea_var_edulis/small/4915995993_c9742e6ef4_b.jpg","thumbnail":"https://perenual.com/storage/species_image/4977_lonicera_caerulea_var_edulis/thumbnail/4915995993_c9742e6ef4_b.jpg"}},{"id":4978,"common_name":"honeysuckle","scientific_name":["Lonicera flava"],"other_name":null,"cycle":"Perennial","watering":"Average","sunlight":["Full sun","part shade"],"default_image":{"image_id":9,"license":5,"license_name":"Attribution-ShareAlike License","license_url":"https://creativecommons.org/licenses/by-sa/2.0/","original_url":"https://perenual.com/storage/species_image/2_abies_alba_pyramidalis/og/49255769768_df55596553_b.jpg","regular_url":"https://perenual.com/storage/species_image/2_abies_alba_pyramidalis/regular/49255769768_df55596553_b.jpg","medium_url":"https://perenual.com/storage/species_image/2_abies_alba_pyramidalis/medium/49255769768_df55596553_b.jpg","small_url":"https://perenual.com/storage/species_image/2_abies_alba_pyramidalis/small/49255769768_df55596553_b.jpg","thumbnail":"https://perenual.com/storage/species_image/2_abies_alba_pyramidalis/thumbnail/49255769768_df55596553_b.jpg"}},{"id":4979,"common_name":"sweet breath of spring","scientific_name":["Lonicera fragrantissima"],"other_name":null,"cycle":"Perennial","watering":"Minimum","sunlight":["Full sun","part shade"],"default_image":{"image_id":10574,"license":4,"license_name":"Attribution License","license_url":"https://creativecommons.org/licenses/by/2.0/","original_url":"https://perenual.com/storage/species_image/4979_lonicera_fragrantissima/og/49567516128_808a6493be_b.jpg","regular_url":"https://perenual.com/storage/species_image/4979_lonicera_fragrantissima/regular/49567516128_808a6493be_b.jpg","medium_url":"https://perenual.com/storage/species_image/4979_lonicera_fragrantissima/medium/49567516128_808a6493be_b.jpg","small_url":"https://perenual.com/storage/species_image/4979_lonicera_fragrantissima/small/49567516128_808a6493be_b.jpg","thumbnail":"https://perenual.com/storage/species_image/4979_lonicera_fragrantissima/thumbnail/49567516128_808a6493be_b.jpg"}},{"id":4980,"common_name":"goldflame honeysuckle","scientific_name":["Lonicera heckrottii"],"other_name":null,"cycle":"Perennial","watering":"Average","sunlight":["Full sun","part shade"],"default_image":{"image_id":10577,"license":4,"license_name":"Attribution License","license_url":"https://creativecommons.org/licenses/by/2.0/","original_url":"https://perenual.com/storage/species_image/4981_lonicera_heckrottii_gold_flame/og/21990186889_5ce83ea0f3_b.jpg","regular_url":"https://perenual.com/storage/species_image/4981_lonicera_heckrottii_gold_flame/regular/21990186889_5ce83ea0f3_b.jpg","medium_url":"https://perenual.com/storage/species_image/4981_lonicera_heckrottii_gold_flame/medium/21990186889_5ce83ea0f3_b.jpg","small_url":"https://perenual.com/storage/species_image/4981_lonicera_heckrottii_gold_flame/small/21990186889_5ce83ea0f3_b.jpg","thumbnail":"https://perenual.com/storage/species_image/4981_lonicera_heckrottii_gold_flame/thumbnail/21990186889_5ce83ea0f3_b.jpg"}}],"to":4980,"per_page":30,"current_page":166,"from":4951,"last_page":200,"total":6000}