{"data":[{"id":2611,"common_name":"purple coneflower","scientific_name":["Echinacea purpurea"],"other_name":["echinacea","purple coneflower","purple coneflower"],"cycle":"Perennial","watering":"Minimum","sunlight":["Full sun"],"default_image":{"image_id":5813,"license":4,"license_name":"Attribution License","license_url":"https://creativecommons.org/licenses/by/2.0/","original_url":"https://perenual.com/storage/species_image/2671_echinacea_raspberry_tart/og/52225148346_d8f85db773_b.jpg","regular_url":"https://perenual.com/storage/species_image/2671_echinacea_raspberry_tart/regular/52225148346_d8f85db773_b.jpg","medium_url":"https://perenual.com/storage/species_image/2671_echinacea_raspberry_tart/medium/52225148346_d8f85db773_b.jpg","small_url":"https://perenual.com/storage/species_image/2671_echinacea_raspberry_tart/small/52225148346_d8f85db773_b.jpg","thumbnail":"https://perenual.com/storage/species_image/2671_echinacea_raspberry_tart/thumbnail/52225148346_d8f85db773_b.jpg"}},{"id":2612,"common_name":"purple coneflower","scientific_name":["Echinacea purpurea 'Amado'"],"other_name":["echinacea","purple coneflower","purple coneflower"],"cycle":"Perennial","watering":"Minimum","sunlight":["Full sun"],"default_image":{"image_id":9,"license":5,"license_name":"Attribution-ShareAlike License","license_url":"https://creativecommons.org/licenses/by-sa/2.0/","original_url":"https://perenual.com/storage/species_image/2_abies_alba_pyramidalis/og/49255769768_df55596553_b.jpg","regular_url":"https://perenual.com/storage/species_image/2_abies_alba_pyramidalis/regular/49255769768_df55596553_b.jpg","medium_url":"https://perenual.com/storage/species_image/2_abies_alba_pyramidalis/medium/49255769768_df55596553_b.jpg","small_url":"https://perenual.com/storage/species_image/2_abies_alba_pyramidalis/small/49255769768_df55596553_b.jpg","thumbnail":"https://perenual.com/storage/species_image/2_abies_alba_pyramidalis/thumbnail/49255769768_df55596553_b.jpg"}},{"id":2613,"common_name":"purple coneflower","scientific_name":["Echinacea purpurea 'Avalanche'"],"other_name":["echinacea","purple coneflower","purple coneflower"],"cycle":"Perennial","watering":"Minimum","sunlight":["Full sun"],"default_image":{"image_id":9,"license":5,"license_name":"Attribution-ShareAlike License","license_url":"https://creativecommons.org/licenses/by-sa/2.0/","original_url":"https://perenual.com/storage/species_image/2_abies_alba_pyramidalis/og/49255769768_df55596553_b.jpg","regular_url":"https://perenual.com/storage/species_image/2_abies_alba_pyramidalis/regular/49255769768_df55596553_b.jpg","medium_url":"https://perenual.com/storage/species_image/2_abies_alba_pyramidalis/medium/49255769768_df55596553_b.jpg","small_url":"https://perenual.com/storage/species_image/2_abies_alba_pyramidalis/small/49255769768_df55596553_b.jpg","thumbnail":"https://perenual.com/storage/species_image/2_abies_alba_pyramidalis/thumbnail/49255769768_df55596553_b.jpg"}},{"id":2614,"common_name":"coneflower","scientific_name":["Echinacea purpurea 'Balsomsed' SOMBRERO SALSA RED"],"other_name":["echinacea","purple coneflower","purple coneflower"],"cycle":"Perennial","watering":"Minimum","sunlight":["Full sun"],"default_image":{"image_id":9,"license":5,"license_name":"Attribution-ShareAlike License","license_url":"https://creativecommons.org/licenses/by-sa/2.0/","original_url":"https://perenual.com/storage/species_image/2_abies_alba_pyramidalis/og/49255769768_df55596553_b.jpg","regular_url":"https://perenual.com/storage/species_image/2_abies_alba_pyramidalis/regular/49255769768_df55596553_b.jpg","medium_url":"https://perenual.com/storage/species_image/2_abies_alba_pyramidalis/medium/49255769768_df55596553_b.jpg","small_url":"https://perenual.com/storage/species_image/2_abies_alba_pyramidalis/small/49255769768_df55596553_b.jpg","thumbnail":"https://perenual.com/storage/species_image/2_abies_alba_pyramidalis/thumbnail/49255769768_df55596553_b.jpg"}},{"id":2615,"common_name":"coneflower","scientific_name":["Echinacea purpurea 'Balsomselo' SOMBRERO SANDY YELLOW"],"other_name":["echinacea","purple coneflower","purple coneflower"],"cycle":"Perennial","watering":"Minimum","sunlight":["Full sun"],"default_image":{"image_id":9,"license":5,"license_name":"Attribution-ShareAlike License","license_url":"https://creativecommons.org/licenses/by-sa/2.0/","original_url":"https://perenual.com/storage/species_image/2_abies_alba_pyramidalis/og/49255769768_df55596553_b.jpg","regular_url":"https://perenual.com/storage/species_image/2_abies_alba_pyramidalis/regular/49255769768_df55596553_b.jpg","medium_url":"https://perenual.com/storage/species_image/2_abies_alba_pyramidalis/medium/49255769768_df55596553_b.jpg","small_url":"https://perenual.com/storage/species_image/2_abies_alba_pyramidalis/small/49255769768_df55596553_b.jpg","thumbnail":"https://perenual.com/storage/species_image/2_abies_alba_pyramidalis/thumbnail/49255769768_df55596553_b.jpg"}},{"id":2616,"common_name":"purple coneflower","scientific_name":["Echinacea purpurea 'Butterfly Kisses'"],"other_name":["echinacea","purple coneflower","purple coneflower"],"cycle":"Perennial","watering":"Minimum","sunlight":["Full sun"],"default_image":{"image_id":9,"license":5,"license_name":"Attribution-ShareAlike License","license_url":"https://creativecommons.org/licenses/by-sa/2.0/","original_url":"https://perenual.com/storage/species_image/2_abies_alba_pyramidalis/og/49255769768_df55596553_b.jpg","regular_url":"https://perenual.com/storage/species_image/2_abies_alba_pyramidalis/regular/49255769768_df55596553_b.jpg","medium_url":"https://perenual.com/storage/species_image/2_abies_alba_pyramidalis/medium/49255769768_df55596553_b.jpg","small_url":"https://perenual.com/storage/species_image/2_abies_alba_pyramidalis/small/49255769768_df55596553_b.jpg","thumbnail":"https://perenual.com/storage/species_image/2_abies_alba_pyramidalis/thumbnail/49255769768_df55596553_b.jpg"}},{"id":2617,"common_name":"purple coneflower","scientific_name":["Echinacea purpurea 'Coconut Lime'"],"other_name":["echinacea","purple coneflower","purple coneflower"],"cycle":"Perennial","watering":"Minimum","sunlight":["Full sun"],"default_image":{"image_id":9,"license":5,"license_name":"Attribution-ShareAlike License","license_url":"https://creativecommons.org/licenses/by-sa/2.0/","original_url":"https://perenual.com/storage/species_image/2_abies_alba_pyramidalis/og/49255769768_df55596553_b.jpg","regular_url":"https://perenual.com/storage/species_image/2_abies_alba_pyramidalis/regular/49255769768_df55596553_b.jpg","medium_url":"https://perenual.com/storage/species_image/2_abies_alba_pyramidalis/medium/49255769768_df55596553_b.jpg","small_url":"https://perenual.com/storage/species_image/2_abies_alba_pyramidalis/small/49255769768_df55596553_b.jpg","thumbnail":"https://perenual.com/storage/species_image/2_abies_alba_pyramidalis/thumbnail/49255769768_df55596553_b.jpg"}},{"id":2618,"common_name":"purple coneflower","scientific_name":["Echinacea purpurea 'Cranberry Cupcake'"],"other_name":["echinacea","purple coneflower","purple coneflower"],"cycle":"Perennial","watering":"Minimum","sunlight":["Full sun"],"default_image":{"image_id":9,"license":5,"license_name":"Attribution-ShareAlike License","license_url":"https://creativecommons.org/licenses/by-sa/2.0/","original_url":"https://perenual.com/storage/species_image/2_abies_alba_pyramidalis/og/49255769768_df55596553_b.jpg","regular_url":"https://perenual.com/storage/species_image/2_abies_alba_pyramidalis/regular/49255769768_df55596553_b.jpg","medium_url":"https://perenual.com/storage/species_image/2_abies_alba_pyramidalis/medium/49255769768_df55596553_b.jpg","small_url":"https://perenual.com/storage/species_image/2_abies_alba_pyramidalis/small/49255769768_df55596553_b.jpg","thumbnail":"https://perenual.com/storage/species_image/2_abies_alba_pyramidalis/thumbnail/49255769768_df55596553_b.jpg"}},{"id":2619,"common_name":"purple coneflower","scientific_name":["Echinacea purpurea 'Cygnet White'"],"other_name":["echinacea","purple coneflower","purple coneflower"],"cycle":"Perennial","watering":"Minimum","sunlight":["Full sun"],"default_image":{"image_id":9,"license":5,"license_name":"Attribution-ShareAlike License","license_url":"https://creativecommons.org/licenses/by-sa/2.0/","original_url":"https://perenual.com/storage/species_image/2_abies_alba_pyramidalis/og/49255769768_df55596553_b.jpg","regular_url":"https://perenual.com/storage/species_image/2_abies_alba_pyramidalis/regular/49255769768_df55596553_b.jpg","medium_url":"https://perenual.com/storage/species_image/2_abies_alba_pyramidalis/medium/49255769768_df55596553_b.jpg","small_url":"https://perenual.com/storage/species_image/2_abies_alba_pyramidalis/small/49255769768_df55596553_b.jpg","thumbnail":"https://perenual.com/storage/species_image/2_abies_alba_pyramidalis/thumbnail/49255769768_df55596553_b.jpg"}},{"id":2620,"common_name":"purple coneflower","scientific_name":["Echinacea purpurea 'Doubledecker'"],"other_name":["echinacea","purple coneflower","purple coneflower"],"cycle":"Perennial","watering":"Minimum","sunlight":["Full sun"],"default_image":{"image_id":9,"license":5,"license_name":"Attribution-ShareAlike License","license_url":"https://creativecommons.org/licenses/by-sa/2.0/","original_url":"https://perenual.com/storage/species_image/2_abies_alba_pyramidalis/og/49255769768_df55596553_b.jpg","regular_url":"https://perenual.com/storage/species_image/2_abies_alba_pyramidalis/regular/49255769768_df55596553_b.jpg","medium_url":"https://perenual.com/storage/species_image/2_abies_alba_pyramidalis/medium/49255769768_df55596553_b.jpg","small_url":"https://perenual.com/storage/species_image/2_abies_alba_pyramidalis/small/49255769768_df55596553_b.jpg","thumbnail":"https://perenual.com/storage/species_image/2_abies_alba_pyramidalis/thumbnail/49255769768_df55596553_b.jpg"}},{"id":2621,"common_name":"purple coneflower","scientific_name":["Echinacea purpurea 'Elbrook' ELTON KNIGHT"],"other_name":["echinacea","purple coneflower","purple coneflower"],"cycle":"Perennial","watering":"Minimum","sunlight":["Full sun"],"default_image":{"image_id":9,"license":5,"license_name":"Attribution-ShareAlike License","license_url":"https://creativecommons.org/licenses/by-sa/2.0/","original_url":"https://perenual.com/storage/species_image/2_abies_alba_pyramidalis/og/49255769768_df55596553_b.jpg","regular_url":"https://perenual.com/storage/species_image/2_abies_alba_pyramidalis/regular/49255769768_df55596553_b.jpg","medium_url":"https://perenual.com/storage/species_image/2_abies_alba_pyramidalis/medium/49255769768_df55596553_b.jpg","small_url":"https://perenual.com/storage/species_image/2_abies_alba_pyramidalis/small/49255769768_df55596553_b.jpg","thumbnail":"https://perenual.com/storage/species_image/2_abies_alba_pyramidalis/thumbnail/49255769768_df55596553_b.jpg"}},{"id":2622,"common_name":"purple coneflower","scientific_name":["Echinacea purpurea 'Fatal Attraction'"],"other_name":["echinacea","purple coneflower","purple coneflower"],"cycle":"Perennial","watering":"Minimum","sunlight":["Full sun"],"default_image":{"image_id":5826,"license":5,"license_name":"Attribution-ShareAlike License","license_url":"https://creativecommons.org/licenses/by-sa/2.0/","original_url":"https://perenual.com/storage/species_image/2622_echinacea_purpurea_fatal_attraction/og/7522902316_c104e065f6_b.jpg","regular_url":"https://perenual.com/storage/species_image/2622_echinacea_purpurea_fatal_attraction/regular/7522902316_c104e065f6_b.jpg","medium_url":"https://perenual.com/storage/species_image/2622_echinacea_purpurea_fatal_attraction/medium/7522902316_c104e065f6_b.jpg","small_url":"https://perenual.com/storage/species_image/2622_echinacea_purpurea_fatal_attraction/small/7522902316_c104e065f6_b.jpg","thumbnail":"https://perenual.com/storage/species_image/2622_echinacea_purpurea_fatal_attraction/thumbnail/7522902316_c104e065f6_b.jpg"}},{"id":2623,"common_name":"purple coneflower","scientific_name":["Echinacea purpurea 'Finale White'"],"other_name":["echinacea","purple coneflower","purple coneflower"],"cycle":"Perennial","watering":"Minimum","sunlight":["Full sun"],"default_image":{"image_id":5827,"license":4,"license_name":"Attribution License","license_url":"https://creativecommons.org/licenses/by/2.0/","original_url":"https://perenual.com/storage/species_image/2629_echinacea_purpurea_happy_star/og/52193811998_a75d9617c4_b.jpg","regular_url":"https://perenual.com/storage/species_image/2629_echinacea_purpurea_happy_star/regular/52193811998_a75d9617c4_b.jpg","medium_url":"https://perenual.com/storage/species_image/2629_echinacea_purpurea_happy_star/medium/52193811998_a75d9617c4_b.jpg","small_url":"https://perenual.com/storage/species_image/2629_echinacea_purpurea_happy_star/small/52193811998_a75d9617c4_b.jpg","thumbnail":"https://perenual.com/storage/species_image/2629_echinacea_purpurea_happy_star/thumbnail/52193811998_a75d9617c4_b.jpg"}},{"id":2624,"common_name":"purple coneflower","scientific_name":["Echinacea purpurea 'Fragrant Angel'"],"other_name":["echinacea","purple coneflower","purple coneflower"],"cycle":"Perennial","watering":"Minimum","sunlight":["Full sun"],"default_image":{"image_id":9,"license":5,"license_name":"Attribution-ShareAlike License","license_url":"https://creativecommons.org/licenses/by-sa/2.0/","original_url":"https://perenual.com/storage/species_image/2_abies_alba_pyramidalis/og/49255769768_df55596553_b.jpg","regular_url":"https://perenual.com/storage/species_image/2_abies_alba_pyramidalis/regular/49255769768_df55596553_b.jpg","medium_url":"https://perenual.com/storage/species_image/2_abies_alba_pyramidalis/medium/49255769768_df55596553_b.jpg","small_url":"https://perenual.com/storage/species_image/2_abies_alba_pyramidalis/small/49255769768_df55596553_b.jpg","thumbnail":"https://perenual.com/storage/species_image/2_abies_alba_pyramidalis/thumbnail/49255769768_df55596553_b.jpg"}},{"id":2625,"common_name":"purple coneflower","scientific_name":["Echinacea purpurea 'Green Envy'"],"other_name":["echinacea","purple coneflower","purple coneflower"],"cycle":"Perennial","watering":"Minimum","sunlight":["Full sun"],"default_image":{"image_id":9,"license":5,"license_name":"Attribution-ShareAlike License","license_url":"https://creativecommons.org/licenses/by-sa/2.0/","original_url":"https://perenual.com/storage/species_image/2_abies_alba_pyramidalis/og/49255769768_df55596553_b.jpg","regular_url":"https://perenual.com/storage/species_image/2_abies_alba_pyramidalis/regular/49255769768_df55596553_b.jpg","medium_url":"https://perenual.com/storage/species_image/2_abies_alba_pyramidalis/medium/49255769768_df55596553_b.jpg","small_url":"https://perenual.com/storage/species_image/2_abies_alba_pyramidalis/small/49255769768_df55596553_b.jpg","thumbnail":"https://perenual.com/storage/species_image/2_abies_alba_pyramidalis/thumbnail/49255769768_df55596553_b.jpg"}},{"id":2626,"common_name":"purple coneflower","scientific_name":["Echinacea purpurea 'Green Eyes'"],"other_name":["echinacea","purple coneflower","purple coneflower"],"cycle":"Perennial","watering":"Minimum","sunlight":["Full sun"],"default_image":{"image_id":9,"license":5,"license_name":"Attribution-ShareAlike License","license_url":"https://creativecommons.org/licenses/by-sa/2.0/","original_url":"https://perenual.com/storage/species_image/2_abies_alba_pyramidalis/og/49255769768_df55596553_b.jpg","regular_url":"https://perenual.com/storage/species_image/2_abies_alba_pyramidalis/regular/49255769768_df55596553_b.jpg","medium_url":"https://perenual.com/storage/species_image/2_abies_alba_pyramidalis/medium/49255769768_df55596553_b.jpg","small_url":"https://perenual.com/storage/species_image/2_abies_alba_pyramidalis/small/49255769768_df55596553_b.jpg","thumbnail":"https://perenual.com/storage/species_image/2_abies_alba_pyramidalis/thumbnail/49255769768_df55596553_b.jpg"}},{"id":2627,"common_name":"coneflower","scientific_name":["Echinacea purpurea 'Green Jewel'"],"other_name":["echinacea","purple coneflower","purple coneflower"],"cycle":"Perennial","watering":"Minimum","sunlight":["Full sun"],"default_image":{"image_id":5832,"license":5,"license_name":"Attribution-ShareAlike License","license_url":"https://creativecommons.org/licenses/by-sa/2.0/","original_url":"https://perenual.com/storage/species_image/2627_echinacea_purpurea_green_jewel/og/15530793021_8ac5da23d6_b.jpg","regular_url":"https://perenual.com/storage/species_image/2627_echinacea_purpurea_green_jewel/regular/15530793021_8ac5da23d6_b.jpg","medium_url":"https://perenual.com/storage/species_image/2627_echinacea_purpurea_green_jewel/medium/15530793021_8ac5da23d6_b.jpg","small_url":"https://perenual.com/storage/species_image/2627_echinacea_purpurea_green_jewel/small/15530793021_8ac5da23d6_b.jpg","thumbnail":"https://perenual.com/storage/species_image/2627_echinacea_purpurea_green_jewel/thumbnail/15530793021_8ac5da23d6_b.jpg"}},{"id":2628,"common_name":"coneflower","scientific_name":["Echinacea purpurea 'Greenline'"],"other_name":["echinacea","purple coneflower","purple coneflower"],"cycle":"Perennial","watering":"Minimum","sunlight":["Full sun"],"default_image":{"image_id":9,"license":5,"license_name":"Attribution-ShareAlike License","license_url":"https://creativecommons.org/licenses/by-sa/2.0/","original_url":"https://perenual.com/storage/species_image/2_abies_alba_pyramidalis/og/49255769768_df55596553_b.jpg","regular_url":"https://perenual.com/storage/species_image/2_abies_alba_pyramidalis/regular/49255769768_df55596553_b.jpg","medium_url":"https://perenual.com/storage/species_image/2_abies_alba_pyramidalis/medium/49255769768_df55596553_b.jpg","small_url":"https://perenual.com/storage/species_image/2_abies_alba_pyramidalis/small/49255769768_df55596553_b.jpg","thumbnail":"https://perenual.com/storage/species_image/2_abies_alba_pyramidalis/thumbnail/49255769768_df55596553_b.jpg"}},{"id":2629,"common_name":"purple coneflower","scientific_name":["Echinacea purpurea 'Happy Star'"],"other_name":["echinacea","purple coneflower","purple coneflower"],"cycle":"Perennial","watering":"Minimum","sunlight":["Full sun"],"default_image":{"image_id":5827,"license":4,"license_name":"Attribution License","license_url":"https://creativecommons.org/licenses/by/2.0/","original_url":"https://perenual.com/storage/species_image/2629_echinacea_purpurea_happy_star/og/52193811998_a75d9617c4_b.jpg","regular_url":"https://perenual.com/storage/species_image/2629_echinacea_purpurea_happy_star/regular/52193811998_a75d9617c4_b.jpg","medium_url":"https://perenual.com/storage/species_image/2629_echinacea_purpurea_happy_star/medium/52193811998_a75d9617c4_b.jpg","small_url":"https://perenual.com/storage/species_image/2629_echinacea_purpurea_happy_star/small/52193811998_a75d9617c4_b.jpg","thumbnail":"https://perenual.com/storage/species_image/2629_echinacea_purpurea_happy_star/thumbnail/52193811998_a75d9617c4_b.jpg"}},{"id":2630,"common_name":"purple coneflower","scientific_name":["Echinacea purpurea 'Hope'"],"other_name":["echinacea","purple coneflower","purple coneflower"],"cycle":"Perennial","watering":"Minimum","sunlight":["Full sun"],"default_image":{"image_id":5835,"license":4,"license_name":"Attribution License","license_url":"https://creativecommons.org/licenses/by/2.0/","original_url":"https://perenual.com/storage/species_image/2630_echinacea_purpurea_hope/og/45437187001_16906f1bb6_b.jpg","regular_url":"https://perenual.com/storage/species_image/2630_echinacea_purpurea_hope/regular/45437187001_16906f1bb6_b.jpg","medium_url":"https://perenual.com/storage/species_image/2630_echinacea_purpurea_hope/medium/45437187001_16906f1bb6_b.jpg","small_url":"https://perenual.com/storage/species_image/2630_echinacea_purpurea_hope/small/45437187001_16906f1bb6_b.jpg","thumbnail":"https://perenual.com/storage/species_image/2630_echinacea_purpurea_hope/thumbnail/45437187001_16906f1bb6_b.jpg"}},{"id":2631,"common_name":"purple coneflower","scientific_name":["Echinacea purpurea 'Kim's Knee High'"],"other_name":["echinacea","purple coneflower","purple coneflower"],"cycle":"Perennial","watering":"Minimum","sunlight":["Full sun"],"default_image":{"image_id":9,"license":5,"license_name":"Attribution-ShareAlike License","license_url":"https://creativecommons.org/licenses/by-sa/2.0/","original_url":"https://perenual.com/storage/species_image/2_abies_alba_pyramidalis/og/49255769768_df55596553_b.jpg","regular_url":"https://perenual.com/storage/species_image/2_abies_alba_pyramidalis/regular/49255769768_df55596553_b.jpg","medium_url":"https://perenual.com/storage/species_image/2_abies_alba_pyramidalis/medium/49255769768_df55596553_b.jpg","small_url":"https://perenual.com/storage/species_image/2_abies_alba_pyramidalis/small/49255769768_df55596553_b.jpg","thumbnail":"https://perenual.com/storage/species_image/2_abies_alba_pyramidalis/thumbnail/49255769768_df55596553_b.jpg"}},{"id":2632,"common_name":"purple coneflower","scientific_name":["Echinacea purpurea 'Kim's Mop Head'"],"other_name":["echinacea","purple coneflower","purple coneflower"],"cycle":"Perennial","watering":"Minimum","sunlight":["Full sun"],"default_image":{"image_id":9,"license":5,"license_name":"Attribution-ShareAlike License","license_url":"https://creativecommons.org/licenses/by-sa/2.0/","original_url":"https://perenual.com/storage/species_image/2_abies_alba_pyramidalis/og/49255769768_df55596553_b.jpg","regular_url":"https://perenual.com/storage/species_image/2_abies_alba_pyramidalis/regular/49255769768_df55596553_b.jpg","medium_url":"https://perenual.com/storage/species_image/2_abies_alba_pyramidalis/medium/49255769768_df55596553_b.jpg","small_url":"https://perenual.com/storage/species_image/2_abies_alba_pyramidalis/small/49255769768_df55596553_b.jpg","thumbnail":"https://perenual.com/storage/species_image/2_abies_alba_pyramidalis/thumbnail/49255769768_df55596553_b.jpg"}},{"id":2633,"common_name":"purple coneflower","scientific_name":["Echinacea purpurea 'Leuchtstern' BRIGHT STAR"],"other_name":["echinacea","purple coneflower","purple coneflower"],"cycle":"Perennial","watering":"Minimum","sunlight":["Full sun"],"default_image":{"image_id":5839,"license":4,"license_name":"Attribution License","license_url":"https://creativecommons.org/licenses/by/2.0/","original_url":"https://perenual.com/storage/species_image/2633_echinacea_purpurea_leuchtstern_bright_star/og/38736910614_505d7e7a2f_b.jpg","regular_url":"https://perenual.com/storage/species_image/2633_echinacea_purpurea_leuchtstern_bright_star/regular/38736910614_505d7e7a2f_b.jpg","medium_url":"https://perenual.com/storage/species_image/2633_echinacea_purpurea_leuchtstern_bright_star/medium/38736910614_505d7e7a2f_b.jpg","small_url":"https://perenual.com/storage/species_image/2633_echinacea_purpurea_leuchtstern_bright_star/small/38736910614_505d7e7a2f_b.jpg","thumbnail":"https://perenual.com/storage/species_image/2633_echinacea_purpurea_leuchtstern_bright_star/thumbnail/38736910614_505d7e7a2f_b.jpg"}},{"id":2634,"common_name":"purple coneflower","scientific_name":["Echinacea purpurea 'Lilliput'"],"other_name":["echinacea","purple coneflower","purple coneflower"],"cycle":"Perennial","watering":"Minimum","sunlight":["Full sun"],"default_image":{"image_id":9,"license":5,"license_name":"Attribution-ShareAlike License","license_url":"https://creativecommons.org/licenses/by-sa/2.0/","original_url":"https://perenual.com/storage/species_image/2_abies_alba_pyramidalis/og/49255769768_df55596553_b.jpg","regular_url":"https://perenual.com/storage/species_image/2_abies_alba_pyramidalis/regular/49255769768_df55596553_b.jpg","medium_url":"https://perenual.com/storage/species_image/2_abies_alba_pyramidalis/medium/49255769768_df55596553_b.jpg","small_url":"https://perenual.com/storage/species_image/2_abies_alba_pyramidalis/small/49255769768_df55596553_b.jpg","thumbnail":"https://perenual.com/storage/species_image/2_abies_alba_pyramidalis/thumbnail/49255769768_df55596553_b.jpg"}},{"id":2635,"common_name":"purple coneflower","scientific_name":["Echinacea purpurea 'Little Annie'"],"other_name":["echinacea","purple coneflower","purple coneflower"],"cycle":"Perennial","watering":"Minimum","sunlight":["Full sun"],"default_image":{"image_id":9,"license":5,"license_name":"Attribution-ShareAlike License","license_url":"https://creativecommons.org/licenses/by-sa/2.0/","original_url":"https://perenual.com/storage/species_image/2_abies_alba_pyramidalis/og/49255769768_df55596553_b.jpg","regular_url":"https://perenual.com/storage/species_image/2_abies_alba_pyramidalis/regular/49255769768_df55596553_b.jpg","medium_url":"https://perenual.com/storage/species_image/2_abies_alba_pyramidalis/medium/49255769768_df55596553_b.jpg","small_url":"https://perenual.com/storage/species_image/2_abies_alba_pyramidalis/small/49255769768_df55596553_b.jpg","thumbnail":"https://perenual.com/storage/species_image/2_abies_alba_pyramidalis/thumbnail/49255769768_df55596553_b.jpg"}},{"id":2636,"common_name":"purple coneflower","scientific_name":["Echinacea purpurea 'Little Giant'"],"other_name":["echinacea","purple coneflower","purple coneflower"],"cycle":"Perennial","watering":"Minimum","sunlight":["Full sun"],"default_image":{"image_id":9,"license":5,"license_name":"Attribution-ShareAlike License","license_url":"https://creativecommons.org/licenses/by-sa/2.0/","original_url":"https://perenual.com/storage/species_image/2_abies_alba_pyramidalis/og/49255769768_df55596553_b.jpg","regular_url":"https://perenual.com/storage/species_image/2_abies_alba_pyramidalis/regular/49255769768_df55596553_b.jpg","medium_url":"https://perenual.com/storage/species_image/2_abies_alba_pyramidalis/medium/49255769768_df55596553_b.jpg","small_url":"https://perenual.com/storage/species_image/2_abies_alba_pyramidalis/small/49255769768_df55596553_b.jpg","thumbnail":"https://perenual.com/storage/species_image/2_abies_alba_pyramidalis/thumbnail/49255769768_df55596553_b.jpg"}},{"id":2637,"common_name":"purple coneflower","scientific_name":["Echinacea purpurea 'Lucky Star'"],"other_name":["echinacea","purple coneflower","purple coneflower"],"cycle":"Perennial","watering":"Minimum","sunlight":["Full sun"],"default_image":{"image_id":9,"license":5,"license_name":"Attribution-ShareAlike License","license_url":"https://creativecommons.org/licenses/by-sa/2.0/","original_url":"https://perenual.com/storage/species_image/2_abies_alba_pyramidalis/og/49255769768_df55596553_b.jpg","regular_url":"https://perenual.com/storage/species_image/2_abies_alba_pyramidalis/regular/49255769768_df55596553_b.jpg","medium_url":"https://perenual.com/storage/species_image/2_abies_alba_pyramidalis/medium/49255769768_df55596553_b.jpg","small_url":"https://perenual.com/storage/species_image/2_abies_alba_pyramidalis/small/49255769768_df55596553_b.jpg","thumbnail":"https://perenual.com/storage/species_image/2_abies_alba_pyramidalis/thumbnail/49255769768_df55596553_b.jpg"}},{"id":2638,"common_name":"purple coneflower","scientific_name":["Echinacea purpurea 'Magnus'"],"other_name":["echinacea","purple coneflower","purple coneflower"],"cycle":"Perennial","watering":"Minimum","sunlight":["Full sun"],"default_image":{"image_id":5852,"license":5,"license_name":"Attribution-ShareAlike License","license_url":"https://creativecommons.org/licenses/by-sa/2.0/","original_url":"https://perenual.com/storage/species_image/2638_echinacea_purpurea_magnus/og/3894212059_b288f48a25_b.jpg","regular_url":"https://perenual.com/storage/species_image/2638_echinacea_purpurea_magnus/regular/3894212059_b288f48a25_b.jpg","medium_url":"https://perenual.com/storage/species_image/2638_echinacea_purpurea_magnus/medium/3894212059_b288f48a25_b.jpg","small_url":"https://perenual.com/storage/species_image/2638_echinacea_purpurea_magnus/small/3894212059_b288f48a25_b.jpg","thumbnail":"https://perenual.com/storage/species_image/2638_echinacea_purpurea_magnus/thumbnail/3894212059_b288f48a25_b.jpg"}},{"id":2639,"common_name":"purple coneflower","scientific_name":["Echinacea purpurea 'Magnus Superior'"],"other_name":["echinacea","purple coneflower","purple coneflower"],"cycle":"Perennial","watering":"Minimum","sunlight":["Full sun"],"default_image":{"image_id":9,"license":5,"license_name":"Attribution-ShareAlike License","license_url":"https://creativecommons.org/licenses/by-sa/2.0/","original_url":"https://perenual.com/storage/species_image/2_abies_alba_pyramidalis/og/49255769768_df55596553_b.jpg","regular_url":"https://perenual.com/storage/species_image/2_abies_alba_pyramidalis/regular/49255769768_df55596553_b.jpg","medium_url":"https://perenual.com/storage/species_image/2_abies_alba_pyramidalis/medium/49255769768_df55596553_b.jpg","small_url":"https://perenual.com/storage/species_image/2_abies_alba_pyramidalis/small/49255769768_df55596553_b.jpg","thumbnail":"https://perenual.com/storage/species_image/2_abies_alba_pyramidalis/thumbnail/49255769768_df55596553_b.jpg"}},{"id":2640,"common_name":"purple coneflower","scientific_name":["Echinacea purpurea 'Meringue'"],"other_name":["echinacea","purple coneflower","purple coneflower"],"cycle":"Perennial","watering":"Minimum","sunlight":["Full sun"],"default_image":{"image_id":9,"license":5,"license_name":"Attribution-ShareAlike License","license_url":"https://creativecommons.org/licenses/by-sa/2.0/","original_url":"https://perenual.com/storage/species_image/2_abies_alba_pyramidalis/og/49255769768_df55596553_b.jpg","regular_url":"https://perenual.com/storage/species_image/2_abies_alba_pyramidalis/regular/49255769768_df55596553_b.jpg","medium_url":"https://perenual.com/storage/species_image/2_abies_alba_pyramidalis/medium/49255769768_df55596553_b.jpg","small_url":"https://perenual.com/storage/species_image/2_abies_alba_pyramidalis/small/49255769768_df55596553_b.jpg","thumbnail":"https://perenual.com/storage/species_image/2_abies_alba_pyramidalis/thumbnail/49255769768_df55596553_b.jpg"}}],"to":2640,"per_page":30,"current_page":88,"from":2611,"last_page":200,"total":6000}