{"data":[{"id":3661,"common_name":"coral bells","scientific_name":["Heuchera 'Blondie'"],"other_name":null,"cycle":"Perennial","watering":"Average","sunlight":["Full sun","part shade"],"default_image":{"image_id":9,"license":5,"license_name":"Attribution-ShareAlike License","license_url":"https://creativecommons.org/licenses/by-sa/2.0/","original_url":"https://perenual.com/storage/species_image/2_abies_alba_pyramidalis/og/49255769768_df55596553_b.jpg","regular_url":"https://perenual.com/storage/species_image/2_abies_alba_pyramidalis/regular/49255769768_df55596553_b.jpg","medium_url":"https://perenual.com/storage/species_image/2_abies_alba_pyramidalis/medium/49255769768_df55596553_b.jpg","small_url":"https://perenual.com/storage/species_image/2_abies_alba_pyramidalis/small/49255769768_df55596553_b.jpg","thumbnail":"https://perenual.com/storage/species_image/2_abies_alba_pyramidalis/thumbnail/49255769768_df55596553_b.jpg"}},{"id":3662,"common_name":"coral bells","scientific_name":["Heuchera brizoides 'Chatterbox'"],"other_name":null,"cycle":"Perennial","watering":"Average","sunlight":["Full sun","part shade"],"default_image":{"image_id":7529,"license":5,"license_name":"Attribution-ShareAlike License","license_url":"https://creativecommons.org/licenses/by-sa/2.0/","original_url":"https://perenual.com/storage/species_image/3706_heuchera_mt_st_helens/og/52334638154_44fc86b726_b.jpg","regular_url":"https://perenual.com/storage/species_image/3706_heuchera_mt_st_helens/regular/52334638154_44fc86b726_b.jpg","medium_url":"https://perenual.com/storage/species_image/3706_heuchera_mt_st_helens/medium/52334638154_44fc86b726_b.jpg","small_url":"https://perenual.com/storage/species_image/3706_heuchera_mt_st_helens/small/52334638154_44fc86b726_b.jpg","thumbnail":"https://perenual.com/storage/species_image/3706_heuchera_mt_st_helens/thumbnail/52334638154_44fc86b726_b.jpg"}},{"id":3663,"common_name":"coral bells","scientific_name":["Heuchera brizoides 'June Bride'"],"other_name":null,"cycle":"Perennial","watering":"Average","sunlight":["Full sun","part shade"],"default_image":{"image_id":7529,"license":5,"license_name":"Attribution-ShareAlike License","license_url":"https://creativecommons.org/licenses/by-sa/2.0/","original_url":"https://perenual.com/storage/species_image/3706_heuchera_mt_st_helens/og/52334638154_44fc86b726_b.jpg","regular_url":"https://perenual.com/storage/species_image/3706_heuchera_mt_st_helens/regular/52334638154_44fc86b726_b.jpg","medium_url":"https://perenual.com/storage/species_image/3706_heuchera_mt_st_helens/medium/52334638154_44fc86b726_b.jpg","small_url":"https://perenual.com/storage/species_image/3706_heuchera_mt_st_helens/small/52334638154_44fc86b726_b.jpg","thumbnail":"https://perenual.com/storage/species_image/3706_heuchera_mt_st_helens/thumbnail/52334638154_44fc86b726_b.jpg"}},{"id":3664,"common_name":"coral bells","scientific_name":["Heuchera 'Cappuccino'"],"other_name":null,"cycle":"Perennial","watering":"Average","sunlight":["Full sun","part shade"],"default_image":{"image_id":9,"license":5,"license_name":"Attribution-ShareAlike License","license_url":"https://creativecommons.org/licenses/by-sa/2.0/","original_url":"https://perenual.com/storage/species_image/2_abies_alba_pyramidalis/og/49255769768_df55596553_b.jpg","regular_url":"https://perenual.com/storage/species_image/2_abies_alba_pyramidalis/regular/49255769768_df55596553_b.jpg","medium_url":"https://perenual.com/storage/species_image/2_abies_alba_pyramidalis/medium/49255769768_df55596553_b.jpg","small_url":"https://perenual.com/storage/species_image/2_abies_alba_pyramidalis/small/49255769768_df55596553_b.jpg","thumbnail":"https://perenual.com/storage/species_image/2_abies_alba_pyramidalis/thumbnail/49255769768_df55596553_b.jpg"}},{"id":3665,"common_name":"coral bells","scientific_name":["Heuchera 'Caramel'"],"other_name":null,"cycle":"Perennial","watering":"Average","sunlight":["Full sun","part shade"],"default_image":{"image_id":7514,"license":5,"license_name":"Attribution-ShareAlike License","license_url":"https://creativecommons.org/licenses/by-sa/2.0/","original_url":"https://perenual.com/storage/species_image/3665_heuchera_caramel/og/7258882242_7ae0b4f0cd_b.jpg","regular_url":"https://perenual.com/storage/species_image/3665_heuchera_caramel/regular/7258882242_7ae0b4f0cd_b.jpg","medium_url":"https://perenual.com/storage/species_image/3665_heuchera_caramel/medium/7258882242_7ae0b4f0cd_b.jpg","small_url":"https://perenual.com/storage/species_image/3665_heuchera_caramel/small/7258882242_7ae0b4f0cd_b.jpg","thumbnail":"https://perenual.com/storage/species_image/3665_heuchera_caramel/thumbnail/7258882242_7ae0b4f0cd_b.jpg"}},{"id":3666,"common_name":"coral bells","scientific_name":["Heuchera 'Cathedral Windows'"],"other_name":null,"cycle":"Perennial","watering":"Average","sunlight":["Full sun","part shade"],"default_image":{"image_id":7529,"license":5,"license_name":"Attribution-ShareAlike License","license_url":"https://creativecommons.org/licenses/by-sa/2.0/","original_url":"https://perenual.com/storage/species_image/3706_heuchera_mt_st_helens/og/52334638154_44fc86b726_b.jpg","regular_url":"https://perenual.com/storage/species_image/3706_heuchera_mt_st_helens/regular/52334638154_44fc86b726_b.jpg","medium_url":"https://perenual.com/storage/species_image/3706_heuchera_mt_st_helens/medium/52334638154_44fc86b726_b.jpg","small_url":"https://perenual.com/storage/species_image/3706_heuchera_mt_st_helens/small/52334638154_44fc86b726_b.jpg","thumbnail":"https://perenual.com/storage/species_image/3706_heuchera_mt_st_helens/thumbnail/52334638154_44fc86b726_b.jpg"}},{"id":3667,"common_name":"coral bells","scientific_name":["Heuchera 'Champagne'"],"other_name":null,"cycle":"Perennial","watering":"Average","sunlight":["Full sun","part shade"],"default_image":{"image_id":7517,"license":5,"license_name":"Attribution-ShareAlike License","license_url":"https://creativecommons.org/licenses/by-sa/2.0/","original_url":"https://perenual.com/storage/species_image/8610_heuchera_cvs/og/52334638749_a5f46e7540_b.jpg","regular_url":"https://perenual.com/storage/species_image/8610_heuchera_cvs/regular/52334638749_a5f46e7540_b.jpg","medium_url":"https://perenual.com/storage/species_image/8610_heuchera_cvs/medium/52334638749_a5f46e7540_b.jpg","small_url":"https://perenual.com/storage/species_image/8610_heuchera_cvs/small/52334638749_a5f46e7540_b.jpg","thumbnail":"https://perenual.com/storage/species_image/8610_heuchera_cvs/thumbnail/52334638749_a5f46e7540_b.jpg"}},{"id":3668,"common_name":"coral bells","scientific_name":["Heuchera 'Cherries Jubilee'"],"other_name":null,"cycle":"Perennial","watering":"Average","sunlight":["Full sun","part shade"],"default_image":{"image_id":7521,"license":5,"license_name":"Attribution-ShareAlike License","license_url":"https://creativecommons.org/licenses/by-sa/2.0/","original_url":"https://perenual.com/storage/species_image/3752_heuchera_vesuvius/og/52334767830_64b85b2d5e_b.jpg","regular_url":"https://perenual.com/storage/species_image/3752_heuchera_vesuvius/regular/52334767830_64b85b2d5e_b.jpg","medium_url":"https://perenual.com/storage/species_image/3752_heuchera_vesuvius/medium/52334767830_64b85b2d5e_b.jpg","small_url":"https://perenual.com/storage/species_image/3752_heuchera_vesuvius/small/52334767830_64b85b2d5e_b.jpg","thumbnail":"https://perenual.com/storage/species_image/3752_heuchera_vesuvius/thumbnail/52334767830_64b85b2d5e_b.jpg"}},{"id":3669,"common_name":"coral bells","scientific_name":["Heuchera 'Cherry Cola'"],"other_name":null,"cycle":"Perennial","watering":"Average","sunlight":["Full sun","part shade"],"default_image":{"image_id":9,"license":5,"license_name":"Attribution-ShareAlike License","license_url":"https://creativecommons.org/licenses/by-sa/2.0/","original_url":"https://perenual.com/storage/species_image/2_abies_alba_pyramidalis/og/49255769768_df55596553_b.jpg","regular_url":"https://perenual.com/storage/species_image/2_abies_alba_pyramidalis/regular/49255769768_df55596553_b.jpg","medium_url":"https://perenual.com/storage/species_image/2_abies_alba_pyramidalis/medium/49255769768_df55596553_b.jpg","small_url":"https://perenual.com/storage/species_image/2_abies_alba_pyramidalis/small/49255769768_df55596553_b.jpg","thumbnail":"https://perenual.com/storage/species_image/2_abies_alba_pyramidalis/thumbnail/49255769768_df55596553_b.jpg"}},{"id":3670,"common_name":"coral bells","scientific_name":["Heuchera 'Chocolate Ruffles'"],"other_name":null,"cycle":"Perennial","watering":"Average","sunlight":["Full sun","part shade"],"default_image":{"image_id":9,"license":5,"license_name":"Attribution-ShareAlike License","license_url":"https://creativecommons.org/licenses/by-sa/2.0/","original_url":"https://perenual.com/storage/species_image/2_abies_alba_pyramidalis/og/49255769768_df55596553_b.jpg","regular_url":"https://perenual.com/storage/species_image/2_abies_alba_pyramidalis/regular/49255769768_df55596553_b.jpg","medium_url":"https://perenual.com/storage/species_image/2_abies_alba_pyramidalis/medium/49255769768_df55596553_b.jpg","small_url":"https://perenual.com/storage/species_image/2_abies_alba_pyramidalis/small/49255769768_df55596553_b.jpg","thumbnail":"https://perenual.com/storage/species_image/2_abies_alba_pyramidalis/thumbnail/49255769768_df55596553_b.jpg"}},{"id":3671,"common_name":"coral bells","scientific_name":["Heuchera 'Chocolate Veil'"],"other_name":null,"cycle":"Perennial","watering":"Average","sunlight":["Full sun","part shade"],"default_image":{"image_id":7521,"license":5,"license_name":"Attribution-ShareAlike License","license_url":"https://creativecommons.org/licenses/by-sa/2.0/","original_url":"https://perenual.com/storage/species_image/3752_heuchera_vesuvius/og/52334767830_64b85b2d5e_b.jpg","regular_url":"https://perenual.com/storage/species_image/3752_heuchera_vesuvius/regular/52334767830_64b85b2d5e_b.jpg","medium_url":"https://perenual.com/storage/species_image/3752_heuchera_vesuvius/medium/52334767830_64b85b2d5e_b.jpg","small_url":"https://perenual.com/storage/species_image/3752_heuchera_vesuvius/small/52334767830_64b85b2d5e_b.jpg","thumbnail":"https://perenual.com/storage/species_image/3752_heuchera_vesuvius/thumbnail/52334767830_64b85b2d5e_b.jpg"}},{"id":3672,"common_name":"coral bells","scientific_name":["Heuchera 'Christa'"],"other_name":null,"cycle":"Perennial","watering":"Average","sunlight":["Full sun","part shade"],"default_image":{"image_id":9,"license":5,"license_name":"Attribution-ShareAlike License","license_url":"https://creativecommons.org/licenses/by-sa/2.0/","original_url":"https://perenual.com/storage/species_image/2_abies_alba_pyramidalis/og/49255769768_df55596553_b.jpg","regular_url":"https://perenual.com/storage/species_image/2_abies_alba_pyramidalis/regular/49255769768_df55596553_b.jpg","medium_url":"https://perenual.com/storage/species_image/2_abies_alba_pyramidalis/medium/49255769768_df55596553_b.jpg","small_url":"https://perenual.com/storage/species_image/2_abies_alba_pyramidalis/small/49255769768_df55596553_b.jpg","thumbnail":"https://perenual.com/storage/species_image/2_abies_alba_pyramidalis/thumbnail/49255769768_df55596553_b.jpg"}},{"id":3673,"common_name":"coral bells","scientific_name":["Heuchera 'Cinnabar Silver'"],"other_name":null,"cycle":"Perennial","watering":"Average","sunlight":["Full sun","part shade"],"default_image":{"image_id":9,"license":5,"license_name":"Attribution-ShareAlike License","license_url":"https://creativecommons.org/licenses/by-sa/2.0/","original_url":"https://perenual.com/storage/species_image/2_abies_alba_pyramidalis/og/49255769768_df55596553_b.jpg","regular_url":"https://perenual.com/storage/species_image/2_abies_alba_pyramidalis/regular/49255769768_df55596553_b.jpg","medium_url":"https://perenual.com/storage/species_image/2_abies_alba_pyramidalis/medium/49255769768_df55596553_b.jpg","small_url":"https://perenual.com/storage/species_image/2_abies_alba_pyramidalis/small/49255769768_df55596553_b.jpg","thumbnail":"https://perenual.com/storage/species_image/2_abies_alba_pyramidalis/thumbnail/49255769768_df55596553_b.jpg"}},{"id":3674,"common_name":"coral bells","scientific_name":["Heuchera 'Circus'"],"other_name":null,"cycle":"Perennial","watering":"Average","sunlight":["Full sun","part shade"],"default_image":{"image_id":9,"license":5,"license_name":"Attribution-ShareAlike License","license_url":"https://creativecommons.org/licenses/by-sa/2.0/","original_url":"https://perenual.com/storage/species_image/2_abies_alba_pyramidalis/og/49255769768_df55596553_b.jpg","regular_url":"https://perenual.com/storage/species_image/2_abies_alba_pyramidalis/regular/49255769768_df55596553_b.jpg","medium_url":"https://perenual.com/storage/species_image/2_abies_alba_pyramidalis/medium/49255769768_df55596553_b.jpg","small_url":"https://perenual.com/storage/species_image/2_abies_alba_pyramidalis/small/49255769768_df55596553_b.jpg","thumbnail":"https://perenual.com/storage/species_image/2_abies_alba_pyramidalis/thumbnail/49255769768_df55596553_b.jpg"}},{"id":3675,"common_name":"coral bells","scientific_name":["Heuchera 'Citronelle'"],"other_name":null,"cycle":"Perennial","watering":"Average","sunlight":["Full sun","part shade"],"default_image":{"image_id":7543,"license":4,"license_name":"Attribution License","license_url":"https://creativecommons.org/licenses/by/2.0/","original_url":"https://perenual.com/storage/species_image/3675_heuchera_citronelle/og/52198055239_b48065db98_b.jpg","regular_url":"https://perenual.com/storage/species_image/3675_heuchera_citronelle/regular/52198055239_b48065db98_b.jpg","medium_url":"https://perenual.com/storage/species_image/3675_heuchera_citronelle/medium/52198055239_b48065db98_b.jpg","small_url":"https://perenual.com/storage/species_image/3675_heuchera_citronelle/small/52198055239_b48065db98_b.jpg","thumbnail":"https://perenual.com/storage/species_image/3675_heuchera_citronelle/thumbnail/52198055239_b48065db98_b.jpg"}},{"id":3676,"common_name":"coral bells","scientific_name":["Heuchera 'Coco' LITTLE CUTIE COCO"],"other_name":null,"cycle":"Perennial","watering":"Average","sunlight":["Full sun","part shade"],"default_image":{"image_id":9,"license":5,"license_name":"Attribution-ShareAlike License","license_url":"https://creativecommons.org/licenses/by-sa/2.0/","original_url":"https://perenual.com/storage/species_image/2_abies_alba_pyramidalis/og/49255769768_df55596553_b.jpg","regular_url":"https://perenual.com/storage/species_image/2_abies_alba_pyramidalis/regular/49255769768_df55596553_b.jpg","medium_url":"https://perenual.com/storage/species_image/2_abies_alba_pyramidalis/medium/49255769768_df55596553_b.jpg","small_url":"https://perenual.com/storage/species_image/2_abies_alba_pyramidalis/small/49255769768_df55596553_b.jpg","thumbnail":"https://perenual.com/storage/species_image/2_abies_alba_pyramidalis/thumbnail/49255769768_df55596553_b.jpg"}},{"id":3677,"common_name":"coral bells","scientific_name":["Heuchera 'Crimson Curls'"],"other_name":null,"cycle":"Perennial","watering":"Average","sunlight":["Full sun","part shade"],"default_image":{"image_id":9,"license":5,"license_name":"Attribution-ShareAlike License","license_url":"https://creativecommons.org/licenses/by-sa/2.0/","original_url":"https://perenual.com/storage/species_image/2_abies_alba_pyramidalis/og/49255769768_df55596553_b.jpg","regular_url":"https://perenual.com/storage/species_image/2_abies_alba_pyramidalis/regular/49255769768_df55596553_b.jpg","medium_url":"https://perenual.com/storage/species_image/2_abies_alba_pyramidalis/medium/49255769768_df55596553_b.jpg","small_url":"https://perenual.com/storage/species_image/2_abies_alba_pyramidalis/small/49255769768_df55596553_b.jpg","thumbnail":"https://perenual.com/storage/species_image/2_abies_alba_pyramidalis/thumbnail/49255769768_df55596553_b.jpg"}},{"id":3678,"common_name":"coral bells","scientific_name":["Heuchera 'Cultus Bay Beauty'"],"other_name":null,"cycle":"Perennial","watering":"Average","sunlight":["Full sun","part shade"],"default_image":{"image_id":7517,"license":5,"license_name":"Attribution-ShareAlike License","license_url":"https://creativecommons.org/licenses/by-sa/2.0/","original_url":"https://perenual.com/storage/species_image/8610_heuchera_cvs/og/52334638749_a5f46e7540_b.jpg","regular_url":"https://perenual.com/storage/species_image/8610_heuchera_cvs/regular/52334638749_a5f46e7540_b.jpg","medium_url":"https://perenual.com/storage/species_image/8610_heuchera_cvs/medium/52334638749_a5f46e7540_b.jpg","small_url":"https://perenual.com/storage/species_image/8610_heuchera_cvs/small/52334638749_a5f46e7540_b.jpg","thumbnail":"https://perenual.com/storage/species_image/8610_heuchera_cvs/thumbnail/52334638749_a5f46e7540_b.jpg"}},{"id":3679,"common_name":"coral bells","scientific_name":["Heuchera cylindrica"],"other_name":null,"cycle":"Perennial","watering":"Average","sunlight":["Full sun","part shade"],"default_image":{"image_id":9,"license":5,"license_name":"Attribution-ShareAlike License","license_url":"https://creativecommons.org/licenses/by-sa/2.0/","original_url":"https://perenual.com/storage/species_image/2_abies_alba_pyramidalis/og/49255769768_df55596553_b.jpg","regular_url":"https://perenual.com/storage/species_image/2_abies_alba_pyramidalis/regular/49255769768_df55596553_b.jpg","medium_url":"https://perenual.com/storage/species_image/2_abies_alba_pyramidalis/medium/49255769768_df55596553_b.jpg","small_url":"https://perenual.com/storage/species_image/2_abies_alba_pyramidalis/small/49255769768_df55596553_b.jpg","thumbnail":"https://perenual.com/storage/species_image/2_abies_alba_pyramidalis/thumbnail/49255769768_df55596553_b.jpg"}},{"id":3680,"common_name":"coral bells","scientific_name":["Heuchera 'Encore'"],"other_name":null,"cycle":"Perennial","watering":"Average","sunlight":["Full sun","part shade"],"default_image":{"image_id":9,"license":5,"license_name":"Attribution-ShareAlike License","license_url":"https://creativecommons.org/licenses/by-sa/2.0/","original_url":"https://perenual.com/storage/species_image/2_abies_alba_pyramidalis/og/49255769768_df55596553_b.jpg","regular_url":"https://perenual.com/storage/species_image/2_abies_alba_pyramidalis/regular/49255769768_df55596553_b.jpg","medium_url":"https://perenual.com/storage/species_image/2_abies_alba_pyramidalis/medium/49255769768_df55596553_b.jpg","small_url":"https://perenual.com/storage/species_image/2_abies_alba_pyramidalis/small/49255769768_df55596553_b.jpg","thumbnail":"https://perenual.com/storage/species_image/2_abies_alba_pyramidalis/thumbnail/49255769768_df55596553_b.jpg"}},{"id":3681,"common_name":"coral bells","scientific_name":["Heuchera 'Fire Chief'"],"other_name":null,"cycle":"Perennial","watering":"Average","sunlight":["Full sun","part shade"],"default_image":{"image_id":9,"license":5,"license_name":"Attribution-ShareAlike License","license_url":"https://creativecommons.org/licenses/by-sa/2.0/","original_url":"https://perenual.com/storage/species_image/2_abies_alba_pyramidalis/og/49255769768_df55596553_b.jpg","regular_url":"https://perenual.com/storage/species_image/2_abies_alba_pyramidalis/regular/49255769768_df55596553_b.jpg","medium_url":"https://perenual.com/storage/species_image/2_abies_alba_pyramidalis/medium/49255769768_df55596553_b.jpg","small_url":"https://perenual.com/storage/species_image/2_abies_alba_pyramidalis/small/49255769768_df55596553_b.jpg","thumbnail":"https://perenual.com/storage/species_image/2_abies_alba_pyramidalis/thumbnail/49255769768_df55596553_b.jpg"}},{"id":3682,"common_name":"coral bells","scientific_name":["Heuchera 'Forever Red'"],"other_name":null,"cycle":"Perennial","watering":"Average","sunlight":["Full sun","part shade"],"default_image":{"image_id":9,"license":5,"license_name":"Attribution-ShareAlike License","license_url":"https://creativecommons.org/licenses/by-sa/2.0/","original_url":"https://perenual.com/storage/species_image/2_abies_alba_pyramidalis/og/49255769768_df55596553_b.jpg","regular_url":"https://perenual.com/storage/species_image/2_abies_alba_pyramidalis/regular/49255769768_df55596553_b.jpg","medium_url":"https://perenual.com/storage/species_image/2_abies_alba_pyramidalis/medium/49255769768_df55596553_b.jpg","small_url":"https://perenual.com/storage/species_image/2_abies_alba_pyramidalis/small/49255769768_df55596553_b.jpg","thumbnail":"https://perenual.com/storage/species_image/2_abies_alba_pyramidalis/thumbnail/49255769768_df55596553_b.jpg"}},{"id":3683,"common_name":"coral bells","scientific_name":["Heuchera 'Frosted Violet'"],"other_name":null,"cycle":"Perennial","watering":"Average","sunlight":["Full sun","part shade"],"default_image":{"image_id":7551,"license":5,"license_name":"Attribution-ShareAlike License","license_url":"https://creativecommons.org/licenses/by-sa/2.0/","original_url":"https://perenual.com/storage/species_image/3683_heuchera_frosted_violet/og/6241459388_5ca433df82_b.jpg","regular_url":"https://perenual.com/storage/species_image/3683_heuchera_frosted_violet/regular/6241459388_5ca433df82_b.jpg","medium_url":"https://perenual.com/storage/species_image/3683_heuchera_frosted_violet/medium/6241459388_5ca433df82_b.jpg","small_url":"https://perenual.com/storage/species_image/3683_heuchera_frosted_violet/small/6241459388_5ca433df82_b.jpg","thumbnail":"https://perenual.com/storage/species_image/3683_heuchera_frosted_violet/thumbnail/6241459388_5ca433df82_b.jpg"}},{"id":3684,"common_name":"coral bells","scientific_name":["Heuchera 'Georgia Peach'"],"other_name":null,"cycle":"Perennial","watering":"Average","sunlight":["Full sun","part shade"],"default_image":{"image_id":9,"license":5,"license_name":"Attribution-ShareAlike License","license_url":"https://creativecommons.org/licenses/by-sa/2.0/","original_url":"https://perenual.com/storage/species_image/2_abies_alba_pyramidalis/og/49255769768_df55596553_b.jpg","regular_url":"https://perenual.com/storage/species_image/2_abies_alba_pyramidalis/regular/49255769768_df55596553_b.jpg","medium_url":"https://perenual.com/storage/species_image/2_abies_alba_pyramidalis/medium/49255769768_df55596553_b.jpg","small_url":"https://perenual.com/storage/species_image/2_abies_alba_pyramidalis/small/49255769768_df55596553_b.jpg","thumbnail":"https://perenual.com/storage/species_image/2_abies_alba_pyramidalis/thumbnail/49255769768_df55596553_b.jpg"}},{"id":3685,"common_name":"coral bells","scientific_name":["Heuchera 'Ginger Ale'"],"other_name":null,"cycle":"Perennial","watering":"Average","sunlight":["Full sun","part shade"],"default_image":{"image_id":9,"license":5,"license_name":"Attribution-ShareAlike License","license_url":"https://creativecommons.org/licenses/by-sa/2.0/","original_url":"https://perenual.com/storage/species_image/2_abies_alba_pyramidalis/og/49255769768_df55596553_b.jpg","regular_url":"https://perenual.com/storage/species_image/2_abies_alba_pyramidalis/regular/49255769768_df55596553_b.jpg","medium_url":"https://perenual.com/storage/species_image/2_abies_alba_pyramidalis/medium/49255769768_df55596553_b.jpg","small_url":"https://perenual.com/storage/species_image/2_abies_alba_pyramidalis/small/49255769768_df55596553_b.jpg","thumbnail":"https://perenual.com/storage/species_image/2_abies_alba_pyramidalis/thumbnail/49255769768_df55596553_b.jpg"}},{"id":3686,"common_name":"coral bells","scientific_name":["Heuchera 'Ginger Peach'"],"other_name":null,"cycle":"Perennial","watering":"Average","sunlight":["Full sun","part shade"],"default_image":{"image_id":9,"license":5,"license_name":"Attribution-ShareAlike License","license_url":"https://creativecommons.org/licenses/by-sa/2.0/","original_url":"https://perenual.com/storage/species_image/2_abies_alba_pyramidalis/og/49255769768_df55596553_b.jpg","regular_url":"https://perenual.com/storage/species_image/2_abies_alba_pyramidalis/regular/49255769768_df55596553_b.jpg","medium_url":"https://perenual.com/storage/species_image/2_abies_alba_pyramidalis/medium/49255769768_df55596553_b.jpg","small_url":"https://perenual.com/storage/species_image/2_abies_alba_pyramidalis/small/49255769768_df55596553_b.jpg","thumbnail":"https://perenual.com/storage/species_image/2_abies_alba_pyramidalis/thumbnail/49255769768_df55596553_b.jpg"}},{"id":3687,"common_name":"coral bells","scientific_name":["Heuchera 'Green Spice'"],"other_name":null,"cycle":"Perennial","watering":"Average","sunlight":["Full sun","part shade"],"default_image":{"image_id":7556,"license":4,"license_name":"Attribution License","license_url":"https://creativecommons.org/licenses/by/2.0/","original_url":"https://perenual.com/storage/species_image/3687_heuchera_green_spice/og/5409935858_259b05b7bd_b.jpg","regular_url":"https://perenual.com/storage/species_image/3687_heuchera_green_spice/regular/5409935858_259b05b7bd_b.jpg","medium_url":"https://perenual.com/storage/species_image/3687_heuchera_green_spice/medium/5409935858_259b05b7bd_b.jpg","small_url":"https://perenual.com/storage/species_image/3687_heuchera_green_spice/small/5409935858_259b05b7bd_b.jpg","thumbnail":"https://perenual.com/storage/species_image/3687_heuchera_green_spice/thumbnail/5409935858_259b05b7bd_b.jpg"}},{"id":3688,"common_name":"coral bells","scientific_name":["Heuchera 'Harmonic Convergence'"],"other_name":null,"cycle":"Perennial","watering":"Average","sunlight":["Full sun","part shade"],"default_image":{"image_id":7521,"license":5,"license_name":"Attribution-ShareAlike License","license_url":"https://creativecommons.org/licenses/by-sa/2.0/","original_url":"https://perenual.com/storage/species_image/3752_heuchera_vesuvius/og/52334767830_64b85b2d5e_b.jpg","regular_url":"https://perenual.com/storage/species_image/3752_heuchera_vesuvius/regular/52334767830_64b85b2d5e_b.jpg","medium_url":"https://perenual.com/storage/species_image/3752_heuchera_vesuvius/medium/52334767830_64b85b2d5e_b.jpg","small_url":"https://perenual.com/storage/species_image/3752_heuchera_vesuvius/small/52334767830_64b85b2d5e_b.jpg","thumbnail":"https://perenual.com/storage/species_image/3752_heuchera_vesuvius/thumbnail/52334767830_64b85b2d5e_b.jpg"}},{"id":3689,"common_name":"coral bells","scientific_name":["Heuchera 'Hercules'"],"other_name":null,"cycle":"Perennial","watering":"Average","sunlight":["Full sun","part shade"],"default_image":{"image_id":9,"license":5,"license_name":"Attribution-ShareAlike License","license_url":"https://creativecommons.org/licenses/by-sa/2.0/","original_url":"https://perenual.com/storage/species_image/2_abies_alba_pyramidalis/og/49255769768_df55596553_b.jpg","regular_url":"https://perenual.com/storage/species_image/2_abies_alba_pyramidalis/regular/49255769768_df55596553_b.jpg","medium_url":"https://perenual.com/storage/species_image/2_abies_alba_pyramidalis/medium/49255769768_df55596553_b.jpg","small_url":"https://perenual.com/storage/species_image/2_abies_alba_pyramidalis/small/49255769768_df55596553_b.jpg","thumbnail":"https://perenual.com/storage/species_image/2_abies_alba_pyramidalis/thumbnail/49255769768_df55596553_b.jpg"}},{"id":3690,"common_name":"coral bells","scientific_name":["Heuchera 'Heuros' ROSEMARY BLOOM"],"other_name":null,"cycle":"Perennial","watering":"Average","sunlight":["Full sun","part shade"],"default_image":{"image_id":9,"license":5,"license_name":"Attribution-ShareAlike License","license_url":"https://creativecommons.org/licenses/by-sa/2.0/","original_url":"https://perenual.com/storage/species_image/2_abies_alba_pyramidalis/og/49255769768_df55596553_b.jpg","regular_url":"https://perenual.com/storage/species_image/2_abies_alba_pyramidalis/regular/49255769768_df55596553_b.jpg","medium_url":"https://perenual.com/storage/species_image/2_abies_alba_pyramidalis/medium/49255769768_df55596553_b.jpg","small_url":"https://perenual.com/storage/species_image/2_abies_alba_pyramidalis/small/49255769768_df55596553_b.jpg","thumbnail":"https://perenual.com/storage/species_image/2_abies_alba_pyramidalis/thumbnail/49255769768_df55596553_b.jpg"}}],"to":3690,"per_page":30,"current_page":123,"from":3661,"last_page":200,"total":6000}