{"data":[{"id":2071,"common_name":"tickseed","scientific_name":["Coreopsis 'Pinwheel'"],"other_name":null,"cycle":"Perennial","watering":"Minimum","sunlight":["Full sun"],"default_image":{"image_id":9,"license":5,"license_name":"Attribution-ShareAlike License","license_url":"https://creativecommons.org/licenses/by-sa/2.0/","original_url":"https://perenual.com/storage/species_image/2_abies_alba_pyramidalis/og/49255769768_df55596553_b.jpg","regular_url":"https://perenual.com/storage/species_image/2_abies_alba_pyramidalis/regular/49255769768_df55596553_b.jpg","medium_url":"https://perenual.com/storage/species_image/2_abies_alba_pyramidalis/medium/49255769768_df55596553_b.jpg","small_url":"https://perenual.com/storage/species_image/2_abies_alba_pyramidalis/small/49255769768_df55596553_b.jpg","thumbnail":"https://perenual.com/storage/species_image/2_abies_alba_pyramidalis/thumbnail/49255769768_df55596553_b.jpg"}},{"id":2072,"common_name":"tickseed","scientific_name":["Coreopsis pubescens"],"other_name":null,"cycle":"Perennial","watering":"Minimum","sunlight":["Full sun"],"default_image":{"image_id":4978,"license":4,"license_name":"Attribution License","license_url":"https://creativecommons.org/licenses/by/2.0/","original_url":"https://perenual.com/storage/species_image/2072_coreopsis_pubescens/og/4715504896_93810ae29a_b.jpg","regular_url":"https://perenual.com/storage/species_image/2072_coreopsis_pubescens/regular/4715504896_93810ae29a_b.jpg","medium_url":"https://perenual.com/storage/species_image/2072_coreopsis_pubescens/medium/4715504896_93810ae29a_b.jpg","small_url":"https://perenual.com/storage/species_image/2072_coreopsis_pubescens/small/4715504896_93810ae29a_b.jpg","thumbnail":"https://perenual.com/storage/species_image/2072_coreopsis_pubescens/thumbnail/4715504896_93810ae29a_b.jpg"}},{"id":2073,"common_name":"tickseed","scientific_name":["Coreopsis pubescens 'Sunshine Superman'"],"other_name":null,"cycle":"Perennial","watering":"Minimum","sunlight":["Full sun"],"default_image":{"image_id":4954,"license":6,"license_name":"Attribution-NoDerivs License","license_url":"https://creativecommons.org/licenses/by-nd/2.0/","original_url":"https://perenual.com/storage/species_image/2073_coreopsis_pubescens_sunshine_superman/og/52534573588_4041277b56_b.jpg"}},{"id":2074,"common_name":"tickseed","scientific_name":["Coreopsis 'Red Elf'"],"other_name":null,"cycle":"Perennial","watering":"Minimum","sunlight":["Full sun"],"default_image":{"image_id":9,"license":5,"license_name":"Attribution-ShareAlike License","license_url":"https://creativecommons.org/licenses/by-sa/2.0/","original_url":"https://perenual.com/storage/species_image/2_abies_alba_pyramidalis/og/49255769768_df55596553_b.jpg","regular_url":"https://perenual.com/storage/species_image/2_abies_alba_pyramidalis/regular/49255769768_df55596553_b.jpg","medium_url":"https://perenual.com/storage/species_image/2_abies_alba_pyramidalis/medium/49255769768_df55596553_b.jpg","small_url":"https://perenual.com/storage/species_image/2_abies_alba_pyramidalis/small/49255769768_df55596553_b.jpg","thumbnail":"https://perenual.com/storage/species_image/2_abies_alba_pyramidalis/thumbnail/49255769768_df55596553_b.jpg"}},{"id":2075,"common_name":"tickseed","scientific_name":["Coreopsis 'Red Satin' PERMATHREAD"],"other_name":null,"cycle":"Perennial","watering":"Minimum","sunlight":["Full sun"],"default_image":{"image_id":9,"license":5,"license_name":"Attribution-ShareAlike License","license_url":"https://creativecommons.org/licenses/by-sa/2.0/","original_url":"https://perenual.com/storage/species_image/2_abies_alba_pyramidalis/og/49255769768_df55596553_b.jpg","regular_url":"https://perenual.com/storage/species_image/2_abies_alba_pyramidalis/regular/49255769768_df55596553_b.jpg","medium_url":"https://perenual.com/storage/species_image/2_abies_alba_pyramidalis/medium/49255769768_df55596553_b.jpg","small_url":"https://perenual.com/storage/species_image/2_abies_alba_pyramidalis/small/49255769768_df55596553_b.jpg","thumbnail":"https://perenual.com/storage/species_image/2_abies_alba_pyramidalis/thumbnail/49255769768_df55596553_b.jpg"}},{"id":2076,"common_name":"tickseed","scientific_name":["Coreopsis 'Redshift'"],"other_name":null,"cycle":"Perennial","watering":"Average","sunlight":["Full sun"],"default_image":{"image_id":9,"license":5,"license_name":"Attribution-ShareAlike License","license_url":"https://creativecommons.org/licenses/by-sa/2.0/","original_url":"https://perenual.com/storage/species_image/2_abies_alba_pyramidalis/og/49255769768_df55596553_b.jpg","regular_url":"https://perenual.com/storage/species_image/2_abies_alba_pyramidalis/regular/49255769768_df55596553_b.jpg","medium_url":"https://perenual.com/storage/species_image/2_abies_alba_pyramidalis/medium/49255769768_df55596553_b.jpg","small_url":"https://perenual.com/storage/species_image/2_abies_alba_pyramidalis/small/49255769768_df55596553_b.jpg","thumbnail":"https://perenual.com/storage/species_image/2_abies_alba_pyramidalis/thumbnail/49255769768_df55596553_b.jpg"}},{"id":2077,"common_name":"tickseed","scientific_name":["Coreopsis rosea"],"other_name":["pink tickseed"],"cycle":"Perennial","watering":"Average","sunlight":["Full sun Partial sun"],"default_image":{"image_id":9,"license":5,"license_name":"Attribution-ShareAlike License","license_url":"https://creativecommons.org/licenses/by-sa/2.0/","original_url":"https://perenual.com/storage/species_image/2_abies_alba_pyramidalis/og/49255769768_df55596553_b.jpg","regular_url":"https://perenual.com/storage/species_image/2_abies_alba_pyramidalis/regular/49255769768_df55596553_b.jpg","medium_url":"https://perenual.com/storage/species_image/2_abies_alba_pyramidalis/medium/49255769768_df55596553_b.jpg","small_url":"https://perenual.com/storage/species_image/2_abies_alba_pyramidalis/small/49255769768_df55596553_b.jpg","thumbnail":"https://perenual.com/storage/species_image/2_abies_alba_pyramidalis/thumbnail/49255769768_df55596553_b.jpg"}},{"id":2078,"common_name":"tickseed","scientific_name":["Coreopsis rosea 'Alba'"],"other_name":["pink tickseed"],"cycle":"Perennial","watering":"Average","sunlight":["Full sun Partial sun"],"default_image":{"image_id":9,"license":5,"license_name":"Attribution-ShareAlike License","license_url":"https://creativecommons.org/licenses/by-sa/2.0/","original_url":"https://perenual.com/storage/species_image/2_abies_alba_pyramidalis/og/49255769768_df55596553_b.jpg","regular_url":"https://perenual.com/storage/species_image/2_abies_alba_pyramidalis/regular/49255769768_df55596553_b.jpg","medium_url":"https://perenual.com/storage/species_image/2_abies_alba_pyramidalis/medium/49255769768_df55596553_b.jpg","small_url":"https://perenual.com/storage/species_image/2_abies_alba_pyramidalis/small/49255769768_df55596553_b.jpg","thumbnail":"https://perenual.com/storage/species_image/2_abies_alba_pyramidalis/thumbnail/49255769768_df55596553_b.jpg"}},{"id":2079,"common_name":"tickseed","scientific_name":["Coreopsis rosea 'American Dream'"],"other_name":["pink tickseed"],"cycle":"Perennial","watering":"Average","sunlight":["Full sun Partial sun"],"default_image":{"image_id":9,"license":5,"license_name":"Attribution-ShareAlike License","license_url":"https://creativecommons.org/licenses/by-sa/2.0/","original_url":"https://perenual.com/storage/species_image/2_abies_alba_pyramidalis/og/49255769768_df55596553_b.jpg","regular_url":"https://perenual.com/storage/species_image/2_abies_alba_pyramidalis/regular/49255769768_df55596553_b.jpg","medium_url":"https://perenual.com/storage/species_image/2_abies_alba_pyramidalis/medium/49255769768_df55596553_b.jpg","small_url":"https://perenual.com/storage/species_image/2_abies_alba_pyramidalis/small/49255769768_df55596553_b.jpg","thumbnail":"https://perenual.com/storage/species_image/2_abies_alba_pyramidalis/thumbnail/49255769768_df55596553_b.jpg"}},{"id":2080,"common_name":"tickseed","scientific_name":["Coreopsis rosea 'Heaven's Gate'"],"other_name":["pink tickseed"],"cycle":"Perennial","watering":"Average","sunlight":["Full sun Partial sun"],"default_image":{"image_id":4986,"license":45,"license_name":"Attribution-ShareAlike 3.0 Unported (CC BY-SA 3.0)","license_url":"https://creativecommons.org/licenses/by-sa/3.0/deed.en","original_url":"https://perenual.com/storage/species_image/2080_coreopsis_rosea_heavens_gate/og/Heavensgate1.jpg","regular_url":"https://perenual.com/storage/species_image/2080_coreopsis_rosea_heavens_gate/regular/Heavensgate1.jpg","medium_url":"https://perenual.com/storage/species_image/2080_coreopsis_rosea_heavens_gate/medium/Heavensgate1.jpg","small_url":"https://perenual.com/storage/species_image/2080_coreopsis_rosea_heavens_gate/small/Heavensgate1.jpg","thumbnail":"https://perenual.com/storage/species_image/2080_coreopsis_rosea_heavens_gate/thumbnail/Heavensgate1.jpg"}},{"id":2081,"common_name":"tickseed","scientific_name":["Coreopsis rosea 'Sweet Dreams'"],"other_name":["pink tickseed"],"cycle":"Perennial","watering":"Average","sunlight":["Full sun Partial sun"],"default_image":{"image_id":9,"license":5,"license_name":"Attribution-ShareAlike License","license_url":"https://creativecommons.org/licenses/by-sa/2.0/","original_url":"https://perenual.com/storage/species_image/2_abies_alba_pyramidalis/og/49255769768_df55596553_b.jpg","regular_url":"https://perenual.com/storage/species_image/2_abies_alba_pyramidalis/regular/49255769768_df55596553_b.jpg","medium_url":"https://perenual.com/storage/species_image/2_abies_alba_pyramidalis/medium/49255769768_df55596553_b.jpg","small_url":"https://perenual.com/storage/species_image/2_abies_alba_pyramidalis/small/49255769768_df55596553_b.jpg","thumbnail":"https://perenual.com/storage/species_image/2_abies_alba_pyramidalis/thumbnail/49255769768_df55596553_b.jpg"}},{"id":2082,"common_name":"tickseed","scientific_name":["Coreopsis 'Route 66'"],"other_name":null,"cycle":"Perennial","watering":"Minimum","sunlight":["Full sun"],"default_image":{"image_id":9,"license":5,"license_name":"Attribution-ShareAlike License","license_url":"https://creativecommons.org/licenses/by-sa/2.0/","original_url":"https://perenual.com/storage/species_image/2_abies_alba_pyramidalis/og/49255769768_df55596553_b.jpg","regular_url":"https://perenual.com/storage/species_image/2_abies_alba_pyramidalis/regular/49255769768_df55596553_b.jpg","medium_url":"https://perenual.com/storage/species_image/2_abies_alba_pyramidalis/medium/49255769768_df55596553_b.jpg","small_url":"https://perenual.com/storage/species_image/2_abies_alba_pyramidalis/small/49255769768_df55596553_b.jpg","thumbnail":"https://perenual.com/storage/species_image/2_abies_alba_pyramidalis/thumbnail/49255769768_df55596553_b.jpg"}},{"id":2083,"common_name":"tickseed","scientific_name":["Coreopsis 'Sienna Sunset'"],"other_name":null,"cycle":"Perennial","watering":"Minimum","sunlight":["Full sun"],"default_image":{"image_id":9,"license":5,"license_name":"Attribution-ShareAlike License","license_url":"https://creativecommons.org/licenses/by-sa/2.0/","original_url":"https://perenual.com/storage/species_image/2_abies_alba_pyramidalis/og/49255769768_df55596553_b.jpg","regular_url":"https://perenual.com/storage/species_image/2_abies_alba_pyramidalis/regular/49255769768_df55596553_b.jpg","medium_url":"https://perenual.com/storage/species_image/2_abies_alba_pyramidalis/medium/49255769768_df55596553_b.jpg","small_url":"https://perenual.com/storage/species_image/2_abies_alba_pyramidalis/small/49255769768_df55596553_b.jpg","thumbnail":"https://perenual.com/storage/species_image/2_abies_alba_pyramidalis/thumbnail/49255769768_df55596553_b.jpg"}},{"id":2084,"common_name":"tickseed","scientific_name":["Coreopsis SOLANNA GOLDEN SPHERE"],"other_name":null,"cycle":"Perennial","watering":"Minimum","sunlight":["Full sun"],"default_image":{"image_id":9,"license":5,"license_name":"Attribution-ShareAlike License","license_url":"https://creativecommons.org/licenses/by-sa/2.0/","original_url":"https://perenual.com/storage/species_image/2_abies_alba_pyramidalis/og/49255769768_df55596553_b.jpg","regular_url":"https://perenual.com/storage/species_image/2_abies_alba_pyramidalis/regular/49255769768_df55596553_b.jpg","medium_url":"https://perenual.com/storage/species_image/2_abies_alba_pyramidalis/medium/49255769768_df55596553_b.jpg","small_url":"https://perenual.com/storage/species_image/2_abies_alba_pyramidalis/small/49255769768_df55596553_b.jpg","thumbnail":"https://perenual.com/storage/species_image/2_abies_alba_pyramidalis/thumbnail/49255769768_df55596553_b.jpg"}},{"id":2085,"common_name":"tickseed","scientific_name":["Coreopsis 'Sonnenkind' BABY SUN"],"other_name":null,"cycle":"Perennial","watering":"Minimum","sunlight":["Full sun"],"default_image":{"image_id":9,"license":5,"license_name":"Attribution-ShareAlike License","license_url":"https://creativecommons.org/licenses/by-sa/2.0/","original_url":"https://perenual.com/storage/species_image/2_abies_alba_pyramidalis/og/49255769768_df55596553_b.jpg","regular_url":"https://perenual.com/storage/species_image/2_abies_alba_pyramidalis/regular/49255769768_df55596553_b.jpg","medium_url":"https://perenual.com/storage/species_image/2_abies_alba_pyramidalis/medium/49255769768_df55596553_b.jpg","small_url":"https://perenual.com/storage/species_image/2_abies_alba_pyramidalis/small/49255769768_df55596553_b.jpg","thumbnail":"https://perenual.com/storage/species_image/2_abies_alba_pyramidalis/thumbnail/49255769768_df55596553_b.jpg"}},{"id":2086,"common_name":"tickseed","scientific_name":["Coreopsis 'Sunburst'"],"other_name":null,"cycle":"Perennial","watering":"Minimum","sunlight":["Full sun"],"default_image":{"image_id":9,"license":5,"license_name":"Attribution-ShareAlike License","license_url":"https://creativecommons.org/licenses/by-sa/2.0/","original_url":"https://perenual.com/storage/species_image/2_abies_alba_pyramidalis/og/49255769768_df55596553_b.jpg","regular_url":"https://perenual.com/storage/species_image/2_abies_alba_pyramidalis/regular/49255769768_df55596553_b.jpg","medium_url":"https://perenual.com/storage/species_image/2_abies_alba_pyramidalis/medium/49255769768_df55596553_b.jpg","small_url":"https://perenual.com/storage/species_image/2_abies_alba_pyramidalis/small/49255769768_df55596553_b.jpg","thumbnail":"https://perenual.com/storage/species_image/2_abies_alba_pyramidalis/thumbnail/49255769768_df55596553_b.jpg"}},{"id":2087,"common_name":"tickseed","scientific_name":["Coreopsis 'Sunray'"],"other_name":null,"cycle":"Perennial","watering":"Minimum","sunlight":["Full sun"],"default_image":{"image_id":4994,"license":4,"license_name":"Attribution License","license_url":"https://creativecommons.org/licenses/by/2.0/","original_url":"https://perenual.com/storage/species_image/2087_coreopsis_sunray/og/5389784330_f97a6e052f_b.jpg","regular_url":"https://perenual.com/storage/species_image/2087_coreopsis_sunray/regular/5389784330_f97a6e052f_b.jpg","medium_url":"https://perenual.com/storage/species_image/2087_coreopsis_sunray/medium/5389784330_f97a6e052f_b.jpg","small_url":"https://perenual.com/storage/species_image/2087_coreopsis_sunray/small/5389784330_f97a6e052f_b.jpg","thumbnail":"https://perenual.com/storage/species_image/2087_coreopsis_sunray/thumbnail/5389784330_f97a6e052f_b.jpg"}},{"id":2088,"common_name":"tickseed","scientific_name":["Coreopsis 'Sweet Marmalade'"],"other_name":null,"cycle":"Perennial","watering":"Minimum","sunlight":["Full sun"],"default_image":{"image_id":9,"license":5,"license_name":"Attribution-ShareAlike License","license_url":"https://creativecommons.org/licenses/by-sa/2.0/","original_url":"https://perenual.com/storage/species_image/2_abies_alba_pyramidalis/og/49255769768_df55596553_b.jpg","regular_url":"https://perenual.com/storage/species_image/2_abies_alba_pyramidalis/regular/49255769768_df55596553_b.jpg","medium_url":"https://perenual.com/storage/species_image/2_abies_alba_pyramidalis/medium/49255769768_df55596553_b.jpg","small_url":"https://perenual.com/storage/species_image/2_abies_alba_pyramidalis/small/49255769768_df55596553_b.jpg","thumbnail":"https://perenual.com/storage/species_image/2_abies_alba_pyramidalis/thumbnail/49255769768_df55596553_b.jpg"}},{"id":2089,"common_name":"tickseed","scientific_name":["Coreopsis 'Tequila Sunrise'"],"other_name":null,"cycle":"Perennial","watering":"Minimum","sunlight":["Full sun"],"default_image":{"image_id":9,"license":5,"license_name":"Attribution-ShareAlike License","license_url":"https://creativecommons.org/licenses/by-sa/2.0/","original_url":"https://perenual.com/storage/species_image/2_abies_alba_pyramidalis/og/49255769768_df55596553_b.jpg","regular_url":"https://perenual.com/storage/species_image/2_abies_alba_pyramidalis/regular/49255769768_df55596553_b.jpg","medium_url":"https://perenual.com/storage/species_image/2_abies_alba_pyramidalis/medium/49255769768_df55596553_b.jpg","small_url":"https://perenual.com/storage/species_image/2_abies_alba_pyramidalis/small/49255769768_df55596553_b.jpg","thumbnail":"https://perenual.com/storage/species_image/2_abies_alba_pyramidalis/thumbnail/49255769768_df55596553_b.jpg"}},{"id":2090,"common_name":"plains coreopsis","scientific_name":["Coreopsis tinctoria"],"other_name":null,"cycle":"Perennial","watering":"Minimum","sunlight":["Full sun"],"default_image":{"image_id":4995,"license":5,"license_name":"Attribution-ShareAlike License","license_url":"https://creativecommons.org/licenses/by-sa/2.0/","original_url":"https://perenual.com/storage/species_image/2090_coreopsis_tinctoria/og/50260256921_e948e4f100_b.jpg","regular_url":"https://perenual.com/storage/species_image/2090_coreopsis_tinctoria/regular/50260256921_e948e4f100_b.jpg","medium_url":"https://perenual.com/storage/species_image/2090_coreopsis_tinctoria/medium/50260256921_e948e4f100_b.jpg","small_url":"https://perenual.com/storage/species_image/2090_coreopsis_tinctoria/small/50260256921_e948e4f100_b.jpg","thumbnail":"https://perenual.com/storage/species_image/2090_coreopsis_tinctoria/thumbnail/50260256921_e948e4f100_b.jpg"}},{"id":2091,"common_name":"tickseed","scientific_name":["Coreopsis tripteris"],"other_name":null,"cycle":"Perennial","watering":"Minimum","sunlight":["Full sun"],"default_image":{"image_id":4999,"license":5,"license_name":"Attribution-ShareAlike License","license_url":"https://creativecommons.org/licenses/by-sa/2.0/","original_url":"https://perenual.com/storage/species_image/2091_coreopsis_tripteris/og/28725267783_f0f9d97dbc_b.jpg","regular_url":"https://perenual.com/storage/species_image/2091_coreopsis_tripteris/regular/28725267783_f0f9d97dbc_b.jpg","medium_url":"https://perenual.com/storage/species_image/2091_coreopsis_tripteris/medium/28725267783_f0f9d97dbc_b.jpg","small_url":"https://perenual.com/storage/species_image/2091_coreopsis_tripteris/small/28725267783_f0f9d97dbc_b.jpg","thumbnail":"https://perenual.com/storage/species_image/2091_coreopsis_tripteris/thumbnail/28725267783_f0f9d97dbc_b.jpg"}},{"id":2092,"common_name":"threadleaf coreopsis","scientific_name":["Coreopsis verticillata"],"other_name":["whorled tickseed"],"cycle":"Perennial","watering":"Minimum","sunlight":["Full sun"],"default_image":{"image_id":5004,"license":4,"license_name":"Attribution License","license_url":"https://creativecommons.org/licenses/by/2.0/","original_url":"https://perenual.com/storage/species_image/2092_coreopsis_verticillata/og/36057737782_004a3e2179_b.jpg","regular_url":"https://perenual.com/storage/species_image/2092_coreopsis_verticillata/regular/36057737782_004a3e2179_b.jpg","medium_url":"https://perenual.com/storage/species_image/2092_coreopsis_verticillata/medium/36057737782_004a3e2179_b.jpg","small_url":"https://perenual.com/storage/species_image/2092_coreopsis_verticillata/small/36057737782_004a3e2179_b.jpg","thumbnail":"https://perenual.com/storage/species_image/2092_coreopsis_verticillata/thumbnail/36057737782_004a3e2179_b.jpg"}},{"id":2093,"common_name":"threadleaf coreopsis","scientific_name":["Coreopsis verticillata 'Golden Dream'"],"other_name":null,"cycle":"Perennial","watering":"Minimum","sunlight":["Full sun"],"default_image":{"image_id":9,"license":5,"license_name":"Attribution-ShareAlike License","license_url":"https://creativecommons.org/licenses/by-sa/2.0/","original_url":"https://perenual.com/storage/species_image/2_abies_alba_pyramidalis/og/49255769768_df55596553_b.jpg","regular_url":"https://perenual.com/storage/species_image/2_abies_alba_pyramidalis/regular/49255769768_df55596553_b.jpg","medium_url":"https://perenual.com/storage/species_image/2_abies_alba_pyramidalis/medium/49255769768_df55596553_b.jpg","small_url":"https://perenual.com/storage/species_image/2_abies_alba_pyramidalis/small/49255769768_df55596553_b.jpg","thumbnail":"https://perenual.com/storage/species_image/2_abies_alba_pyramidalis/thumbnail/49255769768_df55596553_b.jpg"}},{"id":2094,"common_name":"threadleaf coreopsis","scientific_name":["Coreopsis verticillata 'Golden Gain'"],"other_name":null,"cycle":"Perennial","watering":"Minimum","sunlight":["Full sun"],"default_image":{"image_id":5005,"license":5,"license_name":"Attribution-ShareAlike License","license_url":"https://creativecommons.org/licenses/by-sa/2.0/","original_url":"https://perenual.com/storage/species_image/2094_coreopsis_verticillata_golden_gain/og/9959647916_bef0512dc3_b.jpg","regular_url":"https://perenual.com/storage/species_image/2094_coreopsis_verticillata_golden_gain/regular/9959647916_bef0512dc3_b.jpg","medium_url":"https://perenual.com/storage/species_image/2094_coreopsis_verticillata_golden_gain/medium/9959647916_bef0512dc3_b.jpg","small_url":"https://perenual.com/storage/species_image/2094_coreopsis_verticillata_golden_gain/small/9959647916_bef0512dc3_b.jpg","thumbnail":"https://perenual.com/storage/species_image/2094_coreopsis_verticillata_golden_gain/thumbnail/9959647916_bef0512dc3_b.jpg"}},{"id":2095,"common_name":"threadleaf coreopsis","scientific_name":["Coreopsis verticillata 'Grandiflora'"],"other_name":null,"cycle":"Perennial","watering":"Minimum","sunlight":["Full sun"],"default_image":{"image_id":9,"license":5,"license_name":"Attribution-ShareAlike License","license_url":"https://creativecommons.org/licenses/by-sa/2.0/","original_url":"https://perenual.com/storage/species_image/2_abies_alba_pyramidalis/og/49255769768_df55596553_b.jpg","regular_url":"https://perenual.com/storage/species_image/2_abies_alba_pyramidalis/regular/49255769768_df55596553_b.jpg","medium_url":"https://perenual.com/storage/species_image/2_abies_alba_pyramidalis/medium/49255769768_df55596553_b.jpg","small_url":"https://perenual.com/storage/species_image/2_abies_alba_pyramidalis/small/49255769768_df55596553_b.jpg","thumbnail":"https://perenual.com/storage/species_image/2_abies_alba_pyramidalis/thumbnail/49255769768_df55596553_b.jpg"}},{"id":2096,"common_name":"threadleaf coreopsis","scientific_name":["Coreopsis verticillata 'Moonbeam'"],"other_name":null,"cycle":"Perennial","watering":"Minimum","sunlight":["Full sun"],"default_image":{"image_id":5009,"license":6,"license_name":"Attribution-NoDerivs License","license_url":"https://creativecommons.org/licenses/by-nd/2.0/","original_url":"https://perenual.com/storage/species_image/2096_coreopsis_verticillata_moonbeam/og/19177371619_b75fb21690_b.jpg"}},{"id":2097,"common_name":"threadleaf coreopsis","scientific_name":["Coreopsis verticillata 'Zagreb'"],"other_name":null,"cycle":"Perennial","watering":"Minimum","sunlight":["Full sun"],"default_image":{"image_id":5011,"license":5,"license_name":"Attribution-ShareAlike License","license_url":"https://creativecommons.org/licenses/by-sa/2.0/","original_url":"https://perenual.com/storage/species_image/2097_coreopsis_verticillata_zagreb/og/19299476955_2c74d06e04_b.jpg","regular_url":"https://perenual.com/storage/species_image/2097_coreopsis_verticillata_zagreb/regular/19299476955_2c74d06e04_b.jpg","medium_url":"https://perenual.com/storage/species_image/2097_coreopsis_verticillata_zagreb/medium/19299476955_2c74d06e04_b.jpg","small_url":"https://perenual.com/storage/species_image/2097_coreopsis_verticillata_zagreb/small/19299476955_2c74d06e04_b.jpg","thumbnail":"https://perenual.com/storage/species_image/2097_coreopsis_verticillata_zagreb/thumbnail/19299476955_2c74d06e04_b.jpg"}},{"id":2098,"common_name":"cilantro","scientific_name":["Coriandrum sativum"],"other_name":["coriander","Chinese parsley"],"cycle":"Annual","watering":"Average","sunlight":["Full sun","part shade"],"default_image":{"image_id":5014,"license":4,"license_name":"Attribution License","license_url":"https://creativecommons.org/licenses/by/2.0/","original_url":"https://perenual.com/storage/species_image/2098_coriandrum_sativum/og/23933935237_ac36e334a3_b.jpg","regular_url":"https://perenual.com/storage/species_image/2098_coriandrum_sativum/regular/23933935237_ac36e334a3_b.jpg","medium_url":"https://perenual.com/storage/species_image/2098_coriandrum_sativum/medium/23933935237_ac36e334a3_b.jpg","small_url":"https://perenual.com/storage/species_image/2098_coriandrum_sativum/small/23933935237_ac36e334a3_b.jpg","thumbnail":"https://perenual.com/storage/species_image/2098_coriandrum_sativum/thumbnail/23933935237_ac36e334a3_b.jpg"}},{"id":2099,"common_name":"tatarian dogwood","scientific_name":["Cornus alba"],"other_name":["white dogwood"],"cycle":"Perennial","watering":"Average","sunlight":["Full sun","part shade"],"default_image":{"image_id":9,"license":5,"license_name":"Attribution-ShareAlike License","license_url":"https://creativecommons.org/licenses/by-sa/2.0/","original_url":"https://perenual.com/storage/species_image/2_abies_alba_pyramidalis/og/49255769768_df55596553_b.jpg","regular_url":"https://perenual.com/storage/species_image/2_abies_alba_pyramidalis/regular/49255769768_df55596553_b.jpg","medium_url":"https://perenual.com/storage/species_image/2_abies_alba_pyramidalis/medium/49255769768_df55596553_b.jpg","small_url":"https://perenual.com/storage/species_image/2_abies_alba_pyramidalis/small/49255769768_df55596553_b.jpg","thumbnail":"https://perenual.com/storage/species_image/2_abies_alba_pyramidalis/thumbnail/49255769768_df55596553_b.jpg"}},{"id":2100,"common_name":"tatarian dogwood","scientific_name":["Cornus alba 'Argenteomarginata'"],"other_name":null,"cycle":"Perennial","watering":"Average","sunlight":["Full sun","part shade"],"default_image":{"image_id":9,"license":5,"license_name":"Attribution-ShareAlike License","license_url":"https://creativecommons.org/licenses/by-sa/2.0/","original_url":"https://perenual.com/storage/species_image/2_abies_alba_pyramidalis/og/49255769768_df55596553_b.jpg","regular_url":"https://perenual.com/storage/species_image/2_abies_alba_pyramidalis/regular/49255769768_df55596553_b.jpg","medium_url":"https://perenual.com/storage/species_image/2_abies_alba_pyramidalis/medium/49255769768_df55596553_b.jpg","small_url":"https://perenual.com/storage/species_image/2_abies_alba_pyramidalis/small/49255769768_df55596553_b.jpg","thumbnail":"https://perenual.com/storage/species_image/2_abies_alba_pyramidalis/thumbnail/49255769768_df55596553_b.jpg"}}],"to":2100,"per_page":30,"current_page":70,"from":2071,"last_page":200,"total":6000}