{"data":[{"id":1471,"common_name":"zebra plant","scientific_name":["Calathea zebrina"],"other_name":null,"cycle":"Perennial","watering":"Average","sunlight":["Part shade","full shade"],"default_image":{"image_id":3345,"license":4,"license_name":"Attribution License","license_url":"https://creativecommons.org/licenses/by/2.0/","original_url":"https://perenual.com/storage/species_image/1471_calathea_zebrina/og/24798559861_0c6830ba26_b.jpg","regular_url":"https://perenual.com/storage/species_image/1471_calathea_zebrina/regular/24798559861_0c6830ba26_b.jpg","medium_url":"https://perenual.com/storage/species_image/1471_calathea_zebrina/medium/24798559861_0c6830ba26_b.jpg","small_url":"https://perenual.com/storage/species_image/1471_calathea_zebrina/small/24798559861_0c6830ba26_b.jpg","thumbnail":"https://perenual.com/storage/species_image/1471_calathea_zebrina/thumbnail/24798559861_0c6830ba26_b.jpg"}},{"id":1472,"common_name":"slipper flower","scientific_name":["Calceolaria (Herbeohybrida Group)"],"other_name":["pouch flower","lady's slipper"],"cycle":"Perennial","watering":"Average","sunlight":["Part shade","full shade"],"default_image":{"image_id":3348,"license":5,"license_name":"Attribution-ShareAlike License","license_url":"https://creativecommons.org/licenses/by-sa/2.0/","original_url":"https://perenual.com/storage/species_image/1472_calceolaria_herbeohybrida_group/og/2428017395_db5e093bd6_b.jpg","regular_url":"https://perenual.com/storage/species_image/1472_calceolaria_herbeohybrida_group/regular/2428017395_db5e093bd6_b.jpg","medium_url":"https://perenual.com/storage/species_image/1472_calceolaria_herbeohybrida_group/medium/2428017395_db5e093bd6_b.jpg","small_url":"https://perenual.com/storage/species_image/1472_calceolaria_herbeohybrida_group/small/2428017395_db5e093bd6_b.jpg","thumbnail":"https://perenual.com/storage/species_image/1472_calceolaria_herbeohybrida_group/thumbnail/2428017395_db5e093bd6_b.jpg"}},{"id":1473,"common_name":"marigold","scientific_name":["Calendula officinalis"],"other_name":null,"cycle":"Perennial","watering":"Average","sunlight":[],"default_image":{"image_id":3350,"license":4,"license_name":"Attribution License","license_url":"https://creativecommons.org/licenses/by/2.0/","original_url":"https://perenual.com/storage/species_image/1473_calendula_officinalis/og/52278754303_ec74264930_b.jpg","regular_url":"https://perenual.com/storage/species_image/1473_calendula_officinalis/regular/52278754303_ec74264930_b.jpg","medium_url":"https://perenual.com/storage/species_image/1473_calendula_officinalis/medium/52278754303_ec74264930_b.jpg","small_url":"https://perenual.com/storage/species_image/1473_calendula_officinalis/small/52278754303_ec74264930_b.jpg","thumbnail":"https://perenual.com/storage/species_image/1473_calendula_officinalis/thumbnail/52278754303_ec74264930_b.jpg"}},{"id":1474,"common_name":"million bells","scientific_name":["Calibrachoa (group)"],"other_name":null,"cycle":"Perennial","watering":"Average","sunlight":["Full sun"],"default_image":{"image_id":9,"license":5,"license_name":"Attribution-ShareAlike License","license_url":"https://creativecommons.org/licenses/by-sa/2.0/","original_url":"https://perenual.com/storage/species_image/2_abies_alba_pyramidalis/og/49255769768_df55596553_b.jpg","regular_url":"https://perenual.com/storage/species_image/2_abies_alba_pyramidalis/regular/49255769768_df55596553_b.jpg","medium_url":"https://perenual.com/storage/species_image/2_abies_alba_pyramidalis/medium/49255769768_df55596553_b.jpg","small_url":"https://perenual.com/storage/species_image/2_abies_alba_pyramidalis/small/49255769768_df55596553_b.jpg","thumbnail":"https://perenual.com/storage/species_image/2_abies_alba_pyramidalis/thumbnail/49255769768_df55596553_b.jpg"}},{"id":1475,"common_name":"million bells","scientific_name":["Calibrachoa 'Sunbelkist' MILLION BELLS TERRA COTTA"],"other_name":null,"cycle":"Perennial","watering":"Average","sunlight":["Full sun"],"default_image":{"image_id":9,"license":5,"license_name":"Attribution-ShareAlike License","license_url":"https://creativecommons.org/licenses/by-sa/2.0/","original_url":"https://perenual.com/storage/species_image/2_abies_alba_pyramidalis/og/49255769768_df55596553_b.jpg","regular_url":"https://perenual.com/storage/species_image/2_abies_alba_pyramidalis/regular/49255769768_df55596553_b.jpg","medium_url":"https://perenual.com/storage/species_image/2_abies_alba_pyramidalis/medium/49255769768_df55596553_b.jpg","small_url":"https://perenual.com/storage/species_image/2_abies_alba_pyramidalis/small/49255769768_df55596553_b.jpg","thumbnail":"https://perenual.com/storage/species_image/2_abies_alba_pyramidalis/thumbnail/49255769768_df55596553_b.jpg"}},{"id":1476,"common_name":"water arum","scientific_name":["Calla palustris"],"other_name":["Water Arum"],"cycle":"Perennial","watering":"Average","sunlight":[],"default_image":{"image_id":3357,"license":5,"license_name":"Attribution-ShareAlike License","license_url":"https://creativecommons.org/licenses/by-sa/2.0/","original_url":"https://perenual.com/storage/species_image/1476_calla_palustris/og/52126915441_df34301803_b.jpg","regular_url":"https://perenual.com/storage/species_image/1476_calla_palustris/regular/52126915441_df34301803_b.jpg","medium_url":"https://perenual.com/storage/species_image/1476_calla_palustris/medium/52126915441_df34301803_b.jpg","small_url":"https://perenual.com/storage/species_image/1476_calla_palustris/small/52126915441_df34301803_b.jpg","thumbnail":"https://perenual.com/storage/species_image/1476_calla_palustris/thumbnail/52126915441_df34301803_b.jpg"}},{"id":1477,"common_name":"powder puff tree","scientific_name":["Calliandra haematocephala"],"other_name":null,"cycle":"Perennial","watering":"Average","sunlight":["Full sun"],"default_image":{"image_id":3362,"license":4,"license_name":"Attribution License","license_url":"https://creativecommons.org/licenses/by/2.0/","original_url":"https://perenual.com/storage/species_image/1477_calliandra_haematocephala/og/52063600268_834ebc0538_b.jpg","regular_url":"https://perenual.com/storage/species_image/1477_calliandra_haematocephala/regular/52063600268_834ebc0538_b.jpg","medium_url":"https://perenual.com/storage/species_image/1477_calliandra_haematocephala/medium/52063600268_834ebc0538_b.jpg","small_url":"https://perenual.com/storage/species_image/1477_calliandra_haematocephala/small/52063600268_834ebc0538_b.jpg","thumbnail":"https://perenual.com/storage/species_image/1477_calliandra_haematocephala/thumbnail/52063600268_834ebc0538_b.jpg"}},{"id":1478,"common_name":"beautyberry","scientific_name":["Callicarpa americana"],"other_name":null,"cycle":"Perennial","watering":"Average","sunlight":["Full sun","part shade"],"default_image":{"image_id":3369,"license":4,"license_name":"Attribution License","license_url":"https://creativecommons.org/licenses/by/2.0/","original_url":"https://perenual.com/storage/species_image/1478_callicarpa_americana/og/51661452592_e28f0a0bbc_b.jpg","regular_url":"https://perenual.com/storage/species_image/1478_callicarpa_americana/regular/51661452592_e28f0a0bbc_b.jpg","medium_url":"https://perenual.com/storage/species_image/1478_callicarpa_americana/medium/51661452592_e28f0a0bbc_b.jpg","small_url":"https://perenual.com/storage/species_image/1478_callicarpa_americana/small/51661452592_e28f0a0bbc_b.jpg","thumbnail":"https://perenual.com/storage/species_image/1478_callicarpa_americana/thumbnail/51661452592_e28f0a0bbc_b.jpg"}},{"id":1479,"common_name":"beautyberry","scientific_name":["Callicarpa bodinieri"],"other_name":null,"cycle":"Perennial","watering":"Average","sunlight":["Full sun","part shade"],"default_image":{"image_id":3372,"license":5,"license_name":"Attribution-ShareAlike License","license_url":"https://creativecommons.org/licenses/by-sa/2.0/","original_url":"https://perenual.com/storage/species_image/1479_callicarpa_bodinieri/og/8083128825_496da137e8_b.jpg","regular_url":"https://perenual.com/storage/species_image/1479_callicarpa_bodinieri/regular/8083128825_496da137e8_b.jpg","medium_url":"https://perenual.com/storage/species_image/1479_callicarpa_bodinieri/medium/8083128825_496da137e8_b.jpg","small_url":"https://perenual.com/storage/species_image/1479_callicarpa_bodinieri/small/8083128825_496da137e8_b.jpg","thumbnail":"https://perenual.com/storage/species_image/1479_callicarpa_bodinieri/thumbnail/8083128825_496da137e8_b.jpg"}},{"id":1480,"common_name":"beautyberry","scientific_name":["Callicarpa bodinieri var. giraldii 'Profusion'"],"other_name":null,"cycle":"Perennial","watering":"Average","sunlight":["Full sun","part shade"],"default_image":{"image_id":9,"license":5,"license_name":"Attribution-ShareAlike License","license_url":"https://creativecommons.org/licenses/by-sa/2.0/","original_url":"https://perenual.com/storage/species_image/2_abies_alba_pyramidalis/og/49255769768_df55596553_b.jpg","regular_url":"https://perenual.com/storage/species_image/2_abies_alba_pyramidalis/regular/49255769768_df55596553_b.jpg","medium_url":"https://perenual.com/storage/species_image/2_abies_alba_pyramidalis/medium/49255769768_df55596553_b.jpg","small_url":"https://perenual.com/storage/species_image/2_abies_alba_pyramidalis/small/49255769768_df55596553_b.jpg","thumbnail":"https://perenual.com/storage/species_image/2_abies_alba_pyramidalis/thumbnail/49255769768_df55596553_b.jpg"}},{"id":1481,"common_name":"beautyberry","scientific_name":["Callicarpa cathayana"],"other_name":null,"cycle":"Perennial","watering":"Average","sunlight":["Full sun","part shade"],"default_image":{"image_id":9,"license":5,"license_name":"Attribution-ShareAlike License","license_url":"https://creativecommons.org/licenses/by-sa/2.0/","original_url":"https://perenual.com/storage/species_image/2_abies_alba_pyramidalis/og/49255769768_df55596553_b.jpg","regular_url":"https://perenual.com/storage/species_image/2_abies_alba_pyramidalis/regular/49255769768_df55596553_b.jpg","medium_url":"https://perenual.com/storage/species_image/2_abies_alba_pyramidalis/medium/49255769768_df55596553_b.jpg","small_url":"https://perenual.com/storage/species_image/2_abies_alba_pyramidalis/small/49255769768_df55596553_b.jpg","thumbnail":"https://perenual.com/storage/species_image/2_abies_alba_pyramidalis/thumbnail/49255769768_df55596553_b.jpg"}},{"id":1482,"common_name":"beautyberry","scientific_name":["Callicarpa dichotoma"],"other_name":null,"cycle":"Perennial","watering":"Average","sunlight":["Full sun","part shade"],"default_image":{"image_id":3383,"license":5,"license_name":"Attribution-ShareAlike License","license_url":"https://creativecommons.org/licenses/by-sa/2.0/","original_url":"https://perenual.com/storage/species_image/1482_callicarpa_dichotoma/og/22834639981_2124dc9f72_b.jpg","regular_url":"https://perenual.com/storage/species_image/1482_callicarpa_dichotoma/regular/22834639981_2124dc9f72_b.jpg","medium_url":"https://perenual.com/storage/species_image/1482_callicarpa_dichotoma/medium/22834639981_2124dc9f72_b.jpg","small_url":"https://perenual.com/storage/species_image/1482_callicarpa_dichotoma/small/22834639981_2124dc9f72_b.jpg","thumbnail":"https://perenual.com/storage/species_image/1482_callicarpa_dichotoma/thumbnail/22834639981_2124dc9f72_b.jpg"}},{"id":1483,"common_name":"beautyberry","scientific_name":["Callicarpa dichotoma 'Early Amethyst'"],"other_name":null,"cycle":"Perennial","watering":"Average","sunlight":["Full sun","part shade"],"default_image":{"image_id":3387,"license":6,"license_name":"Attribution-NoDerivs License","license_url":"https://creativecommons.org/licenses/by-nd/2.0/","original_url":"https://perenual.com/storage/species_image/1483_callicarpa_dichotoma_early_amethyst/og/20886301236_3e808fee6f_b.jpg"}},{"id":1484,"common_name":"beautyberry","scientific_name":["Callicarpa dichotoma f. albifructa"],"other_name":null,"cycle":"Perennial","watering":"Average","sunlight":["Full sun","part shade"],"default_image":{"image_id":3391,"license":4,"license_name":"Attribution License","license_url":"https://creativecommons.org/licenses/by/2.0/","original_url":"https://perenual.com/storage/species_image/1484_callicarpa_dichotoma_f_albifructa/og/51527109061_94d2055471_b.jpg","regular_url":"https://perenual.com/storage/species_image/1484_callicarpa_dichotoma_f_albifructa/regular/51527109061_94d2055471_b.jpg","medium_url":"https://perenual.com/storage/species_image/1484_callicarpa_dichotoma_f_albifructa/medium/51527109061_94d2055471_b.jpg","small_url":"https://perenual.com/storage/species_image/1484_callicarpa_dichotoma_f_albifructa/small/51527109061_94d2055471_b.jpg","thumbnail":"https://perenual.com/storage/species_image/1484_callicarpa_dichotoma_f_albifructa/thumbnail/51527109061_94d2055471_b.jpg"}},{"id":1485,"common_name":"beautyberry","scientific_name":["Callicarpa dichotoma f. albifructa 'Duet'"],"other_name":null,"cycle":"Perennial","watering":"Average","sunlight":["Full sun","part shade"],"default_image":{"image_id":9,"license":5,"license_name":"Attribution-ShareAlike License","license_url":"https://creativecommons.org/licenses/by-sa/2.0/","original_url":"https://perenual.com/storage/species_image/2_abies_alba_pyramidalis/og/49255769768_df55596553_b.jpg","regular_url":"https://perenual.com/storage/species_image/2_abies_alba_pyramidalis/regular/49255769768_df55596553_b.jpg","medium_url":"https://perenual.com/storage/species_image/2_abies_alba_pyramidalis/medium/49255769768_df55596553_b.jpg","small_url":"https://perenual.com/storage/species_image/2_abies_alba_pyramidalis/small/49255769768_df55596553_b.jpg","thumbnail":"https://perenual.com/storage/species_image/2_abies_alba_pyramidalis/thumbnail/49255769768_df55596553_b.jpg"}},{"id":1486,"common_name":"beautyberry","scientific_name":["Callicarpa dichotoma 'Issai'"],"other_name":null,"cycle":"Perennial","watering":"Average","sunlight":["Full sun","part shade"],"default_image":{"image_id":3386,"license":4,"license_name":"Attribution License","license_url":"https://creativecommons.org/licenses/by/2.0/","original_url":"https://perenual.com/storage/species_image/1482_callicarpa_dichotoma/og/21657444630_e0b677c2e4_b.jpg","regular_url":"https://perenual.com/storage/species_image/1482_callicarpa_dichotoma/regular/21657444630_e0b677c2e4_b.jpg","medium_url":"https://perenual.com/storage/species_image/1482_callicarpa_dichotoma/medium/21657444630_e0b677c2e4_b.jpg","small_url":"https://perenual.com/storage/species_image/1482_callicarpa_dichotoma/small/21657444630_e0b677c2e4_b.jpg","thumbnail":"https://perenual.com/storage/species_image/1482_callicarpa_dichotoma/thumbnail/21657444630_e0b677c2e4_b.jpg"}},{"id":1487,"common_name":"beautyberry","scientific_name":["Callicarpa dichotoma 'Shiji Murasaki' WINE SPRITZER"],"other_name":null,"cycle":"Perennial","watering":"Average","sunlight":["Full sun","part shade"],"default_image":{"image_id":3398,"license":4,"license_name":"Attribution License","license_url":"https://creativecommons.org/licenses/by/2.0/","original_url":"https://perenual.com/storage/species_image/1487_callicarpa_dichotoma_shiji_murasaki_wine_spritzer/og/52312086886_59f835089c_b.jpg","regular_url":"https://perenual.com/storage/species_image/1487_callicarpa_dichotoma_shiji_murasaki_wine_spritzer/regular/52312086886_59f835089c_b.jpg","medium_url":"https://perenual.com/storage/species_image/1487_callicarpa_dichotoma_shiji_murasaki_wine_spritzer/medium/52312086886_59f835089c_b.jpg","small_url":"https://perenual.com/storage/species_image/1487_callicarpa_dichotoma_shiji_murasaki_wine_spritzer/small/52312086886_59f835089c_b.jpg","thumbnail":"https://perenual.com/storage/species_image/1487_callicarpa_dichotoma_shiji_murasaki_wine_spritzer/thumbnail/52312086886_59f835089c_b.jpg"}},{"id":1488,"common_name":"Japanese beautyberry","scientific_name":["Callicarpa japonica"],"other_name":null,"cycle":"Perennial","watering":"Average","sunlight":["Full sun","part shade"],"default_image":{"image_id":3401,"license":4,"license_name":"Attribution License","license_url":"https://creativecommons.org/licenses/by/2.0/","original_url":"https://perenual.com/storage/species_image/1488_callicarpa_japonica/og/50519037076_6a78000b65_b.jpg","regular_url":"https://perenual.com/storage/species_image/1488_callicarpa_japonica/regular/50519037076_6a78000b65_b.jpg","medium_url":"https://perenual.com/storage/species_image/1488_callicarpa_japonica/medium/50519037076_6a78000b65_b.jpg","small_url":"https://perenual.com/storage/species_image/1488_callicarpa_japonica/small/50519037076_6a78000b65_b.jpg","thumbnail":"https://perenual.com/storage/species_image/1488_callicarpa_japonica/thumbnail/50519037076_6a78000b65_b.jpg"}},{"id":1489,"common_name":"beautyberry","scientific_name":["Callicarpa japonica 'Heavy Berry'"],"other_name":null,"cycle":"Perennial","watering":"Average","sunlight":["Full sun","part shade"],"default_image":{"image_id":9,"license":5,"license_name":"Attribution-ShareAlike License","license_url":"https://creativecommons.org/licenses/by-sa/2.0/","original_url":"https://perenual.com/storage/species_image/2_abies_alba_pyramidalis/og/49255769768_df55596553_b.jpg","regular_url":"https://perenual.com/storage/species_image/2_abies_alba_pyramidalis/regular/49255769768_df55596553_b.jpg","medium_url":"https://perenual.com/storage/species_image/2_abies_alba_pyramidalis/medium/49255769768_df55596553_b.jpg","small_url":"https://perenual.com/storage/species_image/2_abies_alba_pyramidalis/small/49255769768_df55596553_b.jpg","thumbnail":"https://perenual.com/storage/species_image/2_abies_alba_pyramidalis/thumbnail/49255769768_df55596553_b.jpg"}},{"id":1490,"common_name":"shikoku beautyberry","scientific_name":["Callicarpa shikokiana"],"other_name":null,"cycle":"Perennial","watering":"Average","sunlight":["Full sun","part shade"],"default_image":{"image_id":3405,"license":5,"license_name":"Attribution-ShareAlike License","license_url":"https://creativecommons.org/licenses/by-sa/2.0/","original_url":"https://perenual.com/storage/species_image/1490_callicarpa_shikokiana/og/7985396230_5581715566_b.jpg","regular_url":"https://perenual.com/storage/species_image/1490_callicarpa_shikokiana/regular/7985396230_5581715566_b.jpg","medium_url":"https://perenual.com/storage/species_image/1490_callicarpa_shikokiana/medium/7985396230_5581715566_b.jpg","small_url":"https://perenual.com/storage/species_image/1490_callicarpa_shikokiana/small/7985396230_5581715566_b.jpg","thumbnail":"https://perenual.com/storage/species_image/1490_callicarpa_shikokiana/thumbnail/7985396230_5581715566_b.jpg"}},{"id":1491,"common_name":"black wattle","scientific_name":["Callicoma serratifolia"],"other_name":null,"cycle":"Perennial","watering":"Average","sunlight":["Full sun","part shade"],"default_image":{"image_id":3407,"license":4,"license_name":"Attribution License","license_url":"https://creativecommons.org/licenses/by/2.0/","original_url":"https://perenual.com/storage/species_image/1491_callicoma_serratifolia/og/6075978469_129d324aef_b.jpg","regular_url":"https://perenual.com/storage/species_image/1491_callicoma_serratifolia/regular/6075978469_129d324aef_b.jpg","medium_url":"https://perenual.com/storage/species_image/1491_callicoma_serratifolia/medium/6075978469_129d324aef_b.jpg","small_url":"https://perenual.com/storage/species_image/1491_callicoma_serratifolia/small/6075978469_129d324aef_b.jpg","thumbnail":"https://perenual.com/storage/species_image/1491_callicoma_serratifolia/thumbnail/6075978469_129d324aef_b.jpg"}},{"id":1492,"common_name":"prairie poppy mallow","scientific_name":["Callirhoe alcaeoides"],"other_name":null,"cycle":"Perennial","watering":"Minimum","sunlight":["Full sun"],"default_image":{"image_id":3413,"license":6,"license_name":"Attribution-NoDerivs License","license_url":"https://creativecommons.org/licenses/by-nd/2.0/","original_url":"https://perenual.com/storage/species_image/1492_callirhoe_alcaeoides/og/2447818602_51b8d96c16_b.jpg"}},{"id":1493,"common_name":"prairie poppy mallow","scientific_name":["Callirhoe alcaeoides 'Logan Calhoun'"],"other_name":null,"cycle":"Perennial","watering":"Minimum","sunlight":["Full sun"],"default_image":{"image_id":9,"license":5,"license_name":"Attribution-ShareAlike License","license_url":"https://creativecommons.org/licenses/by-sa/2.0/","original_url":"https://perenual.com/storage/species_image/2_abies_alba_pyramidalis/og/49255769768_df55596553_b.jpg","regular_url":"https://perenual.com/storage/species_image/2_abies_alba_pyramidalis/regular/49255769768_df55596553_b.jpg","medium_url":"https://perenual.com/storage/species_image/2_abies_alba_pyramidalis/medium/49255769768_df55596553_b.jpg","small_url":"https://perenual.com/storage/species_image/2_abies_alba_pyramidalis/small/49255769768_df55596553_b.jpg","thumbnail":"https://perenual.com/storage/species_image/2_abies_alba_pyramidalis/thumbnail/49255769768_df55596553_b.jpg"}},{"id":1494,"common_name":"Bush's poppy mallow","scientific_name":["Callirhoe bushii"],"other_name":null,"cycle":"Perennial","watering":"Minimum","sunlight":["Full sun"],"default_image":{"image_id":9,"license":5,"license_name":"Attribution-ShareAlike License","license_url":"https://creativecommons.org/licenses/by-sa/2.0/","original_url":"https://perenual.com/storage/species_image/2_abies_alba_pyramidalis/og/49255769768_df55596553_b.jpg","regular_url":"https://perenual.com/storage/species_image/2_abies_alba_pyramidalis/regular/49255769768_df55596553_b.jpg","medium_url":"https://perenual.com/storage/species_image/2_abies_alba_pyramidalis/medium/49255769768_df55596553_b.jpg","small_url":"https://perenual.com/storage/species_image/2_abies_alba_pyramidalis/small/49255769768_df55596553_b.jpg","thumbnail":"https://perenual.com/storage/species_image/2_abies_alba_pyramidalis/thumbnail/49255769768_df55596553_b.jpg"}},{"id":1495,"common_name":"fringed poppy mallow","scientific_name":["Callirhoe digitata"],"other_name":null,"cycle":"Perennial","watering":"Minimum","sunlight":["Full sun"],"default_image":{"image_id":3424,"license":5,"license_name":"Attribution-ShareAlike License","license_url":"https://creativecommons.org/licenses/by-sa/2.0/","original_url":"https://perenual.com/storage/species_image/1495_callirhoe_digitata/og/43006813335_4f259472cb_b.jpg","regular_url":"https://perenual.com/storage/species_image/1495_callirhoe_digitata/regular/43006813335_4f259472cb_b.jpg","medium_url":"https://perenual.com/storage/species_image/1495_callirhoe_digitata/medium/43006813335_4f259472cb_b.jpg","small_url":"https://perenual.com/storage/species_image/1495_callirhoe_digitata/small/43006813335_4f259472cb_b.jpg","thumbnail":"https://perenual.com/storage/species_image/1495_callirhoe_digitata/thumbnail/43006813335_4f259472cb_b.jpg"}},{"id":1496,"common_name":"purple poppy mallow","scientific_name":["Callirhoe involucrata"],"other_name":null,"cycle":"Perennial","watering":"Minimum","sunlight":["Full sun"],"default_image":{"image_id":9,"license":5,"license_name":"Attribution-ShareAlike License","license_url":"https://creativecommons.org/licenses/by-sa/2.0/","original_url":"https://perenual.com/storage/species_image/2_abies_alba_pyramidalis/og/49255769768_df55596553_b.jpg","regular_url":"https://perenual.com/storage/species_image/2_abies_alba_pyramidalis/regular/49255769768_df55596553_b.jpg","medium_url":"https://perenual.com/storage/species_image/2_abies_alba_pyramidalis/medium/49255769768_df55596553_b.jpg","small_url":"https://perenual.com/storage/species_image/2_abies_alba_pyramidalis/small/49255769768_df55596553_b.jpg","thumbnail":"https://perenual.com/storage/species_image/2_abies_alba_pyramidalis/thumbnail/49255769768_df55596553_b.jpg"}},{"id":1497,"common_name":"clustered poppy mallow","scientific_name":["Callirhoe triangulata"],"other_name":null,"cycle":"Perennial","watering":"Minimum","sunlight":["Full sun"],"default_image":{"image_id":3431,"license":5,"license_name":"Attribution-ShareAlike License","license_url":"https://creativecommons.org/licenses/by-sa/2.0/","original_url":"https://perenual.com/storage/species_image/1497_callirhoe_triangulata/og/19679462245_a9b827a99f_b.jpg","regular_url":"https://perenual.com/storage/species_image/1497_callirhoe_triangulata/regular/19679462245_a9b827a99f_b.jpg","medium_url":"https://perenual.com/storage/species_image/1497_callirhoe_triangulata/medium/19679462245_a9b827a99f_b.jpg","small_url":"https://perenual.com/storage/species_image/1497_callirhoe_triangulata/small/19679462245_a9b827a99f_b.jpg","thumbnail":"https://perenual.com/storage/species_image/1497_callirhoe_triangulata/thumbnail/19679462245_a9b827a99f_b.jpg"}},{"id":1498,"common_name":"bottlebrush bush","scientific_name":["Callistemon acuminatus"],"other_name":null,"cycle":"Perennial","watering":"Minimum","sunlight":["Full sun"],"default_image":{"image_id":9,"license":5,"license_name":"Attribution-ShareAlike License","license_url":"https://creativecommons.org/licenses/by-sa/2.0/","original_url":"https://perenual.com/storage/species_image/2_abies_alba_pyramidalis/og/49255769768_df55596553_b.jpg","regular_url":"https://perenual.com/storage/species_image/2_abies_alba_pyramidalis/regular/49255769768_df55596553_b.jpg","medium_url":"https://perenual.com/storage/species_image/2_abies_alba_pyramidalis/medium/49255769768_df55596553_b.jpg","small_url":"https://perenual.com/storage/species_image/2_abies_alba_pyramidalis/small/49255769768_df55596553_b.jpg","thumbnail":"https://perenual.com/storage/species_image/2_abies_alba_pyramidalis/thumbnail/49255769768_df55596553_b.jpg"}},{"id":1499,"common_name":"crimson bottlebrush","scientific_name":["Callistemon citrinus"],"other_name":null,"cycle":"Perennial","watering":"Average","sunlight":["Full sun"],"default_image":{"image_id":3442,"license":5,"license_name":"Attribution-ShareAlike License","license_url":"https://creativecommons.org/licenses/by-sa/2.0/","original_url":"https://perenual.com/storage/species_image/1499_callistemon_citrinus/og/49024199786_85bea4772f_b.jpg","regular_url":"https://perenual.com/storage/species_image/1499_callistemon_citrinus/regular/49024199786_85bea4772f_b.jpg","medium_url":"https://perenual.com/storage/species_image/1499_callistemon_citrinus/medium/49024199786_85bea4772f_b.jpg","small_url":"https://perenual.com/storage/species_image/1499_callistemon_citrinus/small/49024199786_85bea4772f_b.jpg","thumbnail":"https://perenual.com/storage/species_image/1499_callistemon_citrinus/thumbnail/49024199786_85bea4772f_b.jpg"}},{"id":1500,"common_name":"lemon bottlebrush","scientific_name":["Callistemon pallidus"],"other_name":null,"cycle":"Perennial","watering":"Frequent","sunlight":["Full sun","part shade"],"default_image":{"image_id":9,"license":5,"license_name":"Attribution-ShareAlike License","license_url":"https://creativecommons.org/licenses/by-sa/2.0/","original_url":"https://perenual.com/storage/species_image/2_abies_alba_pyramidalis/og/49255769768_df55596553_b.jpg","regular_url":"https://perenual.com/storage/species_image/2_abies_alba_pyramidalis/regular/49255769768_df55596553_b.jpg","medium_url":"https://perenual.com/storage/species_image/2_abies_alba_pyramidalis/medium/49255769768_df55596553_b.jpg","small_url":"https://perenual.com/storage/species_image/2_abies_alba_pyramidalis/small/49255769768_df55596553_b.jpg","thumbnail":"https://perenual.com/storage/species_image/2_abies_alba_pyramidalis/thumbnail/49255769768_df55596553_b.jpg"}}],"to":1500,"per_page":30,"current_page":50,"from":1471,"last_page":200,"total":6000}