{"data":[{"id":2341,"common_name":"delphinium","scientific_name":["Delphinium elatum"],"other_name":["perennial larkspur"],"cycle":"Perennial","watering":"Average","sunlight":["Full sun"," Sheltered"],"default_image":{"image_id":5459,"license":5,"license_name":"Attribution-ShareAlike License","license_url":"https://creativecommons.org/licenses/by-sa/2.0/","original_url":"https://perenual.com/storage/species_image/2341_delphinium_elatum/og/32863223574_f6dc7ddab9_b.jpg","regular_url":"https://perenual.com/storage/species_image/2341_delphinium_elatum/regular/32863223574_f6dc7ddab9_b.jpg","medium_url":"https://perenual.com/storage/species_image/2341_delphinium_elatum/medium/32863223574_f6dc7ddab9_b.jpg","small_url":"https://perenual.com/storage/species_image/2341_delphinium_elatum/small/32863223574_f6dc7ddab9_b.jpg","thumbnail":"https://perenual.com/storage/species_image/2341_delphinium_elatum/thumbnail/32863223574_f6dc7ddab9_b.jpg"}},{"id":2342,"common_name":"candle larkspur","scientific_name":["Delphinium elatum AURORA BLUE"],"other_name":["perennial larkspur"],"cycle":"Perennial","watering":"Average","sunlight":["Full sun"," Sheltered"],"default_image":{"image_id":9,"license":5,"license_name":"Attribution-ShareAlike License","license_url":"https://creativecommons.org/licenses/by-sa/2.0/","original_url":"https://perenual.com/storage/species_image/2_abies_alba_pyramidalis/og/49255769768_df55596553_b.jpg","regular_url":"https://perenual.com/storage/species_image/2_abies_alba_pyramidalis/regular/49255769768_df55596553_b.jpg","medium_url":"https://perenual.com/storage/species_image/2_abies_alba_pyramidalis/medium/49255769768_df55596553_b.jpg","small_url":"https://perenual.com/storage/species_image/2_abies_alba_pyramidalis/small/49255769768_df55596553_b.jpg","thumbnail":"https://perenual.com/storage/species_image/2_abies_alba_pyramidalis/thumbnail/49255769768_df55596553_b.jpg"}},{"id":2343,"common_name":"candle larkspur","scientific_name":["Delphinium elatum AURORA DEEP PURPLE"],"other_name":["perennial larkspur"],"cycle":"Perennial","watering":"Average","sunlight":["Full sun"," Sheltered"],"default_image":{"image_id":9,"license":5,"license_name":"Attribution-ShareAlike License","license_url":"https://creativecommons.org/licenses/by-sa/2.0/","original_url":"https://perenual.com/storage/species_image/2_abies_alba_pyramidalis/og/49255769768_df55596553_b.jpg","regular_url":"https://perenual.com/storage/species_image/2_abies_alba_pyramidalis/regular/49255769768_df55596553_b.jpg","medium_url":"https://perenual.com/storage/species_image/2_abies_alba_pyramidalis/medium/49255769768_df55596553_b.jpg","small_url":"https://perenual.com/storage/species_image/2_abies_alba_pyramidalis/small/49255769768_df55596553_b.jpg","thumbnail":"https://perenual.com/storage/species_image/2_abies_alba_pyramidalis/thumbnail/49255769768_df55596553_b.jpg"}},{"id":2344,"common_name":"candle larkspur","scientific_name":["Delphinium elatum AURORA WHITE"],"other_name":["perennial larkspur"],"cycle":"Perennial","watering":"Average","sunlight":["Full sun"," Sheltered"],"default_image":{"image_id":9,"license":5,"license_name":"Attribution-ShareAlike License","license_url":"https://creativecommons.org/licenses/by-sa/2.0/","original_url":"https://perenual.com/storage/species_image/2_abies_alba_pyramidalis/og/49255769768_df55596553_b.jpg","regular_url":"https://perenual.com/storage/species_image/2_abies_alba_pyramidalis/regular/49255769768_df55596553_b.jpg","medium_url":"https://perenual.com/storage/species_image/2_abies_alba_pyramidalis/medium/49255769768_df55596553_b.jpg","small_url":"https://perenual.com/storage/species_image/2_abies_alba_pyramidalis/small/49255769768_df55596553_b.jpg","thumbnail":"https://perenual.com/storage/species_image/2_abies_alba_pyramidalis/thumbnail/49255769768_df55596553_b.jpg"}},{"id":2345,"common_name":"tall larkspur","scientific_name":["Delphinium exaltatum"],"other_name":null,"cycle":"Perennial","watering":"Average","sunlight":["Full sun"],"default_image":{"image_id":9,"license":5,"license_name":"Attribution-ShareAlike License","license_url":"https://creativecommons.org/licenses/by-sa/2.0/","original_url":"https://perenual.com/storage/species_image/2_abies_alba_pyramidalis/og/49255769768_df55596553_b.jpg","regular_url":"https://perenual.com/storage/species_image/2_abies_alba_pyramidalis/regular/49255769768_df55596553_b.jpg","medium_url":"https://perenual.com/storage/species_image/2_abies_alba_pyramidalis/medium/49255769768_df55596553_b.jpg","small_url":"https://perenual.com/storage/species_image/2_abies_alba_pyramidalis/small/49255769768_df55596553_b.jpg","thumbnail":"https://perenual.com/storage/species_image/2_abies_alba_pyramidalis/thumbnail/49255769768_df55596553_b.jpg"}},{"id":2346,"common_name":"larkspur","scientific_name":["Delphinium 'Fanfare'"],"other_name":null,"cycle":"Perennial","watering":"Average","sunlight":["Full sun"],"default_image":{"image_id":5467,"license":4,"license_name":"Attribution License","license_url":"https://creativecommons.org/licenses/by/2.0/","original_url":"https://perenual.com/storage/species_image/2350_delphinium_pacific_hybrids/og/52216051579_9289be7b0a_b.jpg","regular_url":"https://perenual.com/storage/species_image/2350_delphinium_pacific_hybrids/regular/52216051579_9289be7b0a_b.jpg","medium_url":"https://perenual.com/storage/species_image/2350_delphinium_pacific_hybrids/medium/52216051579_9289be7b0a_b.jpg","small_url":"https://perenual.com/storage/species_image/2350_delphinium_pacific_hybrids/small/52216051579_9289be7b0a_b.jpg","thumbnail":"https://perenual.com/storage/species_image/2350_delphinium_pacific_hybrids/thumbnail/52216051579_9289be7b0a_b.jpg"}},{"id":2347,"common_name":"Siberian larkspur","scientific_name":["Delphinium grandiflorum"],"other_name":null,"cycle":"Perennial","watering":"Average","sunlight":["Full sun"],"default_image":{"image_id":9,"license":5,"license_name":"Attribution-ShareAlike License","license_url":"https://creativecommons.org/licenses/by-sa/2.0/","original_url":"https://perenual.com/storage/species_image/2_abies_alba_pyramidalis/og/49255769768_df55596553_b.jpg","regular_url":"https://perenual.com/storage/species_image/2_abies_alba_pyramidalis/regular/49255769768_df55596553_b.jpg","medium_url":"https://perenual.com/storage/species_image/2_abies_alba_pyramidalis/medium/49255769768_df55596553_b.jpg","small_url":"https://perenual.com/storage/species_image/2_abies_alba_pyramidalis/small/49255769768_df55596553_b.jpg","thumbnail":"https://perenual.com/storage/species_image/2_abies_alba_pyramidalis/thumbnail/49255769768_df55596553_b.jpg"}},{"id":2348,"common_name":"Siberian larkspur","scientific_name":["Delphinium grandiflorum 'Blue Butterfly'"],"other_name":null,"cycle":"Perennial","watering":"Average","sunlight":["Full sun"],"default_image":{"image_id":9,"license":5,"license_name":"Attribution-ShareAlike License","license_url":"https://creativecommons.org/licenses/by-sa/2.0/","original_url":"https://perenual.com/storage/species_image/2_abies_alba_pyramidalis/og/49255769768_df55596553_b.jpg","regular_url":"https://perenual.com/storage/species_image/2_abies_alba_pyramidalis/regular/49255769768_df55596553_b.jpg","medium_url":"https://perenual.com/storage/species_image/2_abies_alba_pyramidalis/medium/49255769768_df55596553_b.jpg","small_url":"https://perenual.com/storage/species_image/2_abies_alba_pyramidalis/small/49255769768_df55596553_b.jpg","thumbnail":"https://perenual.com/storage/species_image/2_abies_alba_pyramidalis/thumbnail/49255769768_df55596553_b.jpg"}},{"id":2349,"common_name":"larkspur","scientific_name":["Delphinium 'Misty Mauves'"],"other_name":null,"cycle":"Perennial","watering":"Average","sunlight":["Full sun","part shade"],"default_image":{"image_id":9,"license":5,"license_name":"Attribution-ShareAlike License","license_url":"https://creativecommons.org/licenses/by-sa/2.0/","original_url":"https://perenual.com/storage/species_image/2_abies_alba_pyramidalis/og/49255769768_df55596553_b.jpg","regular_url":"https://perenual.com/storage/species_image/2_abies_alba_pyramidalis/regular/49255769768_df55596553_b.jpg","medium_url":"https://perenual.com/storage/species_image/2_abies_alba_pyramidalis/medium/49255769768_df55596553_b.jpg","small_url":"https://perenual.com/storage/species_image/2_abies_alba_pyramidalis/small/49255769768_df55596553_b.jpg","thumbnail":"https://perenual.com/storage/species_image/2_abies_alba_pyramidalis/thumbnail/49255769768_df55596553_b.jpg"}},{"id":2350,"common_name":"larkspur","scientific_name":["Delphinium (Pacific Hybrids)"],"other_name":null,"cycle":"Perennial","watering":"Average","sunlight":["Full sun"],"default_image":{"image_id":5467,"license":4,"license_name":"Attribution License","license_url":"https://creativecommons.org/licenses/by/2.0/","original_url":"https://perenual.com/storage/species_image/2350_delphinium_pacific_hybrids/og/52216051579_9289be7b0a_b.jpg","regular_url":"https://perenual.com/storage/species_image/2350_delphinium_pacific_hybrids/regular/52216051579_9289be7b0a_b.jpg","medium_url":"https://perenual.com/storage/species_image/2350_delphinium_pacific_hybrids/medium/52216051579_9289be7b0a_b.jpg","small_url":"https://perenual.com/storage/species_image/2350_delphinium_pacific_hybrids/small/52216051579_9289be7b0a_b.jpg","thumbnail":"https://perenual.com/storage/species_image/2350_delphinium_pacific_hybrids/thumbnail/52216051579_9289be7b0a_b.jpg"}},{"id":2351,"common_name":"delphinium","scientific_name":["Delphinium 'Planet Light Pink'"],"other_name":null,"cycle":"Perennial","watering":"Average","sunlight":["Full sun"],"default_image":{"image_id":9,"license":5,"license_name":"Attribution-ShareAlike License","license_url":"https://creativecommons.org/licenses/by-sa/2.0/","original_url":"https://perenual.com/storage/species_image/2_abies_alba_pyramidalis/og/49255769768_df55596553_b.jpg","regular_url":"https://perenual.com/storage/species_image/2_abies_alba_pyramidalis/regular/49255769768_df55596553_b.jpg","medium_url":"https://perenual.com/storage/species_image/2_abies_alba_pyramidalis/medium/49255769768_df55596553_b.jpg","small_url":"https://perenual.com/storage/species_image/2_abies_alba_pyramidalis/small/49255769768_df55596553_b.jpg","thumbnail":"https://perenual.com/storage/species_image/2_abies_alba_pyramidalis/thumbnail/49255769768_df55596553_b.jpg"}},{"id":2352,"common_name":"Trelease's larkspur","scientific_name":["Delphinium treleasei"],"other_name":null,"cycle":"Perennial","watering":"Average","sunlight":["Full sun"],"default_image":{"image_id":5471,"license":45,"license_name":"Attribution-ShareAlike 3.0 Unported (CC BY-SA 3.0)","license_url":"https://creativecommons.org/licenses/by-sa/3.0/deed.en","original_url":"https://perenual.com/storage/species_image/2352_delphinium_treleasei/og/Lobelia_anatina_83597674.jpg","regular_url":"https://perenual.com/storage/species_image/2352_delphinium_treleasei/regular/Lobelia_anatina_83597674.jpg","medium_url":"https://perenual.com/storage/species_image/2352_delphinium_treleasei/medium/Lobelia_anatina_83597674.jpg","small_url":"https://perenual.com/storage/species_image/2352_delphinium_treleasei/small/Lobelia_anatina_83597674.jpg","thumbnail":"https://perenual.com/storage/species_image/2352_delphinium_treleasei/thumbnail/Lobelia_anatina_83597674.jpg"}},{"id":2353,"common_name":"dwarf larkspur","scientific_name":["Delphinium tricorne"],"other_name":null,"cycle":"Perennial","watering":"Average","sunlight":["Full sun"],"default_image":{"image_id":5472,"license":5,"license_name":"Attribution-ShareAlike License","license_url":"https://creativecommons.org/licenses/by-sa/2.0/","original_url":"https://perenual.com/storage/species_image/2353_delphinium_tricorne/og/52038748552_9e416dde79_b.jpg","regular_url":"https://perenual.com/storage/species_image/2353_delphinium_tricorne/regular/52038748552_9e416dde79_b.jpg","medium_url":"https://perenual.com/storage/species_image/2353_delphinium_tricorne/medium/52038748552_9e416dde79_b.jpg","small_url":"https://perenual.com/storage/species_image/2353_delphinium_tricorne/small/52038748552_9e416dde79_b.jpg","thumbnail":"https://perenual.com/storage/species_image/2353_delphinium_tricorne/thumbnail/52038748552_9e416dde79_b.jpg"}},{"id":2354,"common_name":"orchid","scientific_name":["Dendrobium (group)"],"other_name":null,"cycle":"Perennial","watering":"Average","sunlight":["Part shade"],"default_image":{"image_id":9,"license":5,"license_name":"Attribution-ShareAlike License","license_url":"https://creativecommons.org/licenses/by-sa/2.0/","original_url":"https://perenual.com/storage/species_image/2_abies_alba_pyramidalis/og/49255769768_df55596553_b.jpg","regular_url":"https://perenual.com/storage/species_image/2_abies_alba_pyramidalis/regular/49255769768_df55596553_b.jpg","medium_url":"https://perenual.com/storage/species_image/2_abies_alba_pyramidalis/medium/49255769768_df55596553_b.jpg","small_url":"https://perenual.com/storage/species_image/2_abies_alba_pyramidalis/small/49255769768_df55596553_b.jpg","thumbnail":"https://perenual.com/storage/species_image/2_abies_alba_pyramidalis/thumbnail/49255769768_df55596553_b.jpg"}},{"id":2355,"common_name":"hay-scented fern","scientific_name":["Dennstaedtia punctilobula"],"other_name":null,"cycle":"Perennial","watering":"Average","sunlight":["Part shade","full shade"],"default_image":{"image_id":9,"license":5,"license_name":"Attribution-ShareAlike License","license_url":"https://creativecommons.org/licenses/by-sa/2.0/","original_url":"https://perenual.com/storage/species_image/2_abies_alba_pyramidalis/og/49255769768_df55596553_b.jpg","regular_url":"https://perenual.com/storage/species_image/2_abies_alba_pyramidalis/regular/49255769768_df55596553_b.jpg","medium_url":"https://perenual.com/storage/species_image/2_abies_alba_pyramidalis/medium/49255769768_df55596553_b.jpg","small_url":"https://perenual.com/storage/species_image/2_abies_alba_pyramidalis/small/49255769768_df55596553_b.jpg","thumbnail":"https://perenual.com/storage/species_image/2_abies_alba_pyramidalis/thumbnail/49255769768_df55596553_b.jpg"}},{"id":2356,"common_name":"Japanese lady fern","scientific_name":["Deparia petersenii"],"other_name":null,"cycle":"Perennial","watering":"Frequent","sunlight":["Part shade","full shade"],"default_image":{"image_id":5475,"license":4,"license_name":"Attribution License","license_url":"https://creativecommons.org/licenses/by/2.0/","original_url":"https://perenual.com/storage/species_image/2356_deparia_petersenii/og/35099432381_3615bf0350_b.jpg","regular_url":"https://perenual.com/storage/species_image/2356_deparia_petersenii/regular/35099432381_3615bf0350_b.jpg","medium_url":"https://perenual.com/storage/species_image/2356_deparia_petersenii/medium/35099432381_3615bf0350_b.jpg","small_url":"https://perenual.com/storage/species_image/2356_deparia_petersenii/small/35099432381_3615bf0350_b.jpg","thumbnail":"https://perenual.com/storage/species_image/2356_deparia_petersenii/thumbnail/35099432381_3615bf0350_b.jpg"}},{"id":2357,"common_name":"tapering glade fern","scientific_name":["Deparia pycnosora"],"other_name":null,"cycle":"Perennial","watering":"Average","sunlight":["Part shade","full shade"],"default_image":{"image_id":5476,"license":5,"license_name":"Attribution-ShareAlike License","license_url":"https://creativecommons.org/licenses/by-sa/2.0/","original_url":"https://perenual.com/storage/species_image/2357_deparia_pycnosora/og/17133511489_3cae631ebd_b.jpg","regular_url":"https://perenual.com/storage/species_image/2357_deparia_pycnosora/regular/17133511489_3cae631ebd_b.jpg","medium_url":"https://perenual.com/storage/species_image/2357_deparia_pycnosora/medium/17133511489_3cae631ebd_b.jpg","small_url":"https://perenual.com/storage/species_image/2357_deparia_pycnosora/small/17133511489_3cae631ebd_b.jpg","thumbnail":"https://perenual.com/storage/species_image/2357_deparia_pycnosora/thumbnail/17133511489_3cae631ebd_b.jpg"}},{"id":2358,"common_name":"tufted hair grass","scientific_name":["Deschampsia cespitosa"],"other_name":null,"cycle":"Perennial","watering":"Average","sunlight":["Full sun"," Part sun/part shade"],"default_image":{"image_id":9,"license":5,"license_name":"Attribution-ShareAlike License","license_url":"https://creativecommons.org/licenses/by-sa/2.0/","original_url":"https://perenual.com/storage/species_image/2_abies_alba_pyramidalis/og/49255769768_df55596553_b.jpg","regular_url":"https://perenual.com/storage/species_image/2_abies_alba_pyramidalis/regular/49255769768_df55596553_b.jpg","medium_url":"https://perenual.com/storage/species_image/2_abies_alba_pyramidalis/medium/49255769768_df55596553_b.jpg","small_url":"https://perenual.com/storage/species_image/2_abies_alba_pyramidalis/small/49255769768_df55596553_b.jpg","thumbnail":"https://perenual.com/storage/species_image/2_abies_alba_pyramidalis/thumbnail/49255769768_df55596553_b.jpg"}},{"id":2359,"common_name":"tufted hair grass","scientific_name":["Deschampsia cespitosa 'Northern Lights'"],"other_name":null,"cycle":"Perennial","watering":"Average","sunlight":["Full sun"," Part sun/part shade"],"default_image":{"image_id":9,"license":5,"license_name":"Attribution-ShareAlike License","license_url":"https://creativecommons.org/licenses/by-sa/2.0/","original_url":"https://perenual.com/storage/species_image/2_abies_alba_pyramidalis/og/49255769768_df55596553_b.jpg","regular_url":"https://perenual.com/storage/species_image/2_abies_alba_pyramidalis/regular/49255769768_df55596553_b.jpg","medium_url":"https://perenual.com/storage/species_image/2_abies_alba_pyramidalis/medium/49255769768_df55596553_b.jpg","small_url":"https://perenual.com/storage/species_image/2_abies_alba_pyramidalis/small/49255769768_df55596553_b.jpg","thumbnail":"https://perenual.com/storage/species_image/2_abies_alba_pyramidalis/thumbnail/49255769768_df55596553_b.jpg"}},{"id":2360,"common_name":"tufted hair grass","scientific_name":["Deschampsia cespitosa 'Pixie Fountain'"],"other_name":null,"cycle":"Perennial","watering":"Average","sunlight":["Full sun"," Part sun/part shade"],"default_image":{"image_id":9,"license":5,"license_name":"Attribution-ShareAlike License","license_url":"https://creativecommons.org/licenses/by-sa/2.0/","original_url":"https://perenual.com/storage/species_image/2_abies_alba_pyramidalis/og/49255769768_df55596553_b.jpg","regular_url":"https://perenual.com/storage/species_image/2_abies_alba_pyramidalis/regular/49255769768_df55596553_b.jpg","medium_url":"https://perenual.com/storage/species_image/2_abies_alba_pyramidalis/medium/49255769768_df55596553_b.jpg","small_url":"https://perenual.com/storage/species_image/2_abies_alba_pyramidalis/small/49255769768_df55596553_b.jpg","thumbnail":"https://perenual.com/storage/species_image/2_abies_alba_pyramidalis/thumbnail/49255769768_df55596553_b.jpg"}},{"id":2361,"common_name":"tufted hair grass","scientific_name":["Deschampsia cespitosa 'Tardiflora'"],"other_name":null,"cycle":"Perennial","watering":"Average","sunlight":["Full sun"," Part sun/part shade"],"default_image":{"image_id":9,"license":5,"license_name":"Attribution-ShareAlike License","license_url":"https://creativecommons.org/licenses/by-sa/2.0/","original_url":"https://perenual.com/storage/species_image/2_abies_alba_pyramidalis/og/49255769768_df55596553_b.jpg","regular_url":"https://perenual.com/storage/species_image/2_abies_alba_pyramidalis/regular/49255769768_df55596553_b.jpg","medium_url":"https://perenual.com/storage/species_image/2_abies_alba_pyramidalis/medium/49255769768_df55596553_b.jpg","small_url":"https://perenual.com/storage/species_image/2_abies_alba_pyramidalis/small/49255769768_df55596553_b.jpg","thumbnail":"https://perenual.com/storage/species_image/2_abies_alba_pyramidalis/thumbnail/49255769768_df55596553_b.jpg"}},{"id":2362,"common_name":"crinkled hair grass","scientific_name":["Deschampsia flexuosa"],"other_name":null,"cycle":"Perennial","watering":"Average","sunlight":["Part shade"],"default_image":{"image_id":9,"license":5,"license_name":"Attribution-ShareAlike License","license_url":"https://creativecommons.org/licenses/by-sa/2.0/","original_url":"https://perenual.com/storage/species_image/2_abies_alba_pyramidalis/og/49255769768_df55596553_b.jpg","regular_url":"https://perenual.com/storage/species_image/2_abies_alba_pyramidalis/regular/49255769768_df55596553_b.jpg","medium_url":"https://perenual.com/storage/species_image/2_abies_alba_pyramidalis/medium/49255769768_df55596553_b.jpg","small_url":"https://perenual.com/storage/species_image/2_abies_alba_pyramidalis/small/49255769768_df55596553_b.jpg","thumbnail":"https://perenual.com/storage/species_image/2_abies_alba_pyramidalis/thumbnail/49255769768_df55596553_b.jpg"}},{"id":2363,"common_name":"prairie bundleflower","scientific_name":["Desmanthus illinoensis"],"other_name":null,"cycle":"Perennial","watering":"Minimum","sunlight":["Full sun"],"default_image":{"image_id":9,"license":5,"license_name":"Attribution-ShareAlike License","license_url":"https://creativecommons.org/licenses/by-sa/2.0/","original_url":"https://perenual.com/storage/species_image/2_abies_alba_pyramidalis/og/49255769768_df55596553_b.jpg","regular_url":"https://perenual.com/storage/species_image/2_abies_alba_pyramidalis/regular/49255769768_df55596553_b.jpg","medium_url":"https://perenual.com/storage/species_image/2_abies_alba_pyramidalis/medium/49255769768_df55596553_b.jpg","small_url":"https://perenual.com/storage/species_image/2_abies_alba_pyramidalis/small/49255769768_df55596553_b.jpg","thumbnail":"https://perenual.com/storage/species_image/2_abies_alba_pyramidalis/thumbnail/49255769768_df55596553_b.jpg"}},{"id":2364,"common_name":"elegant tick clover","scientific_name":["Desmodium elegans"],"other_name":null,"cycle":"Perennial","watering":"Average","sunlight":["Full sun"],"default_image":{"image_id":5482,"license":5,"license_name":"Attribution-ShareAlike License","license_url":"https://creativecommons.org/licenses/by-sa/2.0/","original_url":"https://perenual.com/storage/species_image/2364_desmodium_elegans/og/21364672846_34877ed4aa_b.jpg","regular_url":"https://perenual.com/storage/species_image/2364_desmodium_elegans/regular/21364672846_34877ed4aa_b.jpg","medium_url":"https://perenual.com/storage/species_image/2364_desmodium_elegans/medium/21364672846_34877ed4aa_b.jpg","small_url":"https://perenual.com/storage/species_image/2364_desmodium_elegans/small/21364672846_34877ed4aa_b.jpg","thumbnail":"https://perenual.com/storage/species_image/2364_desmodium_elegans/thumbnail/21364672846_34877ed4aa_b.jpg"}},{"id":2365,"common_name":"tick-trefoil","scientific_name":["Desmodium illinoense"],"other_name":null,"cycle":"Perennial","watering":"Minimum","sunlight":["Full sun"],"default_image":{"image_id":5485,"license":5,"license_name":"Attribution-ShareAlike License","license_url":"https://creativecommons.org/licenses/by-sa/2.0/","original_url":"https://perenual.com/storage/species_image/2365_desmodium_illinoense/og/26107812372_66a5edb190_b.jpg","regular_url":"https://perenual.com/storage/species_image/2365_desmodium_illinoense/regular/26107812372_66a5edb190_b.jpg","medium_url":"https://perenual.com/storage/species_image/2365_desmodium_illinoense/medium/26107812372_66a5edb190_b.jpg","small_url":"https://perenual.com/storage/species_image/2365_desmodium_illinoense/small/26107812372_66a5edb190_b.jpg","thumbnail":"https://perenual.com/storage/species_image/2365_desmodium_illinoense/thumbnail/26107812372_66a5edb190_b.jpg"}},{"id":2366,"common_name":"slender deutzia","scientific_name":["Deutzia gracilis"],"other_name":null,"cycle":"Perennial","watering":"Average","sunlight":["Full sun"," Part sun/part shade"],"default_image":{"image_id":5489,"license":4,"license_name":"Attribution License","license_url":"https://creativecommons.org/licenses/by/2.0/","original_url":"https://perenual.com/storage/species_image/2366_deutzia_gracilis/og/49929214523_6dfa7f3063_b.jpg","regular_url":"https://perenual.com/storage/species_image/2366_deutzia_gracilis/regular/49929214523_6dfa7f3063_b.jpg","medium_url":"https://perenual.com/storage/species_image/2366_deutzia_gracilis/medium/49929214523_6dfa7f3063_b.jpg","small_url":"https://perenual.com/storage/species_image/2366_deutzia_gracilis/small/49929214523_6dfa7f3063_b.jpg","thumbnail":"https://perenual.com/storage/species_image/2366_deutzia_gracilis/thumbnail/49929214523_6dfa7f3063_b.jpg"}},{"id":2367,"common_name":"slender deutzia","scientific_name":["Deutzia gracilis 'Duncan' CHARDONNAY PEARLS"],"other_name":null,"cycle":"Perennial","watering":"Average","sunlight":["Full sun"," Part sun/part shade"],"default_image":{"image_id":9,"license":5,"license_name":"Attribution-ShareAlike License","license_url":"https://creativecommons.org/licenses/by-sa/2.0/","original_url":"https://perenual.com/storage/species_image/2_abies_alba_pyramidalis/og/49255769768_df55596553_b.jpg","regular_url":"https://perenual.com/storage/species_image/2_abies_alba_pyramidalis/regular/49255769768_df55596553_b.jpg","medium_url":"https://perenual.com/storage/species_image/2_abies_alba_pyramidalis/medium/49255769768_df55596553_b.jpg","small_url":"https://perenual.com/storage/species_image/2_abies_alba_pyramidalis/small/49255769768_df55596553_b.jpg","thumbnail":"https://perenual.com/storage/species_image/2_abies_alba_pyramidalis/thumbnail/49255769768_df55596553_b.jpg"}},{"id":2368,"common_name":"slender deutzia","scientific_name":["Deutzia gracilis 'Nikko'"],"other_name":null,"cycle":"Perennial","watering":"Average","sunlight":["Full sun"," Part sun/part shade"],"default_image":{"image_id":9,"license":5,"license_name":"Attribution-ShareAlike License","license_url":"https://creativecommons.org/licenses/by-sa/2.0/","original_url":"https://perenual.com/storage/species_image/2_abies_alba_pyramidalis/og/49255769768_df55596553_b.jpg","regular_url":"https://perenual.com/storage/species_image/2_abies_alba_pyramidalis/regular/49255769768_df55596553_b.jpg","medium_url":"https://perenual.com/storage/species_image/2_abies_alba_pyramidalis/medium/49255769768_df55596553_b.jpg","small_url":"https://perenual.com/storage/species_image/2_abies_alba_pyramidalis/small/49255769768_df55596553_b.jpg","thumbnail":"https://perenual.com/storage/species_image/2_abies_alba_pyramidalis/thumbnail/49255769768_df55596553_b.jpg"}},{"id":2369,"common_name":"deutzia","scientific_name":["Deutzia hybrida 'Magicien'"],"other_name":null,"cycle":"Perennial","watering":"Average","sunlight":["Full sun","part shade"],"default_image":{"image_id":5491,"license":5,"license_name":"Attribution-ShareAlike License","license_url":"https://creativecommons.org/licenses/by-sa/2.0/","original_url":"https://perenual.com/storage/species_image/2369_deutzia_hybrida_magicien/og/41006227220_4d71d30254_b.jpg","regular_url":"https://perenual.com/storage/species_image/2369_deutzia_hybrida_magicien/regular/41006227220_4d71d30254_b.jpg","medium_url":"https://perenual.com/storage/species_image/2369_deutzia_hybrida_magicien/medium/41006227220_4d71d30254_b.jpg","small_url":"https://perenual.com/storage/species_image/2369_deutzia_hybrida_magicien/small/41006227220_4d71d30254_b.jpg","thumbnail":"https://perenual.com/storage/species_image/2369_deutzia_hybrida_magicien/thumbnail/41006227220_4d71d30254_b.jpg"}},{"id":2370,"common_name":"deutzia","scientific_name":["Deutzia hybrida 'Mont Rose'"],"other_name":null,"cycle":"Perennial","watering":"Average","sunlight":["Full sun","part shade"],"default_image":{"image_id":5492,"license":6,"license_name":"Attribution-NoDerivs License","license_url":"https://creativecommons.org/licenses/by-nd/2.0/","original_url":"https://perenual.com/storage/species_image/2370_deutzia_hybrida_mont_rose/og/48080670108_44fbaced86_b.jpg"}}],"to":2370,"per_page":30,"current_page":79,"from":2341,"last_page":200,"total":6000}