{"data":[{"id":4921,"common_name":"perennial flax","scientific_name":["Linum perenne 'Appar'"],"other_name":null,"cycle":"Perennial","watering":"Minimum","sunlight":["Full sun"],"default_image":{"image_id":10416,"license":5,"license_name":"Attribution-ShareAlike License","license_url":"https://creativecommons.org/licenses/by-sa/2.0/","original_url":"https://perenual.com/storage/species_image/4921_linum_perenne_appar/og/50625607493_73d451bbd1_b.jpg","regular_url":"https://perenual.com/storage/species_image/4921_linum_perenne_appar/regular/50625607493_73d451bbd1_b.jpg","medium_url":"https://perenual.com/storage/species_image/4921_linum_perenne_appar/medium/50625607493_73d451bbd1_b.jpg","small_url":"https://perenual.com/storage/species_image/4921_linum_perenne_appar/small/50625607493_73d451bbd1_b.jpg","thumbnail":"https://perenual.com/storage/species_image/4921_linum_perenne_appar/thumbnail/50625607493_73d451bbd1_b.jpg"}},{"id":4922,"common_name":"sweet gum","scientific_name":["Liquidambar acalycina"],"other_name":null,"cycle":"Perennial","watering":"Average","sunlight":["Full sun"],"default_image":{"image_id":9,"license":5,"license_name":"Attribution-ShareAlike License","license_url":"https://creativecommons.org/licenses/by-sa/2.0/","original_url":"https://perenual.com/storage/species_image/2_abies_alba_pyramidalis/og/49255769768_df55596553_b.jpg","regular_url":"https://perenual.com/storage/species_image/2_abies_alba_pyramidalis/regular/49255769768_df55596553_b.jpg","medium_url":"https://perenual.com/storage/species_image/2_abies_alba_pyramidalis/medium/49255769768_df55596553_b.jpg","small_url":"https://perenual.com/storage/species_image/2_abies_alba_pyramidalis/small/49255769768_df55596553_b.jpg","thumbnail":"https://perenual.com/storage/species_image/2_abies_alba_pyramidalis/thumbnail/49255769768_df55596553_b.jpg"}},{"id":4923,"common_name":"formosan gum","scientific_name":["Liquidambar formosana"],"other_name":null,"cycle":"Perennial","watering":"Average","sunlight":["Full sun"],"default_image":{"image_id":10427,"license":4,"license_name":"Attribution License","license_url":"https://creativecommons.org/licenses/by/2.0/","original_url":"https://perenual.com/storage/species_image/4923_liquidambar_formosana/og/24840070530_1c31aeba5e_b.jpg","regular_url":"https://perenual.com/storage/species_image/4923_liquidambar_formosana/regular/24840070530_1c31aeba5e_b.jpg","medium_url":"https://perenual.com/storage/species_image/4923_liquidambar_formosana/medium/24840070530_1c31aeba5e_b.jpg","small_url":"https://perenual.com/storage/species_image/4923_liquidambar_formosana/small/24840070530_1c31aeba5e_b.jpg","thumbnail":"https://perenual.com/storage/species_image/4923_liquidambar_formosana/thumbnail/24840070530_1c31aeba5e_b.jpg"}},{"id":4924,"common_name":"sweet gum","scientific_name":["Liquidambar orientalis"],"other_name":null,"cycle":"Perennial","watering":"Average","sunlight":["Full sun"],"default_image":{"image_id":9,"license":5,"license_name":"Attribution-ShareAlike License","license_url":"https://creativecommons.org/licenses/by-sa/2.0/","original_url":"https://perenual.com/storage/species_image/2_abies_alba_pyramidalis/og/49255769768_df55596553_b.jpg","regular_url":"https://perenual.com/storage/species_image/2_abies_alba_pyramidalis/regular/49255769768_df55596553_b.jpg","medium_url":"https://perenual.com/storage/species_image/2_abies_alba_pyramidalis/medium/49255769768_df55596553_b.jpg","small_url":"https://perenual.com/storage/species_image/2_abies_alba_pyramidalis/small/49255769768_df55596553_b.jpg","thumbnail":"https://perenual.com/storage/species_image/2_abies_alba_pyramidalis/thumbnail/49255769768_df55596553_b.jpg"}},{"id":4925,"common_name":"sweet gum","scientific_name":["Liquidambar styraciflua 'Hapdell' HAPPIDAZE"],"other_name":null,"cycle":"Perennial","watering":"Average","sunlight":["Full sun"],"default_image":{"image_id":10436,"license":5,"license_name":"Attribution-ShareAlike License","license_url":"https://creativecommons.org/licenses/by-sa/2.0/","original_url":"https://perenual.com/storage/species_image/4925_liquidambar_styraciflua_hapdell_happidaze/og/51476328188_230298446b_b.jpg","regular_url":"https://perenual.com/storage/species_image/4925_liquidambar_styraciflua_hapdell_happidaze/regular/51476328188_230298446b_b.jpg","medium_url":"https://perenual.com/storage/species_image/4925_liquidambar_styraciflua_hapdell_happidaze/medium/51476328188_230298446b_b.jpg","small_url":"https://perenual.com/storage/species_image/4925_liquidambar_styraciflua_hapdell_happidaze/small/51476328188_230298446b_b.jpg","thumbnail":"https://perenual.com/storage/species_image/4925_liquidambar_styraciflua_hapdell_happidaze/thumbnail/51476328188_230298446b_b.jpg"}},{"id":4926,"common_name":"Chinese tulip tree","scientific_name":["Liriodendron chinense"],"other_name":null,"cycle":"Perennial","watering":"Average","sunlight":["Full sun"],"default_image":{"image_id":10442,"license":5,"license_name":"Attribution-ShareAlike License","license_url":"https://creativecommons.org/licenses/by-sa/2.0/","original_url":"https://perenual.com/storage/species_image/4926_liriodendron_chinense/og/34992546056_8bf9b930ae_b.jpg","regular_url":"https://perenual.com/storage/species_image/4926_liriodendron_chinense/regular/34992546056_8bf9b930ae_b.jpg","medium_url":"https://perenual.com/storage/species_image/4926_liriodendron_chinense/medium/34992546056_8bf9b930ae_b.jpg","small_url":"https://perenual.com/storage/species_image/4926_liriodendron_chinense/small/34992546056_8bf9b930ae_b.jpg","thumbnail":"https://perenual.com/storage/species_image/4926_liriodendron_chinense/thumbnail/34992546056_8bf9b930ae_b.jpg"}},{"id":4927,"common_name":"tulip tree","scientific_name":["Liriodendron tulipifera 'Aureo-marginatum' MAJESTIC BEAUTY"],"other_name":null,"cycle":"Perennial","watering":"Average","sunlight":["Full sun"],"default_image":{"image_id":10448,"license":5,"license_name":"Attribution-ShareAlike License","license_url":"https://creativecommons.org/licenses/by-sa/2.0/","original_url":"https://perenual.com/storage/species_image/4927_liriodendron_tulipifera_aureo-marginatum_majestic_beauty/og/52134711185_3692443104_b.jpg","regular_url":"https://perenual.com/storage/species_image/4927_liriodendron_tulipifera_aureo-marginatum_majestic_beauty/regular/52134711185_3692443104_b.jpg","medium_url":"https://perenual.com/storage/species_image/4927_liriodendron_tulipifera_aureo-marginatum_majestic_beauty/medium/52134711185_3692443104_b.jpg","small_url":"https://perenual.com/storage/species_image/4927_liriodendron_tulipifera_aureo-marginatum_majestic_beauty/small/52134711185_3692443104_b.jpg","thumbnail":"https://perenual.com/storage/species_image/4927_liriodendron_tulipifera_aureo-marginatum_majestic_beauty/thumbnail/52134711185_3692443104_b.jpg"}},{"id":4928,"common_name":"big blue lilyturf","scientific_name":["Liriope muscari"],"other_name":["monkey grass"],"cycle":"Perennial","watering":"Average","sunlight":["Full sun","part shade"],"default_image":{"image_id":10451,"license":4,"license_name":"Attribution License","license_url":"https://creativecommons.org/licenses/by/2.0/","original_url":"https://perenual.com/storage/species_image/4928_liriope_muscari/og/49749308116_61d453560b_b.jpg","regular_url":"https://perenual.com/storage/species_image/4928_liriope_muscari/regular/49749308116_61d453560b_b.jpg","medium_url":"https://perenual.com/storage/species_image/4928_liriope_muscari/medium/49749308116_61d453560b_b.jpg","small_url":"https://perenual.com/storage/species_image/4928_liriope_muscari/small/49749308116_61d453560b_b.jpg","thumbnail":"https://perenual.com/storage/species_image/4928_liriope_muscari/thumbnail/49749308116_61d453560b_b.jpg"}},{"id":4929,"common_name":"lily turf","scientific_name":["Liriope muscari 'Big Blue'"],"other_name":null,"cycle":"Perennial","watering":"Average","sunlight":["Full sun","part shade"],"default_image":{"image_id":10455,"license":5,"license_name":"Attribution-ShareAlike License","license_url":"https://creativecommons.org/licenses/by-sa/2.0/","original_url":"https://perenual.com/storage/species_image/4933_liriope_muscari_tidwells_big_blue/og/28647243323_82cec76ed8_b.jpg","regular_url":"https://perenual.com/storage/species_image/4933_liriope_muscari_tidwells_big_blue/regular/28647243323_82cec76ed8_b.jpg","medium_url":"https://perenual.com/storage/species_image/4933_liriope_muscari_tidwells_big_blue/medium/28647243323_82cec76ed8_b.jpg","small_url":"https://perenual.com/storage/species_image/4933_liriope_muscari_tidwells_big_blue/small/28647243323_82cec76ed8_b.jpg","thumbnail":"https://perenual.com/storage/species_image/4933_liriope_muscari_tidwells_big_blue/thumbnail/28647243323_82cec76ed8_b.jpg"}},{"id":4930,"common_name":"lily turf","scientific_name":["Liriope muscari 'Majestic'"],"other_name":null,"cycle":"Perennial","watering":"Average","sunlight":["Full sun","part shade"],"default_image":{"image_id":10456,"license":5,"license_name":"Attribution-ShareAlike License","license_url":"https://creativecommons.org/licenses/by-sa/2.0/","original_url":"https://perenual.com/storage/species_image/4933_liriope_muscari_tidwells_big_blue/og/29268430545_69f129e1e3_b.jpg","regular_url":"https://perenual.com/storage/species_image/4933_liriope_muscari_tidwells_big_blue/regular/29268430545_69f129e1e3_b.jpg","medium_url":"https://perenual.com/storage/species_image/4933_liriope_muscari_tidwells_big_blue/medium/29268430545_69f129e1e3_b.jpg","small_url":"https://perenual.com/storage/species_image/4933_liriope_muscari_tidwells_big_blue/small/29268430545_69f129e1e3_b.jpg","thumbnail":"https://perenual.com/storage/species_image/4933_liriope_muscari_tidwells_big_blue/thumbnail/29268430545_69f129e1e3_b.jpg"}},{"id":4931,"common_name":"lily turf","scientific_name":["Liriope muscari 'Okina'"],"other_name":null,"cycle":"Perennial","watering":"Average","sunlight":["Full sun","part shade"],"default_image":{"image_id":10456,"license":5,"license_name":"Attribution-ShareAlike License","license_url":"https://creativecommons.org/licenses/by-sa/2.0/","original_url":"https://perenual.com/storage/species_image/4933_liriope_muscari_tidwells_big_blue/og/29268430545_69f129e1e3_b.jpg","regular_url":"https://perenual.com/storage/species_image/4933_liriope_muscari_tidwells_big_blue/regular/29268430545_69f129e1e3_b.jpg","medium_url":"https://perenual.com/storage/species_image/4933_liriope_muscari_tidwells_big_blue/medium/29268430545_69f129e1e3_b.jpg","small_url":"https://perenual.com/storage/species_image/4933_liriope_muscari_tidwells_big_blue/small/29268430545_69f129e1e3_b.jpg","thumbnail":"https://perenual.com/storage/species_image/4933_liriope_muscari_tidwells_big_blue/thumbnail/29268430545_69f129e1e3_b.jpg"}},{"id":4932,"common_name":"lily turf","scientific_name":["Liriope muscari 'Royal Purple'"],"other_name":null,"cycle":"Perennial","watering":"Average","sunlight":["Full sun","part shade"],"default_image":{"image_id":9,"license":5,"license_name":"Attribution-ShareAlike License","license_url":"https://creativecommons.org/licenses/by-sa/2.0/","original_url":"https://perenual.com/storage/species_image/2_abies_alba_pyramidalis/og/49255769768_df55596553_b.jpg","regular_url":"https://perenual.com/storage/species_image/2_abies_alba_pyramidalis/regular/49255769768_df55596553_b.jpg","medium_url":"https://perenual.com/storage/species_image/2_abies_alba_pyramidalis/medium/49255769768_df55596553_b.jpg","small_url":"https://perenual.com/storage/species_image/2_abies_alba_pyramidalis/small/49255769768_df55596553_b.jpg","thumbnail":"https://perenual.com/storage/species_image/2_abies_alba_pyramidalis/thumbnail/49255769768_df55596553_b.jpg"}},{"id":4933,"common_name":"lily turf","scientific_name":["Liriope muscari 'Tidwell's Big Blue'"],"other_name":null,"cycle":"Perennial","watering":"Average","sunlight":["Full sun","part shade"],"default_image":{"image_id":10462,"license":5,"license_name":"Attribution-ShareAlike License","license_url":"https://creativecommons.org/licenses/by-sa/2.0/","original_url":"https://perenual.com/storage/species_image/4933_liriope_muscari_tidwells_big_blue/og/29233935656_23ac52383e_b.jpg","regular_url":"https://perenual.com/storage/species_image/4933_liriope_muscari_tidwells_big_blue/regular/29233935656_23ac52383e_b.jpg","medium_url":"https://perenual.com/storage/species_image/4933_liriope_muscari_tidwells_big_blue/medium/29233935656_23ac52383e_b.jpg","small_url":"https://perenual.com/storage/species_image/4933_liriope_muscari_tidwells_big_blue/small/29233935656_23ac52383e_b.jpg","thumbnail":"https://perenual.com/storage/species_image/4933_liriope_muscari_tidwells_big_blue/thumbnail/29233935656_23ac52383e_b.jpg"}},{"id":4934,"common_name":"lily turf","scientific_name":["Liriope muscari 'Variegata'"],"other_name":null,"cycle":"Perennial","watering":"Average","sunlight":["Full sun","part shade"],"default_image":{"image_id":9,"license":5,"license_name":"Attribution-ShareAlike License","license_url":"https://creativecommons.org/licenses/by-sa/2.0/","original_url":"https://perenual.com/storage/species_image/2_abies_alba_pyramidalis/og/49255769768_df55596553_b.jpg","regular_url":"https://perenual.com/storage/species_image/2_abies_alba_pyramidalis/regular/49255769768_df55596553_b.jpg","medium_url":"https://perenual.com/storage/species_image/2_abies_alba_pyramidalis/medium/49255769768_df55596553_b.jpg","small_url":"https://perenual.com/storage/species_image/2_abies_alba_pyramidalis/small/49255769768_df55596553_b.jpg","thumbnail":"https://perenual.com/storage/species_image/2_abies_alba_pyramidalis/thumbnail/49255769768_df55596553_b.jpg"}},{"id":4935,"common_name":"creeping liriope","scientific_name":["Liriope spicata"],"other_name":null,"cycle":"Perennial","watering":"Average","sunlight":["Full sun","part shade"],"default_image":{"image_id":10465,"license":4,"license_name":"Attribution License","license_url":"https://creativecommons.org/licenses/by/2.0/","original_url":"https://perenual.com/storage/species_image/4935_liriope_spicata/og/22549473458_93d9da543b_b.jpg","regular_url":"https://perenual.com/storage/species_image/4935_liriope_spicata/regular/22549473458_93d9da543b_b.jpg","medium_url":"https://perenual.com/storage/species_image/4935_liriope_spicata/medium/22549473458_93d9da543b_b.jpg","small_url":"https://perenual.com/storage/species_image/4935_liriope_spicata/small/22549473458_93d9da543b_b.jpg","thumbnail":"https://perenual.com/storage/species_image/4935_liriope_spicata/thumbnail/22549473458_93d9da543b_b.jpg"}},{"id":4936,"common_name":"lily turf","scientific_name":["Liriope spicata 'Gin-ryu' SILVER DRAGON"],"other_name":null,"cycle":"Perennial","watering":"Average","sunlight":["Full sun","part shade"],"default_image":{"image_id":9,"license":5,"license_name":"Attribution-ShareAlike License","license_url":"https://creativecommons.org/licenses/by-sa/2.0/","original_url":"https://perenual.com/storage/species_image/2_abies_alba_pyramidalis/og/49255769768_df55596553_b.jpg","regular_url":"https://perenual.com/storage/species_image/2_abies_alba_pyramidalis/regular/49255769768_df55596553_b.jpg","medium_url":"https://perenual.com/storage/species_image/2_abies_alba_pyramidalis/medium/49255769768_df55596553_b.jpg","small_url":"https://perenual.com/storage/species_image/2_abies_alba_pyramidalis/small/49255769768_df55596553_b.jpg","thumbnail":"https://perenual.com/storage/species_image/2_abies_alba_pyramidalis/thumbnail/49255769768_df55596553_b.jpg"}},{"id":4937,"common_name":"lychee","scientific_name":["Litchi chinensis"],"other_name":null,"cycle":"Perennial","watering":"Average","sunlight":["Full sun"],"default_image":{"image_id":10470,"license":5,"license_name":"Attribution-ShareAlike License","license_url":"https://creativecommons.org/licenses/by-sa/2.0/","original_url":"https://perenual.com/storage/species_image/4937_litchi_chinensis/og/52334686348_46633e9692_b.jpg","regular_url":"https://perenual.com/storage/species_image/4937_litchi_chinensis/regular/52334686348_46633e9692_b.jpg","medium_url":"https://perenual.com/storage/species_image/4937_litchi_chinensis/medium/52334686348_46633e9692_b.jpg","small_url":"https://perenual.com/storage/species_image/4937_litchi_chinensis/small/52334686348_46633e9692_b.jpg","thumbnail":"https://perenual.com/storage/species_image/4937_litchi_chinensis/thumbnail/52334686348_46633e9692_b.jpg"}},{"id":4938,"common_name":"lithodora","scientific_name":["Lithodora diffusa"],"other_name":null,"cycle":"Perennial","watering":"Average","sunlight":["Full sun"," Part sun/part shade"],"default_image":{"image_id":10478,"license":4,"license_name":"Attribution License","license_url":"https://creativecommons.org/licenses/by/2.0/","original_url":"https://perenual.com/storage/species_image/4939_lithodora_diffusa_grace_ward/og/52089614661_87b099ac98_b.jpg","regular_url":"https://perenual.com/storage/species_image/4939_lithodora_diffusa_grace_ward/regular/52089614661_87b099ac98_b.jpg","medium_url":"https://perenual.com/storage/species_image/4939_lithodora_diffusa_grace_ward/medium/52089614661_87b099ac98_b.jpg","small_url":"https://perenual.com/storage/species_image/4939_lithodora_diffusa_grace_ward/small/52089614661_87b099ac98_b.jpg","thumbnail":"https://perenual.com/storage/species_image/4939_lithodora_diffusa_grace_ward/thumbnail/52089614661_87b099ac98_b.jpg"}},{"id":4939,"common_name":"lithodora","scientific_name":["Lithodora diffusa 'Grace Ward'"],"other_name":null,"cycle":"Perennial","watering":"Average","sunlight":["Full sun"," Part sun/part shade"],"default_image":{"image_id":10478,"license":4,"license_name":"Attribution License","license_url":"https://creativecommons.org/licenses/by/2.0/","original_url":"https://perenual.com/storage/species_image/4939_lithodora_diffusa_grace_ward/og/52089614661_87b099ac98_b.jpg","regular_url":"https://perenual.com/storage/species_image/4939_lithodora_diffusa_grace_ward/regular/52089614661_87b099ac98_b.jpg","medium_url":"https://perenual.com/storage/species_image/4939_lithodora_diffusa_grace_ward/medium/52089614661_87b099ac98_b.jpg","small_url":"https://perenual.com/storage/species_image/4939_lithodora_diffusa_grace_ward/small/52089614661_87b099ac98_b.jpg","thumbnail":"https://perenual.com/storage/species_image/4939_lithodora_diffusa_grace_ward/thumbnail/52089614661_87b099ac98_b.jpg"}},{"id":4940,"common_name":"olive-leaved gromwell","scientific_name":["Lithodora oleifolia"],"other_name":null,"cycle":"Perennial","watering":"Average","sunlight":["Full sun"],"default_image":{"image_id":10487,"license":5,"license_name":"Attribution-ShareAlike License","license_url":"https://creativecommons.org/licenses/by-sa/2.0/","original_url":"https://perenual.com/storage/species_image/4940_lithodora_oleifolia/og/27859313214_07f5c38c50_b.jpg","regular_url":"https://perenual.com/storage/species_image/4940_lithodora_oleifolia/regular/27859313214_07f5c38c50_b.jpg","medium_url":"https://perenual.com/storage/species_image/4940_lithodora_oleifolia/medium/27859313214_07f5c38c50_b.jpg","small_url":"https://perenual.com/storage/species_image/4940_lithodora_oleifolia/small/27859313214_07f5c38c50_b.jpg","thumbnail":"https://perenual.com/storage/species_image/4940_lithodora_oleifolia/thumbnail/27859313214_07f5c38c50_b.jpg"}},{"id":4941,"common_name":"fan palm","scientific_name":["Livistona jenkinsiana"],"other_name":null,"cycle":"Perennial","watering":"Average","sunlight":["Full sun"],"default_image":{"image_id":9,"license":5,"license_name":"Attribution-ShareAlike License","license_url":"https://creativecommons.org/licenses/by-sa/2.0/","original_url":"https://perenual.com/storage/species_image/2_abies_alba_pyramidalis/og/49255769768_df55596553_b.jpg","regular_url":"https://perenual.com/storage/species_image/2_abies_alba_pyramidalis/regular/49255769768_df55596553_b.jpg","medium_url":"https://perenual.com/storage/species_image/2_abies_alba_pyramidalis/medium/49255769768_df55596553_b.jpg","small_url":"https://perenual.com/storage/species_image/2_abies_alba_pyramidalis/small/49255769768_df55596553_b.jpg","thumbnail":"https://perenual.com/storage/species_image/2_abies_alba_pyramidalis/thumbnail/49255769768_df55596553_b.jpg"}},{"id":4942,"common_name":"cardinal flower","scientific_name":["Lobelia cardinalis"],"other_name":null,"cycle":"Perennial","watering":"Frequent","sunlight":["Full sun only if soil kept moist"," Part sun/part shade"],"default_image":{"image_id":10495,"license":4,"license_name":"Attribution License","license_url":"https://creativecommons.org/licenses/by/2.0/","original_url":"https://perenual.com/storage/species_image/4942_lobelia_cardinalis/og/52254491115_1906f2bbb9_b.jpg","regular_url":"https://perenual.com/storage/species_image/4942_lobelia_cardinalis/regular/52254491115_1906f2bbb9_b.jpg","medium_url":"https://perenual.com/storage/species_image/4942_lobelia_cardinalis/medium/52254491115_1906f2bbb9_b.jpg","small_url":"https://perenual.com/storage/species_image/4942_lobelia_cardinalis/small/52254491115_1906f2bbb9_b.jpg","thumbnail":"https://perenual.com/storage/species_image/4942_lobelia_cardinalis/thumbnail/52254491115_1906f2bbb9_b.jpg"}},{"id":4943,"common_name":"cardinal flower","scientific_name":["Lobelia cardinalis 'Fried Green Tomatoes'"],"other_name":null,"cycle":"Perennial","watering":"Frequent","sunlight":["Full sun only if soil kept moist"," Part sun/part shade"],"default_image":{"image_id":9,"license":5,"license_name":"Attribution-ShareAlike License","license_url":"https://creativecommons.org/licenses/by-sa/2.0/","original_url":"https://perenual.com/storage/species_image/2_abies_alba_pyramidalis/og/49255769768_df55596553_b.jpg","regular_url":"https://perenual.com/storage/species_image/2_abies_alba_pyramidalis/regular/49255769768_df55596553_b.jpg","medium_url":"https://perenual.com/storage/species_image/2_abies_alba_pyramidalis/medium/49255769768_df55596553_b.jpg","small_url":"https://perenual.com/storage/species_image/2_abies_alba_pyramidalis/small/49255769768_df55596553_b.jpg","thumbnail":"https://perenual.com/storage/species_image/2_abies_alba_pyramidalis/thumbnail/49255769768_df55596553_b.jpg"}},{"id":4944,"common_name":"cardinal flower","scientific_name":["Lobelia cardinalis 'Queen Victoria'"],"other_name":null,"cycle":"Perennial","watering":"Frequent","sunlight":["Full sun only if soil kept moist"," Part sun/part shade"],"default_image":{"image_id":10502,"license":4,"license_name":"Attribution License","license_url":"https://creativecommons.org/licenses/by/2.0/","original_url":"https://perenual.com/storage/species_image/4944_lobelia_cardinalis_queen_victoria/og/8384587532_3a27c0e598_b.jpg","regular_url":"https://perenual.com/storage/species_image/4944_lobelia_cardinalis_queen_victoria/regular/8384587532_3a27c0e598_b.jpg","medium_url":"https://perenual.com/storage/species_image/4944_lobelia_cardinalis_queen_victoria/medium/8384587532_3a27c0e598_b.jpg","small_url":"https://perenual.com/storage/species_image/4944_lobelia_cardinalis_queen_victoria/small/8384587532_3a27c0e598_b.jpg","thumbnail":"https://perenual.com/storage/species_image/4944_lobelia_cardinalis_queen_victoria/thumbnail/8384587532_3a27c0e598_b.jpg"}},{"id":4945,"common_name":"Chinese creeping lobelia","scientific_name":["Lobelia chinensis"],"other_name":null,"cycle":"Perennial","watering":"Frequent","sunlight":["Full sun","part shade"],"default_image":{"image_id":9,"license":5,"license_name":"Attribution-ShareAlike License","license_url":"https://creativecommons.org/licenses/by-sa/2.0/","original_url":"https://perenual.com/storage/species_image/2_abies_alba_pyramidalis/og/49255769768_df55596553_b.jpg","regular_url":"https://perenual.com/storage/species_image/2_abies_alba_pyramidalis/regular/49255769768_df55596553_b.jpg","medium_url":"https://perenual.com/storage/species_image/2_abies_alba_pyramidalis/medium/49255769768_df55596553_b.jpg","small_url":"https://perenual.com/storage/species_image/2_abies_alba_pyramidalis/small/49255769768_df55596553_b.jpg","thumbnail":"https://perenual.com/storage/species_image/2_abies_alba_pyramidalis/thumbnail/49255769768_df55596553_b.jpg"}},{"id":4946,"common_name":"cardinal flower","scientific_name":["Lobelia 'Cotton Candy'"],"other_name":null,"cycle":"Perennial","watering":"Frequent","sunlight":["Full sun","part shade"],"default_image":{"image_id":10508,"license":4,"license_name":"Attribution License","license_url":"https://creativecommons.org/licenses/by/2.0/","original_url":"https://perenual.com/storage/species_image/4951_lobelia_purple_towers/og/52224233403_66754babf7_b.jpg","regular_url":"https://perenual.com/storage/species_image/4951_lobelia_purple_towers/regular/52224233403_66754babf7_b.jpg","medium_url":"https://perenual.com/storage/species_image/4951_lobelia_purple_towers/medium/52224233403_66754babf7_b.jpg","small_url":"https://perenual.com/storage/species_image/4951_lobelia_purple_towers/small/52224233403_66754babf7_b.jpg","thumbnail":"https://perenual.com/storage/species_image/4951_lobelia_purple_towers/thumbnail/52224233403_66754babf7_b.jpg"}},{"id":4947,"common_name":"lobelia","scientific_name":["Lobelia erinus"],"other_name":null,"cycle":"Perennial","watering":"Average","sunlight":["Full sun","part shade"],"default_image":{"image_id":9,"license":5,"license_name":"Attribution-ShareAlike License","license_url":"https://creativecommons.org/licenses/by-sa/2.0/","original_url":"https://perenual.com/storage/species_image/2_abies_alba_pyramidalis/og/49255769768_df55596553_b.jpg","regular_url":"https://perenual.com/storage/species_image/2_abies_alba_pyramidalis/regular/49255769768_df55596553_b.jpg","medium_url":"https://perenual.com/storage/species_image/2_abies_alba_pyramidalis/medium/49255769768_df55596553_b.jpg","small_url":"https://perenual.com/storage/species_image/2_abies_alba_pyramidalis/small/49255769768_df55596553_b.jpg","thumbnail":"https://perenual.com/storage/species_image/2_abies_alba_pyramidalis/thumbnail/49255769768_df55596553_b.jpg"}},{"id":4948,"common_name":"lobelia","scientific_name":["Lobelia gerardii 'Vedrariensis'"],"other_name":null,"cycle":"Perennial","watering":"Frequent","sunlight":["Full sun","part shade"],"default_image":{"image_id":10514,"license":4,"license_name":"Attribution License","license_url":"https://creativecommons.org/licenses/by/2.0/","original_url":"https://perenual.com/storage/species_image/4961_lobelia_speciosa_wildwood_splendor/og/52591527470_15bcde6d92_b.jpg","regular_url":"https://perenual.com/storage/species_image/4961_lobelia_speciosa_wildwood_splendor/regular/52591527470_15bcde6d92_b.jpg","medium_url":"https://perenual.com/storage/species_image/4961_lobelia_speciosa_wildwood_splendor/medium/52591527470_15bcde6d92_b.jpg","small_url":"https://perenual.com/storage/species_image/4961_lobelia_speciosa_wildwood_splendor/small/52591527470_15bcde6d92_b.jpg","thumbnail":"https://perenual.com/storage/species_image/4961_lobelia_speciosa_wildwood_splendor/thumbnail/52591527470_15bcde6d92_b.jpg"}},{"id":4949,"common_name":"lobelia","scientific_name":["Lobelia 'Grape Knee-Hi'"],"other_name":null,"cycle":"Perennial","watering":"Frequent","sunlight":["Full sun","part shade"],"default_image":{"image_id":10514,"license":4,"license_name":"Attribution License","license_url":"https://creativecommons.org/licenses/by/2.0/","original_url":"https://perenual.com/storage/species_image/4961_lobelia_speciosa_wildwood_splendor/og/52591527470_15bcde6d92_b.jpg","regular_url":"https://perenual.com/storage/species_image/4961_lobelia_speciosa_wildwood_splendor/regular/52591527470_15bcde6d92_b.jpg","medium_url":"https://perenual.com/storage/species_image/4961_lobelia_speciosa_wildwood_splendor/medium/52591527470_15bcde6d92_b.jpg","small_url":"https://perenual.com/storage/species_image/4961_lobelia_speciosa_wildwood_splendor/small/52591527470_15bcde6d92_b.jpg","thumbnail":"https://perenual.com/storage/species_image/4961_lobelia_speciosa_wildwood_splendor/thumbnail/52591527470_15bcde6d92_b.jpg"}},{"id":4950,"common_name":"lobelia","scientific_name":["Lobelia 'La Fresco'"],"other_name":null,"cycle":"Perennial","watering":"Frequent","sunlight":["Full sun","part shade"],"default_image":{"image_id":10517,"license":4,"license_name":"Attribution License","license_url":"https://creativecommons.org/licenses/by/2.0/","original_url":"https://perenual.com/storage/species_image/4951_lobelia_purple_towers/og/52220957124_3c7f49d33d_b.jpg","regular_url":"https://perenual.com/storage/species_image/4951_lobelia_purple_towers/regular/52220957124_3c7f49d33d_b.jpg","medium_url":"https://perenual.com/storage/species_image/4951_lobelia_purple_towers/medium/52220957124_3c7f49d33d_b.jpg","small_url":"https://perenual.com/storage/species_image/4951_lobelia_purple_towers/small/52220957124_3c7f49d33d_b.jpg","thumbnail":"https://perenual.com/storage/species_image/4951_lobelia_purple_towers/thumbnail/52220957124_3c7f49d33d_b.jpg"}}],"to":4950,"per_page":30,"current_page":165,"from":4921,"last_page":200,"total":6000}