{"data":[{"id":2161,"common_name":"corydalis","scientific_name":["Corydalis ophiocarpa"],"other_name":null,"cycle":"Perennial","watering":"Average","sunlight":["Part shade","full shade"],"default_image":{"image_id":5118,"license":5,"license_name":"Attribution-ShareAlike License","license_url":"https://creativecommons.org/licenses/by-sa/2.0/","original_url":"https://perenual.com/storage/species_image/2161_corydalis_ophiocarpa/og/28212927655_858b407149_b.jpg","regular_url":"https://perenual.com/storage/species_image/2161_corydalis_ophiocarpa/regular/28212927655_858b407149_b.jpg","medium_url":"https://perenual.com/storage/species_image/2161_corydalis_ophiocarpa/medium/28212927655_858b407149_b.jpg","small_url":"https://perenual.com/storage/species_image/2161_corydalis_ophiocarpa/small/28212927655_858b407149_b.jpg","thumbnail":"https://perenual.com/storage/species_image/2161_corydalis_ophiocarpa/thumbnail/28212927655_858b407149_b.jpg"}},{"id":2162,"common_name":"fumewort","scientific_name":["Corydalis solida"],"other_name":null,"cycle":"Perennial","watering":"Frequent","sunlight":["Part shade","full shade"],"default_image":{"image_id":5119,"license":4,"license_name":"Attribution License","license_url":"https://creativecommons.org/licenses/by/2.0/","original_url":"https://perenual.com/storage/species_image/2162_corydalis_solida/og/51872388467_859494cc79_b.jpg","regular_url":"https://perenual.com/storage/species_image/2162_corydalis_solida/regular/51872388467_859494cc79_b.jpg","medium_url":"https://perenual.com/storage/species_image/2162_corydalis_solida/medium/51872388467_859494cc79_b.jpg","small_url":"https://perenual.com/storage/species_image/2162_corydalis_solida/small/51872388467_859494cc79_b.jpg","thumbnail":"https://perenual.com/storage/species_image/2162_corydalis_solida/thumbnail/51872388467_859494cc79_b.jpg"}},{"id":2163,"common_name":"winter hazel","scientific_name":["Corylopsis glabrescens"],"other_name":null,"cycle":"Perennial","watering":"Average","sunlight":["Full sun","part shade"],"default_image":{"image_id":5122,"license":5,"license_name":"Attribution-ShareAlike License","license_url":"https://creativecommons.org/licenses/by-sa/2.0/","original_url":"https://perenual.com/storage/species_image/2163_corylopsis_glabrescens/og/4850186427_00d9806684_b.jpg","regular_url":"https://perenual.com/storage/species_image/2163_corylopsis_glabrescens/regular/4850186427_00d9806684_b.jpg","medium_url":"https://perenual.com/storage/species_image/2163_corylopsis_glabrescens/medium/4850186427_00d9806684_b.jpg","small_url":"https://perenual.com/storage/species_image/2163_corylopsis_glabrescens/small/4850186427_00d9806684_b.jpg","thumbnail":"https://perenual.com/storage/species_image/2163_corylopsis_glabrescens/thumbnail/4850186427_00d9806684_b.jpg"}},{"id":2164,"common_name":"winter hazel","scientific_name":["Corylopsis glabrescens var. gotoana"],"other_name":null,"cycle":"Perennial","watering":"Average","sunlight":["Full sun","part shade"],"default_image":{"image_id":5125,"license":5,"license_name":"Attribution-ShareAlike License","license_url":"https://creativecommons.org/licenses/by-sa/2.0/","original_url":"https://perenual.com/storage/species_image/2164_corylopsis_glabrescens_var_gotoana/og/52612512424_8095e37e32_b.jpg","regular_url":"https://perenual.com/storage/species_image/2164_corylopsis_glabrescens_var_gotoana/regular/52612512424_8095e37e32_b.jpg","medium_url":"https://perenual.com/storage/species_image/2164_corylopsis_glabrescens_var_gotoana/medium/52612512424_8095e37e32_b.jpg","small_url":"https://perenual.com/storage/species_image/2164_corylopsis_glabrescens_var_gotoana/small/52612512424_8095e37e32_b.jpg","thumbnail":"https://perenual.com/storage/species_image/2164_corylopsis_glabrescens_var_gotoana/thumbnail/52612512424_8095e37e32_b.jpg"}},{"id":2165,"common_name":"winter hazel","scientific_name":["Corylopsis sinensis"],"other_name":null,"cycle":"Perennial","watering":"Average","sunlight":["Full sun","part shade"],"default_image":{"image_id":9,"license":5,"license_name":"Attribution-ShareAlike License","license_url":"https://creativecommons.org/licenses/by-sa/2.0/","original_url":"https://perenual.com/storage/species_image/2_abies_alba_pyramidalis/og/49255769768_df55596553_b.jpg","regular_url":"https://perenual.com/storage/species_image/2_abies_alba_pyramidalis/regular/49255769768_df55596553_b.jpg","medium_url":"https://perenual.com/storage/species_image/2_abies_alba_pyramidalis/medium/49255769768_df55596553_b.jpg","small_url":"https://perenual.com/storage/species_image/2_abies_alba_pyramidalis/small/49255769768_df55596553_b.jpg","thumbnail":"https://perenual.com/storage/species_image/2_abies_alba_pyramidalis/thumbnail/49255769768_df55596553_b.jpg"}},{"id":2166,"common_name":"American hazelnut","scientific_name":["Corylus americana"],"other_name":null,"cycle":"Perennial","watering":"Minimum","sunlight":["Full sun Partial sun"],"default_image":{"image_id":5131,"license":5,"license_name":"Attribution-ShareAlike License","license_url":"https://creativecommons.org/licenses/by-sa/2.0/","original_url":"https://perenual.com/storage/species_image/2166_corylus_americana/og/14623759319_ea9914bbd5_b.jpg","regular_url":"https://perenual.com/storage/species_image/2166_corylus_americana/regular/14623759319_ea9914bbd5_b.jpg","medium_url":"https://perenual.com/storage/species_image/2166_corylus_americana/medium/14623759319_ea9914bbd5_b.jpg","small_url":"https://perenual.com/storage/species_image/2166_corylus_americana/small/14623759319_ea9914bbd5_b.jpg","thumbnail":"https://perenual.com/storage/species_image/2166_corylus_americana/thumbnail/14623759319_ea9914bbd5_b.jpg"}},{"id":2167,"common_name":"Harry Lauder's walking stick","scientific_name":["Corylus avellana 'Contorta'"],"other_name":["Harry Lauder's walking stick","corkscrew hazel","corkscrew hazel"],"cycle":"Perennial","watering":"Average","sunlight":["Full sun"," Part sun/part shade"],"default_image":{"image_id":5136,"license":4,"license_name":"Attribution License","license_url":"https://creativecommons.org/licenses/by/2.0/","original_url":"https://perenual.com/storage/species_image/2167_corylus_avellana_contorta/og/16697391528_e2d0cd5488_b.jpg","regular_url":"https://perenual.com/storage/species_image/2167_corylus_avellana_contorta/regular/16697391528_e2d0cd5488_b.jpg","medium_url":"https://perenual.com/storage/species_image/2167_corylus_avellana_contorta/medium/16697391528_e2d0cd5488_b.jpg","small_url":"https://perenual.com/storage/species_image/2167_corylus_avellana_contorta/small/16697391528_e2d0cd5488_b.jpg","thumbnail":"https://perenual.com/storage/species_image/2167_corylus_avellana_contorta/thumbnail/16697391528_e2d0cd5488_b.jpg"}},{"id":2168,"common_name":"hazelnut","scientific_name":["Corylus avellana 'Red Dragon'"],"other_name":null,"cycle":"Perennial","watering":"Average","sunlight":["Full sun","part shade"],"default_image":{"image_id":9,"license":5,"license_name":"Attribution-ShareAlike License","license_url":"https://creativecommons.org/licenses/by-sa/2.0/","original_url":"https://perenual.com/storage/species_image/2_abies_alba_pyramidalis/og/49255769768_df55596553_b.jpg","regular_url":"https://perenual.com/storage/species_image/2_abies_alba_pyramidalis/regular/49255769768_df55596553_b.jpg","medium_url":"https://perenual.com/storage/species_image/2_abies_alba_pyramidalis/medium/49255769768_df55596553_b.jpg","small_url":"https://perenual.com/storage/species_image/2_abies_alba_pyramidalis/small/49255769768_df55596553_b.jpg","thumbnail":"https://perenual.com/storage/species_image/2_abies_alba_pyramidalis/thumbnail/49255769768_df55596553_b.jpg"}},{"id":2169,"common_name":"large filbert","scientific_name":["Corylus maxima"],"other_name":null,"cycle":"Perennial","watering":"Average","sunlight":["Full sun","part shade"],"default_image":{"image_id":9,"license":5,"license_name":"Attribution-ShareAlike License","license_url":"https://creativecommons.org/licenses/by-sa/2.0/","original_url":"https://perenual.com/storage/species_image/2_abies_alba_pyramidalis/og/49255769768_df55596553_b.jpg","regular_url":"https://perenual.com/storage/species_image/2_abies_alba_pyramidalis/regular/49255769768_df55596553_b.jpg","medium_url":"https://perenual.com/storage/species_image/2_abies_alba_pyramidalis/medium/49255769768_df55596553_b.jpg","small_url":"https://perenual.com/storage/species_image/2_abies_alba_pyramidalis/small/49255769768_df55596553_b.jpg","thumbnail":"https://perenual.com/storage/species_image/2_abies_alba_pyramidalis/thumbnail/49255769768_df55596553_b.jpg"}},{"id":2170,"common_name":"lemon eucalyptus","scientific_name":["Corymbia citriodora"],"other_name":null,"cycle":"Perennial","watering":"Average","sunlight":["Full sun"],"default_image":{"image_id":5139,"license":4,"license_name":"Attribution License","license_url":"https://creativecommons.org/licenses/by/2.0/","original_url":"https://perenual.com/storage/species_image/2170_corymbia_citriodora/og/45816284891_952529a7a3_b.jpg","regular_url":"https://perenual.com/storage/species_image/2170_corymbia_citriodora/regular/45816284891_952529a7a3_b.jpg","medium_url":"https://perenual.com/storage/species_image/2170_corymbia_citriodora/medium/45816284891_952529a7a3_b.jpg","small_url":"https://perenual.com/storage/species_image/2170_corymbia_citriodora/small/45816284891_952529a7a3_b.jpg","thumbnail":"https://perenual.com/storage/species_image/2170_corymbia_citriodora/thumbnail/45816284891_952529a7a3_b.jpg"}},{"id":2171,"common_name":"chocolate cosmos","scientific_name":["Cosmos atrosanguineus"],"other_name":null,"cycle":"Perennial","watering":"Minimum","sunlight":["Full sun"],"default_image":{"image_id":5142,"license":4,"license_name":"Attribution License","license_url":"https://creativecommons.org/licenses/by/2.0/","original_url":"https://perenual.com/storage/species_image/2171_cosmos_atrosanguineus/og/44624968742_654051fe38_b.jpg","regular_url":"https://perenual.com/storage/species_image/2171_cosmos_atrosanguineus/regular/44624968742_654051fe38_b.jpg","medium_url":"https://perenual.com/storage/species_image/2171_cosmos_atrosanguineus/medium/44624968742_654051fe38_b.jpg","small_url":"https://perenual.com/storage/species_image/2171_cosmos_atrosanguineus/small/44624968742_654051fe38_b.jpg","thumbnail":"https://perenual.com/storage/species_image/2171_cosmos_atrosanguineus/thumbnail/44624968742_654051fe38_b.jpg"}},{"id":2172,"common_name":"cosmos","scientific_name":["Cosmos sulphureus"],"other_name":null,"cycle":"Annual","watering":"Minimum","sunlight":["Full sun"],"default_image":{"image_id":9,"license":5,"license_name":"Attribution-ShareAlike License","license_url":"https://creativecommons.org/licenses/by-sa/2.0/","original_url":"https://perenual.com/storage/species_image/2_abies_alba_pyramidalis/og/49255769768_df55596553_b.jpg","regular_url":"https://perenual.com/storage/species_image/2_abies_alba_pyramidalis/regular/49255769768_df55596553_b.jpg","medium_url":"https://perenual.com/storage/species_image/2_abies_alba_pyramidalis/medium/49255769768_df55596553_b.jpg","small_url":"https://perenual.com/storage/species_image/2_abies_alba_pyramidalis/small/49255769768_df55596553_b.jpg","thumbnail":"https://perenual.com/storage/species_image/2_abies_alba_pyramidalis/thumbnail/49255769768_df55596553_b.jpg"}},{"id":2173,"common_name":"smoketree","scientific_name":["Cotinus coggygria 'Ancot' GOLDEN SPIRIT"],"other_name":null,"cycle":"Perennial","watering":"Average","sunlight":["Full sun"," Part sun/part shade"],"default_image":{"image_id":9,"license":5,"license_name":"Attribution-ShareAlike License","license_url":"https://creativecommons.org/licenses/by-sa/2.0/","original_url":"https://perenual.com/storage/species_image/2_abies_alba_pyramidalis/og/49255769768_df55596553_b.jpg","regular_url":"https://perenual.com/storage/species_image/2_abies_alba_pyramidalis/regular/49255769768_df55596553_b.jpg","medium_url":"https://perenual.com/storage/species_image/2_abies_alba_pyramidalis/medium/49255769768_df55596553_b.jpg","small_url":"https://perenual.com/storage/species_image/2_abies_alba_pyramidalis/small/49255769768_df55596553_b.jpg","thumbnail":"https://perenual.com/storage/species_image/2_abies_alba_pyramidalis/thumbnail/49255769768_df55596553_b.jpg"}},{"id":2174,"common_name":"smoketree","scientific_name":["Cotinus coggygria 'Daydream'"],"other_name":null,"cycle":"Perennial","watering":"Average","sunlight":["Full sun"," Part sun/part shade"],"default_image":{"image_id":9,"license":5,"license_name":"Attribution-ShareAlike License","license_url":"https://creativecommons.org/licenses/by-sa/2.0/","original_url":"https://perenual.com/storage/species_image/2_abies_alba_pyramidalis/og/49255769768_df55596553_b.jpg","regular_url":"https://perenual.com/storage/species_image/2_abies_alba_pyramidalis/regular/49255769768_df55596553_b.jpg","medium_url":"https://perenual.com/storage/species_image/2_abies_alba_pyramidalis/medium/49255769768_df55596553_b.jpg","small_url":"https://perenual.com/storage/species_image/2_abies_alba_pyramidalis/small/49255769768_df55596553_b.jpg","thumbnail":"https://perenual.com/storage/species_image/2_abies_alba_pyramidalis/thumbnail/49255769768_df55596553_b.jpg"}},{"id":2175,"common_name":"smoketree","scientific_name":["Cotinus coggygria 'Young Lady'"],"other_name":null,"cycle":"Perennial","watering":"Average","sunlight":["Full sun"," Part sun/part shade"],"default_image":{"image_id":5153,"license":4,"license_name":"Attribution License","license_url":"https://creativecommons.org/licenses/by/2.0/","original_url":"https://perenual.com/storage/species_image/2175_cotinus_coggygria_young_lady/og/21989375238_2a599bbc68_b.jpg","regular_url":"https://perenual.com/storage/species_image/2175_cotinus_coggygria_young_lady/regular/21989375238_2a599bbc68_b.jpg","medium_url":"https://perenual.com/storage/species_image/2175_cotinus_coggygria_young_lady/medium/21989375238_2a599bbc68_b.jpg","small_url":"https://perenual.com/storage/species_image/2175_cotinus_coggygria_young_lady/small/21989375238_2a599bbc68_b.jpg","thumbnail":"https://perenual.com/storage/species_image/2175_cotinus_coggygria_young_lady/thumbnail/21989375238_2a599bbc68_b.jpg"}},{"id":2176,"common_name":"cotoneaster","scientific_name":["Cotoneaster acutifolius"],"other_name":null,"cycle":"Perennial","watering":"Average","sunlight":["Full sun","part shade"],"default_image":{"image_id":5156,"license":4,"license_name":"Attribution License","license_url":"https://creativecommons.org/licenses/by/2.0/","original_url":"https://perenual.com/storage/species_image/2176_cotoneaster_acutifolius/og/52610734791_1f4000770c_b.jpg","regular_url":"https://perenual.com/storage/species_image/2176_cotoneaster_acutifolius/regular/52610734791_1f4000770c_b.jpg","medium_url":"https://perenual.com/storage/species_image/2176_cotoneaster_acutifolius/medium/52610734791_1f4000770c_b.jpg","small_url":"https://perenual.com/storage/species_image/2176_cotoneaster_acutifolius/small/52610734791_1f4000770c_b.jpg","thumbnail":"https://perenual.com/storage/species_image/2176_cotoneaster_acutifolius/thumbnail/52610734791_1f4000770c_b.jpg"}},{"id":2177,"common_name":"rock cotoneaster","scientific_name":["Cotoneaster atropurpureus 'Variegatus'"],"other_name":null,"cycle":"Perennial","watering":"Average","sunlight":["Full sun","part shade"],"default_image":{"image_id":5158,"license":5,"license_name":"Attribution-ShareAlike License","license_url":"https://creativecommons.org/licenses/by-sa/2.0/","original_url":"https://perenual.com/storage/species_image/2177_cotoneaster_atropurpureus_variegatus/og/4855156110_844ab3eb28_b.jpg","regular_url":"https://perenual.com/storage/species_image/2177_cotoneaster_atropurpureus_variegatus/regular/4855156110_844ab3eb28_b.jpg","medium_url":"https://perenual.com/storage/species_image/2177_cotoneaster_atropurpureus_variegatus/medium/4855156110_844ab3eb28_b.jpg","small_url":"https://perenual.com/storage/species_image/2177_cotoneaster_atropurpureus_variegatus/small/4855156110_844ab3eb28_b.jpg","thumbnail":"https://perenual.com/storage/species_image/2177_cotoneaster_atropurpureus_variegatus/thumbnail/4855156110_844ab3eb28_b.jpg"}},{"id":2178,"common_name":"cotoneaster","scientific_name":["Cotoneaster cochleatus"],"other_name":null,"cycle":"Perennial","watering":"Average","sunlight":["Full sun","part shade"],"default_image":{"image_id":9,"license":5,"license_name":"Attribution-ShareAlike License","license_url":"https://creativecommons.org/licenses/by-sa/2.0/","original_url":"https://perenual.com/storage/species_image/2_abies_alba_pyramidalis/og/49255769768_df55596553_b.jpg","regular_url":"https://perenual.com/storage/species_image/2_abies_alba_pyramidalis/regular/49255769768_df55596553_b.jpg","medium_url":"https://perenual.com/storage/species_image/2_abies_alba_pyramidalis/medium/49255769768_df55596553_b.jpg","small_url":"https://perenual.com/storage/species_image/2_abies_alba_pyramidalis/small/49255769768_df55596553_b.jpg","thumbnail":"https://perenual.com/storage/species_image/2_abies_alba_pyramidalis/thumbnail/49255769768_df55596553_b.jpg"}},{"id":2179,"common_name":"cotoneaster","scientific_name":["Cotoneaster divaricatus"],"other_name":null,"cycle":"Perennial","watering":"Average","sunlight":["Full sun","part shade"],"default_image":{"image_id":9,"license":5,"license_name":"Attribution-ShareAlike License","license_url":"https://creativecommons.org/licenses/by-sa/2.0/","original_url":"https://perenual.com/storage/species_image/2_abies_alba_pyramidalis/og/49255769768_df55596553_b.jpg","regular_url":"https://perenual.com/storage/species_image/2_abies_alba_pyramidalis/regular/49255769768_df55596553_b.jpg","medium_url":"https://perenual.com/storage/species_image/2_abies_alba_pyramidalis/medium/49255769768_df55596553_b.jpg","small_url":"https://perenual.com/storage/species_image/2_abies_alba_pyramidalis/small/49255769768_df55596553_b.jpg","thumbnail":"https://perenual.com/storage/species_image/2_abies_alba_pyramidalis/thumbnail/49255769768_df55596553_b.jpg"}},{"id":2180,"common_name":"cotoneaster","scientific_name":["Cotoneaster franchetii"],"other_name":null,"cycle":"Perennial","watering":"Average","sunlight":["Full sun","part shade"],"default_image":{"image_id":5163,"license":5,"license_name":"Attribution-ShareAlike License","license_url":"https://creativecommons.org/licenses/by-sa/2.0/","original_url":"https://perenual.com/storage/species_image/2180_cotoneaster_franchetii/og/50573665537_89d8705157_b.jpg","regular_url":"https://perenual.com/storage/species_image/2180_cotoneaster_franchetii/regular/50573665537_89d8705157_b.jpg","medium_url":"https://perenual.com/storage/species_image/2180_cotoneaster_franchetii/medium/50573665537_89d8705157_b.jpg","small_url":"https://perenual.com/storage/species_image/2180_cotoneaster_franchetii/small/50573665537_89d8705157_b.jpg","thumbnail":"https://perenual.com/storage/species_image/2180_cotoneaster_franchetii/thumbnail/50573665537_89d8705157_b.jpg"}},{"id":2181,"common_name":"cotoneaster","scientific_name":["Cotoneaster glaucophyllus"],"other_name":null,"cycle":"Perennial","watering":"Average","sunlight":["Full sun","part shade"],"default_image":{"image_id":5164,"license":4,"license_name":"Attribution License","license_url":"https://creativecommons.org/licenses/by/2.0/","original_url":"https://perenual.com/storage/species_image/2181_cotoneaster_glaucophyllus/og/3158831231_34be97b5e5_b.jpg","regular_url":"https://perenual.com/storage/species_image/2181_cotoneaster_glaucophyllus/regular/3158831231_34be97b5e5_b.jpg","medium_url":"https://perenual.com/storage/species_image/2181_cotoneaster_glaucophyllus/medium/3158831231_34be97b5e5_b.jpg","small_url":"https://perenual.com/storage/species_image/2181_cotoneaster_glaucophyllus/small/3158831231_34be97b5e5_b.jpg","thumbnail":"https://perenual.com/storage/species_image/2181_cotoneaster_glaucophyllus/thumbnail/3158831231_34be97b5e5_b.jpg"}},{"id":2182,"common_name":"cotoneaster","scientific_name":["Cotoneaster hessei"],"other_name":null,"cycle":"Perennial","watering":"Average","sunlight":["Full sun","part shade"],"default_image":{"image_id":5165,"license":5,"license_name":"Attribution-ShareAlike License","license_url":"https://creativecommons.org/licenses/by-sa/2.0/","original_url":"https://perenual.com/storage/species_image/2182_cotoneaster_hessei/og/30243520567_f945ae7e18_b.jpg","regular_url":"https://perenual.com/storage/species_image/2182_cotoneaster_hessei/regular/30243520567_f945ae7e18_b.jpg","medium_url":"https://perenual.com/storage/species_image/2182_cotoneaster_hessei/medium/30243520567_f945ae7e18_b.jpg","small_url":"https://perenual.com/storage/species_image/2182_cotoneaster_hessei/small/30243520567_f945ae7e18_b.jpg","thumbnail":"https://perenual.com/storage/species_image/2182_cotoneaster_hessei/thumbnail/30243520567_f945ae7e18_b.jpg"}},{"id":2183,"common_name":"rock cotoneaster","scientific_name":["Cotoneaster horizontalis"],"other_name":null,"cycle":"Perennial","watering":"Average","sunlight":["Full sun"," Part sun/part shade"],"default_image":{"image_id":5166,"license":5,"license_name":"Attribution-ShareAlike License","license_url":"https://creativecommons.org/licenses/by-sa/2.0/","original_url":"https://perenual.com/storage/species_image/2183_cotoneaster_horizontalis/og/50890907213_2d34a7edcb_b.jpg","regular_url":"https://perenual.com/storage/species_image/2183_cotoneaster_horizontalis/regular/50890907213_2d34a7edcb_b.jpg","medium_url":"https://perenual.com/storage/species_image/2183_cotoneaster_horizontalis/medium/50890907213_2d34a7edcb_b.jpg","small_url":"https://perenual.com/storage/species_image/2183_cotoneaster_horizontalis/small/50890907213_2d34a7edcb_b.jpg","thumbnail":"https://perenual.com/storage/species_image/2183_cotoneaster_horizontalis/thumbnail/50890907213_2d34a7edcb_b.jpg"}},{"id":2184,"common_name":"rock cotoneaster","scientific_name":["Cotoneaster horizontalis 'Robusta'"],"other_name":null,"cycle":"Perennial","watering":"Average","sunlight":["Full sun"," Part sun/part shade"],"default_image":{"image_id":9,"license":5,"license_name":"Attribution-ShareAlike License","license_url":"https://creativecommons.org/licenses/by-sa/2.0/","original_url":"https://perenual.com/storage/species_image/2_abies_alba_pyramidalis/og/49255769768_df55596553_b.jpg","regular_url":"https://perenual.com/storage/species_image/2_abies_alba_pyramidalis/regular/49255769768_df55596553_b.jpg","medium_url":"https://perenual.com/storage/species_image/2_abies_alba_pyramidalis/medium/49255769768_df55596553_b.jpg","small_url":"https://perenual.com/storage/species_image/2_abies_alba_pyramidalis/small/49255769768_df55596553_b.jpg","thumbnail":"https://perenual.com/storage/species_image/2_abies_alba_pyramidalis/thumbnail/49255769768_df55596553_b.jpg"}},{"id":2185,"common_name":"rock cotoneaster","scientific_name":["Cotoneaster horizontalis var. perpusillus"],"other_name":null,"cycle":"Perennial","watering":"Average","sunlight":["Full sun"," Part sun/part shade"],"default_image":{"image_id":9,"license":5,"license_name":"Attribution-ShareAlike License","license_url":"https://creativecommons.org/licenses/by-sa/2.0/","original_url":"https://perenual.com/storage/species_image/2_abies_alba_pyramidalis/og/49255769768_df55596553_b.jpg","regular_url":"https://perenual.com/storage/species_image/2_abies_alba_pyramidalis/regular/49255769768_df55596553_b.jpg","medium_url":"https://perenual.com/storage/species_image/2_abies_alba_pyramidalis/medium/49255769768_df55596553_b.jpg","small_url":"https://perenual.com/storage/species_image/2_abies_alba_pyramidalis/small/49255769768_df55596553_b.jpg","thumbnail":"https://perenual.com/storage/species_image/2_abies_alba_pyramidalis/thumbnail/49255769768_df55596553_b.jpg"}},{"id":2186,"common_name":"cotoneaster","scientific_name":["Cotoneaster integerrimus 'Centennial'"],"other_name":null,"cycle":"Perennial","watering":"Average","sunlight":["Full sun"],"default_image":{"image_id":9,"license":5,"license_name":"Attribution-ShareAlike License","license_url":"https://creativecommons.org/licenses/by-sa/2.0/","original_url":"https://perenual.com/storage/species_image/2_abies_alba_pyramidalis/og/49255769768_df55596553_b.jpg","regular_url":"https://perenual.com/storage/species_image/2_abies_alba_pyramidalis/regular/49255769768_df55596553_b.jpg","medium_url":"https://perenual.com/storage/species_image/2_abies_alba_pyramidalis/medium/49255769768_df55596553_b.jpg","small_url":"https://perenual.com/storage/species_image/2_abies_alba_pyramidalis/small/49255769768_df55596553_b.jpg","thumbnail":"https://perenual.com/storage/species_image/2_abies_alba_pyramidalis/thumbnail/49255769768_df55596553_b.jpg"}},{"id":2187,"common_name":"small-leaved cotoneaster","scientific_name":["Cotoneaster microphyllus"],"other_name":["thyme-leaf cotoneaster"],"cycle":"Perennial","watering":"Average","sunlight":["Full sun","part shade"],"default_image":{"image_id":9,"license":5,"license_name":"Attribution-ShareAlike License","license_url":"https://creativecommons.org/licenses/by-sa/2.0/","original_url":"https://perenual.com/storage/species_image/2_abies_alba_pyramidalis/og/49255769768_df55596553_b.jpg","regular_url":"https://perenual.com/storage/species_image/2_abies_alba_pyramidalis/regular/49255769768_df55596553_b.jpg","medium_url":"https://perenual.com/storage/species_image/2_abies_alba_pyramidalis/medium/49255769768_df55596553_b.jpg","small_url":"https://perenual.com/storage/species_image/2_abies_alba_pyramidalis/small/49255769768_df55596553_b.jpg","thumbnail":"https://perenual.com/storage/species_image/2_abies_alba_pyramidalis/thumbnail/49255769768_df55596553_b.jpg"}},{"id":2188,"common_name":"creeping cotoneaster","scientific_name":["Cotoneaster nanshan"],"other_name":null,"cycle":"Perennial","watering":"Average","sunlight":["Full sun","part shade"],"default_image":{"image_id":9,"license":5,"license_name":"Attribution-ShareAlike License","license_url":"https://creativecommons.org/licenses/by-sa/2.0/","original_url":"https://perenual.com/storage/species_image/2_abies_alba_pyramidalis/og/49255769768_df55596553_b.jpg","regular_url":"https://perenual.com/storage/species_image/2_abies_alba_pyramidalis/regular/49255769768_df55596553_b.jpg","medium_url":"https://perenual.com/storage/species_image/2_abies_alba_pyramidalis/medium/49255769768_df55596553_b.jpg","small_url":"https://perenual.com/storage/species_image/2_abies_alba_pyramidalis/small/49255769768_df55596553_b.jpg","thumbnail":"https://perenual.com/storage/species_image/2_abies_alba_pyramidalis/thumbnail/49255769768_df55596553_b.jpg"}},{"id":2189,"common_name":"cotoneaster","scientific_name":["Cotoneaster suavis"],"other_name":null,"cycle":"Perennial","watering":"Average","sunlight":["Full sun","part shade"],"default_image":{"image_id":9,"license":5,"license_name":"Attribution-ShareAlike License","license_url":"https://creativecommons.org/licenses/by-sa/2.0/","original_url":"https://perenual.com/storage/species_image/2_abies_alba_pyramidalis/og/49255769768_df55596553_b.jpg","regular_url":"https://perenual.com/storage/species_image/2_abies_alba_pyramidalis/regular/49255769768_df55596553_b.jpg","medium_url":"https://perenual.com/storage/species_image/2_abies_alba_pyramidalis/medium/49255769768_df55596553_b.jpg","small_url":"https://perenual.com/storage/species_image/2_abies_alba_pyramidalis/small/49255769768_df55596553_b.jpg","thumbnail":"https://perenual.com/storage/species_image/2_abies_alba_pyramidalis/thumbnail/49255769768_df55596553_b.jpg"}},{"id":2190,"common_name":"cannonball tree","scientific_name":["Couroupita guianensis"],"other_name":null,"cycle":"Perennial","watering":"Average","sunlight":["Full sun"],"default_image":{"image_id":9,"license":5,"license_name":"Attribution-ShareAlike License","license_url":"https://creativecommons.org/licenses/by-sa/2.0/","original_url":"https://perenual.com/storage/species_image/2_abies_alba_pyramidalis/og/49255769768_df55596553_b.jpg","regular_url":"https://perenual.com/storage/species_image/2_abies_alba_pyramidalis/regular/49255769768_df55596553_b.jpg","medium_url":"https://perenual.com/storage/species_image/2_abies_alba_pyramidalis/medium/49255769768_df55596553_b.jpg","small_url":"https://perenual.com/storage/species_image/2_abies_alba_pyramidalis/small/49255769768_df55596553_b.jpg","thumbnail":"https://perenual.com/storage/species_image/2_abies_alba_pyramidalis/thumbnail/49255769768_df55596553_b.jpg"}}],"to":2190,"per_page":30,"current_page":73,"from":2161,"last_page":200,"total":6000}