{"data":[{"id":4381,"common_name":"Rocky Mountain iris","scientific_name":["Iris missouriensis"],"other_name":null,"cycle":"Perennial","watering":"Frequent","sunlight":["Full sun Partial sun"],"default_image":{"image_id":9101,"license":5,"license_name":"Attribution-ShareAlike License","license_url":"https://creativecommons.org/licenses/by-sa/2.0/","original_url":"https://perenual.com/storage/species_image/4381_iris_missouriensis/og/48073565827_3cabbde9b5_b.jpg","regular_url":"https://perenual.com/storage/species_image/4381_iris_missouriensis/regular/48073565827_3cabbde9b5_b.jpg","medium_url":"https://perenual.com/storage/species_image/4381_iris_missouriensis/medium/48073565827_3cabbde9b5_b.jpg","small_url":"https://perenual.com/storage/species_image/4381_iris_missouriensis/small/48073565827_3cabbde9b5_b.jpg","thumbnail":"https://perenual.com/storage/species_image/4381_iris_missouriensis/thumbnail/48073565827_3cabbde9b5_b.jpg"}},{"id":4382,"common_name":"bearded iris","scientific_name":["Iris 'Monty's Sweet Blue'"],"other_name":null,"cycle":"Perennial","watering":"Average","sunlight":["Full sun"],"default_image":{"image_id":9107,"license":5,"license_name":"Attribution-ShareAlike License","license_url":"https://creativecommons.org/licenses/by-sa/2.0/","original_url":"https://perenual.com/storage/species_image/4382_iris_montys_sweet_blue/og/52073266326_c92aec13f1_b.jpg","regular_url":"https://perenual.com/storage/species_image/4382_iris_montys_sweet_blue/regular/52073266326_c92aec13f1_b.jpg","medium_url":"https://perenual.com/storage/species_image/4382_iris_montys_sweet_blue/medium/52073266326_c92aec13f1_b.jpg","small_url":"https://perenual.com/storage/species_image/4382_iris_montys_sweet_blue/small/52073266326_c92aec13f1_b.jpg","thumbnail":"https://perenual.com/storage/species_image/4382_iris_montys_sweet_blue/thumbnail/52073266326_c92aec13f1_b.jpg"}},{"id":4383,"common_name":"tall bearded reblooming iris","scientific_name":["Iris 'Northward Ho'"],"other_name":null,"cycle":"Perennial","watering":"Average","sunlight":["Full sun"],"default_image":{"image_id":22019,"license":3,"license_name":null,"license_url":null,"original_url":"https://perenual.com/storage/species_image/4437_iris_winesap/og/3499146512_2f2806f2ac_b.jpg","regular_url":"https://perenual.com/storage/species_image/4437_iris_winesap/regular/3499146512_2f2806f2ac_b.jpg","medium_url":"https://perenual.com/storage/species_image/4437_iris_winesap/medium/3499146512_2f2806f2ac_b.jpg","small_url":"https://perenual.com/storage/species_image/4437_iris_winesap/small/3499146512_2f2806f2ac_b.jpg","thumbnail":"https://perenual.com/storage/species_image/4437_iris_winesap/thumbnail/3499146512_2f2806f2ac_b.jpg"}},{"id":4384,"common_name":"tall bearded reblooming iris","scientific_name":["Iris 'October'"],"other_name":null,"cycle":"Perennial","watering":"Average","sunlight":["Full sun"],"default_image":{"image_id":9,"license":5,"license_name":"Attribution-ShareAlike License","license_url":"https://creativecommons.org/licenses/by-sa/2.0/","original_url":"https://perenual.com/storage/species_image/2_abies_alba_pyramidalis/og/49255769768_df55596553_b.jpg","regular_url":"https://perenual.com/storage/species_image/2_abies_alba_pyramidalis/regular/49255769768_df55596553_b.jpg","medium_url":"https://perenual.com/storage/species_image/2_abies_alba_pyramidalis/medium/49255769768_df55596553_b.jpg","small_url":"https://perenual.com/storage/species_image/2_abies_alba_pyramidalis/small/49255769768_df55596553_b.jpg","thumbnail":"https://perenual.com/storage/species_image/2_abies_alba_pyramidalis/thumbnail/49255769768_df55596553_b.jpg"}},{"id":4385,"common_name":"Siberian iris","scientific_name":["Iris 'Orville Fay'"],"other_name":null,"cycle":"Perennial","watering":"Frequent","sunlight":["Full sun","part shade"],"default_image":{"image_id":8987,"license":4,"license_name":"Attribution License","license_url":"https://creativecommons.org/licenses/by/2.0/","original_url":"https://perenual.com/storage/species_image/4353_iris_eric_the_red/og/52175152380_6fe8194843_b.jpg","regular_url":"https://perenual.com/storage/species_image/4353_iris_eric_the_red/regular/52175152380_6fe8194843_b.jpg","medium_url":"https://perenual.com/storage/species_image/4353_iris_eric_the_red/medium/52175152380_6fe8194843_b.jpg","small_url":"https://perenual.com/storage/species_image/4353_iris_eric_the_red/small/52175152380_6fe8194843_b.jpg","thumbnail":"https://perenual.com/storage/species_image/4353_iris_eric_the_red/thumbnail/52175152380_6fe8194843_b.jpg"}},{"id":4386,"common_name":"tall bearded iris","scientific_name":["Iris 'Overjoyed'"],"other_name":null,"cycle":"Perennial","watering":"Average","sunlight":["Full sun"],"default_image":{"image_id":9110,"license":5,"license_name":"Attribution-ShareAlike License","license_url":"https://creativecommons.org/licenses/by-sa/2.0/","original_url":"https://perenual.com/storage/species_image/4386_iris_overjoyed/og/27631540107_45106d5522_b.jpg","regular_url":"https://perenual.com/storage/species_image/4386_iris_overjoyed/regular/27631540107_45106d5522_b.jpg","medium_url":"https://perenual.com/storage/species_image/4386_iris_overjoyed/medium/27631540107_45106d5522_b.jpg","small_url":"https://perenual.com/storage/species_image/4386_iris_overjoyed/small/27631540107_45106d5522_b.jpg","thumbnail":"https://perenual.com/storage/species_image/4386_iris_overjoyed/thumbnail/27631540107_45106d5522_b.jpg"}},{"id":4387,"common_name":"tall bearded reblooming iris","scientific_name":["Iris 'Pagan Goddess'"],"other_name":null,"cycle":"Perennial","watering":"Average","sunlight":["Full sun"],"default_image":{"image_id":9,"license":5,"license_name":"Attribution-ShareAlike License","license_url":"https://creativecommons.org/licenses/by-sa/2.0/","original_url":"https://perenual.com/storage/species_image/2_abies_alba_pyramidalis/og/49255769768_df55596553_b.jpg","regular_url":"https://perenual.com/storage/species_image/2_abies_alba_pyramidalis/regular/49255769768_df55596553_b.jpg","medium_url":"https://perenual.com/storage/species_image/2_abies_alba_pyramidalis/medium/49255769768_df55596553_b.jpg","small_url":"https://perenual.com/storage/species_image/2_abies_alba_pyramidalis/small/49255769768_df55596553_b.jpg","thumbnail":"https://perenual.com/storage/species_image/2_abies_alba_pyramidalis/thumbnail/49255769768_df55596553_b.jpg"}},{"id":4388,"common_name":"Dalmatian iris","scientific_name":["Iris pallida"],"other_name":null,"cycle":"Perennial","watering":"Average","sunlight":["Full sun","part shade"],"default_image":{"image_id":9111,"license":4,"license_name":"Attribution License","license_url":"https://creativecommons.org/licenses/by/2.0/","original_url":"https://perenual.com/storage/species_image/4388_iris_pallida/og/49974201587_a266db8314_b.jpg","regular_url":"https://perenual.com/storage/species_image/4388_iris_pallida/regular/49974201587_a266db8314_b.jpg","medium_url":"https://perenual.com/storage/species_image/4388_iris_pallida/medium/49974201587_a266db8314_b.jpg","small_url":"https://perenual.com/storage/species_image/4388_iris_pallida/small/49974201587_a266db8314_b.jpg","thumbnail":"https://perenual.com/storage/species_image/4388_iris_pallida/thumbnail/49974201587_a266db8314_b.jpg"}},{"id":4389,"common_name":"Dalmatian iris","scientific_name":["Iris pallida 'Dalmatica'"],"other_name":null,"cycle":"Perennial","watering":"Frequent","sunlight":[],"default_image":{"image_id":9113,"license":4,"license_name":"Attribution License","license_url":"https://creativecommons.org/licenses/by/2.0/","original_url":"https://perenual.com/storage/species_image/4389_iris_pallida_dalmatica/og/22140179732_d426f09a43_b.jpg","regular_url":"https://perenual.com/storage/species_image/4389_iris_pallida_dalmatica/regular/22140179732_d426f09a43_b.jpg","medium_url":"https://perenual.com/storage/species_image/4389_iris_pallida_dalmatica/medium/22140179732_d426f09a43_b.jpg","small_url":"https://perenual.com/storage/species_image/4389_iris_pallida_dalmatica/small/22140179732_d426f09a43_b.jpg","thumbnail":"https://perenual.com/storage/species_image/4389_iris_pallida_dalmatica/thumbnail/22140179732_d426f09a43_b.jpg"}},{"id":4390,"common_name":"iris","scientific_name":["Iris pallida 'Variegata'"],"other_name":null,"cycle":"Perennial","watering":"Average","sunlight":["Full sun"],"default_image":{"image_id":9,"license":5,"license_name":"Attribution-ShareAlike License","license_url":"https://creativecommons.org/licenses/by-sa/2.0/","original_url":"https://perenual.com/storage/species_image/2_abies_alba_pyramidalis/og/49255769768_df55596553_b.jpg","regular_url":"https://perenual.com/storage/species_image/2_abies_alba_pyramidalis/regular/49255769768_df55596553_b.jpg","medium_url":"https://perenual.com/storage/species_image/2_abies_alba_pyramidalis/medium/49255769768_df55596553_b.jpg","small_url":"https://perenual.com/storage/species_image/2_abies_alba_pyramidalis/small/49255769768_df55596553_b.jpg","thumbnail":"https://perenual.com/storage/species_image/2_abies_alba_pyramidalis/thumbnail/49255769768_df55596553_b.jpg"}},{"id":4391,"common_name":"standard dwarf bearded iris","scientific_name":["Iris 'Peach Petal Pie'"],"other_name":null,"cycle":"Perennial","watering":"Average","sunlight":["Full sun"],"default_image":{"image_id":9121,"license":4,"license_name":"Attribution License","license_url":"https://creativecommons.org/licenses/by/2.0/","original_url":"https://perenual.com/storage/species_image/4391_iris_peach_petal_pie/og/3487545326_665727a687_b.jpg","regular_url":"https://perenual.com/storage/species_image/4391_iris_peach_petal_pie/regular/3487545326_665727a687_b.jpg","medium_url":"https://perenual.com/storage/species_image/4391_iris_peach_petal_pie/medium/3487545326_665727a687_b.jpg","small_url":"https://perenual.com/storage/species_image/4391_iris_peach_petal_pie/small/3487545326_665727a687_b.jpg","thumbnail":"https://perenual.com/storage/species_image/4391_iris_peach_petal_pie/thumbnail/3487545326_665727a687_b.jpg"}},{"id":4392,"common_name":"Siberian iris","scientific_name":["Iris 'Pink Haze'"],"other_name":null,"cycle":"Perennial","watering":"Frequent","sunlight":["Full sun","part shade"],"default_image":{"image_id":9,"license":5,"license_name":"Attribution-ShareAlike License","license_url":"https://creativecommons.org/licenses/by-sa/2.0/","original_url":"https://perenual.com/storage/species_image/2_abies_alba_pyramidalis/og/49255769768_df55596553_b.jpg","regular_url":"https://perenual.com/storage/species_image/2_abies_alba_pyramidalis/regular/49255769768_df55596553_b.jpg","medium_url":"https://perenual.com/storage/species_image/2_abies_alba_pyramidalis/medium/49255769768_df55596553_b.jpg","small_url":"https://perenual.com/storage/species_image/2_abies_alba_pyramidalis/small/49255769768_df55596553_b.jpg","thumbnail":"https://perenual.com/storage/species_image/2_abies_alba_pyramidalis/thumbnail/49255769768_df55596553_b.jpg"}},{"id":4393,"common_name":"iris","scientific_name":["Iris 'Pixie'"],"other_name":null,"cycle":"Perennial","watering":"Average","sunlight":["Full sun","part shade"],"default_image":{"image_id":9124,"license":4,"license_name":"Attribution License","license_url":"https://creativecommons.org/licenses/by/2.0/","original_url":"https://perenual.com/storage/species_image/4393_iris_pixie/og/36094742152_2715c7bcbd_b.jpg","regular_url":"https://perenual.com/storage/species_image/4393_iris_pixie/regular/36094742152_2715c7bcbd_b.jpg","medium_url":"https://perenual.com/storage/species_image/4393_iris_pixie/medium/36094742152_2715c7bcbd_b.jpg","small_url":"https://perenual.com/storage/species_image/4393_iris_pixie/small/36094742152_2715c7bcbd_b.jpg","thumbnail":"https://perenual.com/storage/species_image/4393_iris_pixie/thumbnail/36094742152_2715c7bcbd_b.jpg"}},{"id":4394,"common_name":"Louisiana iris","scientific_name":["Iris 'Professor Neil'"],"other_name":null,"cycle":"Perennial","watering":"Frequent","sunlight":["Full sun","part shade"],"default_image":{"image_id":9,"license":5,"license_name":"Attribution-ShareAlike License","license_url":"https://creativecommons.org/licenses/by-sa/2.0/","original_url":"https://perenual.com/storage/species_image/2_abies_alba_pyramidalis/og/49255769768_df55596553_b.jpg","regular_url":"https://perenual.com/storage/species_image/2_abies_alba_pyramidalis/regular/49255769768_df55596553_b.jpg","medium_url":"https://perenual.com/storage/species_image/2_abies_alba_pyramidalis/medium/49255769768_df55596553_b.jpg","small_url":"https://perenual.com/storage/species_image/2_abies_alba_pyramidalis/small/49255769768_df55596553_b.jpg","thumbnail":"https://perenual.com/storage/species_image/2_abies_alba_pyramidalis/thumbnail/49255769768_df55596553_b.jpg"}},{"id":4395,"common_name":"yellow flag","scientific_name":["Iris pseudacorus"],"other_name":null,"cycle":"Perennial","watering":"Frequent","sunlight":["Full sun","part shade"],"default_image":{"image_id":9126,"license":5,"license_name":"Attribution-ShareAlike License","license_url":"https://creativecommons.org/licenses/by-sa/2.0/","original_url":"https://perenual.com/storage/species_image/4395_iris_pseudacorus/og/52175105750_4aebbc6724_b.jpg","regular_url":"https://perenual.com/storage/species_image/4395_iris_pseudacorus/regular/52175105750_4aebbc6724_b.jpg","medium_url":"https://perenual.com/storage/species_image/4395_iris_pseudacorus/medium/52175105750_4aebbc6724_b.jpg","small_url":"https://perenual.com/storage/species_image/4395_iris_pseudacorus/small/52175105750_4aebbc6724_b.jpg","thumbnail":"https://perenual.com/storage/species_image/4395_iris_pseudacorus/thumbnail/52175105750_4aebbc6724_b.jpg"}},{"id":4396,"common_name":"yellow flag","scientific_name":["Iris pseudacorus 'Sun Cascade'"],"other_name":null,"cycle":"Perennial","watering":"Frequent","sunlight":["Full sun","part shade"],"default_image":{"image_id":9136,"license":451,"license_name":"CC0 1.0 Universal (CC0 1.0) Public Domain Dedication","license_url":"https://creativecommons.org/publicdomain/zero/1.0/","original_url":"https://perenual.com/storage/species_image/4396_iris_pseudacorus_sun_cascade/og/g3358fdd31bd200e6d629a4a5ac6820819b346be8d1899d8b87d8a017ceb73640435c37f4a04c7cddf1f9bf86ee89caa26f19e73cc511d92880a2158e7af90ec0_1280.jpg","regular_url":"https://perenual.com/storage/species_image/4396_iris_pseudacorus_sun_cascade/regular/g3358fdd31bd200e6d629a4a5ac6820819b346be8d1899d8b87d8a017ceb73640435c37f4a04c7cddf1f9bf86ee89caa26f19e73cc511d92880a2158e7af90ec0_1280.jpg","medium_url":"https://perenual.com/storage/species_image/4396_iris_pseudacorus_sun_cascade/medium/g3358fdd31bd200e6d629a4a5ac6820819b346be8d1899d8b87d8a017ceb73640435c37f4a04c7cddf1f9bf86ee89caa26f19e73cc511d92880a2158e7af90ec0_1280.jpg","small_url":"https://perenual.com/storage/species_image/4396_iris_pseudacorus_sun_cascade/small/g3358fdd31bd200e6d629a4a5ac6820819b346be8d1899d8b87d8a017ceb73640435c37f4a04c7cddf1f9bf86ee89caa26f19e73cc511d92880a2158e7af90ec0_1280.jpg","thumbnail":"https://perenual.com/storage/species_image/4396_iris_pseudacorus_sun_cascade/thumbnail/g3358fdd31bd200e6d629a4a5ac6820819b346be8d1899d8b87d8a017ceb73640435c37f4a04c7cddf1f9bf86ee89caa26f19e73cc511d92880a2158e7af90ec0_1280.jpg"}},{"id":4397,"common_name":"yellow flag","scientific_name":["Iris pseudacorus 'Variegata'"],"other_name":null,"cycle":"Perennial","watering":"Frequent","sunlight":["Full sun","part shade"],"default_image":{"image_id":9140,"license":4,"license_name":"Attribution License","license_url":"https://creativecommons.org/licenses/by/2.0/","original_url":"https://perenual.com/storage/species_image/4397_iris_pseudacorus_variegata/og/52522418220_995a3f132d_b.jpg","regular_url":"https://perenual.com/storage/species_image/4397_iris_pseudacorus_variegata/regular/52522418220_995a3f132d_b.jpg","medium_url":"https://perenual.com/storage/species_image/4397_iris_pseudacorus_variegata/medium/52522418220_995a3f132d_b.jpg","small_url":"https://perenual.com/storage/species_image/4397_iris_pseudacorus_variegata/small/52522418220_995a3f132d_b.jpg","thumbnail":"https://perenual.com/storage/species_image/4397_iris_pseudacorus_variegata/thumbnail/52522418220_995a3f132d_b.jpg"}},{"id":4398,"common_name":"tall bearded reblooming iris","scientific_name":["Iris 'Pure As Gold'"],"other_name":null,"cycle":"Perennial","watering":"Average","sunlight":["Full sun"],"default_image":{"image_id":9145,"license":6,"license_name":"Attribution-NoDerivs License","license_url":"https://creativecommons.org/licenses/by-nd/2.0/","original_url":"https://perenual.com/storage/species_image/4398_iris_pure_as_gold/og/51112449912_65b1ae7440_b.jpg"}},{"id":4399,"common_name":"Siberian iris","scientific_name":["Iris 'Quiet Shape'"],"other_name":null,"cycle":"Perennial","watering":"Frequent","sunlight":["Full sun","part shade"],"default_image":{"image_id":8987,"license":4,"license_name":"Attribution License","license_url":"https://creativecommons.org/licenses/by/2.0/","original_url":"https://perenual.com/storage/species_image/4353_iris_eric_the_red/og/52175152380_6fe8194843_b.jpg","regular_url":"https://perenual.com/storage/species_image/4353_iris_eric_the_red/regular/52175152380_6fe8194843_b.jpg","medium_url":"https://perenual.com/storage/species_image/4353_iris_eric_the_red/medium/52175152380_6fe8194843_b.jpg","small_url":"https://perenual.com/storage/species_image/4353_iris_eric_the_red/small/52175152380_6fe8194843_b.jpg","thumbnail":"https://perenual.com/storage/species_image/4353_iris_eric_the_red/thumbnail/52175152380_6fe8194843_b.jpg"}},{"id":4400,"common_name":"reticulated iris","scientific_name":["Iris reticulata"],"other_name":null,"cycle":"Perennial","watering":"Average","sunlight":["Full sun","part shade"],"default_image":{"image_id":9146,"license":6,"license_name":"Attribution-NoDerivs License","license_url":"https://creativecommons.org/licenses/by-nd/2.0/","original_url":"https://perenual.com/storage/species_image/4400_iris_reticulata/og/51902169744_714b796ce4_b.jpg"}},{"id":4401,"common_name":"iris","scientific_name":["Iris reticulata 'Clairette'"],"other_name":null,"cycle":"Perennial","watering":"Average","sunlight":["Full sun","part shade"],"default_image":null},{"id":4402,"common_name":"iris","scientific_name":["Iris reticulata 'Gordon'"],"other_name":null,"cycle":"Perennial","watering":"Average","sunlight":["Full sun","part shade"],"default_image":null},{"id":4403,"common_name":"iris","scientific_name":["Iris reticulata 'Harmony'"],"other_name":null,"cycle":"Perennial","watering":"Average","sunlight":["Full sun","part shade"],"default_image":null},{"id":4404,"common_name":"border bearded iris","scientific_name":["Iris 'Rielle'"],"other_name":null,"cycle":"Perennial","watering":"Average","sunlight":["Full sun"],"default_image":{"image_id":9149,"license":4,"license_name":"Attribution License","license_url":"https://creativecommons.org/licenses/by/2.0/","original_url":"https://perenual.com/storage/species_image/4404_iris_rielle/og/5682206488_ae0bc75df2_b.jpg","regular_url":"https://perenual.com/storage/species_image/4404_iris_rielle/regular/5682206488_ae0bc75df2_b.jpg","medium_url":"https://perenual.com/storage/species_image/4404_iris_rielle/medium/5682206488_ae0bc75df2_b.jpg","small_url":"https://perenual.com/storage/species_image/4404_iris_rielle/small/5682206488_ae0bc75df2_b.jpg","thumbnail":"https://perenual.com/storage/species_image/4404_iris_rielle/thumbnail/5682206488_ae0bc75df2_b.jpg"}},{"id":4405,"common_name":"Siberian iris","scientific_name":["Iris 'Rill'"],"other_name":null,"cycle":"Perennial","watering":"Frequent","sunlight":["Full sun","part shade"],"default_image":{"image_id":8987,"license":4,"license_name":"Attribution License","license_url":"https://creativecommons.org/licenses/by/2.0/","original_url":"https://perenual.com/storage/species_image/4353_iris_eric_the_red/og/52175152380_6fe8194843_b.jpg","regular_url":"https://perenual.com/storage/species_image/4353_iris_eric_the_red/regular/52175152380_6fe8194843_b.jpg","medium_url":"https://perenual.com/storage/species_image/4353_iris_eric_the_red/medium/52175152380_6fe8194843_b.jpg","small_url":"https://perenual.com/storage/species_image/4353_iris_eric_the_red/small/52175152380_6fe8194843_b.jpg","thumbnail":"https://perenual.com/storage/species_image/4353_iris_eric_the_red/thumbnail/52175152380_6fe8194843_b.jpg"}},{"id":4406,"common_name":"iris","scientific_name":["Iris robusta 'Gerald Darby'"],"other_name":null,"cycle":"Perennial","watering":"Frequent","sunlight":["Full sun","part shade"],"default_image":{"image_id":9,"license":5,"license_name":"Attribution-ShareAlike License","license_url":"https://creativecommons.org/licenses/by-sa/2.0/","original_url":"https://perenual.com/storage/species_image/2_abies_alba_pyramidalis/og/49255769768_df55596553_b.jpg","regular_url":"https://perenual.com/storage/species_image/2_abies_alba_pyramidalis/regular/49255769768_df55596553_b.jpg","medium_url":"https://perenual.com/storage/species_image/2_abies_alba_pyramidalis/medium/49255769768_df55596553_b.jpg","small_url":"https://perenual.com/storage/species_image/2_abies_alba_pyramidalis/small/49255769768_df55596553_b.jpg","thumbnail":"https://perenual.com/storage/species_image/2_abies_alba_pyramidalis/thumbnail/49255769768_df55596553_b.jpg"}},{"id":4407,"common_name":"bearded iris","scientific_name":["Iris 'Roney's Encore'"],"other_name":null,"cycle":"Perennial","watering":"Average","sunlight":["Full sun"],"default_image":{"image_id":9,"license":5,"license_name":"Attribution-ShareAlike License","license_url":"https://creativecommons.org/licenses/by-sa/2.0/","original_url":"https://perenual.com/storage/species_image/2_abies_alba_pyramidalis/og/49255769768_df55596553_b.jpg","regular_url":"https://perenual.com/storage/species_image/2_abies_alba_pyramidalis/regular/49255769768_df55596553_b.jpg","medium_url":"https://perenual.com/storage/species_image/2_abies_alba_pyramidalis/medium/49255769768_df55596553_b.jpg","small_url":"https://perenual.com/storage/species_image/2_abies_alba_pyramidalis/small/49255769768_df55596553_b.jpg","thumbnail":"https://perenual.com/storage/species_image/2_abies_alba_pyramidalis/thumbnail/49255769768_df55596553_b.jpg"}},{"id":4408,"common_name":"tall bearded reblooming iris","scientific_name":["Iris 'Rosalie Figge'"],"other_name":null,"cycle":"Perennial","watering":"Average","sunlight":["Full sun"],"default_image":{"image_id":9153,"license":4,"license_name":"Attribution License","license_url":"https://creativecommons.org/licenses/by/2.0/","original_url":"https://perenual.com/storage/species_image/4408_iris_rosalie_figge/og/4671791001_e71384ff21_b.jpg","regular_url":"https://perenual.com/storage/species_image/4408_iris_rosalie_figge/regular/4671791001_e71384ff21_b.jpg","medium_url":"https://perenual.com/storage/species_image/4408_iris_rosalie_figge/medium/4671791001_e71384ff21_b.jpg","small_url":"https://perenual.com/storage/species_image/4408_iris_rosalie_figge/small/4671791001_e71384ff21_b.jpg","thumbnail":"https://perenual.com/storage/species_image/4408_iris_rosalie_figge/thumbnail/4671791001_e71384ff21_b.jpg"}},{"id":4409,"common_name":"Siberian iris","scientific_name":["Iris 'Ruffled Velvet'"],"other_name":null,"cycle":"Perennial","watering":"Frequent","sunlight":["Full sun","part shade"],"default_image":{"image_id":9157,"license":5,"license_name":"Attribution-ShareAlike License","license_url":"https://creativecommons.org/licenses/by-sa/2.0/","original_url":"https://perenual.com/storage/species_image/4409_iris_ruffled_velvet/og/51232548175_86b6779dca_b.jpg","regular_url":"https://perenual.com/storage/species_image/4409_iris_ruffled_velvet/regular/51232548175_86b6779dca_b.jpg","medium_url":"https://perenual.com/storage/species_image/4409_iris_ruffled_velvet/medium/51232548175_86b6779dca_b.jpg","small_url":"https://perenual.com/storage/species_image/4409_iris_ruffled_velvet/small/51232548175_86b6779dca_b.jpg","thumbnail":"https://perenual.com/storage/species_image/4409_iris_ruffled_velvet/thumbnail/51232548175_86b6779dca_b.jpg"}},{"id":4410,"common_name":"tall bearded iris","scientific_name":["Iris 'Sable Night'"],"other_name":null,"cycle":"Perennial","watering":"Average","sunlight":["Full sun"],"default_image":{"image_id":9,"license":5,"license_name":"Attribution-ShareAlike License","license_url":"https://creativecommons.org/licenses/by-sa/2.0/","original_url":"https://perenual.com/storage/species_image/2_abies_alba_pyramidalis/og/49255769768_df55596553_b.jpg","regular_url":"https://perenual.com/storage/species_image/2_abies_alba_pyramidalis/regular/49255769768_df55596553_b.jpg","medium_url":"https://perenual.com/storage/species_image/2_abies_alba_pyramidalis/medium/49255769768_df55596553_b.jpg","small_url":"https://perenual.com/storage/species_image/2_abies_alba_pyramidalis/small/49255769768_df55596553_b.jpg","thumbnail":"https://perenual.com/storage/species_image/2_abies_alba_pyramidalis/thumbnail/49255769768_df55596553_b.jpg"}}],"to":4410,"per_page":30,"current_page":147,"from":4381,"last_page":200,"total":6000}