{"data":[{"id":3181,"common_name":"hardy geranium","scientific_name":["Geranium subcaulescens 'Guiseppii'"],"other_name":null,"cycle":"Perennial","watering":"Minimum","sunlight":["Full sun","part shade"],"default_image":{"image_id":6842,"license":6,"license_name":"Attribution-NoDerivs License","license_url":"https://creativecommons.org/licenses/by-nd/2.0/","original_url":"https://perenual.com/storage/species_image/3183_geranium_tanya_rendall/og/52260148346_43b87b8e6b_b.jpg"}},{"id":3182,"common_name":"geranium","scientific_name":["Geranium 'Sweet Heidy'"],"other_name":null,"cycle":"Perennial","watering":"Average","sunlight":["Full sun","part shade"],"default_image":{"image_id":6843,"license":4,"license_name":"Attribution License","license_url":"https://creativecommons.org/licenses/by/2.0/","original_url":"https://perenual.com/storage/species_image/3182_geranium_sweet_heidy/og/43691841641_d8f76de9bd_b.jpg","regular_url":"https://perenual.com/storage/species_image/3182_geranium_sweet_heidy/regular/43691841641_d8f76de9bd_b.jpg","medium_url":"https://perenual.com/storage/species_image/3182_geranium_sweet_heidy/medium/43691841641_d8f76de9bd_b.jpg","small_url":"https://perenual.com/storage/species_image/3182_geranium_sweet_heidy/small/43691841641_d8f76de9bd_b.jpg","thumbnail":"https://perenual.com/storage/species_image/3182_geranium_sweet_heidy/thumbnail/43691841641_d8f76de9bd_b.jpg"}},{"id":3183,"common_name":"hardy geranium","scientific_name":["Geranium 'Tanya Rendall'"],"other_name":null,"cycle":"Perennial","watering":"Average","sunlight":["Full sun","part shade"],"default_image":{"image_id":6842,"license":6,"license_name":"Attribution-NoDerivs License","license_url":"https://creativecommons.org/licenses/by-nd/2.0/","original_url":"https://perenual.com/storage/species_image/3183_geranium_tanya_rendall/og/52260148346_43b87b8e6b_b.jpg"}},{"id":3184,"common_name":"cranesbill","scientific_name":["Geranium 'Tiny Monster'"],"other_name":null,"cycle":"Perennial","watering":"Average","sunlight":["Full sun","part shade"],"default_image":{"image_id":6844,"license":6,"license_name":"Attribution-NoDerivs License","license_url":"https://creativecommons.org/licenses/by-nd/2.0/","original_url":"https://perenual.com/storage/species_image/3184_geranium_tiny_monster/og/6207343099_5e7be6e196_b.jpg"}},{"id":3185,"common_name":"cranesbill","scientific_name":["Geranium wallichianum 'Sylvia's Surprise'"],"other_name":null,"cycle":"Perennial","watering":"Average","sunlight":["Full sun","part shade"],"default_image":{"image_id":9,"license":5,"license_name":"Attribution-ShareAlike License","license_url":"https://creativecommons.org/licenses/by-sa/2.0/","original_url":"https://perenual.com/storage/species_image/2_abies_alba_pyramidalis/og/49255769768_df55596553_b.jpg","regular_url":"https://perenual.com/storage/species_image/2_abies_alba_pyramidalis/regular/49255769768_df55596553_b.jpg","medium_url":"https://perenual.com/storage/species_image/2_abies_alba_pyramidalis/medium/49255769768_df55596553_b.jpg","small_url":"https://perenual.com/storage/species_image/2_abies_alba_pyramidalis/small/49255769768_df55596553_b.jpg","thumbnail":"https://perenual.com/storage/species_image/2_abies_alba_pyramidalis/thumbnail/49255769768_df55596553_b.jpg"}},{"id":3186,"common_name":"cranesbill","scientific_name":["Geranium wlassovianum"],"other_name":null,"cycle":"Perennial","watering":"Average","sunlight":["Full sun","part shade"],"default_image":{"image_id":6742,"license":5,"license_name":"Attribution-ShareAlike License","license_url":"https://creativecommons.org/licenses/by-sa/2.0/","original_url":"https://perenual.com/storage/species_image/3126_geranium_blogold_blue_sunrise/og/52284276512_7421e5f12c_b.jpg","regular_url":"https://perenual.com/storage/species_image/3126_geranium_blogold_blue_sunrise/regular/52284276512_7421e5f12c_b.jpg","medium_url":"https://perenual.com/storage/species_image/3126_geranium_blogold_blue_sunrise/medium/52284276512_7421e5f12c_b.jpg","small_url":"https://perenual.com/storage/species_image/3126_geranium_blogold_blue_sunrise/small/52284276512_7421e5f12c_b.jpg","thumbnail":"https://perenual.com/storage/species_image/3126_geranium_blogold_blue_sunrise/thumbnail/52284276512_7421e5f12c_b.jpg"}},{"id":3187,"common_name":"Transvaal daisy","scientific_name":["Gerbera jamesonii"],"other_name":null,"cycle":"Perennial","watering":"Average","sunlight":["Full sun","part shade"],"default_image":{"image_id":9,"license":5,"license_name":"Attribution-ShareAlike License","license_url":"https://creativecommons.org/licenses/by-sa/2.0/","original_url":"https://perenual.com/storage/species_image/2_abies_alba_pyramidalis/og/49255769768_df55596553_b.jpg","regular_url":"https://perenual.com/storage/species_image/2_abies_alba_pyramidalis/regular/49255769768_df55596553_b.jpg","medium_url":"https://perenual.com/storage/species_image/2_abies_alba_pyramidalis/medium/49255769768_df55596553_b.jpg","small_url":"https://perenual.com/storage/species_image/2_abies_alba_pyramidalis/small/49255769768_df55596553_b.jpg","thumbnail":"https://perenual.com/storage/species_image/2_abies_alba_pyramidalis/thumbnail/49255769768_df55596553_b.jpg"}},{"id":3188,"common_name":"avens","scientific_name":["Geum 'Banana Daiquiri'"],"other_name":null,"cycle":"Perennial","watering":"Average","sunlight":["Full sun","part shade"],"default_image":{"image_id":6850,"license":5,"license_name":"Attribution-ShareAlike License","license_url":"https://creativecommons.org/licenses/by-sa/2.0/","original_url":"https://perenual.com/storage/species_image/3188_geum_banana_daiquiri/og/14483166112_6422bcf725_b.jpg","regular_url":"https://perenual.com/storage/species_image/3188_geum_banana_daiquiri/regular/14483166112_6422bcf725_b.jpg","medium_url":"https://perenual.com/storage/species_image/3188_geum_banana_daiquiri/medium/14483166112_6422bcf725_b.jpg","small_url":"https://perenual.com/storage/species_image/3188_geum_banana_daiquiri/small/14483166112_6422bcf725_b.jpg","thumbnail":"https://perenual.com/storage/species_image/3188_geum_banana_daiquiri/thumbnail/14483166112_6422bcf725_b.jpg"}},{"id":3189,"common_name":"avens","scientific_name":["Geum 'Borisii'"],"other_name":null,"cycle":"Perennial","watering":"Average","sunlight":["Full sun","part shade"],"default_image":{"image_id":9,"license":5,"license_name":"Attribution-ShareAlike License","license_url":"https://creativecommons.org/licenses/by-sa/2.0/","original_url":"https://perenual.com/storage/species_image/2_abies_alba_pyramidalis/og/49255769768_df55596553_b.jpg","regular_url":"https://perenual.com/storage/species_image/2_abies_alba_pyramidalis/regular/49255769768_df55596553_b.jpg","medium_url":"https://perenual.com/storage/species_image/2_abies_alba_pyramidalis/medium/49255769768_df55596553_b.jpg","small_url":"https://perenual.com/storage/species_image/2_abies_alba_pyramidalis/small/49255769768_df55596553_b.jpg","thumbnail":"https://perenual.com/storage/species_image/2_abies_alba_pyramidalis/thumbnail/49255769768_df55596553_b.jpg"}},{"id":3190,"common_name":"avens","scientific_name":["Geum 'Cherry Bomb'"],"other_name":null,"cycle":"Perennial","watering":"Average","sunlight":["Full sun","part shade"],"default_image":{"image_id":9,"license":5,"license_name":"Attribution-ShareAlike License","license_url":"https://creativecommons.org/licenses/by-sa/2.0/","original_url":"https://perenual.com/storage/species_image/2_abies_alba_pyramidalis/og/49255769768_df55596553_b.jpg","regular_url":"https://perenual.com/storage/species_image/2_abies_alba_pyramidalis/regular/49255769768_df55596553_b.jpg","medium_url":"https://perenual.com/storage/species_image/2_abies_alba_pyramidalis/medium/49255769768_df55596553_b.jpg","small_url":"https://perenual.com/storage/species_image/2_abies_alba_pyramidalis/small/49255769768_df55596553_b.jpg","thumbnail":"https://perenual.com/storage/species_image/2_abies_alba_pyramidalis/thumbnail/49255769768_df55596553_b.jpg"}},{"id":3191,"common_name":"avens","scientific_name":["Geum 'Cherry Cordial'"],"other_name":null,"cycle":"Perennial","watering":"Average","sunlight":["Full sun","part shade"],"default_image":{"image_id":9,"license":5,"license_name":"Attribution-ShareAlike License","license_url":"https://creativecommons.org/licenses/by-sa/2.0/","original_url":"https://perenual.com/storage/species_image/2_abies_alba_pyramidalis/og/49255769768_df55596553_b.jpg","regular_url":"https://perenual.com/storage/species_image/2_abies_alba_pyramidalis/regular/49255769768_df55596553_b.jpg","medium_url":"https://perenual.com/storage/species_image/2_abies_alba_pyramidalis/medium/49255769768_df55596553_b.jpg","small_url":"https://perenual.com/storage/species_image/2_abies_alba_pyramidalis/small/49255769768_df55596553_b.jpg","thumbnail":"https://perenual.com/storage/species_image/2_abies_alba_pyramidalis/thumbnail/49255769768_df55596553_b.jpg"}},{"id":3192,"common_name":"avens","scientific_name":["Geum coccineum"],"other_name":["avens"],"cycle":"Perennial","watering":"Average","sunlight":["Full sun","part shade"],"default_image":{"image_id":6855,"license":5,"license_name":"Attribution-ShareAlike License","license_url":"https://creativecommons.org/licenses/by-sa/2.0/","original_url":"https://perenual.com/storage/species_image/3192_geum_coccineum/og/16476789456_570df83635_b.jpg","regular_url":"https://perenual.com/storage/species_image/3192_geum_coccineum/regular/16476789456_570df83635_b.jpg","medium_url":"https://perenual.com/storage/species_image/3192_geum_coccineum/medium/16476789456_570df83635_b.jpg","small_url":"https://perenual.com/storage/species_image/3192_geum_coccineum/small/16476789456_570df83635_b.jpg","thumbnail":"https://perenual.com/storage/species_image/3192_geum_coccineum/thumbnail/16476789456_570df83635_b.jpg"}},{"id":3193,"common_name":"avens","scientific_name":["Geum coccineum 'Cooky'"],"other_name":null,"cycle":"Perennial","watering":"Average","sunlight":["Full sun","part shade"],"default_image":{"image_id":6855,"license":5,"license_name":"Attribution-ShareAlike License","license_url":"https://creativecommons.org/licenses/by-sa/2.0/","original_url":"https://perenual.com/storage/species_image/3192_geum_coccineum/og/16476789456_570df83635_b.jpg","regular_url":"https://perenual.com/storage/species_image/3192_geum_coccineum/regular/16476789456_570df83635_b.jpg","medium_url":"https://perenual.com/storage/species_image/3192_geum_coccineum/medium/16476789456_570df83635_b.jpg","small_url":"https://perenual.com/storage/species_image/3192_geum_coccineum/small/16476789456_570df83635_b.jpg","thumbnail":"https://perenual.com/storage/species_image/3192_geum_coccineum/thumbnail/16476789456_570df83635_b.jpg"}},{"id":3194,"common_name":"avens","scientific_name":["Geum 'Fire Storm'"],"other_name":null,"cycle":"Perennial","watering":"Average","sunlight":["Full sun","part shade"],"default_image":{"image_id":9,"license":5,"license_name":"Attribution-ShareAlike License","license_url":"https://creativecommons.org/licenses/by-sa/2.0/","original_url":"https://perenual.com/storage/species_image/2_abies_alba_pyramidalis/og/49255769768_df55596553_b.jpg","regular_url":"https://perenual.com/storage/species_image/2_abies_alba_pyramidalis/regular/49255769768_df55596553_b.jpg","medium_url":"https://perenual.com/storage/species_image/2_abies_alba_pyramidalis/medium/49255769768_df55596553_b.jpg","small_url":"https://perenual.com/storage/species_image/2_abies_alba_pyramidalis/small/49255769768_df55596553_b.jpg","thumbnail":"https://perenual.com/storage/species_image/2_abies_alba_pyramidalis/thumbnail/49255769768_df55596553_b.jpg"}},{"id":3195,"common_name":"avens","scientific_name":["Geum 'Mrs. J. Bradshaw'"],"other_name":null,"cycle":"Perennial","watering":"Average","sunlight":["Full sun","part shade"],"default_image":{"image_id":9,"license":5,"license_name":"Attribution-ShareAlike License","license_url":"https://creativecommons.org/licenses/by-sa/2.0/","original_url":"https://perenual.com/storage/species_image/2_abies_alba_pyramidalis/og/49255769768_df55596553_b.jpg","regular_url":"https://perenual.com/storage/species_image/2_abies_alba_pyramidalis/regular/49255769768_df55596553_b.jpg","medium_url":"https://perenual.com/storage/species_image/2_abies_alba_pyramidalis/medium/49255769768_df55596553_b.jpg","small_url":"https://perenual.com/storage/species_image/2_abies_alba_pyramidalis/small/49255769768_df55596553_b.jpg","thumbnail":"https://perenual.com/storage/species_image/2_abies_alba_pyramidalis/thumbnail/49255769768_df55596553_b.jpg"}},{"id":3196,"common_name":"water avens","scientific_name":["Geum rivale"],"other_name":null,"cycle":"Perennial","watering":"Frequent","sunlight":["Full sun","part shade"],"default_image":{"image_id":6859,"license":4,"license_name":"Attribution License","license_url":"https://creativecommons.org/licenses/by/2.0/","original_url":"https://perenual.com/storage/species_image/3196_geum_rivale/og/51873988810_4363f74f96_b.jpg","regular_url":"https://perenual.com/storage/species_image/3196_geum_rivale/regular/51873988810_4363f74f96_b.jpg","medium_url":"https://perenual.com/storage/species_image/3196_geum_rivale/medium/51873988810_4363f74f96_b.jpg","small_url":"https://perenual.com/storage/species_image/3196_geum_rivale/small/51873988810_4363f74f96_b.jpg","thumbnail":"https://perenual.com/storage/species_image/3196_geum_rivale/thumbnail/51873988810_4363f74f96_b.jpg"}},{"id":3197,"common_name":"avens","scientific_name":["Geum 'Sea Breeze'"],"other_name":null,"cycle":"Perennial","watering":"Average","sunlight":["Full sun","part shade"],"default_image":{"image_id":9,"license":5,"license_name":"Attribution-ShareAlike License","license_url":"https://creativecommons.org/licenses/by-sa/2.0/","original_url":"https://perenual.com/storage/species_image/2_abies_alba_pyramidalis/og/49255769768_df55596553_b.jpg","regular_url":"https://perenual.com/storage/species_image/2_abies_alba_pyramidalis/regular/49255769768_df55596553_b.jpg","medium_url":"https://perenual.com/storage/species_image/2_abies_alba_pyramidalis/medium/49255769768_df55596553_b.jpg","small_url":"https://perenual.com/storage/species_image/2_abies_alba_pyramidalis/small/49255769768_df55596553_b.jpg","thumbnail":"https://perenual.com/storage/species_image/2_abies_alba_pyramidalis/thumbnail/49255769768_df55596553_b.jpg"}},{"id":3198,"common_name":"avens","scientific_name":["Geum 'Tngeupp' PRETTICOATS PEACH"],"other_name":null,"cycle":"Perennial","watering":"Average","sunlight":["Full sun","part shade"],"default_image":{"image_id":9,"license":5,"license_name":"Attribution-ShareAlike License","license_url":"https://creativecommons.org/licenses/by-sa/2.0/","original_url":"https://perenual.com/storage/species_image/2_abies_alba_pyramidalis/og/49255769768_df55596553_b.jpg","regular_url":"https://perenual.com/storage/species_image/2_abies_alba_pyramidalis/regular/49255769768_df55596553_b.jpg","medium_url":"https://perenual.com/storage/species_image/2_abies_alba_pyramidalis/medium/49255769768_df55596553_b.jpg","small_url":"https://perenual.com/storage/species_image/2_abies_alba_pyramidalis/small/49255769768_df55596553_b.jpg","thumbnail":"https://perenual.com/storage/species_image/2_abies_alba_pyramidalis/thumbnail/49255769768_df55596553_b.jpg"}},{"id":3199,"common_name":"avens","scientific_name":["Geum 'Top Shelf Margarita'"],"other_name":null,"cycle":"Perennial","watering":"Average","sunlight":["Full sun","part shade"],"default_image":{"image_id":9,"license":5,"license_name":"Attribution-ShareAlike License","license_url":"https://creativecommons.org/licenses/by-sa/2.0/","original_url":"https://perenual.com/storage/species_image/2_abies_alba_pyramidalis/og/49255769768_df55596553_b.jpg","regular_url":"https://perenual.com/storage/species_image/2_abies_alba_pyramidalis/regular/49255769768_df55596553_b.jpg","medium_url":"https://perenual.com/storage/species_image/2_abies_alba_pyramidalis/medium/49255769768_df55596553_b.jpg","small_url":"https://perenual.com/storage/species_image/2_abies_alba_pyramidalis/small/49255769768_df55596553_b.jpg","thumbnail":"https://perenual.com/storage/species_image/2_abies_alba_pyramidalis/thumbnail/49255769768_df55596553_b.jpg"}},{"id":3200,"common_name":"avens","scientific_name":["Geum 'Totally Tangerine'"],"other_name":null,"cycle":"Perennial","watering":"Average","sunlight":["Full sun","part shade"],"default_image":{"image_id":6861,"license":5,"license_name":"Attribution-ShareAlike License","license_url":"https://creativecommons.org/licenses/by-sa/2.0/","original_url":"https://perenual.com/storage/species_image/3200_geum_totally_tangerine/og/33321423620_75abb18c56_b.jpg","regular_url":"https://perenual.com/storage/species_image/3200_geum_totally_tangerine/regular/33321423620_75abb18c56_b.jpg","medium_url":"https://perenual.com/storage/species_image/3200_geum_totally_tangerine/medium/33321423620_75abb18c56_b.jpg","small_url":"https://perenual.com/storage/species_image/3200_geum_totally_tangerine/small/33321423620_75abb18c56_b.jpg","thumbnail":"https://perenual.com/storage/species_image/3200_geum_totally_tangerine/thumbnail/33321423620_75abb18c56_b.jpg"}},{"id":3201,"common_name":"prairie smoke","scientific_name":["Geum triflorum"],"other_name":null,"cycle":"Perennial","watering":"Minimum","sunlight":["Full sun"],"default_image":{"image_id":9,"license":5,"license_name":"Attribution-ShareAlike License","license_url":"https://creativecommons.org/licenses/by-sa/2.0/","original_url":"https://perenual.com/storage/species_image/2_abies_alba_pyramidalis/og/49255769768_df55596553_b.jpg","regular_url":"https://perenual.com/storage/species_image/2_abies_alba_pyramidalis/regular/49255769768_df55596553_b.jpg","medium_url":"https://perenual.com/storage/species_image/2_abies_alba_pyramidalis/medium/49255769768_df55596553_b.jpg","small_url":"https://perenual.com/storage/species_image/2_abies_alba_pyramidalis/small/49255769768_df55596553_b.jpg","thumbnail":"https://perenual.com/storage/species_image/2_abies_alba_pyramidalis/thumbnail/49255769768_df55596553_b.jpg"}},{"id":3202,"common_name":"American ipecac","scientific_name":["Gillenia stipulata"],"other_name":null,"cycle":"Perennial","watering":"Average","sunlight":["Part shade"],"default_image":{"image_id":9,"license":5,"license_name":"Attribution-ShareAlike License","license_url":"https://creativecommons.org/licenses/by-sa/2.0/","original_url":"https://perenual.com/storage/species_image/2_abies_alba_pyramidalis/og/49255769768_df55596553_b.jpg","regular_url":"https://perenual.com/storage/species_image/2_abies_alba_pyramidalis/regular/49255769768_df55596553_b.jpg","medium_url":"https://perenual.com/storage/species_image/2_abies_alba_pyramidalis/medium/49255769768_df55596553_b.jpg","small_url":"https://perenual.com/storage/species_image/2_abies_alba_pyramidalis/small/49255769768_df55596553_b.jpg","thumbnail":"https://perenual.com/storage/species_image/2_abies_alba_pyramidalis/thumbnail/49255769768_df55596553_b.jpg"}},{"id":3203,"common_name":"maidenhair tree","scientific_name":["Ginkgo biloba 'Chi-Chi'"],"other_name":["Maidenhair Tree","ginkgo"],"cycle":"Perennial","watering":"Average","sunlight":["Full sun"],"default_image":{"image_id":9,"license":5,"license_name":"Attribution-ShareAlike License","license_url":"https://creativecommons.org/licenses/by-sa/2.0/","original_url":"https://perenual.com/storage/species_image/2_abies_alba_pyramidalis/og/49255769768_df55596553_b.jpg","regular_url":"https://perenual.com/storage/species_image/2_abies_alba_pyramidalis/regular/49255769768_df55596553_b.jpg","medium_url":"https://perenual.com/storage/species_image/2_abies_alba_pyramidalis/medium/49255769768_df55596553_b.jpg","small_url":"https://perenual.com/storage/species_image/2_abies_alba_pyramidalis/small/49255769768_df55596553_b.jpg","thumbnail":"https://perenual.com/storage/species_image/2_abies_alba_pyramidalis/thumbnail/49255769768_df55596553_b.jpg"}},{"id":3204,"common_name":"maidenhair tree","scientific_name":["Ginkgo biloba 'Fastigiata'"],"other_name":["Maidenhair Tree","ginkgo"],"cycle":"Perennial","watering":"Average","sunlight":["Full sun"],"default_image":{"image_id":6867,"license":4,"license_name":"Attribution License","license_url":"https://creativecommons.org/licenses/by/2.0/","original_url":"https://perenual.com/storage/species_image/3204_ginkgo_biloba_fastigiata/og/7276202460_175ae2af07_b.jpg","regular_url":"https://perenual.com/storage/species_image/3204_ginkgo_biloba_fastigiata/regular/7276202460_175ae2af07_b.jpg","medium_url":"https://perenual.com/storage/species_image/3204_ginkgo_biloba_fastigiata/medium/7276202460_175ae2af07_b.jpg","small_url":"https://perenual.com/storage/species_image/3204_ginkgo_biloba_fastigiata/small/7276202460_175ae2af07_b.jpg","thumbnail":"https://perenual.com/storage/species_image/3204_ginkgo_biloba_fastigiata/thumbnail/7276202460_175ae2af07_b.jpg"}},{"id":3205,"common_name":"maidenhair tree","scientific_name":["Ginkgo biloba 'Jade Butterflies'"],"other_name":["Maidenhair Tree","ginkgo"],"cycle":"Perennial","watering":"Average","sunlight":["Full sun"],"default_image":{"image_id":6869,"license":5,"license_name":"Attribution-ShareAlike License","license_url":"https://creativecommons.org/licenses/by-sa/2.0/","original_url":"https://perenual.com/storage/species_image/3205_ginkgo_biloba_jade_butterflies/og/10299460684_49893258fc_b.jpg","regular_url":"https://perenual.com/storage/species_image/3205_ginkgo_biloba_jade_butterflies/regular/10299460684_49893258fc_b.jpg","medium_url":"https://perenual.com/storage/species_image/3205_ginkgo_biloba_jade_butterflies/medium/10299460684_49893258fc_b.jpg","small_url":"https://perenual.com/storage/species_image/3205_ginkgo_biloba_jade_butterflies/small/10299460684_49893258fc_b.jpg","thumbnail":"https://perenual.com/storage/species_image/3205_ginkgo_biloba_jade_butterflies/thumbnail/10299460684_49893258fc_b.jpg"}},{"id":3206,"common_name":"maidenhair tree","scientific_name":["Ginkgo biloba 'JN9' SKY TOWER"],"other_name":["Maidenhair Tree","ginkgo"],"cycle":"Perennial","watering":"Average","sunlight":["Full sun"],"default_image":{"image_id":9,"license":5,"license_name":"Attribution-ShareAlike License","license_url":"https://creativecommons.org/licenses/by-sa/2.0/","original_url":"https://perenual.com/storage/species_image/2_abies_alba_pyramidalis/og/49255769768_df55596553_b.jpg","regular_url":"https://perenual.com/storage/species_image/2_abies_alba_pyramidalis/regular/49255769768_df55596553_b.jpg","medium_url":"https://perenual.com/storage/species_image/2_abies_alba_pyramidalis/medium/49255769768_df55596553_b.jpg","small_url":"https://perenual.com/storage/species_image/2_abies_alba_pyramidalis/small/49255769768_df55596553_b.jpg","thumbnail":"https://perenual.com/storage/species_image/2_abies_alba_pyramidalis/thumbnail/49255769768_df55596553_b.jpg"}},{"id":3207,"common_name":"maidenhair tree","scientific_name":["Ginkgo biloba 'Mariken'"],"other_name":["Maidenhair Tree","ginkgo"],"cycle":"Perennial","watering":"Average","sunlight":["Full sun"],"default_image":{"image_id":9,"license":5,"license_name":"Attribution-ShareAlike License","license_url":"https://creativecommons.org/licenses/by-sa/2.0/","original_url":"https://perenual.com/storage/species_image/2_abies_alba_pyramidalis/og/49255769768_df55596553_b.jpg","regular_url":"https://perenual.com/storage/species_image/2_abies_alba_pyramidalis/regular/49255769768_df55596553_b.jpg","medium_url":"https://perenual.com/storage/species_image/2_abies_alba_pyramidalis/medium/49255769768_df55596553_b.jpg","small_url":"https://perenual.com/storage/species_image/2_abies_alba_pyramidalis/small/49255769768_df55596553_b.jpg","thumbnail":"https://perenual.com/storage/species_image/2_abies_alba_pyramidalis/thumbnail/49255769768_df55596553_b.jpg"}},{"id":3208,"common_name":"maidenhair tree","scientific_name":["Ginkgo biloba (Pendula Group)"],"other_name":["Maidenhair Tree","ginkgo"],"cycle":"Perennial","watering":"Average","sunlight":["Full sun"],"default_image":{"image_id":6873,"license":5,"license_name":"Attribution-ShareAlike License","license_url":"https://creativecommons.org/licenses/by-sa/2.0/","original_url":"https://perenual.com/storage/species_image/3208_ginkgo_biloba_pendula_group/og/51664388862_f65d19cd92_b.jpg","regular_url":"https://perenual.com/storage/species_image/3208_ginkgo_biloba_pendula_group/regular/51664388862_f65d19cd92_b.jpg","medium_url":"https://perenual.com/storage/species_image/3208_ginkgo_biloba_pendula_group/medium/51664388862_f65d19cd92_b.jpg","small_url":"https://perenual.com/storage/species_image/3208_ginkgo_biloba_pendula_group/small/51664388862_f65d19cd92_b.jpg","thumbnail":"https://perenual.com/storage/species_image/3208_ginkgo_biloba_pendula_group/thumbnail/51664388862_f65d19cd92_b.jpg"}},{"id":3209,"common_name":"maidenhair tree","scientific_name":["Ginkgo biloba 'Praga'"],"other_name":["Maidenhair Tree","ginkgo"],"cycle":"Perennial","watering":"Average","sunlight":["Full sun"],"default_image":{"image_id":9,"license":5,"license_name":"Attribution-ShareAlike License","license_url":"https://creativecommons.org/licenses/by-sa/2.0/","original_url":"https://perenual.com/storage/species_image/2_abies_alba_pyramidalis/og/49255769768_df55596553_b.jpg","regular_url":"https://perenual.com/storage/species_image/2_abies_alba_pyramidalis/regular/49255769768_df55596553_b.jpg","medium_url":"https://perenual.com/storage/species_image/2_abies_alba_pyramidalis/medium/49255769768_df55596553_b.jpg","small_url":"https://perenual.com/storage/species_image/2_abies_alba_pyramidalis/small/49255769768_df55596553_b.jpg","thumbnail":"https://perenual.com/storage/species_image/2_abies_alba_pyramidalis/thumbnail/49255769768_df55596553_b.jpg"}},{"id":3210,"common_name":"maidenhair tree","scientific_name":["Ginkgo biloba 'Shangri-La'"],"other_name":["Maidenhair Tree","ginkgo"],"cycle":"Perennial","watering":"Average","sunlight":["Full sun"],"default_image":{"image_id":9,"license":5,"license_name":"Attribution-ShareAlike License","license_url":"https://creativecommons.org/licenses/by-sa/2.0/","original_url":"https://perenual.com/storage/species_image/2_abies_alba_pyramidalis/og/49255769768_df55596553_b.jpg","regular_url":"https://perenual.com/storage/species_image/2_abies_alba_pyramidalis/regular/49255769768_df55596553_b.jpg","medium_url":"https://perenual.com/storage/species_image/2_abies_alba_pyramidalis/medium/49255769768_df55596553_b.jpg","small_url":"https://perenual.com/storage/species_image/2_abies_alba_pyramidalis/small/49255769768_df55596553_b.jpg","thumbnail":"https://perenual.com/storage/species_image/2_abies_alba_pyramidalis/thumbnail/49255769768_df55596553_b.jpg"}}],"to":3210,"per_page":30,"current_page":107,"from":3181,"last_page":200,"total":6000}