{"data":[{"id":4981,"common_name":"honeysuckle","scientific_name":["Lonicera heckrottii 'Gold Flame'"],"other_name":null,"cycle":"Perennial","watering":"Average","sunlight":["Full sun","part shade"],"default_image":{"image_id":10577,"license":4,"license_name":"Attribution License","license_url":"https://creativecommons.org/licenses/by/2.0/","original_url":"https://perenual.com/storage/species_image/4981_lonicera_heckrottii_gold_flame/og/21990186889_5ce83ea0f3_b.jpg","regular_url":"https://perenual.com/storage/species_image/4981_lonicera_heckrottii_gold_flame/regular/21990186889_5ce83ea0f3_b.jpg","medium_url":"https://perenual.com/storage/species_image/4981_lonicera_heckrottii_gold_flame/medium/21990186889_5ce83ea0f3_b.jpg","small_url":"https://perenual.com/storage/species_image/4981_lonicera_heckrottii_gold_flame/small/21990186889_5ce83ea0f3_b.jpg","thumbnail":"https://perenual.com/storage/species_image/4981_lonicera_heckrottii_gold_flame/thumbnail/21990186889_5ce83ea0f3_b.jpg"}},{"id":4982,"common_name":"twinberry","scientific_name":["Lonicera involucrata"],"other_name":["bearberry honeysuckle"],"cycle":"Perennial","watering":"Frequent","sunlight":["Full sun Partial sun Shade"],"default_image":{"image_id":10587,"license":5,"license_name":"Attribution-ShareAlike License","license_url":"https://creativecommons.org/licenses/by-sa/2.0/","original_url":"https://perenual.com/storage/species_image/4982_lonicera_involucrata/og/51393055097_14c9daa6aa_b.jpg","regular_url":"https://perenual.com/storage/species_image/4982_lonicera_involucrata/regular/51393055097_14c9daa6aa_b.jpg","medium_url":"https://perenual.com/storage/species_image/4982_lonicera_involucrata/medium/51393055097_14c9daa6aa_b.jpg","small_url":"https://perenual.com/storage/species_image/4982_lonicera_involucrata/small/51393055097_14c9daa6aa_b.jpg","thumbnail":"https://perenual.com/storage/species_image/4982_lonicera_involucrata/thumbnail/51393055097_14c9daa6aa_b.jpg"}},{"id":4983,"common_name":"honeysuckle","scientific_name":["Lonicera italica 'Sherlite' HARLEQUIN"],"other_name":null,"cycle":"Perennial","watering":"Average","sunlight":["Full sun","part shade"],"default_image":{"image_id":10595,"license":4,"license_name":"Attribution License","license_url":"https://creativecommons.org/licenses/by/2.0/","original_url":"https://perenual.com/storage/species_image/4983_lonicera_italica_sherlite_harlequin/og/52221969603_88195b3c89_b.jpg","regular_url":"https://perenual.com/storage/species_image/4983_lonicera_italica_sherlite_harlequin/regular/52221969603_88195b3c89_b.jpg","medium_url":"https://perenual.com/storage/species_image/4983_lonicera_italica_sherlite_harlequin/medium/52221969603_88195b3c89_b.jpg","small_url":"https://perenual.com/storage/species_image/4983_lonicera_italica_sherlite_harlequin/small/52221969603_88195b3c89_b.jpg","thumbnail":"https://perenual.com/storage/species_image/4983_lonicera_italica_sherlite_harlequin/thumbnail/52221969603_88195b3c89_b.jpg"}},{"id":4984,"common_name":"Japanese honeysuckle","scientific_name":["Lonicera japonica 'Aureoreticulata'"],"other_name":null,"cycle":"Perennial","watering":"Minimum","sunlight":["Full sun"," Part sun/part shade"],"default_image":{"image_id":21941,"license":45,"license_name":"Attribution-ShareAlike 3.0 Unported (CC BY-SA 3.0)","license_url":"https://creativecommons.org/licenses/by-sa/3.0/deed.en","original_url":"https://perenual.com/storage/species_image/4984_lonicera_japonica_aureoreticulata/og/Lonicera_japonica_Aureoreticulata_2015-07-15_4182.jpg","regular_url":"https://perenual.com/storage/species_image/4984_lonicera_japonica_aureoreticulata/regular/Lonicera_japonica_Aureoreticulata_2015-07-15_4182.jpg","medium_url":"https://perenual.com/storage/species_image/4984_lonicera_japonica_aureoreticulata/medium/Lonicera_japonica_Aureoreticulata_2015-07-15_4182.jpg","small_url":"https://perenual.com/storage/species_image/4984_lonicera_japonica_aureoreticulata/small/Lonicera_japonica_Aureoreticulata_2015-07-15_4182.jpg","thumbnail":"https://perenual.com/storage/species_image/4984_lonicera_japonica_aureoreticulata/thumbnail/Lonicera_japonica_Aureoreticulata_2015-07-15_4182.jpg"}},{"id":4985,"common_name":"Japanese honeysuckle","scientific_name":["Lonicera japonica 'Halliana'"],"other_name":null,"cycle":"Perennial","watering":"Minimum","sunlight":["Full sun"," Part sun/part shade"],"default_image":{"image_id":10597,"license":4,"license_name":"Attribution License","license_url":"https://creativecommons.org/licenses/by/2.0/","original_url":"https://perenual.com/storage/species_image/4985_lonicera_japonica_halliana/og/52046416933_4486b1a80b_b.jpg","regular_url":"https://perenual.com/storage/species_image/4985_lonicera_japonica_halliana/regular/52046416933_4486b1a80b_b.jpg","medium_url":"https://perenual.com/storage/species_image/4985_lonicera_japonica_halliana/medium/52046416933_4486b1a80b_b.jpg","small_url":"https://perenual.com/storage/species_image/4985_lonicera_japonica_halliana/small/52046416933_4486b1a80b_b.jpg","thumbnail":"https://perenual.com/storage/species_image/4985_lonicera_japonica_halliana/thumbnail/52046416933_4486b1a80b_b.jpg"}},{"id":4986,"common_name":"honeyberry","scientific_name":["Lonicera kamtschatica"],"other_name":null,"cycle":"Perennial","watering":"Average","sunlight":["Part shade"],"default_image":{"image_id":10600,"license":5,"license_name":"Attribution-ShareAlike License","license_url":"https://creativecommons.org/licenses/by-sa/2.0/","original_url":"https://perenual.com/storage/species_image/4986_lonicera_kamtschatica/og/27589046126_1b9d15c3c4_b.jpg","regular_url":"https://perenual.com/storage/species_image/4986_lonicera_kamtschatica/regular/27589046126_1b9d15c3c4_b.jpg","medium_url":"https://perenual.com/storage/species_image/4986_lonicera_kamtschatica/medium/27589046126_1b9d15c3c4_b.jpg","small_url":"https://perenual.com/storage/species_image/4986_lonicera_kamtschatica/small/27589046126_1b9d15c3c4_b.jpg","thumbnail":"https://perenual.com/storage/species_image/4986_lonicera_kamtschatica/thumbnail/27589046126_1b9d15c3c4_b.jpg"}},{"id":4987,"common_name":"honeysuckle","scientific_name":["Lonicera 'Kintzley's Ghost'"],"other_name":null,"cycle":"Perennial","watering":"Average","sunlight":["Full sun","part shade"],"default_image":{"image_id":9,"license":5,"license_name":"Attribution-ShareAlike License","license_url":"https://creativecommons.org/licenses/by-sa/2.0/","original_url":"https://perenual.com/storage/species_image/2_abies_alba_pyramidalis/og/49255769768_df55596553_b.jpg","regular_url":"https://perenual.com/storage/species_image/2_abies_alba_pyramidalis/regular/49255769768_df55596553_b.jpg","medium_url":"https://perenual.com/storage/species_image/2_abies_alba_pyramidalis/medium/49255769768_df55596553_b.jpg","small_url":"https://perenual.com/storage/species_image/2_abies_alba_pyramidalis/small/49255769768_df55596553_b.jpg","thumbnail":"https://perenual.com/storage/species_image/2_abies_alba_pyramidalis/thumbnail/49255769768_df55596553_b.jpg"}},{"id":4988,"common_name":"honeysuckle","scientific_name":["Lonicera ligustrina var. yunnanensis"],"other_name":null,"cycle":"Perennial","watering":"Average","sunlight":["Full sun","part shade"],"default_image":{"image_id":9,"license":5,"license_name":"Attribution-ShareAlike License","license_url":"https://creativecommons.org/licenses/by-sa/2.0/","original_url":"https://perenual.com/storage/species_image/2_abies_alba_pyramidalis/og/49255769768_df55596553_b.jpg","regular_url":"https://perenual.com/storage/species_image/2_abies_alba_pyramidalis/regular/49255769768_df55596553_b.jpg","medium_url":"https://perenual.com/storage/species_image/2_abies_alba_pyramidalis/medium/49255769768_df55596553_b.jpg","small_url":"https://perenual.com/storage/species_image/2_abies_alba_pyramidalis/small/49255769768_df55596553_b.jpg","thumbnail":"https://perenual.com/storage/species_image/2_abies_alba_pyramidalis/thumbnail/49255769768_df55596553_b.jpg"}},{"id":4989,"common_name":"Amur honeysuckle","scientific_name":["Lonicera maackii"],"other_name":null,"cycle":"Perennial","watering":"Average","sunlight":["Full sun","part shade"],"default_image":{"image_id":10605,"license":5,"license_name":"Attribution-ShareAlike License","license_url":"https://creativecommons.org/licenses/by-sa/2.0/","original_url":"https://perenual.com/storage/species_image/4989_lonicera_maackii/og/34049033854_1cb9297a7a_b.jpg","regular_url":"https://perenual.com/storage/species_image/4989_lonicera_maackii/regular/34049033854_1cb9297a7a_b.jpg","medium_url":"https://perenual.com/storage/species_image/4989_lonicera_maackii/medium/34049033854_1cb9297a7a_b.jpg","small_url":"https://perenual.com/storage/species_image/4989_lonicera_maackii/small/34049033854_1cb9297a7a_b.jpg","thumbnail":"https://perenual.com/storage/species_image/4989_lonicera_maackii/thumbnail/34049033854_1cb9297a7a_b.jpg"}},{"id":4990,"common_name":"morrow honeysuckle","scientific_name":["Lonicera morrowii"],"other_name":null,"cycle":"Perennial","watering":"Average","sunlight":["Full sun","part shade"],"default_image":{"image_id":10614,"license":4,"license_name":"Attribution License","license_url":"https://creativecommons.org/licenses/by/2.0/","original_url":"https://perenual.com/storage/species_image/4990_lonicera_morrowii/og/8431977381_cdf6b01c63_b.jpg","regular_url":"https://perenual.com/storage/species_image/4990_lonicera_morrowii/regular/8431977381_cdf6b01c63_b.jpg","medium_url":"https://perenual.com/storage/species_image/4990_lonicera_morrowii/medium/8431977381_cdf6b01c63_b.jpg","small_url":"https://perenual.com/storage/species_image/4990_lonicera_morrowii/small/8431977381_cdf6b01c63_b.jpg","thumbnail":"https://perenual.com/storage/species_image/4990_lonicera_morrowii/thumbnail/8431977381_cdf6b01c63_b.jpg"}},{"id":4991,"common_name":"honeysuckle","scientific_name":["Lonicera nitida 'Twiggy'"],"other_name":null,"cycle":"Perennial","watering":"Average","sunlight":["Part sun/part shade"],"default_image":{"image_id":9,"license":5,"license_name":"Attribution-ShareAlike License","license_url":"https://creativecommons.org/licenses/by-sa/2.0/","original_url":"https://perenual.com/storage/species_image/2_abies_alba_pyramidalis/og/49255769768_df55596553_b.jpg","regular_url":"https://perenual.com/storage/species_image/2_abies_alba_pyramidalis/regular/49255769768_df55596553_b.jpg","medium_url":"https://perenual.com/storage/species_image/2_abies_alba_pyramidalis/medium/49255769768_df55596553_b.jpg","small_url":"https://perenual.com/storage/species_image/2_abies_alba_pyramidalis/small/49255769768_df55596553_b.jpg","thumbnail":"https://perenual.com/storage/species_image/2_abies_alba_pyramidalis/thumbnail/49255769768_df55596553_b.jpg"}},{"id":4992,"common_name":"woodbine","scientific_name":["Lonicera periclymenum 'Serotina'"],"other_name":null,"cycle":"Perennial","watering":"Average","sunlight":["Full sun","part shade"],"default_image":{"image_id":10615,"license":5,"license_name":"Attribution-ShareAlike License","license_url":"https://creativecommons.org/licenses/by-sa/2.0/","original_url":"https://perenual.com/storage/species_image/4992_lonicera_periclymenum_serotina/og/9255177562_ba27cd6d64_b.jpg","regular_url":"https://perenual.com/storage/species_image/4992_lonicera_periclymenum_serotina/regular/9255177562_ba27cd6d64_b.jpg","medium_url":"https://perenual.com/storage/species_image/4992_lonicera_periclymenum_serotina/medium/9255177562_ba27cd6d64_b.jpg","small_url":"https://perenual.com/storage/species_image/4992_lonicera_periclymenum_serotina/small/9255177562_ba27cd6d64_b.jpg","thumbnail":"https://perenual.com/storage/species_image/4992_lonicera_periclymenum_serotina/thumbnail/9255177562_ba27cd6d64_b.jpg"}},{"id":4993,"common_name":"privet honeysuckle","scientific_name":["Lonicera pileata 'Moss Green'"],"other_name":null,"cycle":"Perennial","watering":"Average","sunlight":["Full sun"," Part sun/part shade"],"default_image":{"image_id":10616,"license":4,"license_name":"Attribution License","license_url":"https://creativecommons.org/licenses/by/2.0/","original_url":"https://perenual.com/storage/species_image/4993_lonicera_pileata_moss_green/og/7094222989_c1ffea74a3_b.jpg","regular_url":"https://perenual.com/storage/species_image/4993_lonicera_pileata_moss_green/regular/7094222989_c1ffea74a3_b.jpg","medium_url":"https://perenual.com/storage/species_image/4993_lonicera_pileata_moss_green/medium/7094222989_c1ffea74a3_b.jpg","small_url":"https://perenual.com/storage/species_image/4993_lonicera_pileata_moss_green/small/7094222989_c1ffea74a3_b.jpg","thumbnail":"https://perenual.com/storage/species_image/4993_lonicera_pileata_moss_green/thumbnail/7094222989_c1ffea74a3_b.jpg"}},{"id":4994,"common_name":"trumpet honeysuckle","scientific_name":["Lonicera sempervirens"],"other_name":null,"cycle":"Perennial","watering":"Average","sunlight":["Full sun"],"default_image":{"image_id":10620,"license":6,"license_name":"Attribution-NoDerivs License","license_url":"https://creativecommons.org/licenses/by-nd/2.0/","original_url":"https://perenual.com/storage/species_image/4994_lonicera_sempervirens/og/52047356792_22034c8a69_b.jpg"}},{"id":4995,"common_name":"trumpet honeysuckle","scientific_name":["Lonicera sempervirens 'Alabama Crimson'"],"other_name":null,"cycle":"Perennial","watering":"Average","sunlight":["Full sun"],"default_image":{"image_id":9,"license":5,"license_name":"Attribution-ShareAlike License","license_url":"https://creativecommons.org/licenses/by-sa/2.0/","original_url":"https://perenual.com/storage/species_image/2_abies_alba_pyramidalis/og/49255769768_df55596553_b.jpg","regular_url":"https://perenual.com/storage/species_image/2_abies_alba_pyramidalis/regular/49255769768_df55596553_b.jpg","medium_url":"https://perenual.com/storage/species_image/2_abies_alba_pyramidalis/medium/49255769768_df55596553_b.jpg","small_url":"https://perenual.com/storage/species_image/2_abies_alba_pyramidalis/small/49255769768_df55596553_b.jpg","thumbnail":"https://perenual.com/storage/species_image/2_abies_alba_pyramidalis/thumbnail/49255769768_df55596553_b.jpg"}},{"id":4996,"common_name":"trumpet honeysuckle","scientific_name":["Lonicera sempervirens f. sulphurea 'John Clayton'"],"other_name":null,"cycle":"Perennial","watering":"Average","sunlight":["Full sun"],"default_image":{"image_id":9,"license":5,"license_name":"Attribution-ShareAlike License","license_url":"https://creativecommons.org/licenses/by-sa/2.0/","original_url":"https://perenual.com/storage/species_image/2_abies_alba_pyramidalis/og/49255769768_df55596553_b.jpg","regular_url":"https://perenual.com/storage/species_image/2_abies_alba_pyramidalis/regular/49255769768_df55596553_b.jpg","medium_url":"https://perenual.com/storage/species_image/2_abies_alba_pyramidalis/medium/49255769768_df55596553_b.jpg","small_url":"https://perenual.com/storage/species_image/2_abies_alba_pyramidalis/small/49255769768_df55596553_b.jpg","thumbnail":"https://perenual.com/storage/species_image/2_abies_alba_pyramidalis/thumbnail/49255769768_df55596553_b.jpg"}},{"id":4997,"common_name":"Standish's honeysuckle","scientific_name":["Lonicera standishii"],"other_name":null,"cycle":"Perennial","watering":"Average","sunlight":["Full sun","part shade"],"default_image":{"image_id":10624,"license":5,"license_name":"Attribution-ShareAlike License","license_url":"https://creativecommons.org/licenses/by-sa/2.0/","original_url":"https://perenual.com/storage/species_image/4997_lonicera_standishii/og/32308528260_ac01ba7bd7_b.jpg","regular_url":"https://perenual.com/storage/species_image/4997_lonicera_standishii/regular/32308528260_ac01ba7bd7_b.jpg","medium_url":"https://perenual.com/storage/species_image/4997_lonicera_standishii/medium/32308528260_ac01ba7bd7_b.jpg","small_url":"https://perenual.com/storage/species_image/4997_lonicera_standishii/small/32308528260_ac01ba7bd7_b.jpg","thumbnail":"https://perenual.com/storage/species_image/4997_lonicera_standishii/thumbnail/32308528260_ac01ba7bd7_b.jpg"}},{"id":4998,"common_name":"tatarian honeysuckle","scientific_name":["Lonicera tatarica 'Alba'"],"other_name":null,"cycle":"Perennial","watering":"Average","sunlight":["Full sun","part shade"],"default_image":{"image_id":10627,"license":6,"license_name":"Attribution-NoDerivs License","license_url":"https://creativecommons.org/licenses/by-nd/2.0/","original_url":"https://perenual.com/storage/species_image/4998_lonicera_tatarica_alba/og/47452543171_afd3e84e34_b.jpg"}},{"id":4999,"common_name":"dwarf honeysuckle","scientific_name":["Lonicera xylosteum"],"other_name":["shrub honeysuckle"],"cycle":"Perennial","watering":"Average","sunlight":["Full sun"],"default_image":{"image_id":10630,"license":6,"license_name":"Attribution-NoDerivs License","license_url":"https://creativecommons.org/licenses/by-nd/2.0/","original_url":"https://perenual.com/storage/species_image/4999_lonicera_xylosteum/og/51344029867_6190d9fdbb_b.jpg"}},{"id":5000,"common_name":"honeysuckle","scientific_name":["Lonicera yunnanensis"],"other_name":null,"cycle":"Perennial","watering":"Average","sunlight":["Full sun","part shade"],"default_image":{"image_id":9,"license":5,"license_name":"Attribution-ShareAlike License","license_url":"https://creativecommons.org/licenses/by-sa/2.0/","original_url":"https://perenual.com/storage/species_image/2_abies_alba_pyramidalis/og/49255769768_df55596553_b.jpg","regular_url":"https://perenual.com/storage/species_image/2_abies_alba_pyramidalis/regular/49255769768_df55596553_b.jpg","medium_url":"https://perenual.com/storage/species_image/2_abies_alba_pyramidalis/medium/49255769768_df55596553_b.jpg","small_url":"https://perenual.com/storage/species_image/2_abies_alba_pyramidalis/small/49255769768_df55596553_b.jpg","thumbnail":"https://perenual.com/storage/species_image/2_abies_alba_pyramidalis/thumbnail/49255769768_df55596553_b.jpg"}},{"id":5001,"common_name":"Chinese fringe flower","scientific_name":["Loropetalum chinense"],"other_name":null,"cycle":"Perennial","watering":"Average","sunlight":["Full sun","part shade"],"default_image":{"image_id":10645,"license":5,"license_name":"Attribution-ShareAlike License","license_url":"https://creativecommons.org/licenses/by-sa/2.0/","original_url":"https://perenual.com/storage/species_image/5001_loropetalum_chinense/og/51788517798_7ab67840e6_b.jpg","regular_url":"https://perenual.com/storage/species_image/5001_loropetalum_chinense/regular/51788517798_7ab67840e6_b.jpg","medium_url":"https://perenual.com/storage/species_image/5001_loropetalum_chinense/medium/51788517798_7ab67840e6_b.jpg","small_url":"https://perenual.com/storage/species_image/5001_loropetalum_chinense/small/51788517798_7ab67840e6_b.jpg","thumbnail":"https://perenual.com/storage/species_image/5001_loropetalum_chinense/thumbnail/51788517798_7ab67840e6_b.jpg"}},{"id":5002,"common_name":"Chinese fringe-flower","scientific_name":["Loropetalum chinense f. rubrum 'Razzle-Dazzle'"],"other_name":null,"cycle":"Perennial","watering":"Average","sunlight":["Full sun","part shade"],"default_image":{"image_id":9,"license":5,"license_name":"Attribution-ShareAlike License","license_url":"https://creativecommons.org/licenses/by-sa/2.0/","original_url":"https://perenual.com/storage/species_image/2_abies_alba_pyramidalis/og/49255769768_df55596553_b.jpg","regular_url":"https://perenual.com/storage/species_image/2_abies_alba_pyramidalis/regular/49255769768_df55596553_b.jpg","medium_url":"https://perenual.com/storage/species_image/2_abies_alba_pyramidalis/medium/49255769768_df55596553_b.jpg","small_url":"https://perenual.com/storage/species_image/2_abies_alba_pyramidalis/small/49255769768_df55596553_b.jpg","thumbnail":"https://perenual.com/storage/species_image/2_abies_alba_pyramidalis/thumbnail/49255769768_df55596553_b.jpg"}},{"id":5003,"common_name":"Chinese fringe-flower","scientific_name":["Loropetalum chinense 'Pizazz'"],"other_name":null,"cycle":"Perennial","watering":"Average","sunlight":["Full sun","part shade"],"default_image":{"image_id":9,"license":5,"license_name":"Attribution-ShareAlike License","license_url":"https://creativecommons.org/licenses/by-sa/2.0/","original_url":"https://perenual.com/storage/species_image/2_abies_alba_pyramidalis/og/49255769768_df55596553_b.jpg","regular_url":"https://perenual.com/storage/species_image/2_abies_alba_pyramidalis/regular/49255769768_df55596553_b.jpg","medium_url":"https://perenual.com/storage/species_image/2_abies_alba_pyramidalis/medium/49255769768_df55596553_b.jpg","small_url":"https://perenual.com/storage/species_image/2_abies_alba_pyramidalis/small/49255769768_df55596553_b.jpg","thumbnail":"https://perenual.com/storage/species_image/2_abies_alba_pyramidalis/thumbnail/49255769768_df55596553_b.jpg"}},{"id":5004,"common_name":"Chinese fringe-flower","scientific_name":["Loropetalum chinense 'Rubrum'"],"other_name":null,"cycle":"Perennial","watering":"Average","sunlight":["Full sun","part shade"],"default_image":{"image_id":9,"license":5,"license_name":"Attribution-ShareAlike License","license_url":"https://creativecommons.org/licenses/by-sa/2.0/","original_url":"https://perenual.com/storage/species_image/2_abies_alba_pyramidalis/og/49255769768_df55596553_b.jpg","regular_url":"https://perenual.com/storage/species_image/2_abies_alba_pyramidalis/regular/49255769768_df55596553_b.jpg","medium_url":"https://perenual.com/storage/species_image/2_abies_alba_pyramidalis/medium/49255769768_df55596553_b.jpg","small_url":"https://perenual.com/storage/species_image/2_abies_alba_pyramidalis/small/49255769768_df55596553_b.jpg","thumbnail":"https://perenual.com/storage/species_image/2_abies_alba_pyramidalis/thumbnail/49255769768_df55596553_b.jpg"}},{"id":5005,"common_name":"parrot's beak","scientific_name":["Lotus berthelotii"],"other_name":["coral gem","pelican's beak","lotus vine"],"cycle":"Perennial","watering":"Average","sunlight":["Full sun"],"default_image":{"image_id":10652,"license":4,"license_name":"Attribution License","license_url":"https://creativecommons.org/licenses/by/2.0/","original_url":"https://perenual.com/storage/species_image/5005_lotus_berthelotii/og/33723266975_3d0e83b88c_b.jpg","regular_url":"https://perenual.com/storage/species_image/5005_lotus_berthelotii/regular/33723266975_3d0e83b88c_b.jpg","medium_url":"https://perenual.com/storage/species_image/5005_lotus_berthelotii/medium/33723266975_3d0e83b88c_b.jpg","small_url":"https://perenual.com/storage/species_image/5005_lotus_berthelotii/small/33723266975_3d0e83b88c_b.jpg","thumbnail":"https://perenual.com/storage/species_image/5005_lotus_berthelotii/thumbnail/33723266975_3d0e83b88c_b.jpg"}},{"id":5006,"common_name":"bird's foot trefoil","scientific_name":["Lotus corniculatus 'Pleniflorus'"],"other_name":null,"cycle":"Perennial","watering":"Average","sunlight":["Full sun"],"default_image":{"image_id":10658,"license":4,"license_name":"Attribution License","license_url":"https://creativecommons.org/licenses/by/2.0/","original_url":"https://perenual.com/storage/species_image/5006_lotus_corniculatus_pleniflorus/og/52561323111_c1ff3bb02c_b.jpg","regular_url":"https://perenual.com/storage/species_image/5006_lotus_corniculatus_pleniflorus/regular/52561323111_c1ff3bb02c_b.jpg","medium_url":"https://perenual.com/storage/species_image/5006_lotus_corniculatus_pleniflorus/medium/52561323111_c1ff3bb02c_b.jpg","small_url":"https://perenual.com/storage/species_image/5006_lotus_corniculatus_pleniflorus/small/52561323111_c1ff3bb02c_b.jpg","thumbnail":"https://perenual.com/storage/species_image/5006_lotus_corniculatus_pleniflorus/thumbnail/52561323111_c1ff3bb02c_b.jpg"}},{"id":5007,"common_name":"jewel orchid","scientific_name":["Ludisia (group)"],"other_name":null,"cycle":"Perennial","watering":"Average","sunlight":["Part shade"],"default_image":{"image_id":9,"license":5,"license_name":"Attribution-ShareAlike License","license_url":"https://creativecommons.org/licenses/by-sa/2.0/","original_url":"https://perenual.com/storage/species_image/2_abies_alba_pyramidalis/og/49255769768_df55596553_b.jpg","regular_url":"https://perenual.com/storage/species_image/2_abies_alba_pyramidalis/regular/49255769768_df55596553_b.jpg","medium_url":"https://perenual.com/storage/species_image/2_abies_alba_pyramidalis/medium/49255769768_df55596553_b.jpg","small_url":"https://perenual.com/storage/species_image/2_abies_alba_pyramidalis/small/49255769768_df55596553_b.jpg","thumbnail":"https://perenual.com/storage/species_image/2_abies_alba_pyramidalis/thumbnail/49255769768_df55596553_b.jpg"}},{"id":5008,"common_name":"seedbox","scientific_name":["Ludwigia alternifolia"],"other_name":null,"cycle":"Perennial","watering":"Frequent","sunlight":["Full sun","part shade"],"default_image":{"image_id":10663,"license":4,"license_name":"Attribution License","license_url":"https://creativecommons.org/licenses/by/2.0/","original_url":"https://perenual.com/storage/species_image/5008_ludwigia_alternifolia/og/32168779275_fc29bf8657_b.jpg","regular_url":"https://perenual.com/storage/species_image/5008_ludwigia_alternifolia/regular/32168779275_fc29bf8657_b.jpg","medium_url":"https://perenual.com/storage/species_image/5008_ludwigia_alternifolia/medium/32168779275_fc29bf8657_b.jpg","small_url":"https://perenual.com/storage/species_image/5008_ludwigia_alternifolia/small/32168779275_fc29bf8657_b.jpg","thumbnail":"https://perenual.com/storage/species_image/5008_ludwigia_alternifolia/thumbnail/32168779275_fc29bf8657_b.jpg"}},{"id":5009,"common_name":"sponge gourd","scientific_name":["Luffa aegyptiaca"],"other_name":null,"cycle":"Perennial","watering":"Average","sunlight":["Full sun"],"default_image":{"image_id":10665,"license":5,"license_name":"Attribution-ShareAlike License","license_url":"https://creativecommons.org/licenses/by-sa/2.0/","original_url":"https://perenual.com/storage/species_image/5009_luffa_aegyptiaca/og/48879387963_21e67afdbd_b.jpg","regular_url":"https://perenual.com/storage/species_image/5009_luffa_aegyptiaca/regular/48879387963_21e67afdbd_b.jpg","medium_url":"https://perenual.com/storage/species_image/5009_luffa_aegyptiaca/medium/48879387963_21e67afdbd_b.jpg","small_url":"https://perenual.com/storage/species_image/5009_luffa_aegyptiaca/small/48879387963_21e67afdbd_b.jpg","thumbnail":"https://perenual.com/storage/species_image/5009_luffa_aegyptiaca/thumbnail/48879387963_21e67afdbd_b.jpg"}},{"id":5010,"common_name":"annual honesty","scientific_name":["Lunaria annua"],"other_name":["money plant"],"cycle":"Annual","watering":"Average","sunlight":["Full sun"," Part sun/part shade"],"default_image":{"image_id":10666,"license":5,"license_name":"Attribution-ShareAlike License","license_url":"https://creativecommons.org/licenses/by-sa/2.0/","original_url":"https://perenual.com/storage/species_image/5010_lunaria_annua/og/52038749842_5a3c0f6b58_b.jpg","regular_url":"https://perenual.com/storage/species_image/5010_lunaria_annua/regular/52038749842_5a3c0f6b58_b.jpg","medium_url":"https://perenual.com/storage/species_image/5010_lunaria_annua/medium/52038749842_5a3c0f6b58_b.jpg","small_url":"https://perenual.com/storage/species_image/5010_lunaria_annua/small/52038749842_5a3c0f6b58_b.jpg","thumbnail":"https://perenual.com/storage/species_image/5010_lunaria_annua/thumbnail/52038749842_5a3c0f6b58_b.jpg"}}],"to":5010,"per_page":30,"current_page":167,"from":4981,"last_page":200,"total":6000}