{"data":[{"id":2521,"common_name":"shooting star","scientific_name":["Dodecatheon meadia"],"other_name":null,"cycle":"Perennial","watering":"Average","sunlight":["Part shade"],"default_image":{"image_id":5681,"license":5,"license_name":"Attribution-ShareAlike License","license_url":"https://creativecommons.org/licenses/by-sa/2.0/","original_url":"https://perenual.com/storage/species_image/2521_dodecatheon_meadia/og/28261486828_194138fdfe_b.jpg","regular_url":"https://perenual.com/storage/species_image/2521_dodecatheon_meadia/regular/28261486828_194138fdfe_b.jpg","medium_url":"https://perenual.com/storage/species_image/2521_dodecatheon_meadia/medium/28261486828_194138fdfe_b.jpg","small_url":"https://perenual.com/storage/species_image/2521_dodecatheon_meadia/small/28261486828_194138fdfe_b.jpg","thumbnail":"https://perenual.com/storage/species_image/2521_dodecatheon_meadia/thumbnail/28261486828_194138fdfe_b.jpg"}},{"id":2522,"common_name":"leopard's bane","scientific_name":["Doronicum 'Little Leo'"],"other_name":null,"cycle":"Perennial","watering":"Average","sunlight":["Part shade"],"default_image":{"image_id":5685,"license":4,"license_name":"Attribution License","license_url":"https://creativecommons.org/licenses/by/2.0/","original_url":"https://perenual.com/storage/species_image/2522_doronicum_little_leo/og/8729960711_45f820433f_b.jpg","regular_url":"https://perenual.com/storage/species_image/2522_doronicum_little_leo/regular/8729960711_45f820433f_b.jpg","medium_url":"https://perenual.com/storage/species_image/2522_doronicum_little_leo/medium/8729960711_45f820433f_b.jpg","small_url":"https://perenual.com/storage/species_image/2522_doronicum_little_leo/small/8729960711_45f820433f_b.jpg","thumbnail":"https://perenual.com/storage/species_image/2522_doronicum_little_leo/thumbnail/8729960711_45f820433f_b.jpg"}},{"id":2523,"common_name":"leopard's bane","scientific_name":["Doronicum macrophyllum"],"other_name":null,"cycle":"Perennial","watering":"Average","sunlight":["Full sun","part shade"],"default_image":{"image_id":9,"license":5,"license_name":"Attribution-ShareAlike License","license_url":"https://creativecommons.org/licenses/by-sa/2.0/","original_url":"https://perenual.com/storage/species_image/2_abies_alba_pyramidalis/og/49255769768_df55596553_b.jpg","regular_url":"https://perenual.com/storage/species_image/2_abies_alba_pyramidalis/regular/49255769768_df55596553_b.jpg","medium_url":"https://perenual.com/storage/species_image/2_abies_alba_pyramidalis/medium/49255769768_df55596553_b.jpg","small_url":"https://perenual.com/storage/species_image/2_abies_alba_pyramidalis/small/49255769768_df55596553_b.jpg","thumbnail":"https://perenual.com/storage/species_image/2_abies_alba_pyramidalis/thumbnail/49255769768_df55596553_b.jpg"}},{"id":2524,"common_name":"leopard's bane","scientific_name":["Doronicum orientale 'Leonardo Compact'"],"other_name":null,"cycle":"Perennial","watering":"Frequent","sunlight":["Full sun","part shade"],"default_image":{"image_id":9,"license":5,"license_name":"Attribution-ShareAlike License","license_url":"https://creativecommons.org/licenses/by-sa/2.0/","original_url":"https://perenual.com/storage/species_image/2_abies_alba_pyramidalis/og/49255769768_df55596553_b.jpg","regular_url":"https://perenual.com/storage/species_image/2_abies_alba_pyramidalis/regular/49255769768_df55596553_b.jpg","medium_url":"https://perenual.com/storage/species_image/2_abies_alba_pyramidalis/medium/49255769768_df55596553_b.jpg","small_url":"https://perenual.com/storage/species_image/2_abies_alba_pyramidalis/small/49255769768_df55596553_b.jpg","thumbnail":"https://perenual.com/storage/species_image/2_abies_alba_pyramidalis/thumbnail/49255769768_df55596553_b.jpg"}},{"id":2525,"common_name":"livingstone daisy","scientific_name":["Dorotheanthus bellidiformis 'Mesbicla' MEZOO TRAILING RED"],"other_name":null,"cycle":"Perennial","watering":"Minimum","sunlight":["Full sun"],"default_image":{"image_id":5693,"license":5,"license_name":"Attribution-ShareAlike License","license_url":"https://creativecommons.org/licenses/by-sa/2.0/","original_url":"https://perenual.com/storage/species_image/2525_dorotheanthus_bellidiformis_mesbicla_mezoo_trailing_red/og/4067589256_8951787bde_b.jpg","regular_url":"https://perenual.com/storage/species_image/2525_dorotheanthus_bellidiformis_mesbicla_mezoo_trailing_red/regular/4067589256_8951787bde_b.jpg","medium_url":"https://perenual.com/storage/species_image/2525_dorotheanthus_bellidiformis_mesbicla_mezoo_trailing_red/medium/4067589256_8951787bde_b.jpg","small_url":"https://perenual.com/storage/species_image/2525_dorotheanthus_bellidiformis_mesbicla_mezoo_trailing_red/small/4067589256_8951787bde_b.jpg","thumbnail":"https://perenual.com/storage/species_image/2525_dorotheanthus_bellidiformis_mesbicla_mezoo_trailing_red/thumbnail/4067589256_8951787bde_b.jpg"}},{"id":2526,"common_name":"draba","scientific_name":["Draba rigida"],"other_name":null,"cycle":"Perennial","watering":"Average","sunlight":["Full sun"],"default_image":{"image_id":5695,"license":4,"license_name":"Attribution License","license_url":"https://creativecommons.org/licenses/by/2.0/","original_url":"https://perenual.com/storage/species_image/2526_draba_rigida/og/52330829981_d2482b12f5_b.jpg","regular_url":"https://perenual.com/storage/species_image/2526_draba_rigida/regular/52330829981_d2482b12f5_b.jpg","medium_url":"https://perenual.com/storage/species_image/2526_draba_rigida/medium/52330829981_d2482b12f5_b.jpg","small_url":"https://perenual.com/storage/species_image/2526_draba_rigida/small/52330829981_d2482b12f5_b.jpg","thumbnail":"https://perenual.com/storage/species_image/2526_draba_rigida/thumbnail/52330829981_d2482b12f5_b.jpg"}},{"id":2527,"common_name":"draba","scientific_name":["Draba rigida var. bryoides"],"other_name":null,"cycle":"Perennial","watering":"Average","sunlight":["Full sun"],"default_image":{"image_id":5697,"license":5,"license_name":"Attribution-ShareAlike License","license_url":"https://creativecommons.org/licenses/by-sa/2.0/","original_url":"https://perenual.com/storage/species_image/2527_draba_rigida_var_bryoides/og/52416667205_4ff913281c_b.jpg","regular_url":"https://perenual.com/storage/species_image/2527_draba_rigida_var_bryoides/regular/52416667205_4ff913281c_b.jpg","medium_url":"https://perenual.com/storage/species_image/2527_draba_rigida_var_bryoides/medium/52416667205_4ff913281c_b.jpg","small_url":"https://perenual.com/storage/species_image/2527_draba_rigida_var_bryoides/small/52416667205_4ff913281c_b.jpg","thumbnail":"https://perenual.com/storage/species_image/2527_draba_rigida_var_bryoides/thumbnail/52416667205_4ff913281c_b.jpg"}},{"id":2528,"common_name":"fragrant dracaena","scientific_name":["Dracaena fragrans"],"other_name":["cornstalk dracaena","striped dracaena"],"cycle":"Perennial","watering":"Average","sunlight":["Part shade"],"default_image":{"image_id":5698,"license":4,"license_name":"Attribution License","license_url":"https://creativecommons.org/licenses/by/2.0/","original_url":"https://perenual.com/storage/species_image/2528_dracaena_fragrans/og/52063786587_babb0e50c7_b.jpg","regular_url":"https://perenual.com/storage/species_image/2528_dracaena_fragrans/regular/52063786587_babb0e50c7_b.jpg","medium_url":"https://perenual.com/storage/species_image/2528_dracaena_fragrans/medium/52063786587_babb0e50c7_b.jpg","small_url":"https://perenual.com/storage/species_image/2528_dracaena_fragrans/small/52063786587_babb0e50c7_b.jpg","thumbnail":"https://perenual.com/storage/species_image/2528_dracaena_fragrans/thumbnail/52063786587_babb0e50c7_b.jpg"}},{"id":2529,"common_name":"striped dracaena","scientific_name":["Dracaena fragrans (Deremensis Group) 'Lemon Lime'"],"other_name":null,"cycle":"Perennial","watering":"Average","sunlight":["Part shade"],"default_image":{"image_id":5699,"license":451,"license_name":"CC0 1.0 Universal (CC0 1.0) Public Domain Dedication","license_url":"https://creativecommons.org/publicdomain/zero/1.0/","original_url":"https://perenual.com/storage/species_image/2529_dracaena_fragrans_deremensis_group_lemon_lime/og/stripe-leaves.jpg","regular_url":"https://perenual.com/storage/species_image/2529_dracaena_fragrans_deremensis_group_lemon_lime/regular/stripe-leaves.jpg","medium_url":"https://perenual.com/storage/species_image/2529_dracaena_fragrans_deremensis_group_lemon_lime/medium/stripe-leaves.jpg","small_url":"https://perenual.com/storage/species_image/2529_dracaena_fragrans_deremensis_group_lemon_lime/small/stripe-leaves.jpg","thumbnail":"https://perenual.com/storage/species_image/2529_dracaena_fragrans_deremensis_group_lemon_lime/thumbnail/stripe-leaves.jpg"}},{"id":2530,"common_name":"striped dracaena","scientific_name":["Dracaena fragrans (Deremensis Group) 'Limelight'"],"other_name":null,"cycle":"Perennial","watering":"Average","sunlight":["Part shade"],"default_image":{"image_id":5700,"license":451,"license_name":"CC0 1.0 Universal (CC0 1.0) Public Domain Dedication","license_url":"https://creativecommons.org/publicdomain/zero/1.0/","original_url":"https://perenual.com/storage/species_image/2530_dracaena_fragrans_deremensis_group_limelight/og/pexels-photo-6913644.jpg","regular_url":"https://perenual.com/storage/species_image/2530_dracaena_fragrans_deremensis_group_limelight/regular/pexels-photo-6913644.jpg","medium_url":"https://perenual.com/storage/species_image/2530_dracaena_fragrans_deremensis_group_limelight/medium/pexels-photo-6913644.jpg","small_url":"https://perenual.com/storage/species_image/2530_dracaena_fragrans_deremensis_group_limelight/small/pexels-photo-6913644.jpg","thumbnail":"https://perenual.com/storage/species_image/2530_dracaena_fragrans_deremensis_group_limelight/thumbnail/pexels-photo-6913644.jpg"}},{"id":2531,"common_name":"dragontree","scientific_name":["Dracaena marginata"],"other_name":["red margined dracaena"],"cycle":"Perennial","watering":"Average","sunlight":["Part shade"],"default_image":{"image_id":5701,"license":4,"license_name":"Attribution License","license_url":"https://creativecommons.org/licenses/by/2.0/","original_url":"https://perenual.com/storage/species_image/2531_dracaena_marginata/og/24448909183_1a82d61ed5_b.jpg","regular_url":"https://perenual.com/storage/species_image/2531_dracaena_marginata/regular/24448909183_1a82d61ed5_b.jpg","medium_url":"https://perenual.com/storage/species_image/2531_dracaena_marginata/medium/24448909183_1a82d61ed5_b.jpg","small_url":"https://perenual.com/storage/species_image/2531_dracaena_marginata/small/24448909183_1a82d61ed5_b.jpg","thumbnail":"https://perenual.com/storage/species_image/2531_dracaena_marginata/thumbnail/24448909183_1a82d61ed5_b.jpg"}},{"id":2532,"common_name":"song of India","scientific_name":["Dracaena reflexa 'Variegata'"],"other_name":null,"cycle":"Perennial","watering":"Average","sunlight":["Part shade"],"default_image":{"image_id":5702,"license":4,"license_name":"Attribution License","license_url":"https://creativecommons.org/licenses/by/2.0/","original_url":"https://perenual.com/storage/species_image/2532_dracaena_reflexa_variegata/og/8289680757_97717243ba_b.jpg","regular_url":"https://perenual.com/storage/species_image/2532_dracaena_reflexa_variegata/regular/8289680757_97717243ba_b.jpg","medium_url":"https://perenual.com/storage/species_image/2532_dracaena_reflexa_variegata/medium/8289680757_97717243ba_b.jpg","small_url":"https://perenual.com/storage/species_image/2532_dracaena_reflexa_variegata/small/8289680757_97717243ba_b.jpg","thumbnail":"https://perenual.com/storage/species_image/2532_dracaena_reflexa_variegata/thumbnail/8289680757_97717243ba_b.jpg"}},{"id":2533,"common_name":"dracaena","scientific_name":["Dracaena sanderiana"],"other_name":null,"cycle":"Perennial","watering":"Average","sunlight":["Part shade","full shade"],"default_image":{"image_id":9,"license":5,"license_name":"Attribution-ShareAlike License","license_url":"https://creativecommons.org/licenses/by-sa/2.0/","original_url":"https://perenual.com/storage/species_image/2_abies_alba_pyramidalis/og/49255769768_df55596553_b.jpg","regular_url":"https://perenual.com/storage/species_image/2_abies_alba_pyramidalis/regular/49255769768_df55596553_b.jpg","medium_url":"https://perenual.com/storage/species_image/2_abies_alba_pyramidalis/medium/49255769768_df55596553_b.jpg","small_url":"https://perenual.com/storage/species_image/2_abies_alba_pyramidalis/small/49255769768_df55596553_b.jpg","thumbnail":"https://perenual.com/storage/species_image/2_abies_alba_pyramidalis/thumbnail/49255769768_df55596553_b.jpg"}},{"id":2534,"common_name":"northern dragonhead","scientific_name":["Dracocephalum ruyschiana"],"other_name":null,"cycle":"Perennial","watering":"Average","sunlight":["Full sun","part shade"],"default_image":{"image_id":5704,"license":5,"license_name":"Attribution-ShareAlike License","license_url":"https://creativecommons.org/licenses/by-sa/2.0/","original_url":"https://perenual.com/storage/species_image/2534_dracocephalum_ruyschiana/og/27812537503_276357ec7c_b.jpg","regular_url":"https://perenual.com/storage/species_image/2534_dracocephalum_ruyschiana/regular/27812537503_276357ec7c_b.jpg","medium_url":"https://perenual.com/storage/species_image/2534_dracocephalum_ruyschiana/medium/27812537503_276357ec7c_b.jpg","small_url":"https://perenual.com/storage/species_image/2534_dracocephalum_ruyschiana/small/27812537503_276357ec7c_b.jpg","thumbnail":"https://perenual.com/storage/species_image/2534_dracocephalum_ruyschiana/thumbnail/27812537503_276357ec7c_b.jpg"}},{"id":2535,"common_name":"clasping coneflower","scientific_name":["Dracopis amplexicaulis"],"other_name":null,"cycle":"Perennial","watering":"Minimum","sunlight":["Full sun"],"default_image":{"image_id":9,"license":5,"license_name":"Attribution-ShareAlike License","license_url":"https://creativecommons.org/licenses/by-sa/2.0/","original_url":"https://perenual.com/storage/species_image/2_abies_alba_pyramidalis/og/49255769768_df55596553_b.jpg","regular_url":"https://perenual.com/storage/species_image/2_abies_alba_pyramidalis/regular/49255769768_df55596553_b.jpg","medium_url":"https://perenual.com/storage/species_image/2_abies_alba_pyramidalis/medium/49255769768_df55596553_b.jpg","small_url":"https://perenual.com/storage/species_image/2_abies_alba_pyramidalis/small/49255769768_df55596553_b.jpg","thumbnail":"https://perenual.com/storage/species_image/2_abies_alba_pyramidalis/thumbnail/49255769768_df55596553_b.jpg"}},{"id":2536,"common_name":"dragon arum","scientific_name":["Dracunculus vulgaris"],"other_name":null,"cycle":"Perennial","watering":"Average","sunlight":["Full sun","part shade"],"default_image":{"image_id":5712,"license":5,"license_name":"Attribution-ShareAlike License","license_url":"https://creativecommons.org/licenses/by-sa/2.0/","original_url":"https://perenual.com/storage/species_image/2536_dracunculus_vulgaris/og/41176731390_c4fbdefc90_b.jpg","regular_url":"https://perenual.com/storage/species_image/2536_dracunculus_vulgaris/regular/41176731390_c4fbdefc90_b.jpg","medium_url":"https://perenual.com/storage/species_image/2536_dracunculus_vulgaris/medium/41176731390_c4fbdefc90_b.jpg","small_url":"https://perenual.com/storage/species_image/2536_dracunculus_vulgaris/small/41176731390_c4fbdefc90_b.jpg","thumbnail":"https://perenual.com/storage/species_image/2536_dracunculus_vulgaris/thumbnail/41176731390_c4fbdefc90_b.jpg"}},{"id":2537,"common_name":"drosanthemum","scientific_name":["Drosanthemum micans"],"other_name":null,"cycle":"Perennial","watering":"Minimum","sunlight":["Full sun"],"default_image":{"image_id":5719,"license":4,"license_name":"Attribution License","license_url":"https://creativecommons.org/licenses/by/2.0/","original_url":"https://perenual.com/storage/species_image/2537_drosanthemum_micans/og/4585693737_ae8127c2ff_b.jpg","regular_url":"https://perenual.com/storage/species_image/2537_drosanthemum_micans/regular/4585693737_ae8127c2ff_b.jpg","medium_url":"https://perenual.com/storage/species_image/2537_drosanthemum_micans/medium/4585693737_ae8127c2ff_b.jpg","small_url":"https://perenual.com/storage/species_image/2537_drosanthemum_micans/small/4585693737_ae8127c2ff_b.jpg","thumbnail":"https://perenual.com/storage/species_image/2537_drosanthemum_micans/thumbnail/4585693737_ae8127c2ff_b.jpg"}},{"id":2538,"common_name":"daily dew","scientific_name":["Drosera binata var. dichotoma"],"other_name":null,"cycle":"Perennial","watering":"Frequent","sunlight":["Full sun"],"default_image":{"image_id":5721,"license":45,"license_name":"Attribution-ShareAlike 3.0 Unported (CC BY-SA 3.0)","license_url":"https://creativecommons.org/licenses/by-sa/3.0/deed.en","original_url":"https://perenual.com/storage/species_image/2538_drosera_binata_var_dichotoma/og/Drosera_binata.jpg","regular_url":"https://perenual.com/storage/species_image/2538_drosera_binata_var_dichotoma/regular/Drosera_binata.jpg","medium_url":"https://perenual.com/storage/species_image/2538_drosera_binata_var_dichotoma/medium/Drosera_binata.jpg","small_url":"https://perenual.com/storage/species_image/2538_drosera_binata_var_dichotoma/small/Drosera_binata.jpg","thumbnail":"https://perenual.com/storage/species_image/2538_drosera_binata_var_dichotoma/thumbnail/Drosera_binata.jpg"}},{"id":2539,"common_name":"cape sundew","scientific_name":["Drosera capensis"],"other_name":null,"cycle":"Perennial","watering":"Frequent","sunlight":["Full sun"],"default_image":{"image_id":5722,"license":6,"license_name":"Attribution-NoDerivs License","license_url":"https://creativecommons.org/licenses/by-nd/2.0/","original_url":"https://perenual.com/storage/species_image/2539_drosera_capensis/og/50165008562_7087bb44ce_b.jpg"}},{"id":2540,"common_name":"thread-leaf sundew","scientific_name":["Drosera filiformis var. filiformis"],"other_name":null,"cycle":"Perennial","watering":"Frequent","sunlight":["Full sun"],"default_image":{"image_id":9,"license":5,"license_name":"Attribution-ShareAlike License","license_url":"https://creativecommons.org/licenses/by-sa/2.0/","original_url":"https://perenual.com/storage/species_image/2_abies_alba_pyramidalis/og/49255769768_df55596553_b.jpg","regular_url":"https://perenual.com/storage/species_image/2_abies_alba_pyramidalis/regular/49255769768_df55596553_b.jpg","medium_url":"https://perenual.com/storage/species_image/2_abies_alba_pyramidalis/medium/49255769768_df55596553_b.jpg","small_url":"https://perenual.com/storage/species_image/2_abies_alba_pyramidalis/small/49255769768_df55596553_b.jpg","thumbnail":"https://perenual.com/storage/species_image/2_abies_alba_pyramidalis/thumbnail/49255769768_df55596553_b.jpg"}},{"id":2541,"common_name":"woodfern","scientific_name":["Dryopteris australis"],"other_name":null,"cycle":"Perennial","watering":"Average","sunlight":["Part shade","full shade"],"default_image":{"image_id":9,"license":5,"license_name":"Attribution-ShareAlike License","license_url":"https://creativecommons.org/licenses/by-sa/2.0/","original_url":"https://perenual.com/storage/species_image/2_abies_alba_pyramidalis/og/49255769768_df55596553_b.jpg","regular_url":"https://perenual.com/storage/species_image/2_abies_alba_pyramidalis/regular/49255769768_df55596553_b.jpg","medium_url":"https://perenual.com/storage/species_image/2_abies_alba_pyramidalis/medium/49255769768_df55596553_b.jpg","small_url":"https://perenual.com/storage/species_image/2_abies_alba_pyramidalis/small/49255769768_df55596553_b.jpg","thumbnail":"https://perenual.com/storage/species_image/2_abies_alba_pyramidalis/thumbnail/49255769768_df55596553_b.jpg"}},{"id":2542,"common_name":"wood fern","scientific_name":["Dryopteris carthusiana"],"other_name":null,"cycle":"Perennial","watering":"Average","sunlight":["Part shade","full shade"],"default_image":{"image_id":5733,"license":4,"license_name":"Attribution License","license_url":"https://creativecommons.org/licenses/by/2.0/","original_url":"https://perenual.com/storage/species_image/2542_dryopteris_carthusiana/og/2979213973_069fa8ee03_b.jpg","regular_url":"https://perenual.com/storage/species_image/2542_dryopteris_carthusiana/regular/2979213973_069fa8ee03_b.jpg","medium_url":"https://perenual.com/storage/species_image/2542_dryopteris_carthusiana/medium/2979213973_069fa8ee03_b.jpg","small_url":"https://perenual.com/storage/species_image/2542_dryopteris_carthusiana/small/2979213973_069fa8ee03_b.jpg","thumbnail":"https://perenual.com/storage/species_image/2542_dryopteris_carthusiana/thumbnail/2979213973_069fa8ee03_b.jpg"}},{"id":2543,"common_name":"log fern","scientific_name":["Dryopteris celsa"],"other_name":null,"cycle":"Perennial","watering":"Average","sunlight":["Part shade","full shade"],"default_image":{"image_id":9,"license":5,"license_name":"Attribution-ShareAlike License","license_url":"https://creativecommons.org/licenses/by-sa/2.0/","original_url":"https://perenual.com/storage/species_image/2_abies_alba_pyramidalis/og/49255769768_df55596553_b.jpg","regular_url":"https://perenual.com/storage/species_image/2_abies_alba_pyramidalis/regular/49255769768_df55596553_b.jpg","medium_url":"https://perenual.com/storage/species_image/2_abies_alba_pyramidalis/medium/49255769768_df55596553_b.jpg","small_url":"https://perenual.com/storage/species_image/2_abies_alba_pyramidalis/small/49255769768_df55596553_b.jpg","thumbnail":"https://perenual.com/storage/species_image/2_abies_alba_pyramidalis/thumbnail/49255769768_df55596553_b.jpg"}},{"id":2544,"common_name":"champion's wood fern","scientific_name":["Dryopteris championii"],"other_name":null,"cycle":"Perennial","watering":"Average","sunlight":["Part shade","full shade"],"default_image":{"image_id":5736,"license":45,"license_name":"Attribution-ShareAlike 3.0 Unported (CC BY-SA 3.0)","license_url":"https://creativecommons.org/licenses/by-sa/3.0/deed.en","original_url":"https://perenual.com/storage/species_image/2544_dryopteris_championii/og/Dryopteris_championii_1zz.jpg","regular_url":"https://perenual.com/storage/species_image/2544_dryopteris_championii/regular/Dryopteris_championii_1zz.jpg","medium_url":"https://perenual.com/storage/species_image/2544_dryopteris_championii/medium/Dryopteris_championii_1zz.jpg","small_url":"https://perenual.com/storage/species_image/2544_dryopteris_championii/small/Dryopteris_championii_1zz.jpg","thumbnail":"https://perenual.com/storage/species_image/2544_dryopteris_championii/thumbnail/Dryopteris_championii_1zz.jpg"}},{"id":2545,"common_name":"Clinton's wood fern","scientific_name":["Dryopteris clintoniana"],"other_name":null,"cycle":"Perennial","watering":"Frequent","sunlight":["Part shade","full shade"],"default_image":{"image_id":9,"license":5,"license_name":"Attribution-ShareAlike License","license_url":"https://creativecommons.org/licenses/by-sa/2.0/","original_url":"https://perenual.com/storage/species_image/2_abies_alba_pyramidalis/og/49255769768_df55596553_b.jpg","regular_url":"https://perenual.com/storage/species_image/2_abies_alba_pyramidalis/regular/49255769768_df55596553_b.jpg","medium_url":"https://perenual.com/storage/species_image/2_abies_alba_pyramidalis/medium/49255769768_df55596553_b.jpg","small_url":"https://perenual.com/storage/species_image/2_abies_alba_pyramidalis/small/49255769768_df55596553_b.jpg","thumbnail":"https://perenual.com/storage/species_image/2_abies_alba_pyramidalis/thumbnail/49255769768_df55596553_b.jpg"}},{"id":2546,"common_name":"buckler fern","scientific_name":["Dryopteris complexa"],"other_name":null,"cycle":"Perennial","watering":"Average","sunlight":["Part shade","full shade"],"default_image":{"image_id":5738,"license":5,"license_name":"Attribution-ShareAlike License","license_url":"https://creativecommons.org/licenses/by-sa/2.0/","original_url":"https://perenual.com/storage/species_image/2546_dryopteris_complexa/og/34808159223_3e8b4ed015_b.jpg","regular_url":"https://perenual.com/storage/species_image/2546_dryopteris_complexa/regular/34808159223_3e8b4ed015_b.jpg","medium_url":"https://perenual.com/storage/species_image/2546_dryopteris_complexa/medium/34808159223_3e8b4ed015_b.jpg","small_url":"https://perenual.com/storage/species_image/2546_dryopteris_complexa/small/34808159223_3e8b4ed015_b.jpg","thumbnail":"https://perenual.com/storage/species_image/2546_dryopteris_complexa/thumbnail/34808159223_3e8b4ed015_b.jpg"}},{"id":2547,"common_name":"buckler fern","scientific_name":["Dryopteris complexa 'Robust'"],"other_name":null,"cycle":"Perennial","watering":"Average","sunlight":["Part shade","full shade"],"default_image":{"image_id":9,"license":5,"license_name":"Attribution-ShareAlike License","license_url":"https://creativecommons.org/licenses/by-sa/2.0/","original_url":"https://perenual.com/storage/species_image/2_abies_alba_pyramidalis/og/49255769768_df55596553_b.jpg","regular_url":"https://perenual.com/storage/species_image/2_abies_alba_pyramidalis/regular/49255769768_df55596553_b.jpg","medium_url":"https://perenual.com/storage/species_image/2_abies_alba_pyramidalis/medium/49255769768_df55596553_b.jpg","small_url":"https://perenual.com/storage/species_image/2_abies_alba_pyramidalis/small/49255769768_df55596553_b.jpg","thumbnail":"https://perenual.com/storage/species_image/2_abies_alba_pyramidalis/thumbnail/49255769768_df55596553_b.jpg"}},{"id":2548,"common_name":"buckler fern","scientific_name":["Dryopteris complexa 'Rumpelstiltskin'"],"other_name":null,"cycle":"Perennial","watering":"Average","sunlight":["Part shade","full shade"],"default_image":{"image_id":5740,"license":5,"license_name":"Attribution-ShareAlike License","license_url":"https://creativecommons.org/licenses/by-sa/2.0/","original_url":"https://perenual.com/storage/species_image/2548_dryopteris_complexa_rumpelstiltskin/og/6165388243_549b4c1f4d_b.jpg","regular_url":"https://perenual.com/storage/species_image/2548_dryopteris_complexa_rumpelstiltskin/regular/6165388243_549b4c1f4d_b.jpg","medium_url":"https://perenual.com/storage/species_image/2548_dryopteris_complexa_rumpelstiltskin/medium/6165388243_549b4c1f4d_b.jpg","small_url":"https://perenual.com/storage/species_image/2548_dryopteris_complexa_rumpelstiltskin/small/6165388243_549b4c1f4d_b.jpg","thumbnail":"https://perenual.com/storage/species_image/2548_dryopteris_complexa_rumpelstiltskin/thumbnail/6165388243_549b4c1f4d_b.jpg"}},{"id":2560,"common_name":"intermediate wood fern","scientific_name":["Dryopteris intermedia"],"other_name":null,"cycle":"Perennial","watering":"Average","sunlight":["Part shade","full shade"],"default_image":{"image_id":5752,"license":4,"license_name":"Attribution License","license_url":"https://creativecommons.org/licenses/by/2.0/","original_url":"https://perenual.com/storage/species_image/2560_dryopteris_intermedia/og/35713998180_ae3ed7a34b_b.jpg","regular_url":"https://perenual.com/storage/species_image/2560_dryopteris_intermedia/regular/35713998180_ae3ed7a34b_b.jpg","medium_url":"https://perenual.com/storage/species_image/2560_dryopteris_intermedia/medium/35713998180_ae3ed7a34b_b.jpg","small_url":"https://perenual.com/storage/species_image/2560_dryopteris_intermedia/small/35713998180_ae3ed7a34b_b.jpg","thumbnail":"https://perenual.com/storage/species_image/2560_dryopteris_intermedia/thumbnail/35713998180_ae3ed7a34b_b.jpg"}},{"id":2561,"common_name":"wood fern","scientific_name":["Dryopteris lacera"],"other_name":null,"cycle":"Perennial","watering":"Frequent","sunlight":["Part shade","full shade"],"default_image":{"image_id":9,"license":5,"license_name":"Attribution-ShareAlike License","license_url":"https://creativecommons.org/licenses/by-sa/2.0/","original_url":"https://perenual.com/storage/species_image/2_abies_alba_pyramidalis/og/49255769768_df55596553_b.jpg","regular_url":"https://perenual.com/storage/species_image/2_abies_alba_pyramidalis/regular/49255769768_df55596553_b.jpg","medium_url":"https://perenual.com/storage/species_image/2_abies_alba_pyramidalis/medium/49255769768_df55596553_b.jpg","small_url":"https://perenual.com/storage/species_image/2_abies_alba_pyramidalis/small/49255769768_df55596553_b.jpg","thumbnail":"https://perenual.com/storage/species_image/2_abies_alba_pyramidalis/thumbnail/49255769768_df55596553_b.jpg"}}],"to":2550,"per_page":30,"current_page":85,"from":2521,"last_page":200,"total":6000}