{"data":[{"id":3511,"common_name":"daylily","scientific_name":["Hemerocallis 'Fairy Tale Pink'"],"other_name":null,"cycle":"Perennial","watering":"Average","sunlight":["Full sun","part shade"],"default_image":{"image_id":7383,"license":5,"license_name":"Attribution-ShareAlike License","license_url":"https://creativecommons.org/licenses/by-sa/2.0/","original_url":"https://perenual.com/storage/species_image/3511_hemerocallis_fairy_tale_pink/og/50104963302_c8171bceac_b.jpg","regular_url":"https://perenual.com/storage/species_image/3511_hemerocallis_fairy_tale_pink/regular/50104963302_c8171bceac_b.jpg","medium_url":"https://perenual.com/storage/species_image/3511_hemerocallis_fairy_tale_pink/medium/50104963302_c8171bceac_b.jpg","small_url":"https://perenual.com/storage/species_image/3511_hemerocallis_fairy_tale_pink/small/50104963302_c8171bceac_b.jpg","thumbnail":"https://perenual.com/storage/species_image/3511_hemerocallis_fairy_tale_pink/thumbnail/50104963302_c8171bceac_b.jpg"}},{"id":3512,"common_name":"daylily","scientific_name":["Hemerocallis 'Faith Nabor'"],"other_name":null,"cycle":"Perennial","watering":"Average","sunlight":["Full sun","part shade"],"default_image":{"image_id":9,"license":5,"license_name":"Attribution-ShareAlike License","license_url":"https://creativecommons.org/licenses/by-sa/2.0/","original_url":"https://perenual.com/storage/species_image/2_abies_alba_pyramidalis/og/49255769768_df55596553_b.jpg","regular_url":"https://perenual.com/storage/species_image/2_abies_alba_pyramidalis/regular/49255769768_df55596553_b.jpg","medium_url":"https://perenual.com/storage/species_image/2_abies_alba_pyramidalis/medium/49255769768_df55596553_b.jpg","small_url":"https://perenual.com/storage/species_image/2_abies_alba_pyramidalis/small/49255769768_df55596553_b.jpg","thumbnail":"https://perenual.com/storage/species_image/2_abies_alba_pyramidalis/thumbnail/49255769768_df55596553_b.jpg"}},{"id":3513,"common_name":"daylily","scientific_name":["Hemerocallis 'Flasher'"],"other_name":null,"cycle":"Perennial","watering":"Average","sunlight":["Full sun","part shade"],"default_image":{"image_id":9,"license":5,"license_name":"Attribution-ShareAlike License","license_url":"https://creativecommons.org/licenses/by-sa/2.0/","original_url":"https://perenual.com/storage/species_image/2_abies_alba_pyramidalis/og/49255769768_df55596553_b.jpg","regular_url":"https://perenual.com/storage/species_image/2_abies_alba_pyramidalis/regular/49255769768_df55596553_b.jpg","medium_url":"https://perenual.com/storage/species_image/2_abies_alba_pyramidalis/medium/49255769768_df55596553_b.jpg","small_url":"https://perenual.com/storage/species_image/2_abies_alba_pyramidalis/small/49255769768_df55596553_b.jpg","thumbnail":"https://perenual.com/storage/species_image/2_abies_alba_pyramidalis/thumbnail/49255769768_df55596553_b.jpg"}},{"id":3514,"common_name":"daylily","scientific_name":["Hemerocallis 'Fly Catcher'"],"other_name":null,"cycle":"Perennial","watering":"Average","sunlight":["Full sun","part shade"],"default_image":{"image_id":7387,"license":5,"license_name":"Attribution-ShareAlike License","license_url":"https://creativecommons.org/licenses/by-sa/2.0/","original_url":"https://perenual.com/storage/species_image/3514_hemerocallis_fly_catcher/og/51327449972_bf128b9747_b.jpg","regular_url":"https://perenual.com/storage/species_image/3514_hemerocallis_fly_catcher/regular/51327449972_bf128b9747_b.jpg","medium_url":"https://perenual.com/storage/species_image/3514_hemerocallis_fly_catcher/medium/51327449972_bf128b9747_b.jpg","small_url":"https://perenual.com/storage/species_image/3514_hemerocallis_fly_catcher/small/51327449972_bf128b9747_b.jpg","thumbnail":"https://perenual.com/storage/species_image/3514_hemerocallis_fly_catcher/thumbnail/51327449972_bf128b9747_b.jpg"}},{"id":3515,"common_name":"daylily","scientific_name":["Hemerocallis 'Fortune Berry'"],"other_name":null,"cycle":"Perennial","watering":"Average","sunlight":["Full sun","part shade"],"default_image":{"image_id":9,"license":5,"license_name":"Attribution-ShareAlike License","license_url":"https://creativecommons.org/licenses/by-sa/2.0/","original_url":"https://perenual.com/storage/species_image/2_abies_alba_pyramidalis/og/49255769768_df55596553_b.jpg","regular_url":"https://perenual.com/storage/species_image/2_abies_alba_pyramidalis/regular/49255769768_df55596553_b.jpg","medium_url":"https://perenual.com/storage/species_image/2_abies_alba_pyramidalis/medium/49255769768_df55596553_b.jpg","small_url":"https://perenual.com/storage/species_image/2_abies_alba_pyramidalis/small/49255769768_df55596553_b.jpg","thumbnail":"https://perenual.com/storage/species_image/2_abies_alba_pyramidalis/thumbnail/49255769768_df55596553_b.jpg"}},{"id":3516,"common_name":"daylily","scientific_name":["Hemerocallis 'Fours are Wild'"],"other_name":null,"cycle":"Perennial","watering":"Average","sunlight":["Full sun","part shade"],"default_image":{"image_id":9,"license":5,"license_name":"Attribution-ShareAlike License","license_url":"https://creativecommons.org/licenses/by-sa/2.0/","original_url":"https://perenual.com/storage/species_image/2_abies_alba_pyramidalis/og/49255769768_df55596553_b.jpg","regular_url":"https://perenual.com/storage/species_image/2_abies_alba_pyramidalis/regular/49255769768_df55596553_b.jpg","medium_url":"https://perenual.com/storage/species_image/2_abies_alba_pyramidalis/medium/49255769768_df55596553_b.jpg","small_url":"https://perenual.com/storage/species_image/2_abies_alba_pyramidalis/small/49255769768_df55596553_b.jpg","thumbnail":"https://perenual.com/storage/species_image/2_abies_alba_pyramidalis/thumbnail/49255769768_df55596553_b.jpg"}},{"id":3517,"common_name":"daylily","scientific_name":["Hemerocallis 'Friend Jack'"],"other_name":null,"cycle":"Perennial","watering":"Average","sunlight":["Full sun","part shade"],"default_image":{"image_id":7388,"license":5,"license_name":"Attribution-ShareAlike License","license_url":"https://creativecommons.org/licenses/by-sa/2.0/","original_url":"https://perenual.com/storage/species_image/3517_hemerocallis_friend_jack/og/52238446974_d790e8bcb2_b.jpg","regular_url":"https://perenual.com/storage/species_image/3517_hemerocallis_friend_jack/regular/52238446974_d790e8bcb2_b.jpg","medium_url":"https://perenual.com/storage/species_image/3517_hemerocallis_friend_jack/medium/52238446974_d790e8bcb2_b.jpg","small_url":"https://perenual.com/storage/species_image/3517_hemerocallis_friend_jack/small/52238446974_d790e8bcb2_b.jpg","thumbnail":"https://perenual.com/storage/species_image/3517_hemerocallis_friend_jack/thumbnail/52238446974_d790e8bcb2_b.jpg"}},{"id":3518,"common_name":"orange daylily","scientific_name":["Hemerocallis fulva"],"other_name":null,"cycle":"Perennial","watering":"Average","sunlight":["Full sun","part shade"],"default_image":{"image_id":9,"license":5,"license_name":"Attribution-ShareAlike License","license_url":"https://creativecommons.org/licenses/by-sa/2.0/","original_url":"https://perenual.com/storage/species_image/2_abies_alba_pyramidalis/og/49255769768_df55596553_b.jpg","regular_url":"https://perenual.com/storage/species_image/2_abies_alba_pyramidalis/regular/49255769768_df55596553_b.jpg","medium_url":"https://perenual.com/storage/species_image/2_abies_alba_pyramidalis/medium/49255769768_df55596553_b.jpg","small_url":"https://perenual.com/storage/species_image/2_abies_alba_pyramidalis/small/49255769768_df55596553_b.jpg","thumbnail":"https://perenual.com/storage/species_image/2_abies_alba_pyramidalis/thumbnail/49255769768_df55596553_b.jpg"}},{"id":3519,"common_name":"daylily","scientific_name":["Hemerocallis 'Gadsden Goliath'"],"other_name":null,"cycle":"Perennial","watering":"Average","sunlight":["Full sun","part shade"],"default_image":{"image_id":9,"license":5,"license_name":"Attribution-ShareAlike License","license_url":"https://creativecommons.org/licenses/by-sa/2.0/","original_url":"https://perenual.com/storage/species_image/2_abies_alba_pyramidalis/og/49255769768_df55596553_b.jpg","regular_url":"https://perenual.com/storage/species_image/2_abies_alba_pyramidalis/regular/49255769768_df55596553_b.jpg","medium_url":"https://perenual.com/storage/species_image/2_abies_alba_pyramidalis/medium/49255769768_df55596553_b.jpg","small_url":"https://perenual.com/storage/species_image/2_abies_alba_pyramidalis/small/49255769768_df55596553_b.jpg","thumbnail":"https://perenual.com/storage/species_image/2_abies_alba_pyramidalis/thumbnail/49255769768_df55596553_b.jpg"}},{"id":3520,"common_name":"daylily","scientific_name":["Hemerocallis 'Gentle Shepherd'"],"other_name":null,"cycle":"Perennial","watering":"Average","sunlight":["Full sun","part shade"],"default_image":{"image_id":7395,"license":5,"license_name":"Attribution-ShareAlike License","license_url":"https://creativecommons.org/licenses/by-sa/2.0/","original_url":"https://perenual.com/storage/species_image/3520_hemerocallis_gentle_shepherd/og/14626207464_42ede8c373_b.jpg","regular_url":"https://perenual.com/storage/species_image/3520_hemerocallis_gentle_shepherd/regular/14626207464_42ede8c373_b.jpg","medium_url":"https://perenual.com/storage/species_image/3520_hemerocallis_gentle_shepherd/medium/14626207464_42ede8c373_b.jpg","small_url":"https://perenual.com/storage/species_image/3520_hemerocallis_gentle_shepherd/small/14626207464_42ede8c373_b.jpg","thumbnail":"https://perenual.com/storage/species_image/3520_hemerocallis_gentle_shepherd/thumbnail/14626207464_42ede8c373_b.jpg"}},{"id":3521,"common_name":"daylily","scientific_name":["Hemerocallis 'Girly Q'"],"other_name":null,"cycle":"Perennial","watering":"Average","sunlight":["Full sun","part shade"],"default_image":{"image_id":9,"license":5,"license_name":"Attribution-ShareAlike License","license_url":"https://creativecommons.org/licenses/by-sa/2.0/","original_url":"https://perenual.com/storage/species_image/2_abies_alba_pyramidalis/og/49255769768_df55596553_b.jpg","regular_url":"https://perenual.com/storage/species_image/2_abies_alba_pyramidalis/regular/49255769768_df55596553_b.jpg","medium_url":"https://perenual.com/storage/species_image/2_abies_alba_pyramidalis/medium/49255769768_df55596553_b.jpg","small_url":"https://perenual.com/storage/species_image/2_abies_alba_pyramidalis/small/49255769768_df55596553_b.jpg","thumbnail":"https://perenual.com/storage/species_image/2_abies_alba_pyramidalis/thumbnail/49255769768_df55596553_b.jpg"}},{"id":3522,"common_name":"daylily","scientific_name":["Hemerocallis 'Glowing Heart'"],"other_name":null,"cycle":"Perennial","watering":"Average","sunlight":["Full sun","part shade"],"default_image":{"image_id":22002,"license":2,"license_name":null,"license_url":null,"original_url":"https://perenual.com/storage/species_image/3633_hemerocallis_wayside_king_royale/og/52582221879_4c541c62b5_b.jpg","regular_url":"https://perenual.com/storage/species_image/3633_hemerocallis_wayside_king_royale/regular/52582221879_4c541c62b5_b.jpg","medium_url":"https://perenual.com/storage/species_image/3633_hemerocallis_wayside_king_royale/medium/52582221879_4c541c62b5_b.jpg","small_url":"https://perenual.com/storage/species_image/3633_hemerocallis_wayside_king_royale/small/52582221879_4c541c62b5_b.jpg","thumbnail":"https://perenual.com/storage/species_image/3633_hemerocallis_wayside_king_royale/thumbnail/52582221879_4c541c62b5_b.jpg"}},{"id":3523,"common_name":"daylily","scientific_name":["Hemerocallis 'Going Bananas'"],"other_name":null,"cycle":"Perennial","watering":"Average","sunlight":["Full sun","part shade"],"default_image":{"image_id":7399,"license":5,"license_name":"Attribution-ShareAlike License","license_url":"https://creativecommons.org/licenses/by-sa/2.0/","original_url":"https://perenual.com/storage/species_image/3523_hemerocallis_going_bananas/og/35597654736_4800baca83_b.jpg","regular_url":"https://perenual.com/storage/species_image/3523_hemerocallis_going_bananas/regular/35597654736_4800baca83_b.jpg","medium_url":"https://perenual.com/storage/species_image/3523_hemerocallis_going_bananas/medium/35597654736_4800baca83_b.jpg","small_url":"https://perenual.com/storage/species_image/3523_hemerocallis_going_bananas/small/35597654736_4800baca83_b.jpg","thumbnail":"https://perenual.com/storage/species_image/3523_hemerocallis_going_bananas/thumbnail/35597654736_4800baca83_b.jpg"}},{"id":3524,"common_name":"daylily","scientific_name":["Hemerocallis 'Golden Calypso'"],"other_name":null,"cycle":"Perennial","watering":"Average","sunlight":["Full sun","part shade"],"default_image":{"image_id":22002,"license":2,"license_name":null,"license_url":null,"original_url":"https://perenual.com/storage/species_image/3633_hemerocallis_wayside_king_royale/og/52582221879_4c541c62b5_b.jpg","regular_url":"https://perenual.com/storage/species_image/3633_hemerocallis_wayside_king_royale/regular/52582221879_4c541c62b5_b.jpg","medium_url":"https://perenual.com/storage/species_image/3633_hemerocallis_wayside_king_royale/medium/52582221879_4c541c62b5_b.jpg","small_url":"https://perenual.com/storage/species_image/3633_hemerocallis_wayside_king_royale/small/52582221879_4c541c62b5_b.jpg","thumbnail":"https://perenual.com/storage/species_image/3633_hemerocallis_wayside_king_royale/thumbnail/52582221879_4c541c62b5_b.jpg"}},{"id":3525,"common_name":"tetrapoild daylily","scientific_name":["Hemerocallis 'Golden Tear Drops'"],"other_name":null,"cycle":"Perennial","watering":"Average","sunlight":["Full sun","part shade"],"default_image":{"image_id":9,"license":5,"license_name":"Attribution-ShareAlike License","license_url":"https://creativecommons.org/licenses/by-sa/2.0/","original_url":"https://perenual.com/storage/species_image/2_abies_alba_pyramidalis/og/49255769768_df55596553_b.jpg","regular_url":"https://perenual.com/storage/species_image/2_abies_alba_pyramidalis/regular/49255769768_df55596553_b.jpg","medium_url":"https://perenual.com/storage/species_image/2_abies_alba_pyramidalis/medium/49255769768_df55596553_b.jpg","small_url":"https://perenual.com/storage/species_image/2_abies_alba_pyramidalis/small/49255769768_df55596553_b.jpg","thumbnail":"https://perenual.com/storage/species_image/2_abies_alba_pyramidalis/thumbnail/49255769768_df55596553_b.jpg"}},{"id":3526,"common_name":"daylily","scientific_name":["Hemerocallis 'Golden Tycoon'"],"other_name":null,"cycle":"Perennial","watering":"Average","sunlight":["Full sun","part shade"],"default_image":{"image_id":9,"license":5,"license_name":"Attribution-ShareAlike License","license_url":"https://creativecommons.org/licenses/by-sa/2.0/","original_url":"https://perenual.com/storage/species_image/2_abies_alba_pyramidalis/og/49255769768_df55596553_b.jpg","regular_url":"https://perenual.com/storage/species_image/2_abies_alba_pyramidalis/regular/49255769768_df55596553_b.jpg","medium_url":"https://perenual.com/storage/species_image/2_abies_alba_pyramidalis/medium/49255769768_df55596553_b.jpg","small_url":"https://perenual.com/storage/species_image/2_abies_alba_pyramidalis/small/49255769768_df55596553_b.jpg","thumbnail":"https://perenual.com/storage/species_image/2_abies_alba_pyramidalis/thumbnail/49255769768_df55596553_b.jpg"}},{"id":3527,"common_name":"daylily","scientific_name":["Hemerocallis 'Golliwog'"],"other_name":null,"cycle":"Perennial","watering":"Average","sunlight":["Full sun","part shade"],"default_image":{"image_id":9,"license":5,"license_name":"Attribution-ShareAlike License","license_url":"https://creativecommons.org/licenses/by-sa/2.0/","original_url":"https://perenual.com/storage/species_image/2_abies_alba_pyramidalis/og/49255769768_df55596553_b.jpg","regular_url":"https://perenual.com/storage/species_image/2_abies_alba_pyramidalis/regular/49255769768_df55596553_b.jpg","medium_url":"https://perenual.com/storage/species_image/2_abies_alba_pyramidalis/medium/49255769768_df55596553_b.jpg","small_url":"https://perenual.com/storage/species_image/2_abies_alba_pyramidalis/small/49255769768_df55596553_b.jpg","thumbnail":"https://perenual.com/storage/species_image/2_abies_alba_pyramidalis/thumbnail/49255769768_df55596553_b.jpg"}},{"id":3528,"common_name":"daylily","scientific_name":["Hemerocallis 'Green Flutter'"],"other_name":null,"cycle":"Perennial","watering":"Average","sunlight":["Full sun","part shade"],"default_image":{"image_id":7402,"license":5,"license_name":"Attribution-ShareAlike License","license_url":"https://creativecommons.org/licenses/by-sa/2.0/","original_url":"https://perenual.com/storage/species_image/3528_hemerocallis_green_flutter/og/7993553986_43c55a45e9_b.jpg","regular_url":"https://perenual.com/storage/species_image/3528_hemerocallis_green_flutter/regular/7993553986_43c55a45e9_b.jpg","medium_url":"https://perenual.com/storage/species_image/3528_hemerocallis_green_flutter/medium/7993553986_43c55a45e9_b.jpg","small_url":"https://perenual.com/storage/species_image/3528_hemerocallis_green_flutter/small/7993553986_43c55a45e9_b.jpg","thumbnail":"https://perenual.com/storage/species_image/3528_hemerocallis_green_flutter/thumbnail/7993553986_43c55a45e9_b.jpg"}},{"id":3529,"common_name":"daylily","scientific_name":["Hemerocallis 'Green Puff'"],"other_name":null,"cycle":"Perennial","watering":"Average","sunlight":["Full sun","part shade"],"default_image":{"image_id":9,"license":5,"license_name":"Attribution-ShareAlike License","license_url":"https://creativecommons.org/licenses/by-sa/2.0/","original_url":"https://perenual.com/storage/species_image/2_abies_alba_pyramidalis/og/49255769768_df55596553_b.jpg","regular_url":"https://perenual.com/storage/species_image/2_abies_alba_pyramidalis/regular/49255769768_df55596553_b.jpg","medium_url":"https://perenual.com/storage/species_image/2_abies_alba_pyramidalis/medium/49255769768_df55596553_b.jpg","small_url":"https://perenual.com/storage/species_image/2_abies_alba_pyramidalis/small/49255769768_df55596553_b.jpg","thumbnail":"https://perenual.com/storage/species_image/2_abies_alba_pyramidalis/thumbnail/49255769768_df55596553_b.jpg"}},{"id":3530,"common_name":"daylily","scientific_name":["Hemerocallis 'Green Tarantula'"],"other_name":null,"cycle":"Perennial","watering":"Average","sunlight":["Full sun","part shade"],"default_image":{"image_id":9,"license":5,"license_name":"Attribution-ShareAlike License","license_url":"https://creativecommons.org/licenses/by-sa/2.0/","original_url":"https://perenual.com/storage/species_image/2_abies_alba_pyramidalis/og/49255769768_df55596553_b.jpg","regular_url":"https://perenual.com/storage/species_image/2_abies_alba_pyramidalis/regular/49255769768_df55596553_b.jpg","medium_url":"https://perenual.com/storage/species_image/2_abies_alba_pyramidalis/medium/49255769768_df55596553_b.jpg","small_url":"https://perenual.com/storage/species_image/2_abies_alba_pyramidalis/small/49255769768_df55596553_b.jpg","thumbnail":"https://perenual.com/storage/species_image/2_abies_alba_pyramidalis/thumbnail/49255769768_df55596553_b.jpg"}},{"id":3531,"common_name":"daylily","scientific_name":["Hemerocallis 'Greywoods Lofty Lizzie'"],"other_name":null,"cycle":"Perennial","watering":"Average","sunlight":["Full sun","part shade"],"default_image":{"image_id":9,"license":5,"license_name":"Attribution-ShareAlike License","license_url":"https://creativecommons.org/licenses/by-sa/2.0/","original_url":"https://perenual.com/storage/species_image/2_abies_alba_pyramidalis/og/49255769768_df55596553_b.jpg","regular_url":"https://perenual.com/storage/species_image/2_abies_alba_pyramidalis/regular/49255769768_df55596553_b.jpg","medium_url":"https://perenual.com/storage/species_image/2_abies_alba_pyramidalis/medium/49255769768_df55596553_b.jpg","small_url":"https://perenual.com/storage/species_image/2_abies_alba_pyramidalis/small/49255769768_df55596553_b.jpg","thumbnail":"https://perenual.com/storage/species_image/2_abies_alba_pyramidalis/thumbnail/49255769768_df55596553_b.jpg"}},{"id":3532,"common_name":"daylily","scientific_name":["Hemerocallis 'Happy Returns'"],"other_name":null,"cycle":"Perennial","watering":"Average","sunlight":["Full sun","part shade"],"default_image":{"image_id":7405,"license":5,"license_name":"Attribution-ShareAlike License","license_url":"https://creativecommons.org/licenses/by-sa/2.0/","original_url":"https://perenual.com/storage/species_image/3532_hemerocallis_happy_returns/og/42938270332_2d893ff8a9_b.jpg","regular_url":"https://perenual.com/storage/species_image/3532_hemerocallis_happy_returns/regular/42938270332_2d893ff8a9_b.jpg","medium_url":"https://perenual.com/storage/species_image/3532_hemerocallis_happy_returns/medium/42938270332_2d893ff8a9_b.jpg","small_url":"https://perenual.com/storage/species_image/3532_hemerocallis_happy_returns/small/42938270332_2d893ff8a9_b.jpg","thumbnail":"https://perenual.com/storage/species_image/3532_hemerocallis_happy_returns/thumbnail/42938270332_2d893ff8a9_b.jpg"}},{"id":3533,"common_name":"daylily","scientific_name":["Hemerocallis 'Heron'"],"other_name":null,"cycle":"Perennial","watering":"Average","sunlight":["Full sun","part shade"],"default_image":{"image_id":22003,"license":2,"license_name":null,"license_url":null,"original_url":"https://perenual.com/storage/species_image/3630_hemerocallis_ver00204_everydaylily_yellow_punch/og/52389752668_ff18329a33_b.jpg","regular_url":"https://perenual.com/storage/species_image/3630_hemerocallis_ver00204_everydaylily_yellow_punch/regular/52389752668_ff18329a33_b.jpg","medium_url":"https://perenual.com/storage/species_image/3630_hemerocallis_ver00204_everydaylily_yellow_punch/medium/52389752668_ff18329a33_b.jpg","small_url":"https://perenual.com/storage/species_image/3630_hemerocallis_ver00204_everydaylily_yellow_punch/small/52389752668_ff18329a33_b.jpg","thumbnail":"https://perenual.com/storage/species_image/3630_hemerocallis_ver00204_everydaylily_yellow_punch/thumbnail/52389752668_ff18329a33_b.jpg"}},{"id":3534,"common_name":"daylily","scientific_name":["Hemerocallis 'Hollywood'"],"other_name":null,"cycle":"Perennial","watering":"Average","sunlight":["Full sun","part shade"],"default_image":{"image_id":22002,"license":2,"license_name":null,"license_url":null,"original_url":"https://perenual.com/storage/species_image/3633_hemerocallis_wayside_king_royale/og/52582221879_4c541c62b5_b.jpg","regular_url":"https://perenual.com/storage/species_image/3633_hemerocallis_wayside_king_royale/regular/52582221879_4c541c62b5_b.jpg","medium_url":"https://perenual.com/storage/species_image/3633_hemerocallis_wayside_king_royale/medium/52582221879_4c541c62b5_b.jpg","small_url":"https://perenual.com/storage/species_image/3633_hemerocallis_wayside_king_royale/small/52582221879_4c541c62b5_b.jpg","thumbnail":"https://perenual.com/storage/species_image/3633_hemerocallis_wayside_king_royale/thumbnail/52582221879_4c541c62b5_b.jpg"}},{"id":3535,"common_name":"daylily","scientific_name":["Hemerocallis 'Hyperion'"],"other_name":null,"cycle":"Perennial","watering":"Average","sunlight":["Full sun","part shade"],"default_image":{"image_id":7407,"license":5,"license_name":"Attribution-ShareAlike License","license_url":"https://creativecommons.org/licenses/by-sa/2.0/","original_url":"https://perenual.com/storage/species_image/3535_hemerocallis_hyperion/og/52222757889_0ce274f485_b.jpg","regular_url":"https://perenual.com/storage/species_image/3535_hemerocallis_hyperion/regular/52222757889_0ce274f485_b.jpg","medium_url":"https://perenual.com/storage/species_image/3535_hemerocallis_hyperion/medium/52222757889_0ce274f485_b.jpg","small_url":"https://perenual.com/storage/species_image/3535_hemerocallis_hyperion/small/52222757889_0ce274f485_b.jpg","thumbnail":"https://perenual.com/storage/species_image/3535_hemerocallis_hyperion/thumbnail/52222757889_0ce274f485_b.jpg"}},{"id":3536,"common_name":"daylily","scientific_name":["Hemerocallis 'If I Were a Shepherd'"],"other_name":null,"cycle":"Perennial","watering":"Average","sunlight":["Full sun","part shade"],"default_image":{"image_id":9,"license":5,"license_name":"Attribution-ShareAlike License","license_url":"https://creativecommons.org/licenses/by-sa/2.0/","original_url":"https://perenual.com/storage/species_image/2_abies_alba_pyramidalis/og/49255769768_df55596553_b.jpg","regular_url":"https://perenual.com/storage/species_image/2_abies_alba_pyramidalis/regular/49255769768_df55596553_b.jpg","medium_url":"https://perenual.com/storage/species_image/2_abies_alba_pyramidalis/medium/49255769768_df55596553_b.jpg","small_url":"https://perenual.com/storage/species_image/2_abies_alba_pyramidalis/small/49255769768_df55596553_b.jpg","thumbnail":"https://perenual.com/storage/species_image/2_abies_alba_pyramidalis/thumbnail/49255769768_df55596553_b.jpg"}},{"id":3537,"common_name":"daylily","scientific_name":["Hemerocallis 'Ivory Dawn'"],"other_name":null,"cycle":"Perennial","watering":"Average","sunlight":["Full sun","part shade"],"default_image":{"image_id":22002,"license":2,"license_name":null,"license_url":null,"original_url":"https://perenual.com/storage/species_image/3633_hemerocallis_wayside_king_royale/og/52582221879_4c541c62b5_b.jpg","regular_url":"https://perenual.com/storage/species_image/3633_hemerocallis_wayside_king_royale/regular/52582221879_4c541c62b5_b.jpg","medium_url":"https://perenual.com/storage/species_image/3633_hemerocallis_wayside_king_royale/medium/52582221879_4c541c62b5_b.jpg","small_url":"https://perenual.com/storage/species_image/3633_hemerocallis_wayside_king_royale/small/52582221879_4c541c62b5_b.jpg","thumbnail":"https://perenual.com/storage/species_image/3633_hemerocallis_wayside_king_royale/thumbnail/52582221879_4c541c62b5_b.jpg"}},{"id":3538,"common_name":"daylily","scientific_name":["Hemerocallis 'Jade Star'"],"other_name":null,"cycle":"Perennial","watering":"Average","sunlight":["Full sun","part shade"],"default_image":{"image_id":9,"license":5,"license_name":"Attribution-ShareAlike License","license_url":"https://creativecommons.org/licenses/by-sa/2.0/","original_url":"https://perenual.com/storage/species_image/2_abies_alba_pyramidalis/og/49255769768_df55596553_b.jpg","regular_url":"https://perenual.com/storage/species_image/2_abies_alba_pyramidalis/regular/49255769768_df55596553_b.jpg","medium_url":"https://perenual.com/storage/species_image/2_abies_alba_pyramidalis/medium/49255769768_df55596553_b.jpg","small_url":"https://perenual.com/storage/species_image/2_abies_alba_pyramidalis/small/49255769768_df55596553_b.jpg","thumbnail":"https://perenual.com/storage/species_image/2_abies_alba_pyramidalis/thumbnail/49255769768_df55596553_b.jpg"}},{"id":3539,"common_name":"daylily","scientific_name":["Hemerocallis 'James Marsh'"],"other_name":null,"cycle":"Perennial","watering":"Average","sunlight":["Full sun","part shade"],"default_image":{"image_id":7410,"license":4,"license_name":"Attribution License","license_url":"https://creativecommons.org/licenses/by/2.0/","original_url":"https://perenual.com/storage/species_image/3574_hemerocallis_mississippi_red_dragon/og/52329872508_28042d7190_b.jpg","regular_url":"https://perenual.com/storage/species_image/3574_hemerocallis_mississippi_red_dragon/regular/52329872508_28042d7190_b.jpg","medium_url":"https://perenual.com/storage/species_image/3574_hemerocallis_mississippi_red_dragon/medium/52329872508_28042d7190_b.jpg","small_url":"https://perenual.com/storage/species_image/3574_hemerocallis_mississippi_red_dragon/small/52329872508_28042d7190_b.jpg","thumbnail":"https://perenual.com/storage/species_image/3574_hemerocallis_mississippi_red_dragon/thumbnail/52329872508_28042d7190_b.jpg"}},{"id":3540,"common_name":"daylily","scientific_name":["Hemerocallis 'Joan Senior'"],"other_name":null,"cycle":"Perennial","watering":"Average","sunlight":["Full sun","part shade"],"default_image":{"image_id":7411,"license":5,"license_name":"Attribution-ShareAlike License","license_url":"https://creativecommons.org/licenses/by-sa/2.0/","original_url":"https://perenual.com/storage/species_image/3540_hemerocallis_joan_senior/og/52247884270_0ed035668b_b.jpg","regular_url":"https://perenual.com/storage/species_image/3540_hemerocallis_joan_senior/regular/52247884270_0ed035668b_b.jpg","medium_url":"https://perenual.com/storage/species_image/3540_hemerocallis_joan_senior/medium/52247884270_0ed035668b_b.jpg","small_url":"https://perenual.com/storage/species_image/3540_hemerocallis_joan_senior/small/52247884270_0ed035668b_b.jpg","thumbnail":"https://perenual.com/storage/species_image/3540_hemerocallis_joan_senior/thumbnail/52247884270_0ed035668b_b.jpg"}}],"to":3540,"per_page":30,"current_page":118,"from":3511,"last_page":200,"total":6000}