{"data":[{"id":3811,"common_name":"rose of Sharon","scientific_name":["Hibiscus syriacus 'Aphrodite'"],"other_name":null,"cycle":"Perennial","watering":"Average","sunlight":["Full sun","part shade"],"default_image":{"image_id":7730,"license":5,"license_name":"Attribution-ShareAlike License","license_url":"https://creativecommons.org/licenses/by-sa/2.0/","original_url":"https://perenual.com/storage/species_image/3811_hibiscus_syriacus_aphrodite/og/52237169307_5327ba14a8_b.jpg","regular_url":"https://perenual.com/storage/species_image/3811_hibiscus_syriacus_aphrodite/regular/52237169307_5327ba14a8_b.jpg","medium_url":"https://perenual.com/storage/species_image/3811_hibiscus_syriacus_aphrodite/medium/52237169307_5327ba14a8_b.jpg","small_url":"https://perenual.com/storage/species_image/3811_hibiscus_syriacus_aphrodite/small/52237169307_5327ba14a8_b.jpg","thumbnail":"https://perenual.com/storage/species_image/3811_hibiscus_syriacus_aphrodite/thumbnail/52237169307_5327ba14a8_b.jpg"}},{"id":3812,"common_name":"rose of Sharon","scientific_name":["Hibiscus syriacus 'Boule de Feu' FIREBALL"],"other_name":null,"cycle":"Perennial","watering":"Average","sunlight":["Full sun","part shade"],"default_image":{"image_id":9,"license":5,"license_name":"Attribution-ShareAlike License","license_url":"https://creativecommons.org/licenses/by-sa/2.0/","original_url":"https://perenual.com/storage/species_image/2_abies_alba_pyramidalis/og/49255769768_df55596553_b.jpg","regular_url":"https://perenual.com/storage/species_image/2_abies_alba_pyramidalis/regular/49255769768_df55596553_b.jpg","medium_url":"https://perenual.com/storage/species_image/2_abies_alba_pyramidalis/medium/49255769768_df55596553_b.jpg","small_url":"https://perenual.com/storage/species_image/2_abies_alba_pyramidalis/small/49255769768_df55596553_b.jpg","thumbnail":"https://perenual.com/storage/species_image/2_abies_alba_pyramidalis/thumbnail/49255769768_df55596553_b.jpg"}},{"id":3813,"common_name":"rose of Sharon","scientific_name":["Hibiscus syriacus 'Diana'"],"other_name":null,"cycle":"Perennial","watering":"Average","sunlight":["Full sun","part shade"],"default_image":{"image_id":7735,"license":4,"license_name":"Attribution License","license_url":"https://creativecommons.org/licenses/by/2.0/","original_url":"https://perenual.com/storage/species_image/3813_hibiscus_syriacus_diana/og/14600906510_58178453b4_b.jpg","regular_url":"https://perenual.com/storage/species_image/3813_hibiscus_syriacus_diana/regular/14600906510_58178453b4_b.jpg","medium_url":"https://perenual.com/storage/species_image/3813_hibiscus_syriacus_diana/medium/14600906510_58178453b4_b.jpg","small_url":"https://perenual.com/storage/species_image/3813_hibiscus_syriacus_diana/small/14600906510_58178453b4_b.jpg","thumbnail":"https://perenual.com/storage/species_image/3813_hibiscus_syriacus_diana/thumbnail/14600906510_58178453b4_b.jpg"}},{"id":3814,"common_name":"rose of Sharon","scientific_name":["Hibiscus syriacus 'Helene'"],"other_name":null,"cycle":"Perennial","watering":"Average","sunlight":["Full sun","part shade"],"default_image":{"image_id":9,"license":5,"license_name":"Attribution-ShareAlike License","license_url":"https://creativecommons.org/licenses/by-sa/2.0/","original_url":"https://perenual.com/storage/species_image/2_abies_alba_pyramidalis/og/49255769768_df55596553_b.jpg","regular_url":"https://perenual.com/storage/species_image/2_abies_alba_pyramidalis/regular/49255769768_df55596553_b.jpg","medium_url":"https://perenual.com/storage/species_image/2_abies_alba_pyramidalis/medium/49255769768_df55596553_b.jpg","small_url":"https://perenual.com/storage/species_image/2_abies_alba_pyramidalis/small/49255769768_df55596553_b.jpg","thumbnail":"https://perenual.com/storage/species_image/2_abies_alba_pyramidalis/thumbnail/49255769768_df55596553_b.jpg"}},{"id":3815,"common_name":"rose of Sharon","scientific_name":["Hibiscus syriacus 'Lucy'"],"other_name":null,"cycle":"Perennial","watering":"Average","sunlight":["Full sun","part shade"],"default_image":{"image_id":9,"license":5,"license_name":"Attribution-ShareAlike License","license_url":"https://creativecommons.org/licenses/by-sa/2.0/","original_url":"https://perenual.com/storage/species_image/2_abies_alba_pyramidalis/og/49255769768_df55596553_b.jpg","regular_url":"https://perenual.com/storage/species_image/2_abies_alba_pyramidalis/regular/49255769768_df55596553_b.jpg","medium_url":"https://perenual.com/storage/species_image/2_abies_alba_pyramidalis/medium/49255769768_df55596553_b.jpg","small_url":"https://perenual.com/storage/species_image/2_abies_alba_pyramidalis/small/49255769768_df55596553_b.jpg","thumbnail":"https://perenual.com/storage/species_image/2_abies_alba_pyramidalis/thumbnail/49255769768_df55596553_b.jpg"}},{"id":3816,"common_name":"rose of Sharon","scientific_name":["Hibiscus syriacus 'Marina' BLUE SATIN"],"other_name":null,"cycle":"Perennial","watering":"Average","sunlight":["Full sun","part shade"],"default_image":{"image_id":7740,"license":4,"license_name":"Attribution License","license_url":"https://creativecommons.org/licenses/by/2.0/","original_url":"https://perenual.com/storage/species_image/3816_hibiscus_syriacus_marina_blue_satin/og/19776906072_812fd931d6_b.jpg","regular_url":"https://perenual.com/storage/species_image/3816_hibiscus_syriacus_marina_blue_satin/regular/19776906072_812fd931d6_b.jpg","medium_url":"https://perenual.com/storage/species_image/3816_hibiscus_syriacus_marina_blue_satin/medium/19776906072_812fd931d6_b.jpg","small_url":"https://perenual.com/storage/species_image/3816_hibiscus_syriacus_marina_blue_satin/small/19776906072_812fd931d6_b.jpg","thumbnail":"https://perenual.com/storage/species_image/3816_hibiscus_syriacus_marina_blue_satin/thumbnail/19776906072_812fd931d6_b.jpg"}},{"id":3817,"common_name":"rose of Sharon","scientific_name":["Hibiscus syriacus 'Mineru' FIRST EDITIONS TAHITI"],"other_name":null,"cycle":"Perennial","watering":"Average","sunlight":["Full sun","part shade"],"default_image":{"image_id":9,"license":5,"license_name":"Attribution-ShareAlike License","license_url":"https://creativecommons.org/licenses/by-sa/2.0/","original_url":"https://perenual.com/storage/species_image/2_abies_alba_pyramidalis/og/49255769768_df55596553_b.jpg","regular_url":"https://perenual.com/storage/species_image/2_abies_alba_pyramidalis/regular/49255769768_df55596553_b.jpg","medium_url":"https://perenual.com/storage/species_image/2_abies_alba_pyramidalis/medium/49255769768_df55596553_b.jpg","small_url":"https://perenual.com/storage/species_image/2_abies_alba_pyramidalis/small/49255769768_df55596553_b.jpg","thumbnail":"https://perenual.com/storage/species_image/2_abies_alba_pyramidalis/thumbnail/49255769768_df55596553_b.jpg"}},{"id":3818,"common_name":"rose of Sharon","scientific_name":["Hibiscus syriacus 'Minerva'"],"other_name":null,"cycle":"Perennial","watering":"Average","sunlight":["Full sun","part shade"],"default_image":{"image_id":7744,"license":4,"license_name":"Attribution License","license_url":"https://creativecommons.org/licenses/by/2.0/","original_url":"https://perenual.com/storage/species_image/3818_hibiscus_syriacus_minerva/og/8181427416_163e4dcf67_b.jpg","regular_url":"https://perenual.com/storage/species_image/3818_hibiscus_syriacus_minerva/regular/8181427416_163e4dcf67_b.jpg","medium_url":"https://perenual.com/storage/species_image/3818_hibiscus_syriacus_minerva/medium/8181427416_163e4dcf67_b.jpg","small_url":"https://perenual.com/storage/species_image/3818_hibiscus_syriacus_minerva/small/8181427416_163e4dcf67_b.jpg","thumbnail":"https://perenual.com/storage/species_image/3818_hibiscus_syriacus_minerva/thumbnail/8181427416_163e4dcf67_b.jpg"}},{"id":3819,"common_name":"rose of Sharon","scientific_name":["Hibiscus syriacus 'Minfren' FIRST EDITIONS BALI"],"other_name":null,"cycle":"Perennial","watering":"Average","sunlight":["Full sun","part shade"],"default_image":{"image_id":9,"license":5,"license_name":"Attribution-ShareAlike License","license_url":"https://creativecommons.org/licenses/by-sa/2.0/","original_url":"https://perenual.com/storage/species_image/2_abies_alba_pyramidalis/og/49255769768_df55596553_b.jpg","regular_url":"https://perenual.com/storage/species_image/2_abies_alba_pyramidalis/regular/49255769768_df55596553_b.jpg","medium_url":"https://perenual.com/storage/species_image/2_abies_alba_pyramidalis/medium/49255769768_df55596553_b.jpg","small_url":"https://perenual.com/storage/species_image/2_abies_alba_pyramidalis/small/49255769768_df55596553_b.jpg","thumbnail":"https://perenual.com/storage/species_image/2_abies_alba_pyramidalis/thumbnail/49255769768_df55596553_b.jpg"}},{"id":3820,"common_name":"rose of Sharon","scientific_name":["Hibiscus syriacus 'Minspot' FIRST EDITIONS FIJI"],"other_name":null,"cycle":"Perennial","watering":"Average","sunlight":["Full sun","part shade"],"default_image":{"image_id":7749,"license":4,"license_name":"Attribution License","license_url":"https://creativecommons.org/licenses/by/2.0/","original_url":"https://perenual.com/storage/species_image/3820_hibiscus_syriacus_minspot_first_editions_fiji/og/52243674166_a3329edb1c_b.jpg","regular_url":"https://perenual.com/storage/species_image/3820_hibiscus_syriacus_minspot_first_editions_fiji/regular/52243674166_a3329edb1c_b.jpg","medium_url":"https://perenual.com/storage/species_image/3820_hibiscus_syriacus_minspot_first_editions_fiji/medium/52243674166_a3329edb1c_b.jpg","small_url":"https://perenual.com/storage/species_image/3820_hibiscus_syriacus_minspot_first_editions_fiji/small/52243674166_a3329edb1c_b.jpg","thumbnail":"https://perenual.com/storage/species_image/3820_hibiscus_syriacus_minspot_first_editions_fiji/thumbnail/52243674166_a3329edb1c_b.jpg"}},{"id":3821,"common_name":"rose of Sharon","scientific_name":["Hibiscus syriacus 'Minsygrbl1' FIRST EDITIONS HAWAII"],"other_name":null,"cycle":"Perennial","watering":"Average","sunlight":["Full sun","part shade"],"default_image":{"image_id":7749,"license":4,"license_name":"Attribution License","license_url":"https://creativecommons.org/licenses/by/2.0/","original_url":"https://perenual.com/storage/species_image/3820_hibiscus_syriacus_minspot_first_editions_fiji/og/52243674166_a3329edb1c_b.jpg","regular_url":"https://perenual.com/storage/species_image/3820_hibiscus_syriacus_minspot_first_editions_fiji/regular/52243674166_a3329edb1c_b.jpg","medium_url":"https://perenual.com/storage/species_image/3820_hibiscus_syriacus_minspot_first_editions_fiji/medium/52243674166_a3329edb1c_b.jpg","small_url":"https://perenual.com/storage/species_image/3820_hibiscus_syriacus_minspot_first_editions_fiji/small/52243674166_a3329edb1c_b.jpg","thumbnail":"https://perenual.com/storage/species_image/3820_hibiscus_syriacus_minspot_first_editions_fiji/thumbnail/52243674166_a3329edb1c_b.jpg"}},{"id":3822,"common_name":"rose of Sharon","scientific_name":["Hibiscus syriacus 'Notwoodone' LAVENDER CHIFFON"],"other_name":null,"cycle":"Perennial","watering":"Average","sunlight":["Full sun","part shade"],"default_image":{"image_id":7750,"license":6,"license_name":"Attribution-NoDerivs License","license_url":"https://creativecommons.org/licenses/by-nd/2.0/","original_url":"https://perenual.com/storage/species_image/3822_hibiscus_syriacus_notwoodone_lavender_chiffon/og/2616547356_06d9b22c7d_b.jpg"}},{"id":3823,"common_name":"rose of Sharon","scientific_name":["Hibiscus syriacus 'Notwoodtwo' WHITE CHIFFON"],"other_name":null,"cycle":"Perennial","watering":"Average","sunlight":["Full sun","part shade"],"default_image":{"image_id":7753,"license":5,"license_name":"Attribution-ShareAlike License","license_url":"https://creativecommons.org/licenses/by-sa/2.0/","original_url":"https://perenual.com/storage/species_image/3823_hibiscus_syriacus_notwoodtwo_white_chiffon/og/52290054845_49cfa42a0e_b.jpg","regular_url":"https://perenual.com/storage/species_image/3823_hibiscus_syriacus_notwoodtwo_white_chiffon/regular/52290054845_49cfa42a0e_b.jpg","medium_url":"https://perenual.com/storage/species_image/3823_hibiscus_syriacus_notwoodtwo_white_chiffon/medium/52290054845_49cfa42a0e_b.jpg","small_url":"https://perenual.com/storage/species_image/3823_hibiscus_syriacus_notwoodtwo_white_chiffon/small/52290054845_49cfa42a0e_b.jpg","thumbnail":"https://perenual.com/storage/species_image/3823_hibiscus_syriacus_notwoodtwo_white_chiffon/thumbnail/52290054845_49cfa42a0e_b.jpg"}},{"id":3824,"common_name":"sea hibiscus","scientific_name":["Hibiscus tiliaceus"],"other_name":null,"cycle":"Perennial","watering":"Frequent","sunlight":["Full sun"],"default_image":{"image_id":7755,"license":4,"license_name":"Attribution License","license_url":"https://creativecommons.org/licenses/by/2.0/","original_url":"https://perenual.com/storage/species_image/3824_hibiscus_tiliaceus/og/52456726432_c30c6fa1e0_b.jpg","regular_url":"https://perenual.com/storage/species_image/3824_hibiscus_tiliaceus/regular/52456726432_c30c6fa1e0_b.jpg","medium_url":"https://perenual.com/storage/species_image/3824_hibiscus_tiliaceus/medium/52456726432_c30c6fa1e0_b.jpg","small_url":"https://perenual.com/storage/species_image/3824_hibiscus_tiliaceus/small/52456726432_c30c6fa1e0_b.jpg","thumbnail":"https://perenual.com/storage/species_image/3824_hibiscus_tiliaceus/thumbnail/52456726432_c30c6fa1e0_b.jpg"}},{"id":3825,"common_name":"flower of an hour","scientific_name":["Hibiscus trionum"],"other_name":null,"cycle":"Perennial","watering":"Average","sunlight":["Full sun"],"default_image":{"image_id":7757,"license":5,"license_name":"Attribution-ShareAlike License","license_url":"https://creativecommons.org/licenses/by-sa/2.0/","original_url":"https://perenual.com/storage/species_image/3825_hibiscus_trionum/og/51878117255_531b658165_b.jpg","regular_url":"https://perenual.com/storage/species_image/3825_hibiscus_trionum/regular/51878117255_531b658165_b.jpg","medium_url":"https://perenual.com/storage/species_image/3825_hibiscus_trionum/medium/51878117255_531b658165_b.jpg","small_url":"https://perenual.com/storage/species_image/3825_hibiscus_trionum/small/51878117255_531b658165_b.jpg","thumbnail":"https://perenual.com/storage/species_image/3825_hibiscus_trionum/thumbnail/51878117255_531b658165_b.jpg"}},{"id":3826,"common_name":"hardy hibiscus","scientific_name":["Hibiscus 'Turn of the Century'"],"other_name":null,"cycle":"Perennial","watering":"Frequent","sunlight":["Full sun"],"default_image":{"image_id":9,"license":5,"license_name":"Attribution-ShareAlike License","license_url":"https://creativecommons.org/licenses/by-sa/2.0/","original_url":"https://perenual.com/storage/species_image/2_abies_alba_pyramidalis/og/49255769768_df55596553_b.jpg","regular_url":"https://perenual.com/storage/species_image/2_abies_alba_pyramidalis/regular/49255769768_df55596553_b.jpg","medium_url":"https://perenual.com/storage/species_image/2_abies_alba_pyramidalis/medium/49255769768_df55596553_b.jpg","small_url":"https://perenual.com/storage/species_image/2_abies_alba_pyramidalis/small/49255769768_df55596553_b.jpg","thumbnail":"https://perenual.com/storage/species_image/2_abies_alba_pyramidalis/thumbnail/49255769768_df55596553_b.jpg"}},{"id":3827,"common_name":"hildegardia","scientific_name":["Hildegardia barteri"],"other_name":null,"cycle":"Perennial","watering":"Minimum","sunlight":["Full sun"],"default_image":{"image_id":7762,"license":5,"license_name":"Attribution-ShareAlike License","license_url":"https://creativecommons.org/licenses/by-sa/2.0/","original_url":"https://perenual.com/storage/species_image/3827_hildegardia_barteri/og/46306630974_1541d16a46_b.jpg","regular_url":"https://perenual.com/storage/species_image/3827_hildegardia_barteri/regular/46306630974_1541d16a46_b.jpg","medium_url":"https://perenual.com/storage/species_image/3827_hildegardia_barteri/medium/46306630974_1541d16a46_b.jpg","small_url":"https://perenual.com/storage/species_image/3827_hildegardia_barteri/small/46306630974_1541d16a46_b.jpg","thumbnail":"https://perenual.com/storage/species_image/3827_hildegardia_barteri/thumbnail/46306630974_1541d16a46_b.jpg"}},{"id":3828,"common_name":"amaryllis","scientific_name":["Hippeastrum (group)"],"other_name":null,"cycle":"Perennial","watering":"Average","sunlight":["Full sun","part shade"],"default_image":{"image_id":9,"license":5,"license_name":"Attribution-ShareAlike License","license_url":"https://creativecommons.org/licenses/by-sa/2.0/","original_url":"https://perenual.com/storage/species_image/2_abies_alba_pyramidalis/og/49255769768_df55596553_b.jpg","regular_url":"https://perenual.com/storage/species_image/2_abies_alba_pyramidalis/regular/49255769768_df55596553_b.jpg","medium_url":"https://perenual.com/storage/species_image/2_abies_alba_pyramidalis/medium/49255769768_df55596553_b.jpg","small_url":"https://perenual.com/storage/species_image/2_abies_alba_pyramidalis/small/49255769768_df55596553_b.jpg","thumbnail":"https://perenual.com/storage/species_image/2_abies_alba_pyramidalis/thumbnail/49255769768_df55596553_b.jpg"}},{"id":3829,"common_name":"creeping velvetgrass","scientific_name":["Holcus mollis 'Albovariegatus'"],"other_name":null,"cycle":"Perennial","watering":"Average","sunlight":["Full sun","part shade"],"default_image":{"image_id":9,"license":5,"license_name":"Attribution-ShareAlike License","license_url":"https://creativecommons.org/licenses/by-sa/2.0/","original_url":"https://perenual.com/storage/species_image/2_abies_alba_pyramidalis/og/49255769768_df55596553_b.jpg","regular_url":"https://perenual.com/storage/species_image/2_abies_alba_pyramidalis/regular/49255769768_df55596553_b.jpg","medium_url":"https://perenual.com/storage/species_image/2_abies_alba_pyramidalis/medium/49255769768_df55596553_b.jpg","small_url":"https://perenual.com/storage/species_image/2_abies_alba_pyramidalis/small/49255769768_df55596553_b.jpg","thumbnail":"https://perenual.com/storage/species_image/2_abies_alba_pyramidalis/thumbnail/49255769768_df55596553_b.jpg"}},{"id":3830,"common_name":"hosta","scientific_name":["Hosta 'Abby'"],"other_name":null,"cycle":"Perennial","watering":"Average","sunlight":["Part shade","full shade"],"default_image":{"image_id":9,"license":5,"license_name":"Attribution-ShareAlike License","license_url":"https://creativecommons.org/licenses/by-sa/2.0/","original_url":"https://perenual.com/storage/species_image/2_abies_alba_pyramidalis/og/49255769768_df55596553_b.jpg","regular_url":"https://perenual.com/storage/species_image/2_abies_alba_pyramidalis/regular/49255769768_df55596553_b.jpg","medium_url":"https://perenual.com/storage/species_image/2_abies_alba_pyramidalis/medium/49255769768_df55596553_b.jpg","small_url":"https://perenual.com/storage/species_image/2_abies_alba_pyramidalis/small/49255769768_df55596553_b.jpg","thumbnail":"https://perenual.com/storage/species_image/2_abies_alba_pyramidalis/thumbnail/49255769768_df55596553_b.jpg"}},{"id":3831,"common_name":"hosta","scientific_name":["Hosta 'Abiqua Drinking Gourd'"],"other_name":null,"cycle":"Perennial","watering":"Average","sunlight":["Part shade","full shade"],"default_image":{"image_id":9,"license":5,"license_name":"Attribution-ShareAlike License","license_url":"https://creativecommons.org/licenses/by-sa/2.0/","original_url":"https://perenual.com/storage/species_image/2_abies_alba_pyramidalis/og/49255769768_df55596553_b.jpg","regular_url":"https://perenual.com/storage/species_image/2_abies_alba_pyramidalis/regular/49255769768_df55596553_b.jpg","medium_url":"https://perenual.com/storage/species_image/2_abies_alba_pyramidalis/medium/49255769768_df55596553_b.jpg","small_url":"https://perenual.com/storage/species_image/2_abies_alba_pyramidalis/small/49255769768_df55596553_b.jpg","thumbnail":"https://perenual.com/storage/species_image/2_abies_alba_pyramidalis/thumbnail/49255769768_df55596553_b.jpg"}},{"id":3832,"common_name":"hosta","scientific_name":["Hosta 'Arc de Triomphe'"],"other_name":null,"cycle":"Perennial","watering":"Average","sunlight":["Part shade","full shade"],"default_image":{"image_id":9,"license":5,"license_name":"Attribution-ShareAlike License","license_url":"https://creativecommons.org/licenses/by-sa/2.0/","original_url":"https://perenual.com/storage/species_image/2_abies_alba_pyramidalis/og/49255769768_df55596553_b.jpg","regular_url":"https://perenual.com/storage/species_image/2_abies_alba_pyramidalis/regular/49255769768_df55596553_b.jpg","medium_url":"https://perenual.com/storage/species_image/2_abies_alba_pyramidalis/medium/49255769768_df55596553_b.jpg","small_url":"https://perenual.com/storage/species_image/2_abies_alba_pyramidalis/small/49255769768_df55596553_b.jpg","thumbnail":"https://perenual.com/storage/species_image/2_abies_alba_pyramidalis/thumbnail/49255769768_df55596553_b.jpg"}},{"id":3833,"common_name":"hosta","scientific_name":["Hosta 'August Moon'"],"other_name":null,"cycle":"Perennial","watering":"Average","sunlight":["Part shade","full shade"],"default_image":{"image_id":7773,"license":5,"license_name":"Attribution-ShareAlike License","license_url":"https://creativecommons.org/licenses/by-sa/2.0/","original_url":"https://perenual.com/storage/species_image/3833_hosta_august_moon/og/14285113935_c20fbb80b6_b.jpg","regular_url":"https://perenual.com/storage/species_image/3833_hosta_august_moon/regular/14285113935_c20fbb80b6_b.jpg","medium_url":"https://perenual.com/storage/species_image/3833_hosta_august_moon/medium/14285113935_c20fbb80b6_b.jpg","small_url":"https://perenual.com/storage/species_image/3833_hosta_august_moon/small/14285113935_c20fbb80b6_b.jpg","thumbnail":"https://perenual.com/storage/species_image/3833_hosta_august_moon/thumbnail/14285113935_c20fbb80b6_b.jpg"}},{"id":3840,"common_name":"hosta","scientific_name":["Hosta 'Blonde Elf'"],"other_name":null,"cycle":"Perennial","watering":"Average","sunlight":["Part shade","full shade"],"default_image":{"image_id":9,"license":5,"license_name":"Attribution-ShareAlike License","license_url":"https://creativecommons.org/licenses/by-sa/2.0/","original_url":"https://perenual.com/storage/species_image/2_abies_alba_pyramidalis/og/49255769768_df55596553_b.jpg","regular_url":"https://perenual.com/storage/species_image/2_abies_alba_pyramidalis/regular/49255769768_df55596553_b.jpg","medium_url":"https://perenual.com/storage/species_image/2_abies_alba_pyramidalis/medium/49255769768_df55596553_b.jpg","small_url":"https://perenual.com/storage/species_image/2_abies_alba_pyramidalis/small/49255769768_df55596553_b.jpg","thumbnail":"https://perenual.com/storage/species_image/2_abies_alba_pyramidalis/thumbnail/49255769768_df55596553_b.jpg"}},{"id":3834,"common_name":"hosta","scientific_name":["Hosta 'Autumn Frost'"],"other_name":null,"cycle":"Perennial","watering":"Average","sunlight":["Part shade","full shade"],"default_image":{"image_id":9,"license":5,"license_name":"Attribution-ShareAlike License","license_url":"https://creativecommons.org/licenses/by-sa/2.0/","original_url":"https://perenual.com/storage/species_image/2_abies_alba_pyramidalis/og/49255769768_df55596553_b.jpg","regular_url":"https://perenual.com/storage/species_image/2_abies_alba_pyramidalis/regular/49255769768_df55596553_b.jpg","medium_url":"https://perenual.com/storage/species_image/2_abies_alba_pyramidalis/medium/49255769768_df55596553_b.jpg","small_url":"https://perenual.com/storage/species_image/2_abies_alba_pyramidalis/small/49255769768_df55596553_b.jpg","thumbnail":"https://perenual.com/storage/species_image/2_abies_alba_pyramidalis/thumbnail/49255769768_df55596553_b.jpg"}},{"id":3835,"common_name":"hosta","scientific_name":["Hosta 'Aztec Treasure'"],"other_name":null,"cycle":"Perennial","watering":"Average","sunlight":["Part shade","full shade"],"default_image":{"image_id":9,"license":5,"license_name":"Attribution-ShareAlike License","license_url":"https://creativecommons.org/licenses/by-sa/2.0/","original_url":"https://perenual.com/storage/species_image/2_abies_alba_pyramidalis/og/49255769768_df55596553_b.jpg","regular_url":"https://perenual.com/storage/species_image/2_abies_alba_pyramidalis/regular/49255769768_df55596553_b.jpg","medium_url":"https://perenual.com/storage/species_image/2_abies_alba_pyramidalis/medium/49255769768_df55596553_b.jpg","small_url":"https://perenual.com/storage/species_image/2_abies_alba_pyramidalis/small/49255769768_df55596553_b.jpg","thumbnail":"https://perenual.com/storage/species_image/2_abies_alba_pyramidalis/thumbnail/49255769768_df55596553_b.jpg"}},{"id":3836,"common_name":"hosta","scientific_name":["Hosta 'Betcher's Blue'"],"other_name":null,"cycle":"Perennial","watering":"Average","sunlight":["Part shade","full shade"],"default_image":{"image_id":9,"license":5,"license_name":"Attribution-ShareAlike License","license_url":"https://creativecommons.org/licenses/by-sa/2.0/","original_url":"https://perenual.com/storage/species_image/2_abies_alba_pyramidalis/og/49255769768_df55596553_b.jpg","regular_url":"https://perenual.com/storage/species_image/2_abies_alba_pyramidalis/regular/49255769768_df55596553_b.jpg","medium_url":"https://perenual.com/storage/species_image/2_abies_alba_pyramidalis/medium/49255769768_df55596553_b.jpg","small_url":"https://perenual.com/storage/species_image/2_abies_alba_pyramidalis/small/49255769768_df55596553_b.jpg","thumbnail":"https://perenual.com/storage/species_image/2_abies_alba_pyramidalis/thumbnail/49255769768_df55596553_b.jpg"}},{"id":3837,"common_name":"hosta","scientific_name":["Hosta 'Big Daddy'"],"other_name":null,"cycle":"Perennial","watering":"Average","sunlight":["Part shade","full shade"],"default_image":{"image_id":7781,"license":5,"license_name":"Attribution-ShareAlike License","license_url":"https://creativecommons.org/licenses/by-sa/2.0/","original_url":"https://perenual.com/storage/species_image/3837_hosta_big_daddy/og/14345422526_822c685a66_b.jpg","regular_url":"https://perenual.com/storage/species_image/3837_hosta_big_daddy/regular/14345422526_822c685a66_b.jpg","medium_url":"https://perenual.com/storage/species_image/3837_hosta_big_daddy/medium/14345422526_822c685a66_b.jpg","small_url":"https://perenual.com/storage/species_image/3837_hosta_big_daddy/small/14345422526_822c685a66_b.jpg","thumbnail":"https://perenual.com/storage/species_image/3837_hosta_big_daddy/thumbnail/14345422526_822c685a66_b.jpg"}},{"id":3838,"common_name":"hosta","scientific_name":["Hosta 'Birchwood Parky's Gold'"],"other_name":null,"cycle":"Perennial","watering":"Average","sunlight":["Full sun","part shade"],"default_image":{"image_id":9,"license":5,"license_name":"Attribution-ShareAlike License","license_url":"https://creativecommons.org/licenses/by-sa/2.0/","original_url":"https://perenual.com/storage/species_image/2_abies_alba_pyramidalis/og/49255769768_df55596553_b.jpg","regular_url":"https://perenual.com/storage/species_image/2_abies_alba_pyramidalis/regular/49255769768_df55596553_b.jpg","medium_url":"https://perenual.com/storage/species_image/2_abies_alba_pyramidalis/medium/49255769768_df55596553_b.jpg","small_url":"https://perenual.com/storage/species_image/2_abies_alba_pyramidalis/small/49255769768_df55596553_b.jpg","thumbnail":"https://perenual.com/storage/species_image/2_abies_alba_pyramidalis/thumbnail/49255769768_df55596553_b.jpg"}},{"id":3839,"common_name":"hosta","scientific_name":["Hosta 'Black Hills'"],"other_name":null,"cycle":"Perennial","watering":"Average","sunlight":["Part shade","full shade"],"default_image":{"image_id":9,"license":5,"license_name":"Attribution-ShareAlike License","license_url":"https://creativecommons.org/licenses/by-sa/2.0/","original_url":"https://perenual.com/storage/species_image/2_abies_alba_pyramidalis/og/49255769768_df55596553_b.jpg","regular_url":"https://perenual.com/storage/species_image/2_abies_alba_pyramidalis/regular/49255769768_df55596553_b.jpg","medium_url":"https://perenual.com/storage/species_image/2_abies_alba_pyramidalis/medium/49255769768_df55596553_b.jpg","small_url":"https://perenual.com/storage/species_image/2_abies_alba_pyramidalis/small/49255769768_df55596553_b.jpg","thumbnail":"https://perenual.com/storage/species_image/2_abies_alba_pyramidalis/thumbnail/49255769768_df55596553_b.jpg"}}],"to":3840,"per_page":30,"current_page":128,"from":3811,"last_page":200,"total":6000}