{"data":[{"id":541,"common_name":"ladybells","scientific_name":["Adenophora 'Amethyst'"],"other_name":null,"cycle":"Perennial","watering":"Average","sunlight":["Full sun","part shade"],"default_image":{"image_id":9,"license":5,"license_name":"Attribution-ShareAlike License","license_url":"https://creativecommons.org/licenses/by-sa/2.0/","original_url":"https://perenual.com/storage/species_image/2_abies_alba_pyramidalis/og/49255769768_df55596553_b.jpg","regular_url":"https://perenual.com/storage/species_image/2_abies_alba_pyramidalis/regular/49255769768_df55596553_b.jpg","medium_url":"https://perenual.com/storage/species_image/2_abies_alba_pyramidalis/medium/49255769768_df55596553_b.jpg","small_url":"https://perenual.com/storage/species_image/2_abies_alba_pyramidalis/small/49255769768_df55596553_b.jpg","thumbnail":"https://perenual.com/storage/species_image/2_abies_alba_pyramidalis/thumbnail/49255769768_df55596553_b.jpg"}},{"id":542,"common_name":"ladybells","scientific_name":["Adenophora liliifolia"],"other_name":null,"cycle":"Perennial","watering":"Average","sunlight":["Full sun","part shade"],"default_image":{"image_id":1148,"license":5,"license_name":"Attribution-ShareAlike License","license_url":"https://creativecommons.org/licenses/by-sa/2.0/","original_url":"https://perenual.com/storage/species_image/542_adenophora_liliifolia/og/4927030984_50145a4edb_b.jpg","regular_url":"https://perenual.com/storage/species_image/542_adenophora_liliifolia/regular/4927030984_50145a4edb_b.jpg","medium_url":"https://perenual.com/storage/species_image/542_adenophora_liliifolia/medium/4927030984_50145a4edb_b.jpg","small_url":"https://perenual.com/storage/species_image/542_adenophora_liliifolia/small/4927030984_50145a4edb_b.jpg","thumbnail":"https://perenual.com/storage/species_image/542_adenophora_liliifolia/thumbnail/4927030984_50145a4edb_b.jpg"}},{"id":543,"common_name":"maidenhair fern","scientific_name":["Adiantum capillus-veneris"],"other_name":["Southern Maidenhair","Venus' Hair Fern","Venus' Hair Fern"],"cycle":"Perennial","watering":"Average","sunlight":["Partial Shade"," Shade"],"default_image":{"image_id":1155,"license":4,"license_name":"Attribution License","license_url":"https://creativecommons.org/licenses/by/2.0/","original_url":"https://perenual.com/storage/species_image/543_adiantum_capillus-veneris/og/49636882698_cb4fa4c685_b.jpg","regular_url":"https://perenual.com/storage/species_image/543_adiantum_capillus-veneris/regular/49636882698_cb4fa4c685_b.jpg","medium_url":"https://perenual.com/storage/species_image/543_adiantum_capillus-veneris/medium/49636882698_cb4fa4c685_b.jpg","small_url":"https://perenual.com/storage/species_image/543_adiantum_capillus-veneris/small/49636882698_cb4fa4c685_b.jpg","thumbnail":"https://perenual.com/storage/species_image/543_adiantum_capillus-veneris/thumbnail/49636882698_cb4fa4c685_b.jpg"}},{"id":544,"common_name":"rough maidenhair fern","scientific_name":["Adiantum hispidulum"],"other_name":null,"cycle":"Perennial","watering":"Average","sunlight":["Part shade","full shade"],"default_image":{"image_id":1156,"license":4,"license_name":"Attribution License","license_url":"https://creativecommons.org/licenses/by/2.0/","original_url":"https://perenual.com/storage/species_image/544_adiantum_hispidulum/og/50608477431_5f3bb0a767_b.jpg","regular_url":"https://perenual.com/storage/species_image/544_adiantum_hispidulum/regular/50608477431_5f3bb0a767_b.jpg","medium_url":"https://perenual.com/storage/species_image/544_adiantum_hispidulum/medium/50608477431_5f3bb0a767_b.jpg","small_url":"https://perenual.com/storage/species_image/544_adiantum_hispidulum/small/50608477431_5f3bb0a767_b.jpg","thumbnail":"https://perenual.com/storage/species_image/544_adiantum_hispidulum/thumbnail/50608477431_5f3bb0a767_b.jpg"}},{"id":545,"common_name":"Northern maidenhair fern","scientific_name":["Adiantum pedatum"],"other_name":["Maidenhair Fern"],"cycle":"Perennial","watering":"Average","sunlight":["Partial Shade"," Shade"],"default_image":{"image_id":1160,"license":4,"license_name":"Attribution License","license_url":"https://creativecommons.org/licenses/by/2.0/","original_url":"https://perenual.com/storage/species_image/545_adiantum_pedatum/og/51419830961_2a163c78cb_b.jpg","regular_url":"https://perenual.com/storage/species_image/545_adiantum_pedatum/regular/51419830961_2a163c78cb_b.jpg","medium_url":"https://perenual.com/storage/species_image/545_adiantum_pedatum/medium/51419830961_2a163c78cb_b.jpg","small_url":"https://perenual.com/storage/species_image/545_adiantum_pedatum/small/51419830961_2a163c78cb_b.jpg","thumbnail":"https://perenual.com/storage/species_image/545_adiantum_pedatum/thumbnail/51419830961_2a163c78cb_b.jpg"}},{"id":546,"common_name":"delta maidenhair fern","scientific_name":["Adiantum raddianum"],"other_name":null,"cycle":"Perennial","watering":"Average","sunlight":["Part shade"],"default_image":{"image_id":1165,"license":4,"license_name":"Attribution License","license_url":"https://creativecommons.org/licenses/by/2.0/","original_url":"https://perenual.com/storage/species_image/546_adiantum_raddianum/og/48134564587_c4562175cb_b.jpg","regular_url":"https://perenual.com/storage/species_image/546_adiantum_raddianum/regular/48134564587_c4562175cb_b.jpg","medium_url":"https://perenual.com/storage/species_image/546_adiantum_raddianum/medium/48134564587_c4562175cb_b.jpg","small_url":"https://perenual.com/storage/species_image/546_adiantum_raddianum/small/48134564587_c4562175cb_b.jpg","thumbnail":"https://perenual.com/storage/species_image/546_adiantum_raddianum/thumbnail/48134564587_c4562175cb_b.jpg"}},{"id":547,"common_name":"Chinese buttonbush","scientific_name":["Adina rubella"],"other_name":null,"cycle":"Perennial","watering":"Average","sunlight":["Full sun","part shade"],"default_image":{"image_id":1170,"license":5,"license_name":"Attribution-ShareAlike License","license_url":"https://creativecommons.org/licenses/by-sa/2.0/","original_url":"https://perenual.com/storage/species_image/547_adina_rubella/og/51851513968_f8b102672f_b.jpg","regular_url":"https://perenual.com/storage/species_image/547_adina_rubella/regular/51851513968_f8b102672f_b.jpg","medium_url":"https://perenual.com/storage/species_image/547_adina_rubella/medium/51851513968_f8b102672f_b.jpg","small_url":"https://perenual.com/storage/species_image/547_adina_rubella/small/51851513968_f8b102672f_b.jpg","thumbnail":"https://perenual.com/storage/species_image/547_adina_rubella/thumbnail/51851513968_f8b102672f_b.jpg"}},{"id":548,"common_name":"Manila palm","scientific_name":["Adonidia merrillii"],"other_name":null,"cycle":"Perennial","watering":"Average","sunlight":["Full sun"],"default_image":{"image_id":9,"license":5,"license_name":"Attribution-ShareAlike License","license_url":"https://creativecommons.org/licenses/by-sa/2.0/","original_url":"https://perenual.com/storage/species_image/2_abies_alba_pyramidalis/og/49255769768_df55596553_b.jpg","regular_url":"https://perenual.com/storage/species_image/2_abies_alba_pyramidalis/regular/49255769768_df55596553_b.jpg","medium_url":"https://perenual.com/storage/species_image/2_abies_alba_pyramidalis/medium/49255769768_df55596553_b.jpg","small_url":"https://perenual.com/storage/species_image/2_abies_alba_pyramidalis/small/49255769768_df55596553_b.jpg","thumbnail":"https://perenual.com/storage/species_image/2_abies_alba_pyramidalis/thumbnail/49255769768_df55596553_b.jpg"}},{"id":549,"common_name":"urn plant","scientific_name":["Aechmea fasciata"],"other_name":["silver vase"],"cycle":"Perennial","watering":"Average","sunlight":["Part shade"],"default_image":{"image_id":1178,"license":4,"license_name":"Attribution License","license_url":"https://creativecommons.org/licenses/by/2.0/","original_url":"https://perenual.com/storage/species_image/549_aechmea_fasciata/og/51446529161_03b99a881f_b.jpg","regular_url":"https://perenual.com/storage/species_image/549_aechmea_fasciata/regular/51446529161_03b99a881f_b.jpg","medium_url":"https://perenual.com/storage/species_image/549_aechmea_fasciata/medium/51446529161_03b99a881f_b.jpg","small_url":"https://perenual.com/storage/species_image/549_aechmea_fasciata/small/51446529161_03b99a881f_b.jpg","thumbnail":"https://perenual.com/storage/species_image/549_aechmea_fasciata/thumbnail/51446529161_03b99a881f_b.jpg"}},{"id":550,"common_name":"bishop's weed","scientific_name":["Aegopodium podagraria 'Variegatum'"],"other_name":["bishop's weed","Bishop's Goutweed"],"cycle":"Perennial","watering":"Minimum","sunlight":[],"default_image":{"image_id":1186,"license":6,"license_name":"Attribution-NoDerivs License","license_url":"https://creativecommons.org/licenses/by-nd/2.0/","original_url":"https://perenual.com/storage/species_image/550_aegopodium_podagraria_variegatum/og/34713982780_3954944e69_b.jpg"}},{"id":551,"common_name":"stalked aeonium","scientific_name":["Aeonium undulatum"],"other_name":null,"cycle":"Perennial","watering":"Minimum","sunlight":["Full sun","part shade"],"default_image":{"image_id":9,"license":5,"license_name":"Attribution-ShareAlike License","license_url":"https://creativecommons.org/licenses/by-sa/2.0/","original_url":"https://perenual.com/storage/species_image/2_abies_alba_pyramidalis/og/49255769768_df55596553_b.jpg","regular_url":"https://perenual.com/storage/species_image/2_abies_alba_pyramidalis/regular/49255769768_df55596553_b.jpg","medium_url":"https://perenual.com/storage/species_image/2_abies_alba_pyramidalis/medium/49255769768_df55596553_b.jpg","small_url":"https://perenual.com/storage/species_image/2_abies_alba_pyramidalis/small/49255769768_df55596553_b.jpg","thumbnail":"https://perenual.com/storage/species_image/2_abies_alba_pyramidalis/thumbnail/49255769768_df55596553_b.jpg"}},{"id":552,"common_name":"lipstick plant","scientific_name":["Aeschynanthus radicans"],"other_name":null,"cycle":"Perennial","watering":"Average","sunlight":["Part shade","full shade"],"default_image":{"image_id":1191,"license":4,"license_name":"Attribution License","license_url":"https://creativecommons.org/licenses/by/2.0/","original_url":"https://perenual.com/storage/species_image/552_aeschynanthus_radicans/og/29949422675_2671589cdf_b.jpg","regular_url":"https://perenual.com/storage/species_image/552_aeschynanthus_radicans/regular/29949422675_2671589cdf_b.jpg","medium_url":"https://perenual.com/storage/species_image/552_aeschynanthus_radicans/medium/29949422675_2671589cdf_b.jpg","small_url":"https://perenual.com/storage/species_image/552_aeschynanthus_radicans/small/29949422675_2671589cdf_b.jpg","thumbnail":"https://perenual.com/storage/species_image/552_aeschynanthus_radicans/thumbnail/29949422675_2671589cdf_b.jpg"}},{"id":553,"common_name":"California buckeye","scientific_name":["Aesculus californica"],"other_name":null,"cycle":"Perennial","watering":"Average","sunlight":["Full sun","part shade"],"default_image":{"image_id":1196,"license":5,"license_name":"Attribution-ShareAlike License","license_url":"https://creativecommons.org/licenses/by-sa/2.0/","original_url":"https://perenual.com/storage/species_image/553_aesculus_californica/og/50050525617_96d27d79d1_b.jpg","regular_url":"https://perenual.com/storage/species_image/553_aesculus_californica/regular/50050525617_96d27d79d1_b.jpg","medium_url":"https://perenual.com/storage/species_image/553_aesculus_californica/medium/50050525617_96d27d79d1_b.jpg","small_url":"https://perenual.com/storage/species_image/553_aesculus_californica/small/50050525617_96d27d79d1_b.jpg","thumbnail":"https://perenual.com/storage/species_image/553_aesculus_californica/thumbnail/50050525617_96d27d79d1_b.jpg"}},{"id":554,"common_name":"red horse chestnut","scientific_name":["Aesculus carnea"],"other_name":null,"cycle":"Perennial","watering":"Average","sunlight":["Full sun","part shade"],"default_image":{"image_id":1202,"license":4,"license_name":"Attribution License","license_url":"https://creativecommons.org/licenses/by/2.0/","original_url":"https://perenual.com/storage/species_image/554_aesculus_carnea/og/52059409034_87b7e2ed86_b.jpg","regular_url":"https://perenual.com/storage/species_image/554_aesculus_carnea/regular/52059409034_87b7e2ed86_b.jpg","medium_url":"https://perenual.com/storage/species_image/554_aesculus_carnea/medium/52059409034_87b7e2ed86_b.jpg","small_url":"https://perenual.com/storage/species_image/554_aesculus_carnea/small/52059409034_87b7e2ed86_b.jpg","thumbnail":"https://perenual.com/storage/species_image/554_aesculus_carnea/thumbnail/52059409034_87b7e2ed86_b.jpg"}},{"id":555,"common_name":"red horse chestnut","scientific_name":["Aesculus carnea 'Briotii'"],"other_name":null,"cycle":"Perennial","watering":"Average","sunlight":["Full sun","part shade"],"default_image":{"image_id":1210,"license":4,"license_name":"Attribution License","license_url":"https://creativecommons.org/licenses/by/2.0/","original_url":"https://perenual.com/storage/species_image/555_aesculus_carnea_briotii/og/43379296790_f249c1fba7_b.jpg","regular_url":"https://perenual.com/storage/species_image/555_aesculus_carnea_briotii/regular/43379296790_f249c1fba7_b.jpg","medium_url":"https://perenual.com/storage/species_image/555_aesculus_carnea_briotii/medium/43379296790_f249c1fba7_b.jpg","small_url":"https://perenual.com/storage/species_image/555_aesculus_carnea_briotii/small/43379296790_f249c1fba7_b.jpg","thumbnail":"https://perenual.com/storage/species_image/555_aesculus_carnea_briotii/thumbnail/43379296790_f249c1fba7_b.jpg"}},{"id":556,"common_name":"red horse chestnut","scientific_name":["Aesculus carnea 'Marginata'"],"other_name":null,"cycle":"Perennial","watering":"Average","sunlight":["Full sun","part shade"],"default_image":{"image_id":1204,"license":4,"license_name":"Attribution License","license_url":"https://creativecommons.org/licenses/by/2.0/","original_url":"https://perenual.com/storage/species_image/556_aesculus_carnea_marginata/og/51881414079_26cde8119f_b.jpg","regular_url":"https://perenual.com/storage/species_image/556_aesculus_carnea_marginata/regular/51881414079_26cde8119f_b.jpg","medium_url":"https://perenual.com/storage/species_image/556_aesculus_carnea_marginata/medium/51881414079_26cde8119f_b.jpg","small_url":"https://perenual.com/storage/species_image/556_aesculus_carnea_marginata/small/51881414079_26cde8119f_b.jpg","thumbnail":"https://perenual.com/storage/species_image/556_aesculus_carnea_marginata/thumbnail/51881414079_26cde8119f_b.jpg"}},{"id":557,"common_name":"Chinese horse chestnut","scientific_name":["Aesculus chinensis"],"other_name":null,"cycle":"Perennial","watering":"Average","sunlight":["Full sun","part shade"],"default_image":{"image_id":1213,"license":5,"license_name":"Attribution-ShareAlike License","license_url":"https://creativecommons.org/licenses/by-sa/2.0/","original_url":"https://perenual.com/storage/species_image/557_aesculus_chinensis/og/9229802422_3efa7e70af_b.jpg","regular_url":"https://perenual.com/storage/species_image/557_aesculus_chinensis/regular/9229802422_3efa7e70af_b.jpg","medium_url":"https://perenual.com/storage/species_image/557_aesculus_chinensis/medium/9229802422_3efa7e70af_b.jpg","small_url":"https://perenual.com/storage/species_image/557_aesculus_chinensis/small/9229802422_3efa7e70af_b.jpg","thumbnail":"https://perenual.com/storage/species_image/557_aesculus_chinensis/thumbnail/9229802422_3efa7e70af_b.jpg"}},{"id":558,"common_name":"yellow buckeye","scientific_name":["Aesculus flava"],"other_name":null,"cycle":"Perennial","watering":"Average","sunlight":["Full sun","part shade"],"default_image":{"image_id":1218,"license":5,"license_name":"Attribution-ShareAlike License","license_url":"https://creativecommons.org/licenses/by-sa/2.0/","original_url":"https://perenual.com/storage/species_image/558_aesculus_flava/og/28338394486_65718bb983_b.jpg","regular_url":"https://perenual.com/storage/species_image/558_aesculus_flava/regular/28338394486_65718bb983_b.jpg","medium_url":"https://perenual.com/storage/species_image/558_aesculus_flava/medium/28338394486_65718bb983_b.jpg","small_url":"https://perenual.com/storage/species_image/558_aesculus_flava/small/28338394486_65718bb983_b.jpg","thumbnail":"https://perenual.com/storage/species_image/558_aesculus_flava/thumbnail/28338394486_65718bb983_b.jpg"}},{"id":559,"common_name":"Ohio buckeye","scientific_name":["Aesculus glabra"],"other_name":["Fetid Buckeye"],"cycle":"Perennial","watering":"Average","sunlight":["Full sun","part shade"],"default_image":{"image_id":1221,"license":4,"license_name":"Attribution License","license_url":"https://creativecommons.org/licenses/by/2.0/","original_url":"https://perenual.com/storage/species_image/559_aesculus_glabra/og/51160864937_6edf9e8aa9_b.jpg","regular_url":"https://perenual.com/storage/species_image/559_aesculus_glabra/regular/51160864937_6edf9e8aa9_b.jpg","medium_url":"https://perenual.com/storage/species_image/559_aesculus_glabra/medium/51160864937_6edf9e8aa9_b.jpg","small_url":"https://perenual.com/storage/species_image/559_aesculus_glabra/small/51160864937_6edf9e8aa9_b.jpg","thumbnail":"https://perenual.com/storage/species_image/559_aesculus_glabra/thumbnail/51160864937_6edf9e8aa9_b.jpg"}},{"id":560,"common_name":"Ohio buckeye","scientific_name":["Aesculus glabra 'Nana'"],"other_name":null,"cycle":"Perennial","watering":"Average","sunlight":["Full sun","part shade"],"default_image":{"image_id":9,"license":5,"license_name":"Attribution-ShareAlike License","license_url":"https://creativecommons.org/licenses/by-sa/2.0/","original_url":"https://perenual.com/storage/species_image/2_abies_alba_pyramidalis/og/49255769768_df55596553_b.jpg","regular_url":"https://perenual.com/storage/species_image/2_abies_alba_pyramidalis/regular/49255769768_df55596553_b.jpg","medium_url":"https://perenual.com/storage/species_image/2_abies_alba_pyramidalis/medium/49255769768_df55596553_b.jpg","small_url":"https://perenual.com/storage/species_image/2_abies_alba_pyramidalis/small/49255769768_df55596553_b.jpg","thumbnail":"https://perenual.com/storage/species_image/2_abies_alba_pyramidalis/thumbnail/49255769768_df55596553_b.jpg"}},{"id":561,"common_name":"horse chestnut","scientific_name":["Aesculus hippocastanum"],"other_name":null,"cycle":"Perennial","watering":"Average","sunlight":["Sun"],"default_image":{"image_id":1224,"license":4,"license_name":"Attribution License","license_url":"https://creativecommons.org/licenses/by/2.0/","original_url":"https://perenual.com/storage/species_image/561_aesculus_hippocastanum/og/52545768414_9fff8faa72_b.jpg","regular_url":"https://perenual.com/storage/species_image/561_aesculus_hippocastanum/regular/52545768414_9fff8faa72_b.jpg","medium_url":"https://perenual.com/storage/species_image/561_aesculus_hippocastanum/medium/52545768414_9fff8faa72_b.jpg","small_url":"https://perenual.com/storage/species_image/561_aesculus_hippocastanum/small/52545768414_9fff8faa72_b.jpg","thumbnail":"https://perenual.com/storage/species_image/561_aesculus_hippocastanum/thumbnail/52545768414_9fff8faa72_b.jpg"}},{"id":562,"common_name":"horse chestnut","scientific_name":["Aesculus hippocastanum 'Baumannii'"],"other_name":null,"cycle":"Perennial","watering":"Average","sunlight":["Sun"],"default_image":{"image_id":21164,"license":451,"license_name":"CC0 1.0 Universal (CC0 1.0) Public Domain Dedication","license_url":"https://creativecommons.org/publicdomain/zero/1.0/","original_url":"https://perenual.com/storage/species_image/562_aesculus_hippocastanum_baumannii/og/ordinary_rosskastanie_leaves_foliage_aesthetic_branches_green_bright_sun-1147690.jpg","regular_url":"https://perenual.com/storage/species_image/562_aesculus_hippocastanum_baumannii/regular/ordinary_rosskastanie_leaves_foliage_aesthetic_branches_green_bright_sun-1147690.jpg","medium_url":"https://perenual.com/storage/species_image/562_aesculus_hippocastanum_baumannii/medium/ordinary_rosskastanie_leaves_foliage_aesthetic_branches_green_bright_sun-1147690.jpg","small_url":"https://perenual.com/storage/species_image/562_aesculus_hippocastanum_baumannii/small/ordinary_rosskastanie_leaves_foliage_aesthetic_branches_green_bright_sun-1147690.jpg","thumbnail":"https://perenual.com/storage/species_image/562_aesculus_hippocastanum_baumannii/thumbnail/ordinary_rosskastanie_leaves_foliage_aesthetic_branches_green_bright_sun-1147690.jpg"}},{"id":563,"common_name":"Indian horse chustnut","scientific_name":["Aesculus indica 'Sydney Pearce'"],"other_name":null,"cycle":"Perennial","watering":"Average","sunlight":["Full sun","part shade"],"default_image":{"image_id":1230,"license":5,"license_name":"Attribution-ShareAlike License","license_url":"https://creativecommons.org/licenses/by-sa/2.0/","original_url":"https://perenual.com/storage/species_image/563_aesculus_indica_sydney_pearce/og/3049990207_0b235f0202_b.jpg","regular_url":"https://perenual.com/storage/species_image/563_aesculus_indica_sydney_pearce/regular/3049990207_0b235f0202_b.jpg","medium_url":"https://perenual.com/storage/species_image/563_aesculus_indica_sydney_pearce/medium/3049990207_0b235f0202_b.jpg","small_url":"https://perenual.com/storage/species_image/563_aesculus_indica_sydney_pearce/small/3049990207_0b235f0202_b.jpg","thumbnail":"https://perenual.com/storage/species_image/563_aesculus_indica_sydney_pearce/thumbnail/3049990207_0b235f0202_b.jpg"}},{"id":564,"common_name":"bottlebrush buckeye","scientific_name":["Aesculus parviflora"],"other_name":null,"cycle":"Perennial","watering":"Average","sunlight":["Part shade","full shade"],"default_image":{"image_id":1231,"license":5,"license_name":"Attribution-ShareAlike License","license_url":"https://creativecommons.org/licenses/by-sa/2.0/","original_url":"https://perenual.com/storage/species_image/564_aesculus_parviflora/og/51332285418_685fd98bc9_b.jpg","regular_url":"https://perenual.com/storage/species_image/564_aesculus_parviflora/regular/51332285418_685fd98bc9_b.jpg","medium_url":"https://perenual.com/storage/species_image/564_aesculus_parviflora/medium/51332285418_685fd98bc9_b.jpg","small_url":"https://perenual.com/storage/species_image/564_aesculus_parviflora/small/51332285418_685fd98bc9_b.jpg","thumbnail":"https://perenual.com/storage/species_image/564_aesculus_parviflora/thumbnail/51332285418_685fd98bc9_b.jpg"}},{"id":565,"common_name":"bottlebrush buckeye","scientific_name":["Aesculus parviflora var. serotina"],"other_name":null,"cycle":"Perennial","watering":"Average","sunlight":["Part shade","full shade"],"default_image":{"image_id":1235,"license":4,"license_name":"Attribution License","license_url":"https://creativecommons.org/licenses/by/2.0/","original_url":"https://perenual.com/storage/species_image/566_aesculus_parviflora_var_serotina_rogers/og/28238289635_615c9a43dd_b.jpg","regular_url":"https://perenual.com/storage/species_image/566_aesculus_parviflora_var_serotina_rogers/regular/28238289635_615c9a43dd_b.jpg","medium_url":"https://perenual.com/storage/species_image/566_aesculus_parviflora_var_serotina_rogers/medium/28238289635_615c9a43dd_b.jpg","small_url":"https://perenual.com/storage/species_image/566_aesculus_parviflora_var_serotina_rogers/small/28238289635_615c9a43dd_b.jpg","thumbnail":"https://perenual.com/storage/species_image/566_aesculus_parviflora_var_serotina_rogers/thumbnail/28238289635_615c9a43dd_b.jpg"}},{"id":566,"common_name":"bottlebrush buckeye","scientific_name":["Aesculus parviflora var. serotina 'Rogers'"],"other_name":null,"cycle":"Perennial","watering":"Average","sunlight":["Part shade","full shade"],"default_image":{"image_id":1238,"license":5,"license_name":"Attribution-ShareAlike License","license_url":"https://creativecommons.org/licenses/by-sa/2.0/","original_url":"https://perenual.com/storage/species_image/566_aesculus_parviflora_var_serotina_rogers/og/28089233630_b73187a52c_b.jpg","regular_url":"https://perenual.com/storage/species_image/566_aesculus_parviflora_var_serotina_rogers/regular/28089233630_b73187a52c_b.jpg","medium_url":"https://perenual.com/storage/species_image/566_aesculus_parviflora_var_serotina_rogers/medium/28089233630_b73187a52c_b.jpg","small_url":"https://perenual.com/storage/species_image/566_aesculus_parviflora_var_serotina_rogers/small/28089233630_b73187a52c_b.jpg","thumbnail":"https://perenual.com/storage/species_image/566_aesculus_parviflora_var_serotina_rogers/thumbnail/28089233630_b73187a52c_b.jpg"}},{"id":567,"common_name":"red buckeye","scientific_name":["Aesculus pavia"],"other_name":null,"cycle":"Perennial","watering":"Average","sunlight":["Full sun","part shade"],"default_image":{"image_id":9,"license":5,"license_name":"Attribution-ShareAlike License","license_url":"https://creativecommons.org/licenses/by-sa/2.0/","original_url":"https://perenual.com/storage/species_image/2_abies_alba_pyramidalis/og/49255769768_df55596553_b.jpg","regular_url":"https://perenual.com/storage/species_image/2_abies_alba_pyramidalis/regular/49255769768_df55596553_b.jpg","medium_url":"https://perenual.com/storage/species_image/2_abies_alba_pyramidalis/medium/49255769768_df55596553_b.jpg","small_url":"https://perenual.com/storage/species_image/2_abies_alba_pyramidalis/small/49255769768_df55596553_b.jpg","thumbnail":"https://perenual.com/storage/species_image/2_abies_alba_pyramidalis/thumbnail/49255769768_df55596553_b.jpg"}},{"id":568,"common_name":"painted buckeye","scientific_name":["Aesculus sylvatica"],"other_name":null,"cycle":"Perennial","watering":"Average","sunlight":["Part shade"],"default_image":{"image_id":9,"license":5,"license_name":"Attribution-ShareAlike License","license_url":"https://creativecommons.org/licenses/by-sa/2.0/","original_url":"https://perenual.com/storage/species_image/2_abies_alba_pyramidalis/og/49255769768_df55596553_b.jpg","regular_url":"https://perenual.com/storage/species_image/2_abies_alba_pyramidalis/regular/49255769768_df55596553_b.jpg","medium_url":"https://perenual.com/storage/species_image/2_abies_alba_pyramidalis/medium/49255769768_df55596553_b.jpg","small_url":"https://perenual.com/storage/species_image/2_abies_alba_pyramidalis/small/49255769768_df55596553_b.jpg","thumbnail":"https://perenual.com/storage/species_image/2_abies_alba_pyramidalis/thumbnail/49255769768_df55596553_b.jpg"}},{"id":569,"common_name":"buckeye","scientific_name":["Aesculus woerlitzensis"],"other_name":null,"cycle":"Perennial","watering":"Average","sunlight":["Full sun","part shade"],"default_image":{"image_id":9,"license":5,"license_name":"Attribution-ShareAlike License","license_url":"https://creativecommons.org/licenses/by-sa/2.0/","original_url":"https://perenual.com/storage/species_image/2_abies_alba_pyramidalis/og/49255769768_df55596553_b.jpg","regular_url":"https://perenual.com/storage/species_image/2_abies_alba_pyramidalis/regular/49255769768_df55596553_b.jpg","medium_url":"https://perenual.com/storage/species_image/2_abies_alba_pyramidalis/medium/49255769768_df55596553_b.jpg","small_url":"https://perenual.com/storage/species_image/2_abies_alba_pyramidalis/small/49255769768_df55596553_b.jpg","thumbnail":"https://perenual.com/storage/species_image/2_abies_alba_pyramidalis/thumbnail/49255769768_df55596553_b.jpg"}},{"id":570,"common_name":"African fern pine","scientific_name":["Afrocarpus gracilior"],"other_name":null,"cycle":"Perennial","watering":"Average","sunlight":["Full sun"],"default_image":{"image_id":21166,"license":45,"license_name":"Attribution-ShareAlike 3.0 Unported (CC BY-SA 3.0)","license_url":"https://creativecommons.org/licenses/by-sa/3.0/deed.en","original_url":"https://perenual.com/storage/species_image/570_afrocarpus_gracilior/og/Starr_061224-2850_Afrocarpus_gracilior.jpg","regular_url":"https://perenual.com/storage/species_image/570_afrocarpus_gracilior/regular/Starr_061224-2850_Afrocarpus_gracilior.jpg","medium_url":"https://perenual.com/storage/species_image/570_afrocarpus_gracilior/medium/Starr_061224-2850_Afrocarpus_gracilior.jpg","small_url":"https://perenual.com/storage/species_image/570_afrocarpus_gracilior/small/Starr_061224-2850_Afrocarpus_gracilior.jpg","thumbnail":"https://perenual.com/storage/species_image/570_afrocarpus_gracilior/thumbnail/Starr_061224-2850_Afrocarpus_gracilior.jpg"}}],"to":570,"per_page":30,"current_page":19,"from":541,"last_page":200,"total":6000}