{"data":[{"id":2701,"common_name":"small globe thistle","scientific_name":["Echinops ritro 'Veitch's Blue'"],"other_name":null,"cycle":"Perennial","watering":"Minimum","sunlight":["Full sun"],"default_image":{"image_id":5921,"license":5,"license_name":"Attribution-ShareAlike License","license_url":"https://creativecommons.org/licenses/by-sa/2.0/","original_url":"https://perenual.com/storage/species_image/2701_echinops_ritro_veitchs_blue/og/14715614414_c35259e033_b.jpg","regular_url":"https://perenual.com/storage/species_image/2701_echinops_ritro_veitchs_blue/regular/14715614414_c35259e033_b.jpg","medium_url":"https://perenual.com/storage/species_image/2701_echinops_ritro_veitchs_blue/medium/14715614414_c35259e033_b.jpg","small_url":"https://perenual.com/storage/species_image/2701_echinops_ritro_veitchs_blue/small/14715614414_c35259e033_b.jpg","thumbnail":"https://perenual.com/storage/species_image/2701_echinops_ritro_veitchs_blue/thumbnail/14715614414_c35259e033_b.jpg"}},{"id":2702,"common_name":"great globe thistle","scientific_name":["Echinops sphaerocephalus"],"other_name":null,"cycle":"Perennial","watering":"Minimum","sunlight":["Full sun"],"default_image":{"image_id":9,"license":5,"license_name":"Attribution-ShareAlike License","license_url":"https://creativecommons.org/licenses/by-sa/2.0/","original_url":"https://perenual.com/storage/species_image/2_abies_alba_pyramidalis/og/49255769768_df55596553_b.jpg","regular_url":"https://perenual.com/storage/species_image/2_abies_alba_pyramidalis/regular/49255769768_df55596553_b.jpg","medium_url":"https://perenual.com/storage/species_image/2_abies_alba_pyramidalis/medium/49255769768_df55596553_b.jpg","small_url":"https://perenual.com/storage/species_image/2_abies_alba_pyramidalis/small/49255769768_df55596553_b.jpg","thumbnail":"https://perenual.com/storage/species_image/2_abies_alba_pyramidalis/thumbnail/49255769768_df55596553_b.jpg"}},{"id":2703,"common_name":"great globe thistle","scientific_name":["Echinops sphaerocephalus 'Arctic Glow'"],"other_name":null,"cycle":"Perennial","watering":"Minimum","sunlight":["Full sun"],"default_image":{"image_id":9,"license":5,"license_name":"Attribution-ShareAlike License","license_url":"https://creativecommons.org/licenses/by-sa/2.0/","original_url":"https://perenual.com/storage/species_image/2_abies_alba_pyramidalis/og/49255769768_df55596553_b.jpg","regular_url":"https://perenual.com/storage/species_image/2_abies_alba_pyramidalis/regular/49255769768_df55596553_b.jpg","medium_url":"https://perenual.com/storage/species_image/2_abies_alba_pyramidalis/medium/49255769768_df55596553_b.jpg","small_url":"https://perenual.com/storage/species_image/2_abies_alba_pyramidalis/small/49255769768_df55596553_b.jpg","thumbnail":"https://perenual.com/storage/species_image/2_abies_alba_pyramidalis/thumbnail/49255769768_df55596553_b.jpg"}},{"id":2704,"common_name":"echium","scientific_name":["Echium amoenum 'Red Feathers'"],"other_name":null,"cycle":"Perennial","watering":"Minimum","sunlight":["Full sun"],"default_image":{"image_id":9,"license":5,"license_name":"Attribution-ShareAlike License","license_url":"https://creativecommons.org/licenses/by-sa/2.0/","original_url":"https://perenual.com/storage/species_image/2_abies_alba_pyramidalis/og/49255769768_df55596553_b.jpg","regular_url":"https://perenual.com/storage/species_image/2_abies_alba_pyramidalis/regular/49255769768_df55596553_b.jpg","medium_url":"https://perenual.com/storage/species_image/2_abies_alba_pyramidalis/medium/49255769768_df55596553_b.jpg","small_url":"https://perenual.com/storage/species_image/2_abies_alba_pyramidalis/small/49255769768_df55596553_b.jpg","thumbnail":"https://perenual.com/storage/species_image/2_abies_alba_pyramidalis/thumbnail/49255769768_df55596553_b.jpg"}},{"id":2705,"common_name":"pride of Madeira","scientific_name":["Echium candicans"],"other_name":null,"cycle":"Perennial","watering":"Minimum","sunlight":["Full sun"],"default_image":{"image_id":5933,"license":4,"license_name":"Attribution License","license_url":"https://creativecommons.org/licenses/by/2.0/","original_url":"https://perenual.com/storage/species_image/2705_echium_candicans/og/46870345224_2bf1eeb9d6_b.jpg","regular_url":"https://perenual.com/storage/species_image/2705_echium_candicans/regular/46870345224_2bf1eeb9d6_b.jpg","medium_url":"https://perenual.com/storage/species_image/2705_echium_candicans/medium/46870345224_2bf1eeb9d6_b.jpg","small_url":"https://perenual.com/storage/species_image/2705_echium_candicans/small/46870345224_2bf1eeb9d6_b.jpg","thumbnail":"https://perenual.com/storage/species_image/2705_echium_candicans/thumbnail/46870345224_2bf1eeb9d6_b.jpg"}},{"id":2706,"common_name":"echium","scientific_name":["Echium maculatum"],"other_name":null,"cycle":"Perennial","watering":"Minimum","sunlight":["Full sun"],"default_image":{"image_id":5940,"license":4,"license_name":"Attribution License","license_url":"https://creativecommons.org/licenses/by/2.0/","original_url":"https://perenual.com/storage/species_image/2706_echium_maculatum/og/52010255279_bf8f32fa27_b.jpg","regular_url":"https://perenual.com/storage/species_image/2706_echium_maculatum/regular/52010255279_bf8f32fa27_b.jpg","medium_url":"https://perenual.com/storage/species_image/2706_echium_maculatum/medium/52010255279_bf8f32fa27_b.jpg","small_url":"https://perenual.com/storage/species_image/2706_echium_maculatum/small/52010255279_bf8f32fa27_b.jpg","thumbnail":"https://perenual.com/storage/species_image/2706_echium_maculatum/thumbnail/52010255279_bf8f32fa27_b.jpg"}},{"id":2707,"common_name":"viper's bugloss","scientific_name":["Echium vulgare"],"other_name":["viper's bugloss"],"cycle":"Perennial","watering":"Minimum","sunlight":["Full sun"],"default_image":{"image_id":5941,"license":4,"license_name":"Attribution License","license_url":"https://creativecommons.org/licenses/by/2.0/","original_url":"https://perenual.com/storage/species_image/2707_echium_vulgare/og/51865819989_9f2091e3ce_b.jpg","regular_url":"https://perenual.com/storage/species_image/2707_echium_vulgare/regular/51865819989_9f2091e3ce_b.jpg","medium_url":"https://perenual.com/storage/species_image/2707_echium_vulgare/medium/51865819989_9f2091e3ce_b.jpg","small_url":"https://perenual.com/storage/species_image/2707_echium_vulgare/small/51865819989_9f2091e3ce_b.jpg","thumbnail":"https://perenual.com/storage/species_image/2707_echium_vulgare/thumbnail/51865819989_9f2091e3ce_b.jpg"}},{"id":2708,"common_name":"tower of jewels","scientific_name":["Echium wildpretii"],"other_name":null,"cycle":"Perennial","watering":"Minimum","sunlight":["Full sun"],"default_image":{"image_id":5943,"license":5,"license_name":"Attribution-ShareAlike License","license_url":"https://creativecommons.org/licenses/by-sa/2.0/","original_url":"https://perenual.com/storage/species_image/2708_echium_wildpretii/og/42395477304_7580cbab99_b.jpg","regular_url":"https://perenual.com/storage/species_image/2708_echium_wildpretii/regular/42395477304_7580cbab99_b.jpg","medium_url":"https://perenual.com/storage/species_image/2708_echium_wildpretii/medium/42395477304_7580cbab99_b.jpg","small_url":"https://perenual.com/storage/species_image/2708_echium_wildpretii/small/42395477304_7580cbab99_b.jpg","thumbnail":"https://perenual.com/storage/species_image/2708_echium_wildpretii/thumbnail/42395477304_7580cbab99_b.jpg"}},{"id":2709,"common_name":"paperbush","scientific_name":["Edgeworthia chrysantha"],"other_name":null,"cycle":"Perennial","watering":"Average","sunlight":["Full sun","part shade"],"default_image":{"image_id":9,"license":5,"license_name":"Attribution-ShareAlike License","license_url":"https://creativecommons.org/licenses/by-sa/2.0/","original_url":"https://perenual.com/storage/species_image/2_abies_alba_pyramidalis/og/49255769768_df55596553_b.jpg","regular_url":"https://perenual.com/storage/species_image/2_abies_alba_pyramidalis/regular/49255769768_df55596553_b.jpg","medium_url":"https://perenual.com/storage/species_image/2_abies_alba_pyramidalis/medium/49255769768_df55596553_b.jpg","small_url":"https://perenual.com/storage/species_image/2_abies_alba_pyramidalis/small/49255769768_df55596553_b.jpg","thumbnail":"https://perenual.com/storage/species_image/2_abies_alba_pyramidalis/thumbnail/49255769768_df55596553_b.jpg"}},{"id":2710,"common_name":"paperbush","scientific_name":["Edgeworthia chrysantha 'Snow Cream'"],"other_name":null,"cycle":"Perennial","watering":"Average","sunlight":["Full sun","part shade"],"default_image":{"image_id":5952,"license":5,"license_name":"Attribution-ShareAlike License","license_url":"https://creativecommons.org/licenses/by-sa/2.0/","original_url":"https://perenual.com/storage/species_image/2710_edgeworthia_chrysantha_snow_cream/og/51988817078_d544e444a2_b.jpg","regular_url":"https://perenual.com/storage/species_image/2710_edgeworthia_chrysantha_snow_cream/regular/51988817078_d544e444a2_b.jpg","medium_url":"https://perenual.com/storage/species_image/2710_edgeworthia_chrysantha_snow_cream/medium/51988817078_d544e444a2_b.jpg","small_url":"https://perenual.com/storage/species_image/2710_edgeworthia_chrysantha_snow_cream/small/51988817078_d544e444a2_b.jpg","thumbnail":"https://perenual.com/storage/species_image/2710_edgeworthia_chrysantha_snow_cream/thumbnail/51988817078_d544e444a2_b.jpg"}},{"id":2711,"common_name":"common water hyacinth","scientific_name":["Eichhornia crassipes"],"other_name":["water orchid"],"cycle":"Perennial","watering":"Frequent","sunlight":["Full sun"],"default_image":{"image_id":9,"license":5,"license_name":"Attribution-ShareAlike License","license_url":"https://creativecommons.org/licenses/by-sa/2.0/","original_url":"https://perenual.com/storage/species_image/2_abies_alba_pyramidalis/og/49255769768_df55596553_b.jpg","regular_url":"https://perenual.com/storage/species_image/2_abies_alba_pyramidalis/regular/49255769768_df55596553_b.jpg","medium_url":"https://perenual.com/storage/species_image/2_abies_alba_pyramidalis/medium/49255769768_df55596553_b.jpg","small_url":"https://perenual.com/storage/species_image/2_abies_alba_pyramidalis/small/49255769768_df55596553_b.jpg","thumbnail":"https://perenual.com/storage/species_image/2_abies_alba_pyramidalis/thumbnail/49255769768_df55596553_b.jpg"}},{"id":2712,"common_name":"oleaster","scientific_name":["Elaeagnus ebbingei"],"other_name":null,"cycle":"Perennial","watering":"Average","sunlight":["Full sun"],"default_image":{"image_id":5956,"license":4,"license_name":"Attribution License","license_url":"https://creativecommons.org/licenses/by/2.0/","original_url":"https://perenual.com/storage/species_image/8552_elaeagnus_x_ebbingei/og/52122443623_16e5ae9100_b.jpg","regular_url":"https://perenual.com/storage/species_image/8552_elaeagnus_x_ebbingei/regular/52122443623_16e5ae9100_b.jpg","medium_url":"https://perenual.com/storage/species_image/8552_elaeagnus_x_ebbingei/medium/52122443623_16e5ae9100_b.jpg","small_url":"https://perenual.com/storage/species_image/8552_elaeagnus_x_ebbingei/small/52122443623_16e5ae9100_b.jpg","thumbnail":"https://perenual.com/storage/species_image/8552_elaeagnus_x_ebbingei/thumbnail/52122443623_16e5ae9100_b.jpg"}},{"id":2713,"common_name":"oleaster","scientific_name":["Elaeagnus macrophylla"],"other_name":null,"cycle":"Perennial","watering":"Average","sunlight":["Full sun","part shade"],"default_image":{"image_id":9,"license":5,"license_name":"Attribution-ShareAlike License","license_url":"https://creativecommons.org/licenses/by-sa/2.0/","original_url":"https://perenual.com/storage/species_image/2_abies_alba_pyramidalis/og/49255769768_df55596553_b.jpg","regular_url":"https://perenual.com/storage/species_image/2_abies_alba_pyramidalis/regular/49255769768_df55596553_b.jpg","medium_url":"https://perenual.com/storage/species_image/2_abies_alba_pyramidalis/medium/49255769768_df55596553_b.jpg","small_url":"https://perenual.com/storage/species_image/2_abies_alba_pyramidalis/small/49255769768_df55596553_b.jpg","thumbnail":"https://perenual.com/storage/species_image/2_abies_alba_pyramidalis/thumbnail/49255769768_df55596553_b.jpg"}},{"id":2714,"common_name":"goumi","scientific_name":["Elaeagnus multiflora"],"other_name":null,"cycle":"Perennial","watering":"Average","sunlight":["Full sun","part shade"],"default_image":{"image_id":9,"license":5,"license_name":"Attribution-ShareAlike License","license_url":"https://creativecommons.org/licenses/by-sa/2.0/","original_url":"https://perenual.com/storage/species_image/2_abies_alba_pyramidalis/og/49255769768_df55596553_b.jpg","regular_url":"https://perenual.com/storage/species_image/2_abies_alba_pyramidalis/regular/49255769768_df55596553_b.jpg","medium_url":"https://perenual.com/storage/species_image/2_abies_alba_pyramidalis/medium/49255769768_df55596553_b.jpg","small_url":"https://perenual.com/storage/species_image/2_abies_alba_pyramidalis/small/49255769768_df55596553_b.jpg","thumbnail":"https://perenual.com/storage/species_image/2_abies_alba_pyramidalis/thumbnail/49255769768_df55596553_b.jpg"}},{"id":2715,"common_name":"thorny olive","scientific_name":["Elaeagnus pungens"],"other_name":["silverthorn"],"cycle":"Perennial","watering":"Average","sunlight":["Full sun","part shade"],"default_image":{"image_id":5959,"license":4,"license_name":"Attribution License","license_url":"https://creativecommons.org/licenses/by/2.0/","original_url":"https://perenual.com/storage/species_image/2715_elaeagnus_pungens/og/5665620540_e32a6d8929_b.jpg","regular_url":"https://perenual.com/storage/species_image/2715_elaeagnus_pungens/regular/5665620540_e32a6d8929_b.jpg","medium_url":"https://perenual.com/storage/species_image/2715_elaeagnus_pungens/medium/5665620540_e32a6d8929_b.jpg","small_url":"https://perenual.com/storage/species_image/2715_elaeagnus_pungens/small/5665620540_e32a6d8929_b.jpg","thumbnail":"https://perenual.com/storage/species_image/2715_elaeagnus_pungens/thumbnail/5665620540_e32a6d8929_b.jpg"}},{"id":2716,"common_name":"autumn olive","scientific_name":["Elaeagnus umbellata"],"other_name":null,"cycle":"Perennial","watering":"Average","sunlight":["Full sun","part shade"],"default_image":{"image_id":9,"license":5,"license_name":"Attribution-ShareAlike License","license_url":"https://creativecommons.org/licenses/by-sa/2.0/","original_url":"https://perenual.com/storage/species_image/2_abies_alba_pyramidalis/og/49255769768_df55596553_b.jpg","regular_url":"https://perenual.com/storage/species_image/2_abies_alba_pyramidalis/regular/49255769768_df55596553_b.jpg","medium_url":"https://perenual.com/storage/species_image/2_abies_alba_pyramidalis/medium/49255769768_df55596553_b.jpg","small_url":"https://perenual.com/storage/species_image/2_abies_alba_pyramidalis/small/49255769768_df55596553_b.jpg","thumbnail":"https://perenual.com/storage/species_image/2_abies_alba_pyramidalis/thumbnail/49255769768_df55596553_b.jpg"}},{"id":2717,"common_name":"Chinese water chestnut","scientific_name":["Eleocharis dulcis"],"other_name":null,"cycle":"Perennial","watering":"Frequent","sunlight":["Full sun","part shade"],"default_image":{"image_id":9,"license":5,"license_name":"Attribution-ShareAlike License","license_url":"https://creativecommons.org/licenses/by-sa/2.0/","original_url":"https://perenual.com/storage/species_image/2_abies_alba_pyramidalis/og/49255769768_df55596553_b.jpg","regular_url":"https://perenual.com/storage/species_image/2_abies_alba_pyramidalis/regular/49255769768_df55596553_b.jpg","medium_url":"https://perenual.com/storage/species_image/2_abies_alba_pyramidalis/medium/49255769768_df55596553_b.jpg","small_url":"https://perenual.com/storage/species_image/2_abies_alba_pyramidalis/small/49255769768_df55596553_b.jpg","thumbnail":"https://perenual.com/storage/species_image/2_abies_alba_pyramidalis/thumbnail/49255769768_df55596553_b.jpg"}},{"id":2718,"common_name":"creeping spike rush","scientific_name":["Eleocharis palustris"],"other_name":null,"cycle":"Perennial","watering":"Frequent","sunlight":["Full sun","part shade"],"default_image":{"image_id":5970,"license":5,"license_name":"Attribution-ShareAlike License","license_url":"https://creativecommons.org/licenses/by-sa/2.0/","original_url":"https://perenual.com/storage/species_image/2718_eleocharis_palustris/og/52289575332_59ab727c08_b.jpg","regular_url":"https://perenual.com/storage/species_image/2718_eleocharis_palustris/regular/52289575332_59ab727c08_b.jpg","medium_url":"https://perenual.com/storage/species_image/2718_eleocharis_palustris/medium/52289575332_59ab727c08_b.jpg","small_url":"https://perenual.com/storage/species_image/2718_eleocharis_palustris/small/52289575332_59ab727c08_b.jpg","thumbnail":"https://perenual.com/storage/species_image/2718_eleocharis_palustris/thumbnail/52289575332_59ab727c08_b.jpg"}},{"id":2719,"common_name":"elephant's foot","scientific_name":["Elephantopus carolinianus"],"other_name":null,"cycle":"Perennial","watering":"Minimum","sunlight":["Part shade"],"default_image":{"image_id":5971,"license":5,"license_name":"Attribution-ShareAlike License","license_url":"https://creativecommons.org/licenses/by-sa/2.0/","original_url":"https://perenual.com/storage/species_image/2719_elephantopus_carolinianus/og/9286939262_9e870c574e_b.jpg","regular_url":"https://perenual.com/storage/species_image/2719_elephantopus_carolinianus/regular/9286939262_9e870c574e_b.jpg","medium_url":"https://perenual.com/storage/species_image/2719_elephantopus_carolinianus/medium/9286939262_9e870c574e_b.jpg","small_url":"https://perenual.com/storage/species_image/2719_elephantopus_carolinianus/small/9286939262_9e870c574e_b.jpg","thumbnail":"https://perenual.com/storage/species_image/2719_elephantopus_carolinianus/thumbnail/9286939262_9e870c574e_b.jpg"}},{"id":2720,"common_name":"cardamom","scientific_name":["Elettaria cardamomum"],"other_name":null,"cycle":"Perennial","watering":"Frequent","sunlight":["Part shade"],"default_image":{"image_id":5977,"license":5,"license_name":"Attribution-ShareAlike License","license_url":"https://creativecommons.org/licenses/by-sa/2.0/","original_url":"https://perenual.com/storage/species_image/2720_elettaria_cardamomum/og/5598454748_cdec530d45_b.jpg","regular_url":"https://perenual.com/storage/species_image/2720_elettaria_cardamomum/regular/5598454748_cdec530d45_b.jpg","medium_url":"https://perenual.com/storage/species_image/2720_elettaria_cardamomum/medium/5598454748_cdec530d45_b.jpg","small_url":"https://perenual.com/storage/species_image/2720_elettaria_cardamomum/small/5598454748_cdec530d45_b.jpg","thumbnail":"https://perenual.com/storage/species_image/2720_elettaria_cardamomum/thumbnail/5598454748_cdec530d45_b.jpg"}},{"id":2721,"common_name":"aralia","scientific_name":["Eleutherococcus sieboldianus 'Variegatus'"],"other_name":null,"cycle":"Perennial","watering":"Minimum","sunlight":["Part shade","full shade"],"default_image":{"image_id":5979,"license":5,"license_name":"Attribution-ShareAlike License","license_url":"https://creativecommons.org/licenses/by-sa/2.0/","original_url":"https://perenual.com/storage/species_image/2721_eleutherococcus_sieboldianus_variegatus/og/51595814153_0d567ba1c7_b.jpg","regular_url":"https://perenual.com/storage/species_image/2721_eleutherococcus_sieboldianus_variegatus/regular/51595814153_0d567ba1c7_b.jpg","medium_url":"https://perenual.com/storage/species_image/2721_eleutherococcus_sieboldianus_variegatus/medium/51595814153_0d567ba1c7_b.jpg","small_url":"https://perenual.com/storage/species_image/2721_eleutherococcus_sieboldianus_variegatus/small/51595814153_0d567ba1c7_b.jpg","thumbnail":"https://perenual.com/storage/species_image/2721_eleutherococcus_sieboldianus_variegatus/thumbnail/51595814153_0d567ba1c7_b.jpg"}},{"id":2722,"common_name":"ellisiophyllum","scientific_name":["Ellisiophyllum pinnatum"],"other_name":null,"cycle":"Annual","watering":"Average","sunlight":["Part shade","full shade"],"default_image":{"image_id":5981,"license":5,"license_name":"Attribution-ShareAlike License","license_url":"https://creativecommons.org/licenses/by-sa/2.0/","original_url":"https://perenual.com/storage/species_image/2722_ellisiophyllum_pinnatum/og/7231605092_016f1d3c36_b.jpg","regular_url":"https://perenual.com/storage/species_image/2722_ellisiophyllum_pinnatum/regular/7231605092_016f1d3c36_b.jpg","medium_url":"https://perenual.com/storage/species_image/2722_ellisiophyllum_pinnatum/medium/7231605092_016f1d3c36_b.jpg","small_url":"https://perenual.com/storage/species_image/2722_ellisiophyllum_pinnatum/small/7231605092_016f1d3c36_b.jpg","thumbnail":"https://perenual.com/storage/species_image/2722_ellisiophyllum_pinnatum/thumbnail/7231605092_016f1d3c36_b.jpg"}},{"id":2723,"common_name":"Canadian pondweed","scientific_name":["Elodea canadensis"],"other_name":null,"cycle":"Perennial","watering":"Frequent","sunlight":["Full sun"],"default_image":{"image_id":5982,"license":4,"license_name":"Attribution License","license_url":"https://creativecommons.org/licenses/by/2.0/","original_url":"https://perenual.com/storage/species_image/2723_elodea_canadensis/og/50292731596_dd267c4a55_b.jpg","regular_url":"https://perenual.com/storage/species_image/2723_elodea_canadensis/regular/50292731596_dd267c4a55_b.jpg","medium_url":"https://perenual.com/storage/species_image/2723_elodea_canadensis/medium/50292731596_dd267c4a55_b.jpg","small_url":"https://perenual.com/storage/species_image/2723_elodea_canadensis/small/50292731596_dd267c4a55_b.jpg","thumbnail":"https://perenual.com/storage/species_image/2723_elodea_canadensis/thumbnail/50292731596_dd267c4a55_b.jpg"}},{"id":2724,"common_name":"mint-shrub","scientific_name":["Elsholtzia stauntonii"],"other_name":null,"cycle":"Perennial","watering":"Minimum","sunlight":["Full sun"],"default_image":{"image_id":5987,"license":5,"license_name":"Attribution-ShareAlike License","license_url":"https://creativecommons.org/licenses/by-sa/2.0/","original_url":"https://perenual.com/storage/species_image/2724_elsholtzia_stauntonii/og/6265069504_811ffdfdc6_b.jpg","regular_url":"https://perenual.com/storage/species_image/2724_elsholtzia_stauntonii/regular/6265069504_811ffdfdc6_b.jpg","medium_url":"https://perenual.com/storage/species_image/2724_elsholtzia_stauntonii/medium/6265069504_811ffdfdc6_b.jpg","small_url":"https://perenual.com/storage/species_image/2724_elsholtzia_stauntonii/small/6265069504_811ffdfdc6_b.jpg","thumbnail":"https://perenual.com/storage/species_image/2724_elsholtzia_stauntonii/thumbnail/6265069504_811ffdfdc6_b.jpg"}},{"id":2725,"common_name":"Canada wild rye","scientific_name":["Elymus canadensis"],"other_name":null,"cycle":"Perennial","watering":"Minimum","sunlight":["Full sun Partial sun"],"default_image":{"image_id":5989,"license":5,"license_name":"Attribution-ShareAlike License","license_url":"https://creativecommons.org/licenses/by-sa/2.0/","original_url":"https://perenual.com/storage/species_image/2725_elymus_canadensis/og/48374199446_003f7c26b0_b.jpg","regular_url":"https://perenual.com/storage/species_image/2725_elymus_canadensis/regular/48374199446_003f7c26b0_b.jpg","medium_url":"https://perenual.com/storage/species_image/2725_elymus_canadensis/medium/48374199446_003f7c26b0_b.jpg","small_url":"https://perenual.com/storage/species_image/2725_elymus_canadensis/small/48374199446_003f7c26b0_b.jpg","thumbnail":"https://perenual.com/storage/species_image/2725_elymus_canadensis/thumbnail/48374199446_003f7c26b0_b.jpg"}},{"id":2726,"common_name":"bottlebrush grass","scientific_name":["Elymus hystrix"],"other_name":null,"cycle":"Perennial","watering":"Minimum","sunlight":["Full sun","part shade"],"default_image":{"image_id":9,"license":5,"license_name":"Attribution-ShareAlike License","license_url":"https://creativecommons.org/licenses/by-sa/2.0/","original_url":"https://perenual.com/storage/species_image/2_abies_alba_pyramidalis/og/49255769768_df55596553_b.jpg","regular_url":"https://perenual.com/storage/species_image/2_abies_alba_pyramidalis/regular/49255769768_df55596553_b.jpg","medium_url":"https://perenual.com/storage/species_image/2_abies_alba_pyramidalis/medium/49255769768_df55596553_b.jpg","small_url":"https://perenual.com/storage/species_image/2_abies_alba_pyramidalis/small/49255769768_df55596553_b.jpg","thumbnail":"https://perenual.com/storage/species_image/2_abies_alba_pyramidalis/thumbnail/49255769768_df55596553_b.jpg"}},{"id":2727,"common_name":"wheat grass","scientific_name":["Elymus magellanicus 'Blue Tango'"],"other_name":null,"cycle":"Perennial","watering":"Average","sunlight":["Full sun"],"default_image":{"image_id":9,"license":5,"license_name":"Attribution-ShareAlike License","license_url":"https://creativecommons.org/licenses/by-sa/2.0/","original_url":"https://perenual.com/storage/species_image/2_abies_alba_pyramidalis/og/49255769768_df55596553_b.jpg","regular_url":"https://perenual.com/storage/species_image/2_abies_alba_pyramidalis/regular/49255769768_df55596553_b.jpg","medium_url":"https://perenual.com/storage/species_image/2_abies_alba_pyramidalis/medium/49255769768_df55596553_b.jpg","small_url":"https://perenual.com/storage/species_image/2_abies_alba_pyramidalis/small/49255769768_df55596553_b.jpg","thumbnail":"https://perenual.com/storage/species_image/2_abies_alba_pyramidalis/thumbnail/49255769768_df55596553_b.jpg"}},{"id":2728,"common_name":"Virginia wild rye","scientific_name":["Elymus virginicus"],"other_name":null,"cycle":"Perennial","watering":"Average","sunlight":["Full sun","part shade"],"default_image":{"image_id":5992,"license":4,"license_name":"Attribution License","license_url":"https://creativecommons.org/licenses/by/2.0/","original_url":"https://perenual.com/storage/species_image/2728_elymus_virginicus/og/36390262425_031a003333_b.jpg","regular_url":"https://perenual.com/storage/species_image/2728_elymus_virginicus/regular/36390262425_031a003333_b.jpg","medium_url":"https://perenual.com/storage/species_image/2728_elymus_virginicus/medium/36390262425_031a003333_b.jpg","small_url":"https://perenual.com/storage/species_image/2728_elymus_virginicus/small/36390262425_031a003333_b.jpg","thumbnail":"https://perenual.com/storage/species_image/2728_elymus_virginicus/thumbnail/36390262425_031a003333_b.jpg"}},{"id":2729,"common_name":"tall wheatgrass","scientific_name":["Elytrigia elongata 'Jose Select'"],"other_name":null,"cycle":"Perennial","watering":"Minimum","sunlight":["Full sun"],"default_image":{"image_id":5993,"license":5,"license_name":"Attribution-ShareAlike License","license_url":"https://creativecommons.org/licenses/by-sa/2.0/","original_url":"https://perenual.com/storage/species_image/2729_elytrigia_elongata_jose_select/og/52267720656_208d9c5cfb_b.jpg","regular_url":"https://perenual.com/storage/species_image/2729_elytrigia_elongata_jose_select/regular/52267720656_208d9c5cfb_b.jpg","medium_url":"https://perenual.com/storage/species_image/2729_elytrigia_elongata_jose_select/medium/52267720656_208d9c5cfb_b.jpg","small_url":"https://perenual.com/storage/species_image/2729_elytrigia_elongata_jose_select/small/52267720656_208d9c5cfb_b.jpg","thumbnail":"https://perenual.com/storage/species_image/2729_elytrigia_elongata_jose_select/thumbnail/52267720656_208d9c5cfb_b.jpg"}},{"id":2730,"common_name":"prickly cycad","scientific_name":["Encephalartos altensteinii"],"other_name":null,"cycle":"Perennial","watering":"Average","sunlight":["Full sun","part shade"],"default_image":{"image_id":5994,"license":5,"license_name":"Attribution-ShareAlike License","license_url":"https://creativecommons.org/licenses/by-sa/2.0/","original_url":"https://perenual.com/storage/species_image/2730_encephalartos_altensteinii/og/32943227366_7a5f6c8764_b.jpg","regular_url":"https://perenual.com/storage/species_image/2730_encephalartos_altensteinii/regular/32943227366_7a5f6c8764_b.jpg","medium_url":"https://perenual.com/storage/species_image/2730_encephalartos_altensteinii/medium/32943227366_7a5f6c8764_b.jpg","small_url":"https://perenual.com/storage/species_image/2730_encephalartos_altensteinii/small/32943227366_7a5f6c8764_b.jpg","thumbnail":"https://perenual.com/storage/species_image/2730_encephalartos_altensteinii/thumbnail/32943227366_7a5f6c8764_b.jpg"}}],"to":2730,"per_page":30,"current_page":91,"from":2701,"last_page":200,"total":6000}