{"data":[{"id":4349,"common_name":"iris","scientific_name":["Iris (Dutch Hybrid Group)"],"other_name":null,"cycle":"Perennial","watering":"Average","sunlight":["Full sun"],"default_image":{"image_id":9,"license":5,"license_name":"Attribution-ShareAlike License","license_url":"https://creativecommons.org/licenses/by-sa/2.0/","original_url":"https://perenual.com/storage/species_image/2_abies_alba_pyramidalis/og/49255769768_df55596553_b.jpg","regular_url":"https://perenual.com/storage/species_image/2_abies_alba_pyramidalis/regular/49255769768_df55596553_b.jpg","medium_url":"https://perenual.com/storage/species_image/2_abies_alba_pyramidalis/medium/49255769768_df55596553_b.jpg","small_url":"https://perenual.com/storage/species_image/2_abies_alba_pyramidalis/small/49255769768_df55596553_b.jpg","thumbnail":"https://perenual.com/storage/species_image/2_abies_alba_pyramidalis/thumbnail/49255769768_df55596553_b.jpg"}},{"id":4350,"common_name":"tall bearded iris","scientific_name":["Iris 'Eagles Flight'"],"other_name":null,"cycle":"Perennial","watering":"Average","sunlight":["Full sun"],"default_image":{"image_id":8968,"license":5,"license_name":"Attribution-ShareAlike License","license_url":"https://creativecommons.org/licenses/by-sa/2.0/","original_url":"https://perenual.com/storage/species_image/4380_iris_midnight_fragrance/og/49976880827_d48d1b5479_b.jpg","regular_url":"https://perenual.com/storage/species_image/4380_iris_midnight_fragrance/regular/49976880827_d48d1b5479_b.jpg","medium_url":"https://perenual.com/storage/species_image/4380_iris_midnight_fragrance/medium/49976880827_d48d1b5479_b.jpg","small_url":"https://perenual.com/storage/species_image/4380_iris_midnight_fragrance/small/49976880827_d48d1b5479_b.jpg","thumbnail":"https://perenual.com/storage/species_image/4380_iris_midnight_fragrance/thumbnail/49976880827_d48d1b5479_b.jpg"}},{"id":4351,"common_name":"Siberian iris","scientific_name":["Iris 'Ego'"],"other_name":null,"cycle":"Perennial","watering":"Frequent","sunlight":["Full sun","part shade"],"default_image":{"image_id":9006,"license":5,"license_name":"Attribution-ShareAlike License","license_url":"https://creativecommons.org/licenses/by-sa/2.0/","original_url":"https://perenual.com/storage/species_image/4351_iris_ego/og/52117990530_43c3209522_b.jpg","regular_url":"https://perenual.com/storage/species_image/4351_iris_ego/regular/52117990530_43c3209522_b.jpg","medium_url":"https://perenual.com/storage/species_image/4351_iris_ego/medium/52117990530_43c3209522_b.jpg","small_url":"https://perenual.com/storage/species_image/4351_iris_ego/small/52117990530_43c3209522_b.jpg","thumbnail":"https://perenual.com/storage/species_image/4351_iris_ego/thumbnail/52117990530_43c3209522_b.jpg"}},{"id":4354,"common_name":"standard dwarf bearded iris","scientific_name":["Iris 'Eye Of The Tiger'"],"other_name":null,"cycle":"Perennial","watering":"Average","sunlight":["Full sun","part shade"],"default_image":{"image_id":9,"license":5,"license_name":"Attribution-ShareAlike License","license_url":"https://creativecommons.org/licenses/by-sa/2.0/","original_url":"https://perenual.com/storage/species_image/2_abies_alba_pyramidalis/og/49255769768_df55596553_b.jpg","regular_url":"https://perenual.com/storage/species_image/2_abies_alba_pyramidalis/regular/49255769768_df55596553_b.jpg","medium_url":"https://perenual.com/storage/species_image/2_abies_alba_pyramidalis/medium/49255769768_df55596553_b.jpg","small_url":"https://perenual.com/storage/species_image/2_abies_alba_pyramidalis/small/49255769768_df55596553_b.jpg","thumbnail":"https://perenual.com/storage/species_image/2_abies_alba_pyramidalis/thumbnail/49255769768_df55596553_b.jpg"}},{"id":4355,"common_name":"tall bearded iris","scientific_name":["Iris 'Flavescens'"],"other_name":null,"cycle":"Perennial","watering":"Average","sunlight":["Full sun","part shade"],"default_image":{"image_id":9,"license":5,"license_name":"Attribution-ShareAlike License","license_url":"https://creativecommons.org/licenses/by-sa/2.0/","original_url":"https://perenual.com/storage/species_image/2_abies_alba_pyramidalis/og/49255769768_df55596553_b.jpg","regular_url":"https://perenual.com/storage/species_image/2_abies_alba_pyramidalis/regular/49255769768_df55596553_b.jpg","medium_url":"https://perenual.com/storage/species_image/2_abies_alba_pyramidalis/medium/49255769768_df55596553_b.jpg","small_url":"https://perenual.com/storage/species_image/2_abies_alba_pyramidalis/small/49255769768_df55596553_b.jpg","thumbnail":"https://perenual.com/storage/species_image/2_abies_alba_pyramidalis/thumbnail/49255769768_df55596553_b.jpg"}},{"id":4356,"common_name":"tall bearded iris","scientific_name":["Iris 'Florentina'"],"other_name":null,"cycle":"Perennial","watering":"Average","sunlight":["Full sun"],"default_image":{"image_id":9028,"license":4,"license_name":"Attribution License","license_url":"https://creativecommons.org/licenses/by/2.0/","original_url":"https://perenual.com/storage/species_image/4356_iris_florentina/og/49640102246_215f0ca196_b.jpg","regular_url":"https://perenual.com/storage/species_image/4356_iris_florentina/regular/49640102246_215f0ca196_b.jpg","medium_url":"https://perenual.com/storage/species_image/4356_iris_florentina/medium/49640102246_215f0ca196_b.jpg","small_url":"https://perenual.com/storage/species_image/4356_iris_florentina/small/49640102246_215f0ca196_b.jpg","thumbnail":"https://perenual.com/storage/species_image/4356_iris_florentina/thumbnail/49640102246_215f0ca196_b.jpg"}},{"id":4357,"common_name":"stinking iris","scientific_name":["Iris foetidissima"],"other_name":null,"cycle":"Perennial","watering":"Average","sunlight":["Full sun","part shade"],"default_image":{"image_id":9034,"license":6,"license_name":"Attribution-NoDerivs License","license_url":"https://creativecommons.org/licenses/by-nd/2.0/","original_url":"https://perenual.com/storage/species_image/4357_iris_foetidissima/og/52141583029_235f036184_b.jpg"}},{"id":4358,"common_name":"Siberian iris","scientific_name":["Iris 'Fourfold White'"],"other_name":null,"cycle":"Perennial","watering":"Frequent","sunlight":["Full sun","part shade"],"default_image":{"image_id":9,"license":5,"license_name":"Attribution-ShareAlike License","license_url":"https://creativecommons.org/licenses/by-sa/2.0/","original_url":"https://perenual.com/storage/species_image/2_abies_alba_pyramidalis/og/49255769768_df55596553_b.jpg","regular_url":"https://perenual.com/storage/species_image/2_abies_alba_pyramidalis/regular/49255769768_df55596553_b.jpg","medium_url":"https://perenual.com/storage/species_image/2_abies_alba_pyramidalis/medium/49255769768_df55596553_b.jpg","small_url":"https://perenual.com/storage/species_image/2_abies_alba_pyramidalis/small/49255769768_df55596553_b.jpg","thumbnail":"https://perenual.com/storage/species_image/2_abies_alba_pyramidalis/thumbnail/49255769768_df55596553_b.jpg"}},{"id":4359,"common_name":"copper iris","scientific_name":["Iris fulva"],"other_name":null,"cycle":"Perennial","watering":"Frequent","sunlight":["Full sun","part shade"],"default_image":{"image_id":9041,"license":5,"license_name":"Attribution-ShareAlike License","license_url":"https://creativecommons.org/licenses/by-sa/2.0/","original_url":"https://perenual.com/storage/species_image/4359_iris_fulva/og/34660224161_57fa2a9091_b.jpg","regular_url":"https://perenual.com/storage/species_image/4359_iris_fulva/regular/34660224161_57fa2a9091_b.jpg","medium_url":"https://perenual.com/storage/species_image/4359_iris_fulva/medium/34660224161_57fa2a9091_b.jpg","small_url":"https://perenual.com/storage/species_image/4359_iris_fulva/small/34660224161_57fa2a9091_b.jpg","thumbnail":"https://perenual.com/storage/species_image/4359_iris_fulva/thumbnail/34660224161_57fa2a9091_b.jpg"}},{"id":4360,"common_name":"copper iris","scientific_name":["Iris fulva 'Lois Yellow'"],"other_name":null,"cycle":"Perennial","watering":"Frequent","sunlight":["Full sun","part shade"],"default_image":{"image_id":21865,"license":4,"license_name":"Attribution License","license_url":"https://creativecommons.org/licenses/by/2.0/","original_url":"https://perenual.com/storage/species_image/4360_iris_fulva_lois_yellow/og/27528607400_cd23671327_b.jpg","regular_url":"https://perenual.com/storage/species_image/4360_iris_fulva_lois_yellow/regular/27528607400_cd23671327_b.jpg","medium_url":"https://perenual.com/storage/species_image/4360_iris_fulva_lois_yellow/medium/27528607400_cd23671327_b.jpg","small_url":"https://perenual.com/storage/species_image/4360_iris_fulva_lois_yellow/small/27528607400_cd23671327_b.jpg","thumbnail":"https://perenual.com/storage/species_image/4360_iris_fulva_lois_yellow/thumbnail/27528607400_cd23671327_b.jpg"}},{"id":4361,"common_name":"tall bearded reblooming iris","scientific_name":["Iris 'Garden Grace'"],"other_name":null,"cycle":"Perennial","watering":"Average","sunlight":["Full sun"],"default_image":{"image_id":9,"license":5,"license_name":"Attribution-ShareAlike License","license_url":"https://creativecommons.org/licenses/by-sa/2.0/","original_url":"https://perenual.com/storage/species_image/2_abies_alba_pyramidalis/og/49255769768_df55596553_b.jpg","regular_url":"https://perenual.com/storage/species_image/2_abies_alba_pyramidalis/regular/49255769768_df55596553_b.jpg","medium_url":"https://perenual.com/storage/species_image/2_abies_alba_pyramidalis/medium/49255769768_df55596553_b.jpg","small_url":"https://perenual.com/storage/species_image/2_abies_alba_pyramidalis/small/49255769768_df55596553_b.jpg","thumbnail":"https://perenual.com/storage/species_image/2_abies_alba_pyramidalis/thumbnail/49255769768_df55596553_b.jpg"}},{"id":4362,"common_name":"iris","scientific_name":["Iris germanica"],"other_name":null,"cycle":"Perennial","watering":"Average","sunlight":["Full sun"],"default_image":{"image_id":9044,"license":4,"license_name":"Attribution License","license_url":"https://creativecommons.org/licenses/by/2.0/","original_url":"https://perenual.com/storage/species_image/4362_iris_germanica/og/49973941576_8beef93f99_b.jpg","regular_url":"https://perenual.com/storage/species_image/4362_iris_germanica/regular/49973941576_8beef93f99_b.jpg","medium_url":"https://perenual.com/storage/species_image/4362_iris_germanica/medium/49973941576_8beef93f99_b.jpg","small_url":"https://perenual.com/storage/species_image/4362_iris_germanica/small/49973941576_8beef93f99_b.jpg","thumbnail":"https://perenual.com/storage/species_image/4362_iris_germanica/thumbnail/49973941576_8beef93f99_b.jpg"}},{"id":4363,"common_name":"iris","scientific_name":["Iris graminea"],"other_name":null,"cycle":"Perennial","watering":"Average","sunlight":["Full sun","part shade"],"default_image":{"image_id":9049,"license":4,"license_name":"Attribution License","license_url":"https://creativecommons.org/licenses/by/2.0/","original_url":"https://perenual.com/storage/species_image/4363_iris_graminea/og/52605199028_935b55b355_b.jpg","regular_url":"https://perenual.com/storage/species_image/4363_iris_graminea/regular/52605199028_935b55b355_b.jpg","medium_url":"https://perenual.com/storage/species_image/4363_iris_graminea/medium/52605199028_935b55b355_b.jpg","small_url":"https://perenual.com/storage/species_image/4363_iris_graminea/small/52605199028_935b55b355_b.jpg","thumbnail":"https://perenual.com/storage/species_image/4363_iris_graminea/thumbnail/52605199028_935b55b355_b.jpg"}},{"id":4364,"common_name":"Siberian iris","scientific_name":["Iris 'Gull's Wing'"],"other_name":null,"cycle":"Perennial","watering":"Frequent","sunlight":["Full sun","part shade"],"default_image":{"image_id":9056,"license":5,"license_name":"Attribution-ShareAlike License","license_url":"https://creativecommons.org/licenses/by-sa/2.0/","original_url":"https://perenual.com/storage/species_image/4364_iris_gulls_wing/og/50020987677_ff29f16500_b.jpg","regular_url":"https://perenual.com/storage/species_image/4364_iris_gulls_wing/regular/50020987677_ff29f16500_b.jpg","medium_url":"https://perenual.com/storage/species_image/4364_iris_gulls_wing/medium/50020987677_ff29f16500_b.jpg","small_url":"https://perenual.com/storage/species_image/4364_iris_gulls_wing/small/50020987677_ff29f16500_b.jpg","thumbnail":"https://perenual.com/storage/species_image/4364_iris_gulls_wing/thumbnail/50020987677_ff29f16500_b.jpg"}},{"id":4365,"common_name":"tall bearded iris","scientific_name":["Iris 'Halloween Halo'"],"other_name":null,"cycle":"Perennial","watering":"Average","sunlight":["Full sun"],"default_image":{"image_id":9,"license":5,"license_name":"Attribution-ShareAlike License","license_url":"https://creativecommons.org/licenses/by-sa/2.0/","original_url":"https://perenual.com/storage/species_image/2_abies_alba_pyramidalis/og/49255769768_df55596553_b.jpg","regular_url":"https://perenual.com/storage/species_image/2_abies_alba_pyramidalis/regular/49255769768_df55596553_b.jpg","medium_url":"https://perenual.com/storage/species_image/2_abies_alba_pyramidalis/medium/49255769768_df55596553_b.jpg","small_url":"https://perenual.com/storage/species_image/2_abies_alba_pyramidalis/small/49255769768_df55596553_b.jpg","thumbnail":"https://perenual.com/storage/species_image/2_abies_alba_pyramidalis/thumbnail/49255769768_df55596553_b.jpg"}},{"id":4366,"common_name":"tall bearded reblooming iris","scientific_name":["Iris 'Happy New Year'"],"other_name":null,"cycle":"Perennial","watering":"Average","sunlight":["Full sun"],"default_image":{"image_id":9,"license":5,"license_name":"Attribution-ShareAlike License","license_url":"https://creativecommons.org/licenses/by-sa/2.0/","original_url":"https://perenual.com/storage/species_image/2_abies_alba_pyramidalis/og/49255769768_df55596553_b.jpg","regular_url":"https://perenual.com/storage/species_image/2_abies_alba_pyramidalis/regular/49255769768_df55596553_b.jpg","medium_url":"https://perenual.com/storage/species_image/2_abies_alba_pyramidalis/medium/49255769768_df55596553_b.jpg","small_url":"https://perenual.com/storage/species_image/2_abies_alba_pyramidalis/small/49255769768_df55596553_b.jpg","thumbnail":"https://perenual.com/storage/species_image/2_abies_alba_pyramidalis/thumbnail/49255769768_df55596553_b.jpg"}},{"id":4367,"common_name":"iris","scientific_name":["Iris hexagona"],"other_name":null,"cycle":"Perennial","watering":"Frequent","sunlight":["Full sun","part shade"],"default_image":{"image_id":9,"license":5,"license_name":"Attribution-ShareAlike License","license_url":"https://creativecommons.org/licenses/by-sa/2.0/","original_url":"https://perenual.com/storage/species_image/2_abies_alba_pyramidalis/og/49255769768_df55596553_b.jpg","regular_url":"https://perenual.com/storage/species_image/2_abies_alba_pyramidalis/regular/49255769768_df55596553_b.jpg","medium_url":"https://perenual.com/storage/species_image/2_abies_alba_pyramidalis/medium/49255769768_df55596553_b.jpg","small_url":"https://perenual.com/storage/species_image/2_abies_alba_pyramidalis/small/49255769768_df55596553_b.jpg","thumbnail":"https://perenual.com/storage/species_image/2_abies_alba_pyramidalis/thumbnail/49255769768_df55596553_b.jpg"}},{"id":4368,"common_name":"Siberian iris","scientific_name":["Iris 'Illini Charm'"],"other_name":null,"cycle":"Perennial","watering":"Frequent","sunlight":["Full sun","part shade"],"default_image":{"image_id":8964,"license":4,"license_name":"Attribution License","license_url":"https://creativecommons.org/licenses/by/2.0/","original_url":"https://perenual.com/storage/species_image/4353_iris_eric_the_red/og/52174660886_341698ce7c_b.jpg","regular_url":"https://perenual.com/storage/species_image/4353_iris_eric_the_red/regular/52174660886_341698ce7c_b.jpg","medium_url":"https://perenual.com/storage/species_image/4353_iris_eric_the_red/medium/52174660886_341698ce7c_b.jpg","small_url":"https://perenual.com/storage/species_image/4353_iris_eric_the_red/small/52174660886_341698ce7c_b.jpg","thumbnail":"https://perenual.com/storage/species_image/4353_iris_eric_the_red/thumbnail/52174660886_341698ce7c_b.jpg"}},{"id":4369,"common_name":"tall bearded iris","scientific_name":["Iris 'Immortality'"],"other_name":null,"cycle":"Perennial","watering":"Average","sunlight":["Full sun"],"default_image":{"image_id":9068,"license":4,"license_name":"Attribution License","license_url":"https://creativecommons.org/licenses/by/2.0/","original_url":"https://perenual.com/storage/species_image/4369_iris_immortality/og/46698615855_53d028247f_b.jpg","regular_url":"https://perenual.com/storage/species_image/4369_iris_immortality/regular/46698615855_53d028247f_b.jpg","medium_url":"https://perenual.com/storage/species_image/4369_iris_immortality/medium/46698615855_53d028247f_b.jpg","small_url":"https://perenual.com/storage/species_image/4369_iris_immortality/small/46698615855_53d028247f_b.jpg","thumbnail":"https://perenual.com/storage/species_image/4369_iris_immortality/thumbnail/46698615855_53d028247f_b.jpg"}},{"id":4370,"common_name":"Japanese iris","scientific_name":["Iris japonica"],"other_name":null,"cycle":"Perennial","watering":"Average","sunlight":["Part shade"],"default_image":{"image_id":9073,"license":4,"license_name":"Attribution License","license_url":"https://creativecommons.org/licenses/by/2.0/","original_url":"https://perenual.com/storage/species_image/4370_iris_japonica/og/51172696523_e5dbccb344_b.jpg","regular_url":"https://perenual.com/storage/species_image/4370_iris_japonica/regular/51172696523_e5dbccb344_b.jpg","medium_url":"https://perenual.com/storage/species_image/4370_iris_japonica/medium/51172696523_e5dbccb344_b.jpg","small_url":"https://perenual.com/storage/species_image/4370_iris_japonica/small/51172696523_e5dbccb344_b.jpg","thumbnail":"https://perenual.com/storage/species_image/4370_iris_japonica/thumbnail/51172696523_e5dbccb344_b.jpg"}},{"id":4371,"common_name":"tall bearded reblooming iris","scientific_name":["Iris 'Jennifer Rebecca'"],"other_name":null,"cycle":"Perennial","watering":"Average","sunlight":["Full sun"],"default_image":{"image_id":22019,"license":3,"license_name":null,"license_url":null,"original_url":"https://perenual.com/storage/species_image/4437_iris_winesap/og/3499146512_2f2806f2ac_b.jpg","regular_url":"https://perenual.com/storage/species_image/4437_iris_winesap/regular/3499146512_2f2806f2ac_b.jpg","medium_url":"https://perenual.com/storage/species_image/4437_iris_winesap/medium/3499146512_2f2806f2ac_b.jpg","small_url":"https://perenual.com/storage/species_image/4437_iris_winesap/small/3499146512_2f2806f2ac_b.jpg","thumbnail":"https://perenual.com/storage/species_image/4437_iris_winesap/thumbnail/3499146512_2f2806f2ac_b.jpg"}},{"id":4372,"common_name":"iris","scientific_name":["Iris 'Katharine Hodgkin'"],"other_name":null,"cycle":"Perennial","watering":"Average","sunlight":["Full sun","part shade"],"default_image":{"image_id":9,"license":5,"license_name":"Attribution-ShareAlike License","license_url":"https://creativecommons.org/licenses/by-sa/2.0/","original_url":"https://perenual.com/storage/species_image/2_abies_alba_pyramidalis/og/49255769768_df55596553_b.jpg","regular_url":"https://perenual.com/storage/species_image/2_abies_alba_pyramidalis/regular/49255769768_df55596553_b.jpg","medium_url":"https://perenual.com/storage/species_image/2_abies_alba_pyramidalis/medium/49255769768_df55596553_b.jpg","small_url":"https://perenual.com/storage/species_image/2_abies_alba_pyramidalis/small/49255769768_df55596553_b.jpg","thumbnail":"https://perenual.com/storage/species_image/2_abies_alba_pyramidalis/thumbnail/49255769768_df55596553_b.jpg"}},{"id":4373,"common_name":"standard dwarf bearded iris","scientific_name":["Iris 'Kiwi Slices'"],"other_name":null,"cycle":"Perennial","watering":"Average","sunlight":["Full sun"],"default_image":{"image_id":9,"license":5,"license_name":"Attribution-ShareAlike License","license_url":"https://creativecommons.org/licenses/by-sa/2.0/","original_url":"https://perenual.com/storage/species_image/2_abies_alba_pyramidalis/og/49255769768_df55596553_b.jpg","regular_url":"https://perenual.com/storage/species_image/2_abies_alba_pyramidalis/regular/49255769768_df55596553_b.jpg","medium_url":"https://perenual.com/storage/species_image/2_abies_alba_pyramidalis/medium/49255769768_df55596553_b.jpg","small_url":"https://perenual.com/storage/species_image/2_abies_alba_pyramidalis/small/49255769768_df55596553_b.jpg","thumbnail":"https://perenual.com/storage/species_image/2_abies_alba_pyramidalis/thumbnail/49255769768_df55596553_b.jpg"}},{"id":4374,"common_name":"tall bearded reblooming iris","scientific_name":["Iris 'Lady Jean'"],"other_name":null,"cycle":"Perennial","watering":"Average","sunlight":["Full sun"],"default_image":{"image_id":22019,"license":3,"license_name":null,"license_url":null,"original_url":"https://perenual.com/storage/species_image/4437_iris_winesap/og/3499146512_2f2806f2ac_b.jpg","regular_url":"https://perenual.com/storage/species_image/4437_iris_winesap/regular/3499146512_2f2806f2ac_b.jpg","medium_url":"https://perenual.com/storage/species_image/4437_iris_winesap/medium/3499146512_2f2806f2ac_b.jpg","small_url":"https://perenual.com/storage/species_image/4437_iris_winesap/small/3499146512_2f2806f2ac_b.jpg","thumbnail":"https://perenual.com/storage/species_image/4437_iris_winesap/thumbnail/3499146512_2f2806f2ac_b.jpg"}},{"id":4375,"common_name":"Siberian iris","scientific_name":["Iris 'Lady of Quality'"],"other_name":null,"cycle":"Perennial","watering":"Frequent","sunlight":["Full sun","part shade"],"default_image":{"image_id":8966,"license":5,"license_name":"Attribution-ShareAlike License","license_url":"https://creativecommons.org/licenses/by-sa/2.0/","original_url":"https://perenual.com/storage/species_image/4414_iris_sparkle/og/52138163107_7045290af6_b.jpg","regular_url":"https://perenual.com/storage/species_image/4414_iris_sparkle/regular/52138163107_7045290af6_b.jpg","medium_url":"https://perenual.com/storage/species_image/4414_iris_sparkle/medium/52138163107_7045290af6_b.jpg","small_url":"https://perenual.com/storage/species_image/4414_iris_sparkle/small/52138163107_7045290af6_b.jpg","thumbnail":"https://perenual.com/storage/species_image/4414_iris_sparkle/thumbnail/52138163107_7045290af6_b.jpg"}},{"id":4376,"common_name":"Siberian iris","scientific_name":["Iris 'Lady Vanessa'"],"other_name":null,"cycle":"Perennial","watering":"Frequent","sunlight":["Full sun","part shade"],"default_image":{"image_id":8917,"license":5,"license_name":"Attribution-ShareAlike License","license_url":"https://creativecommons.org/licenses/by-sa/2.0/","original_url":"https://perenual.com/storage/species_image/4335_iris_chilled_wine/og/52134176206_0cce500c3a_b.jpg","regular_url":"https://perenual.com/storage/species_image/4335_iris_chilled_wine/regular/52134176206_0cce500c3a_b.jpg","medium_url":"https://perenual.com/storage/species_image/4335_iris_chilled_wine/medium/52134176206_0cce500c3a_b.jpg","small_url":"https://perenual.com/storage/species_image/4335_iris_chilled_wine/small/52134176206_0cce500c3a_b.jpg","thumbnail":"https://perenual.com/storage/species_image/4335_iris_chilled_wine/thumbnail/52134176206_0cce500c3a_b.jpg"}},{"id":4377,"common_name":"Siberian iris","scientific_name":["Iris 'Lavender Bounty'"],"other_name":null,"cycle":"Perennial","watering":"Frequent","sunlight":["Full sun","part shade"],"default_image":{"image_id":9088,"license":5,"license_name":"Attribution-ShareAlike License","license_url":"https://creativecommons.org/licenses/by-sa/2.0/","original_url":"https://perenual.com/storage/species_image/4377_iris_lavender_bounty/og/27547880226_2fdff11732_b.jpg","regular_url":"https://perenual.com/storage/species_image/4377_iris_lavender_bounty/regular/27547880226_2fdff11732_b.jpg","medium_url":"https://perenual.com/storage/species_image/4377_iris_lavender_bounty/medium/27547880226_2fdff11732_b.jpg","small_url":"https://perenual.com/storage/species_image/4377_iris_lavender_bounty/small/27547880226_2fdff11732_b.jpg","thumbnail":"https://perenual.com/storage/species_image/4377_iris_lavender_bounty/thumbnail/27547880226_2fdff11732_b.jpg"}},{"id":4378,"common_name":"tall bearded reblooming iris","scientific_name":["Iris 'Lemon Duet'"],"other_name":null,"cycle":"Perennial","watering":"Average","sunlight":["Full sun"],"default_image":{"image_id":22022,"license":1,"license_name":null,"license_url":null,"original_url":"https://perenual.com/storage/species_image/4378_iris_lemon_duet/og/1456139726_6fd6ccdd30_b.jpg","regular_url":"https://perenual.com/storage/species_image/4378_iris_lemon_duet/regular/1456139726_6fd6ccdd30_b.jpg","medium_url":"https://perenual.com/storage/species_image/4378_iris_lemon_duet/medium/1456139726_6fd6ccdd30_b.jpg","small_url":"https://perenual.com/storage/species_image/4378_iris_lemon_duet/small/1456139726_6fd6ccdd30_b.jpg","thumbnail":"https://perenual.com/storage/species_image/4378_iris_lemon_duet/thumbnail/1456139726_6fd6ccdd30_b.jpg"}},{"id":4379,"common_name":"iris","scientific_name":["Iris maackii"],"other_name":null,"cycle":"Perennial","watering":"Average","sunlight":["Full sun","part shade"],"default_image":{"image_id":9094,"license":4,"license_name":"Attribution License","license_url":"https://creativecommons.org/licenses/by/2.0/","original_url":"https://perenual.com/storage/species_image/4379_iris_maackii/og/50008393526_4b57deba12_b.jpg","regular_url":"https://perenual.com/storage/species_image/4379_iris_maackii/regular/50008393526_4b57deba12_b.jpg","medium_url":"https://perenual.com/storage/species_image/4379_iris_maackii/medium/50008393526_4b57deba12_b.jpg","small_url":"https://perenual.com/storage/species_image/4379_iris_maackii/small/50008393526_4b57deba12_b.jpg","thumbnail":"https://perenual.com/storage/species_image/4379_iris_maackii/thumbnail/50008393526_4b57deba12_b.jpg"}},{"id":4380,"common_name":"tall bearded iris","scientific_name":["Iris 'Midnight Fragrance'"],"other_name":null,"cycle":"Perennial","watering":"Average","sunlight":["Full sun"],"default_image":{"image_id":8968,"license":5,"license_name":"Attribution-ShareAlike License","license_url":"https://creativecommons.org/licenses/by-sa/2.0/","original_url":"https://perenual.com/storage/species_image/4380_iris_midnight_fragrance/og/49976880827_d48d1b5479_b.jpg","regular_url":"https://perenual.com/storage/species_image/4380_iris_midnight_fragrance/regular/49976880827_d48d1b5479_b.jpg","medium_url":"https://perenual.com/storage/species_image/4380_iris_midnight_fragrance/medium/49976880827_d48d1b5479_b.jpg","small_url":"https://perenual.com/storage/species_image/4380_iris_midnight_fragrance/small/49976880827_d48d1b5479_b.jpg","thumbnail":"https://perenual.com/storage/species_image/4380_iris_midnight_fragrance/thumbnail/49976880827_d48d1b5479_b.jpg"}}],"to":4380,"per_page":30,"current_page":146,"from":4351,"last_page":200,"total":6000}