{"data":[{"id":2911,"common_name":"Joe Pye weed","scientific_name":["Eutrochium purpureum 'Little Red'"],"other_name":null,"cycle":"Perennial","watering":"Average","sunlight":["Full sun","part shade"],"default_image":{"image_id":6325,"license":451,"license_name":"CC0 1.0 Universal (CC0 1.0) Public Domain Dedication","license_url":"https://creativecommons.org/publicdomain/zero/1.0/","original_url":"https://perenual.com/storage/species_image/2911_eutrochium_purpureum_little_red/og/joe_pye_weed_butterfly_flowers_yellow_pink_beautiful_nature_blossom-1098306.jpg","regular_url":"https://perenual.com/storage/species_image/2911_eutrochium_purpureum_little_red/regular/joe_pye_weed_butterfly_flowers_yellow_pink_beautiful_nature_blossom-1098306.jpg","medium_url":"https://perenual.com/storage/species_image/2911_eutrochium_purpureum_little_red/medium/joe_pye_weed_butterfly_flowers_yellow_pink_beautiful_nature_blossom-1098306.jpg","small_url":"https://perenual.com/storage/species_image/2911_eutrochium_purpureum_little_red/small/joe_pye_weed_butterfly_flowers_yellow_pink_beautiful_nature_blossom-1098306.jpg","thumbnail":"https://perenual.com/storage/species_image/2911_eutrochium_purpureum_little_red/thumbnail/joe_pye_weed_butterfly_flowers_yellow_pink_beautiful_nature_blossom-1098306.jpg"}},{"id":2912,"common_name":"Brazilian dwarf morning-glory","scientific_name":["Evolvulus glomeratus"],"other_name":null,"cycle":"Perennial","watering":"Average","sunlight":["Full sun"],"default_image":{"image_id":6326,"license":4,"license_name":"Attribution License","license_url":"https://creativecommons.org/licenses/by/2.0/","original_url":"https://perenual.com/storage/species_image/2912_evolvulus_glomeratus/og/49956928457_92fc2ea50e_b.jpg","regular_url":"https://perenual.com/storage/species_image/2912_evolvulus_glomeratus/regular/49956928457_92fc2ea50e_b.jpg","medium_url":"https://perenual.com/storage/species_image/2912_evolvulus_glomeratus/medium/49956928457_92fc2ea50e_b.jpg","small_url":"https://perenual.com/storage/species_image/2912_evolvulus_glomeratus/small/49956928457_92fc2ea50e_b.jpg","thumbnail":"https://perenual.com/storage/species_image/2912_evolvulus_glomeratus/thumbnail/49956928457_92fc2ea50e_b.jpg"}},{"id":2913,"common_name":"evolvulus","scientific_name":["Evolvulus glomeratus 'Hawaiian Blue Eyes'"],"other_name":null,"cycle":"Perennial","watering":"Average","sunlight":["Full sun"],"default_image":{"image_id":6328,"license":5,"license_name":"Attribution-ShareAlike License","license_url":"https://creativecommons.org/licenses/by-sa/2.0/","original_url":"https://perenual.com/storage/species_image/2913_evolvulus_glomeratus_hawaiian_blue_eyes/og/452084892_8ea6ed4939_b.jpg","regular_url":"https://perenual.com/storage/species_image/2913_evolvulus_glomeratus_hawaiian_blue_eyes/regular/452084892_8ea6ed4939_b.jpg","medium_url":"https://perenual.com/storage/species_image/2913_evolvulus_glomeratus_hawaiian_blue_eyes/medium/452084892_8ea6ed4939_b.jpg","small_url":"https://perenual.com/storage/species_image/2913_evolvulus_glomeratus_hawaiian_blue_eyes/small/452084892_8ea6ed4939_b.jpg","thumbnail":"https://perenual.com/storage/species_image/2913_evolvulus_glomeratus_hawaiian_blue_eyes/thumbnail/452084892_8ea6ed4939_b.jpg"}},{"id":2914,"common_name":"evolvulus","scientific_name":["Evolvulus nuttallianus"],"other_name":null,"cycle":"Annual","watering":"Average","sunlight":["Full sun","part shade"],"default_image":{"image_id":9,"license":5,"license_name":"Attribution-ShareAlike License","license_url":"https://creativecommons.org/licenses/by-sa/2.0/","original_url":"https://perenual.com/storage/species_image/2_abies_alba_pyramidalis/og/49255769768_df55596553_b.jpg","regular_url":"https://perenual.com/storage/species_image/2_abies_alba_pyramidalis/regular/49255769768_df55596553_b.jpg","medium_url":"https://perenual.com/storage/species_image/2_abies_alba_pyramidalis/medium/49255769768_df55596553_b.jpg","small_url":"https://perenual.com/storage/species_image/2_abies_alba_pyramidalis/small/49255769768_df55596553_b.jpg","thumbnail":"https://perenual.com/storage/species_image/2_abies_alba_pyramidalis/thumbnail/49255769768_df55596553_b.jpg"}},{"id":2915,"common_name":"Persian violet","scientific_name":["Exacum affine"],"other_name":null,"cycle":"Perennial","watering":"Average","sunlight":["Part shade"],"default_image":{"image_id":9,"license":5,"license_name":"Attribution-ShareAlike License","license_url":"https://creativecommons.org/licenses/by-sa/2.0/","original_url":"https://perenual.com/storage/species_image/2_abies_alba_pyramidalis/og/49255769768_df55596553_b.jpg","regular_url":"https://perenual.com/storage/species_image/2_abies_alba_pyramidalis/regular/49255769768_df55596553_b.jpg","medium_url":"https://perenual.com/storage/species_image/2_abies_alba_pyramidalis/medium/49255769768_df55596553_b.jpg","small_url":"https://perenual.com/storage/species_image/2_abies_alba_pyramidalis/small/49255769768_df55596553_b.jpg","thumbnail":"https://perenual.com/storage/species_image/2_abies_alba_pyramidalis/thumbnail/49255769768_df55596553_b.jpg"}},{"id":2916,"common_name":"pearlbush","scientific_name":["Exochorda macrantha 'The Bride'"],"other_name":null,"cycle":"Perennial","watering":"Average","sunlight":["Full sun","part shade"],"default_image":{"image_id":9,"license":5,"license_name":"Attribution-ShareAlike License","license_url":"https://creativecommons.org/licenses/by-sa/2.0/","original_url":"https://perenual.com/storage/species_image/2_abies_alba_pyramidalis/og/49255769768_df55596553_b.jpg","regular_url":"https://perenual.com/storage/species_image/2_abies_alba_pyramidalis/regular/49255769768_df55596553_b.jpg","medium_url":"https://perenual.com/storage/species_image/2_abies_alba_pyramidalis/medium/49255769768_df55596553_b.jpg","small_url":"https://perenual.com/storage/species_image/2_abies_alba_pyramidalis/small/49255769768_df55596553_b.jpg","thumbnail":"https://perenual.com/storage/species_image/2_abies_alba_pyramidalis/thumbnail/49255769768_df55596553_b.jpg"}},{"id":2917,"common_name":"pearlbush","scientific_name":["Exochorda 'Niagara' SNOW DAY SURPRISE"],"other_name":null,"cycle":"Perennial","watering":"Average","sunlight":["Full sun","part shade"],"default_image":{"image_id":9,"license":5,"license_name":"Attribution-ShareAlike License","license_url":"https://creativecommons.org/licenses/by-sa/2.0/","original_url":"https://perenual.com/storage/species_image/2_abies_alba_pyramidalis/og/49255769768_df55596553_b.jpg","regular_url":"https://perenual.com/storage/species_image/2_abies_alba_pyramidalis/regular/49255769768_df55596553_b.jpg","medium_url":"https://perenual.com/storage/species_image/2_abies_alba_pyramidalis/medium/49255769768_df55596553_b.jpg","small_url":"https://perenual.com/storage/species_image/2_abies_alba_pyramidalis/small/49255769768_df55596553_b.jpg","thumbnail":"https://perenual.com/storage/species_image/2_abies_alba_pyramidalis/thumbnail/49255769768_df55596553_b.jpg"}},{"id":2918,"common_name":"pearlbush","scientific_name":["Exochorda serratifolia"],"other_name":null,"cycle":"Perennial","watering":"Average","sunlight":["Full sun","part shade"],"default_image":{"image_id":6340,"license":5,"license_name":"Attribution-ShareAlike License","license_url":"https://creativecommons.org/licenses/by-sa/2.0/","original_url":"https://perenual.com/storage/species_image/2918_exochorda_serratifolia/og/41992572992_18182d5940_b.jpg","regular_url":"https://perenual.com/storage/species_image/2918_exochorda_serratifolia/regular/41992572992_18182d5940_b.jpg","medium_url":"https://perenual.com/storage/species_image/2918_exochorda_serratifolia/medium/41992572992_18182d5940_b.jpg","small_url":"https://perenual.com/storage/species_image/2918_exochorda_serratifolia/small/41992572992_18182d5940_b.jpg","thumbnail":"https://perenual.com/storage/species_image/2918_exochorda_serratifolia/thumbnail/41992572992_18182d5940_b.jpg"}},{"id":2919,"common_name":"pearlbush","scientific_name":["Exochorda serratifolia 'Northern Pearls'"],"other_name":null,"cycle":"Perennial","watering":"Average","sunlight":["Full sun","part shade"],"default_image":{"image_id":9,"license":5,"license_name":"Attribution-ShareAlike License","license_url":"https://creativecommons.org/licenses/by-sa/2.0/","original_url":"https://perenual.com/storage/species_image/2_abies_alba_pyramidalis/og/49255769768_df55596553_b.jpg","regular_url":"https://perenual.com/storage/species_image/2_abies_alba_pyramidalis/regular/49255769768_df55596553_b.jpg","medium_url":"https://perenual.com/storage/species_image/2_abies_alba_pyramidalis/medium/49255769768_df55596553_b.jpg","small_url":"https://perenual.com/storage/species_image/2_abies_alba_pyramidalis/small/49255769768_df55596553_b.jpg","thumbnail":"https://perenual.com/storage/species_image/2_abies_alba_pyramidalis/thumbnail/49255769768_df55596553_b.jpg"}},{"id":2920,"common_name":"American beech","scientific_name":["Fagus grandifolia"],"other_name":null,"cycle":"Perennial","watering":"Average","sunlight":["Deep shade"," Filtered shade"," Full sun"," Part sun/part shade"],"default_image":{"image_id":6344,"license":5,"license_name":"Attribution-ShareAlike License","license_url":"https://creativecommons.org/licenses/by-sa/2.0/","original_url":"https://perenual.com/storage/species_image/2920_fagus_grandifolia/og/36261305260_db404fa3ed_b.jpg","regular_url":"https://perenual.com/storage/species_image/2920_fagus_grandifolia/regular/36261305260_db404fa3ed_b.jpg","medium_url":"https://perenual.com/storage/species_image/2920_fagus_grandifolia/medium/36261305260_db404fa3ed_b.jpg","small_url":"https://perenual.com/storage/species_image/2920_fagus_grandifolia/small/36261305260_db404fa3ed_b.jpg","thumbnail":"https://perenual.com/storage/species_image/2920_fagus_grandifolia/thumbnail/36261305260_db404fa3ed_b.jpg"}},{"id":2921,"common_name":"purple beech","scientific_name":["Fagus sylvatica (Atropurpurea Group)"],"other_name":["Golden Fastigiate Beech","European Beech"],"cycle":"Perennial","watering":"Average","sunlight":["Full sun"],"default_image":{"image_id":9,"license":5,"license_name":"Attribution-ShareAlike License","license_url":"https://creativecommons.org/licenses/by-sa/2.0/","original_url":"https://perenual.com/storage/species_image/2_abies_alba_pyramidalis/og/49255769768_df55596553_b.jpg","regular_url":"https://perenual.com/storage/species_image/2_abies_alba_pyramidalis/regular/49255769768_df55596553_b.jpg","medium_url":"https://perenual.com/storage/species_image/2_abies_alba_pyramidalis/medium/49255769768_df55596553_b.jpg","small_url":"https://perenual.com/storage/species_image/2_abies_alba_pyramidalis/small/49255769768_df55596553_b.jpg","thumbnail":"https://perenual.com/storage/species_image/2_abies_alba_pyramidalis/thumbnail/49255769768_df55596553_b.jpg"}},{"id":2922,"common_name":"European beech","scientific_name":["Fagus sylvatica 'Purpurea Tricolor'"],"other_name":["Golden Fastigiate Beech","European Beech"],"cycle":"Perennial","watering":"Average","sunlight":["Full sun"],"default_image":{"image_id":9,"license":5,"license_name":"Attribution-ShareAlike License","license_url":"https://creativecommons.org/licenses/by-sa/2.0/","original_url":"https://perenual.com/storage/species_image/2_abies_alba_pyramidalis/og/49255769768_df55596553_b.jpg","regular_url":"https://perenual.com/storage/species_image/2_abies_alba_pyramidalis/regular/49255769768_df55596553_b.jpg","medium_url":"https://perenual.com/storage/species_image/2_abies_alba_pyramidalis/medium/49255769768_df55596553_b.jpg","small_url":"https://perenual.com/storage/species_image/2_abies_alba_pyramidalis/small/49255769768_df55596553_b.jpg","thumbnail":"https://perenual.com/storage/species_image/2_abies_alba_pyramidalis/thumbnail/49255769768_df55596553_b.jpg"}},{"id":2923,"common_name":"European beech","scientific_name":["Fagus sylvatica 'Riversii'"],"other_name":["Golden Fastigiate Beech","European Beech"],"cycle":"Perennial","watering":"Average","sunlight":["Full sun"],"default_image":{"image_id":9,"license":5,"license_name":"Attribution-ShareAlike License","license_url":"https://creativecommons.org/licenses/by-sa/2.0/","original_url":"https://perenual.com/storage/species_image/2_abies_alba_pyramidalis/og/49255769768_df55596553_b.jpg","regular_url":"https://perenual.com/storage/species_image/2_abies_alba_pyramidalis/regular/49255769768_df55596553_b.jpg","medium_url":"https://perenual.com/storage/species_image/2_abies_alba_pyramidalis/medium/49255769768_df55596553_b.jpg","small_url":"https://perenual.com/storage/species_image/2_abies_alba_pyramidalis/small/49255769768_df55596553_b.jpg","thumbnail":"https://perenual.com/storage/species_image/2_abies_alba_pyramidalis/thumbnail/49255769768_df55596553_b.jpg"}},{"id":2924,"common_name":"European beech","scientific_name":["Fagus sylvatica 'Rohanii'"],"other_name":["Golden Fastigiate Beech","European Beech"],"cycle":"Perennial","watering":"Average","sunlight":["Full sun"],"default_image":{"image_id":6351,"license":5,"license_name":"Attribution-ShareAlike License","license_url":"https://creativecommons.org/licenses/by-sa/2.0/","original_url":"https://perenual.com/storage/species_image/2924_fagus_sylvatica_rohanii/og/28188051854_da1670a22c_b.jpg","regular_url":"https://perenual.com/storage/species_image/2924_fagus_sylvatica_rohanii/regular/28188051854_da1670a22c_b.jpg","medium_url":"https://perenual.com/storage/species_image/2924_fagus_sylvatica_rohanii/medium/28188051854_da1670a22c_b.jpg","small_url":"https://perenual.com/storage/species_image/2924_fagus_sylvatica_rohanii/small/28188051854_da1670a22c_b.jpg","thumbnail":"https://perenual.com/storage/species_image/2924_fagus_sylvatica_rohanii/thumbnail/28188051854_da1670a22c_b.jpg"}},{"id":2925,"common_name":"European beech","scientific_name":["Fagus sylvatica 'Tricolor'"],"other_name":["Golden Fastigiate Beech","European Beech"],"cycle":"Perennial","watering":"Average","sunlight":["Full sun"],"default_image":{"image_id":9,"license":5,"license_name":"Attribution-ShareAlike License","license_url":"https://creativecommons.org/licenses/by-sa/2.0/","original_url":"https://perenual.com/storage/species_image/2_abies_alba_pyramidalis/og/49255769768_df55596553_b.jpg","regular_url":"https://perenual.com/storage/species_image/2_abies_alba_pyramidalis/regular/49255769768_df55596553_b.jpg","medium_url":"https://perenual.com/storage/species_image/2_abies_alba_pyramidalis/medium/49255769768_df55596553_b.jpg","small_url":"https://perenual.com/storage/species_image/2_abies_alba_pyramidalis/small/49255769768_df55596553_b.jpg","thumbnail":"https://perenual.com/storage/species_image/2_abies_alba_pyramidalis/thumbnail/49255769768_df55596553_b.jpg"}},{"id":2926,"common_name":"European beech","scientific_name":["Fagus sylvatica var. heterophylla 'Aspleniifolia'"],"other_name":["Golden Fastigiate Beech","European Beech"],"cycle":"Perennial","watering":"Average","sunlight":["Full sun"],"default_image":{"image_id":6354,"license":4,"license_name":"Attribution License","license_url":"https://creativecommons.org/licenses/by/2.0/","original_url":"https://perenual.com/storage/species_image/2926_fagus_sylvatica_var_heterophylla_aspleniifolia/og/51874790724_d9b718fb03_b.jpg","regular_url":"https://perenual.com/storage/species_image/2926_fagus_sylvatica_var_heterophylla_aspleniifolia/regular/51874790724_d9b718fb03_b.jpg","medium_url":"https://perenual.com/storage/species_image/2926_fagus_sylvatica_var_heterophylla_aspleniifolia/medium/51874790724_d9b718fb03_b.jpg","small_url":"https://perenual.com/storage/species_image/2926_fagus_sylvatica_var_heterophylla_aspleniifolia/small/51874790724_d9b718fb03_b.jpg","thumbnail":"https://perenual.com/storage/species_image/2926_fagus_sylvatica_var_heterophylla_aspleniifolia/thumbnail/51874790724_d9b718fb03_b.jpg"}},{"id":2927,"common_name":"silver lace vine","scientific_name":["Fallopia baldschuanica"],"other_name":null,"cycle":"Perennial","watering":"Average","sunlight":["Full sun","part shade"],"default_image":{"image_id":6355,"license":4,"license_name":"Attribution License","license_url":"https://creativecommons.org/licenses/by/2.0/","original_url":"https://perenual.com/storage/species_image/2927_fallopia_baldschuanica/og/44313649715_9606f40ddc_b.jpg","regular_url":"https://perenual.com/storage/species_image/2927_fallopia_baldschuanica/regular/44313649715_9606f40ddc_b.jpg","medium_url":"https://perenual.com/storage/species_image/2927_fallopia_baldschuanica/medium/44313649715_9606f40ddc_b.jpg","small_url":"https://perenual.com/storage/species_image/2927_fallopia_baldschuanica/small/44313649715_9606f40ddc_b.jpg","thumbnail":"https://perenual.com/storage/species_image/2927_fallopia_baldschuanica/thumbnail/44313649715_9606f40ddc_b.jpg"}},{"id":2928,"common_name":"silver lace vine","scientific_name":["Fallopia baldschuanica 'Lemon Lace'"],"other_name":null,"cycle":"Perennial","watering":"Average","sunlight":["Full sun","part shade"],"default_image":{"image_id":9,"license":5,"license_name":"Attribution-ShareAlike License","license_url":"https://creativecommons.org/licenses/by-sa/2.0/","original_url":"https://perenual.com/storage/species_image/2_abies_alba_pyramidalis/og/49255769768_df55596553_b.jpg","regular_url":"https://perenual.com/storage/species_image/2_abies_alba_pyramidalis/regular/49255769768_df55596553_b.jpg","medium_url":"https://perenual.com/storage/species_image/2_abies_alba_pyramidalis/medium/49255769768_df55596553_b.jpg","small_url":"https://perenual.com/storage/species_image/2_abies_alba_pyramidalis/small/49255769768_df55596553_b.jpg","thumbnail":"https://perenual.com/storage/species_image/2_abies_alba_pyramidalis/thumbnail/49255769768_df55596553_b.jpg"}},{"id":2929,"common_name":"Japanese knotweed","scientific_name":["Fallopia japonica var. compacta"],"other_name":null,"cycle":"Perennial","watering":"Average","sunlight":["Full sun","part shade"],"default_image":{"image_id":6356,"license":4,"license_name":"Attribution License","license_url":"https://creativecommons.org/licenses/by/2.0/","original_url":"https://perenual.com/storage/species_image/2929_fallopia_japonica_var_compacta/og/51873956359_35c9b034e6_b.jpg","regular_url":"https://perenual.com/storage/species_image/2929_fallopia_japonica_var_compacta/regular/51873956359_35c9b034e6_b.jpg","medium_url":"https://perenual.com/storage/species_image/2929_fallopia_japonica_var_compacta/medium/51873956359_35c9b034e6_b.jpg","small_url":"https://perenual.com/storage/species_image/2929_fallopia_japonica_var_compacta/small/51873956359_35c9b034e6_b.jpg","thumbnail":"https://perenual.com/storage/species_image/2929_fallopia_japonica_var_compacta/thumbnail/51873956359_35c9b034e6_b.jpg"}},{"id":2930,"common_name":"leopard plant","scientific_name":["Farfugium japonicum"],"other_name":null,"cycle":"Perennial","watering":"Average","sunlight":["Part shade","full shade"],"default_image":{"image_id":9,"license":5,"license_name":"Attribution-ShareAlike License","license_url":"https://creativecommons.org/licenses/by-sa/2.0/","original_url":"https://perenual.com/storage/species_image/2_abies_alba_pyramidalis/og/49255769768_df55596553_b.jpg","regular_url":"https://perenual.com/storage/species_image/2_abies_alba_pyramidalis/regular/49255769768_df55596553_b.jpg","medium_url":"https://perenual.com/storage/species_image/2_abies_alba_pyramidalis/medium/49255769768_df55596553_b.jpg","small_url":"https://perenual.com/storage/species_image/2_abies_alba_pyramidalis/small/49255769768_df55596553_b.jpg","thumbnail":"https://perenual.com/storage/species_image/2_abies_alba_pyramidalis/thumbnail/49255769768_df55596553_b.jpg"}},{"id":2931,"common_name":"farfugium","scientific_name":["Farfugium japonicum var. giganteum"],"other_name":null,"cycle":"Perennial","watering":"Average","sunlight":["Part shade","full shade"],"default_image":{"image_id":9,"license":5,"license_name":"Attribution-ShareAlike License","license_url":"https://creativecommons.org/licenses/by-sa/2.0/","original_url":"https://perenual.com/storage/species_image/2_abies_alba_pyramidalis/og/49255769768_df55596553_b.jpg","regular_url":"https://perenual.com/storage/species_image/2_abies_alba_pyramidalis/regular/49255769768_df55596553_b.jpg","medium_url":"https://perenual.com/storage/species_image/2_abies_alba_pyramidalis/medium/49255769768_df55596553_b.jpg","small_url":"https://perenual.com/storage/species_image/2_abies_alba_pyramidalis/small/49255769768_df55596553_b.jpg","thumbnail":"https://perenual.com/storage/species_image/2_abies_alba_pyramidalis/thumbnail/49255769768_df55596553_b.jpg"}},{"id":2932,"common_name":"leopard plant","scientific_name":["Farfugium japonicum 'Wavy Gravy'"],"other_name":null,"cycle":"Perennial","watering":"Average","sunlight":["Part shade","full shade"],"default_image":{"image_id":9,"license":5,"license_name":"Attribution-ShareAlike License","license_url":"https://creativecommons.org/licenses/by-sa/2.0/","original_url":"https://perenual.com/storage/species_image/2_abies_alba_pyramidalis/og/49255769768_df55596553_b.jpg","regular_url":"https://perenual.com/storage/species_image/2_abies_alba_pyramidalis/regular/49255769768_df55596553_b.jpg","medium_url":"https://perenual.com/storage/species_image/2_abies_alba_pyramidalis/medium/49255769768_df55596553_b.jpg","small_url":"https://perenual.com/storage/species_image/2_abies_alba_pyramidalis/small/49255769768_df55596553_b.jpg","thumbnail":"https://perenual.com/storage/species_image/2_abies_alba_pyramidalis/thumbnail/49255769768_df55596553_b.jpg"}},{"id":2933,"common_name":"hardy bamboo","scientific_name":["Fargesia rufa"],"other_name":null,"cycle":"Perennial","watering":"Average","sunlight":["Part shade"],"default_image":{"image_id":9,"license":5,"license_name":"Attribution-ShareAlike License","license_url":"https://creativecommons.org/licenses/by-sa/2.0/","original_url":"https://perenual.com/storage/species_image/2_abies_alba_pyramidalis/og/49255769768_df55596553_b.jpg","regular_url":"https://perenual.com/storage/species_image/2_abies_alba_pyramidalis/regular/49255769768_df55596553_b.jpg","medium_url":"https://perenual.com/storage/species_image/2_abies_alba_pyramidalis/medium/49255769768_df55596553_b.jpg","small_url":"https://perenual.com/storage/species_image/2_abies_alba_pyramidalis/small/49255769768_df55596553_b.jpg","thumbnail":"https://perenual.com/storage/species_image/2_abies_alba_pyramidalis/thumbnail/49255769768_df55596553_b.jpg"}},{"id":2934,"common_name":"glossy-leaved paper plant","scientific_name":["Fatsia japonica"],"other_name":null,"cycle":"Perennial","watering":"Average","sunlight":["Deep shade"," Filtered shade"," Part sun/part shade"],"default_image":{"image_id":6363,"license":4,"license_name":"Attribution License","license_url":"https://creativecommons.org/licenses/by/2.0/","original_url":"https://perenual.com/storage/species_image/2934_fatsia_japonica/og/51764246961_8daeac4a3d_b.jpg","regular_url":"https://perenual.com/storage/species_image/2934_fatsia_japonica/regular/51764246961_8daeac4a3d_b.jpg","medium_url":"https://perenual.com/storage/species_image/2934_fatsia_japonica/medium/51764246961_8daeac4a3d_b.jpg","small_url":"https://perenual.com/storage/species_image/2934_fatsia_japonica/small/51764246961_8daeac4a3d_b.jpg","thumbnail":"https://perenual.com/storage/species_image/2934_fatsia_japonica/thumbnail/51764246961_8daeac4a3d_b.jpg"}},{"id":2935,"common_name":"blue daisy","scientific_name":["Felicia amelloides"],"other_name":["blue daisy"],"cycle":"Perennial","watering":"Average","sunlight":["Full sun"],"default_image":{"image_id":9,"license":5,"license_name":"Attribution-ShareAlike License","license_url":"https://creativecommons.org/licenses/by-sa/2.0/","original_url":"https://perenual.com/storage/species_image/2_abies_alba_pyramidalis/og/49255769768_df55596553_b.jpg","regular_url":"https://perenual.com/storage/species_image/2_abies_alba_pyramidalis/regular/49255769768_df55596553_b.jpg","medium_url":"https://perenual.com/storage/species_image/2_abies_alba_pyramidalis/medium/49255769768_df55596553_b.jpg","small_url":"https://perenual.com/storage/species_image/2_abies_alba_pyramidalis/small/49255769768_df55596553_b.jpg","thumbnail":"https://perenual.com/storage/species_image/2_abies_alba_pyramidalis/thumbnail/49255769768_df55596553_b.jpg"}},{"id":2936,"common_name":"tufted fescue","scientific_name":["Festuca amethystina 'Klose'"],"other_name":null,"cycle":"Perennial","watering":"Average","sunlight":["Full sun"],"default_image":{"image_id":6369,"license":5,"license_name":"Attribution-ShareAlike License","license_url":"https://creativecommons.org/licenses/by-sa/2.0/","original_url":"https://perenual.com/storage/species_image/2936_festuca_amethystina_klose/og/48112554851_3f4132cdee_b.jpg","regular_url":"https://perenual.com/storage/species_image/2936_festuca_amethystina_klose/regular/48112554851_3f4132cdee_b.jpg","medium_url":"https://perenual.com/storage/species_image/2936_festuca_amethystina_klose/medium/48112554851_3f4132cdee_b.jpg","small_url":"https://perenual.com/storage/species_image/2936_festuca_amethystina_klose/small/48112554851_3f4132cdee_b.jpg","thumbnail":"https://perenual.com/storage/species_image/2936_festuca_amethystina_klose/thumbnail/48112554851_3f4132cdee_b.jpg"}},{"id":2937,"common_name":"tall fescue","scientific_name":["Festuca arundinacea 'Black Beauty'"],"other_name":null,"cycle":"Perennial","watering":"Average","sunlight":["Full sun"],"default_image":{"image_id":6370,"license":5,"license_name":"Attribution-ShareAlike License","license_url":"https://creativecommons.org/licenses/by-sa/2.0/","original_url":"https://perenual.com/storage/species_image/2937_festuca_arundinacea_black_beauty/og/44822605574_715fa7f535_b.jpg","regular_url":"https://perenual.com/storage/species_image/2937_festuca_arundinacea_black_beauty/regular/44822605574_715fa7f535_b.jpg","medium_url":"https://perenual.com/storage/species_image/2937_festuca_arundinacea_black_beauty/medium/44822605574_715fa7f535_b.jpg","small_url":"https://perenual.com/storage/species_image/2937_festuca_arundinacea_black_beauty/small/44822605574_715fa7f535_b.jpg","thumbnail":"https://perenual.com/storage/species_image/2937_festuca_arundinacea_black_beauty/thumbnail/44822605574_715fa7f535_b.jpg"}},{"id":2938,"common_name":"tall fescue","scientific_name":["Festuca arundinacea 'Dense Shade Mix'"],"other_name":null,"cycle":"Perennial","watering":"Average","sunlight":["Full sun"],"default_image":{"image_id":6371,"license":5,"license_name":"Attribution-ShareAlike License","license_url":"https://creativecommons.org/licenses/by-sa/2.0/","original_url":"https://perenual.com/storage/species_image/2938_festuca_arundinacea_dense_shade_mix/og/28639854262_c31b8c9009_b.jpg","regular_url":"https://perenual.com/storage/species_image/2938_festuca_arundinacea_dense_shade_mix/regular/28639854262_c31b8c9009_b.jpg","medium_url":"https://perenual.com/storage/species_image/2938_festuca_arundinacea_dense_shade_mix/medium/28639854262_c31b8c9009_b.jpg","small_url":"https://perenual.com/storage/species_image/2938_festuca_arundinacea_dense_shade_mix/small/28639854262_c31b8c9009_b.jpg","thumbnail":"https://perenual.com/storage/species_image/2938_festuca_arundinacea_dense_shade_mix/thumbnail/28639854262_c31b8c9009_b.jpg"}},{"id":2939,"common_name":"tall fescue","scientific_name":["Festuca arundinacea 'Jaguar 3'"],"other_name":null,"cycle":"Perennial","watering":"Average","sunlight":["Full sun"],"default_image":{"image_id":6372,"license":5,"license_name":"Attribution-ShareAlike License","license_url":"https://creativecommons.org/licenses/by-sa/2.0/","original_url":"https://perenual.com/storage/species_image/2939_festuca_arundinacea_jaguar_3/og/28436473810_85f037800c_b.jpg","regular_url":"https://perenual.com/storage/species_image/2939_festuca_arundinacea_jaguar_3/regular/28436473810_85f037800c_b.jpg","medium_url":"https://perenual.com/storage/species_image/2939_festuca_arundinacea_jaguar_3/medium/28436473810_85f037800c_b.jpg","small_url":"https://perenual.com/storage/species_image/2939_festuca_arundinacea_jaguar_3/small/28436473810_85f037800c_b.jpg","thumbnail":"https://perenual.com/storage/species_image/2939_festuca_arundinacea_jaguar_3/thumbnail/28436473810_85f037800c_b.jpg"}},{"id":2940,"common_name":"tall fescue","scientific_name":["Festuca arundinacea 'Kentucky 31'"],"other_name":null,"cycle":"Perennial","watering":"Average","sunlight":["Full sun"],"default_image":{"image_id":6373,"license":5,"license_name":"Attribution-ShareAlike License","license_url":"https://creativecommons.org/licenses/by-sa/2.0/","original_url":"https://perenual.com/storage/species_image/2940_festuca_arundinacea_kentucky_31/og/44633776515_7b0c26a139_b.jpg","regular_url":"https://perenual.com/storage/species_image/2940_festuca_arundinacea_kentucky_31/regular/44633776515_7b0c26a139_b.jpg","medium_url":"https://perenual.com/storage/species_image/2940_festuca_arundinacea_kentucky_31/medium/44633776515_7b0c26a139_b.jpg","small_url":"https://perenual.com/storage/species_image/2940_festuca_arundinacea_kentucky_31/small/44633776515_7b0c26a139_b.jpg","thumbnail":"https://perenual.com/storage/species_image/2940_festuca_arundinacea_kentucky_31/thumbnail/44633776515_7b0c26a139_b.jpg"}}],"to":2940,"per_page":30,"current_page":98,"from":2911,"last_page":200,"total":6000}