{"data":[{"id":361,"common_name":"Elstar Apple","scientific_name":["Malus 'Elstar'"],"other_name":null,"cycle":"Perennial","watering":"Frequent","sunlight":[],"default_image":{"image_id":9,"license":5,"license_name":"Attribution-ShareAlike License","license_url":"https://creativecommons.org/licenses/by-sa/2.0/","original_url":"https://perenual.com/storage/species_image/2_abies_alba_pyramidalis/og/49255769768_df55596553_b.jpg","regular_url":"https://perenual.com/storage/species_image/2_abies_alba_pyramidalis/regular/49255769768_df55596553_b.jpg","medium_url":"https://perenual.com/storage/species_image/2_abies_alba_pyramidalis/medium/49255769768_df55596553_b.jpg","small_url":"https://perenual.com/storage/species_image/2_abies_alba_pyramidalis/small/49255769768_df55596553_b.jpg","thumbnail":"https://perenual.com/storage/species_image/2_abies_alba_pyramidalis/thumbnail/49255769768_df55596553_b.jpg"}},{"id":362,"common_name":"Gala Apple","scientific_name":["Malus 'Gala'"],"other_name":null,"cycle":"Perennial","watering":"Frequent","sunlight":[],"default_image":{"image_id":735,"license":4,"license_name":"Attribution License","license_url":"https://creativecommons.org/licenses/by/2.0/","original_url":"https://perenual.com/storage/species_image/362_malus_gala/og/50860295937_612a404fc9_b.jpg","regular_url":"https://perenual.com/storage/species_image/362_malus_gala/regular/50860295937_612a404fc9_b.jpg","medium_url":"https://perenual.com/storage/species_image/362_malus_gala/medium/50860295937_612a404fc9_b.jpg","small_url":"https://perenual.com/storage/species_image/362_malus_gala/small/50860295937_612a404fc9_b.jpg","thumbnail":"https://perenual.com/storage/species_image/362_malus_gala/thumbnail/50860295937_612a404fc9_b.jpg"}},{"id":363,"common_name":"Golden Delicious Apple","scientific_name":["Malus 'Golden Delicious'"],"other_name":null,"cycle":"Perennial","watering":"Frequent","sunlight":[],"default_image":{"image_id":736,"license":4,"license_name":"Attribution License","license_url":"https://creativecommons.org/licenses/by/2.0/","original_url":"https://perenual.com/storage/species_image/363_malus_golden_delicious/og/49974806732_27600746d1_b.jpg","regular_url":"https://perenual.com/storage/species_image/363_malus_golden_delicious/regular/49974806732_27600746d1_b.jpg","medium_url":"https://perenual.com/storage/species_image/363_malus_golden_delicious/medium/49974806732_27600746d1_b.jpg","small_url":"https://perenual.com/storage/species_image/363_malus_golden_delicious/small/49974806732_27600746d1_b.jpg","thumbnail":"https://perenual.com/storage/species_image/363_malus_golden_delicious/thumbnail/49974806732_27600746d1_b.jpg"}},{"id":364,"common_name":"Golden Russet Apple","scientific_name":["Malus 'Golden Russet'"],"other_name":null,"cycle":"Perennial","watering":"Frequent","sunlight":[],"default_image":{"image_id":10961,"license":45,"license_name":"Attribution-ShareAlike 3.0 Unported (CC BY-SA 3.0)","license_url":"https://creativecommons.org/licenses/by-sa/3.0/deed.en","original_url":"https://perenual.com/storage/species_image/364_malus_golden_russet/og/Malus_sylvestris_005.jpg","regular_url":"https://perenual.com/storage/species_image/364_malus_golden_russet/regular/Malus_sylvestris_005.jpg","medium_url":"https://perenual.com/storage/species_image/364_malus_golden_russet/medium/Malus_sylvestris_005.jpg","small_url":"https://perenual.com/storage/species_image/364_malus_golden_russet/small/Malus_sylvestris_005.jpg","thumbnail":"https://perenual.com/storage/species_image/364_malus_golden_russet/thumbnail/Malus_sylvestris_005.jpg"}},{"id":365,"common_name":"Granny Smith Apple","scientific_name":["Malus 'Granny Smith'"],"other_name":null,"cycle":"Perennial","watering":"Frequent","sunlight":[],"default_image":{"image_id":739,"license":4,"license_name":"Attribution License","license_url":"https://creativecommons.org/licenses/by/2.0/","original_url":"https://perenual.com/storage/species_image/365_malus_granny_smith/og/52433732205_15e7af9d98_b.jpg","regular_url":"https://perenual.com/storage/species_image/365_malus_granny_smith/regular/52433732205_15e7af9d98_b.jpg","medium_url":"https://perenual.com/storage/species_image/365_malus_granny_smith/medium/52433732205_15e7af9d98_b.jpg","small_url":"https://perenual.com/storage/species_image/365_malus_granny_smith/small/52433732205_15e7af9d98_b.jpg","thumbnail":"https://perenual.com/storage/species_image/365_malus_granny_smith/thumbnail/52433732205_15e7af9d98_b.jpg"}},{"id":366,"common_name":"Gravenstein Apple","scientific_name":["Malus 'Gravenstein'"],"other_name":null,"cycle":"Perennial","watering":"Frequent","sunlight":[],"default_image":{"image_id":9,"license":5,"license_name":"Attribution-ShareAlike License","license_url":"https://creativecommons.org/licenses/by-sa/2.0/","original_url":"https://perenual.com/storage/species_image/2_abies_alba_pyramidalis/og/49255769768_df55596553_b.jpg","regular_url":"https://perenual.com/storage/species_image/2_abies_alba_pyramidalis/regular/49255769768_df55596553_b.jpg","medium_url":"https://perenual.com/storage/species_image/2_abies_alba_pyramidalis/medium/49255769768_df55596553_b.jpg","small_url":"https://perenual.com/storage/species_image/2_abies_alba_pyramidalis/small/49255769768_df55596553_b.jpg","thumbnail":"https://perenual.com/storage/species_image/2_abies_alba_pyramidalis/thumbnail/49255769768_df55596553_b.jpg"}},{"id":367,"common_name":"Honeycrisp Apple","scientific_name":["Malus 'Honeycrisp'"],"other_name":null,"cycle":"Perennial","watering":"Frequent","sunlight":[],"default_image":{"image_id":21131,"license":45,"license_name":"Attribution-ShareAlike 3.0 Unported (CC BY-SA 3.0)","license_url":"https://creativecommons.org/licenses/by-sa/3.0/deed.en","original_url":"https://perenual.com/storage/species_image/367_malus_honeycrisp/og/SweeTango_apple_harvest_2010.jpg","regular_url":"https://perenual.com/storage/species_image/367_malus_honeycrisp/regular/SweeTango_apple_harvest_2010.jpg","medium_url":"https://perenual.com/storage/species_image/367_malus_honeycrisp/medium/SweeTango_apple_harvest_2010.jpg","small_url":"https://perenual.com/storage/species_image/367_malus_honeycrisp/small/SweeTango_apple_harvest_2010.jpg","thumbnail":"https://perenual.com/storage/species_image/367_malus_honeycrisp/thumbnail/SweeTango_apple_harvest_2010.jpg"}},{"id":368,"common_name":"Jonagold Apple","scientific_name":["Malus 'Jonagold'"],"other_name":null,"cycle":"Perennial","watering":"Average","sunlight":["Full sun"],"default_image":{"image_id":744,"license":4,"license_name":"Attribution License","license_url":"https://creativecommons.org/licenses/by/2.0/","original_url":"https://perenual.com/storage/species_image/368_malus_jonagold/og/3968289043_ec00297a19_b.jpg","regular_url":"https://perenual.com/storage/species_image/368_malus_jonagold/regular/3968289043_ec00297a19_b.jpg","medium_url":"https://perenual.com/storage/species_image/368_malus_jonagold/medium/3968289043_ec00297a19_b.jpg","small_url":"https://perenual.com/storage/species_image/368_malus_jonagold/small/3968289043_ec00297a19_b.jpg","thumbnail":"https://perenual.com/storage/species_image/368_malus_jonagold/thumbnail/3968289043_ec00297a19_b.jpg"}},{"id":369,"common_name":"Jonathan Apple","scientific_name":["Malus 'Jonathan'"],"other_name":null,"cycle":"Perennial","watering":"Frequent","sunlight":[],"default_image":{"image_id":21133,"license":5,"license_name":"Attribution-ShareAlike License","license_url":"https://creativecommons.org/licenses/by-sa/2.0/","original_url":"https://perenual.com/storage/species_image/369_malus_jonathan/og/3896656299_a4328986e4_b.jpg","regular_url":"https://perenual.com/storage/species_image/369_malus_jonathan/regular/3896656299_a4328986e4_b.jpg","medium_url":"https://perenual.com/storage/species_image/369_malus_jonathan/medium/3896656299_a4328986e4_b.jpg","small_url":"https://perenual.com/storage/species_image/369_malus_jonathan/small/3896656299_a4328986e4_b.jpg","thumbnail":"https://perenual.com/storage/species_image/369_malus_jonathan/thumbnail/3896656299_a4328986e4_b.jpg"}},{"id":370,"common_name":"Liberty Apple","scientific_name":["Malus 'Liberty'"],"other_name":null,"cycle":"Perennial","watering":"Average","sunlight":["Full sun"],"default_image":{"image_id":21134,"license":45,"license_name":"Attribution-ShareAlike 3.0 Unported (CC BY-SA 3.0)","license_url":"https://creativecommons.org/licenses/by-sa/3.0/deed.en","original_url":"https://perenual.com/storage/species_image/370_malus_liberty/og/Malus-Berner-Rosenapfel_27.08.2012.jpg","regular_url":"https://perenual.com/storage/species_image/370_malus_liberty/regular/Malus-Berner-Rosenapfel_27.08.2012.jpg","medium_url":"https://perenual.com/storage/species_image/370_malus_liberty/medium/Malus-Berner-Rosenapfel_27.08.2012.jpg","small_url":"https://perenual.com/storage/species_image/370_malus_liberty/small/Malus-Berner-Rosenapfel_27.08.2012.jpg","thumbnail":"https://perenual.com/storage/species_image/370_malus_liberty/thumbnail/Malus-Berner-Rosenapfel_27.08.2012.jpg"}},{"id":371,"common_name":"Lodi Apple","scientific_name":["Malus 'Lodi'"],"other_name":null,"cycle":"Perennial","watering":"Frequent","sunlight":[],"default_image":{"image_id":9,"license":5,"license_name":"Attribution-ShareAlike License","license_url":"https://creativecommons.org/licenses/by-sa/2.0/","original_url":"https://perenual.com/storage/species_image/2_abies_alba_pyramidalis/og/49255769768_df55596553_b.jpg","regular_url":"https://perenual.com/storage/species_image/2_abies_alba_pyramidalis/regular/49255769768_df55596553_b.jpg","medium_url":"https://perenual.com/storage/species_image/2_abies_alba_pyramidalis/medium/49255769768_df55596553_b.jpg","small_url":"https://perenual.com/storage/species_image/2_abies_alba_pyramidalis/small/49255769768_df55596553_b.jpg","thumbnail":"https://perenual.com/storage/species_image/2_abies_alba_pyramidalis/thumbnail/49255769768_df55596553_b.jpg"}},{"id":372,"common_name":"Louisa Flowering Crab","scientific_name":["Malus 'Louisa'"],"other_name":["Roseybloom","Crabapple"],"cycle":"Perennial","watering":"Average","sunlight":["Full sun"],"default_image":{"image_id":748,"license":4,"license_name":"Attribution License","license_url":"https://creativecommons.org/licenses/by/2.0/","original_url":"https://perenual.com/storage/species_image/372_malus_louisa/og/10362143644_d44b00de9e_b.jpg","regular_url":"https://perenual.com/storage/species_image/372_malus_louisa/regular/10362143644_d44b00de9e_b.jpg","medium_url":"https://perenual.com/storage/species_image/372_malus_louisa/medium/10362143644_d44b00de9e_b.jpg","small_url":"https://perenual.com/storage/species_image/372_malus_louisa/small/10362143644_d44b00de9e_b.jpg","thumbnail":"https://perenual.com/storage/species_image/372_malus_louisa/thumbnail/10362143644_d44b00de9e_b.jpg"}},{"id":373,"common_name":"Macintosh Apple","scientific_name":["Malus 'Macintosh'"],"other_name":null,"cycle":"Perennial","watering":"Frequent","sunlight":[],"default_image":{"image_id":21136,"license":45,"license_name":"Attribution-ShareAlike 3.0 Unported (CC BY-SA 3.0)","license_url":"https://creativecommons.org/licenses/by-sa/3.0/deed.en","original_url":"https://perenual.com/storage/species_image/373_malus_macintosh/og/515px-Malus_Nela.jpg","regular_url":"https://perenual.com/storage/species_image/373_malus_macintosh/regular/515px-Malus_Nela.jpg","medium_url":"https://perenual.com/storage/species_image/373_malus_macintosh/medium/515px-Malus_Nela.jpg","small_url":"https://perenual.com/storage/species_image/373_malus_macintosh/small/515px-Malus_Nela.jpg","thumbnail":"https://perenual.com/storage/species_image/373_malus_macintosh/thumbnail/515px-Malus_Nela.jpg"}},{"id":374,"common_name":"Melrose Apple","scientific_name":["Malus 'Melrose'"],"other_name":null,"cycle":"Perennial","watering":"Frequent","sunlight":[],"default_image":{"image_id":751,"license":4,"license_name":"Attribution License","license_url":"https://creativecommons.org/licenses/by/2.0/","original_url":"https://perenual.com/storage/species_image/374_malus_melrose/og/50860213661_1b84b33396_b.jpg","regular_url":"https://perenual.com/storage/species_image/374_malus_melrose/regular/50860213661_1b84b33396_b.jpg","medium_url":"https://perenual.com/storage/species_image/374_malus_melrose/medium/50860213661_1b84b33396_b.jpg","small_url":"https://perenual.com/storage/species_image/374_malus_melrose/small/50860213661_1b84b33396_b.jpg","thumbnail":"https://perenual.com/storage/species_image/374_malus_melrose/thumbnail/50860213661_1b84b33396_b.jpg"}},{"id":375,"common_name":"Norland Apple","scientific_name":["Malus 'Norland'"],"other_name":null,"cycle":"Perennial","watering":"Frequent","sunlight":[],"default_image":{"image_id":21138,"license":451,"license_name":"CC0 1.0 Universal (CC0 1.0) Public Domain Dedication","license_url":"https://creativecommons.org/publicdomain/zero/1.0/","original_url":"https://perenual.com/storage/species_image/375_malus_norland/og/frapple_apple_tree_fruit_17-image-kycidzch.jpg?w=800&dpr=1&fit=default&crop=default&q=65&vib=3&con=3&usm=15&bg=F4F4F3&ixlib=js-2.2.jpg","regular_url":"https://perenual.com/storage/species_image/375_malus_norland/regular/frapple_apple_tree_fruit_17-image-kycidzch.jpg?w=800&dpr=1&fit=default&crop=default&q=65&vib=3&con=3&usm=15&bg=F4F4F3&ixlib=js-2.2.jpg","medium_url":"https://perenual.com/storage/species_image/375_malus_norland/medium/frapple_apple_tree_fruit_17-image-kycidzch.jpg?w=800&dpr=1&fit=default&crop=default&q=65&vib=3&con=3&usm=15&bg=F4F4F3&ixlib=js-2.2.jpg","small_url":"https://perenual.com/storage/species_image/375_malus_norland/small/frapple_apple_tree_fruit_17-image-kycidzch.jpg?w=800&dpr=1&fit=default&crop=default&q=65&vib=3&con=3&usm=15&bg=F4F4F3&ixlib=js-2.2.jpg","thumbnail":"https://perenual.com/storage/species_image/375_malus_norland/thumbnail/frapple_apple_tree_fruit_17-image-kycidzch.jpg?w=800&dpr=1&fit=default&crop=default&q=65&vib=3&con=3&usm=15&bg=F4F4F3&ixlib=js-2.2.jpg"}},{"id":376,"common_name":"Pink Lady Apple","scientific_name":["Malus 'Pink Lady'"],"other_name":null,"cycle":"Perennial","watering":"Frequent","sunlight":[],"default_image":{"image_id":752,"license":4,"license_name":"Attribution License","license_url":"https://creativecommons.org/licenses/by/2.0/","original_url":"https://perenual.com/storage/species_image/376_malus_pink_lady/og/25239912735_4801f32049_b.jpg","regular_url":"https://perenual.com/storage/species_image/376_malus_pink_lady/regular/25239912735_4801f32049_b.jpg","medium_url":"https://perenual.com/storage/species_image/376_malus_pink_lady/medium/25239912735_4801f32049_b.jpg","small_url":"https://perenual.com/storage/species_image/376_malus_pink_lady/small/25239912735_4801f32049_b.jpg","thumbnail":"https://perenual.com/storage/species_image/376_malus_pink_lady/thumbnail/25239912735_4801f32049_b.jpg"}},{"id":377,"common_name":"Prairifire Flowering Crab","scientific_name":["Malus 'Prairifire'"],"other_name":["Prairiefire","Prairie Fire","Prairefire"],"cycle":"Perennial","watering":"Average","sunlight":["Full sun"],"default_image":{"image_id":9,"license":5,"license_name":"Attribution-ShareAlike License","license_url":"https://creativecommons.org/licenses/by-sa/2.0/","original_url":"https://perenual.com/storage/species_image/2_abies_alba_pyramidalis/og/49255769768_df55596553_b.jpg","regular_url":"https://perenual.com/storage/species_image/2_abies_alba_pyramidalis/regular/49255769768_df55596553_b.jpg","medium_url":"https://perenual.com/storage/species_image/2_abies_alba_pyramidalis/medium/49255769768_df55596553_b.jpg","small_url":"https://perenual.com/storage/species_image/2_abies_alba_pyramidalis/small/49255769768_df55596553_b.jpg","thumbnail":"https://perenual.com/storage/species_image/2_abies_alba_pyramidalis/thumbnail/49255769768_df55596553_b.jpg"}},{"id":378,"common_name":"Red Delicious Apple","scientific_name":["Malus 'Red Delicious'"],"other_name":null,"cycle":"Perennial","watering":"Frequent","sunlight":[],"default_image":{"image_id":21139,"license":451,"license_name":"CC0 1.0 Universal (CC0 1.0) Public Domain Dedication","license_url":"https://creativecommons.org/publicdomain/zero/1.0/","original_url":"https://perenual.com/storage/species_image/378_malus_red_delicious/og/culture_of_apple_apple_malus_domestica_autumn_ripe_harvest_fruit_nutrients-936179.jpg","regular_url":"https://perenual.com/storage/species_image/378_malus_red_delicious/regular/culture_of_apple_apple_malus_domestica_autumn_ripe_harvest_fruit_nutrients-936179.jpg","medium_url":"https://perenual.com/storage/species_image/378_malus_red_delicious/medium/culture_of_apple_apple_malus_domestica_autumn_ripe_harvest_fruit_nutrients-936179.jpg","small_url":"https://perenual.com/storage/species_image/378_malus_red_delicious/small/culture_of_apple_apple_malus_domestica_autumn_ripe_harvest_fruit_nutrients-936179.jpg","thumbnail":"https://perenual.com/storage/species_image/378_malus_red_delicious/thumbnail/culture_of_apple_apple_malus_domestica_autumn_ripe_harvest_fruit_nutrients-936179.jpg"}},{"id":379,"common_name":"Red Jewel Flowering Crab","scientific_name":["Malus 'Red Jewel'"],"other_name":["Roseybloom","Crabapple"],"cycle":"Perennial","watering":"Frequent","sunlight":[],"default_image":{"image_id":21141,"license":451,"license_name":"CC0 1.0 Universal (CC0 1.0) Public Domain Dedication","license_url":"https://creativecommons.org/publicdomain/zero/1.0/","original_url":"https://perenual.com/storage/species_image/379_malus_red_jewel/og/embellishment_apple_small_ornamental_tree_ornamental_fruit_malus_rose_greenhouse_fruits-745555.jpg","regular_url":"https://perenual.com/storage/species_image/379_malus_red_jewel/regular/embellishment_apple_small_ornamental_tree_ornamental_fruit_malus_rose_greenhouse_fruits-745555.jpg","medium_url":"https://perenual.com/storage/species_image/379_malus_red_jewel/medium/embellishment_apple_small_ornamental_tree_ornamental_fruit_malus_rose_greenhouse_fruits-745555.jpg","small_url":"https://perenual.com/storage/species_image/379_malus_red_jewel/small/embellishment_apple_small_ornamental_tree_ornamental_fruit_malus_rose_greenhouse_fruits-745555.jpg","thumbnail":"https://perenual.com/storage/species_image/379_malus_red_jewel/thumbnail/embellishment_apple_small_ornamental_tree_ornamental_fruit_malus_rose_greenhouse_fruits-745555.jpg"}},{"id":380,"common_name":"Scarlet Pippin Apple","scientific_name":["Malus 'Scarlet Pippin'"],"other_name":null,"cycle":"Perennial","watering":"Frequent","sunlight":[],"default_image":{"image_id":21142,"license":45,"license_name":"Attribution-ShareAlike 3.0 Unported (CC BY-SA 3.0)","license_url":"https://creativecommons.org/licenses/by-sa/3.0/deed.en","original_url":"https://perenual.com/storage/species_image/380_malus_scarlet_pippin/og/Cox_orange_renette2.jpg","regular_url":"https://perenual.com/storage/species_image/380_malus_scarlet_pippin/regular/Cox_orange_renette2.jpg","medium_url":"https://perenual.com/storage/species_image/380_malus_scarlet_pippin/medium/Cox_orange_renette2.jpg","small_url":"https://perenual.com/storage/species_image/380_malus_scarlet_pippin/small/Cox_orange_renette2.jpg","thumbnail":"https://perenual.com/storage/species_image/380_malus_scarlet_pippin/thumbnail/Cox_orange_renette2.jpg"}},{"id":381,"common_name":"Sentinel Flowering Crab","scientific_name":["Malus 'Sentinel'"],"other_name":["Roseybloom","Crabapple"],"cycle":"Perennial","watering":"Frequent","sunlight":[],"default_image":{"image_id":757,"license":5,"license_name":"Attribution-ShareAlike License","license_url":"https://creativecommons.org/licenses/by-sa/2.0/","original_url":"https://perenual.com/storage/species_image/381_malus_sentinel/og/49409253573_b0a8bd2496_b.jpg","regular_url":"https://perenual.com/storage/species_image/381_malus_sentinel/regular/49409253573_b0a8bd2496_b.jpg","medium_url":"https://perenual.com/storage/species_image/381_malus_sentinel/medium/49409253573_b0a8bd2496_b.jpg","small_url":"https://perenual.com/storage/species_image/381_malus_sentinel/small/49409253573_b0a8bd2496_b.jpg","thumbnail":"https://perenual.com/storage/species_image/381_malus_sentinel/thumbnail/49409253573_b0a8bd2496_b.jpg"}},{"id":382,"common_name":"Snowdrift Flowering Crab","scientific_name":["Malus 'Snowdrift'"],"other_name":["Roseybloom","Crabapple"],"cycle":"Perennial","watering":"Average","sunlight":["Full sun"],"default_image":{"image_id":763,"license":6,"license_name":"Attribution-NoDerivs License","license_url":"https://creativecommons.org/licenses/by-nd/2.0/","original_url":"https://perenual.com/storage/species_image/382_malus_snowdrift/og/47982893248_8ef3d25b9a_b.jpg"}},{"id":383,"common_name":"Spartan Apple","scientific_name":["Malus 'Spartan'"],"other_name":null,"cycle":"Perennial","watering":"Frequent","sunlight":[],"default_image":{"image_id":764,"license":4,"license_name":"Attribution License","license_url":"https://creativecommons.org/licenses/by/2.0/","original_url":"https://perenual.com/storage/species_image/383_malus_spartan/og/7960750712_309acfda70_b.jpg","regular_url":"https://perenual.com/storage/species_image/383_malus_spartan/regular/7960750712_309acfda70_b.jpg","medium_url":"https://perenual.com/storage/species_image/383_malus_spartan/medium/7960750712_309acfda70_b.jpg","small_url":"https://perenual.com/storage/species_image/383_malus_spartan/small/7960750712_309acfda70_b.jpg","thumbnail":"https://perenual.com/storage/species_image/383_malus_spartan/thumbnail/7960750712_309acfda70_b.jpg"}},{"id":384,"common_name":"Summerland Apple","scientific_name":["Malus 'Summerland'"],"other_name":["Summerland MacIntosh Apple"],"cycle":"Perennial","watering":"Frequent","sunlight":[],"default_image":{"image_id":9,"license":5,"license_name":"Attribution-ShareAlike License","license_url":"https://creativecommons.org/licenses/by-sa/2.0/","original_url":"https://perenual.com/storage/species_image/2_abies_alba_pyramidalis/og/49255769768_df55596553_b.jpg","regular_url":"https://perenual.com/storage/species_image/2_abies_alba_pyramidalis/regular/49255769768_df55596553_b.jpg","medium_url":"https://perenual.com/storage/species_image/2_abies_alba_pyramidalis/medium/49255769768_df55596553_b.jpg","small_url":"https://perenual.com/storage/species_image/2_abies_alba_pyramidalis/small/49255769768_df55596553_b.jpg","thumbnail":"https://perenual.com/storage/species_image/2_abies_alba_pyramidalis/thumbnail/49255769768_df55596553_b.jpg"}},{"id":385,"common_name":"Wealthy Apple","scientific_name":["Malus 'Wealthy'"],"other_name":null,"cycle":"Perennial","watering":"Frequent","sunlight":[],"default_image":{"image_id":9,"license":5,"license_name":"Attribution-ShareAlike License","license_url":"https://creativecommons.org/licenses/by-sa/2.0/","original_url":"https://perenual.com/storage/species_image/2_abies_alba_pyramidalis/og/49255769768_df55596553_b.jpg","regular_url":"https://perenual.com/storage/species_image/2_abies_alba_pyramidalis/regular/49255769768_df55596553_b.jpg","medium_url":"https://perenual.com/storage/species_image/2_abies_alba_pyramidalis/medium/49255769768_df55596553_b.jpg","small_url":"https://perenual.com/storage/species_image/2_abies_alba_pyramidalis/small/49255769768_df55596553_b.jpg","thumbnail":"https://perenual.com/storage/species_image/2_abies_alba_pyramidalis/thumbnail/49255769768_df55596553_b.jpg"}},{"id":386,"common_name":"Yellow Transparent Apple","scientific_name":["Malus 'Yellow Transparent'"],"other_name":null,"cycle":"Perennial","watering":"Frequent","sunlight":[],"default_image":{"image_id":21143,"license":45,"license_name":"Attribution-ShareAlike 3.0 Unported (CC BY-SA 3.0)","license_url":"https://creativecommons.org/licenses/by-sa/3.0/deed.en","original_url":"https://perenual.com/storage/species_image/386_malus_yellow_transparent/og/799px-Weisser_Klarapfel_Freilichtmuseum_Roscheider_Hof_Frucht_H17.jpg","regular_url":"https://perenual.com/storage/species_image/386_malus_yellow_transparent/regular/799px-Weisser_Klarapfel_Freilichtmuseum_Roscheider_Hof_Frucht_H17.jpg","medium_url":"https://perenual.com/storage/species_image/386_malus_yellow_transparent/medium/799px-Weisser_Klarapfel_Freilichtmuseum_Roscheider_Hof_Frucht_H17.jpg","small_url":"https://perenual.com/storage/species_image/386_malus_yellow_transparent/small/799px-Weisser_Klarapfel_Freilichtmuseum_Roscheider_Hof_Frucht_H17.jpg","thumbnail":"https://perenual.com/storage/species_image/386_malus_yellow_transparent/thumbnail/799px-Weisser_Klarapfel_Freilichtmuseum_Roscheider_Hof_Frucht_H17.jpg"}},{"id":387,"common_name":"Zestar Apple","scientific_name":["Malus 'Zestar'"],"other_name":null,"cycle":"Perennial","watering":"Frequent","sunlight":[],"default_image":{"image_id":769,"license":5,"license_name":"Attribution-ShareAlike License","license_url":"https://creativecommons.org/licenses/by-sa/2.0/","original_url":"https://perenual.com/storage/species_image/387_malus_zestar/og/6123001930_f9b7729ef4_b.jpg","regular_url":"https://perenual.com/storage/species_image/387_malus_zestar/regular/6123001930_f9b7729ef4_b.jpg","medium_url":"https://perenual.com/storage/species_image/387_malus_zestar/medium/6123001930_f9b7729ef4_b.jpg","small_url":"https://perenual.com/storage/species_image/387_malus_zestar/small/6123001930_f9b7729ef4_b.jpg","thumbnail":"https://perenual.com/storage/species_image/387_malus_zestar/thumbnail/6123001930_f9b7729ef4_b.jpg"}},{"id":388,"common_name":"Dawn Redwood","scientific_name":["Metasequoia glyptostroboides"],"other_name":null,"cycle":"Perennial","watering":"Frequent","sunlight":["Full sun"],"default_image":{"image_id":774,"license":5,"license_name":"Attribution-ShareAlike License","license_url":"https://creativecommons.org/licenses/by-sa/2.0/","original_url":"https://perenual.com/storage/species_image/388_metasequoia_glyptostroboides/og/52302475270_e70a77b14e_b.jpg","regular_url":"https://perenual.com/storage/species_image/388_metasequoia_glyptostroboides/regular/52302475270_e70a77b14e_b.jpg","medium_url":"https://perenual.com/storage/species_image/388_metasequoia_glyptostroboides/medium/52302475270_e70a77b14e_b.jpg","small_url":"https://perenual.com/storage/species_image/388_metasequoia_glyptostroboides/small/52302475270_e70a77b14e_b.jpg","thumbnail":"https://perenual.com/storage/species_image/388_metasequoia_glyptostroboides/thumbnail/52302475270_e70a77b14e_b.jpg"}},{"id":389,"common_name":"Gold Rush Dawn Redwood","scientific_name":["Metasequoia glyptostroboides 'Gold Rush'"],"other_name":null,"cycle":"Perennial","watering":"Frequent","sunlight":["Full sun"],"default_image":{"image_id":779,"license":5,"license_name":"Attribution-ShareAlike License","license_url":"https://creativecommons.org/licenses/by-sa/2.0/","original_url":"https://perenual.com/storage/species_image/389_metasequoia_glyptostroboides_gold_rush/og/50020197378_1f05400c2d_b.jpg","regular_url":"https://perenual.com/storage/species_image/389_metasequoia_glyptostroboides_gold_rush/regular/50020197378_1f05400c2d_b.jpg","medium_url":"https://perenual.com/storage/species_image/389_metasequoia_glyptostroboides_gold_rush/medium/50020197378_1f05400c2d_b.jpg","small_url":"https://perenual.com/storage/species_image/389_metasequoia_glyptostroboides_gold_rush/small/50020197378_1f05400c2d_b.jpg","thumbnail":"https://perenual.com/storage/species_image/389_metasequoia_glyptostroboides_gold_rush/thumbnail/50020197378_1f05400c2d_b.jpg"}},{"id":390,"common_name":"Black Gum","scientific_name":["Nyssa sylvatica"],"other_name":["Tupelo","Black Tupelo","Sour Gum","Pepperidge"],"cycle":"Perennial","watering":"Frequent","sunlight":["Full sun"," Part sun/part shade"," Sheltered"],"default_image":{"image_id":785,"license":4,"license_name":"Attribution License","license_url":"https://creativecommons.org/licenses/by/2.0/","original_url":"https://perenual.com/storage/species_image/390_nyssa_sylvatica/og/52036943537_be41b3d4a6_b.jpg","regular_url":"https://perenual.com/storage/species_image/390_nyssa_sylvatica/regular/52036943537_be41b3d4a6_b.jpg","medium_url":"https://perenual.com/storage/species_image/390_nyssa_sylvatica/medium/52036943537_be41b3d4a6_b.jpg","small_url":"https://perenual.com/storage/species_image/390_nyssa_sylvatica/small/52036943537_be41b3d4a6_b.jpg","thumbnail":"https://perenual.com/storage/species_image/390_nyssa_sylvatica/thumbnail/52036943537_be41b3d4a6_b.jpg"}}],"to":390,"per_page":30,"current_page":13,"from":361,"last_page":200,"total":6000}