{"data":[{"id":3391,"common_name":"sunflower","scientific_name":["Helianthus occidentalis"],"other_name":null,"cycle":"Perennial","watering":"Minimum","sunlight":["Full sun"],"default_image":{"image_id":9,"license":5,"license_name":"Attribution-ShareAlike License","license_url":"https://creativecommons.org/licenses/by-sa/2.0/","original_url":"https://perenual.com/storage/species_image/2_abies_alba_pyramidalis/og/49255769768_df55596553_b.jpg","regular_url":"https://perenual.com/storage/species_image/2_abies_alba_pyramidalis/regular/49255769768_df55596553_b.jpg","medium_url":"https://perenual.com/storage/species_image/2_abies_alba_pyramidalis/medium/49255769768_df55596553_b.jpg","small_url":"https://perenual.com/storage/species_image/2_abies_alba_pyramidalis/small/49255769768_df55596553_b.jpg","thumbnail":"https://perenual.com/storage/species_image/2_abies_alba_pyramidalis/thumbnail/49255769768_df55596553_b.jpg"}},{"id":3392,"common_name":"willow-leaved sunflower","scientific_name":["Helianthus salicifolius"],"other_name":null,"cycle":"Perennial","watering":"Average","sunlight":["Full sun"],"default_image":{"image_id":7198,"license":4,"license_name":"Attribution License","license_url":"https://creativecommons.org/licenses/by/2.0/","original_url":"https://perenual.com/storage/species_image/3392_helianthus_salicifolius/og/48815358481_ce8ee0456f_b.jpg","regular_url":"https://perenual.com/storage/species_image/3392_helianthus_salicifolius/regular/48815358481_ce8ee0456f_b.jpg","medium_url":"https://perenual.com/storage/species_image/3392_helianthus_salicifolius/medium/48815358481_ce8ee0456f_b.jpg","small_url":"https://perenual.com/storage/species_image/3392_helianthus_salicifolius/small/48815358481_ce8ee0456f_b.jpg","thumbnail":"https://perenual.com/storage/species_image/3392_helianthus_salicifolius/thumbnail/48815358481_ce8ee0456f_b.jpg"}},{"id":3393,"common_name":"willow-leaved sunflower","scientific_name":["Helianthus salicifolius 'Autumn Gold'"],"other_name":null,"cycle":"Perennial","watering":"Average","sunlight":["Full sun"],"default_image":{"image_id":7202,"license":4,"license_name":"Attribution License","license_url":"https://creativecommons.org/licenses/by/2.0/","original_url":"https://perenual.com/storage/species_image/3393_helianthus_salicifolius_autumn_gold/og/3874777205_c0d665ba66_b.jpg","regular_url":"https://perenual.com/storage/species_image/3393_helianthus_salicifolius_autumn_gold/regular/3874777205_c0d665ba66_b.jpg","medium_url":"https://perenual.com/storage/species_image/3393_helianthus_salicifolius_autumn_gold/medium/3874777205_c0d665ba66_b.jpg","small_url":"https://perenual.com/storage/species_image/3393_helianthus_salicifolius_autumn_gold/small/3874777205_c0d665ba66_b.jpg","thumbnail":"https://perenual.com/storage/species_image/3393_helianthus_salicifolius_autumn_gold/thumbnail/3874777205_c0d665ba66_b.jpg"}},{"id":3394,"common_name":"willow-leaved sunflower","scientific_name":["Helianthus salicifolius 'First Light'"],"other_name":null,"cycle":"Perennial","watering":"Average","sunlight":["Full sun"],"default_image":{"image_id":7202,"license":4,"license_name":"Attribution License","license_url":"https://creativecommons.org/licenses/by/2.0/","original_url":"https://perenual.com/storage/species_image/3393_helianthus_salicifolius_autumn_gold/og/3874777205_c0d665ba66_b.jpg","regular_url":"https://perenual.com/storage/species_image/3393_helianthus_salicifolius_autumn_gold/regular/3874777205_c0d665ba66_b.jpg","medium_url":"https://perenual.com/storage/species_image/3393_helianthus_salicifolius_autumn_gold/medium/3874777205_c0d665ba66_b.jpg","small_url":"https://perenual.com/storage/species_image/3393_helianthus_salicifolius_autumn_gold/small/3874777205_c0d665ba66_b.jpg","thumbnail":"https://perenual.com/storage/species_image/3393_helianthus_salicifolius_autumn_gold/thumbnail/3874777205_c0d665ba66_b.jpg"}},{"id":3395,"common_name":"willow-leaved sunflower","scientific_name":["Helianthus salicifolius 'Low Down'"],"other_name":null,"cycle":"Perennial","watering":"Average","sunlight":["Full sun"],"default_image":{"image_id":9,"license":5,"license_name":"Attribution-ShareAlike License","license_url":"https://creativecommons.org/licenses/by-sa/2.0/","original_url":"https://perenual.com/storage/species_image/2_abies_alba_pyramidalis/og/49255769768_df55596553_b.jpg","regular_url":"https://perenual.com/storage/species_image/2_abies_alba_pyramidalis/regular/49255769768_df55596553_b.jpg","medium_url":"https://perenual.com/storage/species_image/2_abies_alba_pyramidalis/medium/49255769768_df55596553_b.jpg","small_url":"https://perenual.com/storage/species_image/2_abies_alba_pyramidalis/small/49255769768_df55596553_b.jpg","thumbnail":"https://perenual.com/storage/species_image/2_abies_alba_pyramidalis/thumbnail/49255769768_df55596553_b.jpg"}},{"id":3396,"common_name":"willow-leaved sunflower","scientific_name":["Helianthus salicifolius 'Table Mountain'"],"other_name":null,"cycle":"Perennial","watering":"Average","sunlight":["Full sun"],"default_image":{"image_id":22000,"license":1,"license_name":null,"license_url":null,"original_url":"https://perenual.com/storage/species_image/3396_helianthus_salicifolius_table_mountain/og/1527958361_6fa639d6f1_b.jpg","regular_url":"https://perenual.com/storage/species_image/3396_helianthus_salicifolius_table_mountain/regular/1527958361_6fa639d6f1_b.jpg","medium_url":"https://perenual.com/storage/species_image/3396_helianthus_salicifolius_table_mountain/medium/1527958361_6fa639d6f1_b.jpg","small_url":"https://perenual.com/storage/species_image/3396_helianthus_salicifolius_table_mountain/small/1527958361_6fa639d6f1_b.jpg","thumbnail":"https://perenual.com/storage/species_image/3396_helianthus_salicifolius_table_mountain/thumbnail/1527958361_6fa639d6f1_b.jpg"}},{"id":3397,"common_name":"rosinweed sunflower","scientific_name":["Helianthus silphioides"],"other_name":null,"cycle":"Perennial","watering":"Minimum","sunlight":["Full sun"],"default_image":{"image_id":9,"license":5,"license_name":"Attribution-ShareAlike License","license_url":"https://creativecommons.org/licenses/by-sa/2.0/","original_url":"https://perenual.com/storage/species_image/2_abies_alba_pyramidalis/og/49255769768_df55596553_b.jpg","regular_url":"https://perenual.com/storage/species_image/2_abies_alba_pyramidalis/regular/49255769768_df55596553_b.jpg","medium_url":"https://perenual.com/storage/species_image/2_abies_alba_pyramidalis/medium/49255769768_df55596553_b.jpg","small_url":"https://perenual.com/storage/species_image/2_abies_alba_pyramidalis/small/49255769768_df55596553_b.jpg","thumbnail":"https://perenual.com/storage/species_image/2_abies_alba_pyramidalis/thumbnail/49255769768_df55596553_b.jpg"}},{"id":3398,"common_name":"sunflower","scientific_name":["Helianthus SUNFINITY YELLOW DARK CENTER"],"other_name":null,"cycle":"Perennial","watering":"Average","sunlight":["Full sun"],"default_image":{"image_id":9,"license":5,"license_name":"Attribution-ShareAlike License","license_url":"https://creativecommons.org/licenses/by-sa/2.0/","original_url":"https://perenual.com/storage/species_image/2_abies_alba_pyramidalis/og/49255769768_df55596553_b.jpg","regular_url":"https://perenual.com/storage/species_image/2_abies_alba_pyramidalis/regular/49255769768_df55596553_b.jpg","medium_url":"https://perenual.com/storage/species_image/2_abies_alba_pyramidalis/medium/49255769768_df55596553_b.jpg","small_url":"https://perenual.com/storage/species_image/2_abies_alba_pyramidalis/small/49255769768_df55596553_b.jpg","thumbnail":"https://perenual.com/storage/species_image/2_abies_alba_pyramidalis/thumbnail/49255769768_df55596553_b.jpg"}},{"id":3399,"common_name":"sunflower","scientific_name":["Helianthus 'Sunshine Daydream'"],"other_name":null,"cycle":"Perennial","watering":"Average","sunlight":["Full sun"],"default_image":{"image_id":9,"license":5,"license_name":"Attribution-ShareAlike License","license_url":"https://creativecommons.org/licenses/by-sa/2.0/","original_url":"https://perenual.com/storage/species_image/2_abies_alba_pyramidalis/og/49255769768_df55596553_b.jpg","regular_url":"https://perenual.com/storage/species_image/2_abies_alba_pyramidalis/regular/49255769768_df55596553_b.jpg","medium_url":"https://perenual.com/storage/species_image/2_abies_alba_pyramidalis/medium/49255769768_df55596553_b.jpg","small_url":"https://perenual.com/storage/species_image/2_abies_alba_pyramidalis/small/49255769768_df55596553_b.jpg","thumbnail":"https://perenual.com/storage/species_image/2_abies_alba_pyramidalis/thumbnail/49255769768_df55596553_b.jpg"}},{"id":3400,"common_name":"Jerusalem artichoke","scientific_name":["Helianthus tuberosus"],"other_name":null,"cycle":"Perennial","watering":"Minimum","sunlight":["Full sun","part shade"],"default_image":{"image_id":9,"license":5,"license_name":"Attribution-ShareAlike License","license_url":"https://creativecommons.org/licenses/by-sa/2.0/","original_url":"https://perenual.com/storage/species_image/2_abies_alba_pyramidalis/og/49255769768_df55596553_b.jpg","regular_url":"https://perenual.com/storage/species_image/2_abies_alba_pyramidalis/regular/49255769768_df55596553_b.jpg","medium_url":"https://perenual.com/storage/species_image/2_abies_alba_pyramidalis/medium/49255769768_df55596553_b.jpg","small_url":"https://perenual.com/storage/species_image/2_abies_alba_pyramidalis/small/49255769768_df55596553_b.jpg","thumbnail":"https://perenual.com/storage/species_image/2_abies_alba_pyramidalis/thumbnail/49255769768_df55596553_b.jpg"}},{"id":3401,"common_name":"everlasting flower","scientific_name":["Helichrysum bellum"],"other_name":null,"cycle":"Perennial","watering":"Minimum","sunlight":["Full sun"],"default_image":{"image_id":9,"license":5,"license_name":"Attribution-ShareAlike License","license_url":"https://creativecommons.org/licenses/by-sa/2.0/","original_url":"https://perenual.com/storage/species_image/2_abies_alba_pyramidalis/og/49255769768_df55596553_b.jpg","regular_url":"https://perenual.com/storage/species_image/2_abies_alba_pyramidalis/regular/49255769768_df55596553_b.jpg","medium_url":"https://perenual.com/storage/species_image/2_abies_alba_pyramidalis/medium/49255769768_df55596553_b.jpg","small_url":"https://perenual.com/storage/species_image/2_abies_alba_pyramidalis/small/49255769768_df55596553_b.jpg","thumbnail":"https://perenual.com/storage/species_image/2_abies_alba_pyramidalis/thumbnail/49255769768_df55596553_b.jpg"}},{"id":3402,"common_name":"strawflower","scientific_name":["Helichrysum heldreichii"],"other_name":null,"cycle":"Perennial","watering":"Minimum","sunlight":["Full sun","part shade"],"default_image":{"image_id":9,"license":5,"license_name":"Attribution-ShareAlike License","license_url":"https://creativecommons.org/licenses/by-sa/2.0/","original_url":"https://perenual.com/storage/species_image/2_abies_alba_pyramidalis/og/49255769768_df55596553_b.jpg","regular_url":"https://perenual.com/storage/species_image/2_abies_alba_pyramidalis/regular/49255769768_df55596553_b.jpg","medium_url":"https://perenual.com/storage/species_image/2_abies_alba_pyramidalis/medium/49255769768_df55596553_b.jpg","small_url":"https://perenual.com/storage/species_image/2_abies_alba_pyramidalis/small/49255769768_df55596553_b.jpg","thumbnail":"https://perenual.com/storage/species_image/2_abies_alba_pyramidalis/thumbnail/49255769768_df55596553_b.jpg"}},{"id":3403,"common_name":"licorice plant","scientific_name":["Helichrysum petiolare"],"other_name":null,"cycle":"Perennial","watering":"Minimum","sunlight":["Full sun","part shade"],"default_image":{"image_id":7220,"license":4,"license_name":"Attribution License","license_url":"https://creativecommons.org/licenses/by/2.0/","original_url":"https://perenual.com/storage/species_image/3403_helichrysum_petiolare/og/52492825538_f22e9ce80b_b.jpg","regular_url":"https://perenual.com/storage/species_image/3403_helichrysum_petiolare/regular/52492825538_f22e9ce80b_b.jpg","medium_url":"https://perenual.com/storage/species_image/3403_helichrysum_petiolare/medium/52492825538_f22e9ce80b_b.jpg","small_url":"https://perenual.com/storage/species_image/3403_helichrysum_petiolare/small/52492825538_f22e9ce80b_b.jpg","thumbnail":"https://perenual.com/storage/species_image/3403_helichrysum_petiolare/thumbnail/52492825538_f22e9ce80b_b.jpg"}},{"id":3404,"common_name":"false bird of paradise","scientific_name":["Heliconia schiedeana 'Fire and Ice'"],"other_name":null,"cycle":"Perennial","watering":"Average","sunlight":["Full sun","part shade"],"default_image":{"image_id":7221,"license":4,"license_name":"Attribution License","license_url":"https://creativecommons.org/licenses/by/2.0/","original_url":"https://perenual.com/storage/species_image/3404_heliconia_schiedeana_fire_and_ice/og/52233116449_9b56243a59_b.jpg","regular_url":"https://perenual.com/storage/species_image/3404_heliconia_schiedeana_fire_and_ice/regular/52233116449_9b56243a59_b.jpg","medium_url":"https://perenual.com/storage/species_image/3404_heliconia_schiedeana_fire_and_ice/medium/52233116449_9b56243a59_b.jpg","small_url":"https://perenual.com/storage/species_image/3404_heliconia_schiedeana_fire_and_ice/small/52233116449_9b56243a59_b.jpg","thumbnail":"https://perenual.com/storage/species_image/3404_heliconia_schiedeana_fire_and_ice/thumbnail/52233116449_9b56243a59_b.jpg"}},{"id":3405,"common_name":"blue oat grass","scientific_name":["Helictotrichon sempervirens"],"other_name":null,"cycle":"Perennial","watering":"Minimum","sunlight":["Full sun"],"default_image":{"image_id":7224,"license":5,"license_name":"Attribution-ShareAlike License","license_url":"https://creativecommons.org/licenses/by-sa/2.0/","original_url":"https://perenual.com/storage/species_image/3406_helictotrichon_sempervirens_saphirsprudel/og/27898771162_d3c009fa87_b.jpg","regular_url":"https://perenual.com/storage/species_image/3406_helictotrichon_sempervirens_saphirsprudel/regular/27898771162_d3c009fa87_b.jpg","medium_url":"https://perenual.com/storage/species_image/3406_helictotrichon_sempervirens_saphirsprudel/medium/27898771162_d3c009fa87_b.jpg","small_url":"https://perenual.com/storage/species_image/3406_helictotrichon_sempervirens_saphirsprudel/small/27898771162_d3c009fa87_b.jpg","thumbnail":"https://perenual.com/storage/species_image/3406_helictotrichon_sempervirens_saphirsprudel/thumbnail/27898771162_d3c009fa87_b.jpg"}},{"id":3406,"common_name":"blue oat grass","scientific_name":["Helictotrichon sempervirens 'Saphirsprudel'"],"other_name":null,"cycle":"Perennial","watering":"Minimum","sunlight":["Full sun"],"default_image":{"image_id":7224,"license":5,"license_name":"Attribution-ShareAlike License","license_url":"https://creativecommons.org/licenses/by-sa/2.0/","original_url":"https://perenual.com/storage/species_image/3406_helictotrichon_sempervirens_saphirsprudel/og/27898771162_d3c009fa87_b.jpg","regular_url":"https://perenual.com/storage/species_image/3406_helictotrichon_sempervirens_saphirsprudel/regular/27898771162_d3c009fa87_b.jpg","medium_url":"https://perenual.com/storage/species_image/3406_helictotrichon_sempervirens_saphirsprudel/medium/27898771162_d3c009fa87_b.jpg","small_url":"https://perenual.com/storage/species_image/3406_helictotrichon_sempervirens_saphirsprudel/small/27898771162_d3c009fa87_b.jpg","thumbnail":"https://perenual.com/storage/species_image/3406_helictotrichon_sempervirens_saphirsprudel/thumbnail/27898771162_d3c009fa87_b.jpg"}},{"id":3407,"common_name":"showy goldeneye","scientific_name":["Heliomeris multiflora 'Sunsplash'"],"other_name":null,"cycle":"Perennial","watering":"Minimum","sunlight":["Full sun"],"default_image":{"image_id":7228,"license":4,"license_name":"Attribution License","license_url":"https://creativecommons.org/licenses/by/2.0/","original_url":"https://perenual.com/storage/species_image/3407_heliomeris_multiflora_sunsplash/og/51393374664_4cb5e61a33_b.jpg","regular_url":"https://perenual.com/storage/species_image/3407_heliomeris_multiflora_sunsplash/regular/51393374664_4cb5e61a33_b.jpg","medium_url":"https://perenual.com/storage/species_image/3407_heliomeris_multiflora_sunsplash/medium/51393374664_4cb5e61a33_b.jpg","small_url":"https://perenual.com/storage/species_image/3407_heliomeris_multiflora_sunsplash/small/51393374664_4cb5e61a33_b.jpg","thumbnail":"https://perenual.com/storage/species_image/3407_heliomeris_multiflora_sunsplash/thumbnail/51393374664_4cb5e61a33_b.jpg"}},{"id":3408,"common_name":"ox-eye daisy","scientific_name":["Heliopsis 'Helhan' LORAINE SUNSHINE"],"other_name":null,"cycle":"Perennial","watering":"Minimum","sunlight":["Full sun"],"default_image":{"image_id":9,"license":5,"license_name":"Attribution-ShareAlike License","license_url":"https://creativecommons.org/licenses/by-sa/2.0/","original_url":"https://perenual.com/storage/species_image/2_abies_alba_pyramidalis/og/49255769768_df55596553_b.jpg","regular_url":"https://perenual.com/storage/species_image/2_abies_alba_pyramidalis/regular/49255769768_df55596553_b.jpg","medium_url":"https://perenual.com/storage/species_image/2_abies_alba_pyramidalis/medium/49255769768_df55596553_b.jpg","small_url":"https://perenual.com/storage/species_image/2_abies_alba_pyramidalis/small/49255769768_df55596553_b.jpg","thumbnail":"https://perenual.com/storage/species_image/2_abies_alba_pyramidalis/thumbnail/49255769768_df55596553_b.jpg"}},{"id":3409,"common_name":"oxeye sunflower","scientific_name":["Heliopsis helianthoides"],"other_name":["oxeye sunflower"],"cycle":"Perennial","watering":"Minimum","sunlight":["Full sun"],"default_image":{"image_id":7234,"license":5,"license_name":"Attribution-ShareAlike License","license_url":"https://creativecommons.org/licenses/by-sa/2.0/","original_url":"https://perenual.com/storage/species_image/3409_heliopsis_helianthoides/og/52115362154_70b4805636_b.jpg","regular_url":"https://perenual.com/storage/species_image/3409_heliopsis_helianthoides/regular/52115362154_70b4805636_b.jpg","medium_url":"https://perenual.com/storage/species_image/3409_heliopsis_helianthoides/medium/52115362154_70b4805636_b.jpg","small_url":"https://perenual.com/storage/species_image/3409_heliopsis_helianthoides/small/52115362154_70b4805636_b.jpg","thumbnail":"https://perenual.com/storage/species_image/3409_heliopsis_helianthoides/thumbnail/52115362154_70b4805636_b.jpg"}},{"id":3410,"common_name":"oxeye sunflower","scientific_name":["Heliopsis helianthoides 'Fire Twister'"],"other_name":null,"cycle":"Perennial","watering":"Minimum","sunlight":["Full sun"],"default_image":{"image_id":9,"license":5,"license_name":"Attribution-ShareAlike License","license_url":"https://creativecommons.org/licenses/by-sa/2.0/","original_url":"https://perenual.com/storage/species_image/2_abies_alba_pyramidalis/og/49255769768_df55596553_b.jpg","regular_url":"https://perenual.com/storage/species_image/2_abies_alba_pyramidalis/regular/49255769768_df55596553_b.jpg","medium_url":"https://perenual.com/storage/species_image/2_abies_alba_pyramidalis/medium/49255769768_df55596553_b.jpg","small_url":"https://perenual.com/storage/species_image/2_abies_alba_pyramidalis/small/49255769768_df55596553_b.jpg","thumbnail":"https://perenual.com/storage/species_image/2_abies_alba_pyramidalis/thumbnail/49255769768_df55596553_b.jpg"}},{"id":3411,"common_name":"oxeye sunflower","scientific_name":["Heliopsis helianthoides 'Inhelsodor' TUSCAN GOLD"],"other_name":null,"cycle":"Perennial","watering":"Minimum","sunlight":["Full sun"],"default_image":{"image_id":7237,"license":5,"license_name":"Attribution-ShareAlike License","license_url":"https://creativecommons.org/licenses/by-sa/2.0/","original_url":"https://perenual.com/storage/species_image/3419_heliopsis_helianthoides_var_scabra_venus/og/51256993535_c357027526_b.jpg","regular_url":"https://perenual.com/storage/species_image/3419_heliopsis_helianthoides_var_scabra_venus/regular/51256993535_c357027526_b.jpg","medium_url":"https://perenual.com/storage/species_image/3419_heliopsis_helianthoides_var_scabra_venus/medium/51256993535_c357027526_b.jpg","small_url":"https://perenual.com/storage/species_image/3419_heliopsis_helianthoides_var_scabra_venus/small/51256993535_c357027526_b.jpg","thumbnail":"https://perenual.com/storage/species_image/3419_heliopsis_helianthoides_var_scabra_venus/thumbnail/51256993535_c357027526_b.jpg"}},{"id":3412,"common_name":"false sunflower","scientific_name":["Heliopsis helianthoides 'Prairie Sunset'"],"other_name":null,"cycle":"Perennial","watering":"Minimum","sunlight":["Full sun"],"default_image":{"image_id":9,"license":5,"license_name":"Attribution-ShareAlike License","license_url":"https://creativecommons.org/licenses/by-sa/2.0/","original_url":"https://perenual.com/storage/species_image/2_abies_alba_pyramidalis/og/49255769768_df55596553_b.jpg","regular_url":"https://perenual.com/storage/species_image/2_abies_alba_pyramidalis/regular/49255769768_df55596553_b.jpg","medium_url":"https://perenual.com/storage/species_image/2_abies_alba_pyramidalis/medium/49255769768_df55596553_b.jpg","small_url":"https://perenual.com/storage/species_image/2_abies_alba_pyramidalis/small/49255769768_df55596553_b.jpg","thumbnail":"https://perenual.com/storage/species_image/2_abies_alba_pyramidalis/thumbnail/49255769768_df55596553_b.jpg"}},{"id":3413,"common_name":"ox-eye daisy","scientific_name":["Heliopsis helianthoides 'Tuscan Sun'"],"other_name":null,"cycle":"Perennial","watering":"Minimum","sunlight":["Full sun"],"default_image":{"image_id":9,"license":5,"license_name":"Attribution-ShareAlike License","license_url":"https://creativecommons.org/licenses/by-sa/2.0/","original_url":"https://perenual.com/storage/species_image/2_abies_alba_pyramidalis/og/49255769768_df55596553_b.jpg","regular_url":"https://perenual.com/storage/species_image/2_abies_alba_pyramidalis/regular/49255769768_df55596553_b.jpg","medium_url":"https://perenual.com/storage/species_image/2_abies_alba_pyramidalis/medium/49255769768_df55596553_b.jpg","small_url":"https://perenual.com/storage/species_image/2_abies_alba_pyramidalis/small/49255769768_df55596553_b.jpg","thumbnail":"https://perenual.com/storage/species_image/2_abies_alba_pyramidalis/thumbnail/49255769768_df55596553_b.jpg"}},{"id":3414,"common_name":"ox eye","scientific_name":["Heliopsis helianthoides var. scabra"],"other_name":null,"cycle":"Perennial","watering":"Minimum","sunlight":["Full sun"],"default_image":{"image_id":7241,"license":5,"license_name":"Attribution-ShareAlike License","license_url":"https://creativecommons.org/licenses/by-sa/2.0/","original_url":"https://perenual.com/storage/species_image/3414_heliopsis_helianthoides_var_scabra/og/35899995365_24b819edc5_b.jpg","regular_url":"https://perenual.com/storage/species_image/3414_heliopsis_helianthoides_var_scabra/regular/35899995365_24b819edc5_b.jpg","medium_url":"https://perenual.com/storage/species_image/3414_heliopsis_helianthoides_var_scabra/medium/35899995365_24b819edc5_b.jpg","small_url":"https://perenual.com/storage/species_image/3414_heliopsis_helianthoides_var_scabra/small/35899995365_24b819edc5_b.jpg","thumbnail":"https://perenual.com/storage/species_image/3414_heliopsis_helianthoides_var_scabra/thumbnail/35899995365_24b819edc5_b.jpg"}},{"id":3415,"common_name":"ox eye","scientific_name":["Heliopsis helianthoides var. scabra 'Burning Hearts'"],"other_name":null,"cycle":"Perennial","watering":"Minimum","sunlight":["Full sun"],"default_image":{"image_id":7243,"license":4,"license_name":"Attribution License","license_url":"https://creativecommons.org/licenses/by/2.0/","original_url":"https://perenual.com/storage/species_image/3415_heliopsis_helianthoides_var_scabra_burning_hearts/og/52230286147_201496e361_b.jpg","regular_url":"https://perenual.com/storage/species_image/3415_heliopsis_helianthoides_var_scabra_burning_hearts/regular/52230286147_201496e361_b.jpg","medium_url":"https://perenual.com/storage/species_image/3415_heliopsis_helianthoides_var_scabra_burning_hearts/medium/52230286147_201496e361_b.jpg","small_url":"https://perenual.com/storage/species_image/3415_heliopsis_helianthoides_var_scabra_burning_hearts/small/52230286147_201496e361_b.jpg","thumbnail":"https://perenual.com/storage/species_image/3415_heliopsis_helianthoides_var_scabra_burning_hearts/thumbnail/52230286147_201496e361_b.jpg"}},{"id":3416,"common_name":"ox eye","scientific_name":["Heliopsis helianthoides var. scabra 'Goldgefieder' GOLDEN PLUME"],"other_name":null,"cycle":"Perennial","watering":"Minimum","sunlight":["Full sun"],"default_image":{"image_id":9,"license":5,"license_name":"Attribution-ShareAlike License","license_url":"https://creativecommons.org/licenses/by-sa/2.0/","original_url":"https://perenual.com/storage/species_image/2_abies_alba_pyramidalis/og/49255769768_df55596553_b.jpg","regular_url":"https://perenual.com/storage/species_image/2_abies_alba_pyramidalis/regular/49255769768_df55596553_b.jpg","medium_url":"https://perenual.com/storage/species_image/2_abies_alba_pyramidalis/medium/49255769768_df55596553_b.jpg","small_url":"https://perenual.com/storage/species_image/2_abies_alba_pyramidalis/small/49255769768_df55596553_b.jpg","thumbnail":"https://perenual.com/storage/species_image/2_abies_alba_pyramidalis/thumbnail/49255769768_df55596553_b.jpg"}},{"id":3417,"common_name":"ox eye","scientific_name":["Heliopsis helianthoides var. scabra 'Sommersonne' SUMMER SUN"],"other_name":null,"cycle":"Perennial","watering":"Minimum","sunlight":["Full sun"],"default_image":{"image_id":7247,"license":5,"license_name":"Attribution-ShareAlike License","license_url":"https://creativecommons.org/licenses/by-sa/2.0/","original_url":"https://perenual.com/storage/species_image/3417_heliopsis_helianthoides_var_scabra_sommersonne_summer_sun/og/51457312149_8c705eec60_b.jpg","regular_url":"https://perenual.com/storage/species_image/3417_heliopsis_helianthoides_var_scabra_sommersonne_summer_sun/regular/51457312149_8c705eec60_b.jpg","medium_url":"https://perenual.com/storage/species_image/3417_heliopsis_helianthoides_var_scabra_sommersonne_summer_sun/medium/51457312149_8c705eec60_b.jpg","small_url":"https://perenual.com/storage/species_image/3417_heliopsis_helianthoides_var_scabra_sommersonne_summer_sun/small/51457312149_8c705eec60_b.jpg","thumbnail":"https://perenual.com/storage/species_image/3417_heliopsis_helianthoides_var_scabra_sommersonne_summer_sun/thumbnail/51457312149_8c705eec60_b.jpg"}},{"id":3418,"common_name":"ox-eye daisy","scientific_name":["Heliopsis helianthoides var. scabra 'Spitzentanzerin' BALLERINA"],"other_name":null,"cycle":"Perennial","watering":"Minimum","sunlight":["Full sun"],"default_image":{"image_id":9,"license":5,"license_name":"Attribution-ShareAlike License","license_url":"https://creativecommons.org/licenses/by-sa/2.0/","original_url":"https://perenual.com/storage/species_image/2_abies_alba_pyramidalis/og/49255769768_df55596553_b.jpg","regular_url":"https://perenual.com/storage/species_image/2_abies_alba_pyramidalis/regular/49255769768_df55596553_b.jpg","medium_url":"https://perenual.com/storage/species_image/2_abies_alba_pyramidalis/medium/49255769768_df55596553_b.jpg","small_url":"https://perenual.com/storage/species_image/2_abies_alba_pyramidalis/small/49255769768_df55596553_b.jpg","thumbnail":"https://perenual.com/storage/species_image/2_abies_alba_pyramidalis/thumbnail/49255769768_df55596553_b.jpg"}},{"id":3419,"common_name":"oxeye sunflower","scientific_name":["Heliopsis helianthoides var. scabra 'Venus'"],"other_name":null,"cycle":"Perennial","watering":"Minimum","sunlight":["Full sun"],"default_image":{"image_id":7237,"license":5,"license_name":"Attribution-ShareAlike License","license_url":"https://creativecommons.org/licenses/by-sa/2.0/","original_url":"https://perenual.com/storage/species_image/3419_heliopsis_helianthoides_var_scabra_venus/og/51256993535_c357027526_b.jpg","regular_url":"https://perenual.com/storage/species_image/3419_heliopsis_helianthoides_var_scabra_venus/regular/51256993535_c357027526_b.jpg","medium_url":"https://perenual.com/storage/species_image/3419_heliopsis_helianthoides_var_scabra_venus/medium/51256993535_c357027526_b.jpg","small_url":"https://perenual.com/storage/species_image/3419_heliopsis_helianthoides_var_scabra_venus/small/51256993535_c357027526_b.jpg","thumbnail":"https://perenual.com/storage/species_image/3419_heliopsis_helianthoides_var_scabra_venus/thumbnail/51256993535_c357027526_b.jpg"}},{"id":3420,"common_name":"heliotrope","scientific_name":["Heliotropium arborescens"],"other_name":null,"cycle":"Perennial","watering":"Average","sunlight":["Full sun","part shade"],"default_image":{"image_id":7250,"license":4,"license_name":"Attribution License","license_url":"https://creativecommons.org/licenses/by/2.0/","original_url":"https://perenual.com/storage/species_image/3420_heliotropium_arborescens/og/24449945013_427e3db530_b.jpg","regular_url":"https://perenual.com/storage/species_image/3420_heliotropium_arborescens/regular/24449945013_427e3db530_b.jpg","medium_url":"https://perenual.com/storage/species_image/3420_heliotropium_arborescens/medium/24449945013_427e3db530_b.jpg","small_url":"https://perenual.com/storage/species_image/3420_heliotropium_arborescens/small/24449945013_427e3db530_b.jpg","thumbnail":"https://perenual.com/storage/species_image/3420_heliotropium_arborescens/thumbnail/24449945013_427e3db530_b.jpg"}}],"to":3420,"per_page":30,"current_page":114,"from":3391,"last_page":200,"total":6000}