{"data":[{"id":2101,"common_name":"tatarian dogwood","scientific_name":["Cornus alba 'Bailhalo' IVORY HALO"],"other_name":null,"cycle":"Perennial","watering":"Average","sunlight":["Full sun","part shade"],"default_image":{"image_id":9,"license":5,"license_name":"Attribution-ShareAlike License","license_url":"https://creativecommons.org/licenses/by-sa/2.0/","original_url":"https://perenual.com/storage/species_image/2_abies_alba_pyramidalis/og/49255769768_df55596553_b.jpg","regular_url":"https://perenual.com/storage/species_image/2_abies_alba_pyramidalis/regular/49255769768_df55596553_b.jpg","medium_url":"https://perenual.com/storage/species_image/2_abies_alba_pyramidalis/medium/49255769768_df55596553_b.jpg","small_url":"https://perenual.com/storage/species_image/2_abies_alba_pyramidalis/small/49255769768_df55596553_b.jpg","thumbnail":"https://perenual.com/storage/species_image/2_abies_alba_pyramidalis/thumbnail/49255769768_df55596553_b.jpg"}},{"id":2102,"common_name":"tatarian dogwood","scientific_name":["Cornus alba 'Byboughen' NEON BURST"],"other_name":null,"cycle":"Perennial","watering":"Average","sunlight":["Full sun","part shade"],"default_image":{"image_id":5020,"license":5,"license_name":"Attribution-ShareAlike License","license_url":"https://creativecommons.org/licenses/by-sa/2.0/","original_url":"https://perenual.com/storage/species_image/2102_cornus_alba_byboughen_neon_burst/og/43924999634_87407325d7_b.jpg","regular_url":"https://perenual.com/storage/species_image/2102_cornus_alba_byboughen_neon_burst/regular/43924999634_87407325d7_b.jpg","medium_url":"https://perenual.com/storage/species_image/2102_cornus_alba_byboughen_neon_burst/medium/43924999634_87407325d7_b.jpg","small_url":"https://perenual.com/storage/species_image/2102_cornus_alba_byboughen_neon_burst/small/43924999634_87407325d7_b.jpg","thumbnail":"https://perenual.com/storage/species_image/2102_cornus_alba_byboughen_neon_burst/thumbnail/43924999634_87407325d7_b.jpg"}},{"id":2103,"common_name":"tatarian dogwood","scientific_name":["Cornus alba 'Gouchaultii'"],"other_name":null,"cycle":"Perennial","watering":"Average","sunlight":["Full sun","part shade"],"default_image":{"image_id":9,"license":5,"license_name":"Attribution-ShareAlike License","license_url":"https://creativecommons.org/licenses/by-sa/2.0/","original_url":"https://perenual.com/storage/species_image/2_abies_alba_pyramidalis/og/49255769768_df55596553_b.jpg","regular_url":"https://perenual.com/storage/species_image/2_abies_alba_pyramidalis/regular/49255769768_df55596553_b.jpg","medium_url":"https://perenual.com/storage/species_image/2_abies_alba_pyramidalis/medium/49255769768_df55596553_b.jpg","small_url":"https://perenual.com/storage/species_image/2_abies_alba_pyramidalis/small/49255769768_df55596553_b.jpg","thumbnail":"https://perenual.com/storage/species_image/2_abies_alba_pyramidalis/thumbnail/49255769768_df55596553_b.jpg"}},{"id":2104,"common_name":"tatarian dogwood","scientific_name":["Cornus alba 'Kesselringii'"],"other_name":null,"cycle":"Perennial","watering":"Average","sunlight":["Full sun","part shade"],"default_image":{"image_id":9,"license":5,"license_name":"Attribution-ShareAlike License","license_url":"https://creativecommons.org/licenses/by-sa/2.0/","original_url":"https://perenual.com/storage/species_image/2_abies_alba_pyramidalis/og/49255769768_df55596553_b.jpg","regular_url":"https://perenual.com/storage/species_image/2_abies_alba_pyramidalis/regular/49255769768_df55596553_b.jpg","medium_url":"https://perenual.com/storage/species_image/2_abies_alba_pyramidalis/medium/49255769768_df55596553_b.jpg","small_url":"https://perenual.com/storage/species_image/2_abies_alba_pyramidalis/small/49255769768_df55596553_b.jpg","thumbnail":"https://perenual.com/storage/species_image/2_abies_alba_pyramidalis/thumbnail/49255769768_df55596553_b.jpg"}},{"id":2105,"common_name":"tatarian dogwood","scientific_name":["Cornus alba 'Prairie Fire'"],"other_name":null,"cycle":"Perennial","watering":"Average","sunlight":["Full sun","part shade"],"default_image":{"image_id":5022,"license":5,"license_name":"Attribution-ShareAlike License","license_url":"https://creativecommons.org/licenses/by-sa/2.0/","original_url":"https://perenual.com/storage/species_image/2105_cornus_alba_prairie_fire/og/20239995739_5a10229602_b.jpg","regular_url":"https://perenual.com/storage/species_image/2105_cornus_alba_prairie_fire/regular/20239995739_5a10229602_b.jpg","medium_url":"https://perenual.com/storage/species_image/2105_cornus_alba_prairie_fire/medium/20239995739_5a10229602_b.jpg","small_url":"https://perenual.com/storage/species_image/2105_cornus_alba_prairie_fire/small/20239995739_5a10229602_b.jpg","thumbnail":"https://perenual.com/storage/species_image/2105_cornus_alba_prairie_fire/thumbnail/20239995739_5a10229602_b.jpg"}},{"id":2106,"common_name":"tatarian dogwood","scientific_name":["Cornus alba 'Regnzam' RED GNOME"],"other_name":null,"cycle":"Perennial","watering":"Average","sunlight":["Full sun","part shade"],"default_image":{"image_id":9,"license":5,"license_name":"Attribution-ShareAlike License","license_url":"https://creativecommons.org/licenses/by-sa/2.0/","original_url":"https://perenual.com/storage/species_image/2_abies_alba_pyramidalis/og/49255769768_df55596553_b.jpg","regular_url":"https://perenual.com/storage/species_image/2_abies_alba_pyramidalis/regular/49255769768_df55596553_b.jpg","medium_url":"https://perenual.com/storage/species_image/2_abies_alba_pyramidalis/medium/49255769768_df55596553_b.jpg","small_url":"https://perenual.com/storage/species_image/2_abies_alba_pyramidalis/small/49255769768_df55596553_b.jpg","thumbnail":"https://perenual.com/storage/species_image/2_abies_alba_pyramidalis/thumbnail/49255769768_df55596553_b.jpg"}},{"id":2107,"common_name":"tatarian dogwood","scientific_name":["Cornus alba 'Siberian Pearls'"],"other_name":null,"cycle":"Perennial","watering":"Average","sunlight":["Full sun","part shade"],"default_image":{"image_id":5023,"license":5,"license_name":"Attribution-ShareAlike License","license_url":"https://creativecommons.org/licenses/by-sa/2.0/","original_url":"https://perenual.com/storage/species_image/2107_cornus_alba_siberian_pearls/og/4850034412_9a4116a5f4_b.jpg","regular_url":"https://perenual.com/storage/species_image/2107_cornus_alba_siberian_pearls/regular/4850034412_9a4116a5f4_b.jpg","medium_url":"https://perenual.com/storage/species_image/2107_cornus_alba_siberian_pearls/medium/4850034412_9a4116a5f4_b.jpg","small_url":"https://perenual.com/storage/species_image/2107_cornus_alba_siberian_pearls/small/4850034412_9a4116a5f4_b.jpg","thumbnail":"https://perenual.com/storage/species_image/2107_cornus_alba_siberian_pearls/thumbnail/4850034412_9a4116a5f4_b.jpg"}},{"id":2108,"common_name":"tatarian dogwood","scientific_name":["Cornus alba 'Sibirica'"],"other_name":null,"cycle":"Perennial","watering":"Average","sunlight":["Full sun","part shade"],"default_image":{"image_id":5025,"license":5,"license_name":"Attribution-ShareAlike License","license_url":"https://creativecommons.org/licenses/by-sa/2.0/","original_url":"https://perenual.com/storage/species_image/2108_cornus_alba_sibirica/og/16791484298_1ac7470ee5_b.jpg","regular_url":"https://perenual.com/storage/species_image/2108_cornus_alba_sibirica/regular/16791484298_1ac7470ee5_b.jpg","medium_url":"https://perenual.com/storage/species_image/2108_cornus_alba_sibirica/medium/16791484298_1ac7470ee5_b.jpg","small_url":"https://perenual.com/storage/species_image/2108_cornus_alba_sibirica/small/16791484298_1ac7470ee5_b.jpg","thumbnail":"https://perenual.com/storage/species_image/2108_cornus_alba_sibirica/thumbnail/16791484298_1ac7470ee5_b.jpg"}},{"id":2109,"common_name":"tatarian dogwood","scientific_name":["Cornus alba 'Spaethii'"],"other_name":null,"cycle":"Perennial","watering":"Average","sunlight":["Full sun","part shade"],"default_image":{"image_id":9,"license":5,"license_name":"Attribution-ShareAlike License","license_url":"https://creativecommons.org/licenses/by-sa/2.0/","original_url":"https://perenual.com/storage/species_image/2_abies_alba_pyramidalis/og/49255769768_df55596553_b.jpg","regular_url":"https://perenual.com/storage/species_image/2_abies_alba_pyramidalis/regular/49255769768_df55596553_b.jpg","medium_url":"https://perenual.com/storage/species_image/2_abies_alba_pyramidalis/medium/49255769768_df55596553_b.jpg","small_url":"https://perenual.com/storage/species_image/2_abies_alba_pyramidalis/small/49255769768_df55596553_b.jpg","thumbnail":"https://perenual.com/storage/species_image/2_abies_alba_pyramidalis/thumbnail/49255769768_df55596553_b.jpg"}},{"id":2110,"common_name":"dogwood","scientific_name":["Cornus amomum"],"other_name":null,"cycle":"Perennial","watering":"Frequent","sunlight":["Full sun","part shade"],"default_image":{"image_id":9,"license":5,"license_name":"Attribution-ShareAlike License","license_url":"https://creativecommons.org/licenses/by-sa/2.0/","original_url":"https://perenual.com/storage/species_image/2_abies_alba_pyramidalis/og/49255769768_df55596553_b.jpg","regular_url":"https://perenual.com/storage/species_image/2_abies_alba_pyramidalis/regular/49255769768_df55596553_b.jpg","medium_url":"https://perenual.com/storage/species_image/2_abies_alba_pyramidalis/medium/49255769768_df55596553_b.jpg","small_url":"https://perenual.com/storage/species_image/2_abies_alba_pyramidalis/small/49255769768_df55596553_b.jpg","thumbnail":"https://perenual.com/storage/species_image/2_abies_alba_pyramidalis/thumbnail/49255769768_df55596553_b.jpg"}},{"id":2111,"common_name":"swamp dogwood","scientific_name":["Cornus amomum subsp. obliqua"],"other_name":null,"cycle":"Perennial","watering":"Frequent","sunlight":["Full sun","part shade"],"default_image":{"image_id":9,"license":5,"license_name":"Attribution-ShareAlike License","license_url":"https://creativecommons.org/licenses/by-sa/2.0/","original_url":"https://perenual.com/storage/species_image/2_abies_alba_pyramidalis/og/49255769768_df55596553_b.jpg","regular_url":"https://perenual.com/storage/species_image/2_abies_alba_pyramidalis/regular/49255769768_df55596553_b.jpg","medium_url":"https://perenual.com/storage/species_image/2_abies_alba_pyramidalis/medium/49255769768_df55596553_b.jpg","small_url":"https://perenual.com/storage/species_image/2_abies_alba_pyramidalis/small/49255769768_df55596553_b.jpg","thumbnail":"https://perenual.com/storage/species_image/2_abies_alba_pyramidalis/thumbnail/49255769768_df55596553_b.jpg"}},{"id":2112,"common_name":"bunchberry","scientific_name":["Cornus canadensis"],"other_name":null,"cycle":"Perennial","watering":"Average","sunlight":["Part shade"],"default_image":{"image_id":5033,"license":4,"license_name":"Attribution License","license_url":"https://creativecommons.org/licenses/by/2.0/","original_url":"https://perenual.com/storage/species_image/2112_cornus_canadensis/og/35579917475_9cd03d8ef0_b.jpg","regular_url":"https://perenual.com/storage/species_image/2112_cornus_canadensis/regular/35579917475_9cd03d8ef0_b.jpg","medium_url":"https://perenual.com/storage/species_image/2112_cornus_canadensis/medium/35579917475_9cd03d8ef0_b.jpg","small_url":"https://perenual.com/storage/species_image/2112_cornus_canadensis/small/35579917475_9cd03d8ef0_b.jpg","thumbnail":"https://perenual.com/storage/species_image/2112_cornus_canadensis/thumbnail/35579917475_9cd03d8ef0_b.jpg"}},{"id":2113,"common_name":"evergreen dogwood","scientific_name":["Cornus capitata"],"other_name":null,"cycle":"Perennial","watering":"Average","sunlight":["Full sun","part shade"],"default_image":{"image_id":9,"license":5,"license_name":"Attribution-ShareAlike License","license_url":"https://creativecommons.org/licenses/by-sa/2.0/","original_url":"https://perenual.com/storage/species_image/2_abies_alba_pyramidalis/og/49255769768_df55596553_b.jpg","regular_url":"https://perenual.com/storage/species_image/2_abies_alba_pyramidalis/regular/49255769768_df55596553_b.jpg","medium_url":"https://perenual.com/storage/species_image/2_abies_alba_pyramidalis/medium/49255769768_df55596553_b.jpg","small_url":"https://perenual.com/storage/species_image/2_abies_alba_pyramidalis/small/49255769768_df55596553_b.jpg","thumbnail":"https://perenual.com/storage/species_image/2_abies_alba_pyramidalis/thumbnail/49255769768_df55596553_b.jpg"}},{"id":2114,"common_name":"dogwood","scientific_name":["Cornus drummondii"],"other_name":null,"cycle":"Perennial","watering":"Frequent","sunlight":["Full sun","part shade"],"default_image":{"image_id":9,"license":5,"license_name":"Attribution-ShareAlike License","license_url":"https://creativecommons.org/licenses/by-sa/2.0/","original_url":"https://perenual.com/storage/species_image/2_abies_alba_pyramidalis/og/49255769768_df55596553_b.jpg","regular_url":"https://perenual.com/storage/species_image/2_abies_alba_pyramidalis/regular/49255769768_df55596553_b.jpg","medium_url":"https://perenual.com/storage/species_image/2_abies_alba_pyramidalis/medium/49255769768_df55596553_b.jpg","small_url":"https://perenual.com/storage/species_image/2_abies_alba_pyramidalis/small/49255769768_df55596553_b.jpg","thumbnail":"https://perenual.com/storage/species_image/2_abies_alba_pyramidalis/thumbnail/49255769768_df55596553_b.jpg"}},{"id":2115,"common_name":"dogwood","scientific_name":["Cornus elliptica"],"other_name":null,"cycle":"Perennial","watering":"Average","sunlight":["Full sun","part shade"],"default_image":{"image_id":5039,"license":5,"license_name":"Attribution-ShareAlike License","license_url":"https://creativecommons.org/licenses/by-sa/2.0/","original_url":"https://perenual.com/storage/species_image/2115_cornus_elliptica/og/48887842887_0df40baf73_b.jpg","regular_url":"https://perenual.com/storage/species_image/2115_cornus_elliptica/regular/48887842887_0df40baf73_b.jpg","medium_url":"https://perenual.com/storage/species_image/2115_cornus_elliptica/medium/48887842887_0df40baf73_b.jpg","small_url":"https://perenual.com/storage/species_image/2115_cornus_elliptica/small/48887842887_0df40baf73_b.jpg","thumbnail":"https://perenual.com/storage/species_image/2115_cornus_elliptica/thumbnail/48887842887_0df40baf73_b.jpg"}},{"id":2116,"common_name":"dogwood","scientific_name":["Cornus elliptica 'Elsbry' EMPRESS OF CHINA"],"other_name":null,"cycle":"Perennial","watering":"Average","sunlight":["Full sun","part shade"],"default_image":{"image_id":9,"license":5,"license_name":"Attribution-ShareAlike License","license_url":"https://creativecommons.org/licenses/by-sa/2.0/","original_url":"https://perenual.com/storage/species_image/2_abies_alba_pyramidalis/og/49255769768_df55596553_b.jpg","regular_url":"https://perenual.com/storage/species_image/2_abies_alba_pyramidalis/regular/49255769768_df55596553_b.jpg","medium_url":"https://perenual.com/storage/species_image/2_abies_alba_pyramidalis/medium/49255769768_df55596553_b.jpg","small_url":"https://perenual.com/storage/species_image/2_abies_alba_pyramidalis/small/49255769768_df55596553_b.jpg","thumbnail":"https://perenual.com/storage/species_image/2_abies_alba_pyramidalis/thumbnail/49255769768_df55596553_b.jpg"}},{"id":2117,"common_name":"flowering dogwood","scientific_name":["Cornus florida 'Appalachian Spring'"],"other_name":null,"cycle":"Perennial","watering":"Average","sunlight":["Full sun"," Part sun/part shade"],"default_image":{"image_id":9,"license":5,"license_name":"Attribution-ShareAlike License","license_url":"https://creativecommons.org/licenses/by-sa/2.0/","original_url":"https://perenual.com/storage/species_image/2_abies_alba_pyramidalis/og/49255769768_df55596553_b.jpg","regular_url":"https://perenual.com/storage/species_image/2_abies_alba_pyramidalis/regular/49255769768_df55596553_b.jpg","medium_url":"https://perenual.com/storage/species_image/2_abies_alba_pyramidalis/medium/49255769768_df55596553_b.jpg","small_url":"https://perenual.com/storage/species_image/2_abies_alba_pyramidalis/small/49255769768_df55596553_b.jpg","thumbnail":"https://perenual.com/storage/species_image/2_abies_alba_pyramidalis/thumbnail/49255769768_df55596553_b.jpg"}},{"id":2118,"common_name":"flowering dogwood","scientific_name":["Cornus florida 'Cloud Nine'"],"other_name":null,"cycle":"Perennial","watering":"Average","sunlight":["Full sun"," Part sun/part shade"],"default_image":{"image_id":5045,"license":7,"license_name":"No known copyright restrictions","license_url":"https://www.flickr.com/commons/usage/","original_url":"https://perenual.com/storage/species_image/2118_cornus_florida_cloud_nine/og/51566806485_2e801956b8_b.jpg","regular_url":"https://perenual.com/storage/species_image/2118_cornus_florida_cloud_nine/regular/51566806485_2e801956b8_b.jpg","medium_url":"https://perenual.com/storage/species_image/2118_cornus_florida_cloud_nine/medium/51566806485_2e801956b8_b.jpg","small_url":"https://perenual.com/storage/species_image/2118_cornus_florida_cloud_nine/small/51566806485_2e801956b8_b.jpg","thumbnail":"https://perenual.com/storage/species_image/2118_cornus_florida_cloud_nine/thumbnail/51566806485_2e801956b8_b.jpg"}},{"id":2119,"common_name":"flowering dogwood","scientific_name":["Cornus florida 'Comco No. 1' CHEROKEE BRAVE"],"other_name":null,"cycle":"Perennial","watering":"Average","sunlight":["Full sun"," Part sun/part shade"],"default_image":{"image_id":5045,"license":7,"license_name":"No known copyright restrictions","license_url":"https://www.flickr.com/commons/usage/","original_url":"https://perenual.com/storage/species_image/2118_cornus_florida_cloud_nine/og/51566806485_2e801956b8_b.jpg","regular_url":"https://perenual.com/storage/species_image/2118_cornus_florida_cloud_nine/regular/51566806485_2e801956b8_b.jpg","medium_url":"https://perenual.com/storage/species_image/2118_cornus_florida_cloud_nine/medium/51566806485_2e801956b8_b.jpg","small_url":"https://perenual.com/storage/species_image/2118_cornus_florida_cloud_nine/small/51566806485_2e801956b8_b.jpg","thumbnail":"https://perenual.com/storage/species_image/2118_cornus_florida_cloud_nine/thumbnail/51566806485_2e801956b8_b.jpg"}},{"id":2120,"common_name":"flowering dogwood","scientific_name":["Cornus florida 'Daybreak'"],"other_name":null,"cycle":"Perennial","watering":"Average","sunlight":["Full sun"," Part sun/part shade"],"default_image":{"image_id":9,"license":5,"license_name":"Attribution-ShareAlike License","license_url":"https://creativecommons.org/licenses/by-sa/2.0/","original_url":"https://perenual.com/storage/species_image/2_abies_alba_pyramidalis/og/49255769768_df55596553_b.jpg","regular_url":"https://perenual.com/storage/species_image/2_abies_alba_pyramidalis/regular/49255769768_df55596553_b.jpg","medium_url":"https://perenual.com/storage/species_image/2_abies_alba_pyramidalis/medium/49255769768_df55596553_b.jpg","small_url":"https://perenual.com/storage/species_image/2_abies_alba_pyramidalis/small/49255769768_df55596553_b.jpg","thumbnail":"https://perenual.com/storage/species_image/2_abies_alba_pyramidalis/thumbnail/49255769768_df55596553_b.jpg"}},{"id":2121,"common_name":"flowering dogwood","scientific_name":["Cornus florida f. rubra"],"other_name":null,"cycle":"Perennial","watering":"Average","sunlight":["Full sun"," Part sun/part shade"],"default_image":{"image_id":9,"license":5,"license_name":"Attribution-ShareAlike License","license_url":"https://creativecommons.org/licenses/by-sa/2.0/","original_url":"https://perenual.com/storage/species_image/2_abies_alba_pyramidalis/og/49255769768_df55596553_b.jpg","regular_url":"https://perenual.com/storage/species_image/2_abies_alba_pyramidalis/regular/49255769768_df55596553_b.jpg","medium_url":"https://perenual.com/storage/species_image/2_abies_alba_pyramidalis/medium/49255769768_df55596553_b.jpg","small_url":"https://perenual.com/storage/species_image/2_abies_alba_pyramidalis/small/49255769768_df55596553_b.jpg","thumbnail":"https://perenual.com/storage/species_image/2_abies_alba_pyramidalis/thumbnail/49255769768_df55596553_b.jpg"}},{"id":2122,"common_name":"flowering dogwood","scientific_name":["Cornus florida 'Ozark Spring'"],"other_name":null,"cycle":"Perennial","watering":"Average","sunlight":["Full sun"," Part sun/part shade"],"default_image":{"image_id":9,"license":5,"license_name":"Attribution-ShareAlike License","license_url":"https://creativecommons.org/licenses/by-sa/2.0/","original_url":"https://perenual.com/storage/species_image/2_abies_alba_pyramidalis/og/49255769768_df55596553_b.jpg","regular_url":"https://perenual.com/storage/species_image/2_abies_alba_pyramidalis/regular/49255769768_df55596553_b.jpg","medium_url":"https://perenual.com/storage/species_image/2_abies_alba_pyramidalis/medium/49255769768_df55596553_b.jpg","small_url":"https://perenual.com/storage/species_image/2_abies_alba_pyramidalis/small/49255769768_df55596553_b.jpg","thumbnail":"https://perenual.com/storage/species_image/2_abies_alba_pyramidalis/thumbnail/49255769768_df55596553_b.jpg"}},{"id":2123,"common_name":"flowering dogwood","scientific_name":["Cornus florida 'Purple Glory'"],"other_name":null,"cycle":"Perennial","watering":"Average","sunlight":["Full sun"," Part sun/part shade"],"default_image":{"image_id":9,"license":5,"license_name":"Attribution-ShareAlike License","license_url":"https://creativecommons.org/licenses/by-sa/2.0/","original_url":"https://perenual.com/storage/species_image/2_abies_alba_pyramidalis/og/49255769768_df55596553_b.jpg","regular_url":"https://perenual.com/storage/species_image/2_abies_alba_pyramidalis/regular/49255769768_df55596553_b.jpg","medium_url":"https://perenual.com/storage/species_image/2_abies_alba_pyramidalis/medium/49255769768_df55596553_b.jpg","small_url":"https://perenual.com/storage/species_image/2_abies_alba_pyramidalis/small/49255769768_df55596553_b.jpg","thumbnail":"https://perenual.com/storage/species_image/2_abies_alba_pyramidalis/thumbnail/49255769768_df55596553_b.jpg"}},{"id":2124,"common_name":"flowering dogwood","scientific_name":["Cornus florida 'Red Pygmy'"],"other_name":null,"cycle":"Perennial","watering":"Average","sunlight":["Full sun"," Part sun/part shade"],"default_image":{"image_id":9,"license":5,"license_name":"Attribution-ShareAlike License","license_url":"https://creativecommons.org/licenses/by-sa/2.0/","original_url":"https://perenual.com/storage/species_image/2_abies_alba_pyramidalis/og/49255769768_df55596553_b.jpg","regular_url":"https://perenual.com/storage/species_image/2_abies_alba_pyramidalis/regular/49255769768_df55596553_b.jpg","medium_url":"https://perenual.com/storage/species_image/2_abies_alba_pyramidalis/medium/49255769768_df55596553_b.jpg","small_url":"https://perenual.com/storage/species_image/2_abies_alba_pyramidalis/small/49255769768_df55596553_b.jpg","thumbnail":"https://perenual.com/storage/species_image/2_abies_alba_pyramidalis/thumbnail/49255769768_df55596553_b.jpg"}},{"id":2125,"common_name":"flowering dogwood","scientific_name":["Cornus florida 'Royal Red'"],"other_name":null,"cycle":"Perennial","watering":"Average","sunlight":["Full sun"," Part sun/part shade"],"default_image":{"image_id":9,"license":5,"license_name":"Attribution-ShareAlike License","license_url":"https://creativecommons.org/licenses/by-sa/2.0/","original_url":"https://perenual.com/storage/species_image/2_abies_alba_pyramidalis/og/49255769768_df55596553_b.jpg","regular_url":"https://perenual.com/storage/species_image/2_abies_alba_pyramidalis/regular/49255769768_df55596553_b.jpg","medium_url":"https://perenual.com/storage/species_image/2_abies_alba_pyramidalis/medium/49255769768_df55596553_b.jpg","small_url":"https://perenual.com/storage/species_image/2_abies_alba_pyramidalis/small/49255769768_df55596553_b.jpg","thumbnail":"https://perenual.com/storage/species_image/2_abies_alba_pyramidalis/thumbnail/49255769768_df55596553_b.jpg"}},{"id":2126,"common_name":"flowering dogwood","scientific_name":["Cornus florida 'White Cloud'"],"other_name":null,"cycle":"Perennial","watering":"Average","sunlight":["Full sun"," Part sun/part shade"],"default_image":{"image_id":5051,"license":6,"license_name":"Attribution-NoDerivs License","license_url":"https://creativecommons.org/licenses/by-nd/2.0/","original_url":"https://perenual.com/storage/species_image/2126_cornus_florida_white_cloud/og/51206617814_99263a098f_b.jpg"}},{"id":2127,"common_name":"flowering dogwood","scientific_name":["Cornus florida 'Xanthocarpa'"],"other_name":null,"cycle":"Perennial","watering":"Average","sunlight":["Full sun"," Part sun/part shade"],"default_image":{"image_id":5054,"license":4,"license_name":"Attribution License","license_url":"https://creativecommons.org/licenses/by/2.0/","original_url":"https://perenual.com/storage/species_image/2127_cornus_florida_xanthocarpa/og/52128236266_1c6283a6d2_b.jpg","regular_url":"https://perenual.com/storage/species_image/2127_cornus_florida_xanthocarpa/regular/52128236266_1c6283a6d2_b.jpg","medium_url":"https://perenual.com/storage/species_image/2127_cornus_florida_xanthocarpa/medium/52128236266_1c6283a6d2_b.jpg","small_url":"https://perenual.com/storage/species_image/2127_cornus_florida_xanthocarpa/small/52128236266_1c6283a6d2_b.jpg","thumbnail":"https://perenual.com/storage/species_image/2127_cornus_florida_xanthocarpa/thumbnail/52128236266_1c6283a6d2_b.jpg"}},{"id":2128,"common_name":"hybrid dogwood","scientific_name":["Cornus 'Kn30 8' VENUS"],"other_name":null,"cycle":"Perennial","watering":"Average","sunlight":["Full sun","part shade"],"default_image":{"image_id":9,"license":5,"license_name":"Attribution-ShareAlike License","license_url":"https://creativecommons.org/licenses/by-sa/2.0/","original_url":"https://perenual.com/storage/species_image/2_abies_alba_pyramidalis/og/49255769768_df55596553_b.jpg","regular_url":"https://perenual.com/storage/species_image/2_abies_alba_pyramidalis/regular/49255769768_df55596553_b.jpg","medium_url":"https://perenual.com/storage/species_image/2_abies_alba_pyramidalis/medium/49255769768_df55596553_b.jpg","small_url":"https://perenual.com/storage/species_image/2_abies_alba_pyramidalis/small/49255769768_df55596553_b.jpg","thumbnail":"https://perenual.com/storage/species_image/2_abies_alba_pyramidalis/thumbnail/49255769768_df55596553_b.jpg"}},{"id":2129,"common_name":"kousa dogwood","scientific_name":["Cornus kousa 'Fireworks'"],"other_name":null,"cycle":"Perennial","watering":"Average","sunlight":["Full sun","part shade"],"default_image":{"image_id":9,"license":5,"license_name":"Attribution-ShareAlike License","license_url":"https://creativecommons.org/licenses/by-sa/2.0/","original_url":"https://perenual.com/storage/species_image/2_abies_alba_pyramidalis/og/49255769768_df55596553_b.jpg","regular_url":"https://perenual.com/storage/species_image/2_abies_alba_pyramidalis/regular/49255769768_df55596553_b.jpg","medium_url":"https://perenual.com/storage/species_image/2_abies_alba_pyramidalis/medium/49255769768_df55596553_b.jpg","small_url":"https://perenual.com/storage/species_image/2_abies_alba_pyramidalis/small/49255769768_df55596553_b.jpg","thumbnail":"https://perenual.com/storage/species_image/2_abies_alba_pyramidalis/thumbnail/49255769768_df55596553_b.jpg"}},{"id":2130,"common_name":"kousa dogwood","scientific_name":["Cornus kousa 'Kristin Lipka's Variegated Weeper'"],"other_name":null,"cycle":"Perennial","watering":"Average","sunlight":["Full sun","part shade"],"default_image":{"image_id":9,"license":5,"license_name":"Attribution-ShareAlike License","license_url":"https://creativecommons.org/licenses/by-sa/2.0/","original_url":"https://perenual.com/storage/species_image/2_abies_alba_pyramidalis/og/49255769768_df55596553_b.jpg","regular_url":"https://perenual.com/storage/species_image/2_abies_alba_pyramidalis/regular/49255769768_df55596553_b.jpg","medium_url":"https://perenual.com/storage/species_image/2_abies_alba_pyramidalis/medium/49255769768_df55596553_b.jpg","small_url":"https://perenual.com/storage/species_image/2_abies_alba_pyramidalis/small/49255769768_df55596553_b.jpg","thumbnail":"https://perenual.com/storage/species_image/2_abies_alba_pyramidalis/thumbnail/49255769768_df55596553_b.jpg"}}],"to":2130,"per_page":30,"current_page":71,"from":2101,"last_page":200,"total":6000}