{"data":[{"id":4321,"common_name":"Siberian iris","scientific_name":["Iris 'Baby Sister'"],"other_name":null,"cycle":"Perennial","watering":"Frequent","sunlight":["Full sun","part shade"],"default_image":{"image_id":8913,"license":5,"license_name":"Attribution-ShareAlike License","license_url":"https://creativecommons.org/licenses/by-sa/2.0/","original_url":"https://perenual.com/storage/species_image/4335_iris_chilled_wine/og/52134439284_1e3bc9fdee_b.jpg","regular_url":"https://perenual.com/storage/species_image/4335_iris_chilled_wine/regular/52134439284_1e3bc9fdee_b.jpg","medium_url":"https://perenual.com/storage/species_image/4335_iris_chilled_wine/medium/52134439284_1e3bc9fdee_b.jpg","small_url":"https://perenual.com/storage/species_image/4335_iris_chilled_wine/small/52134439284_1e3bc9fdee_b.jpg","thumbnail":"https://perenual.com/storage/species_image/4335_iris_chilled_wine/thumbnail/52134439284_1e3bc9fdee_b.jpg"}},{"id":4322,"common_name":"standard dwarf bearded iris","scientific_name":["Iris 'Ballet Lesson'"],"other_name":null,"cycle":"Perennial","watering":"Average","sunlight":["Full sun"],"default_image":{"image_id":9,"license":5,"license_name":"Attribution-ShareAlike License","license_url":"https://creativecommons.org/licenses/by-sa/2.0/","original_url":"https://perenual.com/storage/species_image/2_abies_alba_pyramidalis/og/49255769768_df55596553_b.jpg","regular_url":"https://perenual.com/storage/species_image/2_abies_alba_pyramidalis/regular/49255769768_df55596553_b.jpg","medium_url":"https://perenual.com/storage/species_image/2_abies_alba_pyramidalis/medium/49255769768_df55596553_b.jpg","small_url":"https://perenual.com/storage/species_image/2_abies_alba_pyramidalis/small/49255769768_df55596553_b.jpg","thumbnail":"https://perenual.com/storage/species_image/2_abies_alba_pyramidalis/thumbnail/49255769768_df55596553_b.jpg"}},{"id":4323,"common_name":"standard dwarf bearded iris","scientific_name":["Iris 'Being Busy'"],"other_name":null,"cycle":"Perennial","watering":"Average","sunlight":["Full sun"],"default_image":{"image_id":9,"license":5,"license_name":"Attribution-ShareAlike License","license_url":"https://creativecommons.org/licenses/by-sa/2.0/","original_url":"https://perenual.com/storage/species_image/2_abies_alba_pyramidalis/og/49255769768_df55596553_b.jpg","regular_url":"https://perenual.com/storage/species_image/2_abies_alba_pyramidalis/regular/49255769768_df55596553_b.jpg","medium_url":"https://perenual.com/storage/species_image/2_abies_alba_pyramidalis/medium/49255769768_df55596553_b.jpg","small_url":"https://perenual.com/storage/species_image/2_abies_alba_pyramidalis/small/49255769768_df55596553_b.jpg","thumbnail":"https://perenual.com/storage/species_image/2_abies_alba_pyramidalis/thumbnail/49255769768_df55596553_b.jpg"}},{"id":4324,"common_name":"tall bearded iris","scientific_name":["Iris 'Beverly Sills'"],"other_name":null,"cycle":"Perennial","watering":"Average","sunlight":["Full sun"],"default_image":{"image_id":8923,"license":4,"license_name":"Attribution License","license_url":"https://creativecommons.org/licenses/by/2.0/","original_url":"https://perenual.com/storage/species_image/4324_iris_beverly_sills/og/27148623632_9ac9fed197_b.jpg","regular_url":"https://perenual.com/storage/species_image/4324_iris_beverly_sills/regular/27148623632_9ac9fed197_b.jpg","medium_url":"https://perenual.com/storage/species_image/4324_iris_beverly_sills/medium/27148623632_9ac9fed197_b.jpg","small_url":"https://perenual.com/storage/species_image/4324_iris_beverly_sills/small/27148623632_9ac9fed197_b.jpg","thumbnail":"https://perenual.com/storage/species_image/4324_iris_beverly_sills/thumbnail/27148623632_9ac9fed197_b.jpg"}},{"id":4325,"common_name":"tall bearded reblooming iris","scientific_name":["Iris 'Billionaire'"],"other_name":null,"cycle":"Perennial","watering":"Average","sunlight":["Full sun"],"default_image":{"image_id":9,"license":5,"license_name":"Attribution-ShareAlike License","license_url":"https://creativecommons.org/licenses/by-sa/2.0/","original_url":"https://perenual.com/storage/species_image/2_abies_alba_pyramidalis/og/49255769768_df55596553_b.jpg","regular_url":"https://perenual.com/storage/species_image/2_abies_alba_pyramidalis/regular/49255769768_df55596553_b.jpg","medium_url":"https://perenual.com/storage/species_image/2_abies_alba_pyramidalis/medium/49255769768_df55596553_b.jpg","small_url":"https://perenual.com/storage/species_image/2_abies_alba_pyramidalis/small/49255769768_df55596553_b.jpg","thumbnail":"https://perenual.com/storage/species_image/2_abies_alba_pyramidalis/thumbnail/49255769768_df55596553_b.jpg"}},{"id":4326,"common_name":"Siberian iris","scientific_name":["Iris 'Bird Feeder'"],"other_name":null,"cycle":"Perennial","watering":"Frequent","sunlight":["Full sun","part shade"],"default_image":{"image_id":9,"license":5,"license_name":"Attribution-ShareAlike License","license_url":"https://creativecommons.org/licenses/by-sa/2.0/","original_url":"https://perenual.com/storage/species_image/2_abies_alba_pyramidalis/og/49255769768_df55596553_b.jpg","regular_url":"https://perenual.com/storage/species_image/2_abies_alba_pyramidalis/regular/49255769768_df55596553_b.jpg","medium_url":"https://perenual.com/storage/species_image/2_abies_alba_pyramidalis/medium/49255769768_df55596553_b.jpg","small_url":"https://perenual.com/storage/species_image/2_abies_alba_pyramidalis/small/49255769768_df55596553_b.jpg","thumbnail":"https://perenual.com/storage/species_image/2_abies_alba_pyramidalis/thumbnail/49255769768_df55596553_b.jpg"}},{"id":4327,"common_name":"Louisiana iris","scientific_name":["Iris 'Black Gamecock'"],"other_name":null,"cycle":"Perennial","watering":"Frequent","sunlight":["Full sun","part shade"],"default_image":{"image_id":8933,"license":5,"license_name":"Attribution-ShareAlike License","license_url":"https://creativecommons.org/licenses/by-sa/2.0/","original_url":"https://perenual.com/storage/species_image/4327_iris_black_gamecock/og/49948685932_33f316e740_b.jpg","regular_url":"https://perenual.com/storage/species_image/4327_iris_black_gamecock/regular/49948685932_33f316e740_b.jpg","medium_url":"https://perenual.com/storage/species_image/4327_iris_black_gamecock/medium/49948685932_33f316e740_b.jpg","small_url":"https://perenual.com/storage/species_image/4327_iris_black_gamecock/small/49948685932_33f316e740_b.jpg","thumbnail":"https://perenual.com/storage/species_image/4327_iris_black_gamecock/thumbnail/49948685932_33f316e740_b.jpg"}},{"id":4328,"common_name":"tall bearded reblooming iris","scientific_name":["Iris 'Blatant'"],"other_name":null,"cycle":"Perennial","watering":"Average","sunlight":["Full sun"],"default_image":{"image_id":9,"license":5,"license_name":"Attribution-ShareAlike License","license_url":"https://creativecommons.org/licenses/by-sa/2.0/","original_url":"https://perenual.com/storage/species_image/2_abies_alba_pyramidalis/og/49255769768_df55596553_b.jpg","regular_url":"https://perenual.com/storage/species_image/2_abies_alba_pyramidalis/regular/49255769768_df55596553_b.jpg","medium_url":"https://perenual.com/storage/species_image/2_abies_alba_pyramidalis/medium/49255769768_df55596553_b.jpg","small_url":"https://perenual.com/storage/species_image/2_abies_alba_pyramidalis/small/49255769768_df55596553_b.jpg","thumbnail":"https://perenual.com/storage/species_image/2_abies_alba_pyramidalis/thumbnail/49255769768_df55596553_b.jpg"}},{"id":4329,"common_name":"zigzag iris","scientific_name":["Iris brevicaulis"],"other_name":null,"cycle":"Perennial","watering":"Frequent","sunlight":["Full sun","part shade"],"default_image":{"image_id":9,"license":5,"license_name":"Attribution-ShareAlike License","license_url":"https://creativecommons.org/licenses/by-sa/2.0/","original_url":"https://perenual.com/storage/species_image/2_abies_alba_pyramidalis/og/49255769768_df55596553_b.jpg","regular_url":"https://perenual.com/storage/species_image/2_abies_alba_pyramidalis/regular/49255769768_df55596553_b.jpg","medium_url":"https://perenual.com/storage/species_image/2_abies_alba_pyramidalis/medium/49255769768_df55596553_b.jpg","small_url":"https://perenual.com/storage/species_image/2_abies_alba_pyramidalis/small/49255769768_df55596553_b.jpg","thumbnail":"https://perenual.com/storage/species_image/2_abies_alba_pyramidalis/thumbnail/49255769768_df55596553_b.jpg"}},{"id":4330,"common_name":"tall bearded reblooming iris","scientific_name":["Iris 'Buckwheat'"],"other_name":null,"cycle":"Perennial","watering":"Average","sunlight":["Full sun"],"default_image":{"image_id":9,"license":5,"license_name":"Attribution-ShareAlike License","license_url":"https://creativecommons.org/licenses/by-sa/2.0/","original_url":"https://perenual.com/storage/species_image/2_abies_alba_pyramidalis/og/49255769768_df55596553_b.jpg","regular_url":"https://perenual.com/storage/species_image/2_abies_alba_pyramidalis/regular/49255769768_df55596553_b.jpg","medium_url":"https://perenual.com/storage/species_image/2_abies_alba_pyramidalis/medium/49255769768_df55596553_b.jpg","small_url":"https://perenual.com/storage/species_image/2_abies_alba_pyramidalis/small/49255769768_df55596553_b.jpg","thumbnail":"https://perenual.com/storage/species_image/2_abies_alba_pyramidalis/thumbnail/49255769768_df55596553_b.jpg"}},{"id":4331,"common_name":"Siberian iris","scientific_name":["Iris 'Butter and Sugar'"],"other_name":null,"cycle":"Perennial","watering":"Frequent","sunlight":["Full sun","part shade"],"default_image":{"image_id":8944,"license":5,"license_name":"Attribution-ShareAlike License","license_url":"https://creativecommons.org/licenses/by-sa/2.0/","original_url":"https://perenual.com/storage/species_image/4331_iris_butter_and_sugar/og/49999849572_51ddd576ee_b.jpg","regular_url":"https://perenual.com/storage/species_image/4331_iris_butter_and_sugar/regular/49999849572_51ddd576ee_b.jpg","medium_url":"https://perenual.com/storage/species_image/4331_iris_butter_and_sugar/medium/49999849572_51ddd576ee_b.jpg","small_url":"https://perenual.com/storage/species_image/4331_iris_butter_and_sugar/small/49999849572_51ddd576ee_b.jpg","thumbnail":"https://perenual.com/storage/species_image/4331_iris_butter_and_sugar/thumbnail/49999849572_51ddd576ee_b.jpg"}},{"id":4332,"common_name":"Siberian iris","scientific_name":["Iris 'Caesar's Brother'"],"other_name":null,"cycle":"Perennial","watering":"Frequent","sunlight":["Full sun","part shade"],"default_image":{"image_id":8950,"license":6,"license_name":"Attribution-NoDerivs License","license_url":"https://creativecommons.org/licenses/by-nd/2.0/","original_url":"https://perenual.com/storage/species_image/4332_iris_caesars_brother/og/52099097241_5bd4aa394b_b.jpg"}},{"id":4333,"common_name":"tall bearded reblooming iris","scientific_name":["Iris 'Caroline Gibbs'"],"other_name":null,"cycle":"Perennial","watering":"Average","sunlight":["Full sun"],"default_image":{"image_id":9,"license":5,"license_name":"Attribution-ShareAlike License","license_url":"https://creativecommons.org/licenses/by-sa/2.0/","original_url":"https://perenual.com/storage/species_image/2_abies_alba_pyramidalis/og/49255769768_df55596553_b.jpg","regular_url":"https://perenual.com/storage/species_image/2_abies_alba_pyramidalis/regular/49255769768_df55596553_b.jpg","medium_url":"https://perenual.com/storage/species_image/2_abies_alba_pyramidalis/medium/49255769768_df55596553_b.jpg","small_url":"https://perenual.com/storage/species_image/2_abies_alba_pyramidalis/small/49255769768_df55596553_b.jpg","thumbnail":"https://perenual.com/storage/species_image/2_abies_alba_pyramidalis/thumbnail/49255769768_df55596553_b.jpg"}},{"id":4334,"common_name":"tall bearded iris","scientific_name":["Iris 'Champagne Elegance'"],"other_name":null,"cycle":"Perennial","watering":"Average","sunlight":["Full sun"],"default_image":{"image_id":8958,"license":5,"license_name":"Attribution-ShareAlike License","license_url":"https://creativecommons.org/licenses/by-sa/2.0/","original_url":"https://perenual.com/storage/species_image/4434_iris_whispering_spirits/og/51234725094_dcbfb1e997_b.jpg","regular_url":"https://perenual.com/storage/species_image/4434_iris_whispering_spirits/regular/51234725094_dcbfb1e997_b.jpg","medium_url":"https://perenual.com/storage/species_image/4434_iris_whispering_spirits/medium/51234725094_dcbfb1e997_b.jpg","small_url":"https://perenual.com/storage/species_image/4434_iris_whispering_spirits/small/51234725094_dcbfb1e997_b.jpg","thumbnail":"https://perenual.com/storage/species_image/4434_iris_whispering_spirits/thumbnail/51234725094_dcbfb1e997_b.jpg"}},{"id":4335,"common_name":"Siberian iris","scientific_name":["Iris 'Chilled Wine'"],"other_name":null,"cycle":"Perennial","watering":"Frequent","sunlight":["Full sun","part shade"],"default_image":{"image_id":8964,"license":4,"license_name":"Attribution License","license_url":"https://creativecommons.org/licenses/by/2.0/","original_url":"https://perenual.com/storage/species_image/4353_iris_eric_the_red/og/52174660886_341698ce7c_b.jpg","regular_url":"https://perenual.com/storage/species_image/4353_iris_eric_the_red/regular/52174660886_341698ce7c_b.jpg","medium_url":"https://perenual.com/storage/species_image/4353_iris_eric_the_red/medium/52174660886_341698ce7c_b.jpg","small_url":"https://perenual.com/storage/species_image/4353_iris_eric_the_red/small/52174660886_341698ce7c_b.jpg","thumbnail":"https://perenual.com/storage/species_image/4353_iris_eric_the_red/thumbnail/52174660886_341698ce7c_b.jpg"}},{"id":4336,"common_name":"tall bearded iris","scientific_name":["Iris 'City Lights'"],"other_name":null,"cycle":"Perennial","watering":"Average","sunlight":["Full sun"],"default_image":{"image_id":8961,"license":5,"license_name":"Attribution-ShareAlike License","license_url":"https://creativecommons.org/licenses/by-sa/2.0/","original_url":"https://perenual.com/storage/species_image/4336_iris_city_lights/og/51206855223_73a46ee2b3_b.jpg","regular_url":"https://perenual.com/storage/species_image/4336_iris_city_lights/regular/51206855223_73a46ee2b3_b.jpg","medium_url":"https://perenual.com/storage/species_image/4336_iris_city_lights/medium/51206855223_73a46ee2b3_b.jpg","small_url":"https://perenual.com/storage/species_image/4336_iris_city_lights/small/51206855223_73a46ee2b3_b.jpg","thumbnail":"https://perenual.com/storage/species_image/4336_iris_city_lights/thumbnail/51206855223_73a46ee2b3_b.jpg"}},{"id":4337,"common_name":"tall bearded reblooming iris","scientific_name":["Iris 'Clarence'"],"other_name":null,"cycle":"Perennial","watering":"Average","sunlight":["Full sun"],"default_image":{"image_id":8972,"license":5,"license_name":"Attribution-ShareAlike License","license_url":"https://creativecommons.org/licenses/by-sa/2.0/","original_url":"https://perenual.com/storage/species_image/4436_iris_wild_west_wind/og/48013093547_7e988ba7f6_b.jpg","regular_url":"https://perenual.com/storage/species_image/4436_iris_wild_west_wind/regular/48013093547_7e988ba7f6_b.jpg","medium_url":"https://perenual.com/storage/species_image/4436_iris_wild_west_wind/medium/48013093547_7e988ba7f6_b.jpg","small_url":"https://perenual.com/storage/species_image/4436_iris_wild_west_wind/small/48013093547_7e988ba7f6_b.jpg","thumbnail":"https://perenual.com/storage/species_image/4436_iris_wild_west_wind/thumbnail/48013093547_7e988ba7f6_b.jpg"}},{"id":4338,"common_name":"standard dwarf bearded iris","scientific_name":["Iris 'Cocoa Pink'"],"other_name":null,"cycle":"Perennial","watering":"Average","sunlight":["Full sun"],"default_image":{"image_id":9,"license":5,"license_name":"Attribution-ShareAlike License","license_url":"https://creativecommons.org/licenses/by-sa/2.0/","original_url":"https://perenual.com/storage/species_image/2_abies_alba_pyramidalis/og/49255769768_df55596553_b.jpg","regular_url":"https://perenual.com/storage/species_image/2_abies_alba_pyramidalis/regular/49255769768_df55596553_b.jpg","medium_url":"https://perenual.com/storage/species_image/2_abies_alba_pyramidalis/medium/49255769768_df55596553_b.jpg","small_url":"https://perenual.com/storage/species_image/2_abies_alba_pyramidalis/small/49255769768_df55596553_b.jpg","thumbnail":"https://perenual.com/storage/species_image/2_abies_alba_pyramidalis/thumbnail/49255769768_df55596553_b.jpg"}},{"id":4339,"common_name":"dwarf crested iris","scientific_name":["Iris cristata"],"other_name":null,"cycle":"Perennial","watering":"Average","sunlight":["Full sun","part shade"],"default_image":{"image_id":8974,"license":4,"license_name":"Attribution License","license_url":"https://creativecommons.org/licenses/by/2.0/","original_url":"https://perenual.com/storage/species_image/4339_iris_cristata/og/52167927112_6596ca63ea_b.jpg","regular_url":"https://perenual.com/storage/species_image/4339_iris_cristata/regular/52167927112_6596ca63ea_b.jpg","medium_url":"https://perenual.com/storage/species_image/4339_iris_cristata/medium/52167927112_6596ca63ea_b.jpg","small_url":"https://perenual.com/storage/species_image/4339_iris_cristata/small/52167927112_6596ca63ea_b.jpg","thumbnail":"https://perenual.com/storage/species_image/4339_iris_cristata/thumbnail/52167927112_6596ca63ea_b.jpg"}},{"id":4340,"common_name":"dwarf crested iris","scientific_name":["Iris cristata 'Alba'"],"other_name":null,"cycle":"Perennial","watering":"Average","sunlight":["Full sun","part shade"],"default_image":{"image_id":9,"license":5,"license_name":"Attribution-ShareAlike License","license_url":"https://creativecommons.org/licenses/by-sa/2.0/","original_url":"https://perenual.com/storage/species_image/2_abies_alba_pyramidalis/og/49255769768_df55596553_b.jpg","regular_url":"https://perenual.com/storage/species_image/2_abies_alba_pyramidalis/regular/49255769768_df55596553_b.jpg","medium_url":"https://perenual.com/storage/species_image/2_abies_alba_pyramidalis/medium/49255769768_df55596553_b.jpg","small_url":"https://perenual.com/storage/species_image/2_abies_alba_pyramidalis/small/49255769768_df55596553_b.jpg","thumbnail":"https://perenual.com/storage/species_image/2_abies_alba_pyramidalis/thumbnail/49255769768_df55596553_b.jpg"}},{"id":4341,"common_name":"dwarf crested iris","scientific_name":["Iris cristata 'Powder Blue Giant'"],"other_name":null,"cycle":"Perennial","watering":"Average","sunlight":["Full sun","part shade"],"default_image":{"image_id":9,"license":5,"license_name":"Attribution-ShareAlike License","license_url":"https://creativecommons.org/licenses/by-sa/2.0/","original_url":"https://perenual.com/storage/species_image/2_abies_alba_pyramidalis/og/49255769768_df55596553_b.jpg","regular_url":"https://perenual.com/storage/species_image/2_abies_alba_pyramidalis/regular/49255769768_df55596553_b.jpg","medium_url":"https://perenual.com/storage/species_image/2_abies_alba_pyramidalis/medium/49255769768_df55596553_b.jpg","small_url":"https://perenual.com/storage/species_image/2_abies_alba_pyramidalis/small/49255769768_df55596553_b.jpg","thumbnail":"https://perenual.com/storage/species_image/2_abies_alba_pyramidalis/thumbnail/49255769768_df55596553_b.jpg"}},{"id":4342,"common_name":"Siberian iris","scientific_name":["Iris 'Dance Ballerina Dance'"],"other_name":null,"cycle":"Perennial","watering":"Frequent","sunlight":["Full sun","part shade"],"default_image":{"image_id":8964,"license":4,"license_name":"Attribution License","license_url":"https://creativecommons.org/licenses/by/2.0/","original_url":"https://perenual.com/storage/species_image/4353_iris_eric_the_red/og/52174660886_341698ce7c_b.jpg","regular_url":"https://perenual.com/storage/species_image/4353_iris_eric_the_red/regular/52174660886_341698ce7c_b.jpg","medium_url":"https://perenual.com/storage/species_image/4353_iris_eric_the_red/medium/52174660886_341698ce7c_b.jpg","small_url":"https://perenual.com/storage/species_image/4353_iris_eric_the_red/small/52174660886_341698ce7c_b.jpg","thumbnail":"https://perenual.com/storage/species_image/4353_iris_eric_the_red/thumbnail/52174660886_341698ce7c_b.jpg"}},{"id":4343,"common_name":"dwarf iris","scientific_name":["Iris danfordiae"],"other_name":null,"cycle":"Perennial","watering":"Average","sunlight":["Full sun","part shade"],"default_image":{"image_id":9,"license":5,"license_name":"Attribution-ShareAlike License","license_url":"https://creativecommons.org/licenses/by-sa/2.0/","original_url":"https://perenual.com/storage/species_image/2_abies_alba_pyramidalis/og/49255769768_df55596553_b.jpg","regular_url":"https://perenual.com/storage/species_image/2_abies_alba_pyramidalis/regular/49255769768_df55596553_b.jpg","medium_url":"https://perenual.com/storage/species_image/2_abies_alba_pyramidalis/medium/49255769768_df55596553_b.jpg","small_url":"https://perenual.com/storage/species_image/2_abies_alba_pyramidalis/small/49255769768_df55596553_b.jpg","thumbnail":"https://perenual.com/storage/species_image/2_abies_alba_pyramidalis/thumbnail/49255769768_df55596553_b.jpg"}},{"id":4344,"common_name":"Siberian iris","scientific_name":["Iris 'Dewful'"],"other_name":null,"cycle":"Perennial","watering":"Frequent","sunlight":["Full sun","part shade"],"default_image":null},{"id":4345,"common_name":"blackberry lily","scientific_name":["Iris domestica"],"other_name":null,"cycle":"Perennial","watering":"Average","sunlight":["Full sun"],"default_image":{"image_id":8991,"license":5,"license_name":"Attribution-ShareAlike License","license_url":"https://creativecommons.org/licenses/by-sa/2.0/","original_url":"https://perenual.com/storage/species_image/4346_iris_domestica_freckle_face/og/51450438356_e8ef64efea_b.jpg","regular_url":"https://perenual.com/storage/species_image/4346_iris_domestica_freckle_face/regular/51450438356_e8ef64efea_b.jpg","medium_url":"https://perenual.com/storage/species_image/4346_iris_domestica_freckle_face/medium/51450438356_e8ef64efea_b.jpg","small_url":"https://perenual.com/storage/species_image/4346_iris_domestica_freckle_face/small/51450438356_e8ef64efea_b.jpg","thumbnail":"https://perenual.com/storage/species_image/4346_iris_domestica_freckle_face/thumbnail/51450438356_e8ef64efea_b.jpg"}},{"id":4346,"common_name":"blackberry lily","scientific_name":["Iris domestica 'Freckle Face'"],"other_name":null,"cycle":"Perennial","watering":"Average","sunlight":["Full sun"],"default_image":{"image_id":8991,"license":5,"license_name":"Attribution-ShareAlike License","license_url":"https://creativecommons.org/licenses/by-sa/2.0/","original_url":"https://perenual.com/storage/species_image/4346_iris_domestica_freckle_face/og/51450438356_e8ef64efea_b.jpg","regular_url":"https://perenual.com/storage/species_image/4346_iris_domestica_freckle_face/regular/51450438356_e8ef64efea_b.jpg","medium_url":"https://perenual.com/storage/species_image/4346_iris_domestica_freckle_face/medium/51450438356_e8ef64efea_b.jpg","small_url":"https://perenual.com/storage/species_image/4346_iris_domestica_freckle_face/small/51450438356_e8ef64efea_b.jpg","thumbnail":"https://perenual.com/storage/species_image/4346_iris_domestica_freckle_face/thumbnail/51450438356_e8ef64efea_b.jpg"}},{"id":4352,"common_name":"Japanese water iris","scientific_name":["Iris ensata"],"other_name":null,"cycle":"Perennial","watering":"Frequent","sunlight":["Full sun","part shade"],"default_image":{"image_id":9010,"license":5,"license_name":"Attribution-ShareAlike License","license_url":"https://creativecommons.org/licenses/by-sa/2.0/","original_url":"https://perenual.com/storage/species_image/4352_iris_ensata/og/52186564051_94dca4958f_b.jpg","regular_url":"https://perenual.com/storage/species_image/4352_iris_ensata/regular/52186564051_94dca4958f_b.jpg","medium_url":"https://perenual.com/storage/species_image/4352_iris_ensata/medium/52186564051_94dca4958f_b.jpg","small_url":"https://perenual.com/storage/species_image/4352_iris_ensata/small/52186564051_94dca4958f_b.jpg","thumbnail":"https://perenual.com/storage/species_image/4352_iris_ensata/thumbnail/52186564051_94dca4958f_b.jpg"}},{"id":4353,"common_name":"Siberian iris","scientific_name":["Iris 'Eric the Red'"],"other_name":null,"cycle":"Perennial","watering":"Frequent","sunlight":["Full sun","part shade"],"default_image":{"image_id":22018,"license":3,"license_name":null,"license_url":null,"original_url":"https://perenual.com/storage/species_image/4414_iris_sparkle/og/52151218854_a7e9c66938_b.jpg","regular_url":"https://perenual.com/storage/species_image/4414_iris_sparkle/regular/52151218854_a7e9c66938_b.jpg","medium_url":"https://perenual.com/storage/species_image/4414_iris_sparkle/medium/52151218854_a7e9c66938_b.jpg","small_url":"https://perenual.com/storage/species_image/4414_iris_sparkle/small/52151218854_a7e9c66938_b.jpg","thumbnail":"https://perenual.com/storage/species_image/4414_iris_sparkle/thumbnail/52151218854_a7e9c66938_b.jpg"}},{"id":4347,"common_name":"leopard lily","scientific_name":["Iris domestica 'Hello Yellow'"],"other_name":null,"cycle":"Perennial","watering":"Average","sunlight":["Full sun"],"default_image":{"image_id":9,"license":5,"license_name":"Attribution-ShareAlike License","license_url":"https://creativecommons.org/licenses/by-sa/2.0/","original_url":"https://perenual.com/storage/species_image/2_abies_alba_pyramidalis/og/49255769768_df55596553_b.jpg","regular_url":"https://perenual.com/storage/species_image/2_abies_alba_pyramidalis/regular/49255769768_df55596553_b.jpg","medium_url":"https://perenual.com/storage/species_image/2_abies_alba_pyramidalis/medium/49255769768_df55596553_b.jpg","small_url":"https://perenual.com/storage/species_image/2_abies_alba_pyramidalis/small/49255769768_df55596553_b.jpg","thumbnail":"https://perenual.com/storage/species_image/2_abies_alba_pyramidalis/thumbnail/49255769768_df55596553_b.jpg"}},{"id":4348,"common_name":"tall bearded iris","scientific_name":["Iris 'Dutch Chocolate'"],"other_name":null,"cycle":"Perennial","watering":"Average","sunlight":["Full sun"],"default_image":{"image_id":9002,"license":5,"license_name":"Attribution-ShareAlike License","license_url":"https://creativecommons.org/licenses/by-sa/2.0/","original_url":"https://perenual.com/storage/species_image/4348_iris_dutch_chocolate/og/48014235912_a45a0b0e4d_b.jpg","regular_url":"https://perenual.com/storage/species_image/4348_iris_dutch_chocolate/regular/48014235912_a45a0b0e4d_b.jpg","medium_url":"https://perenual.com/storage/species_image/4348_iris_dutch_chocolate/medium/48014235912_a45a0b0e4d_b.jpg","small_url":"https://perenual.com/storage/species_image/4348_iris_dutch_chocolate/small/48014235912_a45a0b0e4d_b.jpg","thumbnail":"https://perenual.com/storage/species_image/4348_iris_dutch_chocolate/thumbnail/48014235912_a45a0b0e4d_b.jpg"}}],"to":4350,"per_page":30,"current_page":145,"from":4321,"last_page":200,"total":6000}