{"data":[{"id":3631,"common_name":"daylily","scientific_name":["Hemerocallis 'Warrior Prince'"],"other_name":null,"cycle":"Perennial","watering":"Average","sunlight":["Full sun","part shade"],"default_image":{"image_id":9,"license":5,"license_name":"Attribution-ShareAlike License","license_url":"https://creativecommons.org/licenses/by-sa/2.0/","original_url":"https://perenual.com/storage/species_image/2_abies_alba_pyramidalis/og/49255769768_df55596553_b.jpg","regular_url":"https://perenual.com/storage/species_image/2_abies_alba_pyramidalis/regular/49255769768_df55596553_b.jpg","medium_url":"https://perenual.com/storage/species_image/2_abies_alba_pyramidalis/medium/49255769768_df55596553_b.jpg","small_url":"https://perenual.com/storage/species_image/2_abies_alba_pyramidalis/small/49255769768_df55596553_b.jpg","thumbnail":"https://perenual.com/storage/species_image/2_abies_alba_pyramidalis/thumbnail/49255769768_df55596553_b.jpg"}},{"id":3632,"common_name":"daylily","scientific_name":["Hemerocallis 'Wayside Green Imp'"],"other_name":null,"cycle":"Perennial","watering":"Average","sunlight":["Full sun","part shade"],"default_image":{"image_id":22004,"license":2,"license_name":null,"license_url":null,"original_url":"https://perenual.com/storage/species_image/3635_hemerocallis_zuni_thunderbird/og/52582474823_f80a05c7ff_b.jpg","regular_url":"https://perenual.com/storage/species_image/3635_hemerocallis_zuni_thunderbird/regular/52582474823_f80a05c7ff_b.jpg","medium_url":"https://perenual.com/storage/species_image/3635_hemerocallis_zuni_thunderbird/medium/52582474823_f80a05c7ff_b.jpg","small_url":"https://perenual.com/storage/species_image/3635_hemerocallis_zuni_thunderbird/small/52582474823_f80a05c7ff_b.jpg","thumbnail":"https://perenual.com/storage/species_image/3635_hemerocallis_zuni_thunderbird/thumbnail/52582474823_f80a05c7ff_b.jpg"}},{"id":3633,"common_name":"daylily","scientific_name":["Hemerocallis 'Wayside King Royale'"],"other_name":null,"cycle":"Perennial","watering":"Average","sunlight":["Full sun","part shade"],"default_image":{"image_id":22002,"license":2,"license_name":null,"license_url":null,"original_url":"https://perenual.com/storage/species_image/3633_hemerocallis_wayside_king_royale/og/52582221879_4c541c62b5_b.jpg","regular_url":"https://perenual.com/storage/species_image/3633_hemerocallis_wayside_king_royale/regular/52582221879_4c541c62b5_b.jpg","medium_url":"https://perenual.com/storage/species_image/3633_hemerocallis_wayside_king_royale/medium/52582221879_4c541c62b5_b.jpg","small_url":"https://perenual.com/storage/species_image/3633_hemerocallis_wayside_king_royale/small/52582221879_4c541c62b5_b.jpg","thumbnail":"https://perenual.com/storage/species_image/3633_hemerocallis_wayside_king_royale/thumbnail/52582221879_4c541c62b5_b.jpg"}},{"id":3634,"common_name":"daylily","scientific_name":["Hemerocallis 'Zada Mae'"],"other_name":null,"cycle":"Perennial","watering":"Average","sunlight":["Full sun","part shade"],"default_image":{"image_id":22005,"license":2,"license_name":null,"license_url":null,"original_url":"https://perenual.com/storage/species_image/3634_hemerocallis_zada_mae/og/52389510911_c9bb22c165_b.jpg","regular_url":"https://perenual.com/storage/species_image/3634_hemerocallis_zada_mae/regular/52389510911_c9bb22c165_b.jpg","medium_url":"https://perenual.com/storage/species_image/3634_hemerocallis_zada_mae/medium/52389510911_c9bb22c165_b.jpg","small_url":"https://perenual.com/storage/species_image/3634_hemerocallis_zada_mae/small/52389510911_c9bb22c165_b.jpg","thumbnail":"https://perenual.com/storage/species_image/3634_hemerocallis_zada_mae/thumbnail/52389510911_c9bb22c165_b.jpg"}},{"id":3635,"common_name":"daylily","scientific_name":["Hemerocallis 'Zuni Thunderbird'"],"other_name":null,"cycle":"Perennial","watering":"Average","sunlight":["Full sun","part shade"],"default_image":{"image_id":22004,"license":2,"license_name":null,"license_url":null,"original_url":"https://perenual.com/storage/species_image/3635_hemerocallis_zuni_thunderbird/og/52582474823_f80a05c7ff_b.jpg","regular_url":"https://perenual.com/storage/species_image/3635_hemerocallis_zuni_thunderbird/regular/52582474823_f80a05c7ff_b.jpg","medium_url":"https://perenual.com/storage/species_image/3635_hemerocallis_zuni_thunderbird/medium/52582474823_f80a05c7ff_b.jpg","small_url":"https://perenual.com/storage/species_image/3635_hemerocallis_zuni_thunderbird/small/52582474823_f80a05c7ff_b.jpg","thumbnail":"https://perenual.com/storage/species_image/3635_hemerocallis_zuni_thunderbird/thumbnail/52582474823_f80a05c7ff_b.jpg"}},{"id":3636,"common_name":"false sinningia","scientific_name":["Hemiboea subcapitata"],"other_name":null,"cycle":"Perennial","watering":"Average","sunlight":["Part shade","full shade"],"default_image":{"image_id":7484,"license":5,"license_name":"Attribution-ShareAlike License","license_url":"https://creativecommons.org/licenses/by-sa/2.0/","original_url":"https://perenual.com/storage/species_image/3636_hemiboea_subcapitata/og/29991896805_92175cddbb_b.jpg","regular_url":"https://perenual.com/storage/species_image/3636_hemiboea_subcapitata/regular/29991896805_92175cddbb_b.jpg","medium_url":"https://perenual.com/storage/species_image/3636_hemiboea_subcapitata/medium/29991896805_92175cddbb_b.jpg","small_url":"https://perenual.com/storage/species_image/3636_hemiboea_subcapitata/small/29991896805_92175cddbb_b.jpg","thumbnail":"https://perenual.com/storage/species_image/3636_hemiboea_subcapitata/thumbnail/29991896805_92175cddbb_b.jpg"}},{"id":3637,"common_name":"red ivy","scientific_name":["Hemigraphis alternata"],"other_name":null,"cycle":"Perennial","watering":"Average","sunlight":["Full sun","part shade"],"default_image":{"image_id":7491,"license":4,"license_name":"Attribution License","license_url":"https://creativecommons.org/licenses/by/2.0/","original_url":"https://perenual.com/storage/species_image/3637_hemigraphis_alternata/og/9800422636_9eb92da628_b.jpg","regular_url":"https://perenual.com/storage/species_image/3637_hemigraphis_alternata/regular/9800422636_9eb92da628_b.jpg","medium_url":"https://perenual.com/storage/species_image/3637_hemigraphis_alternata/medium/9800422636_9eb92da628_b.jpg","small_url":"https://perenual.com/storage/species_image/3637_hemigraphis_alternata/small/9800422636_9eb92da628_b.jpg","thumbnail":"https://perenual.com/storage/species_image/3637_hemigraphis_alternata/thumbnail/9800422636_9eb92da628_b.jpg"}},{"id":3638,"common_name":"hemigraphis","scientific_name":["Hemigraphis 'Exotica'"],"other_name":null,"cycle":"Perennial","watering":"Average","sunlight":["Full sun","part shade"],"default_image":{"image_id":9,"license":5,"license_name":"Attribution-ShareAlike License","license_url":"https://creativecommons.org/licenses/by-sa/2.0/","original_url":"https://perenual.com/storage/species_image/2_abies_alba_pyramidalis/og/49255769768_df55596553_b.jpg","regular_url":"https://perenual.com/storage/species_image/2_abies_alba_pyramidalis/regular/49255769768_df55596553_b.jpg","medium_url":"https://perenual.com/storage/species_image/2_abies_alba_pyramidalis/medium/49255769768_df55596553_b.jpg","small_url":"https://perenual.com/storage/species_image/2_abies_alba_pyramidalis/small/49255769768_df55596553_b.jpg","thumbnail":"https://perenual.com/storage/species_image/2_abies_alba_pyramidalis/thumbnail/49255769768_df55596553_b.jpg"}},{"id":3639,"common_name":"hepatica","scientific_name":["Hepatica transsilvanica"],"other_name":null,"cycle":"Perennial","watering":"Average","sunlight":["Part shade"],"default_image":{"image_id":7494,"license":5,"license_name":"Attribution-ShareAlike License","license_url":"https://creativecommons.org/licenses/by-sa/2.0/","original_url":"https://perenual.com/storage/species_image/3639_hepatica_transsilvanica/og/13362830603_6e111ec763_b.jpg","regular_url":"https://perenual.com/storage/species_image/3639_hepatica_transsilvanica/regular/13362830603_6e111ec763_b.jpg","medium_url":"https://perenual.com/storage/species_image/3639_hepatica_transsilvanica/medium/13362830603_6e111ec763_b.jpg","small_url":"https://perenual.com/storage/species_image/3639_hepatica_transsilvanica/small/13362830603_6e111ec763_b.jpg","thumbnail":"https://perenual.com/storage/species_image/3639_hepatica_transsilvanica/thumbnail/13362830603_6e111ec763_b.jpg"}},{"id":3640,"common_name":"seven-son flower","scientific_name":["Heptacodium miconioides"],"other_name":null,"cycle":"Perennial","watering":"Average","sunlight":["Full sun"],"default_image":{"image_id":9,"license":5,"license_name":"Attribution-ShareAlike License","license_url":"https://creativecommons.org/licenses/by-sa/2.0/","original_url":"https://perenual.com/storage/species_image/2_abies_alba_pyramidalis/og/49255769768_df55596553_b.jpg","regular_url":"https://perenual.com/storage/species_image/2_abies_alba_pyramidalis/regular/49255769768_df55596553_b.jpg","medium_url":"https://perenual.com/storage/species_image/2_abies_alba_pyramidalis/medium/49255769768_df55596553_b.jpg","small_url":"https://perenual.com/storage/species_image/2_abies_alba_pyramidalis/small/49255769768_df55596553_b.jpg","thumbnail":"https://perenual.com/storage/species_image/2_abies_alba_pyramidalis/thumbnail/49255769768_df55596553_b.jpg"}},{"id":3641,"common_name":"seven-son flower","scientific_name":["Heptacodium miconioides 'SMNHMRF' TEMPLE OF BLOOM"],"other_name":null,"cycle":"Perennial","watering":"Average","sunlight":["Full sun"],"default_image":{"image_id":9,"license":5,"license_name":"Attribution-ShareAlike License","license_url":"https://creativecommons.org/licenses/by-sa/2.0/","original_url":"https://perenual.com/storage/species_image/2_abies_alba_pyramidalis/og/49255769768_df55596553_b.jpg","regular_url":"https://perenual.com/storage/species_image/2_abies_alba_pyramidalis/regular/49255769768_df55596553_b.jpg","medium_url":"https://perenual.com/storage/species_image/2_abies_alba_pyramidalis/medium/49255769768_df55596553_b.jpg","small_url":"https://perenual.com/storage/species_image/2_abies_alba_pyramidalis/small/49255769768_df55596553_b.jpg","thumbnail":"https://perenual.com/storage/species_image/2_abies_alba_pyramidalis/thumbnail/49255769768_df55596553_b.jpg"}},{"id":3642,"common_name":"giant hogweed","scientific_name":["Heracleum mantegazzianum"],"other_name":null,"cycle":"Perennial","watering":"Average","sunlight":["Full sun","part shade"],"default_image":{"image_id":7501,"license":4,"license_name":"Attribution License","license_url":"https://creativecommons.org/licenses/by/2.0/","original_url":"https://perenual.com/storage/species_image/3642_heracleum_mantegazzianum/og/52179187220_cfe77a0ee9_b.jpg","regular_url":"https://perenual.com/storage/species_image/3642_heracleum_mantegazzianum/regular/52179187220_cfe77a0ee9_b.jpg","medium_url":"https://perenual.com/storage/species_image/3642_heracleum_mantegazzianum/medium/52179187220_cfe77a0ee9_b.jpg","small_url":"https://perenual.com/storage/species_image/3642_heracleum_mantegazzianum/small/52179187220_cfe77a0ee9_b.jpg","thumbnail":"https://perenual.com/storage/species_image/3642_heracleum_mantegazzianum/thumbnail/52179187220_cfe77a0ee9_b.jpg"}},{"id":3643,"common_name":"rupture-wort","scientific_name":["Herniaria hirsuta"],"other_name":null,"cycle":"Perennial","watering":"Average","sunlight":["Full sun"],"default_image":{"image_id":7503,"license":5,"license_name":"Attribution-ShareAlike License","license_url":"https://creativecommons.org/licenses/by-sa/2.0/","original_url":"https://perenual.com/storage/species_image/3643_herniaria_hirsuta/og/40999528890_a4b17fe60d_b.jpg","regular_url":"https://perenual.com/storage/species_image/3643_herniaria_hirsuta/regular/40999528890_a4b17fe60d_b.jpg","medium_url":"https://perenual.com/storage/species_image/3643_herniaria_hirsuta/medium/40999528890_a4b17fe60d_b.jpg","small_url":"https://perenual.com/storage/species_image/3643_herniaria_hirsuta/small/40999528890_a4b17fe60d_b.jpg","thumbnail":"https://perenual.com/storage/species_image/3643_herniaria_hirsuta/thumbnail/40999528890_a4b17fe60d_b.jpg"}},{"id":3644,"common_name":"redflower false yucca","scientific_name":["Hesperaloe parviflora"],"other_name":null,"cycle":"Perennial","watering":"Minimum","sunlight":["Full sun"],"default_image":{"image_id":9,"license":5,"license_name":"Attribution-ShareAlike License","license_url":"https://creativecommons.org/licenses/by-sa/2.0/","original_url":"https://perenual.com/storage/species_image/2_abies_alba_pyramidalis/og/49255769768_df55596553_b.jpg","regular_url":"https://perenual.com/storage/species_image/2_abies_alba_pyramidalis/regular/49255769768_df55596553_b.jpg","medium_url":"https://perenual.com/storage/species_image/2_abies_alba_pyramidalis/medium/49255769768_df55596553_b.jpg","small_url":"https://perenual.com/storage/species_image/2_abies_alba_pyramidalis/small/49255769768_df55596553_b.jpg","thumbnail":"https://perenual.com/storage/species_image/2_abies_alba_pyramidalis/thumbnail/49255769768_df55596553_b.jpg"}},{"id":3645,"common_name":"redflower false yucca","scientific_name":["Hesperaloe parviflora 'Coral Glow'"],"other_name":null,"cycle":"Perennial","watering":"Minimum","sunlight":["Full sun"],"default_image":{"image_id":9,"license":5,"license_name":"Attribution-ShareAlike License","license_url":"https://creativecommons.org/licenses/by-sa/2.0/","original_url":"https://perenual.com/storage/species_image/2_abies_alba_pyramidalis/og/49255769768_df55596553_b.jpg","regular_url":"https://perenual.com/storage/species_image/2_abies_alba_pyramidalis/regular/49255769768_df55596553_b.jpg","medium_url":"https://perenual.com/storage/species_image/2_abies_alba_pyramidalis/medium/49255769768_df55596553_b.jpg","small_url":"https://perenual.com/storage/species_image/2_abies_alba_pyramidalis/small/49255769768_df55596553_b.jpg","thumbnail":"https://perenual.com/storage/species_image/2_abies_alba_pyramidalis/thumbnail/49255769768_df55596553_b.jpg"}},{"id":3646,"common_name":"false yucca","scientific_name":["Hesperaloe parviflora (yellow form)"],"other_name":null,"cycle":"Perennial","watering":"Minimum","sunlight":["Full sun"],"default_image":{"image_id":9,"license":5,"license_name":"Attribution-ShareAlike License","license_url":"https://creativecommons.org/licenses/by-sa/2.0/","original_url":"https://perenual.com/storage/species_image/2_abies_alba_pyramidalis/og/49255769768_df55596553_b.jpg","regular_url":"https://perenual.com/storage/species_image/2_abies_alba_pyramidalis/regular/49255769768_df55596553_b.jpg","medium_url":"https://perenual.com/storage/species_image/2_abies_alba_pyramidalis/medium/49255769768_df55596553_b.jpg","small_url":"https://perenual.com/storage/species_image/2_abies_alba_pyramidalis/small/49255769768_df55596553_b.jpg","thumbnail":"https://perenual.com/storage/species_image/2_abies_alba_pyramidalis/thumbnail/49255769768_df55596553_b.jpg"}},{"id":3647,"common_name":"dame's rocket","scientific_name":["Hesperis matronalis"],"other_name":null,"cycle":"Perennial","watering":"Average","sunlight":["Full sun","part shade"],"default_image":{"image_id":7511,"license":5,"license_name":"Attribution-ShareAlike License","license_url":"https://creativecommons.org/licenses/by-sa/2.0/","original_url":"https://perenual.com/storage/species_image/3647_hesperis_matronalis/og/52216328925_728373ac0d_b.jpg","regular_url":"https://perenual.com/storage/species_image/3647_hesperis_matronalis/regular/52216328925_728373ac0d_b.jpg","medium_url":"https://perenual.com/storage/species_image/3647_hesperis_matronalis/medium/52216328925_728373ac0d_b.jpg","small_url":"https://perenual.com/storage/species_image/3647_hesperis_matronalis/small/52216328925_728373ac0d_b.jpg","thumbnail":"https://perenual.com/storage/species_image/3647_hesperis_matronalis/thumbnail/52216328925_728373ac0d_b.jpg"}},{"id":3648,"common_name":"golden aster","scientific_name":["Heterotheca camporum"],"other_name":null,"cycle":"Perennial","watering":"Minimum","sunlight":["Full sun"],"default_image":{"image_id":9,"license":5,"license_name":"Attribution-ShareAlike License","license_url":"https://creativecommons.org/licenses/by-sa/2.0/","original_url":"https://perenual.com/storage/species_image/2_abies_alba_pyramidalis/og/49255769768_df55596553_b.jpg","regular_url":"https://perenual.com/storage/species_image/2_abies_alba_pyramidalis/regular/49255769768_df55596553_b.jpg","medium_url":"https://perenual.com/storage/species_image/2_abies_alba_pyramidalis/medium/49255769768_df55596553_b.jpg","small_url":"https://perenual.com/storage/species_image/2_abies_alba_pyramidalis/small/49255769768_df55596553_b.jpg","thumbnail":"https://perenual.com/storage/species_image/2_abies_alba_pyramidalis/thumbnail/49255769768_df55596553_b.jpg"}},{"id":3649,"common_name":"coral bells","scientific_name":["Heuchera 'Amber Waves'"],"other_name":null,"cycle":"Perennial","watering":"Average","sunlight":["Full sun","part shade"],"default_image":{"image_id":7514,"license":5,"license_name":"Attribution-ShareAlike License","license_url":"https://creativecommons.org/licenses/by-sa/2.0/","original_url":"https://perenual.com/storage/species_image/3665_heuchera_caramel/og/7258882242_7ae0b4f0cd_b.jpg","regular_url":"https://perenual.com/storage/species_image/3665_heuchera_caramel/regular/7258882242_7ae0b4f0cd_b.jpg","medium_url":"https://perenual.com/storage/species_image/3665_heuchera_caramel/medium/7258882242_7ae0b4f0cd_b.jpg","small_url":"https://perenual.com/storage/species_image/3665_heuchera_caramel/small/7258882242_7ae0b4f0cd_b.jpg","thumbnail":"https://perenual.com/storage/species_image/3665_heuchera_caramel/thumbnail/7258882242_7ae0b4f0cd_b.jpg"}},{"id":3650,"common_name":"coral bells","scientific_name":["Heuchera americana"],"other_name":null,"cycle":"Perennial","watering":"Average","sunlight":["Full sun","part shade"],"default_image":{"image_id":9,"license":5,"license_name":"Attribution-ShareAlike License","license_url":"https://creativecommons.org/licenses/by-sa/2.0/","original_url":"https://perenual.com/storage/species_image/2_abies_alba_pyramidalis/og/49255769768_df55596553_b.jpg","regular_url":"https://perenual.com/storage/species_image/2_abies_alba_pyramidalis/regular/49255769768_df55596553_b.jpg","medium_url":"https://perenual.com/storage/species_image/2_abies_alba_pyramidalis/medium/49255769768_df55596553_b.jpg","small_url":"https://perenual.com/storage/species_image/2_abies_alba_pyramidalis/small/49255769768_df55596553_b.jpg","thumbnail":"https://perenual.com/storage/species_image/2_abies_alba_pyramidalis/thumbnail/49255769768_df55596553_b.jpg"}},{"id":3651,"common_name":"coral bells","scientific_name":["Heuchera americana 'Bartram'"],"other_name":null,"cycle":"Perennial","watering":"Average","sunlight":["Full sun","part shade"],"default_image":{"image_id":7517,"license":5,"license_name":"Attribution-ShareAlike License","license_url":"https://creativecommons.org/licenses/by-sa/2.0/","original_url":"https://perenual.com/storage/species_image/8610_heuchera_cvs/og/52334638749_a5f46e7540_b.jpg","regular_url":"https://perenual.com/storage/species_image/8610_heuchera_cvs/regular/52334638749_a5f46e7540_b.jpg","medium_url":"https://perenual.com/storage/species_image/8610_heuchera_cvs/medium/52334638749_a5f46e7540_b.jpg","small_url":"https://perenual.com/storage/species_image/8610_heuchera_cvs/small/52334638749_a5f46e7540_b.jpg","thumbnail":"https://perenual.com/storage/species_image/8610_heuchera_cvs/thumbnail/52334638749_a5f46e7540_b.jpg"}},{"id":3652,"common_name":"coral bells","scientific_name":["Heuchera americana (Dale's Strain)"],"other_name":null,"cycle":"Perennial","watering":"Average","sunlight":["Full sun","part shade"],"default_image":{"image_id":7518,"license":4,"license_name":"Attribution License","license_url":"https://creativecommons.org/licenses/by/2.0/","original_url":"https://perenual.com/storage/species_image/3652_heuchera_americana_dales_strain/og/21482751604_ff573c4ae4_b.jpg","regular_url":"https://perenual.com/storage/species_image/3652_heuchera_americana_dales_strain/regular/21482751604_ff573c4ae4_b.jpg","medium_url":"https://perenual.com/storage/species_image/3652_heuchera_americana_dales_strain/medium/21482751604_ff573c4ae4_b.jpg","small_url":"https://perenual.com/storage/species_image/3652_heuchera_americana_dales_strain/small/21482751604_ff573c4ae4_b.jpg","thumbnail":"https://perenual.com/storage/species_image/3652_heuchera_americana_dales_strain/thumbnail/21482751604_ff573c4ae4_b.jpg"}},{"id":3653,"common_name":"coral bells","scientific_name":["Heuchera americana 'Ring of Fire'"],"other_name":null,"cycle":"Perennial","watering":"Average","sunlight":["Full sun","part shade"],"default_image":{"image_id":7520,"license":5,"license_name":"Attribution-ShareAlike License","license_url":"https://creativecommons.org/licenses/by-sa/2.0/","original_url":"https://perenual.com/storage/species_image/3653_heuchera_americana_ring_of_fire/og/5854272488_fdcb1e65f8_b.jpg","regular_url":"https://perenual.com/storage/species_image/3653_heuchera_americana_ring_of_fire/regular/5854272488_fdcb1e65f8_b.jpg","medium_url":"https://perenual.com/storage/species_image/3653_heuchera_americana_ring_of_fire/medium/5854272488_fdcb1e65f8_b.jpg","small_url":"https://perenual.com/storage/species_image/3653_heuchera_americana_ring_of_fire/small/5854272488_fdcb1e65f8_b.jpg","thumbnail":"https://perenual.com/storage/species_image/3653_heuchera_americana_ring_of_fire/thumbnail/5854272488_fdcb1e65f8_b.jpg"}},{"id":3654,"common_name":"coral bells","scientific_name":["Heuchera 'Amethyst Myst'"],"other_name":null,"cycle":"Perennial","watering":"Average","sunlight":["Full sun","part shade"],"default_image":{"image_id":7521,"license":5,"license_name":"Attribution-ShareAlike License","license_url":"https://creativecommons.org/licenses/by-sa/2.0/","original_url":"https://perenual.com/storage/species_image/3752_heuchera_vesuvius/og/52334767830_64b85b2d5e_b.jpg","regular_url":"https://perenual.com/storage/species_image/3752_heuchera_vesuvius/regular/52334767830_64b85b2d5e_b.jpg","medium_url":"https://perenual.com/storage/species_image/3752_heuchera_vesuvius/medium/52334767830_64b85b2d5e_b.jpg","small_url":"https://perenual.com/storage/species_image/3752_heuchera_vesuvius/small/52334767830_64b85b2d5e_b.jpg","thumbnail":"https://perenual.com/storage/species_image/3752_heuchera_vesuvius/thumbnail/52334767830_64b85b2d5e_b.jpg"}},{"id":3655,"common_name":"coral bells","scientific_name":["Heuchera 'Bella Notte'"],"other_name":null,"cycle":"Perennial","watering":"Average","sunlight":["Full sun","part shade"],"default_image":{"image_id":9,"license":5,"license_name":"Attribution-ShareAlike License","license_url":"https://creativecommons.org/licenses/by-sa/2.0/","original_url":"https://perenual.com/storage/species_image/2_abies_alba_pyramidalis/og/49255769768_df55596553_b.jpg","regular_url":"https://perenual.com/storage/species_image/2_abies_alba_pyramidalis/regular/49255769768_df55596553_b.jpg","medium_url":"https://perenual.com/storage/species_image/2_abies_alba_pyramidalis/medium/49255769768_df55596553_b.jpg","small_url":"https://perenual.com/storage/species_image/2_abies_alba_pyramidalis/small/49255769768_df55596553_b.jpg","thumbnail":"https://perenual.com/storage/species_image/2_abies_alba_pyramidalis/thumbnail/49255769768_df55596553_b.jpg"}},{"id":3656,"common_name":"coral bells","scientific_name":["Heuchera 'Berry Smoothie'"],"other_name":null,"cycle":"Perennial","watering":"Average","sunlight":["Full sun","part shade"],"default_image":{"image_id":9,"license":5,"license_name":"Attribution-ShareAlike License","license_url":"https://creativecommons.org/licenses/by-sa/2.0/","original_url":"https://perenual.com/storage/species_image/2_abies_alba_pyramidalis/og/49255769768_df55596553_b.jpg","regular_url":"https://perenual.com/storage/species_image/2_abies_alba_pyramidalis/regular/49255769768_df55596553_b.jpg","medium_url":"https://perenual.com/storage/species_image/2_abies_alba_pyramidalis/medium/49255769768_df55596553_b.jpg","small_url":"https://perenual.com/storage/species_image/2_abies_alba_pyramidalis/small/49255769768_df55596553_b.jpg","thumbnail":"https://perenual.com/storage/species_image/2_abies_alba_pyramidalis/thumbnail/49255769768_df55596553_b.jpg"}},{"id":3657,"common_name":"coral bells","scientific_name":["Heuchera 'Black Beauty'"],"other_name":null,"cycle":"Perennial","watering":"Average","sunlight":["Full sun","part shade"],"default_image":{"image_id":9,"license":5,"license_name":"Attribution-ShareAlike License","license_url":"https://creativecommons.org/licenses/by-sa/2.0/","original_url":"https://perenual.com/storage/species_image/2_abies_alba_pyramidalis/og/49255769768_df55596553_b.jpg","regular_url":"https://perenual.com/storage/species_image/2_abies_alba_pyramidalis/regular/49255769768_df55596553_b.jpg","medium_url":"https://perenual.com/storage/species_image/2_abies_alba_pyramidalis/medium/49255769768_df55596553_b.jpg","small_url":"https://perenual.com/storage/species_image/2_abies_alba_pyramidalis/small/49255769768_df55596553_b.jpg","thumbnail":"https://perenual.com/storage/species_image/2_abies_alba_pyramidalis/thumbnail/49255769768_df55596553_b.jpg"}},{"id":3658,"common_name":"coral bells","scientific_name":["Heuchera 'Black Forest Cake'"],"other_name":null,"cycle":"Perennial","watering":"Average","sunlight":["Full sun","part shade"],"default_image":{"image_id":7528,"license":5,"license_name":"Attribution-ShareAlike License","license_url":"https://creativecommons.org/licenses/by-sa/2.0/","original_url":"https://perenual.com/storage/species_image/3658_heuchera_black_forest_cake/og/52334640009_e1900181ee_b.jpg","regular_url":"https://perenual.com/storage/species_image/3658_heuchera_black_forest_cake/regular/52334640009_e1900181ee_b.jpg","medium_url":"https://perenual.com/storage/species_image/3658_heuchera_black_forest_cake/medium/52334640009_e1900181ee_b.jpg","small_url":"https://perenual.com/storage/species_image/3658_heuchera_black_forest_cake/small/52334640009_e1900181ee_b.jpg","thumbnail":"https://perenual.com/storage/species_image/3658_heuchera_black_forest_cake/thumbnail/52334640009_e1900181ee_b.jpg"}},{"id":3659,"common_name":"coral bells","scientific_name":["Heuchera 'Blackberry Ice' DOLCE BLACKBERRY ICE"],"other_name":null,"cycle":"Perennial","watering":"Average","sunlight":["Full sun","part shade"],"default_image":{"image_id":7529,"license":5,"license_name":"Attribution-ShareAlike License","license_url":"https://creativecommons.org/licenses/by-sa/2.0/","original_url":"https://perenual.com/storage/species_image/3706_heuchera_mt_st_helens/og/52334638154_44fc86b726_b.jpg","regular_url":"https://perenual.com/storage/species_image/3706_heuchera_mt_st_helens/regular/52334638154_44fc86b726_b.jpg","medium_url":"https://perenual.com/storage/species_image/3706_heuchera_mt_st_helens/medium/52334638154_44fc86b726_b.jpg","small_url":"https://perenual.com/storage/species_image/3706_heuchera_mt_st_helens/small/52334638154_44fc86b726_b.jpg","thumbnail":"https://perenual.com/storage/species_image/3706_heuchera_mt_st_helens/thumbnail/52334638154_44fc86b726_b.jpg"}},{"id":3660,"common_name":"coral bells","scientific_name":["Heuchera 'Blackout'"],"other_name":null,"cycle":"Perennial","watering":"Average","sunlight":["Full sun","part shade"],"default_image":{"image_id":7531,"license":5,"license_name":"Attribution-ShareAlike License","license_url":"https://creativecommons.org/licenses/by-sa/2.0/","original_url":"https://perenual.com/storage/species_image/3660_heuchera_blackout/og/51339909320_1f612dc6b9_b.jpg","regular_url":"https://perenual.com/storage/species_image/3660_heuchera_blackout/regular/51339909320_1f612dc6b9_b.jpg","medium_url":"https://perenual.com/storage/species_image/3660_heuchera_blackout/medium/51339909320_1f612dc6b9_b.jpg","small_url":"https://perenual.com/storage/species_image/3660_heuchera_blackout/small/51339909320_1f612dc6b9_b.jpg","thumbnail":"https://perenual.com/storage/species_image/3660_heuchera_blackout/thumbnail/51339909320_1f612dc6b9_b.jpg"}}],"to":3660,"per_page":30,"current_page":122,"from":3631,"last_page":200,"total":6000}