{"data":[{"id":4891,"common_name":"orienpet lily","scientific_name":["Lilium 'Scheherazade'"],"other_name":null,"cycle":"Perennial","watering":"Average","sunlight":["Full sun","part shade"],"default_image":{"image_id":10316,"license":4,"license_name":"Attribution License","license_url":"https://creativecommons.org/licenses/by/2.0/","original_url":"https://perenual.com/storage/species_image/4891_lilium_scheherazade/og/43547478384_cdd097a0fc_b.jpg","regular_url":"https://perenual.com/storage/species_image/4891_lilium_scheherazade/regular/43547478384_cdd097a0fc_b.jpg","medium_url":"https://perenual.com/storage/species_image/4891_lilium_scheherazade/medium/43547478384_cdd097a0fc_b.jpg","small_url":"https://perenual.com/storage/species_image/4891_lilium_scheherazade/small/43547478384_cdd097a0fc_b.jpg","thumbnail":"https://perenual.com/storage/species_image/4891_lilium_scheherazade/thumbnail/43547478384_cdd097a0fc_b.jpg"}},{"id":4892,"common_name":"lily","scientific_name":["Lilium 'Silk Road'"],"other_name":null,"cycle":"Perennial","watering":"Average","sunlight":["Full sun","part shade"],"default_image":{"image_id":9,"license":5,"license_name":"Attribution-ShareAlike License","license_url":"https://creativecommons.org/licenses/by-sa/2.0/","original_url":"https://perenual.com/storage/species_image/2_abies_alba_pyramidalis/og/49255769768_df55596553_b.jpg","regular_url":"https://perenual.com/storage/species_image/2_abies_alba_pyramidalis/regular/49255769768_df55596553_b.jpg","medium_url":"https://perenual.com/storage/species_image/2_abies_alba_pyramidalis/medium/49255769768_df55596553_b.jpg","small_url":"https://perenual.com/storage/species_image/2_abies_alba_pyramidalis/small/49255769768_df55596553_b.jpg","thumbnail":"https://perenual.com/storage/species_image/2_abies_alba_pyramidalis/thumbnail/49255769768_df55596553_b.jpg"}},{"id":4893,"common_name":"Asiatic lily","scientific_name":["Lilium 'Sterling Star'"],"other_name":null,"cycle":"Perennial","watering":"Average","sunlight":["Full sun","part shade"],"default_image":{"image_id":9,"license":5,"license_name":"Attribution-ShareAlike License","license_url":"https://creativecommons.org/licenses/by-sa/2.0/","original_url":"https://perenual.com/storage/species_image/2_abies_alba_pyramidalis/og/49255769768_df55596553_b.jpg","regular_url":"https://perenual.com/storage/species_image/2_abies_alba_pyramidalis/regular/49255769768_df55596553_b.jpg","medium_url":"https://perenual.com/storage/species_image/2_abies_alba_pyramidalis/medium/49255769768_df55596553_b.jpg","small_url":"https://perenual.com/storage/species_image/2_abies_alba_pyramidalis/small/49255769768_df55596553_b.jpg","thumbnail":"https://perenual.com/storage/species_image/2_abies_alba_pyramidalis/thumbnail/49255769768_df55596553_b.jpg"}},{"id":4894,"common_name":"oriental lily","scientific_name":["Lilium 'Sunny Bonaire'"],"other_name":null,"cycle":"Perennial","watering":"Average","sunlight":["Full sun","part shade"],"default_image":{"image_id":22043,"license":2,"license_name":null,"license_url":null,"original_url":"https://perenual.com/storage/species_image/4894_lilium_sunny_bonaire/og/52287812572_ea80a349a2_b.jpg","regular_url":"https://perenual.com/storage/species_image/4894_lilium_sunny_bonaire/regular/52287812572_ea80a349a2_b.jpg","medium_url":"https://perenual.com/storage/species_image/4894_lilium_sunny_bonaire/medium/52287812572_ea80a349a2_b.jpg","small_url":"https://perenual.com/storage/species_image/4894_lilium_sunny_bonaire/small/52287812572_ea80a349a2_b.jpg","thumbnail":"https://perenual.com/storage/species_image/4894_lilium_sunny_bonaire/thumbnail/52287812572_ea80a349a2_b.jpg"}},{"id":4895,"common_name":"lily","scientific_name":["Lilium 'Sunset'"],"other_name":null,"cycle":"Perennial","watering":"Average","sunlight":["Full sun","part shade"],"default_image":{"image_id":10327,"license":5,"license_name":"Attribution-ShareAlike License","license_url":"https://creativecommons.org/licenses/by-sa/2.0/","original_url":"https://perenual.com/storage/species_image/4895_lilium_sunset/og/51269087210_cb944a2a24_b.jpg","regular_url":"https://perenual.com/storage/species_image/4895_lilium_sunset/regular/51269087210_cb944a2a24_b.jpg","medium_url":"https://perenual.com/storage/species_image/4895_lilium_sunset/medium/51269087210_cb944a2a24_b.jpg","small_url":"https://perenual.com/storage/species_image/4895_lilium_sunset/small/51269087210_cb944a2a24_b.jpg","thumbnail":"https://perenual.com/storage/species_image/4895_lilium_sunset/thumbnail/51269087210_cb944a2a24_b.jpg"}},{"id":4896,"common_name":"Turkscap lily","scientific_name":["Lilium superbum"],"other_name":null,"cycle":"Perennial","watering":"Frequent","sunlight":["Full sun","part shade"],"default_image":{"image_id":10334,"license":4,"license_name":"Attribution License","license_url":"https://creativecommons.org/licenses/by/2.0/","original_url":"https://perenual.com/storage/species_image/4896_lilium_superbum/og/51418251462_146596f188_b.jpg","regular_url":"https://perenual.com/storage/species_image/4896_lilium_superbum/regular/51418251462_146596f188_b.jpg","medium_url":"https://perenual.com/storage/species_image/4896_lilium_superbum/medium/51418251462_146596f188_b.jpg","small_url":"https://perenual.com/storage/species_image/4896_lilium_superbum/small/51418251462_146596f188_b.jpg","thumbnail":"https://perenual.com/storage/species_image/4896_lilium_superbum/thumbnail/51418251462_146596f188_b.jpg"}},{"id":4897,"common_name":"trumpet lily","scientific_name":["Lilium 'Thunderbolt'"],"other_name":null,"cycle":"Perennial","watering":"Average","sunlight":["Full sun","part shade"],"default_image":{"image_id":9,"license":5,"license_name":"Attribution-ShareAlike License","license_url":"https://creativecommons.org/licenses/by-sa/2.0/","original_url":"https://perenual.com/storage/species_image/2_abies_alba_pyramidalis/og/49255769768_df55596553_b.jpg","regular_url":"https://perenual.com/storage/species_image/2_abies_alba_pyramidalis/regular/49255769768_df55596553_b.jpg","medium_url":"https://perenual.com/storage/species_image/2_abies_alba_pyramidalis/medium/49255769768_df55596553_b.jpg","small_url":"https://perenual.com/storage/species_image/2_abies_alba_pyramidalis/small/49255769768_df55596553_b.jpg","thumbnail":"https://perenual.com/storage/species_image/2_abies_alba_pyramidalis/thumbnail/49255769768_df55596553_b.jpg"}},{"id":4898,"common_name":"oriental lily","scientific_name":["Lilium 'Tigerwoods'"],"other_name":null,"cycle":"Perennial","watering":"Average","sunlight":["Full sun","part shade"],"default_image":{"image_id":10337,"license":4,"license_name":"Attribution License","license_url":"https://creativecommons.org/licenses/by/2.0/","original_url":"https://perenual.com/storage/species_image/4898_lilium_tigerwoods/og/50089477952_d4bcf9be06_b.jpg","regular_url":"https://perenual.com/storage/species_image/4898_lilium_tigerwoods/regular/50089477952_d4bcf9be06_b.jpg","medium_url":"https://perenual.com/storage/species_image/4898_lilium_tigerwoods/medium/50089477952_d4bcf9be06_b.jpg","small_url":"https://perenual.com/storage/species_image/4898_lilium_tigerwoods/small/50089477952_d4bcf9be06_b.jpg","thumbnail":"https://perenual.com/storage/species_image/4898_lilium_tigerwoods/thumbnail/50089477952_d4bcf9be06_b.jpg"}},{"id":4899,"common_name":"Asiatic lily","scientific_name":["Lilium 'Tiny Diamond'"],"other_name":null,"cycle":"Perennial","watering":"Average","sunlight":["Full sun","part shade"],"default_image":{"image_id":22045,"license":3,"license_name":null,"license_url":null,"original_url":"https://perenual.com/storage/species_image/4905_lilium_windsong/og/52162624043_7235413e1f_b.jpg","regular_url":"https://perenual.com/storage/species_image/4905_lilium_windsong/regular/52162624043_7235413e1f_b.jpg","medium_url":"https://perenual.com/storage/species_image/4905_lilium_windsong/medium/52162624043_7235413e1f_b.jpg","small_url":"https://perenual.com/storage/species_image/4905_lilium_windsong/small/52162624043_7235413e1f_b.jpg","thumbnail":"https://perenual.com/storage/species_image/4905_lilium_windsong/thumbnail/52162624043_7235413e1f_b.jpg"}},{"id":4900,"common_name":"Asiatic lily","scientific_name":["Lilium 'Tiny Pearl'"],"other_name":null,"cycle":"Perennial","watering":"Average","sunlight":["Full sun","part shade"],"default_image":{"image_id":10340,"license":5,"license_name":"Attribution-ShareAlike License","license_url":"https://creativecommons.org/licenses/by-sa/2.0/","original_url":"https://perenual.com/storage/species_image/4900_lilium_tiny_pearl/og/50048288938_3fa608ec20_b.jpg","regular_url":"https://perenual.com/storage/species_image/4900_lilium_tiny_pearl/regular/50048288938_3fa608ec20_b.jpg","medium_url":"https://perenual.com/storage/species_image/4900_lilium_tiny_pearl/medium/50048288938_3fa608ec20_b.jpg","small_url":"https://perenual.com/storage/species_image/4900_lilium_tiny_pearl/small/50048288938_3fa608ec20_b.jpg","thumbnail":"https://perenual.com/storage/species_image/4900_lilium_tiny_pearl/thumbnail/50048288938_3fa608ec20_b.jpg"}},{"id":4901,"common_name":"orienpet lily","scientific_name":["Lilium 'Touching'"],"other_name":null,"cycle":"Perennial","watering":"Average","sunlight":["Full sun","part shade"],"default_image":{"image_id":10345,"license":5,"license_name":"Attribution-ShareAlike License","license_url":"https://creativecommons.org/licenses/by-sa/2.0/","original_url":"https://perenual.com/storage/species_image/4901_lilium_touching/og/29167045451_d3400b2327_b.jpg","regular_url":"https://perenual.com/storage/species_image/4901_lilium_touching/regular/29167045451_d3400b2327_b.jpg","medium_url":"https://perenual.com/storage/species_image/4901_lilium_touching/medium/29167045451_d3400b2327_b.jpg","small_url":"https://perenual.com/storage/species_image/4901_lilium_touching/small/29167045451_d3400b2327_b.jpg","thumbnail":"https://perenual.com/storage/species_image/4901_lilium_touching/thumbnail/29167045451_d3400b2327_b.jpg"}},{"id":4902,"common_name":"oriental lily","scientific_name":["Lilium 'Tricolor'"],"other_name":null,"cycle":"Perennial","watering":"Average","sunlight":["Full sun","part shade"],"default_image":{"image_id":10347,"license":4,"license_name":"Attribution License","license_url":"https://creativecommons.org/licenses/by/2.0/","original_url":"https://perenual.com/storage/species_image/4902_lilium_tricolor/og/51331078813_b21ac1940e_b.jpg","regular_url":"https://perenual.com/storage/species_image/4902_lilium_tricolor/regular/51331078813_b21ac1940e_b.jpg","medium_url":"https://perenual.com/storage/species_image/4902_lilium_tricolor/medium/51331078813_b21ac1940e_b.jpg","small_url":"https://perenual.com/storage/species_image/4902_lilium_tricolor/small/51331078813_b21ac1940e_b.jpg","thumbnail":"https://perenual.com/storage/species_image/4902_lilium_tricolor/thumbnail/51331078813_b21ac1940e_b.jpg"}},{"id":4903,"common_name":"Asiatic lily","scientific_name":["Lilium 'Vermeer'"],"other_name":null,"cycle":"Perennial","watering":"Average","sunlight":["Full sun","part shade"],"default_image":{"image_id":22046,"license":3,"license_name":null,"license_url":null,"original_url":"https://perenual.com/storage/species_image/4905_lilium_windsong/og/52162624243_c12535bdee_b.jpg","regular_url":"https://perenual.com/storage/species_image/4905_lilium_windsong/regular/52162624243_c12535bdee_b.jpg","medium_url":"https://perenual.com/storage/species_image/4905_lilium_windsong/medium/52162624243_c12535bdee_b.jpg","small_url":"https://perenual.com/storage/species_image/4905_lilium_windsong/small/52162624243_c12535bdee_b.jpg","thumbnail":"https://perenual.com/storage/species_image/4905_lilium_windsong/thumbnail/52162624243_c12535bdee_b.jpg"}},{"id":4904,"common_name":"longiflorum-Asiatic lily","scientific_name":["Lilium 'White Tycoon'"],"other_name":null,"cycle":"Perennial","watering":"Average","sunlight":["Full sun","part shade"],"default_image":{"image_id":9,"license":5,"license_name":"Attribution-ShareAlike License","license_url":"https://creativecommons.org/licenses/by-sa/2.0/","original_url":"https://perenual.com/storage/species_image/2_abies_alba_pyramidalis/og/49255769768_df55596553_b.jpg","regular_url":"https://perenual.com/storage/species_image/2_abies_alba_pyramidalis/regular/49255769768_df55596553_b.jpg","medium_url":"https://perenual.com/storage/species_image/2_abies_alba_pyramidalis/medium/49255769768_df55596553_b.jpg","small_url":"https://perenual.com/storage/species_image/2_abies_alba_pyramidalis/small/49255769768_df55596553_b.jpg","thumbnail":"https://perenual.com/storage/species_image/2_abies_alba_pyramidalis/thumbnail/49255769768_df55596553_b.jpg"}},{"id":4905,"common_name":"Asiatic lily","scientific_name":["Lilium 'Windsong'"],"other_name":null,"cycle":"Perennial","watering":"Average","sunlight":["Full sun","part shade"],"default_image":{"image_id":22046,"license":3,"license_name":null,"license_url":null,"original_url":"https://perenual.com/storage/species_image/4905_lilium_windsong/og/52162624243_c12535bdee_b.jpg","regular_url":"https://perenual.com/storage/species_image/4905_lilium_windsong/regular/52162624243_c12535bdee_b.jpg","medium_url":"https://perenual.com/storage/species_image/4905_lilium_windsong/medium/52162624243_c12535bdee_b.jpg","small_url":"https://perenual.com/storage/species_image/4905_lilium_windsong/small/52162624243_c12535bdee_b.jpg","thumbnail":"https://perenual.com/storage/species_image/4905_lilium_windsong/thumbnail/52162624243_c12535bdee_b.jpg"}},{"id":4906,"common_name":"longiflorum-trumpet lily","scientific_name":["Lilium 'Zanlophator' TRIUMPHATOR"],"other_name":null,"cycle":"Perennial","watering":"Average","sunlight":["Full sun","part shade"],"default_image":{"image_id":9,"license":5,"license_name":"Attribution-ShareAlike License","license_url":"https://creativecommons.org/licenses/by-sa/2.0/","original_url":"https://perenual.com/storage/species_image/2_abies_alba_pyramidalis/og/49255769768_df55596553_b.jpg","regular_url":"https://perenual.com/storage/species_image/2_abies_alba_pyramidalis/regular/49255769768_df55596553_b.jpg","medium_url":"https://perenual.com/storage/species_image/2_abies_alba_pyramidalis/medium/49255769768_df55596553_b.jpg","small_url":"https://perenual.com/storage/species_image/2_abies_alba_pyramidalis/small/49255769768_df55596553_b.jpg","thumbnail":"https://perenual.com/storage/species_image/2_abies_alba_pyramidalis/thumbnail/49255769768_df55596553_b.jpg"}},{"id":4907,"common_name":"yellow velvetleaf","scientific_name":["Limnocharis flava"],"other_name":null,"cycle":"Perennial","watering":"Frequent","sunlight":["Full sun"],"default_image":{"image_id":10364,"license":5,"license_name":"Attribution-ShareAlike License","license_url":"https://creativecommons.org/licenses/by-sa/2.0/","original_url":"https://perenual.com/storage/species_image/4907_limnocharis_flava/og/9216127168_69d80ba67f_b.jpg","regular_url":"https://perenual.com/storage/species_image/4907_limnocharis_flava/regular/9216127168_69d80ba67f_b.jpg","medium_url":"https://perenual.com/storage/species_image/4907_limnocharis_flava/medium/9216127168_69d80ba67f_b.jpg","small_url":"https://perenual.com/storage/species_image/4907_limnocharis_flava/small/9216127168_69d80ba67f_b.jpg","thumbnail":"https://perenual.com/storage/species_image/4907_limnocharis_flava/thumbnail/9216127168_69d80ba67f_b.jpg"}},{"id":4908,"common_name":"sea lavender","scientific_name":["Limonium platyphyllum"],"other_name":null,"cycle":"Perennial","watering":"Average","sunlight":["Full sun"],"default_image":{"image_id":9,"license":5,"license_name":"Attribution-ShareAlike License","license_url":"https://creativecommons.org/licenses/by-sa/2.0/","original_url":"https://perenual.com/storage/species_image/2_abies_alba_pyramidalis/og/49255769768_df55596553_b.jpg","regular_url":"https://perenual.com/storage/species_image/2_abies_alba_pyramidalis/regular/49255769768_df55596553_b.jpg","medium_url":"https://perenual.com/storage/species_image/2_abies_alba_pyramidalis/medium/49255769768_df55596553_b.jpg","small_url":"https://perenual.com/storage/species_image/2_abies_alba_pyramidalis/small/49255769768_df55596553_b.jpg","thumbnail":"https://perenual.com/storage/species_image/2_abies_alba_pyramidalis/thumbnail/49255769768_df55596553_b.jpg"}},{"id":4909,"common_name":"statice","scientific_name":["Limonium sinuatum"],"other_name":null,"cycle":"Perennial","watering":"Minimum","sunlight":["Full sun"],"default_image":{"image_id":10368,"license":4,"license_name":"Attribution License","license_url":"https://creativecommons.org/licenses/by/2.0/","original_url":"https://perenual.com/storage/species_image/4909_limonium_sinuatum/og/50825639946_bea61652a4_b.jpg","regular_url":"https://perenual.com/storage/species_image/4909_limonium_sinuatum/regular/50825639946_bea61652a4_b.jpg","medium_url":"https://perenual.com/storage/species_image/4909_limonium_sinuatum/medium/50825639946_bea61652a4_b.jpg","small_url":"https://perenual.com/storage/species_image/4909_limonium_sinuatum/small/50825639946_bea61652a4_b.jpg","thumbnail":"https://perenual.com/storage/species_image/4909_limonium_sinuatum/thumbnail/50825639946_bea61652a4_b.jpg"}},{"id":4910,"common_name":"toadflax","scientific_name":["Linaria maroccana"],"other_name":null,"cycle":"Perennial","watering":"Average","sunlight":["Full sun","part shade"],"default_image":{"image_id":10373,"license":5,"license_name":"Attribution-ShareAlike License","license_url":"https://creativecommons.org/licenses/by-sa/2.0/","original_url":"https://perenual.com/storage/species_image/4910_linaria_maroccana/og/51833175145_cda57ccd1c_b.jpg","regular_url":"https://perenual.com/storage/species_image/4910_linaria_maroccana/regular/51833175145_cda57ccd1c_b.jpg","medium_url":"https://perenual.com/storage/species_image/4910_linaria_maroccana/medium/51833175145_cda57ccd1c_b.jpg","small_url":"https://perenual.com/storage/species_image/4910_linaria_maroccana/small/51833175145_cda57ccd1c_b.jpg","thumbnail":"https://perenual.com/storage/species_image/4910_linaria_maroccana/thumbnail/51833175145_cda57ccd1c_b.jpg"}},{"id":4911,"common_name":"toadflax","scientific_name":["Linaria purpurea"],"other_name":null,"cycle":"Perennial","watering":"Minimum","sunlight":["Full sun"],"default_image":{"image_id":10379,"license":6,"license_name":"Attribution-NoDerivs License","license_url":"https://creativecommons.org/licenses/by-nd/2.0/","original_url":"https://perenual.com/storage/species_image/4911_linaria_purpurea/og/52403903037_afea25b231_b.jpg"}},{"id":4912,"common_name":"purple-net toadflax","scientific_name":["Linaria reticulata"],"other_name":null,"cycle":"Perennial","watering":"Average","sunlight":["Full sun","part shade"],"default_image":{"image_id":10388,"license":4,"license_name":"Attribution License","license_url":"https://creativecommons.org/licenses/by/2.0/","original_url":"https://perenual.com/storage/species_image/4912_linaria_reticulata/og/5612045245_45405b8113_b.jpg","regular_url":"https://perenual.com/storage/species_image/4912_linaria_reticulata/regular/5612045245_45405b8113_b.jpg","medium_url":"https://perenual.com/storage/species_image/4912_linaria_reticulata/medium/5612045245_45405b8113_b.jpg","small_url":"https://perenual.com/storage/species_image/4912_linaria_reticulata/small/5612045245_45405b8113_b.jpg","thumbnail":"https://perenual.com/storage/species_image/4912_linaria_reticulata/thumbnail/5612045245_45405b8113_b.jpg"}},{"id":4913,"common_name":"spice bush","scientific_name":["Lindera aggregata var. aggregata"],"other_name":null,"cycle":"Perennial","watering":"Average","sunlight":["Full sun","part shade"],"default_image":null},{"id":4914,"common_name":"Taiwan spicebush","scientific_name":["Lindera akoensis"],"other_name":null,"cycle":"Perennial","watering":"Average","sunlight":["Full sun","part shade"],"default_image":{"image_id":9,"license":5,"license_name":"Attribution-ShareAlike License","license_url":"https://creativecommons.org/licenses/by-sa/2.0/","original_url":"https://perenual.com/storage/species_image/2_abies_alba_pyramidalis/og/49255769768_df55596553_b.jpg","regular_url":"https://perenual.com/storage/species_image/2_abies_alba_pyramidalis/regular/49255769768_df55596553_b.jpg","medium_url":"https://perenual.com/storage/species_image/2_abies_alba_pyramidalis/medium/49255769768_df55596553_b.jpg","small_url":"https://perenual.com/storage/species_image/2_abies_alba_pyramidalis/small/49255769768_df55596553_b.jpg","thumbnail":"https://perenual.com/storage/species_image/2_abies_alba_pyramidalis/thumbnail/49255769768_df55596553_b.jpg"}},{"id":4915,"common_name":"Oriental spicebush","scientific_name":["Lindera angustifolia"],"other_name":null,"cycle":"Perennial","watering":"Average","sunlight":["Full sun","part shade"],"default_image":{"image_id":9,"license":5,"license_name":"Attribution-ShareAlike License","license_url":"https://creativecommons.org/licenses/by-sa/2.0/","original_url":"https://perenual.com/storage/species_image/2_abies_alba_pyramidalis/og/49255769768_df55596553_b.jpg","regular_url":"https://perenual.com/storage/species_image/2_abies_alba_pyramidalis/regular/49255769768_df55596553_b.jpg","medium_url":"https://perenual.com/storage/species_image/2_abies_alba_pyramidalis/medium/49255769768_df55596553_b.jpg","small_url":"https://perenual.com/storage/species_image/2_abies_alba_pyramidalis/small/49255769768_df55596553_b.jpg","thumbnail":"https://perenual.com/storage/species_image/2_abies_alba_pyramidalis/thumbnail/49255769768_df55596553_b.jpg"}},{"id":4916,"common_name":"spice bush","scientific_name":["Lindera benzoin"],"other_name":null,"cycle":"Perennial","watering":"Frequent","sunlight":["Full sun Partial sun"],"default_image":{"image_id":10410,"license":4,"license_name":"Attribution License","license_url":"https://creativecommons.org/licenses/by/2.0/","original_url":"https://perenual.com/storage/species_image/4916_lindera_benzoin/og/28007412598_ced3351efa_b.jpg","regular_url":"https://perenual.com/storage/species_image/4916_lindera_benzoin/regular/28007412598_ced3351efa_b.jpg","medium_url":"https://perenual.com/storage/species_image/4916_lindera_benzoin/medium/28007412598_ced3351efa_b.jpg","small_url":"https://perenual.com/storage/species_image/4916_lindera_benzoin/small/28007412598_ced3351efa_b.jpg","thumbnail":"https://perenual.com/storage/species_image/4916_lindera_benzoin/thumbnail/28007412598_ced3351efa_b.jpg"}},{"id":4917,"common_name":"spice bush","scientific_name":["Lindera benzoin 'Rubra'"],"other_name":null,"cycle":"Perennial","watering":"Frequent","sunlight":["Full sun Partial sun"],"default_image":null},{"id":4918,"common_name":"Chinese evergreen spicebush","scientific_name":["Lindera fragrans"],"other_name":null,"cycle":"Perennial","watering":"Average","sunlight":["Part shade"],"default_image":{"image_id":9,"license":5,"license_name":"Attribution-ShareAlike License","license_url":"https://creativecommons.org/licenses/by-sa/2.0/","original_url":"https://perenual.com/storage/species_image/2_abies_alba_pyramidalis/og/49255769768_df55596553_b.jpg","regular_url":"https://perenual.com/storage/species_image/2_abies_alba_pyramidalis/regular/49255769768_df55596553_b.jpg","medium_url":"https://perenual.com/storage/species_image/2_abies_alba_pyramidalis/medium/49255769768_df55596553_b.jpg","small_url":"https://perenual.com/storage/species_image/2_abies_alba_pyramidalis/small/49255769768_df55596553_b.jpg","thumbnail":"https://perenual.com/storage/species_image/2_abies_alba_pyramidalis/thumbnail/49255769768_df55596553_b.jpg"}},{"id":4919,"common_name":"lindera","scientific_name":["Lindera triloba"],"other_name":null,"cycle":"Perennial","watering":"Average","sunlight":["Full sun","part shade"],"default_image":{"image_id":9,"license":5,"license_name":"Attribution-ShareAlike License","license_url":"https://creativecommons.org/licenses/by-sa/2.0/","original_url":"https://perenual.com/storage/species_image/2_abies_alba_pyramidalis/og/49255769768_df55596553_b.jpg","regular_url":"https://perenual.com/storage/species_image/2_abies_alba_pyramidalis/regular/49255769768_df55596553_b.jpg","medium_url":"https://perenual.com/storage/species_image/2_abies_alba_pyramidalis/medium/49255769768_df55596553_b.jpg","small_url":"https://perenual.com/storage/species_image/2_abies_alba_pyramidalis/small/49255769768_df55596553_b.jpg","thumbnail":"https://perenual.com/storage/species_image/2_abies_alba_pyramidalis/thumbnail/49255769768_df55596553_b.jpg"}},{"id":4920,"common_name":"perennial flax","scientific_name":["Linum perenne"],"other_name":null,"cycle":"Perennial","watering":"Average","sunlight":["Full sun","part shade"],"default_image":{"image_id":10415,"license":4,"license_name":"Attribution License","license_url":"https://creativecommons.org/licenses/by/2.0/","original_url":"https://perenual.com/storage/species_image/4920_linum_perenne/og/34432508282_b540e662e1_b.jpg","regular_url":"https://perenual.com/storage/species_image/4920_linum_perenne/regular/34432508282_b540e662e1_b.jpg","medium_url":"https://perenual.com/storage/species_image/4920_linum_perenne/medium/34432508282_b540e662e1_b.jpg","small_url":"https://perenual.com/storage/species_image/4920_linum_perenne/small/34432508282_b540e662e1_b.jpg","thumbnail":"https://perenual.com/storage/species_image/4920_linum_perenne/thumbnail/34432508282_b540e662e1_b.jpg"}}],"to":4920,"per_page":30,"current_page":164,"from":4891,"last_page":200,"total":6000}