{"data":[{"id":1351,"common_name":"Siberian bugloss","scientific_name":["Brunnera macrophylla 'Jack Frost'"],"other_name":null,"cycle":"Perennial","watering":"Average","sunlight":["Deep shade"," Filtered shade"," Part sun/part shade"],"default_image":{"image_id":3169,"license":4,"license_name":"Attribution License","license_url":"https://creativecommons.org/licenses/by/2.0/","original_url":"https://perenual.com/storage/species_image/1351_brunnera_macrophylla_jack_frost/og/1130751172_76e8dc0eeb_b.jpg","regular_url":"https://perenual.com/storage/species_image/1351_brunnera_macrophylla_jack_frost/regular/1130751172_76e8dc0eeb_b.jpg","medium_url":"https://perenual.com/storage/species_image/1351_brunnera_macrophylla_jack_frost/medium/1130751172_76e8dc0eeb_b.jpg","small_url":"https://perenual.com/storage/species_image/1351_brunnera_macrophylla_jack_frost/small/1130751172_76e8dc0eeb_b.jpg","thumbnail":"https://perenual.com/storage/species_image/1351_brunnera_macrophylla_jack_frost/thumbnail/1130751172_76e8dc0eeb_b.jpg"}},{"id":1352,"common_name":"Siberian bugloss","scientific_name":["Brunnera macrophylla 'King's Ransom'"],"other_name":null,"cycle":"Perennial","watering":"Average","sunlight":["Deep shade"," Filtered shade"," Part sun/part shade"],"default_image":{"image_id":3164,"license":4,"license_name":"Attribution License","license_url":"https://creativecommons.org/licenses/by/2.0/","original_url":"https://perenual.com/storage/species_image/1355_brunnera_macrophylla_mr_morse/og/26716286852_152f4cd0aa_b.jpg","regular_url":"https://perenual.com/storage/species_image/1355_brunnera_macrophylla_mr_morse/regular/26716286852_152f4cd0aa_b.jpg","medium_url":"https://perenual.com/storage/species_image/1355_brunnera_macrophylla_mr_morse/medium/26716286852_152f4cd0aa_b.jpg","small_url":"https://perenual.com/storage/species_image/1355_brunnera_macrophylla_mr_morse/small/26716286852_152f4cd0aa_b.jpg","thumbnail":"https://perenual.com/storage/species_image/1355_brunnera_macrophylla_mr_morse/thumbnail/26716286852_152f4cd0aa_b.jpg"}},{"id":1353,"common_name":"Siberian bugloss","scientific_name":["Brunnera macrophylla 'Langtrees'"],"other_name":null,"cycle":"Perennial","watering":"Average","sunlight":["Deep shade"," Filtered shade"," Part sun/part shade"],"default_image":{"image_id":9,"license":5,"license_name":"Attribution-ShareAlike License","license_url":"https://creativecommons.org/licenses/by-sa/2.0/","original_url":"https://perenual.com/storage/species_image/2_abies_alba_pyramidalis/og/49255769768_df55596553_b.jpg","regular_url":"https://perenual.com/storage/species_image/2_abies_alba_pyramidalis/regular/49255769768_df55596553_b.jpg","medium_url":"https://perenual.com/storage/species_image/2_abies_alba_pyramidalis/medium/49255769768_df55596553_b.jpg","small_url":"https://perenual.com/storage/species_image/2_abies_alba_pyramidalis/small/49255769768_df55596553_b.jpg","thumbnail":"https://perenual.com/storage/species_image/2_abies_alba_pyramidalis/thumbnail/49255769768_df55596553_b.jpg"}},{"id":1354,"common_name":"Siberian bugloss","scientific_name":["Brunnera macrophylla 'Looking Glass'"],"other_name":null,"cycle":"Perennial","watering":"Average","sunlight":["Deep shade"," Filtered shade"," Part sun/part shade"],"default_image":{"image_id":3176,"license":5,"license_name":"Attribution-ShareAlike License","license_url":"https://creativecommons.org/licenses/by-sa/2.0/","original_url":"https://perenual.com/storage/species_image/1354_brunnera_macrophylla_looking_glass/og/27870337256_ef47a2a63d_b.jpg","regular_url":"https://perenual.com/storage/species_image/1354_brunnera_macrophylla_looking_glass/regular/27870337256_ef47a2a63d_b.jpg","medium_url":"https://perenual.com/storage/species_image/1354_brunnera_macrophylla_looking_glass/medium/27870337256_ef47a2a63d_b.jpg","small_url":"https://perenual.com/storage/species_image/1354_brunnera_macrophylla_looking_glass/small/27870337256_ef47a2a63d_b.jpg","thumbnail":"https://perenual.com/storage/species_image/1354_brunnera_macrophylla_looking_glass/thumbnail/27870337256_ef47a2a63d_b.jpg"}},{"id":1355,"common_name":"Siberian bugloss","scientific_name":["Brunnera macrophylla 'Mr. Morse'"],"other_name":null,"cycle":"Perennial","watering":"Average","sunlight":["Deep shade"," Filtered shade"," Part sun/part shade"],"default_image":{"image_id":3164,"license":4,"license_name":"Attribution License","license_url":"https://creativecommons.org/licenses/by/2.0/","original_url":"https://perenual.com/storage/species_image/1355_brunnera_macrophylla_mr_morse/og/26716286852_152f4cd0aa_b.jpg","regular_url":"https://perenual.com/storage/species_image/1355_brunnera_macrophylla_mr_morse/regular/26716286852_152f4cd0aa_b.jpg","medium_url":"https://perenual.com/storage/species_image/1355_brunnera_macrophylla_mr_morse/medium/26716286852_152f4cd0aa_b.jpg","small_url":"https://perenual.com/storage/species_image/1355_brunnera_macrophylla_mr_morse/small/26716286852_152f4cd0aa_b.jpg","thumbnail":"https://perenual.com/storage/species_image/1355_brunnera_macrophylla_mr_morse/thumbnail/26716286852_152f4cd0aa_b.jpg"}},{"id":1356,"common_name":"Siberian bugloss","scientific_name":["Brunnera macrophylla 'Sea Heart'"],"other_name":null,"cycle":"Perennial","watering":"Average","sunlight":["Deep shade"," Filtered shade"," Part sun/part shade"],"default_image":{"image_id":3177,"license":4,"license_name":"Attribution License","license_url":"https://creativecommons.org/licenses/by/2.0/","original_url":"https://perenual.com/storage/species_image/1356_brunnera_macrophylla_sea_heart/og/52019952548_25059631b8_b.jpg","regular_url":"https://perenual.com/storage/species_image/1356_brunnera_macrophylla_sea_heart/regular/52019952548_25059631b8_b.jpg","medium_url":"https://perenual.com/storage/species_image/1356_brunnera_macrophylla_sea_heart/medium/52019952548_25059631b8_b.jpg","small_url":"https://perenual.com/storage/species_image/1356_brunnera_macrophylla_sea_heart/small/52019952548_25059631b8_b.jpg","thumbnail":"https://perenual.com/storage/species_image/1356_brunnera_macrophylla_sea_heart/thumbnail/52019952548_25059631b8_b.jpg"}},{"id":1357,"common_name":"Siberian bugloss","scientific_name":["Brunnera macrophylla 'Spring Yellow'"],"other_name":null,"cycle":"Perennial","watering":"Average","sunlight":["Deep shade"," Filtered shade"," Part sun/part shade"],"default_image":{"image_id":9,"license":5,"license_name":"Attribution-ShareAlike License","license_url":"https://creativecommons.org/licenses/by-sa/2.0/","original_url":"https://perenual.com/storage/species_image/2_abies_alba_pyramidalis/og/49255769768_df55596553_b.jpg","regular_url":"https://perenual.com/storage/species_image/2_abies_alba_pyramidalis/regular/49255769768_df55596553_b.jpg","medium_url":"https://perenual.com/storage/species_image/2_abies_alba_pyramidalis/medium/49255769768_df55596553_b.jpg","small_url":"https://perenual.com/storage/species_image/2_abies_alba_pyramidalis/small/49255769768_df55596553_b.jpg","thumbnail":"https://perenual.com/storage/species_image/2_abies_alba_pyramidalis/thumbnail/49255769768_df55596553_b.jpg"}},{"id":1358,"common_name":"Siberian bugloss","scientific_name":["Brunnera 'Silver Charm'"],"other_name":null,"cycle":"Perennial","watering":"Average","sunlight":["Part shade"],"default_image":{"image_id":3183,"license":4,"license_name":"Attribution License","license_url":"https://creativecommons.org/licenses/by/2.0/","original_url":"https://perenual.com/storage/species_image/1358_brunnera_silver_charm/og/17331239803_13d75226dd_b.jpg","regular_url":"https://perenual.com/storage/species_image/1358_brunnera_silver_charm/regular/17331239803_13d75226dd_b.jpg","medium_url":"https://perenual.com/storage/species_image/1358_brunnera_silver_charm/medium/17331239803_13d75226dd_b.jpg","small_url":"https://perenual.com/storage/species_image/1358_brunnera_silver_charm/small/17331239803_13d75226dd_b.jpg","thumbnail":"https://perenual.com/storage/species_image/1358_brunnera_silver_charm/thumbnail/17331239803_13d75226dd_b.jpg"}},{"id":1359,"common_name":"buffalo grass","scientific_name":["Buchloe dactyloides"],"other_name":null,"cycle":"Perennial","watering":"Minimum","sunlight":["Full sun"],"default_image":{"image_id":3185,"license":4,"license_name":"Attribution License","license_url":"https://creativecommons.org/licenses/by/2.0/","original_url":"https://perenual.com/storage/species_image/1359_buchloe_dactyloides/og/8008288268_d2c6bcfdc0_b.jpg","regular_url":"https://perenual.com/storage/species_image/1359_buchloe_dactyloides/regular/8008288268_d2c6bcfdc0_b.jpg","medium_url":"https://perenual.com/storage/species_image/1359_buchloe_dactyloides/medium/8008288268_d2c6bcfdc0_b.jpg","small_url":"https://perenual.com/storage/species_image/1359_buchloe_dactyloides/small/8008288268_d2c6bcfdc0_b.jpg","thumbnail":"https://perenual.com/storage/species_image/1359_buchloe_dactyloides/thumbnail/8008288268_d2c6bcfdc0_b.jpg"}},{"id":1360,"common_name":"buffalo grass","scientific_name":["Buchloe dactyloides 'Cody'"],"other_name":null,"cycle":"Perennial","watering":"Minimum","sunlight":["Full sun"],"default_image":{"image_id":3187,"license":45,"license_name":"Attribution-ShareAlike 3.0 Unported (CC BY-SA 3.0)","license_url":"https://creativecommons.org/licenses/by-sa/3.0/deed.en","original_url":"https://perenual.com/storage/species_image/1360_buchloe_dactyloides_cody/og/Bouteloua_dactyloides_%27Cody%27_kz1.jpg","regular_url":"https://perenual.com/storage/species_image/1360_buchloe_dactyloides_cody/regular/Bouteloua_dactyloides_%27Cody%27_kz1.jpg","medium_url":"https://perenual.com/storage/species_image/1360_buchloe_dactyloides_cody/medium/Bouteloua_dactyloides_%27Cody%27_kz1.jpg","small_url":"https://perenual.com/storage/species_image/1360_buchloe_dactyloides_cody/small/Bouteloua_dactyloides_%27Cody%27_kz1.jpg","thumbnail":"https://perenual.com/storage/species_image/1360_buchloe_dactyloides_cody/thumbnail/Bouteloua_dactyloides_%27Cody%27_kz1.jpg"}},{"id":1361,"common_name":"buffalo grass","scientific_name":["Buchloe dactyloides 'Sharp's Improved'"],"other_name":null,"cycle":"Perennial","watering":"Minimum","sunlight":["Full sun"],"default_image":{"image_id":3186,"license":5,"license_name":"Attribution-ShareAlike License","license_url":"https://creativecommons.org/licenses/by-sa/2.0/","original_url":"https://perenual.com/storage/species_image/1361_buchloe_dactyloides_sharps_improved/og/27215712263_22ef190b24_b.jpg","regular_url":"https://perenual.com/storage/species_image/1361_buchloe_dactyloides_sharps_improved/regular/27215712263_22ef190b24_b.jpg","medium_url":"https://perenual.com/storage/species_image/1361_buchloe_dactyloides_sharps_improved/medium/27215712263_22ef190b24_b.jpg","small_url":"https://perenual.com/storage/species_image/1361_buchloe_dactyloides_sharps_improved/small/27215712263_22ef190b24_b.jpg","thumbnail":"https://perenual.com/storage/species_image/1361_buchloe_dactyloides_sharps_improved/thumbnail/27215712263_22ef190b24_b.jpg"}},{"id":1362,"common_name":"alternate-leaved butterfly bush","scientific_name":["Buddleja alternifolia"],"other_name":null,"cycle":"Perennial","watering":"Average","sunlight":["Full sun","part shade"],"default_image":{"image_id":3189,"license":4,"license_name":"Attribution License","license_url":"https://creativecommons.org/licenses/by/2.0/","original_url":"https://perenual.com/storage/species_image/1362_buddleja_alternifolia/og/49110322106_8d3ef7620e_b.jpg","regular_url":"https://perenual.com/storage/species_image/1362_buddleja_alternifolia/regular/49110322106_8d3ef7620e_b.jpg","medium_url":"https://perenual.com/storage/species_image/1362_buddleja_alternifolia/medium/49110322106_8d3ef7620e_b.jpg","small_url":"https://perenual.com/storage/species_image/1362_buddleja_alternifolia/small/49110322106_8d3ef7620e_b.jpg","thumbnail":"https://perenual.com/storage/species_image/1362_buddleja_alternifolia/thumbnail/49110322106_8d3ef7620e_b.jpg"}},{"id":1363,"common_name":"butterfly bush","scientific_name":["Buddleja 'Asian Moon'"],"other_name":null,"cycle":"Perennial","watering":"Average","sunlight":["Full sun"],"default_image":{"image_id":9,"license":5,"license_name":"Attribution-ShareAlike License","license_url":"https://creativecommons.org/licenses/by-sa/2.0/","original_url":"https://perenual.com/storage/species_image/2_abies_alba_pyramidalis/og/49255769768_df55596553_b.jpg","regular_url":"https://perenual.com/storage/species_image/2_abies_alba_pyramidalis/regular/49255769768_df55596553_b.jpg","medium_url":"https://perenual.com/storage/species_image/2_abies_alba_pyramidalis/medium/49255769768_df55596553_b.jpg","small_url":"https://perenual.com/storage/species_image/2_abies_alba_pyramidalis/small/49255769768_df55596553_b.jpg","thumbnail":"https://perenual.com/storage/species_image/2_abies_alba_pyramidalis/thumbnail/49255769768_df55596553_b.jpg"}},{"id":1364,"common_name":"butterfly bush","scientific_name":["Buddleja 'Bicolor'"],"other_name":null,"cycle":"Perennial","watering":"Average","sunlight":["Full sun"],"default_image":{"image_id":3191,"license":6,"license_name":"Attribution-NoDerivs License","license_url":"https://creativecommons.org/licenses/by-nd/2.0/","original_url":"https://perenual.com/storage/species_image/1372_buddleja_davidii_ellens_blue/og/52266910616_ec95a8c4bb_b.jpg"}},{"id":1365,"common_name":"butterfly bush","scientific_name":["Buddleja 'Blue Chip' LO AND BEHOLD"],"other_name":null,"cycle":"Perennial","watering":"Average","sunlight":["Full sun"],"default_image":{"image_id":3192,"license":5,"license_name":"Attribution-ShareAlike License","license_url":"https://creativecommons.org/licenses/by-sa/2.0/","original_url":"https://perenual.com/storage/species_image/1365_buddleja_blue_chip_lo_and_behold/og/52486235084_1c2b97f6d5_b.jpg","regular_url":"https://perenual.com/storage/species_image/1365_buddleja_blue_chip_lo_and_behold/regular/52486235084_1c2b97f6d5_b.jpg","medium_url":"https://perenual.com/storage/species_image/1365_buddleja_blue_chip_lo_and_behold/medium/52486235084_1c2b97f6d5_b.jpg","small_url":"https://perenual.com/storage/species_image/1365_buddleja_blue_chip_lo_and_behold/small/52486235084_1c2b97f6d5_b.jpg","thumbnail":"https://perenual.com/storage/species_image/1365_buddleja_blue_chip_lo_and_behold/thumbnail/52486235084_1c2b97f6d5_b.jpg"}},{"id":1366,"common_name":"butterfly bush","scientific_name":["Buddleja davidii"],"other_name":null,"cycle":"Perennial","watering":"Average","sunlight":["Sun"," Partial Shade"],"default_image":{"image_id":3193,"license":4,"license_name":"Attribution License","license_url":"https://creativecommons.org/licenses/by/2.0/","original_url":"https://perenual.com/storage/species_image/1366_buddleja_davidii/og/51578032157_2e1bb6cb7d_b.jpg","regular_url":"https://perenual.com/storage/species_image/1366_buddleja_davidii/regular/51578032157_2e1bb6cb7d_b.jpg","medium_url":"https://perenual.com/storage/species_image/1366_buddleja_davidii/medium/51578032157_2e1bb6cb7d_b.jpg","small_url":"https://perenual.com/storage/species_image/1366_buddleja_davidii/small/51578032157_2e1bb6cb7d_b.jpg","thumbnail":"https://perenual.com/storage/species_image/1366_buddleja_davidii/thumbnail/51578032157_2e1bb6cb7d_b.jpg"}},{"id":1367,"common_name":"butterfly bush","scientific_name":["Buddleja davidii 'Adokeep' ADONIS BLUE"],"other_name":null,"cycle":"Perennial","watering":"Average","sunlight":["Sun"," Partial Shade"],"default_image":{"image_id":9,"license":5,"license_name":"Attribution-ShareAlike License","license_url":"https://creativecommons.org/licenses/by-sa/2.0/","original_url":"https://perenual.com/storage/species_image/2_abies_alba_pyramidalis/og/49255769768_df55596553_b.jpg","regular_url":"https://perenual.com/storage/species_image/2_abies_alba_pyramidalis/regular/49255769768_df55596553_b.jpg","medium_url":"https://perenual.com/storage/species_image/2_abies_alba_pyramidalis/medium/49255769768_df55596553_b.jpg","small_url":"https://perenual.com/storage/species_image/2_abies_alba_pyramidalis/small/49255769768_df55596553_b.jpg","thumbnail":"https://perenual.com/storage/species_image/2_abies_alba_pyramidalis/thumbnail/49255769768_df55596553_b.jpg"}},{"id":1368,"common_name":"butterfly bush","scientific_name":["Buddleja davidii 'Attraction'"],"other_name":null,"cycle":"Perennial","watering":"Average","sunlight":["Sun"," Partial Shade"],"default_image":{"image_id":3197,"license":5,"license_name":"Attribution-ShareAlike License","license_url":"https://creativecommons.org/licenses/by-sa/2.0/","original_url":"https://perenual.com/storage/species_image/1368_buddleja_davidii_attraction/og/52221650977_20fed96195_b.jpg","regular_url":"https://perenual.com/storage/species_image/1368_buddleja_davidii_attraction/regular/52221650977_20fed96195_b.jpg","medium_url":"https://perenual.com/storage/species_image/1368_buddleja_davidii_attraction/medium/52221650977_20fed96195_b.jpg","small_url":"https://perenual.com/storage/species_image/1368_buddleja_davidii_attraction/small/52221650977_20fed96195_b.jpg","thumbnail":"https://perenual.com/storage/species_image/1368_buddleja_davidii_attraction/thumbnail/52221650977_20fed96195_b.jpg"}},{"id":1369,"common_name":"butterfly bush","scientific_name":["Buddleja davidii 'Black Knight'"],"other_name":null,"cycle":"Perennial","watering":"Average","sunlight":["Sun"," Partial Shade"],"default_image":{"image_id":3198,"license":4,"license_name":"Attribution License","license_url":"https://creativecommons.org/licenses/by/2.0/","original_url":"https://perenual.com/storage/species_image/1369_buddleja_davidii_black_knight/og/24242817933_410130907b_b.jpg","regular_url":"https://perenual.com/storage/species_image/1369_buddleja_davidii_black_knight/regular/24242817933_410130907b_b.jpg","medium_url":"https://perenual.com/storage/species_image/1369_buddleja_davidii_black_knight/medium/24242817933_410130907b_b.jpg","small_url":"https://perenual.com/storage/species_image/1369_buddleja_davidii_black_knight/small/24242817933_410130907b_b.jpg","thumbnail":"https://perenual.com/storage/species_image/1369_buddleja_davidii_black_knight/thumbnail/24242817933_410130907b_b.jpg"}},{"id":1370,"common_name":"butterfly bush","scientific_name":["Buddleja davidii 'Butterfly Heaven'"],"other_name":null,"cycle":"Perennial","watering":"Average","sunlight":["Sun"," Partial Shade"],"default_image":{"image_id":9,"license":5,"license_name":"Attribution-ShareAlike License","license_url":"https://creativecommons.org/licenses/by-sa/2.0/","original_url":"https://perenual.com/storage/species_image/2_abies_alba_pyramidalis/og/49255769768_df55596553_b.jpg","regular_url":"https://perenual.com/storage/species_image/2_abies_alba_pyramidalis/regular/49255769768_df55596553_b.jpg","medium_url":"https://perenual.com/storage/species_image/2_abies_alba_pyramidalis/medium/49255769768_df55596553_b.jpg","small_url":"https://perenual.com/storage/species_image/2_abies_alba_pyramidalis/small/49255769768_df55596553_b.jpg","thumbnail":"https://perenual.com/storage/species_image/2_abies_alba_pyramidalis/thumbnail/49255769768_df55596553_b.jpg"}},{"id":1371,"common_name":"butterfly bush","scientific_name":["Buddleja davidii 'Buzz Violet Blue'"],"other_name":null,"cycle":"Perennial","watering":"Average","sunlight":["Sun"," Partial Shade"],"default_image":{"image_id":9,"license":5,"license_name":"Attribution-ShareAlike License","license_url":"https://creativecommons.org/licenses/by-sa/2.0/","original_url":"https://perenual.com/storage/species_image/2_abies_alba_pyramidalis/og/49255769768_df55596553_b.jpg","regular_url":"https://perenual.com/storage/species_image/2_abies_alba_pyramidalis/regular/49255769768_df55596553_b.jpg","medium_url":"https://perenual.com/storage/species_image/2_abies_alba_pyramidalis/medium/49255769768_df55596553_b.jpg","small_url":"https://perenual.com/storage/species_image/2_abies_alba_pyramidalis/small/49255769768_df55596553_b.jpg","thumbnail":"https://perenual.com/storage/species_image/2_abies_alba_pyramidalis/thumbnail/49255769768_df55596553_b.jpg"}},{"id":1372,"common_name":"butterfly bush","scientific_name":["Buddleja davidii 'Ellen's Blue'"],"other_name":null,"cycle":"Perennial","watering":"Average","sunlight":["Sun"," Partial Shade"],"default_image":{"image_id":3191,"license":6,"license_name":"Attribution-NoDerivs License","license_url":"https://creativecommons.org/licenses/by-nd/2.0/","original_url":"https://perenual.com/storage/species_image/1372_buddleja_davidii_ellens_blue/og/52266910616_ec95a8c4bb_b.jpg"}},{"id":1373,"common_name":"butterfly bush","scientific_name":["Buddleja davidii 'Evil Ways'"],"other_name":null,"cycle":"Perennial","watering":"Average","sunlight":["Sun"," Partial Shade"],"default_image":{"image_id":3191,"license":6,"license_name":"Attribution-NoDerivs License","license_url":"https://creativecommons.org/licenses/by-nd/2.0/","original_url":"https://perenual.com/storage/species_image/1372_buddleja_davidii_ellens_blue/og/52266910616_ec95a8c4bb_b.jpg"}},{"id":1374,"common_name":"butterfly bush","scientific_name":["Buddleja davidii 'Monrell' STRAWBERRY LEMONADE"],"other_name":null,"cycle":"Perennial","watering":"Average","sunlight":["Sun"," Partial Shade"],"default_image":{"image_id":3191,"license":6,"license_name":"Attribution-NoDerivs License","license_url":"https://creativecommons.org/licenses/by-nd/2.0/","original_url":"https://perenual.com/storage/species_image/1372_buddleja_davidii_ellens_blue/og/52266910616_ec95a8c4bb_b.jpg"}},{"id":1375,"common_name":"butterfly bush","scientific_name":["Buddleja davidii 'Monum' PETITE PLUM"],"other_name":null,"cycle":"Perennial","watering":"Average","sunlight":["Sun"," Partial Shade"],"default_image":{"image_id":3191,"license":6,"license_name":"Attribution-NoDerivs License","license_url":"https://creativecommons.org/licenses/by-nd/2.0/","original_url":"https://perenual.com/storage/species_image/1372_buddleja_davidii_ellens_blue/og/52266910616_ec95a8c4bb_b.jpg"}},{"id":1376,"common_name":"butterfly bush","scientific_name":["Buddleja davidii 'Nanho Blue'"],"other_name":null,"cycle":"Perennial","watering":"Average","sunlight":["Sun"," Partial Shade"],"default_image":{"image_id":9,"license":5,"license_name":"Attribution-ShareAlike License","license_url":"https://creativecommons.org/licenses/by-sa/2.0/","original_url":"https://perenual.com/storage/species_image/2_abies_alba_pyramidalis/og/49255769768_df55596553_b.jpg","regular_url":"https://perenual.com/storage/species_image/2_abies_alba_pyramidalis/regular/49255769768_df55596553_b.jpg","medium_url":"https://perenual.com/storage/species_image/2_abies_alba_pyramidalis/medium/49255769768_df55596553_b.jpg","small_url":"https://perenual.com/storage/species_image/2_abies_alba_pyramidalis/small/49255769768_df55596553_b.jpg","thumbnail":"https://perenual.com/storage/species_image/2_abies_alba_pyramidalis/thumbnail/49255769768_df55596553_b.jpg"}},{"id":1377,"common_name":"butterfly bush","scientific_name":["Buddleja davidii 'Nanho Purple'"],"other_name":null,"cycle":"Perennial","watering":"Average","sunlight":["Sun"," Partial Shade"],"default_image":{"image_id":3191,"license":6,"license_name":"Attribution-NoDerivs License","license_url":"https://creativecommons.org/licenses/by-nd/2.0/","original_url":"https://perenual.com/storage/species_image/1372_buddleja_davidii_ellens_blue/og/52266910616_ec95a8c4bb_b.jpg"}},{"id":1378,"common_name":"butterfly bush","scientific_name":["Buddleja davidii 'Niche's Choice'"],"other_name":null,"cycle":"Perennial","watering":"Average","sunlight":["Sun"," Partial Shade"],"default_image":{"image_id":3191,"license":6,"license_name":"Attribution-NoDerivs License","license_url":"https://creativecommons.org/licenses/by-nd/2.0/","original_url":"https://perenual.com/storage/species_image/1372_buddleja_davidii_ellens_blue/og/52266910616_ec95a8c4bb_b.jpg"}},{"id":1379,"common_name":"butterfly bush","scientific_name":["Buddleja davidii 'Peakeep' PEACOCK"],"other_name":null,"cycle":"Perennial","watering":"Average","sunlight":["Sun"," Partial Shade"],"default_image":{"image_id":9,"license":5,"license_name":"Attribution-ShareAlike License","license_url":"https://creativecommons.org/licenses/by-sa/2.0/","original_url":"https://perenual.com/storage/species_image/2_abies_alba_pyramidalis/og/49255769768_df55596553_b.jpg","regular_url":"https://perenual.com/storage/species_image/2_abies_alba_pyramidalis/regular/49255769768_df55596553_b.jpg","medium_url":"https://perenual.com/storage/species_image/2_abies_alba_pyramidalis/medium/49255769768_df55596553_b.jpg","small_url":"https://perenual.com/storage/species_image/2_abies_alba_pyramidalis/small/49255769768_df55596553_b.jpg","thumbnail":"https://perenual.com/storage/species_image/2_abies_alba_pyramidalis/thumbnail/49255769768_df55596553_b.jpg"}},{"id":1380,"common_name":"butterfly bush","scientific_name":["Buddleja davidii 'PIIBD-I' FIRST EDITIONS GROOVY GRAPE"],"other_name":null,"cycle":"Perennial","watering":"Average","sunlight":["Sun"," Partial Shade"],"default_image":{"image_id":3191,"license":6,"license_name":"Attribution-NoDerivs License","license_url":"https://creativecommons.org/licenses/by-nd/2.0/","original_url":"https://perenual.com/storage/species_image/1372_buddleja_davidii_ellens_blue/og/52266910616_ec95a8c4bb_b.jpg"}}],"to":1380,"per_page":30,"current_page":46,"from":1351,"last_page":200,"total":6000}