{"data":[{"id":1831,"common_name":"pink turtlehead","scientific_name":["Chelone lyonii 'Hot Lips'"],"other_name":null,"cycle":"Perennial","watering":"Frequent","sunlight":["Full sun","part shade"],"default_image":{"image_id":4419,"license":5,"license_name":"Attribution-ShareAlike License","license_url":"https://creativecommons.org/licenses/by-sa/2.0/","original_url":"https://perenual.com/storage/species_image/1831_chelone_lyonii_hot_lips/og/52391427376_248afde832_b.jpg","regular_url":"https://perenual.com/storage/species_image/1831_chelone_lyonii_hot_lips/regular/52391427376_248afde832_b.jpg","medium_url":"https://perenual.com/storage/species_image/1831_chelone_lyonii_hot_lips/medium/52391427376_248afde832_b.jpg","small_url":"https://perenual.com/storage/species_image/1831_chelone_lyonii_hot_lips/small/52391427376_248afde832_b.jpg","thumbnail":"https://perenual.com/storage/species_image/1831_chelone_lyonii_hot_lips/thumbnail/52391427376_248afde832_b.jpg"}},{"id":1832,"common_name":"turtlehead","scientific_name":["Chelone obliqua"],"other_name":null,"cycle":"Perennial","watering":"Frequent","sunlight":["Full sun","part shade"],"default_image":{"image_id":4426,"license":5,"license_name":"Attribution-ShareAlike License","license_url":"https://creativecommons.org/licenses/by-sa/2.0/","original_url":"https://perenual.com/storage/species_image/1832_chelone_obliqua/og/29685428525_3de58ae555_b.jpg","regular_url":"https://perenual.com/storage/species_image/1832_chelone_obliqua/regular/29685428525_3de58ae555_b.jpg","medium_url":"https://perenual.com/storage/species_image/1832_chelone_obliqua/medium/29685428525_3de58ae555_b.jpg","small_url":"https://perenual.com/storage/species_image/1832_chelone_obliqua/small/29685428525_3de58ae555_b.jpg","thumbnail":"https://perenual.com/storage/species_image/1832_chelone_obliqua/thumbnail/29685428525_3de58ae555_b.jpg"}},{"id":1833,"common_name":"turtlehead","scientific_name":["Chelone obliqua 'Ieniemienie'"],"other_name":null,"cycle":"Perennial","watering":"Average","sunlight":["Full sun","part shade"],"default_image":{"image_id":4417,"license":5,"license_name":"Attribution-ShareAlike License","license_url":"https://creativecommons.org/licenses/by-sa/2.0/","original_url":"https://perenual.com/storage/species_image/1833_chelone_obliqua_ieniemienie/og/52391672688_b38cc3636a_b.jpg","regular_url":"https://perenual.com/storage/species_image/1833_chelone_obliqua_ieniemienie/regular/52391672688_b38cc3636a_b.jpg","medium_url":"https://perenual.com/storage/species_image/1833_chelone_obliqua_ieniemienie/medium/52391672688_b38cc3636a_b.jpg","small_url":"https://perenual.com/storage/species_image/1833_chelone_obliqua_ieniemienie/small/52391672688_b38cc3636a_b.jpg","thumbnail":"https://perenual.com/storage/species_image/1833_chelone_obliqua_ieniemienie/thumbnail/52391672688_b38cc3636a_b.jpg"}},{"id":1834,"common_name":"shellflower","scientific_name":["Chelone obliqua var. speciosa"],"other_name":null,"cycle":"Perennial","watering":"Frequent","sunlight":["Full sun","part shade"],"default_image":{"image_id":9,"license":5,"license_name":"Attribution-ShareAlike License","license_url":"https://creativecommons.org/licenses/by-sa/2.0/","original_url":"https://perenual.com/storage/species_image/2_abies_alba_pyramidalis/og/49255769768_df55596553_b.jpg","regular_url":"https://perenual.com/storage/species_image/2_abies_alba_pyramidalis/regular/49255769768_df55596553_b.jpg","medium_url":"https://perenual.com/storage/species_image/2_abies_alba_pyramidalis/medium/49255769768_df55596553_b.jpg","small_url":"https://perenual.com/storage/species_image/2_abies_alba_pyramidalis/small/49255769768_df55596553_b.jpg","thumbnail":"https://perenual.com/storage/species_image/2_abies_alba_pyramidalis/thumbnail/49255769768_df55596553_b.jpg"}},{"id":1835,"common_name":"Japanese turtlehead","scientific_name":["Chelonopsis yagiharana"],"other_name":null,"cycle":"Perennial","watering":"Average","sunlight":["Full sun","part shade"],"default_image":{"image_id":21014,"license":45,"license_name":"Attribution-ShareAlike 3.0 Unported (CC BY-SA 3.0)","license_url":"https://creativecommons.org/licenses/by-sa/3.0/deed.en","original_url":"https://perenual.com/storage/species_image/1835_chelonopsis_yagiharana/og/Chelonopsis_yagiharana_2.jpg","regular_url":"https://perenual.com/storage/species_image/1835_chelonopsis_yagiharana/regular/Chelonopsis_yagiharana_2.jpg","medium_url":"https://perenual.com/storage/species_image/1835_chelonopsis_yagiharana/medium/Chelonopsis_yagiharana_2.jpg","small_url":"https://perenual.com/storage/species_image/1835_chelonopsis_yagiharana/small/Chelonopsis_yagiharana_2.jpg","thumbnail":"https://perenual.com/storage/species_image/1835_chelonopsis_yagiharana/thumbnail/Chelonopsis_yagiharana_2.jpg"}},{"id":1836,"common_name":"quinoa","scientific_name":["Chenopodium quinoa"],"other_name":null,"cycle":"Perennial","watering":"Average","sunlight":["Full sun"],"default_image":{"image_id":4431,"license":4,"license_name":"Attribution License","license_url":"https://creativecommons.org/licenses/by/2.0/","original_url":"https://perenual.com/storage/species_image/1836_chenopodium_quinoa/og/51970611547_474ec1c40b_b.jpg","regular_url":"https://perenual.com/storage/species_image/1836_chenopodium_quinoa/regular/51970611547_474ec1c40b_b.jpg","medium_url":"https://perenual.com/storage/species_image/1836_chenopodium_quinoa/medium/51970611547_474ec1c40b_b.jpg","small_url":"https://perenual.com/storage/species_image/1836_chenopodium_quinoa/small/51970611547_474ec1c40b_b.jpg","thumbnail":"https://perenual.com/storage/species_image/1836_chenopodium_quinoa/thumbnail/51970611547_474ec1c40b_b.jpg"}},{"id":1837,"common_name":"desert willow","scientific_name":["Chilopsis linearis"],"other_name":null,"cycle":"Perennial","watering":"Minimum","sunlight":["Full sun"],"default_image":{"image_id":4434,"license":4,"license_name":"Attribution License","license_url":"https://creativecommons.org/licenses/by/2.0/","original_url":"https://perenual.com/storage/species_image/1837_chilopsis_linearis/og/50646421967_a5c8e190a7_b.jpg","regular_url":"https://perenual.com/storage/species_image/1837_chilopsis_linearis/regular/50646421967_a5c8e190a7_b.jpg","medium_url":"https://perenual.com/storage/species_image/1837_chilopsis_linearis/medium/50646421967_a5c8e190a7_b.jpg","small_url":"https://perenual.com/storage/species_image/1837_chilopsis_linearis/small/50646421967_a5c8e190a7_b.jpg","thumbnail":"https://perenual.com/storage/species_image/1837_chilopsis_linearis/thumbnail/50646421967_a5c8e190a7_b.jpg"}},{"id":1838,"common_name":"desert willow","scientific_name":["Chilopsis linearis var. linearis"],"other_name":null,"cycle":"Perennial","watering":"Minimum","sunlight":["Full sun"],"default_image":{"image_id":9,"license":5,"license_name":"Attribution-ShareAlike License","license_url":"https://creativecommons.org/licenses/by-sa/2.0/","original_url":"https://perenual.com/storage/species_image/2_abies_alba_pyramidalis/og/49255769768_df55596553_b.jpg","regular_url":"https://perenual.com/storage/species_image/2_abies_alba_pyramidalis/regular/49255769768_df55596553_b.jpg","medium_url":"https://perenual.com/storage/species_image/2_abies_alba_pyramidalis/medium/49255769768_df55596553_b.jpg","small_url":"https://perenual.com/storage/species_image/2_abies_alba_pyramidalis/small/49255769768_df55596553_b.jpg","thumbnail":"https://perenual.com/storage/species_image/2_abies_alba_pyramidalis/thumbnail/49255769768_df55596553_b.jpg"}},{"id":1839,"common_name":"wintersweet","scientific_name":["Chimonanthus praecox"],"other_name":null,"cycle":"Perennial","watering":"Average","sunlight":["Full sun","part shade"],"default_image":{"image_id":4442,"license":4,"license_name":"Attribution License","license_url":"https://creativecommons.org/licenses/by/2.0/","original_url":"https://perenual.com/storage/species_image/1839_chimonanthus_praecox/og/52097245318_07fcc71ba3_b.jpg","regular_url":"https://perenual.com/storage/species_image/1839_chimonanthus_praecox/regular/52097245318_07fcc71ba3_b.jpg","medium_url":"https://perenual.com/storage/species_image/1839_chimonanthus_praecox/medium/52097245318_07fcc71ba3_b.jpg","small_url":"https://perenual.com/storage/species_image/1839_chimonanthus_praecox/small/52097245318_07fcc71ba3_b.jpg","thumbnail":"https://perenual.com/storage/species_image/1839_chimonanthus_praecox/thumbnail/52097245318_07fcc71ba3_b.jpg"}},{"id":1840,"common_name":"Chinese fringe tree","scientific_name":["Chionanthus retusus 'Tokyo Tower'"],"other_name":null,"cycle":"Perennial","watering":"Average","sunlight":["Full sun","part shade"],"default_image":{"image_id":4445,"license":5,"license_name":"Attribution-ShareAlike License","license_url":"https://creativecommons.org/licenses/by-sa/2.0/","original_url":"https://perenual.com/storage/species_image/1840_chionanthus_retusus_tokyo_tower/og/51977306321_89f586f0d2_b.jpg","regular_url":"https://perenual.com/storage/species_image/1840_chionanthus_retusus_tokyo_tower/regular/51977306321_89f586f0d2_b.jpg","medium_url":"https://perenual.com/storage/species_image/1840_chionanthus_retusus_tokyo_tower/medium/51977306321_89f586f0d2_b.jpg","small_url":"https://perenual.com/storage/species_image/1840_chionanthus_retusus_tokyo_tower/small/51977306321_89f586f0d2_b.jpg","thumbnail":"https://perenual.com/storage/species_image/1840_chionanthus_retusus_tokyo_tower/thumbnail/51977306321_89f586f0d2_b.jpg"}},{"id":1841,"common_name":"glory of the snow","scientific_name":["Chionodoxa forbesii 'Blue Giant'"],"other_name":null,"cycle":"Perennial","watering":"Average","sunlight":["Full sun","part shade"],"default_image":{"image_id":9,"license":5,"license_name":"Attribution-ShareAlike License","license_url":"https://creativecommons.org/licenses/by-sa/2.0/","original_url":"https://perenual.com/storage/species_image/2_abies_alba_pyramidalis/og/49255769768_df55596553_b.jpg","regular_url":"https://perenual.com/storage/species_image/2_abies_alba_pyramidalis/regular/49255769768_df55596553_b.jpg","medium_url":"https://perenual.com/storage/species_image/2_abies_alba_pyramidalis/medium/49255769768_df55596553_b.jpg","small_url":"https://perenual.com/storage/species_image/2_abies_alba_pyramidalis/small/49255769768_df55596553_b.jpg","thumbnail":"https://perenual.com/storage/species_image/2_abies_alba_pyramidalis/thumbnail/49255769768_df55596553_b.jpg"}},{"id":1842,"common_name":"glory of the snow","scientific_name":["Chionodoxa luciliae"],"other_name":null,"cycle":"Perennial","watering":"Average","sunlight":["Full sun","part shade"],"default_image":{"image_id":4449,"license":5,"license_name":"Attribution-ShareAlike License","license_url":"https://creativecommons.org/licenses/by-sa/2.0/","original_url":"https://perenual.com/storage/species_image/1842_chionodoxa_luciliae/og/52116519488_92b3baa57b_b.jpg","regular_url":"https://perenual.com/storage/species_image/1842_chionodoxa_luciliae/regular/52116519488_92b3baa57b_b.jpg","medium_url":"https://perenual.com/storage/species_image/1842_chionodoxa_luciliae/medium/52116519488_92b3baa57b_b.jpg","small_url":"https://perenual.com/storage/species_image/1842_chionodoxa_luciliae/small/52116519488_92b3baa57b_b.jpg","thumbnail":"https://perenual.com/storage/species_image/1842_chionodoxa_luciliae/thumbnail/52116519488_92b3baa57b_b.jpg"}},{"id":1843,"common_name":"glory of the snow","scientific_name":["Chionodoxa luciliae 'Alba'"],"other_name":null,"cycle":"Perennial","watering":"Average","sunlight":["Full sun","part shade"],"default_image":{"image_id":4456,"license":6,"license_name":"Attribution-NoDerivs License","license_url":"https://creativecommons.org/licenses/by-nd/2.0/","original_url":"https://perenual.com/storage/species_image/1843_chionodoxa_luciliae_alba/og/3128703334_670c1dc8ea_b.jpg"}},{"id":1844,"common_name":"glory of the snow","scientific_name":["Chionodoxa 'Pink Giant'"],"other_name":null,"cycle":"Perennial","watering":"Average","sunlight":["Full sun","part shade"],"default_image":{"image_id":9,"license":5,"license_name":"Attribution-ShareAlike License","license_url":"https://creativecommons.org/licenses/by-sa/2.0/","original_url":"https://perenual.com/storage/species_image/2_abies_alba_pyramidalis/og/49255769768_df55596553_b.jpg","regular_url":"https://perenual.com/storage/species_image/2_abies_alba_pyramidalis/regular/49255769768_df55596553_b.jpg","medium_url":"https://perenual.com/storage/species_image/2_abies_alba_pyramidalis/medium/49255769768_df55596553_b.jpg","small_url":"https://perenual.com/storage/species_image/2_abies_alba_pyramidalis/small/49255769768_df55596553_b.jpg","thumbnail":"https://perenual.com/storage/species_image/2_abies_alba_pyramidalis/thumbnail/49255769768_df55596553_b.jpg"}},{"id":1845,"common_name":"St. Bernard's lily","scientific_name":["Chlorophytum amaniense"],"other_name":null,"cycle":"Perennial","watering":"Average","sunlight":["Part shade"],"default_image":{"image_id":9,"license":5,"license_name":"Attribution-ShareAlike License","license_url":"https://creativecommons.org/licenses/by-sa/2.0/","original_url":"https://perenual.com/storage/species_image/2_abies_alba_pyramidalis/og/49255769768_df55596553_b.jpg","regular_url":"https://perenual.com/storage/species_image/2_abies_alba_pyramidalis/regular/49255769768_df55596553_b.jpg","medium_url":"https://perenual.com/storage/species_image/2_abies_alba_pyramidalis/medium/49255769768_df55596553_b.jpg","small_url":"https://perenual.com/storage/species_image/2_abies_alba_pyramidalis/small/49255769768_df55596553_b.jpg","thumbnail":"https://perenual.com/storage/species_image/2_abies_alba_pyramidalis/thumbnail/49255769768_df55596553_b.jpg"}},{"id":1846,"common_name":"spider plant","scientific_name":["Chlorophytum 'Bonnie'"],"other_name":null,"cycle":"Perennial","watering":"Average","sunlight":["Part shade","full shade"],"default_image":{"image_id":4463,"license":45,"license_name":"Attribution-ShareAlike 3.0 Unported (CC BY-SA 3.0)","license_url":"https://creativecommons.org/licenses/by-sa/3.0/deed.en","original_url":"https://perenual.com/storage/species_image/1846_chlorophytum_bonnie/og/Chlorophytum_comosum_Variegatum_1zz.jpg","regular_url":"https://perenual.com/storage/species_image/1846_chlorophytum_bonnie/regular/Chlorophytum_comosum_Variegatum_1zz.jpg","medium_url":"https://perenual.com/storage/species_image/1846_chlorophytum_bonnie/medium/Chlorophytum_comosum_Variegatum_1zz.jpg","small_url":"https://perenual.com/storage/species_image/1846_chlorophytum_bonnie/small/Chlorophytum_comosum_Variegatum_1zz.jpg","thumbnail":"https://perenual.com/storage/species_image/1846_chlorophytum_bonnie/thumbnail/Chlorophytum_comosum_Variegatum_1zz.jpg"}},{"id":1847,"common_name":"spider plant","scientific_name":["Chlorophytum comosum 'Vittatum'"],"other_name":null,"cycle":"Perennial","watering":"Average","sunlight":["Part shade","full shade"],"default_image":{"image_id":9,"license":5,"license_name":"Attribution-ShareAlike License","license_url":"https://creativecommons.org/licenses/by-sa/2.0/","original_url":"https://perenual.com/storage/species_image/2_abies_alba_pyramidalis/og/49255769768_df55596553_b.jpg","regular_url":"https://perenual.com/storage/species_image/2_abies_alba_pyramidalis/regular/49255769768_df55596553_b.jpg","medium_url":"https://perenual.com/storage/species_image/2_abies_alba_pyramidalis/medium/49255769768_df55596553_b.jpg","small_url":"https://perenual.com/storage/species_image/2_abies_alba_pyramidalis/small/49255769768_df55596553_b.jpg","thumbnail":"https://perenual.com/storage/species_image/2_abies_alba_pyramidalis/thumbnail/49255769768_df55596553_b.jpg"}},{"id":1848,"common_name":"spider plant","scientific_name":["Chlorophytum 'Fire Flash'"],"other_name":null,"cycle":"Perennial","watering":"Average","sunlight":["Part shade"],"default_image":{"image_id":9,"license":5,"license_name":"Attribution-ShareAlike License","license_url":"https://creativecommons.org/licenses/by-sa/2.0/","original_url":"https://perenual.com/storage/species_image/2_abies_alba_pyramidalis/og/49255769768_df55596553_b.jpg","regular_url":"https://perenual.com/storage/species_image/2_abies_alba_pyramidalis/regular/49255769768_df55596553_b.jpg","medium_url":"https://perenual.com/storage/species_image/2_abies_alba_pyramidalis/medium/49255769768_df55596553_b.jpg","small_url":"https://perenual.com/storage/species_image/2_abies_alba_pyramidalis/small/49255769768_df55596553_b.jpg","thumbnail":"https://perenual.com/storage/species_image/2_abies_alba_pyramidalis/thumbnail/49255769768_df55596553_b.jpg"}},{"id":1849,"common_name":"Mexican orange","scientific_name":["Choisya arizonica 'Bluestone'"],"other_name":null,"cycle":"Perennial","watering":"Minimum","sunlight":["Full sun","part shade"],"default_image":{"image_id":4465,"license":451,"license_name":"CC0 1.0 Universal (CC0 1.0) Public Domain Dedication","license_url":"https://creativecommons.org/publicdomain/zero/1.0/","original_url":"https://perenual.com/storage/species_image/1849_choisya_arizonica_bluestone/og/g4acb05d945b6d94d93da4549f466f794e03dcbfa4420975b53427fd71f6c9b019662e5c1737bd8e41fbe08f77bde252a7644596c0ff0c9c1e98955e1178503f8_1280.jpg","regular_url":"https://perenual.com/storage/species_image/1849_choisya_arizonica_bluestone/regular/g4acb05d945b6d94d93da4549f466f794e03dcbfa4420975b53427fd71f6c9b019662e5c1737bd8e41fbe08f77bde252a7644596c0ff0c9c1e98955e1178503f8_1280.jpg","medium_url":"https://perenual.com/storage/species_image/1849_choisya_arizonica_bluestone/medium/g4acb05d945b6d94d93da4549f466f794e03dcbfa4420975b53427fd71f6c9b019662e5c1737bd8e41fbe08f77bde252a7644596c0ff0c9c1e98955e1178503f8_1280.jpg","small_url":"https://perenual.com/storage/species_image/1849_choisya_arizonica_bluestone/small/g4acb05d945b6d94d93da4549f466f794e03dcbfa4420975b53427fd71f6c9b019662e5c1737bd8e41fbe08f77bde252a7644596c0ff0c9c1e98955e1178503f8_1280.jpg","thumbnail":"https://perenual.com/storage/species_image/1849_choisya_arizonica_bluestone/thumbnail/g4acb05d945b6d94d93da4549f466f794e03dcbfa4420975b53427fd71f6c9b019662e5c1737bd8e41fbe08f77bde252a7644596c0ff0c9c1e98955e1178503f8_1280.jpg"}},{"id":1850,"common_name":"Mexican orange","scientific_name":["Choisya ternata"],"other_name":null,"cycle":"Perennial","watering":"Average","sunlight":["Part sun/part shade"],"default_image":{"image_id":4468,"license":4,"license_name":"Attribution License","license_url":"https://creativecommons.org/licenses/by/2.0/","original_url":"https://perenual.com/storage/species_image/1850_choisya_ternata/og/49818577713_770048f82f_b.jpg","regular_url":"https://perenual.com/storage/species_image/1850_choisya_ternata/regular/49818577713_770048f82f_b.jpg","medium_url":"https://perenual.com/storage/species_image/1850_choisya_ternata/medium/49818577713_770048f82f_b.jpg","small_url":"https://perenual.com/storage/species_image/1850_choisya_ternata/small/49818577713_770048f82f_b.jpg","thumbnail":"https://perenual.com/storage/species_image/1850_choisya_ternata/thumbnail/49818577713_770048f82f_b.jpg"}},{"id":1851,"common_name":"Mexican orange","scientific_name":["Choisya ternata 'Lich' SUNDANCE"],"other_name":null,"cycle":"Perennial","watering":"Average","sunlight":["Part sun/part shade"],"default_image":{"image_id":4471,"license":4,"license_name":"Attribution License","license_url":"https://creativecommons.org/licenses/by/2.0/","original_url":"https://perenual.com/storage/species_image/1851_choisya_ternata_lich_sundance/og/13856264205_948780a662_b.jpg","regular_url":"https://perenual.com/storage/species_image/1851_choisya_ternata_lich_sundance/regular/13856264205_948780a662_b.jpg","medium_url":"https://perenual.com/storage/species_image/1851_choisya_ternata_lich_sundance/medium/13856264205_948780a662_b.jpg","small_url":"https://perenual.com/storage/species_image/1851_choisya_ternata_lich_sundance/small/13856264205_948780a662_b.jpg","thumbnail":"https://perenual.com/storage/species_image/1851_choisya_ternata_lich_sundance/thumbnail/13856264205_948780a662_b.jpg"}},{"id":1852,"common_name":"silk floss tree","scientific_name":["Chorisia speciosa"],"other_name":null,"cycle":"Perennial","watering":"Average","sunlight":["Full sun"],"default_image":{"image_id":4476,"license":4,"license_name":"Attribution License","license_url":"https://creativecommons.org/licenses/by/2.0/","original_url":"https://perenual.com/storage/species_image/1852_chorisia_speciosa/og/23508266388_a86b95e6cf_b.jpg","regular_url":"https://perenual.com/storage/species_image/1852_chorisia_speciosa/regular/23508266388_a86b95e6cf_b.jpg","medium_url":"https://perenual.com/storage/species_image/1852_chorisia_speciosa/medium/23508266388_a86b95e6cf_b.jpg","small_url":"https://perenual.com/storage/species_image/1852_chorisia_speciosa/small/23508266388_a86b95e6cf_b.jpg","thumbnail":"https://perenual.com/storage/species_image/1852_chorisia_speciosa/thumbnail/23508266388_a86b95e6cf_b.jpg"}},{"id":1853,"common_name":"daisy garden mum","scientific_name":["Chrysanthemum 'Cathy's Rust'"],"other_name":null,"cycle":"Perennial","watering":"Average","sunlight":["Full sun"],"default_image":{"image_id":4477,"license":5,"license_name":"Attribution-ShareAlike License","license_url":"https://creativecommons.org/licenses/by-sa/2.0/","original_url":"https://perenual.com/storage/species_image/1853_chrysanthemum_cathys_rust/og/44593401562_0eac1b0c43_b.jpg","regular_url":"https://perenual.com/storage/species_image/1853_chrysanthemum_cathys_rust/regular/44593401562_0eac1b0c43_b.jpg","medium_url":"https://perenual.com/storage/species_image/1853_chrysanthemum_cathys_rust/medium/44593401562_0eac1b0c43_b.jpg","small_url":"https://perenual.com/storage/species_image/1853_chrysanthemum_cathys_rust/small/44593401562_0eac1b0c43_b.jpg","thumbnail":"https://perenual.com/storage/species_image/1853_chrysanthemum_cathys_rust/thumbnail/44593401562_0eac1b0c43_b.jpg"}},{"id":1854,"common_name":"garden mum","scientific_name":["Chrysanthemum 'Color Echo'"],"other_name":null,"cycle":"Perennial","watering":"Average","sunlight":["Full sun"],"default_image":{"image_id":9,"license":5,"license_name":"Attribution-ShareAlike License","license_url":"https://creativecommons.org/licenses/by-sa/2.0/","original_url":"https://perenual.com/storage/species_image/2_abies_alba_pyramidalis/og/49255769768_df55596553_b.jpg","regular_url":"https://perenual.com/storage/species_image/2_abies_alba_pyramidalis/regular/49255769768_df55596553_b.jpg","medium_url":"https://perenual.com/storage/species_image/2_abies_alba_pyramidalis/medium/49255769768_df55596553_b.jpg","small_url":"https://perenual.com/storage/species_image/2_abies_alba_pyramidalis/small/49255769768_df55596553_b.jpg","thumbnail":"https://perenual.com/storage/species_image/2_abies_alba_pyramidalis/thumbnail/49255769768_df55596553_b.jpg"}},{"id":1855,"common_name":"chrysanthemum","scientific_name":["Chrysanthemum 'Fireworks Igloo'"],"other_name":null,"cycle":"Perennial","watering":"Average","sunlight":["Full sun"],"default_image":{"image_id":4482,"license":4,"license_name":"Attribution License","license_url":"https://creativecommons.org/licenses/by/2.0/","original_url":"https://perenual.com/storage/species_image/1855_chrysanthemum_fireworks_igloo/og/52490883914_96f0252e60_b.jpg","regular_url":"https://perenual.com/storage/species_image/1855_chrysanthemum_fireworks_igloo/regular/52490883914_96f0252e60_b.jpg","medium_url":"https://perenual.com/storage/species_image/1855_chrysanthemum_fireworks_igloo/medium/52490883914_96f0252e60_b.jpg","small_url":"https://perenual.com/storage/species_image/1855_chrysanthemum_fireworks_igloo/small/52490883914_96f0252e60_b.jpg","thumbnail":"https://perenual.com/storage/species_image/1855_chrysanthemum_fireworks_igloo/thumbnail/52490883914_96f0252e60_b.jpg"}},{"id":1856,"common_name":"decorative garden mum","scientific_name":["Chrysanthemum 'Hillside Sheffield Pink'"],"other_name":null,"cycle":"Perennial","watering":"Average","sunlight":["Full sun"],"default_image":{"image_id":4483,"license":5,"license_name":"Attribution-ShareAlike License","license_url":"https://creativecommons.org/licenses/by-sa/2.0/","original_url":"https://perenual.com/storage/species_image/1856_chrysanthemum_hillside_sheffield_pink/og/22425170472_fd3e39eeb9_b.jpg","regular_url":"https://perenual.com/storage/species_image/1856_chrysanthemum_hillside_sheffield_pink/regular/22425170472_fd3e39eeb9_b.jpg","medium_url":"https://perenual.com/storage/species_image/1856_chrysanthemum_hillside_sheffield_pink/medium/22425170472_fd3e39eeb9_b.jpg","small_url":"https://perenual.com/storage/species_image/1856_chrysanthemum_hillside_sheffield_pink/small/22425170472_fd3e39eeb9_b.jpg","thumbnail":"https://perenual.com/storage/species_image/1856_chrysanthemum_hillside_sheffield_pink/thumbnail/22425170472_fd3e39eeb9_b.jpg"}},{"id":1857,"common_name":"chrysanthemum","scientific_name":["Chrysanthemum 'Jessica'"],"other_name":null,"cycle":"Perennial","watering":"Average","sunlight":["Full sun"],"default_image":{"image_id":9,"license":5,"license_name":"Attribution-ShareAlike License","license_url":"https://creativecommons.org/licenses/by-sa/2.0/","original_url":"https://perenual.com/storage/species_image/2_abies_alba_pyramidalis/og/49255769768_df55596553_b.jpg","regular_url":"https://perenual.com/storage/species_image/2_abies_alba_pyramidalis/regular/49255769768_df55596553_b.jpg","medium_url":"https://perenual.com/storage/species_image/2_abies_alba_pyramidalis/medium/49255769768_df55596553_b.jpg","small_url":"https://perenual.com/storage/species_image/2_abies_alba_pyramidalis/small/49255769768_df55596553_b.jpg","thumbnail":"https://perenual.com/storage/species_image/2_abies_alba_pyramidalis/thumbnail/49255769768_df55596553_b.jpg"}},{"id":1858,"common_name":"chrysanthemum","scientific_name":["Chrysanthemum 'Lindayo' LINDA"],"other_name":null,"cycle":"Perennial","watering":"Average","sunlight":["Full sun"],"default_image":{"image_id":9,"license":5,"license_name":"Attribution-ShareAlike License","license_url":"https://creativecommons.org/licenses/by-sa/2.0/","original_url":"https://perenual.com/storage/species_image/2_abies_alba_pyramidalis/og/49255769768_df55596553_b.jpg","regular_url":"https://perenual.com/storage/species_image/2_abies_alba_pyramidalis/regular/49255769768_df55596553_b.jpg","medium_url":"https://perenual.com/storage/species_image/2_abies_alba_pyramidalis/medium/49255769768_df55596553_b.jpg","small_url":"https://perenual.com/storage/species_image/2_abies_alba_pyramidalis/small/49255769768_df55596553_b.jpg","thumbnail":"https://perenual.com/storage/species_image/2_abies_alba_pyramidalis/thumbnail/49255769768_df55596553_b.jpg"}},{"id":1859,"common_name":"chrysanthemum","scientific_name":["Chrysanthemum 'Mariyo' MARILYN"],"other_name":null,"cycle":"Perennial","watering":"Average","sunlight":["Full sun"],"default_image":{"image_id":9,"license":5,"license_name":"Attribution-ShareAlike License","license_url":"https://creativecommons.org/licenses/by-sa/2.0/","original_url":"https://perenual.com/storage/species_image/2_abies_alba_pyramidalis/og/49255769768_df55596553_b.jpg","regular_url":"https://perenual.com/storage/species_image/2_abies_alba_pyramidalis/regular/49255769768_df55596553_b.jpg","medium_url":"https://perenual.com/storage/species_image/2_abies_alba_pyramidalis/medium/49255769768_df55596553_b.jpg","small_url":"https://perenual.com/storage/species_image/2_abies_alba_pyramidalis/small/49255769768_df55596553_b.jpg","thumbnail":"https://perenual.com/storage/species_image/2_abies_alba_pyramidalis/thumbnail/49255769768_df55596553_b.jpg"}},{"id":1860,"common_name":"garden mum","scientific_name":["Chrysanthemum 'Matchsticks'"],"other_name":null,"cycle":"Perennial","watering":"Average","sunlight":["Full sun"],"default_image":{"image_id":4488,"license":5,"license_name":"Attribution-ShareAlike License","license_url":"https://creativecommons.org/licenses/by-sa/2.0/","original_url":"https://perenual.com/storage/species_image/1860_chrysanthemum_matchsticks/og/44992666902_5fac23e04f_b.jpg","regular_url":"https://perenual.com/storage/species_image/1860_chrysanthemum_matchsticks/regular/44992666902_5fac23e04f_b.jpg","medium_url":"https://perenual.com/storage/species_image/1860_chrysanthemum_matchsticks/medium/44992666902_5fac23e04f_b.jpg","small_url":"https://perenual.com/storage/species_image/1860_chrysanthemum_matchsticks/small/44992666902_5fac23e04f_b.jpg","thumbnail":"https://perenual.com/storage/species_image/1860_chrysanthemum_matchsticks/thumbnail/44992666902_5fac23e04f_b.jpg"}}],"to":1860,"per_page":30,"current_page":62,"from":1831,"last_page":200,"total":6000}