{"data":[{"id":3151,"common_name":"hardy geranium","scientific_name":["Geranium monacense 'Muldoon'"],"other_name":null,"cycle":"Perennial","watering":"Average","sunlight":["Part shade","full shade"],"default_image":{"image_id":6742,"license":5,"license_name":"Attribution-ShareAlike License","license_url":"https://creativecommons.org/licenses/by-sa/2.0/","original_url":"https://perenual.com/storage/species_image/3126_geranium_blogold_blue_sunrise/og/52284276512_7421e5f12c_b.jpg","regular_url":"https://perenual.com/storage/species_image/3126_geranium_blogold_blue_sunrise/regular/52284276512_7421e5f12c_b.jpg","medium_url":"https://perenual.com/storage/species_image/3126_geranium_blogold_blue_sunrise/medium/52284276512_7421e5f12c_b.jpg","small_url":"https://perenual.com/storage/species_image/3126_geranium_blogold_blue_sunrise/small/52284276512_7421e5f12c_b.jpg","thumbnail":"https://perenual.com/storage/species_image/3126_geranium_blogold_blue_sunrise/thumbnail/52284276512_7421e5f12c_b.jpg"}},{"id":3152,"common_name":"cranesbill","scientific_name":["Geranium 'Nimbus'"],"other_name":null,"cycle":"Perennial","watering":"Average","sunlight":["Full sun","part shade"],"default_image":{"image_id":6786,"license":6,"license_name":"Attribution-NoDerivs License","license_url":"https://creativecommons.org/licenses/by-nd/2.0/","original_url":"https://perenual.com/storage/species_image/3152_geranium_nimbus/og/2720658289_5bec3c8148_b.jpg"}},{"id":3153,"common_name":"cranesbill","scientific_name":["Geranium 'Orion'"],"other_name":null,"cycle":"Perennial","watering":"Average","sunlight":["Full sun","part shade"],"default_image":{"image_id":9,"license":5,"license_name":"Attribution-ShareAlike License","license_url":"https://creativecommons.org/licenses/by-sa/2.0/","original_url":"https://perenual.com/storage/species_image/2_abies_alba_pyramidalis/og/49255769768_df55596553_b.jpg","regular_url":"https://perenual.com/storage/species_image/2_abies_alba_pyramidalis/regular/49255769768_df55596553_b.jpg","medium_url":"https://perenual.com/storage/species_image/2_abies_alba_pyramidalis/medium/49255769768_df55596553_b.jpg","small_url":"https://perenual.com/storage/species_image/2_abies_alba_pyramidalis/small/49255769768_df55596553_b.jpg","thumbnail":"https://perenual.com/storage/species_image/2_abies_alba_pyramidalis/thumbnail/49255769768_df55596553_b.jpg"}},{"id":3154,"common_name":"cranesbill","scientific_name":["Geranium 'Orkney Cherry'"],"other_name":null,"cycle":"Perennial","watering":"Average","sunlight":["Full sun","part shade"],"default_image":{"image_id":9,"license":5,"license_name":"Attribution-ShareAlike License","license_url":"https://creativecommons.org/licenses/by-sa/2.0/","original_url":"https://perenual.com/storage/species_image/2_abies_alba_pyramidalis/og/49255769768_df55596553_b.jpg","regular_url":"https://perenual.com/storage/species_image/2_abies_alba_pyramidalis/regular/49255769768_df55596553_b.jpg","medium_url":"https://perenual.com/storage/species_image/2_abies_alba_pyramidalis/medium/49255769768_df55596553_b.jpg","small_url":"https://perenual.com/storage/species_image/2_abies_alba_pyramidalis/small/49255769768_df55596553_b.jpg","thumbnail":"https://perenual.com/storage/species_image/2_abies_alba_pyramidalis/thumbnail/49255769768_df55596553_b.jpg"}},{"id":3155,"common_name":"cranesbill","scientific_name":["Geranium oxonianum 'Bressingham's Delight'"],"other_name":null,"cycle":"Perennial","watering":"Average","sunlight":["Full sun","part shade"],"default_image":{"image_id":6742,"license":5,"license_name":"Attribution-ShareAlike License","license_url":"https://creativecommons.org/licenses/by-sa/2.0/","original_url":"https://perenual.com/storage/species_image/3126_geranium_blogold_blue_sunrise/og/52284276512_7421e5f12c_b.jpg","regular_url":"https://perenual.com/storage/species_image/3126_geranium_blogold_blue_sunrise/regular/52284276512_7421e5f12c_b.jpg","medium_url":"https://perenual.com/storage/species_image/3126_geranium_blogold_blue_sunrise/medium/52284276512_7421e5f12c_b.jpg","small_url":"https://perenual.com/storage/species_image/3126_geranium_blogold_blue_sunrise/small/52284276512_7421e5f12c_b.jpg","thumbnail":"https://perenual.com/storage/species_image/3126_geranium_blogold_blue_sunrise/thumbnail/52284276512_7421e5f12c_b.jpg"}},{"id":3156,"common_name":"cranesbill","scientific_name":["Geranium oxonianum 'Claridge Druce'"],"other_name":null,"cycle":"Perennial","watering":"Average","sunlight":["Full sun","part shade"],"default_image":{"image_id":9,"license":5,"license_name":"Attribution-ShareAlike License","license_url":"https://creativecommons.org/licenses/by-sa/2.0/","original_url":"https://perenual.com/storage/species_image/2_abies_alba_pyramidalis/og/49255769768_df55596553_b.jpg","regular_url":"https://perenual.com/storage/species_image/2_abies_alba_pyramidalis/regular/49255769768_df55596553_b.jpg","medium_url":"https://perenual.com/storage/species_image/2_abies_alba_pyramidalis/medium/49255769768_df55596553_b.jpg","small_url":"https://perenual.com/storage/species_image/2_abies_alba_pyramidalis/small/49255769768_df55596553_b.jpg","thumbnail":"https://perenual.com/storage/species_image/2_abies_alba_pyramidalis/thumbnail/49255769768_df55596553_b.jpg"}},{"id":3157,"common_name":"cranesbill","scientific_name":["Geranium oxonianum 'Katherine Adele'"],"other_name":null,"cycle":"Perennial","watering":"Average","sunlight":["Full sun","part shade"],"default_image":{"image_id":6775,"license":4,"license_name":"Attribution License","license_url":"https://creativecommons.org/licenses/by/2.0/","original_url":"https://perenual.com/storage/species_image/3165_geranium_pratense_new_dimension/og/52444273556_1a20415490_b.jpg","regular_url":"https://perenual.com/storage/species_image/3165_geranium_pratense_new_dimension/regular/52444273556_1a20415490_b.jpg","medium_url":"https://perenual.com/storage/species_image/3165_geranium_pratense_new_dimension/medium/52444273556_1a20415490_b.jpg","small_url":"https://perenual.com/storage/species_image/3165_geranium_pratense_new_dimension/small/52444273556_1a20415490_b.jpg","thumbnail":"https://perenual.com/storage/species_image/3165_geranium_pratense_new_dimension/thumbnail/52444273556_1a20415490_b.jpg"}},{"id":3158,"common_name":"cranesbill","scientific_name":["Geranium oxonianum 'Thurstonianum'"],"other_name":null,"cycle":"Perennial","watering":"Average","sunlight":["Full sun","part shade"],"default_image":{"image_id":9,"license":5,"license_name":"Attribution-ShareAlike License","license_url":"https://creativecommons.org/licenses/by-sa/2.0/","original_url":"https://perenual.com/storage/species_image/2_abies_alba_pyramidalis/og/49255769768_df55596553_b.jpg","regular_url":"https://perenual.com/storage/species_image/2_abies_alba_pyramidalis/regular/49255769768_df55596553_b.jpg","medium_url":"https://perenual.com/storage/species_image/2_abies_alba_pyramidalis/medium/49255769768_df55596553_b.jpg","small_url":"https://perenual.com/storage/species_image/2_abies_alba_pyramidalis/small/49255769768_df55596553_b.jpg","thumbnail":"https://perenual.com/storage/species_image/2_abies_alba_pyramidalis/thumbnail/49255769768_df55596553_b.jpg"}},{"id":3159,"common_name":"hardy geranium","scientific_name":["Geranium oxonianum 'Wargrave Pink'"],"other_name":null,"cycle":"Perennial","watering":"Minimum","sunlight":["Full sun","part shade"],"default_image":{"image_id":9,"license":5,"license_name":"Attribution-ShareAlike License","license_url":"https://creativecommons.org/licenses/by-sa/2.0/","original_url":"https://perenual.com/storage/species_image/2_abies_alba_pyramidalis/og/49255769768_df55596553_b.jpg","regular_url":"https://perenual.com/storage/species_image/2_abies_alba_pyramidalis/regular/49255769768_df55596553_b.jpg","medium_url":"https://perenual.com/storage/species_image/2_abies_alba_pyramidalis/medium/49255769768_df55596553_b.jpg","small_url":"https://perenual.com/storage/species_image/2_abies_alba_pyramidalis/small/49255769768_df55596553_b.jpg","thumbnail":"https://perenual.com/storage/species_image/2_abies_alba_pyramidalis/thumbnail/49255769768_df55596553_b.jpg"}},{"id":3160,"common_name":"Canary Island geranium","scientific_name":["Geranium palmatum"],"other_name":null,"cycle":"Perennial","watering":"Average","sunlight":["Full sun","part shade"],"default_image":{"image_id":6799,"license":5,"license_name":"Attribution-ShareAlike License","license_url":"https://creativecommons.org/licenses/by-sa/2.0/","original_url":"https://perenual.com/storage/species_image/3160_geranium_palmatum/og/9193343846_1537bc721f_b.jpg","regular_url":"https://perenual.com/storage/species_image/3160_geranium_palmatum/regular/9193343846_1537bc721f_b.jpg","medium_url":"https://perenual.com/storage/species_image/3160_geranium_palmatum/medium/9193343846_1537bc721f_b.jpg","small_url":"https://perenual.com/storage/species_image/3160_geranium_palmatum/small/9193343846_1537bc721f_b.jpg","thumbnail":"https://perenual.com/storage/species_image/3160_geranium_palmatum/thumbnail/9193343846_1537bc721f_b.jpg"}},{"id":3161,"common_name":"cranesbill","scientific_name":["Geranium 'Patricia'"],"other_name":null,"cycle":"Perennial","watering":"Minimum","sunlight":["Full sun","part shade"],"default_image":{"image_id":6785,"license":5,"license_name":"Attribution-ShareAlike License","license_url":"https://creativecommons.org/licenses/by-sa/2.0/","original_url":"https://perenual.com/storage/species_image/3181_geranium_subcaulescens_guiseppii/og/52155952624_8e90d6490f_b.jpg","regular_url":"https://perenual.com/storage/species_image/3181_geranium_subcaulescens_guiseppii/regular/52155952624_8e90d6490f_b.jpg","medium_url":"https://perenual.com/storage/species_image/3181_geranium_subcaulescens_guiseppii/medium/52155952624_8e90d6490f_b.jpg","small_url":"https://perenual.com/storage/species_image/3181_geranium_subcaulescens_guiseppii/small/52155952624_8e90d6490f_b.jpg","thumbnail":"https://perenual.com/storage/species_image/3181_geranium_subcaulescens_guiseppii/thumbnail/52155952624_8e90d6490f_b.jpg"}},{"id":3162,"common_name":"hardy geranium","scientific_name":["Geranium phaeum"],"other_name":null,"cycle":"Perennial","watering":"Frequent","sunlight":["Part shade","full shade"],"default_image":{"image_id":6804,"license":5,"license_name":"Attribution-ShareAlike License","license_url":"https://creativecommons.org/licenses/by-sa/2.0/","original_url":"https://perenual.com/storage/species_image/3162_geranium_phaeum/og/52151689735_a4082feb03_b.jpg","regular_url":"https://perenual.com/storage/species_image/3162_geranium_phaeum/regular/52151689735_a4082feb03_b.jpg","medium_url":"https://perenual.com/storage/species_image/3162_geranium_phaeum/medium/52151689735_a4082feb03_b.jpg","small_url":"https://perenual.com/storage/species_image/3162_geranium_phaeum/small/52151689735_a4082feb03_b.jpg","thumbnail":"https://perenual.com/storage/species_image/3162_geranium_phaeum/thumbnail/52151689735_a4082feb03_b.jpg"}},{"id":3163,"common_name":"cranesbill","scientific_name":["Geranium 'Philippe Vapelle'"],"other_name":null,"cycle":"Perennial","watering":"Average","sunlight":["Full sun","part shade"],"default_image":{"image_id":9,"license":5,"license_name":"Attribution-ShareAlike License","license_url":"https://creativecommons.org/licenses/by-sa/2.0/","original_url":"https://perenual.com/storage/species_image/2_abies_alba_pyramidalis/og/49255769768_df55596553_b.jpg","regular_url":"https://perenual.com/storage/species_image/2_abies_alba_pyramidalis/regular/49255769768_df55596553_b.jpg","medium_url":"https://perenual.com/storage/species_image/2_abies_alba_pyramidalis/medium/49255769768_df55596553_b.jpg","small_url":"https://perenual.com/storage/species_image/2_abies_alba_pyramidalis/small/49255769768_df55596553_b.jpg","thumbnail":"https://perenual.com/storage/species_image/2_abies_alba_pyramidalis/thumbnail/49255769768_df55596553_b.jpg"}},{"id":3164,"common_name":"meadow geranium","scientific_name":["Geranium pratense"],"other_name":null,"cycle":"Perennial","watering":"Average","sunlight":["Full sun","part shade"],"default_image":{"image_id":6807,"license":5,"license_name":"Attribution-ShareAlike License","license_url":"https://creativecommons.org/licenses/by-sa/2.0/","original_url":"https://perenual.com/storage/species_image/3164_geranium_pratense/og/52146339207_ca2681e5bf_b.jpg","regular_url":"https://perenual.com/storage/species_image/3164_geranium_pratense/regular/52146339207_ca2681e5bf_b.jpg","medium_url":"https://perenual.com/storage/species_image/3164_geranium_pratense/medium/52146339207_ca2681e5bf_b.jpg","small_url":"https://perenual.com/storage/species_image/3164_geranium_pratense/small/52146339207_ca2681e5bf_b.jpg","thumbnail":"https://perenual.com/storage/species_image/3164_geranium_pratense/thumbnail/52146339207_ca2681e5bf_b.jpg"}},{"id":3165,"common_name":"cranesbill","scientific_name":["Geranium pratense 'New Dimension'"],"other_name":null,"cycle":"Perennial","watering":"Average","sunlight":["Full sun","part shade"],"default_image":{"image_id":6775,"license":4,"license_name":"Attribution License","license_url":"https://creativecommons.org/licenses/by/2.0/","original_url":"https://perenual.com/storage/species_image/3165_geranium_pratense_new_dimension/og/52444273556_1a20415490_b.jpg","regular_url":"https://perenual.com/storage/species_image/3165_geranium_pratense_new_dimension/regular/52444273556_1a20415490_b.jpg","medium_url":"https://perenual.com/storage/species_image/3165_geranium_pratense_new_dimension/medium/52444273556_1a20415490_b.jpg","small_url":"https://perenual.com/storage/species_image/3165_geranium_pratense_new_dimension/small/52444273556_1a20415490_b.jpg","thumbnail":"https://perenual.com/storage/species_image/3165_geranium_pratense_new_dimension/thumbnail/52444273556_1a20415490_b.jpg"}},{"id":3166,"common_name":"meadow cranesbill","scientific_name":["Geranium pratense (Victor Reiter Junior strain)"],"other_name":null,"cycle":"Perennial","watering":"Average","sunlight":["Full sun","part shade"],"default_image":{"image_id":6812,"license":4,"license_name":"Attribution License","license_url":"https://creativecommons.org/licenses/by/2.0/","original_url":"https://perenual.com/storage/species_image/3166_geranium_pratense_victor_reiter_junior_strain/og/51430682583_77632fc910_b.jpg","regular_url":"https://perenual.com/storage/species_image/3166_geranium_pratense_victor_reiter_junior_strain/regular/51430682583_77632fc910_b.jpg","medium_url":"https://perenual.com/storage/species_image/3166_geranium_pratense_victor_reiter_junior_strain/medium/51430682583_77632fc910_b.jpg","small_url":"https://perenual.com/storage/species_image/3166_geranium_pratense_victor_reiter_junior_strain/small/51430682583_77632fc910_b.jpg","thumbnail":"https://perenual.com/storage/species_image/3166_geranium_pratense_victor_reiter_junior_strain/thumbnail/51430682583_77632fc910_b.jpg"}},{"id":3167,"common_name":"cranesbill","scientific_name":["Geranium psilostemon"],"other_name":null,"cycle":"Perennial","watering":"Average","sunlight":["Full sun","part shade"],"default_image":{"image_id":9,"license":5,"license_name":"Attribution-ShareAlike License","license_url":"https://creativecommons.org/licenses/by-sa/2.0/","original_url":"https://perenual.com/storage/species_image/2_abies_alba_pyramidalis/og/49255769768_df55596553_b.jpg","regular_url":"https://perenual.com/storage/species_image/2_abies_alba_pyramidalis/regular/49255769768_df55596553_b.jpg","medium_url":"https://perenual.com/storage/species_image/2_abies_alba_pyramidalis/medium/49255769768_df55596553_b.jpg","small_url":"https://perenual.com/storage/species_image/2_abies_alba_pyramidalis/small/49255769768_df55596553_b.jpg","thumbnail":"https://perenual.com/storage/species_image/2_abies_alba_pyramidalis/thumbnail/49255769768_df55596553_b.jpg"}},{"id":3168,"common_name":"cranesbill","scientific_name":["Geranium renardii"],"other_name":null,"cycle":"Perennial","watering":"Minimum","sunlight":["Full sun","part shade"],"default_image":{"image_id":6817,"license":5,"license_name":"Attribution-ShareAlike License","license_url":"https://creativecommons.org/licenses/by-sa/2.0/","original_url":"https://perenual.com/storage/species_image/3168_geranium_renardii/og/9665940026_5b6155d97a_b.jpg","regular_url":"https://perenual.com/storage/species_image/3168_geranium_renardii/regular/9665940026_5b6155d97a_b.jpg","medium_url":"https://perenual.com/storage/species_image/3168_geranium_renardii/medium/9665940026_5b6155d97a_b.jpg","small_url":"https://perenual.com/storage/species_image/3168_geranium_renardii/small/9665940026_5b6155d97a_b.jpg","thumbnail":"https://perenual.com/storage/species_image/3168_geranium_renardii/thumbnail/9665940026_5b6155d97a_b.jpg"}},{"id":3169,"common_name":"cranesbill","scientific_name":["Geranium riversleaianum 'Mavis Simpson'"],"other_name":null,"cycle":"Perennial","watering":"Minimum","sunlight":["Full sun","part shade"],"default_image":{"image_id":9,"license":5,"license_name":"Attribution-ShareAlike License","license_url":"https://creativecommons.org/licenses/by-sa/2.0/","original_url":"https://perenual.com/storage/species_image/2_abies_alba_pyramidalis/og/49255769768_df55596553_b.jpg","regular_url":"https://perenual.com/storage/species_image/2_abies_alba_pyramidalis/regular/49255769768_df55596553_b.jpg","medium_url":"https://perenual.com/storage/species_image/2_abies_alba_pyramidalis/medium/49255769768_df55596553_b.jpg","small_url":"https://perenual.com/storage/species_image/2_abies_alba_pyramidalis/small/49255769768_df55596553_b.jpg","thumbnail":"https://perenual.com/storage/species_image/2_abies_alba_pyramidalis/thumbnail/49255769768_df55596553_b.jpg"}},{"id":3170,"common_name":"bloody geranium","scientific_name":["Geranium sanguineum"],"other_name":null,"cycle":"Perennial","watering":"Average","sunlight":["Full sun"," Part sun/part shade"],"default_image":{"image_id":6822,"license":5,"license_name":"Attribution-ShareAlike License","license_url":"https://creativecommons.org/licenses/by-sa/2.0/","original_url":"https://perenual.com/storage/species_image/3170_geranium_sanguineum/og/52151429954_0aae324c6a_b.jpg","regular_url":"https://perenual.com/storage/species_image/3170_geranium_sanguineum/regular/52151429954_0aae324c6a_b.jpg","medium_url":"https://perenual.com/storage/species_image/3170_geranium_sanguineum/medium/52151429954_0aae324c6a_b.jpg","small_url":"https://perenual.com/storage/species_image/3170_geranium_sanguineum/small/52151429954_0aae324c6a_b.jpg","thumbnail":"https://perenual.com/storage/species_image/3170_geranium_sanguineum/thumbnail/52151429954_0aae324c6a_b.jpg"}},{"id":3171,"common_name":"bloody cranesbill","scientific_name":["Geranium sanguineum 'Alan Bloom'"],"other_name":null,"cycle":"Perennial","watering":"Average","sunlight":["Full sun"," Part sun/part shade"],"default_image":{"image_id":6823,"license":5,"license_name":"Attribution-ShareAlike License","license_url":"https://creativecommons.org/licenses/by-sa/2.0/","original_url":"https://perenual.com/storage/species_image/3171_geranium_sanguineum_alan_bloom/og/52151190321_cdba85d14c_b.jpg","regular_url":"https://perenual.com/storage/species_image/3171_geranium_sanguineum_alan_bloom/regular/52151190321_cdba85d14c_b.jpg","medium_url":"https://perenual.com/storage/species_image/3171_geranium_sanguineum_alan_bloom/medium/52151190321_cdba85d14c_b.jpg","small_url":"https://perenual.com/storage/species_image/3171_geranium_sanguineum_alan_bloom/small/52151190321_cdba85d14c_b.jpg","thumbnail":"https://perenual.com/storage/species_image/3171_geranium_sanguineum_alan_bloom/thumbnail/52151190321_cdba85d14c_b.jpg"}},{"id":3172,"common_name":"hardy geranium","scientific_name":["Geranium sanguineum 'Album'"],"other_name":null,"cycle":"Perennial","watering":"Average","sunlight":["Full sun"," Part sun/part shade"],"default_image":{"image_id":6826,"license":5,"license_name":"Attribution-ShareAlike License","license_url":"https://creativecommons.org/licenses/by-sa/2.0/","original_url":"https://perenual.com/storage/species_image/3172_geranium_sanguineum_album/og/33883014134_cbeeb21c2e_b.jpg","regular_url":"https://perenual.com/storage/species_image/3172_geranium_sanguineum_album/regular/33883014134_cbeeb21c2e_b.jpg","medium_url":"https://perenual.com/storage/species_image/3172_geranium_sanguineum_album/medium/33883014134_cbeeb21c2e_b.jpg","small_url":"https://perenual.com/storage/species_image/3172_geranium_sanguineum_album/small/33883014134_cbeeb21c2e_b.jpg","thumbnail":"https://perenual.com/storage/species_image/3172_geranium_sanguineum_album/thumbnail/33883014134_cbeeb21c2e_b.jpg"}},{"id":3173,"common_name":"bloody cranesbill","scientific_name":["Geranium sanguineum 'Elke'"],"other_name":null,"cycle":"Perennial","watering":"Average","sunlight":["Full sun"," Part sun/part shade"],"default_image":{"image_id":6828,"license":4,"license_name":"Attribution License","license_url":"https://creativecommons.org/licenses/by/2.0/","original_url":"https://perenual.com/storage/species_image/3173_geranium_sanguineum_elke/og/52143011903_0e997d49f6_b.jpg","regular_url":"https://perenual.com/storage/species_image/3173_geranium_sanguineum_elke/regular/52143011903_0e997d49f6_b.jpg","medium_url":"https://perenual.com/storage/species_image/3173_geranium_sanguineum_elke/medium/52143011903_0e997d49f6_b.jpg","small_url":"https://perenual.com/storage/species_image/3173_geranium_sanguineum_elke/small/52143011903_0e997d49f6_b.jpg","thumbnail":"https://perenual.com/storage/species_image/3173_geranium_sanguineum_elke/thumbnail/52143011903_0e997d49f6_b.jpg"}},{"id":3174,"common_name":"bloody cranesbill","scientific_name":["Geranium sanguineum 'John Elsley'"],"other_name":null,"cycle":"Perennial","watering":"Average","sunlight":["Full sun"," Part sun/part shade"],"default_image":{"image_id":6825,"license":4,"license_name":"Attribution License","license_url":"https://creativecommons.org/licenses/by/2.0/","original_url":"https://perenual.com/storage/species_image/3174_geranium_sanguineum_john_elsley/og/51597515634_92ddf12ca4_b.jpg","regular_url":"https://perenual.com/storage/species_image/3174_geranium_sanguineum_john_elsley/regular/51597515634_92ddf12ca4_b.jpg","medium_url":"https://perenual.com/storage/species_image/3174_geranium_sanguineum_john_elsley/medium/51597515634_92ddf12ca4_b.jpg","small_url":"https://perenual.com/storage/species_image/3174_geranium_sanguineum_john_elsley/small/51597515634_92ddf12ca4_b.jpg","thumbnail":"https://perenual.com/storage/species_image/3174_geranium_sanguineum_john_elsley/thumbnail/51597515634_92ddf12ca4_b.jpg"}},{"id":3175,"common_name":"bloody cranesbill","scientific_name":["Geranium sanguineum 'Little Bead'"],"other_name":null,"cycle":"Perennial","watering":"Average","sunlight":["Full sun"," Part sun/part shade"],"default_image":{"image_id":6830,"license":4,"license_name":"Attribution License","license_url":"https://creativecommons.org/licenses/by/2.0/","original_url":"https://perenual.com/storage/species_image/3183_geranium_tanya_rendall/og/52164340919_53ed2aeea9_b.jpg","regular_url":"https://perenual.com/storage/species_image/3183_geranium_tanya_rendall/regular/52164340919_53ed2aeea9_b.jpg","medium_url":"https://perenual.com/storage/species_image/3183_geranium_tanya_rendall/medium/52164340919_53ed2aeea9_b.jpg","small_url":"https://perenual.com/storage/species_image/3183_geranium_tanya_rendall/small/52164340919_53ed2aeea9_b.jpg","thumbnail":"https://perenual.com/storage/species_image/3183_geranium_tanya_rendall/thumbnail/52164340919_53ed2aeea9_b.jpg"}},{"id":3176,"common_name":"bloody cranesbill","scientific_name":["Geranium sanguineum 'Max Frei'"],"other_name":null,"cycle":"Perennial","watering":"Average","sunlight":["Full sun"," Part sun/part shade"],"default_image":{"image_id":6822,"license":5,"license_name":"Attribution-ShareAlike License","license_url":"https://creativecommons.org/licenses/by-sa/2.0/","original_url":"https://perenual.com/storage/species_image/3170_geranium_sanguineum/og/52151429954_0aae324c6a_b.jpg","regular_url":"https://perenual.com/storage/species_image/3170_geranium_sanguineum/regular/52151429954_0aae324c6a_b.jpg","medium_url":"https://perenual.com/storage/species_image/3170_geranium_sanguineum/medium/52151429954_0aae324c6a_b.jpg","small_url":"https://perenual.com/storage/species_image/3170_geranium_sanguineum/small/52151429954_0aae324c6a_b.jpg","thumbnail":"https://perenual.com/storage/species_image/3170_geranium_sanguineum/thumbnail/52151429954_0aae324c6a_b.jpg"}},{"id":3177,"common_name":"bloody cranesbill","scientific_name":["Geranium sanguineum 'New Hampshire Purple'"],"other_name":null,"cycle":"Perennial","watering":"Average","sunlight":["Full sun"," Part sun/part shade"],"default_image":{"image_id":6833,"license":5,"license_name":"Attribution-ShareAlike License","license_url":"https://creativecommons.org/licenses/by-sa/2.0/","original_url":"https://perenual.com/storage/species_image/3177_geranium_sanguineum_new_hampshire_purple/og/52151194523_3629c78a39_b.jpg","regular_url":"https://perenual.com/storage/species_image/3177_geranium_sanguineum_new_hampshire_purple/regular/52151194523_3629c78a39_b.jpg","medium_url":"https://perenual.com/storage/species_image/3177_geranium_sanguineum_new_hampshire_purple/medium/52151194523_3629c78a39_b.jpg","small_url":"https://perenual.com/storage/species_image/3177_geranium_sanguineum_new_hampshire_purple/small/52151194523_3629c78a39_b.jpg","thumbnail":"https://perenual.com/storage/species_image/3177_geranium_sanguineum_new_hampshire_purple/thumbnail/52151194523_3629c78a39_b.jpg"}},{"id":3178,"common_name":"bloody cranesbill","scientific_name":["Geranium sanguineum var. striatum"],"other_name":null,"cycle":"Perennial","watering":"Average","sunlight":["Full sun"," Part sun/part shade"],"default_image":{"image_id":9,"license":5,"license_name":"Attribution-ShareAlike License","license_url":"https://creativecommons.org/licenses/by-sa/2.0/","original_url":"https://perenual.com/storage/species_image/2_abies_alba_pyramidalis/og/49255769768_df55596553_b.jpg","regular_url":"https://perenual.com/storage/species_image/2_abies_alba_pyramidalis/regular/49255769768_df55596553_b.jpg","medium_url":"https://perenual.com/storage/species_image/2_abies_alba_pyramidalis/medium/49255769768_df55596553_b.jpg","small_url":"https://perenual.com/storage/species_image/2_abies_alba_pyramidalis/small/49255769768_df55596553_b.jpg","thumbnail":"https://perenual.com/storage/species_image/2_abies_alba_pyramidalis/thumbnail/49255769768_df55596553_b.jpg"}},{"id":3179,"common_name":"bloody cranesbill","scientific_name":["Geranium sanguineum 'Vision'"],"other_name":null,"cycle":"Perennial","watering":"Average","sunlight":["Full sun"," Part sun/part shade"],"default_image":{"image_id":6740,"license":5,"license_name":"Attribution-ShareAlike License","license_url":"https://creativecommons.org/licenses/by-sa/2.0/","original_url":"https://perenual.com/storage/species_image/3179_geranium_sanguineum_vision/og/52155730323_9189c2e49b_b.jpg","regular_url":"https://perenual.com/storage/species_image/3179_geranium_sanguineum_vision/regular/52155730323_9189c2e49b_b.jpg","medium_url":"https://perenual.com/storage/species_image/3179_geranium_sanguineum_vision/medium/52155730323_9189c2e49b_b.jpg","small_url":"https://perenual.com/storage/species_image/3179_geranium_sanguineum_vision/small/52155730323_9189c2e49b_b.jpg","thumbnail":"https://perenual.com/storage/species_image/3179_geranium_sanguineum_vision/thumbnail/52155730323_9189c2e49b_b.jpg"}},{"id":3180,"common_name":"hardy geranium","scientific_name":["Geranium subcaulescens"],"other_name":null,"cycle":"Perennial","watering":"Minimum","sunlight":["Full sun","part shade"],"default_image":{"image_id":6839,"license":5,"license_name":"Attribution-ShareAlike License","license_url":"https://creativecommons.org/licenses/by-sa/2.0/","original_url":"https://perenual.com/storage/species_image/3180_geranium_subcaulescens/og/33664759486_e3203be331_b.jpg","regular_url":"https://perenual.com/storage/species_image/3180_geranium_subcaulescens/regular/33664759486_e3203be331_b.jpg","medium_url":"https://perenual.com/storage/species_image/3180_geranium_subcaulescens/medium/33664759486_e3203be331_b.jpg","small_url":"https://perenual.com/storage/species_image/3180_geranium_subcaulescens/small/33664759486_e3203be331_b.jpg","thumbnail":"https://perenual.com/storage/species_image/3180_geranium_subcaulescens/thumbnail/33664759486_e3203be331_b.jpg"}}],"to":3180,"per_page":30,"current_page":106,"from":3151,"last_page":200,"total":6000}