{"data":[{"id":1651,"common_name":"palm sedge","scientific_name":["Carex muskingumensis 'Oehme'"],"other_name":["Swamp Oval Sedge"],"cycle":"Perennial","watering":"Frequent","sunlight":[],"default_image":{"image_id":9,"license":5,"license_name":"Attribution-ShareAlike License","license_url":"https://creativecommons.org/licenses/by-sa/2.0/","original_url":"https://perenual.com/storage/species_image/2_abies_alba_pyramidalis/og/49255769768_df55596553_b.jpg","regular_url":"https://perenual.com/storage/species_image/2_abies_alba_pyramidalis/regular/49255769768_df55596553_b.jpg","medium_url":"https://perenual.com/storage/species_image/2_abies_alba_pyramidalis/medium/49255769768_df55596553_b.jpg","small_url":"https://perenual.com/storage/species_image/2_abies_alba_pyramidalis/small/49255769768_df55596553_b.jpg","thumbnail":"https://perenual.com/storage/species_image/2_abies_alba_pyramidalis/thumbnail/49255769768_df55596553_b.jpg"}},{"id":1652,"common_name":"palm sedge","scientific_name":["Carex muskingumensis 'Wachtposten'"],"other_name":["Swamp Oval Sedge"],"cycle":"Perennial","watering":"Frequent","sunlight":[],"default_image":{"image_id":3879,"license":4,"license_name":"Attribution License","license_url":"https://creativecommons.org/licenses/by/2.0/","original_url":"https://perenual.com/storage/species_image/1663_carex_phoenix_green/og/52559573094_1fc0e7e076_b.jpg","regular_url":"https://perenual.com/storage/species_image/1663_carex_phoenix_green/regular/52559573094_1fc0e7e076_b.jpg","medium_url":"https://perenual.com/storage/species_image/1663_carex_phoenix_green/medium/52559573094_1fc0e7e076_b.jpg","small_url":"https://perenual.com/storage/species_image/1663_carex_phoenix_green/small/52559573094_1fc0e7e076_b.jpg","thumbnail":"https://perenual.com/storage/species_image/1663_carex_phoenix_green/thumbnail/52559573094_1fc0e7e076_b.jpg"}},{"id":1653,"common_name":"black sedge","scientific_name":["Carex nigra"],"other_name":["Smooth Black Sedge"],"cycle":"Perennial","watering":"Frequent","sunlight":["Sun"," Partial Shade"],"default_image":{"image_id":9,"license":5,"license_name":"Attribution-ShareAlike License","license_url":"https://creativecommons.org/licenses/by-sa/2.0/","original_url":"https://perenual.com/storage/species_image/2_abies_alba_pyramidalis/og/49255769768_df55596553_b.jpg","regular_url":"https://perenual.com/storage/species_image/2_abies_alba_pyramidalis/regular/49255769768_df55596553_b.jpg","medium_url":"https://perenual.com/storage/species_image/2_abies_alba_pyramidalis/medium/49255769768_df55596553_b.jpg","small_url":"https://perenual.com/storage/species_image/2_abies_alba_pyramidalis/small/49255769768_df55596553_b.jpg","thumbnail":"https://perenual.com/storage/species_image/2_abies_alba_pyramidalis/thumbnail/49255769768_df55596553_b.jpg"}},{"id":1654,"common_name":"black sedge","scientific_name":["Carex nigra 'Variegata'"],"other_name":["Smooth Black Sedge"],"cycle":"Perennial","watering":"Frequent","sunlight":["Sun"," Partial Shade"],"default_image":{"image_id":3882,"license":5,"license_name":"Attribution-ShareAlike License","license_url":"https://creativecommons.org/licenses/by-sa/2.0/","original_url":"https://perenual.com/storage/species_image/9757_carex_nigricans/og/52513913069_bfa3e0b736_b.jpg","regular_url":"https://perenual.com/storage/species_image/9757_carex_nigricans/regular/52513913069_bfa3e0b736_b.jpg","medium_url":"https://perenual.com/storage/species_image/9757_carex_nigricans/medium/52513913069_bfa3e0b736_b.jpg","small_url":"https://perenual.com/storage/species_image/9757_carex_nigricans/small/52513913069_bfa3e0b736_b.jpg","thumbnail":"https://perenual.com/storage/species_image/9757_carex_nigricans/thumbnail/52513913069_bfa3e0b736_b.jpg"}},{"id":1655,"common_name":"greater straw sedge","scientific_name":["Carex normalis"],"other_name":null,"cycle":"Perennial","watering":"Frequent","sunlight":["Sun"," Partial Shade"],"default_image":{"image_id":9,"license":5,"license_name":"Attribution-ShareAlike License","license_url":"https://creativecommons.org/licenses/by-sa/2.0/","original_url":"https://perenual.com/storage/species_image/2_abies_alba_pyramidalis/og/49255769768_df55596553_b.jpg","regular_url":"https://perenual.com/storage/species_image/2_abies_alba_pyramidalis/regular/49255769768_df55596553_b.jpg","medium_url":"https://perenual.com/storage/species_image/2_abies_alba_pyramidalis/medium/49255769768_df55596553_b.jpg","small_url":"https://perenual.com/storage/species_image/2_abies_alba_pyramidalis/small/49255769768_df55596553_b.jpg","thumbnail":"https://perenual.com/storage/species_image/2_abies_alba_pyramidalis/thumbnail/49255769768_df55596553_b.jpg"}},{"id":1656,"common_name":"sedge","scientific_name":["Carex oshimensis 'CarFit01' EVERCOLOR EVEREST"],"other_name":null,"cycle":"Perennial","watering":"Frequent","sunlight":["Part shade"],"default_image":{"image_id":3886,"license":45,"license_name":"Attribution-ShareAlike 3.0 Unported (CC BY-SA 3.0)","license_url":"https://creativecommons.org/licenses/by-sa/3.0/deed.en","original_url":"https://perenual.com/storage/species_image/1656_carex_oshimensis_carfit01_evercolor_everest/og/Carex_oshimensis_Evergold_3zz.jpg","regular_url":"https://perenual.com/storage/species_image/1656_carex_oshimensis_carfit01_evercolor_everest/regular/Carex_oshimensis_Evergold_3zz.jpg","medium_url":"https://perenual.com/storage/species_image/1656_carex_oshimensis_carfit01_evercolor_everest/medium/Carex_oshimensis_Evergold_3zz.jpg","small_url":"https://perenual.com/storage/species_image/1656_carex_oshimensis_carfit01_evercolor_everest/small/Carex_oshimensis_Evergold_3zz.jpg","thumbnail":"https://perenual.com/storage/species_image/1656_carex_oshimensis_carfit01_evercolor_everest/thumbnail/Carex_oshimensis_Evergold_3zz.jpg"}},{"id":1657,"common_name":"sedge","scientific_name":["Carex oshimensis 'Evergold'"],"other_name":null,"cycle":"Perennial","watering":"Frequent","sunlight":["Part shade"],"default_image":{"image_id":9,"license":5,"license_name":"Attribution-ShareAlike License","license_url":"https://creativecommons.org/licenses/by-sa/2.0/","original_url":"https://perenual.com/storage/species_image/2_abies_alba_pyramidalis/og/49255769768_df55596553_b.jpg","regular_url":"https://perenual.com/storage/species_image/2_abies_alba_pyramidalis/regular/49255769768_df55596553_b.jpg","medium_url":"https://perenual.com/storage/species_image/2_abies_alba_pyramidalis/medium/49255769768_df55596553_b.jpg","small_url":"https://perenual.com/storage/species_image/2_abies_alba_pyramidalis/small/49255769768_df55596553_b.jpg","thumbnail":"https://perenual.com/storage/species_image/2_abies_alba_pyramidalis/thumbnail/49255769768_df55596553_b.jpg"}},{"id":1658,"common_name":"sedge","scientific_name":["Carex oshimensis 'Everillo'"],"other_name":null,"cycle":"Perennial","watering":"Frequent","sunlight":["Part shade"],"default_image":{"image_id":3888,"license":5,"license_name":"Attribution-ShareAlike License","license_url":"https://creativecommons.org/licenses/by-sa/2.0/","original_url":"https://perenual.com/storage/species_image/9565_carex_aurea/og/48139383067_3880154662_b.jpg","regular_url":"https://perenual.com/storage/species_image/9565_carex_aurea/regular/48139383067_3880154662_b.jpg","medium_url":"https://perenual.com/storage/species_image/9565_carex_aurea/medium/48139383067_3880154662_b.jpg","small_url":"https://perenual.com/storage/species_image/9565_carex_aurea/small/48139383067_3880154662_b.jpg","thumbnail":"https://perenual.com/storage/species_image/9565_carex_aurea/thumbnail/48139383067_3880154662_b.jpg"}},{"id":1659,"common_name":"sedge","scientific_name":["Carex oshimensis 'Everoro'"],"other_name":null,"cycle":"Perennial","watering":"Frequent","sunlight":["Part shade"],"default_image":{"image_id":3890,"license":45,"license_name":"Attribution-ShareAlike 3.0 Unported (CC BY-SA 3.0)","license_url":"https://creativecommons.org/licenses/by-sa/3.0/deed.en","original_url":"https://perenual.com/storage/species_image/1659_carex_oshimensis_everoro/og/Evergold_Sedge_Carex_oshimensis_%27Evergold%27_Leaves_3008px.jpg","regular_url":"https://perenual.com/storage/species_image/1659_carex_oshimensis_everoro/regular/Evergold_Sedge_Carex_oshimensis_%27Evergold%27_Leaves_3008px.jpg","medium_url":"https://perenual.com/storage/species_image/1659_carex_oshimensis_everoro/medium/Evergold_Sedge_Carex_oshimensis_%27Evergold%27_Leaves_3008px.jpg","small_url":"https://perenual.com/storage/species_image/1659_carex_oshimensis_everoro/small/Evergold_Sedge_Carex_oshimensis_%27Evergold%27_Leaves_3008px.jpg","thumbnail":"https://perenual.com/storage/species_image/1659_carex_oshimensis_everoro/thumbnail/Evergold_Sedge_Carex_oshimensis_%27Evergold%27_Leaves_3008px.jpg"}},{"id":1660,"common_name":"sedge","scientific_name":["Carex oshimensis 'Gold Strike'"],"other_name":null,"cycle":"Perennial","watering":"Frequent","sunlight":["Part shade"],"default_image":{"image_id":3891,"license":45,"license_name":"Attribution-ShareAlike 3.0 Unported (CC BY-SA 3.0)","license_url":"https://creativecommons.org/licenses/by-sa/3.0/deed.en","original_url":"https://perenual.com/storage/species_image/1660_carex_oshimensis_gold_strike/og/Carex_oshimensis_Evergold_2zz.jpg","regular_url":"https://perenual.com/storage/species_image/1660_carex_oshimensis_gold_strike/regular/Carex_oshimensis_Evergold_2zz.jpg","medium_url":"https://perenual.com/storage/species_image/1660_carex_oshimensis_gold_strike/medium/Carex_oshimensis_Evergold_2zz.jpg","small_url":"https://perenual.com/storage/species_image/1660_carex_oshimensis_gold_strike/small/Carex_oshimensis_Evergold_2zz.jpg","thumbnail":"https://perenual.com/storage/species_image/1660_carex_oshimensis_gold_strike/thumbnail/Carex_oshimensis_Evergold_2zz.jpg"}},{"id":1661,"common_name":"sedge","scientific_name":["Carex pensylvanica"],"other_name":["Pennsylvania Sedge"],"cycle":"Perennial","watering":"Minimum","sunlight":["Sun"," Partial Shade"," Shade"],"default_image":{"image_id":3895,"license":5,"license_name":"Attribution-ShareAlike License","license_url":"https://creativecommons.org/licenses/by-sa/2.0/","original_url":"https://perenual.com/storage/species_image/1661_carex_pensylvanica/og/16955854017_9859e74b0b_b.jpg","regular_url":"https://perenual.com/storage/species_image/1661_carex_pensylvanica/regular/16955854017_9859e74b0b_b.jpg","medium_url":"https://perenual.com/storage/species_image/1661_carex_pensylvanica/medium/16955854017_9859e74b0b_b.jpg","small_url":"https://perenual.com/storage/species_image/1661_carex_pensylvanica/small/16955854017_9859e74b0b_b.jpg","thumbnail":"https://perenual.com/storage/species_image/1661_carex_pensylvanica/thumbnail/16955854017_9859e74b0b_b.jpg"}},{"id":1662,"common_name":"sedge","scientific_name":["Carex pensylvanica 'Straw Hat'"],"other_name":["Pennsylvania Sedge"],"cycle":"Perennial","watering":"Minimum","sunlight":["Sun"," Partial Shade"," Shade"],"default_image":null},{"id":1663,"common_name":"sedge","scientific_name":["Carex 'Phoenix Green'"],"other_name":null,"cycle":"Perennial","watering":"Frequent","sunlight":["Part shade","full shade"],"default_image":{"image_id":3879,"license":4,"license_name":"Attribution License","license_url":"https://creativecommons.org/licenses/by/2.0/","original_url":"https://perenual.com/storage/species_image/1663_carex_phoenix_green/og/52559573094_1fc0e7e076_b.jpg","regular_url":"https://perenual.com/storage/species_image/1663_carex_phoenix_green/regular/52559573094_1fc0e7e076_b.jpg","medium_url":"https://perenual.com/storage/species_image/1663_carex_phoenix_green/medium/52559573094_1fc0e7e076_b.jpg","small_url":"https://perenual.com/storage/species_image/1663_carex_phoenix_green/small/52559573094_1fc0e7e076_b.jpg","thumbnail":"https://perenual.com/storage/species_image/1663_carex_phoenix_green/thumbnail/52559573094_1fc0e7e076_b.jpg"}},{"id":1664,"common_name":"sedge","scientific_name":["Carex phyllocephala 'Sparkler'"],"other_name":null,"cycle":"Perennial","watering":"Frequent","sunlight":["Part shade","full shade"],"default_image":{"image_id":3897,"license":5,"license_name":"Attribution-ShareAlike License","license_url":"https://creativecommons.org/licenses/by-sa/2.0/","original_url":"https://perenual.com/storage/species_image/1664_carex_phyllocephala_sparkler/og/4849526330_1b8f8837ce_b.jpg","regular_url":"https://perenual.com/storage/species_image/1664_carex_phyllocephala_sparkler/regular/4849526330_1b8f8837ce_b.jpg","medium_url":"https://perenual.com/storage/species_image/1664_carex_phyllocephala_sparkler/medium/4849526330_1b8f8837ce_b.jpg","small_url":"https://perenual.com/storage/species_image/1664_carex_phyllocephala_sparkler/small/4849526330_1b8f8837ce_b.jpg","thumbnail":"https://perenual.com/storage/species_image/1664_carex_phyllocephala_sparkler/thumbnail/4849526330_1b8f8837ce_b.jpg"}},{"id":1665,"common_name":"clustered field sedge","scientific_name":["Carex praegracilis"],"other_name":["Freeway Sedge","Field Sedge","Field Sedge"],"cycle":"Perennial","watering":"Frequent","sunlight":["Sun"],"default_image":{"image_id":3898,"license":4,"license_name":"Attribution License","license_url":"https://creativecommons.org/licenses/by/2.0/","original_url":"https://perenual.com/storage/species_image/1665_carex_praegracilis/og/50219839618_6d6e20dc7f_b.jpg","regular_url":"https://perenual.com/storage/species_image/1665_carex_praegracilis/regular/50219839618_6d6e20dc7f_b.jpg","medium_url":"https://perenual.com/storage/species_image/1665_carex_praegracilis/medium/50219839618_6d6e20dc7f_b.jpg","small_url":"https://perenual.com/storage/species_image/1665_carex_praegracilis/small/50219839618_6d6e20dc7f_b.jpg","thumbnail":"https://perenual.com/storage/species_image/1665_carex_praegracilis/thumbnail/50219839618_6d6e20dc7f_b.jpg"}},{"id":1666,"common_name":"eastern star sedge","scientific_name":["Carex radiata"],"other_name":["Eastern Star Sedge"],"cycle":"Perennial","watering":"Frequent","sunlight":["Partial Shade"," Deciduous Shade (Spring Sun)"],"default_image":{"image_id":9,"license":5,"license_name":"Attribution-ShareAlike License","license_url":"https://creativecommons.org/licenses/by-sa/2.0/","original_url":"https://perenual.com/storage/species_image/2_abies_alba_pyramidalis/og/49255769768_df55596553_b.jpg","regular_url":"https://perenual.com/storage/species_image/2_abies_alba_pyramidalis/regular/49255769768_df55596553_b.jpg","medium_url":"https://perenual.com/storage/species_image/2_abies_alba_pyramidalis/medium/49255769768_df55596553_b.jpg","small_url":"https://perenual.com/storage/species_image/2_abies_alba_pyramidalis/small/49255769768_df55596553_b.jpg","thumbnail":"https://perenual.com/storage/species_image/2_abies_alba_pyramidalis/thumbnail/49255769768_df55596553_b.jpg"}},{"id":1667,"common_name":"reflexed sedge","scientific_name":["Carex retroflexa"],"other_name":null,"cycle":"Perennial","watering":"Minimum","sunlight":["Partial Shade"," Deciduous Shade (Spring Sun)"],"default_image":{"image_id":9,"license":5,"license_name":"Attribution-ShareAlike License","license_url":"https://creativecommons.org/licenses/by-sa/2.0/","original_url":"https://perenual.com/storage/species_image/2_abies_alba_pyramidalis/og/49255769768_df55596553_b.jpg","regular_url":"https://perenual.com/storage/species_image/2_abies_alba_pyramidalis/regular/49255769768_df55596553_b.jpg","medium_url":"https://perenual.com/storage/species_image/2_abies_alba_pyramidalis/medium/49255769768_df55596553_b.jpg","small_url":"https://perenual.com/storage/species_image/2_abies_alba_pyramidalis/small/49255769768_df55596553_b.jpg","thumbnail":"https://perenual.com/storage/species_image/2_abies_alba_pyramidalis/thumbnail/49255769768_df55596553_b.jpg"}},{"id":1668,"common_name":"sedge","scientific_name":["Carex siderosticha 'Banana Boat'"],"other_name":null,"cycle":"Perennial","watering":"Frequent","sunlight":["Part shade","full shade"],"default_image":{"image_id":9,"license":5,"license_name":"Attribution-ShareAlike License","license_url":"https://creativecommons.org/licenses/by-sa/2.0/","original_url":"https://perenual.com/storage/species_image/2_abies_alba_pyramidalis/og/49255769768_df55596553_b.jpg","regular_url":"https://perenual.com/storage/species_image/2_abies_alba_pyramidalis/regular/49255769768_df55596553_b.jpg","medium_url":"https://perenual.com/storage/species_image/2_abies_alba_pyramidalis/medium/49255769768_df55596553_b.jpg","small_url":"https://perenual.com/storage/species_image/2_abies_alba_pyramidalis/small/49255769768_df55596553_b.jpg","thumbnail":"https://perenual.com/storage/species_image/2_abies_alba_pyramidalis/thumbnail/49255769768_df55596553_b.jpg"}},{"id":1669,"common_name":"sedge","scientific_name":["Carex siderosticha 'Kisokaido' SPRING SNOW"],"other_name":null,"cycle":"Perennial","watering":"Frequent","sunlight":["Part shade","full shade"],"default_image":{"image_id":21009,"license":45,"license_name":"Attribution-ShareAlike 3.0 Unported (CC BY-SA 3.0)","license_url":"https://creativecommons.org/licenses/by-sa/3.0/deed.en","original_url":"https://perenual.com/storage/species_image/1669_carex_siderosticha_kisokaido_spring_snow/og/Carex_siderosticta_Variegata_1zz.jpg","regular_url":"https://perenual.com/storage/species_image/1669_carex_siderosticha_kisokaido_spring_snow/regular/Carex_siderosticta_Variegata_1zz.jpg","medium_url":"https://perenual.com/storage/species_image/1669_carex_siderosticha_kisokaido_spring_snow/medium/Carex_siderosticta_Variegata_1zz.jpg","small_url":"https://perenual.com/storage/species_image/1669_carex_siderosticha_kisokaido_spring_snow/small/Carex_siderosticta_Variegata_1zz.jpg","thumbnail":"https://perenual.com/storage/species_image/1669_carex_siderosticha_kisokaido_spring_snow/thumbnail/Carex_siderosticta_Variegata_1zz.jpg"}},{"id":1670,"common_name":"sedge","scientific_name":["Carex siderosticha 'Lemon Zest'"],"other_name":null,"cycle":"Perennial","watering":"Frequent","sunlight":["Part shade","full shade"],"default_image":null},{"id":1671,"common_name":"sedge","scientific_name":["Carex siderosticha 'Shima-nishiki' ISLAND BROCADE"],"other_name":null,"cycle":"Perennial","watering":"Frequent","sunlight":["Part shade","full shade"],"default_image":{"image_id":21010,"license":45,"license_name":"Attribution-ShareAlike 3.0 Unported (CC BY-SA 3.0)","license_url":"https://creativecommons.org/licenses/by-sa/3.0/deed.en","original_url":"https://perenual.com/storage/species_image/1671_carex_siderosticha_shima-nishiki_island_brocade/og/800px-Carex_siderosticha_Variegata_2016-04-22_8583.jpg","regular_url":"https://perenual.com/storage/species_image/1671_carex_siderosticha_shima-nishiki_island_brocade/regular/800px-Carex_siderosticha_Variegata_2016-04-22_8583.jpg","medium_url":"https://perenual.com/storage/species_image/1671_carex_siderosticha_shima-nishiki_island_brocade/medium/800px-Carex_siderosticha_Variegata_2016-04-22_8583.jpg","small_url":"https://perenual.com/storage/species_image/1671_carex_siderosticha_shima-nishiki_island_brocade/small/800px-Carex_siderosticha_Variegata_2016-04-22_8583.jpg","thumbnail":"https://perenual.com/storage/species_image/1671_carex_siderosticha_shima-nishiki_island_brocade/thumbnail/800px-Carex_siderosticha_Variegata_2016-04-22_8583.jpg"}},{"id":1672,"common_name":"sedge","scientific_name":["Carex 'Silver Sceptre'"],"other_name":null,"cycle":"Perennial","watering":"Frequent","sunlight":["Part shade","full shade"],"default_image":{"image_id":3904,"license":45,"license_name":"Attribution-ShareAlike 3.0 Unported (CC BY-SA 3.0)","license_url":"https://creativecommons.org/licenses/by-sa/3.0/deed.en","original_url":"https://perenual.com/storage/species_image/1672_carex_silver_sceptre/og/Carex_morrowii_Silver_Sceptre_0zz.jpg","regular_url":"https://perenual.com/storage/species_image/1672_carex_silver_sceptre/regular/Carex_morrowii_Silver_Sceptre_0zz.jpg","medium_url":"https://perenual.com/storage/species_image/1672_carex_silver_sceptre/medium/Carex_morrowii_Silver_Sceptre_0zz.jpg","small_url":"https://perenual.com/storage/species_image/1672_carex_silver_sceptre/small/Carex_morrowii_Silver_Sceptre_0zz.jpg","thumbnail":"https://perenual.com/storage/species_image/1672_carex_silver_sceptre/thumbnail/Carex_morrowii_Silver_Sceptre_0zz.jpg"}},{"id":1673,"common_name":"squarrose sedge","scientific_name":["Carex squarrosa"],"other_name":null,"cycle":"Perennial","watering":"Frequent","sunlight":["Sun"," Partial Shade"],"default_image":{"image_id":3910,"license":4,"license_name":"Attribution License","license_url":"https://creativecommons.org/licenses/by/2.0/","original_url":"https://perenual.com/storage/species_image/1673_carex_squarrosa/og/49783395316_52d4e67610_b.jpg","regular_url":"https://perenual.com/storage/species_image/1673_carex_squarrosa/regular/49783395316_52d4e67610_b.jpg","medium_url":"https://perenual.com/storage/species_image/1673_carex_squarrosa/medium/49783395316_52d4e67610_b.jpg","small_url":"https://perenual.com/storage/species_image/1673_carex_squarrosa/small/49783395316_52d4e67610_b.jpg","thumbnail":"https://perenual.com/storage/species_image/1673_carex_squarrosa/thumbnail/49783395316_52d4e67610_b.jpg"}},{"id":1674,"common_name":"tussock sedge","scientific_name":["Carex stricta"],"other_name":["Upright Sedge"],"cycle":"Perennial","watering":"Frequent","sunlight":[],"default_image":{"image_id":3912,"license":5,"license_name":"Attribution-ShareAlike License","license_url":"https://creativecommons.org/licenses/by-sa/2.0/","original_url":"https://perenual.com/storage/species_image/1674_carex_stricta/og/6405964869_b5ab595d57_b.jpg","regular_url":"https://perenual.com/storage/species_image/1674_carex_stricta/regular/6405964869_b5ab595d57_b.jpg","medium_url":"https://perenual.com/storage/species_image/1674_carex_stricta/medium/6405964869_b5ab595d57_b.jpg","small_url":"https://perenual.com/storage/species_image/1674_carex_stricta/small/6405964869_b5ab595d57_b.jpg","thumbnail":"https://perenual.com/storage/species_image/1674_carex_stricta/thumbnail/6405964869_b5ab595d57_b.jpg"}},{"id":1675,"common_name":"sedge","scientific_name":["Carex swanii"],"other_name":null,"cycle":"Perennial","watering":"Frequent","sunlight":[],"default_image":{"image_id":3915,"license":4,"license_name":"Attribution License","license_url":"https://creativecommons.org/licenses/by/2.0/","original_url":"https://perenual.com/storage/species_image/1675_carex_swanii/og/32017661012_4e6f17d294_b.jpg","regular_url":"https://perenual.com/storage/species_image/1675_carex_swanii/regular/32017661012_4e6f17d294_b.jpg","medium_url":"https://perenual.com/storage/species_image/1675_carex_swanii/medium/32017661012_4e6f17d294_b.jpg","small_url":"https://perenual.com/storage/species_image/1675_carex_swanii/small/32017661012_4e6f17d294_b.jpg","thumbnail":"https://perenual.com/storage/species_image/1675_carex_swanii/thumbnail/32017661012_4e6f17d294_b.jpg"}},{"id":1676,"common_name":"Berkeley sedge","scientific_name":["Carex tumulicola"],"other_name":["Splitawn Sedge"],"cycle":"Perennial","watering":"Frequent","sunlight":["Sun"," Partial Shade"],"default_image":{"image_id":9,"license":5,"license_name":"Attribution-ShareAlike License","license_url":"https://creativecommons.org/licenses/by-sa/2.0/","original_url":"https://perenual.com/storage/species_image/2_abies_alba_pyramidalis/og/49255769768_df55596553_b.jpg","regular_url":"https://perenual.com/storage/species_image/2_abies_alba_pyramidalis/regular/49255769768_df55596553_b.jpg","medium_url":"https://perenual.com/storage/species_image/2_abies_alba_pyramidalis/medium/49255769768_df55596553_b.jpg","small_url":"https://perenual.com/storage/species_image/2_abies_alba_pyramidalis/small/49255769768_df55596553_b.jpg","thumbnail":"https://perenual.com/storage/species_image/2_abies_alba_pyramidalis/thumbnail/49255769768_df55596553_b.jpg"}},{"id":1677,"common_name":"fox sedge","scientific_name":["Carex vulpinoidea"],"other_name":null,"cycle":"Perennial","watering":"Frequent","sunlight":["Sun"],"default_image":{"image_id":3920,"license":5,"license_name":"Attribution-ShareAlike License","license_url":"https://creativecommons.org/licenses/by-sa/2.0/","original_url":"https://perenual.com/storage/species_image/1677_carex_vulpinoidea/og/50025444643_39b8298937_b.jpg","regular_url":"https://perenual.com/storage/species_image/1677_carex_vulpinoidea/regular/50025444643_39b8298937_b.jpg","medium_url":"https://perenual.com/storage/species_image/1677_carex_vulpinoidea/medium/50025444643_39b8298937_b.jpg","small_url":"https://perenual.com/storage/species_image/1677_carex_vulpinoidea/small/50025444643_39b8298937_b.jpg","thumbnail":"https://perenual.com/storage/species_image/1677_carex_vulpinoidea/thumbnail/50025444643_39b8298937_b.jpg"}},{"id":1678,"common_name":"papaya","scientific_name":["Carica papaya"],"other_name":null,"cycle":"Perennial","watering":"Average","sunlight":["Full sun"],"default_image":{"image_id":3925,"license":5,"license_name":"Attribution-ShareAlike License","license_url":"https://creativecommons.org/licenses/by-sa/2.0/","original_url":"https://perenual.com/storage/species_image/1679_carica_papaya_t_r_hovey/og/52373183446_465031bf6a_b.jpg","regular_url":"https://perenual.com/storage/species_image/1679_carica_papaya_t_r_hovey/regular/52373183446_465031bf6a_b.jpg","medium_url":"https://perenual.com/storage/species_image/1679_carica_papaya_t_r_hovey/medium/52373183446_465031bf6a_b.jpg","small_url":"https://perenual.com/storage/species_image/1679_carica_papaya_t_r_hovey/small/52373183446_465031bf6a_b.jpg","thumbnail":"https://perenual.com/storage/species_image/1679_carica_papaya_t_r_hovey/thumbnail/52373183446_465031bf6a_b.jpg"}},{"id":1679,"common_name":"papaya","scientific_name":["Carica papaya 'T. R. Hovey'"],"other_name":null,"cycle":"Perennial","watering":"Average","sunlight":["Full sun"],"default_image":{"image_id":3925,"license":5,"license_name":"Attribution-ShareAlike License","license_url":"https://creativecommons.org/licenses/by-sa/2.0/","original_url":"https://perenual.com/storage/species_image/1679_carica_papaya_t_r_hovey/og/52373183446_465031bf6a_b.jpg","regular_url":"https://perenual.com/storage/species_image/1679_carica_papaya_t_r_hovey/regular/52373183446_465031bf6a_b.jpg","medium_url":"https://perenual.com/storage/species_image/1679_carica_papaya_t_r_hovey/medium/52373183446_465031bf6a_b.jpg","small_url":"https://perenual.com/storage/species_image/1679_carica_papaya_t_r_hovey/small/52373183446_465031bf6a_b.jpg","thumbnail":"https://perenual.com/storage/species_image/1679_carica_papaya_t_r_hovey/thumbnail/52373183446_465031bf6a_b.jpg"}},{"id":1680,"common_name":"bush anemone","scientific_name":["Carpenteria californica 'Elizabeth'"],"other_name":null,"cycle":"Perennial","watering":"Minimum","sunlight":["Full sun","part shade"],"default_image":{"image_id":9,"license":5,"license_name":"Attribution-ShareAlike License","license_url":"https://creativecommons.org/licenses/by-sa/2.0/","original_url":"https://perenual.com/storage/species_image/2_abies_alba_pyramidalis/og/49255769768_df55596553_b.jpg","regular_url":"https://perenual.com/storage/species_image/2_abies_alba_pyramidalis/regular/49255769768_df55596553_b.jpg","medium_url":"https://perenual.com/storage/species_image/2_abies_alba_pyramidalis/medium/49255769768_df55596553_b.jpg","small_url":"https://perenual.com/storage/species_image/2_abies_alba_pyramidalis/small/49255769768_df55596553_b.jpg","thumbnail":"https://perenual.com/storage/species_image/2_abies_alba_pyramidalis/thumbnail/49255769768_df55596553_b.jpg"}}],"to":1680,"per_page":30,"current_page":56,"from":1651,"last_page":200,"total":6000}