{"data":[{"id":61,"common_name":"Hogyoku Japanese Maple","scientific_name":["Acer palmatum 'Hogyoku'"],"other_name":null,"cycle":"Perennial","watering":"Average","sunlight":["Full sun","part shade"],"default_image":{"image_id":9,"license":5,"license_name":"Attribution-ShareAlike License","license_url":"https://creativecommons.org/licenses/by-sa/2.0/","original_url":"https://perenual.com/storage/species_image/2_abies_alba_pyramidalis/og/49255769768_df55596553_b.jpg","regular_url":"https://perenual.com/storage/species_image/2_abies_alba_pyramidalis/regular/49255769768_df55596553_b.jpg","medium_url":"https://perenual.com/storage/species_image/2_abies_alba_pyramidalis/medium/49255769768_df55596553_b.jpg","small_url":"https://perenual.com/storage/species_image/2_abies_alba_pyramidalis/small/49255769768_df55596553_b.jpg","thumbnail":"https://perenual.com/storage/species_image/2_abies_alba_pyramidalis/thumbnail/49255769768_df55596553_b.jpg"}},{"id":62,"common_name":"Hubb's Red Willow Japanese Maple","scientific_name":["Acer palmatum 'Hubb's Red Willow'"],"other_name":null,"cycle":"Perennial","watering":"Frequent","sunlight":[],"default_image":{"image_id":137,"license":45,"license_name":"Attribution-ShareAlike 3.0 Unported (CC BY-SA 3.0)","license_url":"https://creativecommons.org/licenses/by-sa/3.0/deed.en","original_url":"https://perenual.com/storage/species_image/163_acer_shirasawanum_red_dawn/og/800px-Acer_Palmatum_%27Red_Pygmy%27.jpg","regular_url":"https://perenual.com/storage/species_image/163_acer_shirasawanum_red_dawn/regular/800px-Acer_Palmatum_%27Red_Pygmy%27.jpg","medium_url":"https://perenual.com/storage/species_image/163_acer_shirasawanum_red_dawn/medium/800px-Acer_Palmatum_%27Red_Pygmy%27.jpg","small_url":"https://perenual.com/storage/species_image/163_acer_shirasawanum_red_dawn/small/800px-Acer_Palmatum_%27Red_Pygmy%27.jpg","thumbnail":"https://perenual.com/storage/species_image/163_acer_shirasawanum_red_dawn/thumbnail/800px-Acer_Palmatum_%27Red_Pygmy%27.jpg"}},{"id":63,"common_name":"Iijima Sunago Japanese Maple","scientific_name":["Acer palmatum 'Iijima Sunago'"],"other_name":null,"cycle":"Perennial","watering":"Frequent","sunlight":[],"default_image":{"image_id":21019,"license":45,"license_name":"Attribution-ShareAlike 3.0 Unported (CC BY-SA 3.0)","license_url":"https://creativecommons.org/licenses/by-sa/3.0/deed.en","original_url":"https://perenual.com/storage/species_image/63_acer_palmatum_iijima_sunago/og/Acer_palmatum_%27Oshio_beni%27_-_JPG1.jpg","regular_url":"https://perenual.com/storage/species_image/63_acer_palmatum_iijima_sunago/regular/Acer_palmatum_%27Oshio_beni%27_-_JPG1.jpg","medium_url":"https://perenual.com/storage/species_image/63_acer_palmatum_iijima_sunago/medium/Acer_palmatum_%27Oshio_beni%27_-_JPG1.jpg","small_url":"https://perenual.com/storage/species_image/63_acer_palmatum_iijima_sunago/small/Acer_palmatum_%27Oshio_beni%27_-_JPG1.jpg","thumbnail":"https://perenual.com/storage/species_image/63_acer_palmatum_iijima_sunago/thumbnail/Acer_palmatum_%27Oshio_beni%27_-_JPG1.jpg"}},{"id":64,"common_name":"Inaba Shidare Cutleaf Japanese Maple","scientific_name":["Acer palmatum 'Inaba Shidare'"],"other_name":null,"cycle":"Perennial","watering":"Frequent","sunlight":[],"default_image":{"image_id":9,"license":5,"license_name":"Attribution-ShareAlike License","license_url":"https://creativecommons.org/licenses/by-sa/2.0/","original_url":"https://perenual.com/storage/species_image/2_abies_alba_pyramidalis/og/49255769768_df55596553_b.jpg","regular_url":"https://perenual.com/storage/species_image/2_abies_alba_pyramidalis/regular/49255769768_df55596553_b.jpg","medium_url":"https://perenual.com/storage/species_image/2_abies_alba_pyramidalis/medium/49255769768_df55596553_b.jpg","small_url":"https://perenual.com/storage/species_image/2_abies_alba_pyramidalis/small/49255769768_df55596553_b.jpg","thumbnail":"https://perenual.com/storage/species_image/2_abies_alba_pyramidalis/thumbnail/49255769768_df55596553_b.jpg"}},{"id":65,"common_name":"Inazuma Japanese Maple","scientific_name":["Acer palmatum 'Inazuma'"],"other_name":null,"cycle":"Perennial","watering":"Frequent","sunlight":[],"default_image":{"image_id":146,"license":45,"license_name":"Attribution-ShareAlike 3.0 Unported (CC BY-SA 3.0)","license_url":"https://creativecommons.org/licenses/by-sa/3.0/deed.en","original_url":"https://perenual.com/storage/species_image/65_acer_palmatum_inazuma/og/Acer_palmatum_%28Japanese_maple_tree%29_3_%2849044028473%29.jpg","regular_url":"https://perenual.com/storage/species_image/65_acer_palmatum_inazuma/regular/Acer_palmatum_%28Japanese_maple_tree%29_3_%2849044028473%29.jpg","medium_url":"https://perenual.com/storage/species_image/65_acer_palmatum_inazuma/medium/Acer_palmatum_%28Japanese_maple_tree%29_3_%2849044028473%29.jpg","small_url":"https://perenual.com/storage/species_image/65_acer_palmatum_inazuma/small/Acer_palmatum_%28Japanese_maple_tree%29_3_%2849044028473%29.jpg","thumbnail":"https://perenual.com/storage/species_image/65_acer_palmatum_inazuma/thumbnail/Acer_palmatum_%28Japanese_maple_tree%29_3_%2849044028473%29.jpg"}},{"id":66,"common_name":"Jiro Shidare Japanese Maple","scientific_name":["Acer palmatum 'Jiro Shidare'"],"other_name":null,"cycle":"Perennial","watering":"Frequent","sunlight":[],"default_image":{"image_id":21020,"license":45,"license_name":"Attribution-ShareAlike 3.0 Unported (CC BY-SA 3.0)","license_url":"https://creativecommons.org/licenses/by-sa/3.0/deed.en","original_url":"https://perenual.com/storage/species_image/132_acer_palmatum_tsukasa_silhouette/og/Acer_palmatum_Eddisbury_-_Flickr_-_peganum.jpg","regular_url":"https://perenual.com/storage/species_image/132_acer_palmatum_tsukasa_silhouette/regular/Acer_palmatum_Eddisbury_-_Flickr_-_peganum.jpg","medium_url":"https://perenual.com/storage/species_image/132_acer_palmatum_tsukasa_silhouette/medium/Acer_palmatum_Eddisbury_-_Flickr_-_peganum.jpg","small_url":"https://perenual.com/storage/species_image/132_acer_palmatum_tsukasa_silhouette/small/Acer_palmatum_Eddisbury_-_Flickr_-_peganum.jpg","thumbnail":"https://perenual.com/storage/species_image/132_acer_palmatum_tsukasa_silhouette/thumbnail/Acer_palmatum_Eddisbury_-_Flickr_-_peganum.jpg"}},{"id":67,"common_name":"Kagiri Nishiki Japanese Maple","scientific_name":["Acer palmatum 'Kagiri Nishiki'"],"other_name":null,"cycle":"Perennial","watering":"Frequent","sunlight":[],"default_image":{"image_id":139,"license":45,"license_name":"Attribution-ShareAlike 3.0 Unported (CC BY-SA 3.0)","license_url":"https://creativecommons.org/licenses/by-sa/3.0/deed.en","original_url":"https://perenual.com/storage/species_image/67_acer_palmatum_kagiri_nishiki/og/800px-Acer_palmatum_%27Kagiri-nishiki%27_sunlit_branch.jpg","regular_url":"https://perenual.com/storage/species_image/67_acer_palmatum_kagiri_nishiki/regular/800px-Acer_palmatum_%27Kagiri-nishiki%27_sunlit_branch.jpg","medium_url":"https://perenual.com/storage/species_image/67_acer_palmatum_kagiri_nishiki/medium/800px-Acer_palmatum_%27Kagiri-nishiki%27_sunlit_branch.jpg","small_url":"https://perenual.com/storage/species_image/67_acer_palmatum_kagiri_nishiki/small/800px-Acer_palmatum_%27Kagiri-nishiki%27_sunlit_branch.jpg","thumbnail":"https://perenual.com/storage/species_image/67_acer_palmatum_kagiri_nishiki/thumbnail/800px-Acer_palmatum_%27Kagiri-nishiki%27_sunlit_branch.jpg"}},{"id":68,"common_name":"Kamagata Japanese Maple","scientific_name":["Acer palmatum 'Kamagata'"],"other_name":null,"cycle":"Perennial","watering":"Frequent","sunlight":[],"default_image":{"image_id":9,"license":5,"license_name":"Attribution-ShareAlike License","license_url":"https://creativecommons.org/licenses/by-sa/2.0/","original_url":"https://perenual.com/storage/species_image/2_abies_alba_pyramidalis/og/49255769768_df55596553_b.jpg","regular_url":"https://perenual.com/storage/species_image/2_abies_alba_pyramidalis/regular/49255769768_df55596553_b.jpg","medium_url":"https://perenual.com/storage/species_image/2_abies_alba_pyramidalis/medium/49255769768_df55596553_b.jpg","small_url":"https://perenual.com/storage/species_image/2_abies_alba_pyramidalis/small/49255769768_df55596553_b.jpg","thumbnail":"https://perenual.com/storage/species_image/2_abies_alba_pyramidalis/thumbnail/49255769768_df55596553_b.jpg"}},{"id":69,"common_name":"Kandy Kitchen Japanese Maple","scientific_name":["Acer palmatum 'Kandy Kitchen'"],"other_name":null,"cycle":"Perennial","watering":"Frequent","sunlight":[],"default_image":{"image_id":21021,"license":4,"license_name":"Attribution License","license_url":"https://creativecommons.org/licenses/by/2.0/","original_url":"https://perenual.com/storage/species_image/143_acer_palmatum_yubae/og/51150061025_29f690d490_b.jpg","regular_url":"https://perenual.com/storage/species_image/143_acer_palmatum_yubae/regular/51150061025_29f690d490_b.jpg","medium_url":"https://perenual.com/storage/species_image/143_acer_palmatum_yubae/medium/51150061025_29f690d490_b.jpg","small_url":"https://perenual.com/storage/species_image/143_acer_palmatum_yubae/small/51150061025_29f690d490_b.jpg","thumbnail":"https://perenual.com/storage/species_image/143_acer_palmatum_yubae/thumbnail/51150061025_29f690d490_b.jpg"}},{"id":70,"common_name":"Karasu Gawa Japanese Maple*","scientific_name":["Acer palmatum 'Karasu Gawa'"],"other_name":["Karasugawa"],"cycle":"Perennial","watering":"Frequent","sunlight":[],"default_image":{"image_id":9,"license":5,"license_name":"Attribution-ShareAlike License","license_url":"https://creativecommons.org/licenses/by-sa/2.0/","original_url":"https://perenual.com/storage/species_image/2_abies_alba_pyramidalis/og/49255769768_df55596553_b.jpg","regular_url":"https://perenual.com/storage/species_image/2_abies_alba_pyramidalis/regular/49255769768_df55596553_b.jpg","medium_url":"https://perenual.com/storage/species_image/2_abies_alba_pyramidalis/medium/49255769768_df55596553_b.jpg","small_url":"https://perenual.com/storage/species_image/2_abies_alba_pyramidalis/small/49255769768_df55596553_b.jpg","thumbnail":"https://perenual.com/storage/species_image/2_abies_alba_pyramidalis/thumbnail/49255769768_df55596553_b.jpg"}},{"id":71,"common_name":"Kasagi Yama Japanese Maple","scientific_name":["Acer palmatum 'Kasagi Yama'"],"other_name":["Kasagiyama Japanese Maple"],"cycle":"Perennial","watering":"Frequent","sunlight":[],"default_image":{"image_id":9,"license":5,"license_name":"Attribution-ShareAlike License","license_url":"https://creativecommons.org/licenses/by-sa/2.0/","original_url":"https://perenual.com/storage/species_image/2_abies_alba_pyramidalis/og/49255769768_df55596553_b.jpg","regular_url":"https://perenual.com/storage/species_image/2_abies_alba_pyramidalis/regular/49255769768_df55596553_b.jpg","medium_url":"https://perenual.com/storage/species_image/2_abies_alba_pyramidalis/medium/49255769768_df55596553_b.jpg","small_url":"https://perenual.com/storage/species_image/2_abies_alba_pyramidalis/small/49255769768_df55596553_b.jpg","thumbnail":"https://perenual.com/storage/species_image/2_abies_alba_pyramidalis/thumbnail/49255769768_df55596553_b.jpg"}},{"id":72,"common_name":"Katsura Japanese Maple","scientific_name":["Acer palmatum 'Katsura'"],"other_name":null,"cycle":"Perennial","watering":"Average","sunlight":["Full sun","part shade"],"default_image":{"image_id":140,"license":6,"license_name":"Attribution-NoDerivs License","license_url":"https://creativecommons.org/licenses/by-nd/2.0/","original_url":"https://perenual.com/storage/species_image/72_acer_palmatum_katsura/og/33974454551_0965ae099b_b.jpg"}},{"id":73,"common_name":"Kiri Nishiki Japanese Maple","scientific_name":["Acer palmatum 'Kiri Nishiki'"],"other_name":null,"cycle":"Perennial","watering":"Frequent","sunlight":[],"default_image":{"image_id":21023,"license":45,"license_name":"Attribution-ShareAlike 3.0 Unported (CC BY-SA 3.0)","license_url":"https://creativecommons.org/licenses/by-sa/3.0/deed.en","original_url":"https://perenual.com/storage/species_image/73_acer_palmatum_kiri_nishiki/og/Acer_palmatum_var._dissectum_Green_Mist_0zz.jpg","regular_url":"https://perenual.com/storage/species_image/73_acer_palmatum_kiri_nishiki/regular/Acer_palmatum_var._dissectum_Green_Mist_0zz.jpg","medium_url":"https://perenual.com/storage/species_image/73_acer_palmatum_kiri_nishiki/medium/Acer_palmatum_var._dissectum_Green_Mist_0zz.jpg","small_url":"https://perenual.com/storage/species_image/73_acer_palmatum_kiri_nishiki/small/Acer_palmatum_var._dissectum_Green_Mist_0zz.jpg","thumbnail":"https://perenual.com/storage/species_image/73_acer_palmatum_kiri_nishiki/thumbnail/Acer_palmatum_var._dissectum_Green_Mist_0zz.jpg"}},{"id":74,"common_name":"Kiyohime Japanese Maple","scientific_name":["Acer palmatum 'Kiyohime'"],"other_name":["Kiyo Hime"],"cycle":"Perennial","watering":"Frequent","sunlight":[],"default_image":{"image_id":142,"license":451,"license_name":"CC0 1.0 Universal (CC0 1.0) Public Domain Dedication","license_url":"https://creativecommons.org/publicdomain/zero/1.0/","original_url":"https://perenual.com/storage/species_image/74_acer_palmatum_kiyohime/og/pexels-photo-5745584.jpg","regular_url":"https://perenual.com/storage/species_image/74_acer_palmatum_kiyohime/regular/pexels-photo-5745584.jpg","medium_url":"https://perenual.com/storage/species_image/74_acer_palmatum_kiyohime/medium/pexels-photo-5745584.jpg","small_url":"https://perenual.com/storage/species_image/74_acer_palmatum_kiyohime/small/pexels-photo-5745584.jpg","thumbnail":"https://perenual.com/storage/species_image/74_acer_palmatum_kiyohime/thumbnail/pexels-photo-5745584.jpg"}},{"id":75,"common_name":"Koshibori Nishiki Japanese Maple*","scientific_name":["Acer palmatum 'Koshibori Nishiki'"],"other_name":null,"cycle":"Perennial","watering":"Frequent","sunlight":[],"default_image":{"image_id":9,"license":5,"license_name":"Attribution-ShareAlike License","license_url":"https://creativecommons.org/licenses/by-sa/2.0/","original_url":"https://perenual.com/storage/species_image/2_abies_alba_pyramidalis/og/49255769768_df55596553_b.jpg","regular_url":"https://perenual.com/storage/species_image/2_abies_alba_pyramidalis/regular/49255769768_df55596553_b.jpg","medium_url":"https://perenual.com/storage/species_image/2_abies_alba_pyramidalis/medium/49255769768_df55596553_b.jpg","small_url":"https://perenual.com/storage/species_image/2_abies_alba_pyramidalis/small/49255769768_df55596553_b.jpg","thumbnail":"https://perenual.com/storage/species_image/2_abies_alba_pyramidalis/thumbnail/49255769768_df55596553_b.jpg"}},{"id":76,"common_name":"Koto No Ito Japanese Maple","scientific_name":["Acer palmatum 'Koto No Ito'"],"other_name":["Harp String","Koto-No-Ito"],"cycle":"Perennial","watering":"Average","sunlight":["Filtered shade"," Full sun only if soil kept moist"," Part sun/part shade"],"default_image":{"image_id":143,"license":45,"license_name":"Attribution-ShareAlike 3.0 Unported (CC BY-SA 3.0)","license_url":"https://creativecommons.org/licenses/by-sa/3.0/deed.en","original_url":"https://perenual.com/storage/species_image/76_acer_palmatum_koto_no_ito/og/Acer_palmatum_%27Linearilobum%27_JPG1L.jpg","regular_url":"https://perenual.com/storage/species_image/76_acer_palmatum_koto_no_ito/regular/Acer_palmatum_%27Linearilobum%27_JPG1L.jpg","medium_url":"https://perenual.com/storage/species_image/76_acer_palmatum_koto_no_ito/medium/Acer_palmatum_%27Linearilobum%27_JPG1L.jpg","small_url":"https://perenual.com/storage/species_image/76_acer_palmatum_koto_no_ito/small/Acer_palmatum_%27Linearilobum%27_JPG1L.jpg","thumbnail":"https://perenual.com/storage/species_image/76_acer_palmatum_koto_no_ito/thumbnail/Acer_palmatum_%27Linearilobum%27_JPG1L.jpg"}},{"id":77,"common_name":"Linearilobum Japanese Maple","scientific_name":["Acer palmatum 'Linearilobum'"],"other_name":["Bamboo-Leaf Japanese Maple"],"cycle":"Perennial","watering":"Frequent","sunlight":[],"default_image":{"image_id":144,"license":4,"license_name":"Attribution License","license_url":"https://creativecommons.org/licenses/by/2.0/","original_url":"https://perenual.com/storage/species_image/77_acer_palmatum_linearilobum/og/3466572143_4470363413_b.jpg","regular_url":"https://perenual.com/storage/species_image/77_acer_palmatum_linearilobum/regular/3466572143_4470363413_b.jpg","medium_url":"https://perenual.com/storage/species_image/77_acer_palmatum_linearilobum/medium/3466572143_4470363413_b.jpg","small_url":"https://perenual.com/storage/species_image/77_acer_palmatum_linearilobum/small/3466572143_4470363413_b.jpg","thumbnail":"https://perenual.com/storage/species_image/77_acer_palmatum_linearilobum/thumbnail/3466572143_4470363413_b.jpg"}},{"id":78,"common_name":"Margaret Bee Japanese Maple","scientific_name":["Acer palmatum 'Margaret Bee'"],"other_name":null,"cycle":"Perennial","watering":"Frequent","sunlight":[],"default_image":{"image_id":146,"license":45,"license_name":"Attribution-ShareAlike 3.0 Unported (CC BY-SA 3.0)","license_url":"https://creativecommons.org/licenses/by-sa/3.0/deed.en","original_url":"https://perenual.com/storage/species_image/65_acer_palmatum_inazuma/og/Acer_palmatum_%28Japanese_maple_tree%29_3_%2849044028473%29.jpg","regular_url":"https://perenual.com/storage/species_image/65_acer_palmatum_inazuma/regular/Acer_palmatum_%28Japanese_maple_tree%29_3_%2849044028473%29.jpg","medium_url":"https://perenual.com/storage/species_image/65_acer_palmatum_inazuma/medium/Acer_palmatum_%28Japanese_maple_tree%29_3_%2849044028473%29.jpg","small_url":"https://perenual.com/storage/species_image/65_acer_palmatum_inazuma/small/Acer_palmatum_%28Japanese_maple_tree%29_3_%2849044028473%29.jpg","thumbnail":"https://perenual.com/storage/species_image/65_acer_palmatum_inazuma/thumbnail/Acer_palmatum_%28Japanese_maple_tree%29_3_%2849044028473%29.jpg"}},{"id":79,"common_name":"Mikawa Yatsubusa Japanese Maple","scientific_name":["Acer palmatum 'Mikawa Yatsubusa'"],"other_name":null,"cycle":"Perennial","watering":"Frequent","sunlight":[],"default_image":{"image_id":9,"license":5,"license_name":"Attribution-ShareAlike License","license_url":"https://creativecommons.org/licenses/by-sa/2.0/","original_url":"https://perenual.com/storage/species_image/2_abies_alba_pyramidalis/og/49255769768_df55596553_b.jpg","regular_url":"https://perenual.com/storage/species_image/2_abies_alba_pyramidalis/regular/49255769768_df55596553_b.jpg","medium_url":"https://perenual.com/storage/species_image/2_abies_alba_pyramidalis/medium/49255769768_df55596553_b.jpg","small_url":"https://perenual.com/storage/species_image/2_abies_alba_pyramidalis/small/49255769768_df55596553_b.jpg","thumbnail":"https://perenual.com/storage/species_image/2_abies_alba_pyramidalis/thumbnail/49255769768_df55596553_b.jpg"}},{"id":80,"common_name":"Mikazuki Japanese Maple","scientific_name":["Acer palmatum 'Mikazuki'"],"other_name":null,"cycle":"Perennial","watering":"Frequent","sunlight":[],"default_image":{"image_id":9,"license":5,"license_name":"Attribution-ShareAlike License","license_url":"https://creativecommons.org/licenses/by-sa/2.0/","original_url":"https://perenual.com/storage/species_image/2_abies_alba_pyramidalis/og/49255769768_df55596553_b.jpg","regular_url":"https://perenual.com/storage/species_image/2_abies_alba_pyramidalis/regular/49255769768_df55596553_b.jpg","medium_url":"https://perenual.com/storage/species_image/2_abies_alba_pyramidalis/medium/49255769768_df55596553_b.jpg","small_url":"https://perenual.com/storage/species_image/2_abies_alba_pyramidalis/small/49255769768_df55596553_b.jpg","thumbnail":"https://perenual.com/storage/species_image/2_abies_alba_pyramidalis/thumbnail/49255769768_df55596553_b.jpg"}},{"id":81,"common_name":"Moonfire Japanese Maple","scientific_name":["Acer palmatum 'Moonfire'"],"other_name":null,"cycle":"Perennial","watering":"Frequent","sunlight":[],"default_image":{"image_id":147,"license":5,"license_name":"Attribution-ShareAlike License","license_url":"https://creativecommons.org/licenses/by-sa/2.0/","original_url":"https://perenual.com/storage/species_image/81_acer_palmatum_moonfire/og/4846299174_5cb4e644ae_b.jpg","regular_url":"https://perenual.com/storage/species_image/81_acer_palmatum_moonfire/regular/4846299174_5cb4e644ae_b.jpg","medium_url":"https://perenual.com/storage/species_image/81_acer_palmatum_moonfire/medium/4846299174_5cb4e644ae_b.jpg","small_url":"https://perenual.com/storage/species_image/81_acer_palmatum_moonfire/small/4846299174_5cb4e644ae_b.jpg","thumbnail":"https://perenual.com/storage/species_image/81_acer_palmatum_moonfire/thumbnail/4846299174_5cb4e644ae_b.jpg"}},{"id":82,"common_name":"Nishiki Gawa Japanese Maple*","scientific_name":["Acer palmatum 'Nishiki Gawa'"],"other_name":["Pine Bark Maple"],"cycle":"Perennial","watering":"Average","sunlight":["Full sun","part shade"],"default_image":{"image_id":150,"license":451,"license_name":"CC0 1.0 Universal (CC0 1.0) Public Domain Dedication","license_url":"https://creativecommons.org/publicdomain/zero/1.0/","original_url":"https://perenual.com/storage/species_image/82_acer_palmatum_nishiki_gawa/og/pexels-photo-4977537.jpg","regular_url":"https://perenual.com/storage/species_image/82_acer_palmatum_nishiki_gawa/regular/pexels-photo-4977537.jpg","medium_url":"https://perenual.com/storage/species_image/82_acer_palmatum_nishiki_gawa/medium/pexels-photo-4977537.jpg","small_url":"https://perenual.com/storage/species_image/82_acer_palmatum_nishiki_gawa/small/pexels-photo-4977537.jpg","thumbnail":"https://perenual.com/storage/species_image/82_acer_palmatum_nishiki_gawa/thumbnail/pexels-photo-4977537.jpg"}},{"id":83,"common_name":"Nuresagi Japanese Maple","scientific_name":["Acer palmatum 'Nuresagi'"],"other_name":["Wet Heron Japanese Maple"],"cycle":"Perennial","watering":"Average","sunlight":["Full sun","part shade"],"default_image":{"image_id":151,"license":45,"license_name":"Attribution-ShareAlike 3.0 Unported (CC BY-SA 3.0)","license_url":"https://creativecommons.org/licenses/by-sa/3.0/deed.en","original_url":"https://perenual.com/storage/species_image/83_acer_palmatum_nuresagi/og/Acer_palmatum_%27Nuresagi%27_JPG1c.jpg","regular_url":"https://perenual.com/storage/species_image/83_acer_palmatum_nuresagi/regular/Acer_palmatum_%27Nuresagi%27_JPG1c.jpg","medium_url":"https://perenual.com/storage/species_image/83_acer_palmatum_nuresagi/medium/Acer_palmatum_%27Nuresagi%27_JPG1c.jpg","small_url":"https://perenual.com/storage/species_image/83_acer_palmatum_nuresagi/small/Acer_palmatum_%27Nuresagi%27_JPG1c.jpg","thumbnail":"https://perenual.com/storage/species_image/83_acer_palmatum_nuresagi/thumbnail/Acer_palmatum_%27Nuresagi%27_JPG1c.jpg"}},{"id":84,"common_name":"Okagami Japanese Maple","scientific_name":["Acer palmatum 'Okagami'"],"other_name":null,"cycle":"Perennial","watering":"Frequent","sunlight":[],"default_image":{"image_id":152,"license":4,"license_name":"Attribution License","license_url":"https://creativecommons.org/licenses/by/2.0/","original_url":"https://perenual.com/storage/species_image/84_acer_palmatum_okagami/og/4555737792_4363d30713_b.jpg","regular_url":"https://perenual.com/storage/species_image/84_acer_palmatum_okagami/regular/4555737792_4363d30713_b.jpg","medium_url":"https://perenual.com/storage/species_image/84_acer_palmatum_okagami/medium/4555737792_4363d30713_b.jpg","small_url":"https://perenual.com/storage/species_image/84_acer_palmatum_okagami/small/4555737792_4363d30713_b.jpg","thumbnail":"https://perenual.com/storage/species_image/84_acer_palmatum_okagami/thumbnail/4555737792_4363d30713_b.jpg"}},{"id":85,"common_name":"Okushimo Japanese Maple","scientific_name":["Acer palmatum 'Okushimo'"],"other_name":["Okushimu","Pepper and Salt Japanese Maple"],"cycle":"Perennial","watering":"Frequent","sunlight":[],"default_image":{"image_id":154,"license":5,"license_name":"Attribution-ShareAlike License","license_url":"https://creativecommons.org/licenses/by-sa/2.0/","original_url":"https://perenual.com/storage/species_image/85_acer_palmatum_okushimo/og/27477811140_2298882b2f_b.jpg","regular_url":"https://perenual.com/storage/species_image/85_acer_palmatum_okushimo/regular/27477811140_2298882b2f_b.jpg","medium_url":"https://perenual.com/storage/species_image/85_acer_palmatum_okushimo/medium/27477811140_2298882b2f_b.jpg","small_url":"https://perenual.com/storage/species_image/85_acer_palmatum_okushimo/small/27477811140_2298882b2f_b.jpg","thumbnail":"https://perenual.com/storage/species_image/85_acer_palmatum_okushimo/thumbnail/27477811140_2298882b2f_b.jpg"}},{"id":86,"common_name":"Orange Dream Japanese Maple","scientific_name":["Acer palmatum 'Orange Dream'"],"other_name":null,"cycle":"Perennial","watering":"Frequent","sunlight":[],"default_image":{"image_id":9,"license":5,"license_name":"Attribution-ShareAlike License","license_url":"https://creativecommons.org/licenses/by-sa/2.0/","original_url":"https://perenual.com/storage/species_image/2_abies_alba_pyramidalis/og/49255769768_df55596553_b.jpg","regular_url":"https://perenual.com/storage/species_image/2_abies_alba_pyramidalis/regular/49255769768_df55596553_b.jpg","medium_url":"https://perenual.com/storage/species_image/2_abies_alba_pyramidalis/medium/49255769768_df55596553_b.jpg","small_url":"https://perenual.com/storage/species_image/2_abies_alba_pyramidalis/small/49255769768_df55596553_b.jpg","thumbnail":"https://perenual.com/storage/species_image/2_abies_alba_pyramidalis/thumbnail/49255769768_df55596553_b.jpg"}},{"id":87,"common_name":"Orangeola Cutleaf Japanese Maple","scientific_name":["Acer palmatum 'Orangeola'"],"other_name":null,"cycle":"Perennial","watering":"Frequent","sunlight":[],"default_image":{"image_id":159,"license":5,"license_name":"Attribution-ShareAlike License","license_url":"https://creativecommons.org/licenses/by-sa/2.0/","original_url":"https://perenual.com/storage/species_image/87_acer_palmatum_orangeola/og/4715310180_346e3f1ccb_b.jpg","regular_url":"https://perenual.com/storage/species_image/87_acer_palmatum_orangeola/regular/4715310180_346e3f1ccb_b.jpg","medium_url":"https://perenual.com/storage/species_image/87_acer_palmatum_orangeola/medium/4715310180_346e3f1ccb_b.jpg","small_url":"https://perenual.com/storage/species_image/87_acer_palmatum_orangeola/small/4715310180_346e3f1ccb_b.jpg","thumbnail":"https://perenual.com/storage/species_image/87_acer_palmatum_orangeola/thumbnail/4715310180_346e3f1ccb_b.jpg"}},{"id":88,"common_name":"Oregon Sunset Japanese Maple","scientific_name":["Acer palmatum 'Oregon Sunset'"],"other_name":null,"cycle":"Perennial","watering":"Frequent","sunlight":[],"default_image":{"image_id":9,"license":5,"license_name":"Attribution-ShareAlike License","license_url":"https://creativecommons.org/licenses/by-sa/2.0/","original_url":"https://perenual.com/storage/species_image/2_abies_alba_pyramidalis/og/49255769768_df55596553_b.jpg","regular_url":"https://perenual.com/storage/species_image/2_abies_alba_pyramidalis/regular/49255769768_df55596553_b.jpg","medium_url":"https://perenual.com/storage/species_image/2_abies_alba_pyramidalis/medium/49255769768_df55596553_b.jpg","small_url":"https://perenual.com/storage/species_image/2_abies_alba_pyramidalis/small/49255769768_df55596553_b.jpg","thumbnail":"https://perenual.com/storage/species_image/2_abies_alba_pyramidalis/thumbnail/49255769768_df55596553_b.jpg"}},{"id":89,"common_name":"Oridono Nishiki Japanese Maple*","scientific_name":["Acer palmatum 'Oridono Nishiki'"],"other_name":null,"cycle":"Perennial","watering":"Frequent","sunlight":[],"default_image":{"image_id":21024,"license":45,"license_name":"Attribution-ShareAlike 3.0 Unported (CC BY-SA 3.0)","license_url":"https://creativecommons.org/licenses/by-sa/3.0/deed.en","original_url":"https://perenual.com/storage/species_image/89_acer_palmatum_oridono_nishiki/og/Acer_palmatum_Oridono_nishiki_0zz.jpg","regular_url":"https://perenual.com/storage/species_image/89_acer_palmatum_oridono_nishiki/regular/Acer_palmatum_Oridono_nishiki_0zz.jpg","medium_url":"https://perenual.com/storage/species_image/89_acer_palmatum_oridono_nishiki/medium/Acer_palmatum_Oridono_nishiki_0zz.jpg","small_url":"https://perenual.com/storage/species_image/89_acer_palmatum_oridono_nishiki/small/Acer_palmatum_Oridono_nishiki_0zz.jpg","thumbnail":"https://perenual.com/storage/species_image/89_acer_palmatum_oridono_nishiki/thumbnail/Acer_palmatum_Oridono_nishiki_0zz.jpg"}},{"id":90,"common_name":"Ornatum Japanese Maple*","scientific_name":["Acer palmatum 'Ornatum'"],"other_name":["Dissectum Ornatum"],"cycle":"Perennial","watering":"Frequent","sunlight":[],"default_image":{"image_id":9,"license":5,"license_name":"Attribution-ShareAlike License","license_url":"https://creativecommons.org/licenses/by-sa/2.0/","original_url":"https://perenual.com/storage/species_image/2_abies_alba_pyramidalis/og/49255769768_df55596553_b.jpg","regular_url":"https://perenual.com/storage/species_image/2_abies_alba_pyramidalis/regular/49255769768_df55596553_b.jpg","medium_url":"https://perenual.com/storage/species_image/2_abies_alba_pyramidalis/medium/49255769768_df55596553_b.jpg","small_url":"https://perenual.com/storage/species_image/2_abies_alba_pyramidalis/small/49255769768_df55596553_b.jpg","thumbnail":"https://perenual.com/storage/species_image/2_abies_alba_pyramidalis/thumbnail/49255769768_df55596553_b.jpg"}}],"to":90,"per_page":30,"current_page":3,"from":61,"last_page":200,"total":6000}