{"data":[{"id":4801,"common_name":"smallhead blazing star","scientific_name":["Liatris microcephala"],"other_name":null,"cycle":"Perennial","watering":"Minimum","sunlight":["Full sun"],"default_image":{"image_id":9,"license":5,"license_name":"Attribution-ShareAlike License","license_url":"https://creativecommons.org/licenses/by-sa/2.0/","original_url":"https://perenual.com/storage/species_image/2_abies_alba_pyramidalis/og/49255769768_df55596553_b.jpg","regular_url":"https://perenual.com/storage/species_image/2_abies_alba_pyramidalis/regular/49255769768_df55596553_b.jpg","medium_url":"https://perenual.com/storage/species_image/2_abies_alba_pyramidalis/medium/49255769768_df55596553_b.jpg","small_url":"https://perenual.com/storage/species_image/2_abies_alba_pyramidalis/small/49255769768_df55596553_b.jpg","thumbnail":"https://perenual.com/storage/species_image/2_abies_alba_pyramidalis/thumbnail/49255769768_df55596553_b.jpg"}},{"id":4802,"common_name":"narrow-leaved gayfeather","scientific_name":["Liatris mucronata"],"other_name":null,"cycle":"Perennial","watering":"Minimum","sunlight":["Full sun"],"default_image":{"image_id":10080,"license":4,"license_name":"Attribution License","license_url":"https://creativecommons.org/licenses/by/2.0/","original_url":"https://perenual.com/storage/species_image/4802_liatris_mucronata/og/3972751033_410f11dba7_b.jpg","regular_url":"https://perenual.com/storage/species_image/4802_liatris_mucronata/regular/3972751033_410f11dba7_b.jpg","medium_url":"https://perenual.com/storage/species_image/4802_liatris_mucronata/medium/3972751033_410f11dba7_b.jpg","small_url":"https://perenual.com/storage/species_image/4802_liatris_mucronata/small/3972751033_410f11dba7_b.jpg","thumbnail":"https://perenual.com/storage/species_image/4802_liatris_mucronata/thumbnail/3972751033_410f11dba7_b.jpg"}},{"id":4803,"common_name":"prairie blazing star","scientific_name":["Liatris pycnostachya"],"other_name":null,"cycle":"Perennial","watering":"Minimum","sunlight":["Full sun"],"default_image":{"image_id":10082,"license":4,"license_name":"Attribution License","license_url":"https://creativecommons.org/licenses/by/2.0/","original_url":"https://perenual.com/storage/species_image/4803_liatris_pycnostachya/og/52208073581_25996532d8_b.jpg","regular_url":"https://perenual.com/storage/species_image/4803_liatris_pycnostachya/regular/52208073581_25996532d8_b.jpg","medium_url":"https://perenual.com/storage/species_image/4803_liatris_pycnostachya/medium/52208073581_25996532d8_b.jpg","small_url":"https://perenual.com/storage/species_image/4803_liatris_pycnostachya/small/52208073581_25996532d8_b.jpg","thumbnail":"https://perenual.com/storage/species_image/4803_liatris_pycnostachya/thumbnail/52208073581_25996532d8_b.jpg"}},{"id":4804,"common_name":"blazing star","scientific_name":["Liatris scariosa"],"other_name":null,"cycle":"Perennial","watering":"Minimum","sunlight":["Full sun"],"default_image":{"image_id":9,"license":5,"license_name":"Attribution-ShareAlike License","license_url":"https://creativecommons.org/licenses/by-sa/2.0/","original_url":"https://perenual.com/storage/species_image/2_abies_alba_pyramidalis/og/49255769768_df55596553_b.jpg","regular_url":"https://perenual.com/storage/species_image/2_abies_alba_pyramidalis/regular/49255769768_df55596553_b.jpg","medium_url":"https://perenual.com/storage/species_image/2_abies_alba_pyramidalis/medium/49255769768_df55596553_b.jpg","small_url":"https://perenual.com/storage/species_image/2_abies_alba_pyramidalis/small/49255769768_df55596553_b.jpg","thumbnail":"https://perenual.com/storage/species_image/2_abies_alba_pyramidalis/thumbnail/49255769768_df55596553_b.jpg"}},{"id":4805,"common_name":"eastern blazingstar","scientific_name":["Liatris scariosa var. nieuwlandii"],"other_name":null,"cycle":"Perennial","watering":"Minimum","sunlight":["Full sun"],"default_image":{"image_id":9,"license":5,"license_name":"Attribution-ShareAlike License","license_url":"https://creativecommons.org/licenses/by-sa/2.0/","original_url":"https://perenual.com/storage/species_image/2_abies_alba_pyramidalis/og/49255769768_df55596553_b.jpg","regular_url":"https://perenual.com/storage/species_image/2_abies_alba_pyramidalis/regular/49255769768_df55596553_b.jpg","medium_url":"https://perenual.com/storage/species_image/2_abies_alba_pyramidalis/medium/49255769768_df55596553_b.jpg","small_url":"https://perenual.com/storage/species_image/2_abies_alba_pyramidalis/small/49255769768_df55596553_b.jpg","thumbnail":"https://perenual.com/storage/species_image/2_abies_alba_pyramidalis/thumbnail/49255769768_df55596553_b.jpg"}},{"id":4806,"common_name":"blazing star","scientific_name":["Liatris spicata"],"other_name":["liatris"],"cycle":"Perennial","watering":"Minimum","sunlight":["Full sun"],"default_image":{"image_id":10092,"license":6,"license_name":"Attribution-NoDerivs License","license_url":"https://creativecommons.org/licenses/by-nd/2.0/","original_url":"https://perenual.com/storage/species_image/4806_liatris_spicata/og/52283692529_2038f859b6_b.jpg"}},{"id":4807,"common_name":"blazing star","scientific_name":["Liatris spicata 'Floristan White'"],"other_name":["liatris"],"cycle":"Perennial","watering":"Minimum","sunlight":["Full sun"],"default_image":{"image_id":9,"license":5,"license_name":"Attribution-ShareAlike License","license_url":"https://creativecommons.org/licenses/by-sa/2.0/","original_url":"https://perenual.com/storage/species_image/2_abies_alba_pyramidalis/og/49255769768_df55596553_b.jpg","regular_url":"https://perenual.com/storage/species_image/2_abies_alba_pyramidalis/regular/49255769768_df55596553_b.jpg","medium_url":"https://perenual.com/storage/species_image/2_abies_alba_pyramidalis/medium/49255769768_df55596553_b.jpg","small_url":"https://perenual.com/storage/species_image/2_abies_alba_pyramidalis/small/49255769768_df55596553_b.jpg","thumbnail":"https://perenual.com/storage/species_image/2_abies_alba_pyramidalis/thumbnail/49255769768_df55596553_b.jpg"}},{"id":4808,"common_name":"blazing star","scientific_name":["Liatris spicata 'Kobold'"],"other_name":["liatris"],"cycle":"Perennial","watering":"Minimum","sunlight":["Full sun"],"default_image":{"image_id":9,"license":5,"license_name":"Attribution-ShareAlike License","license_url":"https://creativecommons.org/licenses/by-sa/2.0/","original_url":"https://perenual.com/storage/species_image/2_abies_alba_pyramidalis/og/49255769768_df55596553_b.jpg","regular_url":"https://perenual.com/storage/species_image/2_abies_alba_pyramidalis/regular/49255769768_df55596553_b.jpg","medium_url":"https://perenual.com/storage/species_image/2_abies_alba_pyramidalis/medium/49255769768_df55596553_b.jpg","small_url":"https://perenual.com/storage/species_image/2_abies_alba_pyramidalis/small/49255769768_df55596553_b.jpg","thumbnail":"https://perenual.com/storage/species_image/2_abies_alba_pyramidalis/thumbnail/49255769768_df55596553_b.jpg"}},{"id":4809,"common_name":"blazing star","scientific_name":["Liatris spicata 'Kobold Original'"],"other_name":["liatris"],"cycle":"Perennial","watering":"Minimum","sunlight":["Full sun"],"default_image":{"image_id":10105,"license":4,"license_name":"Attribution License","license_url":"https://creativecommons.org/licenses/by/2.0/","original_url":"https://perenual.com/storage/species_image/4809_liatris_spicata_kobold_original/og/52276695368_49914cc04c_b.jpg","regular_url":"https://perenual.com/storage/species_image/4809_liatris_spicata_kobold_original/regular/52276695368_49914cc04c_b.jpg","medium_url":"https://perenual.com/storage/species_image/4809_liatris_spicata_kobold_original/medium/52276695368_49914cc04c_b.jpg","small_url":"https://perenual.com/storage/species_image/4809_liatris_spicata_kobold_original/small/52276695368_49914cc04c_b.jpg","thumbnail":"https://perenual.com/storage/species_image/4809_liatris_spicata_kobold_original/thumbnail/52276695368_49914cc04c_b.jpg"}},{"id":4810,"common_name":"libertia","scientific_name":["Libertia ixioides 'Goldfinger'"],"other_name":null,"cycle":"Perennial","watering":"Average","sunlight":["Full sun"],"default_image":{"image_id":9,"license":5,"license_name":"Attribution-ShareAlike License","license_url":"https://creativecommons.org/licenses/by-sa/2.0/","original_url":"https://perenual.com/storage/species_image/2_abies_alba_pyramidalis/og/49255769768_df55596553_b.jpg","regular_url":"https://perenual.com/storage/species_image/2_abies_alba_pyramidalis/regular/49255769768_df55596553_b.jpg","medium_url":"https://perenual.com/storage/species_image/2_abies_alba_pyramidalis/medium/49255769768_df55596553_b.jpg","small_url":"https://perenual.com/storage/species_image/2_abies_alba_pyramidalis/small/49255769768_df55596553_b.jpg","thumbnail":"https://perenual.com/storage/species_image/2_abies_alba_pyramidalis/thumbnail/49255769768_df55596553_b.jpg"}},{"id":4811,"common_name":"leopard plant","scientific_name":["Ligularia 'Bottle Rocket'"],"other_name":null,"cycle":"Perennial","watering":"Frequent","sunlight":["Part shade","full shade"],"default_image":{"image_id":10111,"license":5,"license_name":"Attribution-ShareAlike License","license_url":"https://creativecommons.org/licenses/by-sa/2.0/","original_url":"https://perenual.com/storage/species_image/4818_ligularia_the_rocket/og/48373938021_651525e593_b.jpg","regular_url":"https://perenual.com/storage/species_image/4818_ligularia_the_rocket/regular/48373938021_651525e593_b.jpg","medium_url":"https://perenual.com/storage/species_image/4818_ligularia_the_rocket/medium/48373938021_651525e593_b.jpg","small_url":"https://perenual.com/storage/species_image/4818_ligularia_the_rocket/small/48373938021_651525e593_b.jpg","thumbnail":"https://perenual.com/storage/species_image/4818_ligularia_the_rocket/thumbnail/48373938021_651525e593_b.jpg"}},{"id":4812,"common_name":"leopard plant","scientific_name":["Ligularia 'Britt Marie Crawford'"],"other_name":null,"cycle":"Perennial","watering":"Frequent","sunlight":["Part shade","full shade"],"default_image":{"image_id":10114,"license":5,"license_name":"Attribution-ShareAlike License","license_url":"https://creativecommons.org/licenses/by-sa/2.0/","original_url":"https://perenual.com/storage/species_image/4812_ligularia_britt_marie_crawford/og/7993547107_8c7dbf6bdc_b.jpg","regular_url":"https://perenual.com/storage/species_image/4812_ligularia_britt_marie_crawford/regular/7993547107_8c7dbf6bdc_b.jpg","medium_url":"https://perenual.com/storage/species_image/4812_ligularia_britt_marie_crawford/medium/7993547107_8c7dbf6bdc_b.jpg","small_url":"https://perenual.com/storage/species_image/4812_ligularia_britt_marie_crawford/small/7993547107_8c7dbf6bdc_b.jpg","thumbnail":"https://perenual.com/storage/species_image/4812_ligularia_britt_marie_crawford/thumbnail/7993547107_8c7dbf6bdc_b.jpg"}},{"id":4813,"common_name":"leopard plant","scientific_name":["Ligularia dentata"],"other_name":null,"cycle":"Perennial","watering":"Frequent","sunlight":["Filtered shade"," Full sun only if soil kept moist"," Part sun/part shade"],"default_image":{"image_id":9,"license":5,"license_name":"Attribution-ShareAlike License","license_url":"https://creativecommons.org/licenses/by-sa/2.0/","original_url":"https://perenual.com/storage/species_image/2_abies_alba_pyramidalis/og/49255769768_df55596553_b.jpg","regular_url":"https://perenual.com/storage/species_image/2_abies_alba_pyramidalis/regular/49255769768_df55596553_b.jpg","medium_url":"https://perenual.com/storage/species_image/2_abies_alba_pyramidalis/medium/49255769768_df55596553_b.jpg","small_url":"https://perenual.com/storage/species_image/2_abies_alba_pyramidalis/small/49255769768_df55596553_b.jpg","thumbnail":"https://perenual.com/storage/species_image/2_abies_alba_pyramidalis/thumbnail/49255769768_df55596553_b.jpg"}},{"id":4814,"common_name":"leopard plant","scientific_name":["Ligularia dentata 'Desdemona'"],"other_name":null,"cycle":"Perennial","watering":"Frequent","sunlight":["Filtered shade"," Full sun only if soil kept moist"," Part sun/part shade"],"default_image":{"image_id":9,"license":5,"license_name":"Attribution-ShareAlike License","license_url":"https://creativecommons.org/licenses/by-sa/2.0/","original_url":"https://perenual.com/storage/species_image/2_abies_alba_pyramidalis/og/49255769768_df55596553_b.jpg","regular_url":"https://perenual.com/storage/species_image/2_abies_alba_pyramidalis/regular/49255769768_df55596553_b.jpg","medium_url":"https://perenual.com/storage/species_image/2_abies_alba_pyramidalis/medium/49255769768_df55596553_b.jpg","small_url":"https://perenual.com/storage/species_image/2_abies_alba_pyramidalis/small/49255769768_df55596553_b.jpg","thumbnail":"https://perenual.com/storage/species_image/2_abies_alba_pyramidalis/thumbnail/49255769768_df55596553_b.jpg"}},{"id":4815,"common_name":"leopard plant","scientific_name":["Ligularia dentata 'Othello'"],"other_name":null,"cycle":"Perennial","watering":"Frequent","sunlight":["Filtered shade"," Full sun only if soil kept moist"," Part sun/part shade"],"default_image":{"image_id":9,"license":5,"license_name":"Attribution-ShareAlike License","license_url":"https://creativecommons.org/licenses/by-sa/2.0/","original_url":"https://perenual.com/storage/species_image/2_abies_alba_pyramidalis/og/49255769768_df55596553_b.jpg","regular_url":"https://perenual.com/storage/species_image/2_abies_alba_pyramidalis/regular/49255769768_df55596553_b.jpg","medium_url":"https://perenual.com/storage/species_image/2_abies_alba_pyramidalis/medium/49255769768_df55596553_b.jpg","small_url":"https://perenual.com/storage/species_image/2_abies_alba_pyramidalis/small/49255769768_df55596553_b.jpg","thumbnail":"https://perenual.com/storage/species_image/2_abies_alba_pyramidalis/thumbnail/49255769768_df55596553_b.jpg"}},{"id":4816,"common_name":"leopard plant","scientific_name":["Ligularia 'Osiris Fantaisie'"],"other_name":null,"cycle":"Perennial","watering":"Frequent","sunlight":["Part shade","full shade"],"default_image":{"image_id":10128,"license":4,"license_name":"Attribution License","license_url":"https://creativecommons.org/licenses/by/2.0/","original_url":"https://perenual.com/storage/species_image/4816_ligularia_osiris_fantaisie/og/9111457164_c3867dda3d_b.jpg","regular_url":"https://perenual.com/storage/species_image/4816_ligularia_osiris_fantaisie/regular/9111457164_c3867dda3d_b.jpg","medium_url":"https://perenual.com/storage/species_image/4816_ligularia_osiris_fantaisie/medium/9111457164_c3867dda3d_b.jpg","small_url":"https://perenual.com/storage/species_image/4816_ligularia_osiris_fantaisie/small/9111457164_c3867dda3d_b.jpg","thumbnail":"https://perenual.com/storage/species_image/4816_ligularia_osiris_fantaisie/thumbnail/9111457164_c3867dda3d_b.jpg"}},{"id":4817,"common_name":"leopard plant","scientific_name":["Ligularia przewalskii"],"other_name":null,"cycle":"Perennial","watering":"Frequent","sunlight":["Part shade","full shade"],"default_image":{"image_id":10131,"license":5,"license_name":"Attribution-ShareAlike License","license_url":"https://creativecommons.org/licenses/by-sa/2.0/","original_url":"https://perenual.com/storage/species_image/4817_ligularia_przewalskii/og/9200884226_cbea6efa45_b.jpg","regular_url":"https://perenual.com/storage/species_image/4817_ligularia_przewalskii/regular/9200884226_cbea6efa45_b.jpg","medium_url":"https://perenual.com/storage/species_image/4817_ligularia_przewalskii/medium/9200884226_cbea6efa45_b.jpg","small_url":"https://perenual.com/storage/species_image/4817_ligularia_przewalskii/small/9200884226_cbea6efa45_b.jpg","thumbnail":"https://perenual.com/storage/species_image/4817_ligularia_przewalskii/thumbnail/9200884226_cbea6efa45_b.jpg"}},{"id":4818,"common_name":"leopard plant","scientific_name":["Ligularia 'The Rocket'"],"other_name":null,"cycle":"Perennial","watering":"Frequent","sunlight":["Part shade","full shade"],"default_image":{"image_id":10111,"license":5,"license_name":"Attribution-ShareAlike License","license_url":"https://creativecommons.org/licenses/by-sa/2.0/","original_url":"https://perenual.com/storage/species_image/4818_ligularia_the_rocket/og/48373938021_651525e593_b.jpg","regular_url":"https://perenual.com/storage/species_image/4818_ligularia_the_rocket/regular/48373938021_651525e593_b.jpg","medium_url":"https://perenual.com/storage/species_image/4818_ligularia_the_rocket/medium/48373938021_651525e593_b.jpg","small_url":"https://perenual.com/storage/species_image/4818_ligularia_the_rocket/small/48373938021_651525e593_b.jpg","thumbnail":"https://perenual.com/storage/species_image/4818_ligularia_the_rocket/thumbnail/48373938021_651525e593_b.jpg"}},{"id":4819,"common_name":"Amur privet","scientific_name":["Ligustrum amurense"],"other_name":null,"cycle":"Perennial","watering":"Minimum","sunlight":["Full sun","part shade"],"default_image":{"image_id":10136,"license":6,"license_name":"Attribution-NoDerivs License","license_url":"https://creativecommons.org/licenses/by-nd/2.0/","original_url":"https://perenual.com/storage/species_image/4819_ligustrum_amurense/og/2466176471_d6b3bf13e6_b.jpg"}},{"id":4820,"common_name":"privet","scientific_name":["Ligustrum ibolium"],"other_name":null,"cycle":"Perennial","watering":"Minimum","sunlight":["Full sun","part shade"],"default_image":{"image_id":10137,"license":5,"license_name":"Attribution-ShareAlike License","license_url":"https://creativecommons.org/licenses/by-sa/2.0/","original_url":"https://perenual.com/storage/species_image/4820_ligustrum_ibolium/og/30419704641_cdea4c901d_b.jpg","regular_url":"https://perenual.com/storage/species_image/4820_ligustrum_ibolium/regular/30419704641_cdea4c901d_b.jpg","medium_url":"https://perenual.com/storage/species_image/4820_ligustrum_ibolium/medium/30419704641_cdea4c901d_b.jpg","small_url":"https://perenual.com/storage/species_image/4820_ligustrum_ibolium/small/30419704641_cdea4c901d_b.jpg","thumbnail":"https://perenual.com/storage/species_image/4820_ligustrum_ibolium/thumbnail/30419704641_cdea4c901d_b.jpg"}},{"id":4821,"common_name":"Japanese privet","scientific_name":["Ligustrum japonicum"],"other_name":null,"cycle":"Perennial","watering":"Minimum","sunlight":["Full sun","part shade"],"default_image":{"image_id":10140,"license":4,"license_name":"Attribution License","license_url":"https://creativecommons.org/licenses/by/2.0/","original_url":"https://perenual.com/storage/species_image/4821_ligustrum_japonicum/og/24273282244_541735372a_b.jpg","regular_url":"https://perenual.com/storage/species_image/4821_ligustrum_japonicum/regular/24273282244_541735372a_b.jpg","medium_url":"https://perenual.com/storage/species_image/4821_ligustrum_japonicum/medium/24273282244_541735372a_b.jpg","small_url":"https://perenual.com/storage/species_image/4821_ligustrum_japonicum/small/24273282244_541735372a_b.jpg","thumbnail":"https://perenual.com/storage/species_image/4821_ligustrum_japonicum/thumbnail/24273282244_541735372a_b.jpg"}},{"id":4822,"common_name":"Japanese privet","scientific_name":["Ligustrum japonicum 'Rotundifolium'"],"other_name":null,"cycle":"Perennial","watering":"Minimum","sunlight":["Full sun","part shade"],"default_image":{"image_id":10146,"license":5,"license_name":"Attribution-ShareAlike License","license_url":"https://creativecommons.org/licenses/by-sa/2.0/","original_url":"https://perenual.com/storage/species_image/4822_ligustrum_japonicum_rotundifolium/og/7223358122_533b35422b_b.jpg","regular_url":"https://perenual.com/storage/species_image/4822_ligustrum_japonicum_rotundifolium/regular/7223358122_533b35422b_b.jpg","medium_url":"https://perenual.com/storage/species_image/4822_ligustrum_japonicum_rotundifolium/medium/7223358122_533b35422b_b.jpg","small_url":"https://perenual.com/storage/species_image/4822_ligustrum_japonicum_rotundifolium/small/7223358122_533b35422b_b.jpg","thumbnail":"https://perenual.com/storage/species_image/4822_ligustrum_japonicum_rotundifolium/thumbnail/7223358122_533b35422b_b.jpg"}},{"id":4823,"common_name":"glossy privet","scientific_name":["Ligustrum lucidum"],"other_name":null,"cycle":"Perennial","watering":"Minimum","sunlight":["Full sun","part shade"],"default_image":{"image_id":10149,"license":5,"license_name":"Attribution-ShareAlike License","license_url":"https://creativecommons.org/licenses/by-sa/2.0/","original_url":"https://perenual.com/storage/species_image/4823_ligustrum_lucidum/og/9255165412_15025e9463_b.jpg","regular_url":"https://perenual.com/storage/species_image/4823_ligustrum_lucidum/regular/9255165412_15025e9463_b.jpg","medium_url":"https://perenual.com/storage/species_image/4823_ligustrum_lucidum/medium/9255165412_15025e9463_b.jpg","small_url":"https://perenual.com/storage/species_image/4823_ligustrum_lucidum/small/9255165412_15025e9463_b.jpg","thumbnail":"https://perenual.com/storage/species_image/4823_ligustrum_lucidum/thumbnail/9255165412_15025e9463_b.jpg"}},{"id":4824,"common_name":"golden privet","scientific_name":["Ligustrum 'NCLX1' GOLDEN TICKET"],"other_name":null,"cycle":"Perennial","watering":"Minimum","sunlight":["Full sun","part shade"],"default_image":{"image_id":9,"license":5,"license_name":"Attribution-ShareAlike License","license_url":"https://creativecommons.org/licenses/by-sa/2.0/","original_url":"https://perenual.com/storage/species_image/2_abies_alba_pyramidalis/og/49255769768_df55596553_b.jpg","regular_url":"https://perenual.com/storage/species_image/2_abies_alba_pyramidalis/regular/49255769768_df55596553_b.jpg","medium_url":"https://perenual.com/storage/species_image/2_abies_alba_pyramidalis/medium/49255769768_df55596553_b.jpg","small_url":"https://perenual.com/storage/species_image/2_abies_alba_pyramidalis/small/49255769768_df55596553_b.jpg","thumbnail":"https://perenual.com/storage/species_image/2_abies_alba_pyramidalis/thumbnail/49255769768_df55596553_b.jpg"}},{"id":4825,"common_name":"border privet","scientific_name":["Ligustrum obtusifolium"],"other_name":null,"cycle":"Perennial","watering":"Minimum","sunlight":["Full sun","part shade"],"default_image":{"image_id":9,"license":5,"license_name":"Attribution-ShareAlike License","license_url":"https://creativecommons.org/licenses/by-sa/2.0/","original_url":"https://perenual.com/storage/species_image/2_abies_alba_pyramidalis/og/49255769768_df55596553_b.jpg","regular_url":"https://perenual.com/storage/species_image/2_abies_alba_pyramidalis/regular/49255769768_df55596553_b.jpg","medium_url":"https://perenual.com/storage/species_image/2_abies_alba_pyramidalis/medium/49255769768_df55596553_b.jpg","small_url":"https://perenual.com/storage/species_image/2_abies_alba_pyramidalis/small/49255769768_df55596553_b.jpg","thumbnail":"https://perenual.com/storage/species_image/2_abies_alba_pyramidalis/thumbnail/49255769768_df55596553_b.jpg"}},{"id":4826,"common_name":"privet","scientific_name":["Ligustrum ovalifolium"],"other_name":null,"cycle":"Perennial","watering":"Minimum","sunlight":["Full sun","part shade"],"default_image":{"image_id":9,"license":5,"license_name":"Attribution-ShareAlike License","license_url":"https://creativecommons.org/licenses/by-sa/2.0/","original_url":"https://perenual.com/storage/species_image/2_abies_alba_pyramidalis/og/49255769768_df55596553_b.jpg","regular_url":"https://perenual.com/storage/species_image/2_abies_alba_pyramidalis/regular/49255769768_df55596553_b.jpg","medium_url":"https://perenual.com/storage/species_image/2_abies_alba_pyramidalis/medium/49255769768_df55596553_b.jpg","small_url":"https://perenual.com/storage/species_image/2_abies_alba_pyramidalis/small/49255769768_df55596553_b.jpg","thumbnail":"https://perenual.com/storage/species_image/2_abies_alba_pyramidalis/thumbnail/49255769768_df55596553_b.jpg"}},{"id":4827,"common_name":"golden privet","scientific_name":["Ligustrum 'Vicaryi'"],"other_name":null,"cycle":"Perennial","watering":"Minimum","sunlight":["Full sun","part shade"],"default_image":{"image_id":21928,"license":45,"license_name":"Attribution-ShareAlike 3.0 Unported (CC BY-SA 3.0)","license_url":"https://creativecommons.org/licenses/by-sa/3.0/deed.en","original_url":"https://perenual.com/storage/species_image/4827_ligustrum_vicaryi/og/Ligustrum_%C3%97_vicaryi_kz1.jpg","regular_url":"https://perenual.com/storage/species_image/4827_ligustrum_vicaryi/regular/Ligustrum_%C3%97_vicaryi_kz1.jpg","medium_url":"https://perenual.com/storage/species_image/4827_ligustrum_vicaryi/medium/Ligustrum_%C3%97_vicaryi_kz1.jpg","small_url":"https://perenual.com/storage/species_image/4827_ligustrum_vicaryi/small/Ligustrum_%C3%97_vicaryi_kz1.jpg","thumbnail":"https://perenual.com/storage/species_image/4827_ligustrum_vicaryi/thumbnail/Ligustrum_%C3%97_vicaryi_kz1.jpg"}},{"id":4828,"common_name":"common privet","scientific_name":["Ligustrum vulgare"],"other_name":null,"cycle":"Perennial","watering":"Minimum","sunlight":["Full sun"],"default_image":{"image_id":10157,"license":4,"license_name":"Attribution License","license_url":"https://creativecommons.org/licenses/by/2.0/","original_url":"https://perenual.com/storage/species_image/4828_ligustrum_vulgare/og/52407988632_998974bb49_b.jpg","regular_url":"https://perenual.com/storage/species_image/4828_ligustrum_vulgare/regular/52407988632_998974bb49_b.jpg","medium_url":"https://perenual.com/storage/species_image/4828_ligustrum_vulgare/medium/52407988632_998974bb49_b.jpg","small_url":"https://perenual.com/storage/species_image/4828_ligustrum_vulgare/small/52407988632_998974bb49_b.jpg","thumbnail":"https://perenual.com/storage/species_image/4828_ligustrum_vulgare/thumbnail/52407988632_998974bb49_b.jpg"}},{"id":4829,"common_name":"trumpet lily","scientific_name":["Lilium (African Queen Group)"],"other_name":null,"cycle":"Perennial","watering":"Average","sunlight":["Full sun","part shade"],"default_image":{"image_id":10165,"license":5,"license_name":"Attribution-ShareAlike License","license_url":"https://creativecommons.org/licenses/by-sa/2.0/","original_url":"https://perenual.com/storage/species_image/4859_lilium_golden_sunburst/og/52164685642_637582e061_b.jpg","regular_url":"https://perenual.com/storage/species_image/4859_lilium_golden_sunburst/regular/52164685642_637582e061_b.jpg","medium_url":"https://perenual.com/storage/species_image/4859_lilium_golden_sunburst/medium/52164685642_637582e061_b.jpg","small_url":"https://perenual.com/storage/species_image/4859_lilium_golden_sunburst/small/52164685642_637582e061_b.jpg","thumbnail":"https://perenual.com/storage/species_image/4859_lilium_golden_sunburst/thumbnail/52164685642_637582e061_b.jpg"}},{"id":4830,"common_name":"oriental lily","scientific_name":["Lilium 'After Eight'"],"other_name":null,"cycle":"Perennial","watering":"Average","sunlight":["Full sun","part shade"],"default_image":{"image_id":10169,"license":5,"license_name":"Attribution-ShareAlike License","license_url":"https://creativecommons.org/licenses/by-sa/2.0/","original_url":"https://perenual.com/storage/species_image/4830_lilium_after_eight/og/45333004491_613e1506a7_b.jpg","regular_url":"https://perenual.com/storage/species_image/4830_lilium_after_eight/regular/45333004491_613e1506a7_b.jpg","medium_url":"https://perenual.com/storage/species_image/4830_lilium_after_eight/medium/45333004491_613e1506a7_b.jpg","small_url":"https://perenual.com/storage/species_image/4830_lilium_after_eight/small/45333004491_613e1506a7_b.jpg","thumbnail":"https://perenual.com/storage/species_image/4830_lilium_after_eight/thumbnail/45333004491_613e1506a7_b.jpg"}}],"to":4830,"per_page":30,"current_page":161,"from":4801,"last_page":200,"total":6000}