{"data":[{"id":3601,"common_name":"daylily","scientific_name":["Hemerocallis 'Rosy Returns'"],"other_name":null,"cycle":"Perennial","watering":"Average","sunlight":["Full sun","part shade"],"default_image":{"image_id":7459,"license":5,"license_name":"Attribution-ShareAlike License","license_url":"https://creativecommons.org/licenses/by-sa/2.0/","original_url":"https://perenual.com/storage/species_image/3601_hemerocallis_rosy_returns/og/51268787944_a801593bfe_b.jpg","regular_url":"https://perenual.com/storage/species_image/3601_hemerocallis_rosy_returns/regular/51268787944_a801593bfe_b.jpg","medium_url":"https://perenual.com/storage/species_image/3601_hemerocallis_rosy_returns/medium/51268787944_a801593bfe_b.jpg","small_url":"https://perenual.com/storage/species_image/3601_hemerocallis_rosy_returns/small/51268787944_a801593bfe_b.jpg","thumbnail":"https://perenual.com/storage/species_image/3601_hemerocallis_rosy_returns/thumbnail/51268787944_a801593bfe_b.jpg"}},{"id":3602,"common_name":"tetraploid daylily","scientific_name":["Hemerocallis 'Ruffles Elegante'"],"other_name":null,"cycle":"Perennial","watering":"Average","sunlight":["Full sun","part shade"],"default_image":{"image_id":7465,"license":5,"license_name":"Attribution-ShareAlike License","license_url":"https://creativecommons.org/licenses/by-sa/2.0/","original_url":"https://perenual.com/storage/species_image/3602_hemerocallis_ruffles_elegante/og/52243665513_c98df331ba_b.jpg","regular_url":"https://perenual.com/storage/species_image/3602_hemerocallis_ruffles_elegante/regular/52243665513_c98df331ba_b.jpg","medium_url":"https://perenual.com/storage/species_image/3602_hemerocallis_ruffles_elegante/medium/52243665513_c98df331ba_b.jpg","small_url":"https://perenual.com/storage/species_image/3602_hemerocallis_ruffles_elegante/small/52243665513_c98df331ba_b.jpg","thumbnail":"https://perenual.com/storage/species_image/3602_hemerocallis_ruffles_elegante/thumbnail/52243665513_c98df331ba_b.jpg"}},{"id":3603,"common_name":"daylily","scientific_name":["Hemerocallis 'Savannah's Big Dream'"],"other_name":null,"cycle":"Perennial","watering":"Average","sunlight":["Full sun","part shade"],"default_image":{"image_id":9,"license":5,"license_name":"Attribution-ShareAlike License","license_url":"https://creativecommons.org/licenses/by-sa/2.0/","original_url":"https://perenual.com/storage/species_image/2_abies_alba_pyramidalis/og/49255769768_df55596553_b.jpg","regular_url":"https://perenual.com/storage/species_image/2_abies_alba_pyramidalis/regular/49255769768_df55596553_b.jpg","medium_url":"https://perenual.com/storage/species_image/2_abies_alba_pyramidalis/medium/49255769768_df55596553_b.jpg","small_url":"https://perenual.com/storage/species_image/2_abies_alba_pyramidalis/small/49255769768_df55596553_b.jpg","thumbnail":"https://perenual.com/storage/species_image/2_abies_alba_pyramidalis/thumbnail/49255769768_df55596553_b.jpg"}},{"id":3604,"common_name":"daylily","scientific_name":["Hemerocallis 'Scarlet Oak'"],"other_name":null,"cycle":"Perennial","watering":"Average","sunlight":["Full sun","part shade"],"default_image":{"image_id":22003,"license":2,"license_name":null,"license_url":null,"original_url":"https://perenual.com/storage/species_image/3630_hemerocallis_ver00204_everydaylily_yellow_punch/og/52389752668_ff18329a33_b.jpg","regular_url":"https://perenual.com/storage/species_image/3630_hemerocallis_ver00204_everydaylily_yellow_punch/regular/52389752668_ff18329a33_b.jpg","medium_url":"https://perenual.com/storage/species_image/3630_hemerocallis_ver00204_everydaylily_yellow_punch/medium/52389752668_ff18329a33_b.jpg","small_url":"https://perenual.com/storage/species_image/3630_hemerocallis_ver00204_everydaylily_yellow_punch/small/52389752668_ff18329a33_b.jpg","thumbnail":"https://perenual.com/storage/species_image/3630_hemerocallis_ver00204_everydaylily_yellow_punch/thumbnail/52389752668_ff18329a33_b.jpg"}},{"id":3605,"common_name":"daylily","scientific_name":["Hemerocallis 'Secret Garden'"],"other_name":null,"cycle":"Perennial","watering":"Average","sunlight":["Full sun","part shade"],"default_image":{"image_id":22003,"license":2,"license_name":null,"license_url":null,"original_url":"https://perenual.com/storage/species_image/3630_hemerocallis_ver00204_everydaylily_yellow_punch/og/52389752668_ff18329a33_b.jpg","regular_url":"https://perenual.com/storage/species_image/3630_hemerocallis_ver00204_everydaylily_yellow_punch/regular/52389752668_ff18329a33_b.jpg","medium_url":"https://perenual.com/storage/species_image/3630_hemerocallis_ver00204_everydaylily_yellow_punch/medium/52389752668_ff18329a33_b.jpg","small_url":"https://perenual.com/storage/species_image/3630_hemerocallis_ver00204_everydaylily_yellow_punch/small/52389752668_ff18329a33_b.jpg","thumbnail":"https://perenual.com/storage/species_image/3630_hemerocallis_ver00204_everydaylily_yellow_punch/thumbnail/52389752668_ff18329a33_b.jpg"}},{"id":3606,"common_name":"daylily","scientific_name":["Hemerocallis 'Sherri Eisner'"],"other_name":null,"cycle":"Perennial","watering":"Average","sunlight":["Full sun","part shade"],"default_image":{"image_id":9,"license":5,"license_name":"Attribution-ShareAlike License","license_url":"https://creativecommons.org/licenses/by-sa/2.0/","original_url":"https://perenual.com/storage/species_image/2_abies_alba_pyramidalis/og/49255769768_df55596553_b.jpg","regular_url":"https://perenual.com/storage/species_image/2_abies_alba_pyramidalis/regular/49255769768_df55596553_b.jpg","medium_url":"https://perenual.com/storage/species_image/2_abies_alba_pyramidalis/medium/49255769768_df55596553_b.jpg","small_url":"https://perenual.com/storage/species_image/2_abies_alba_pyramidalis/small/49255769768_df55596553_b.jpg","thumbnail":"https://perenual.com/storage/species_image/2_abies_alba_pyramidalis/thumbnail/49255769768_df55596553_b.jpg"}},{"id":3607,"common_name":"daylily","scientific_name":["Hemerocallis 'Sidewinder Oh Seven'"],"other_name":null,"cycle":"Perennial","watering":"Average","sunlight":["Full sun","part shade"],"default_image":{"image_id":22004,"license":2,"license_name":null,"license_url":null,"original_url":"https://perenual.com/storage/species_image/3635_hemerocallis_zuni_thunderbird/og/52582474823_f80a05c7ff_b.jpg","regular_url":"https://perenual.com/storage/species_image/3635_hemerocallis_zuni_thunderbird/regular/52582474823_f80a05c7ff_b.jpg","medium_url":"https://perenual.com/storage/species_image/3635_hemerocallis_zuni_thunderbird/medium/52582474823_f80a05c7ff_b.jpg","small_url":"https://perenual.com/storage/species_image/3635_hemerocallis_zuni_thunderbird/small/52582474823_f80a05c7ff_b.jpg","thumbnail":"https://perenual.com/storage/species_image/3635_hemerocallis_zuni_thunderbird/thumbnail/52582474823_f80a05c7ff_b.jpg"}},{"id":3608,"common_name":"daylily","scientific_name":["Hemerocallis 'Siloam Cherry Chimes'"],"other_name":null,"cycle":"Perennial","watering":"Average","sunlight":["Full sun","part shade"],"default_image":{"image_id":22002,"license":2,"license_name":null,"license_url":null,"original_url":"https://perenual.com/storage/species_image/3633_hemerocallis_wayside_king_royale/og/52582221879_4c541c62b5_b.jpg","regular_url":"https://perenual.com/storage/species_image/3633_hemerocallis_wayside_king_royale/regular/52582221879_4c541c62b5_b.jpg","medium_url":"https://perenual.com/storage/species_image/3633_hemerocallis_wayside_king_royale/medium/52582221879_4c541c62b5_b.jpg","small_url":"https://perenual.com/storage/species_image/3633_hemerocallis_wayside_king_royale/small/52582221879_4c541c62b5_b.jpg","thumbnail":"https://perenual.com/storage/species_image/3633_hemerocallis_wayside_king_royale/thumbnail/52582221879_4c541c62b5_b.jpg"}},{"id":3609,"common_name":"daylily","scientific_name":["Hemerocallis 'Siloam David Kirchhoff'"],"other_name":null,"cycle":"Perennial","watering":"Average","sunlight":["Full sun","part shade"],"default_image":{"image_id":7470,"license":5,"license_name":"Attribution-ShareAlike License","license_url":"https://creativecommons.org/licenses/by-sa/2.0/","original_url":"https://perenual.com/storage/species_image/3609_hemerocallis_siloam_david_kirchhoff/og/42506296545_3dcc8722f9_b.jpg","regular_url":"https://perenual.com/storage/species_image/3609_hemerocallis_siloam_david_kirchhoff/regular/42506296545_3dcc8722f9_b.jpg","medium_url":"https://perenual.com/storage/species_image/3609_hemerocallis_siloam_david_kirchhoff/medium/42506296545_3dcc8722f9_b.jpg","small_url":"https://perenual.com/storage/species_image/3609_hemerocallis_siloam_david_kirchhoff/small/42506296545_3dcc8722f9_b.jpg","thumbnail":"https://perenual.com/storage/species_image/3609_hemerocallis_siloam_david_kirchhoff/thumbnail/42506296545_3dcc8722f9_b.jpg"}},{"id":3610,"common_name":"daylily","scientific_name":["Hemerocallis 'Siloam Grace Stamile'"],"other_name":null,"cycle":"Perennial","watering":"Average","sunlight":["Full sun","part shade"],"default_image":{"image_id":22004,"license":2,"license_name":null,"license_url":null,"original_url":"https://perenual.com/storage/species_image/3635_hemerocallis_zuni_thunderbird/og/52582474823_f80a05c7ff_b.jpg","regular_url":"https://perenual.com/storage/species_image/3635_hemerocallis_zuni_thunderbird/regular/52582474823_f80a05c7ff_b.jpg","medium_url":"https://perenual.com/storage/species_image/3635_hemerocallis_zuni_thunderbird/medium/52582474823_f80a05c7ff_b.jpg","small_url":"https://perenual.com/storage/species_image/3635_hemerocallis_zuni_thunderbird/small/52582474823_f80a05c7ff_b.jpg","thumbnail":"https://perenual.com/storage/species_image/3635_hemerocallis_zuni_thunderbird/thumbnail/52582474823_f80a05c7ff_b.jpg"}},{"id":3611,"common_name":"daylily","scientific_name":["Hemerocallis 'Siloam June Bug'"],"other_name":null,"cycle":"Perennial","watering":"Average","sunlight":["Full sun","part shade"],"default_image":{"image_id":22006,"license":2,"license_name":null,"license_url":null,"original_url":"https://perenual.com/storage/species_image/3617_hemerocallis_squash_tempura/og/52388582932_bb5e6a0f86_b.jpg","regular_url":"https://perenual.com/storage/species_image/3617_hemerocallis_squash_tempura/regular/52388582932_bb5e6a0f86_b.jpg","medium_url":"https://perenual.com/storage/species_image/3617_hemerocallis_squash_tempura/medium/52388582932_bb5e6a0f86_b.jpg","small_url":"https://perenual.com/storage/species_image/3617_hemerocallis_squash_tempura/small/52388582932_bb5e6a0f86_b.jpg","thumbnail":"https://perenual.com/storage/species_image/3617_hemerocallis_squash_tempura/thumbnail/52388582932_bb5e6a0f86_b.jpg"}},{"id":3612,"common_name":"daylily","scientific_name":["Hemerocallis 'Sir Francis Drake'"],"other_name":null,"cycle":"Perennial","watering":"Average","sunlight":["Full sun","part shade"],"default_image":{"image_id":22002,"license":2,"license_name":null,"license_url":null,"original_url":"https://perenual.com/storage/species_image/3633_hemerocallis_wayside_king_royale/og/52582221879_4c541c62b5_b.jpg","regular_url":"https://perenual.com/storage/species_image/3633_hemerocallis_wayside_king_royale/regular/52582221879_4c541c62b5_b.jpg","medium_url":"https://perenual.com/storage/species_image/3633_hemerocallis_wayside_king_royale/medium/52582221879_4c541c62b5_b.jpg","small_url":"https://perenual.com/storage/species_image/3633_hemerocallis_wayside_king_royale/small/52582221879_4c541c62b5_b.jpg","thumbnail":"https://perenual.com/storage/species_image/3633_hemerocallis_wayside_king_royale/thumbnail/52582221879_4c541c62b5_b.jpg"}},{"id":3613,"common_name":"daylily","scientific_name":["Hemerocallis 'Sister Clara'"],"other_name":null,"cycle":"Perennial","watering":"Average","sunlight":["Full sun","part shade"],"default_image":{"image_id":9,"license":5,"license_name":"Attribution-ShareAlike License","license_url":"https://creativecommons.org/licenses/by-sa/2.0/","original_url":"https://perenual.com/storage/species_image/2_abies_alba_pyramidalis/og/49255769768_df55596553_b.jpg","regular_url":"https://perenual.com/storage/species_image/2_abies_alba_pyramidalis/regular/49255769768_df55596553_b.jpg","medium_url":"https://perenual.com/storage/species_image/2_abies_alba_pyramidalis/medium/49255769768_df55596553_b.jpg","small_url":"https://perenual.com/storage/species_image/2_abies_alba_pyramidalis/small/49255769768_df55596553_b.jpg","thumbnail":"https://perenual.com/storage/species_image/2_abies_alba_pyramidalis/thumbnail/49255769768_df55596553_b.jpg"}},{"id":3614,"common_name":"tetraploid daylily","scientific_name":["Hemerocallis 'Smooch Hollow'"],"other_name":null,"cycle":"Perennial","watering":"Average","sunlight":["Full sun","part shade"],"default_image":{"image_id":7338,"license":5,"license_name":"Attribution-ShareAlike License","license_url":"https://creativecommons.org/licenses/by-sa/2.0/","original_url":"https://perenual.com/storage/species_image/3616_hemerocallis_spacecoast_tiny_perfection/og/52260468727_c19cbdded1_b.jpg","regular_url":"https://perenual.com/storage/species_image/3616_hemerocallis_spacecoast_tiny_perfection/regular/52260468727_c19cbdded1_b.jpg","medium_url":"https://perenual.com/storage/species_image/3616_hemerocallis_spacecoast_tiny_perfection/medium/52260468727_c19cbdded1_b.jpg","small_url":"https://perenual.com/storage/species_image/3616_hemerocallis_spacecoast_tiny_perfection/small/52260468727_c19cbdded1_b.jpg","thumbnail":"https://perenual.com/storage/species_image/3616_hemerocallis_spacecoast_tiny_perfection/thumbnail/52260468727_c19cbdded1_b.jpg"}},{"id":3615,"common_name":"daylily","scientific_name":["Hemerocallis 'Song Sparrow'"],"other_name":null,"cycle":"Perennial","watering":"Average","sunlight":["Full sun","part shade"],"default_image":{"image_id":9,"license":5,"license_name":"Attribution-ShareAlike License","license_url":"https://creativecommons.org/licenses/by-sa/2.0/","original_url":"https://perenual.com/storage/species_image/2_abies_alba_pyramidalis/og/49255769768_df55596553_b.jpg","regular_url":"https://perenual.com/storage/species_image/2_abies_alba_pyramidalis/regular/49255769768_df55596553_b.jpg","medium_url":"https://perenual.com/storage/species_image/2_abies_alba_pyramidalis/medium/49255769768_df55596553_b.jpg","small_url":"https://perenual.com/storage/species_image/2_abies_alba_pyramidalis/small/49255769768_df55596553_b.jpg","thumbnail":"https://perenual.com/storage/species_image/2_abies_alba_pyramidalis/thumbnail/49255769768_df55596553_b.jpg"}},{"id":3616,"common_name":"tetraploid daylily","scientific_name":["Hemerocallis 'Spacecoast Tiny Perfection'"],"other_name":null,"cycle":"Perennial","watering":"Average","sunlight":["Full sun","part shade"],"default_image":{"image_id":7338,"license":5,"license_name":"Attribution-ShareAlike License","license_url":"https://creativecommons.org/licenses/by-sa/2.0/","original_url":"https://perenual.com/storage/species_image/3616_hemerocallis_spacecoast_tiny_perfection/og/52260468727_c19cbdded1_b.jpg","regular_url":"https://perenual.com/storage/species_image/3616_hemerocallis_spacecoast_tiny_perfection/regular/52260468727_c19cbdded1_b.jpg","medium_url":"https://perenual.com/storage/species_image/3616_hemerocallis_spacecoast_tiny_perfection/medium/52260468727_c19cbdded1_b.jpg","small_url":"https://perenual.com/storage/species_image/3616_hemerocallis_spacecoast_tiny_perfection/small/52260468727_c19cbdded1_b.jpg","thumbnail":"https://perenual.com/storage/species_image/3616_hemerocallis_spacecoast_tiny_perfection/thumbnail/52260468727_c19cbdded1_b.jpg"}},{"id":3617,"common_name":"daylily","scientific_name":["Hemerocallis 'Squash Tempura'"],"other_name":null,"cycle":"Perennial","watering":"Average","sunlight":["Full sun","part shade"],"default_image":{"image_id":22006,"license":2,"license_name":null,"license_url":null,"original_url":"https://perenual.com/storage/species_image/3617_hemerocallis_squash_tempura/og/52388582932_bb5e6a0f86_b.jpg","regular_url":"https://perenual.com/storage/species_image/3617_hemerocallis_squash_tempura/regular/52388582932_bb5e6a0f86_b.jpg","medium_url":"https://perenual.com/storage/species_image/3617_hemerocallis_squash_tempura/medium/52388582932_bb5e6a0f86_b.jpg","small_url":"https://perenual.com/storage/species_image/3617_hemerocallis_squash_tempura/small/52388582932_bb5e6a0f86_b.jpg","thumbnail":"https://perenual.com/storage/species_image/3617_hemerocallis_squash_tempura/thumbnail/52388582932_bb5e6a0f86_b.jpg"}},{"id":3618,"common_name":"daylily","scientific_name":["Hemerocallis 'Steeple Jackie'"],"other_name":null,"cycle":"Perennial","watering":"Average","sunlight":["Full sun","part shade"],"default_image":{"image_id":7472,"license":5,"license_name":"Attribution-ShareAlike License","license_url":"https://creativecommons.org/licenses/by-sa/2.0/","original_url":"https://perenual.com/storage/species_image/3618_hemerocallis_steeple_jackie/og/51399774871_53e712a0eb_b.jpg","regular_url":"https://perenual.com/storage/species_image/3618_hemerocallis_steeple_jackie/regular/51399774871_53e712a0eb_b.jpg","medium_url":"https://perenual.com/storage/species_image/3618_hemerocallis_steeple_jackie/medium/51399774871_53e712a0eb_b.jpg","small_url":"https://perenual.com/storage/species_image/3618_hemerocallis_steeple_jackie/small/51399774871_53e712a0eb_b.jpg","thumbnail":"https://perenual.com/storage/species_image/3618_hemerocallis_steeple_jackie/thumbnail/51399774871_53e712a0eb_b.jpg"}},{"id":3619,"common_name":"daylily","scientific_name":["Hemerocallis 'Stella de Oro'"],"other_name":null,"cycle":"Perennial","watering":"Average","sunlight":["Full sun","part shade"],"default_image":{"image_id":7474,"license":4,"license_name":"Attribution License","license_url":"https://creativecommons.org/licenses/by/2.0/","original_url":"https://perenual.com/storage/species_image/3619_hemerocallis_stella_de_oro/og/48291547617_1009ef488a_b.jpg","regular_url":"https://perenual.com/storage/species_image/3619_hemerocallis_stella_de_oro/regular/48291547617_1009ef488a_b.jpg","medium_url":"https://perenual.com/storage/species_image/3619_hemerocallis_stella_de_oro/medium/48291547617_1009ef488a_b.jpg","small_url":"https://perenual.com/storage/species_image/3619_hemerocallis_stella_de_oro/small/48291547617_1009ef488a_b.jpg","thumbnail":"https://perenual.com/storage/species_image/3619_hemerocallis_stella_de_oro/thumbnail/48291547617_1009ef488a_b.jpg"}},{"id":3620,"common_name":"tetraploid daylily","scientific_name":["Hemerocallis 'Strawberry Rose'"],"other_name":null,"cycle":"Perennial","watering":"Average","sunlight":["Full sun","part shade"],"default_image":{"image_id":7477,"license":5,"license_name":"Attribution-ShareAlike License","license_url":"https://creativecommons.org/licenses/by-sa/2.0/","original_url":"https://perenual.com/storage/species_image/3620_hemerocallis_strawberry_rose/og/51297607487_ae56b7cc97_b.jpg","regular_url":"https://perenual.com/storage/species_image/3620_hemerocallis_strawberry_rose/regular/51297607487_ae56b7cc97_b.jpg","medium_url":"https://perenual.com/storage/species_image/3620_hemerocallis_strawberry_rose/medium/51297607487_ae56b7cc97_b.jpg","small_url":"https://perenual.com/storage/species_image/3620_hemerocallis_strawberry_rose/small/51297607487_ae56b7cc97_b.jpg","thumbnail":"https://perenual.com/storage/species_image/3620_hemerocallis_strawberry_rose/thumbnail/51297607487_ae56b7cc97_b.jpg"}},{"id":3621,"common_name":"daylily","scientific_name":["Hemerocallis 'Swedish Girl'"],"other_name":null,"cycle":"Perennial","watering":"Average","sunlight":["Full sun","part shade"],"default_image":{"image_id":22002,"license":2,"license_name":null,"license_url":null,"original_url":"https://perenual.com/storage/species_image/3633_hemerocallis_wayside_king_royale/og/52582221879_4c541c62b5_b.jpg","regular_url":"https://perenual.com/storage/species_image/3633_hemerocallis_wayside_king_royale/regular/52582221879_4c541c62b5_b.jpg","medium_url":"https://perenual.com/storage/species_image/3633_hemerocallis_wayside_king_royale/medium/52582221879_4c541c62b5_b.jpg","small_url":"https://perenual.com/storage/species_image/3633_hemerocallis_wayside_king_royale/small/52582221879_4c541c62b5_b.jpg","thumbnail":"https://perenual.com/storage/species_image/3633_hemerocallis_wayside_king_royale/thumbnail/52582221879_4c541c62b5_b.jpg"}},{"id":3622,"common_name":"daylily","scientific_name":["Hemerocallis 'Swirling Water'"],"other_name":null,"cycle":"Perennial","watering":"Average","sunlight":["Full sun","part shade"],"default_image":{"image_id":9,"license":5,"license_name":"Attribution-ShareAlike License","license_url":"https://creativecommons.org/licenses/by-sa/2.0/","original_url":"https://perenual.com/storage/species_image/2_abies_alba_pyramidalis/og/49255769768_df55596553_b.jpg","regular_url":"https://perenual.com/storage/species_image/2_abies_alba_pyramidalis/regular/49255769768_df55596553_b.jpg","medium_url":"https://perenual.com/storage/species_image/2_abies_alba_pyramidalis/medium/49255769768_df55596553_b.jpg","small_url":"https://perenual.com/storage/species_image/2_abies_alba_pyramidalis/small/49255769768_df55596553_b.jpg","thumbnail":"https://perenual.com/storage/species_image/2_abies_alba_pyramidalis/thumbnail/49255769768_df55596553_b.jpg"}},{"id":3623,"common_name":"daylily","scientific_name":["Hemerocallis 'Techny Spider'"],"other_name":null,"cycle":"Perennial","watering":"Average","sunlight":["Full sun","part shade"],"default_image":{"image_id":7389,"license":5,"license_name":"Attribution-ShareAlike License","license_url":"https://creativecommons.org/licenses/by-sa/2.0/","original_url":"https://perenual.com/storage/species_image/3623_hemerocallis_techny_spider/og/52238172943_d43b22ddec_b.jpg","regular_url":"https://perenual.com/storage/species_image/3623_hemerocallis_techny_spider/regular/52238172943_d43b22ddec_b.jpg","medium_url":"https://perenual.com/storage/species_image/3623_hemerocallis_techny_spider/medium/52238172943_d43b22ddec_b.jpg","small_url":"https://perenual.com/storage/species_image/3623_hemerocallis_techny_spider/small/52238172943_d43b22ddec_b.jpg","thumbnail":"https://perenual.com/storage/species_image/3623_hemerocallis_techny_spider/thumbnail/52238172943_d43b22ddec_b.jpg"}},{"id":3624,"common_name":"daylily","scientific_name":["Hemerocallis 'Tennyson'"],"other_name":null,"cycle":"Perennial","watering":"Average","sunlight":["Full sun","part shade"],"default_image":{"image_id":9,"license":5,"license_name":"Attribution-ShareAlike License","license_url":"https://creativecommons.org/licenses/by-sa/2.0/","original_url":"https://perenual.com/storage/species_image/2_abies_alba_pyramidalis/og/49255769768_df55596553_b.jpg","regular_url":"https://perenual.com/storage/species_image/2_abies_alba_pyramidalis/regular/49255769768_df55596553_b.jpg","medium_url":"https://perenual.com/storage/species_image/2_abies_alba_pyramidalis/medium/49255769768_df55596553_b.jpg","small_url":"https://perenual.com/storage/species_image/2_abies_alba_pyramidalis/small/49255769768_df55596553_b.jpg","thumbnail":"https://perenual.com/storage/species_image/2_abies_alba_pyramidalis/thumbnail/49255769768_df55596553_b.jpg"}},{"id":3625,"common_name":"daylily","scientific_name":["Hemerocallis 'Tetrina's Daughter'"],"other_name":null,"cycle":"Perennial","watering":"Average","sunlight":["Full sun","part shade"],"default_image":{"image_id":9,"license":5,"license_name":"Attribution-ShareAlike License","license_url":"https://creativecommons.org/licenses/by-sa/2.0/","original_url":"https://perenual.com/storage/species_image/2_abies_alba_pyramidalis/og/49255769768_df55596553_b.jpg","regular_url":"https://perenual.com/storage/species_image/2_abies_alba_pyramidalis/regular/49255769768_df55596553_b.jpg","medium_url":"https://perenual.com/storage/species_image/2_abies_alba_pyramidalis/medium/49255769768_df55596553_b.jpg","small_url":"https://perenual.com/storage/species_image/2_abies_alba_pyramidalis/small/49255769768_df55596553_b.jpg","thumbnail":"https://perenual.com/storage/species_image/2_abies_alba_pyramidalis/thumbnail/49255769768_df55596553_b.jpg"}},{"id":3626,"common_name":"daylily","scientific_name":["Hemerocallis 'Texas Big Bend'"],"other_name":null,"cycle":"Perennial","watering":"Average","sunlight":["Full sun","part shade"],"default_image":{"image_id":22003,"license":2,"license_name":null,"license_url":null,"original_url":"https://perenual.com/storage/species_image/3630_hemerocallis_ver00204_everydaylily_yellow_punch/og/52389752668_ff18329a33_b.jpg","regular_url":"https://perenual.com/storage/species_image/3630_hemerocallis_ver00204_everydaylily_yellow_punch/regular/52389752668_ff18329a33_b.jpg","medium_url":"https://perenual.com/storage/species_image/3630_hemerocallis_ver00204_everydaylily_yellow_punch/medium/52389752668_ff18329a33_b.jpg","small_url":"https://perenual.com/storage/species_image/3630_hemerocallis_ver00204_everydaylily_yellow_punch/small/52389752668_ff18329a33_b.jpg","thumbnail":"https://perenual.com/storage/species_image/3630_hemerocallis_ver00204_everydaylily_yellow_punch/thumbnail/52389752668_ff18329a33_b.jpg"}},{"id":3627,"common_name":"daylily","scientific_name":["Hemerocallis 'Thousand Voices'"],"other_name":null,"cycle":"Perennial","watering":"Average","sunlight":["Full sun","part shade"],"default_image":{"image_id":9,"license":5,"license_name":"Attribution-ShareAlike License","license_url":"https://creativecommons.org/licenses/by-sa/2.0/","original_url":"https://perenual.com/storage/species_image/2_abies_alba_pyramidalis/og/49255769768_df55596553_b.jpg","regular_url":"https://perenual.com/storage/species_image/2_abies_alba_pyramidalis/regular/49255769768_df55596553_b.jpg","medium_url":"https://perenual.com/storage/species_image/2_abies_alba_pyramidalis/medium/49255769768_df55596553_b.jpg","small_url":"https://perenual.com/storage/species_image/2_abies_alba_pyramidalis/small/49255769768_df55596553_b.jpg","thumbnail":"https://perenual.com/storage/species_image/2_abies_alba_pyramidalis/thumbnail/49255769768_df55596553_b.jpg"}},{"id":3628,"common_name":"tetraploid daylily","scientific_name":["Hemerocallis 'Tiger Time'"],"other_name":null,"cycle":"Perennial","watering":"Average","sunlight":["Full sun","part shade"],"default_image":{"image_id":9,"license":5,"license_name":"Attribution-ShareAlike License","license_url":"https://creativecommons.org/licenses/by-sa/2.0/","original_url":"https://perenual.com/storage/species_image/2_abies_alba_pyramidalis/og/49255769768_df55596553_b.jpg","regular_url":"https://perenual.com/storage/species_image/2_abies_alba_pyramidalis/regular/49255769768_df55596553_b.jpg","medium_url":"https://perenual.com/storage/species_image/2_abies_alba_pyramidalis/medium/49255769768_df55596553_b.jpg","small_url":"https://perenual.com/storage/species_image/2_abies_alba_pyramidalis/small/49255769768_df55596553_b.jpg","thumbnail":"https://perenual.com/storage/species_image/2_abies_alba_pyramidalis/thumbnail/49255769768_df55596553_b.jpg"}},{"id":3629,"common_name":"daylily","scientific_name":["Hemerocallis 'Tropical Delight'"],"other_name":null,"cycle":"Perennial","watering":"Average","sunlight":["Full sun","part shade"],"default_image":{"image_id":22007,"license":2,"license_name":null,"license_url":null,"original_url":"https://perenual.com/storage/species_image/3629_hemerocallis_tropical_delight/og/52341967897_837f455421_b.jpg","regular_url":"https://perenual.com/storage/species_image/3629_hemerocallis_tropical_delight/regular/52341967897_837f455421_b.jpg","medium_url":"https://perenual.com/storage/species_image/3629_hemerocallis_tropical_delight/medium/52341967897_837f455421_b.jpg","small_url":"https://perenual.com/storage/species_image/3629_hemerocallis_tropical_delight/small/52341967897_837f455421_b.jpg","thumbnail":"https://perenual.com/storage/species_image/3629_hemerocallis_tropical_delight/thumbnail/52341967897_837f455421_b.jpg"}},{"id":3630,"common_name":"daylily","scientific_name":["Hemerocallis 'VER00204' EVERYDAYLILY YELLOW PUNCH"],"other_name":null,"cycle":"Perennial","watering":"Average","sunlight":["Full sun","part shade"],"default_image":{"image_id":22003,"license":2,"license_name":null,"license_url":null,"original_url":"https://perenual.com/storage/species_image/3630_hemerocallis_ver00204_everydaylily_yellow_punch/og/52389752668_ff18329a33_b.jpg","regular_url":"https://perenual.com/storage/species_image/3630_hemerocallis_ver00204_everydaylily_yellow_punch/regular/52389752668_ff18329a33_b.jpg","medium_url":"https://perenual.com/storage/species_image/3630_hemerocallis_ver00204_everydaylily_yellow_punch/medium/52389752668_ff18329a33_b.jpg","small_url":"https://perenual.com/storage/species_image/3630_hemerocallis_ver00204_everydaylily_yellow_punch/small/52389752668_ff18329a33_b.jpg","thumbnail":"https://perenual.com/storage/species_image/3630_hemerocallis_ver00204_everydaylily_yellow_punch/thumbnail/52389752668_ff18329a33_b.jpg"}}],"to":3630,"per_page":30,"current_page":121,"from":3601,"last_page":200,"total":6000}