{"data":[{"id":2011,"common_name":"autumn crocus","scientific_name":["Colchicum 'Violet Queen'"],"other_name":null,"cycle":"Perennial","watering":"Minimum","sunlight":["Full sun","part shade"],"default_image":{"image_id":4876,"license":4,"license_name":"Attribution License","license_url":"https://creativecommons.org/licenses/by/2.0/","original_url":"https://perenual.com/storage/species_image/2011_colchicum_violet_queen/og/51342264802_38edca5f8d_b.jpg","regular_url":"https://perenual.com/storage/species_image/2011_colchicum_violet_queen/regular/51342264802_38edca5f8d_b.jpg","medium_url":"https://perenual.com/storage/species_image/2011_colchicum_violet_queen/medium/51342264802_38edca5f8d_b.jpg","small_url":"https://perenual.com/storage/species_image/2011_colchicum_violet_queen/small/51342264802_38edca5f8d_b.jpg","thumbnail":"https://perenual.com/storage/species_image/2011_colchicum_violet_queen/thumbnail/51342264802_38edca5f8d_b.jpg"}},{"id":2012,"common_name":"autumn crocus","scientific_name":["Colchicum 'Waterlily'"],"other_name":null,"cycle":"Perennial","watering":"Average","sunlight":["Full sun","part shade"],"default_image":{"image_id":9,"license":5,"license_name":"Attribution-ShareAlike License","license_url":"https://creativecommons.org/licenses/by-sa/2.0/","original_url":"https://perenual.com/storage/species_image/2_abies_alba_pyramidalis/og/49255769768_df55596553_b.jpg","regular_url":"https://perenual.com/storage/species_image/2_abies_alba_pyramidalis/regular/49255769768_df55596553_b.jpg","medium_url":"https://perenual.com/storage/species_image/2_abies_alba_pyramidalis/medium/49255769768_df55596553_b.jpg","small_url":"https://perenual.com/storage/species_image/2_abies_alba_pyramidalis/small/49255769768_df55596553_b.jpg","thumbnail":"https://perenual.com/storage/species_image/2_abies_alba_pyramidalis/thumbnail/49255769768_df55596553_b.jpg"}},{"id":2013,"common_name":"blue-eyed Mary","scientific_name":["Collinsia verna"],"other_name":null,"cycle":"Perennial","watering":"Average","sunlight":["Part shade"],"default_image":{"image_id":4880,"license":4,"license_name":"Attribution License","license_url":"https://creativecommons.org/licenses/by/2.0/","original_url":"https://perenual.com/storage/species_image/2013_collinsia_verna/og/33268751803_8860e83cea_b.jpg","regular_url":"https://perenual.com/storage/species_image/2013_collinsia_verna/regular/33268751803_8860e83cea_b.jpg","medium_url":"https://perenual.com/storage/species_image/2013_collinsia_verna/medium/33268751803_8860e83cea_b.jpg","small_url":"https://perenual.com/storage/species_image/2013_collinsia_verna/small/33268751803_8860e83cea_b.jpg","thumbnail":"https://perenual.com/storage/species_image/2013_collinsia_verna/thumbnail/33268751803_8860e83cea_b.jpg"}},{"id":2014,"common_name":"horse balm","scientific_name":["Collinsonia canadensis"],"other_name":null,"cycle":"Perennial","watering":"Average","sunlight":["Part shade"],"default_image":{"image_id":9,"license":5,"license_name":"Attribution-ShareAlike License","license_url":"https://creativecommons.org/licenses/by-sa/2.0/","original_url":"https://perenual.com/storage/species_image/2_abies_alba_pyramidalis/og/49255769768_df55596553_b.jpg","regular_url":"https://perenual.com/storage/species_image/2_abies_alba_pyramidalis/regular/49255769768_df55596553_b.jpg","medium_url":"https://perenual.com/storage/species_image/2_abies_alba_pyramidalis/medium/49255769768_df55596553_b.jpg","small_url":"https://perenual.com/storage/species_image/2_abies_alba_pyramidalis/small/49255769768_df55596553_b.jpg","thumbnail":"https://perenual.com/storage/species_image/2_abies_alba_pyramidalis/thumbnail/49255769768_df55596553_b.jpg"}},{"id":2015,"common_name":"taro","scientific_name":["Colocasia esculenta"],"other_name":["coloyam","elephant's ear","elephant's ear"],"cycle":"Perennial","watering":"Frequent","sunlight":["Filtered shade"," Part sun/part shade"],"default_image":{"image_id":4888,"license":4,"license_name":"Attribution License","license_url":"https://creativecommons.org/licenses/by/2.0/","original_url":"https://perenual.com/storage/species_image/2015_colocasia_esculenta/og/24325097844_14719030a3_b.jpg","regular_url":"https://perenual.com/storage/species_image/2015_colocasia_esculenta/regular/24325097844_14719030a3_b.jpg","medium_url":"https://perenual.com/storage/species_image/2015_colocasia_esculenta/medium/24325097844_14719030a3_b.jpg","small_url":"https://perenual.com/storage/species_image/2015_colocasia_esculenta/small/24325097844_14719030a3_b.jpg","thumbnail":"https://perenual.com/storage/species_image/2015_colocasia_esculenta/thumbnail/24325097844_14719030a3_b.jpg"}},{"id":2016,"common_name":"taro","scientific_name":["Colocasia esculenta 'Black Magic'"],"other_name":["coloyam","elephant's ear","elephant's ear"],"cycle":"Perennial","watering":"Frequent","sunlight":["Filtered shade"," Part sun/part shade"],"default_image":{"image_id":4894,"license":4,"license_name":"Attribution License","license_url":"https://creativecommons.org/licenses/by/2.0/","original_url":"https://perenual.com/storage/species_image/2016_colocasia_esculenta_black_magic/og/3644723319_b0cca09b4b_b.jpg","regular_url":"https://perenual.com/storage/species_image/2016_colocasia_esculenta_black_magic/regular/3644723319_b0cca09b4b_b.jpg","medium_url":"https://perenual.com/storage/species_image/2016_colocasia_esculenta_black_magic/medium/3644723319_b0cca09b4b_b.jpg","small_url":"https://perenual.com/storage/species_image/2016_colocasia_esculenta_black_magic/small/3644723319_b0cca09b4b_b.jpg","thumbnail":"https://perenual.com/storage/species_image/2016_colocasia_esculenta_black_magic/thumbnail/3644723319_b0cca09b4b_b.jpg"}},{"id":2017,"common_name":"taro","scientific_name":["Colocasia esculenta 'Black Ripple'"],"other_name":["coloyam","elephant's ear","elephant's ear"],"cycle":"Perennial","watering":"Frequent","sunlight":["Filtered shade"," Part sun/part shade"],"default_image":{"image_id":9,"license":5,"license_name":"Attribution-ShareAlike License","license_url":"https://creativecommons.org/licenses/by-sa/2.0/","original_url":"https://perenual.com/storage/species_image/2_abies_alba_pyramidalis/og/49255769768_df55596553_b.jpg","regular_url":"https://perenual.com/storage/species_image/2_abies_alba_pyramidalis/regular/49255769768_df55596553_b.jpg","medium_url":"https://perenual.com/storage/species_image/2_abies_alba_pyramidalis/medium/49255769768_df55596553_b.jpg","small_url":"https://perenual.com/storage/species_image/2_abies_alba_pyramidalis/small/49255769768_df55596553_b.jpg","thumbnail":"https://perenual.com/storage/species_image/2_abies_alba_pyramidalis/thumbnail/49255769768_df55596553_b.jpg"}},{"id":2018,"common_name":"taro","scientific_name":["Colocasia esculenta 'Blue Hawaii'"],"other_name":["coloyam","elephant's ear","elephant's ear"],"cycle":"Perennial","watering":"Frequent","sunlight":["Filtered shade"," Part sun/part shade"],"default_image":{"image_id":4897,"license":4,"license_name":"Attribution License","license_url":"https://creativecommons.org/licenses/by/2.0/","original_url":"https://perenual.com/storage/species_image/2018_colocasia_esculenta_blue_hawaii/og/52064879186_6325216506_b.jpg","regular_url":"https://perenual.com/storage/species_image/2018_colocasia_esculenta_blue_hawaii/regular/52064879186_6325216506_b.jpg","medium_url":"https://perenual.com/storage/species_image/2018_colocasia_esculenta_blue_hawaii/medium/52064879186_6325216506_b.jpg","small_url":"https://perenual.com/storage/species_image/2018_colocasia_esculenta_blue_hawaii/small/52064879186_6325216506_b.jpg","thumbnail":"https://perenual.com/storage/species_image/2018_colocasia_esculenta_blue_hawaii/thumbnail/52064879186_6325216506_b.jpg"}},{"id":2019,"common_name":"taro","scientific_name":["Colocasia esculenta 'Elena'"],"other_name":["coloyam","elephant's ear","elephant's ear"],"cycle":"Perennial","watering":"Frequent","sunlight":["Filtered shade"," Part sun/part shade"],"default_image":{"image_id":4898,"license":45,"license_name":"Attribution-ShareAlike 3.0 Unported (CC BY-SA 3.0)","license_url":"https://creativecommons.org/licenses/by-sa/3.0/deed.en","original_url":"https://perenual.com/storage/species_image/2019_colocasia_esculenta_elena/og/Elephant_Ear_Colocasia_esculenta_%27Yellow_Splash%27_Leaves_3254px.jpg","regular_url":"https://perenual.com/storage/species_image/2019_colocasia_esculenta_elena/regular/Elephant_Ear_Colocasia_esculenta_%27Yellow_Splash%27_Leaves_3254px.jpg","medium_url":"https://perenual.com/storage/species_image/2019_colocasia_esculenta_elena/medium/Elephant_Ear_Colocasia_esculenta_%27Yellow_Splash%27_Leaves_3254px.jpg","small_url":"https://perenual.com/storage/species_image/2019_colocasia_esculenta_elena/small/Elephant_Ear_Colocasia_esculenta_%27Yellow_Splash%27_Leaves_3254px.jpg","thumbnail":"https://perenual.com/storage/species_image/2019_colocasia_esculenta_elena/thumbnail/Elephant_Ear_Colocasia_esculenta_%27Yellow_Splash%27_Leaves_3254px.jpg"}},{"id":2020,"common_name":"taro","scientific_name":["Colocasia esculenta 'Hawaiian Punch'"],"other_name":["coloyam","elephant's ear","elephant's ear"],"cycle":"Perennial","watering":"Frequent","sunlight":["Filtered shade"," Part sun/part shade"],"default_image":{"image_id":4897,"license":4,"license_name":"Attribution License","license_url":"https://creativecommons.org/licenses/by/2.0/","original_url":"https://perenual.com/storage/species_image/2018_colocasia_esculenta_blue_hawaii/og/52064879186_6325216506_b.jpg","regular_url":"https://perenual.com/storage/species_image/2018_colocasia_esculenta_blue_hawaii/regular/52064879186_6325216506_b.jpg","medium_url":"https://perenual.com/storage/species_image/2018_colocasia_esculenta_blue_hawaii/medium/52064879186_6325216506_b.jpg","small_url":"https://perenual.com/storage/species_image/2018_colocasia_esculenta_blue_hawaii/small/52064879186_6325216506_b.jpg","thumbnail":"https://perenual.com/storage/species_image/2018_colocasia_esculenta_blue_hawaii/thumbnail/52064879186_6325216506_b.jpg"}},{"id":2021,"common_name":"taro","scientific_name":["Colocasia esculenta 'Kona Coffee'"],"other_name":["coloyam","elephant's ear","elephant's ear"],"cycle":"Perennial","watering":"Frequent","sunlight":["Filtered shade"," Part sun/part shade"],"default_image":{"image_id":4899,"license":5,"license_name":"Attribution-ShareAlike License","license_url":"https://creativecommons.org/licenses/by-sa/2.0/","original_url":"https://perenual.com/storage/species_image/2021_colocasia_esculenta_kona_coffee/og/35615817173_09dbaed998_b.jpg","regular_url":"https://perenual.com/storage/species_image/2021_colocasia_esculenta_kona_coffee/regular/35615817173_09dbaed998_b.jpg","medium_url":"https://perenual.com/storage/species_image/2021_colocasia_esculenta_kona_coffee/medium/35615817173_09dbaed998_b.jpg","small_url":"https://perenual.com/storage/species_image/2021_colocasia_esculenta_kona_coffee/small/35615817173_09dbaed998_b.jpg","thumbnail":"https://perenual.com/storage/species_image/2021_colocasia_esculenta_kona_coffee/thumbnail/35615817173_09dbaed998_b.jpg"}},{"id":2022,"common_name":"taro","scientific_name":["Colocasia esculenta 'Mojito'"],"other_name":["coloyam","elephant's ear","elephant's ear"],"cycle":"Perennial","watering":"Frequent","sunlight":["Filtered shade"," Part sun/part shade"],"default_image":{"image_id":9,"license":5,"license_name":"Attribution-ShareAlike License","license_url":"https://creativecommons.org/licenses/by-sa/2.0/","original_url":"https://perenual.com/storage/species_image/2_abies_alba_pyramidalis/og/49255769768_df55596553_b.jpg","regular_url":"https://perenual.com/storage/species_image/2_abies_alba_pyramidalis/regular/49255769768_df55596553_b.jpg","medium_url":"https://perenual.com/storage/species_image/2_abies_alba_pyramidalis/medium/49255769768_df55596553_b.jpg","small_url":"https://perenual.com/storage/species_image/2_abies_alba_pyramidalis/small/49255769768_df55596553_b.jpg","thumbnail":"https://perenual.com/storage/species_image/2_abies_alba_pyramidalis/thumbnail/49255769768_df55596553_b.jpg"}},{"id":2023,"common_name":"taro","scientific_name":["Colocasia esculenta 'Royal Hawaiian Aloha'"],"other_name":["coloyam","elephant's ear","elephant's ear"],"cycle":"Perennial","watering":"Frequent","sunlight":["Filtered shade"," Part sun/part shade"],"default_image":{"image_id":9,"license":5,"license_name":"Attribution-ShareAlike License","license_url":"https://creativecommons.org/licenses/by-sa/2.0/","original_url":"https://perenual.com/storage/species_image/2_abies_alba_pyramidalis/og/49255769768_df55596553_b.jpg","regular_url":"https://perenual.com/storage/species_image/2_abies_alba_pyramidalis/regular/49255769768_df55596553_b.jpg","medium_url":"https://perenual.com/storage/species_image/2_abies_alba_pyramidalis/medium/49255769768_df55596553_b.jpg","small_url":"https://perenual.com/storage/species_image/2_abies_alba_pyramidalis/small/49255769768_df55596553_b.jpg","thumbnail":"https://perenual.com/storage/species_image/2_abies_alba_pyramidalis/thumbnail/49255769768_df55596553_b.jpg"}},{"id":2024,"common_name":"taro","scientific_name":["Colocasia esculenta 'Tropical Storm'"],"other_name":["coloyam","elephant's ear","elephant's ear"],"cycle":"Perennial","watering":"Frequent","sunlight":["Filtered shade"," Part sun/part shade"],"default_image":{"image_id":9,"license":5,"license_name":"Attribution-ShareAlike License","license_url":"https://creativecommons.org/licenses/by-sa/2.0/","original_url":"https://perenual.com/storage/species_image/2_abies_alba_pyramidalis/og/49255769768_df55596553_b.jpg","regular_url":"https://perenual.com/storage/species_image/2_abies_alba_pyramidalis/regular/49255769768_df55596553_b.jpg","medium_url":"https://perenual.com/storage/species_image/2_abies_alba_pyramidalis/medium/49255769768_df55596553_b.jpg","small_url":"https://perenual.com/storage/species_image/2_abies_alba_pyramidalis/small/49255769768_df55596553_b.jpg","thumbnail":"https://perenual.com/storage/species_image/2_abies_alba_pyramidalis/thumbnail/49255769768_df55596553_b.jpg"}},{"id":2025,"common_name":"taro","scientific_name":["Colocasia esculenta (vegetable group)"],"other_name":["coloyam","elephant's ear","elephant's ear"],"cycle":"Perennial","watering":"Frequent","sunlight":["Filtered shade"," Part sun/part shade"],"default_image":{"image_id":9,"license":5,"license_name":"Attribution-ShareAlike License","license_url":"https://creativecommons.org/licenses/by-sa/2.0/","original_url":"https://perenual.com/storage/species_image/2_abies_alba_pyramidalis/og/49255769768_df55596553_b.jpg","regular_url":"https://perenual.com/storage/species_image/2_abies_alba_pyramidalis/regular/49255769768_df55596553_b.jpg","medium_url":"https://perenual.com/storage/species_image/2_abies_alba_pyramidalis/medium/49255769768_df55596553_b.jpg","small_url":"https://perenual.com/storage/species_image/2_abies_alba_pyramidalis/small/49255769768_df55596553_b.jpg","thumbnail":"https://perenual.com/storage/species_image/2_abies_alba_pyramidalis/thumbnail/49255769768_df55596553_b.jpg"}},{"id":2026,"common_name":"taro","scientific_name":["Colocasia fallax"],"other_name":null,"cycle":"Perennial","watering":"Frequent","sunlight":["Part shade"],"default_image":{"image_id":4902,"license":5,"license_name":"Attribution-ShareAlike License","license_url":"https://creativecommons.org/licenses/by-sa/2.0/","original_url":"https://perenual.com/storage/species_image/2026_colocasia_fallax/og/25327570591_920d57f732_b.jpg","regular_url":"https://perenual.com/storage/species_image/2026_colocasia_fallax/regular/25327570591_920d57f732_b.jpg","medium_url":"https://perenual.com/storage/species_image/2026_colocasia_fallax/medium/25327570591_920d57f732_b.jpg","small_url":"https://perenual.com/storage/species_image/2026_colocasia_fallax/small/25327570591_920d57f732_b.jpg","thumbnail":"https://perenual.com/storage/species_image/2026_colocasia_fallax/thumbnail/25327570591_920d57f732_b.jpg"}},{"id":2027,"common_name":"giant elephant's ear","scientific_name":["Colocasia gigantea"],"other_name":null,"cycle":"Perennial","watering":"Frequent","sunlight":["Full sun","part shade"],"default_image":{"image_id":4905,"license":5,"license_name":"Attribution-ShareAlike License","license_url":"https://creativecommons.org/licenses/by-sa/2.0/","original_url":"https://perenual.com/storage/species_image/2027_colocasia_gigantea/og/5023269698_e54aeeff45_b.jpg","regular_url":"https://perenual.com/storage/species_image/2027_colocasia_gigantea/regular/5023269698_e54aeeff45_b.jpg","medium_url":"https://perenual.com/storage/species_image/2027_colocasia_gigantea/medium/5023269698_e54aeeff45_b.jpg","small_url":"https://perenual.com/storage/species_image/2027_colocasia_gigantea/small/5023269698_e54aeeff45_b.jpg","thumbnail":"https://perenual.com/storage/species_image/2027_colocasia_gigantea/thumbnail/5023269698_e54aeeff45_b.jpg"}},{"id":2028,"common_name":"giant elephant's ear","scientific_name":["Colocasia gigantea 'Thailand Giant Strain'"],"other_name":null,"cycle":"Perennial","watering":"Frequent","sunlight":["Full sun","part shade"],"default_image":{"image_id":9,"license":5,"license_name":"Attribution-ShareAlike License","license_url":"https://creativecommons.org/licenses/by-sa/2.0/","original_url":"https://perenual.com/storage/species_image/2_abies_alba_pyramidalis/og/49255769768_df55596553_b.jpg","regular_url":"https://perenual.com/storage/species_image/2_abies_alba_pyramidalis/regular/49255769768_df55596553_b.jpg","medium_url":"https://perenual.com/storage/species_image/2_abies_alba_pyramidalis/medium/49255769768_df55596553_b.jpg","small_url":"https://perenual.com/storage/species_image/2_abies_alba_pyramidalis/small/49255769768_df55596553_b.jpg","thumbnail":"https://perenual.com/storage/species_image/2_abies_alba_pyramidalis/thumbnail/49255769768_df55596553_b.jpg"}},{"id":2029,"common_name":"Himalayan mint shrub","scientific_name":["Colquhounia coccinea"],"other_name":null,"cycle":"Perennial","watering":"Average","sunlight":["Full sun","part shade"],"default_image":{"image_id":4908,"license":5,"license_name":"Attribution-ShareAlike License","license_url":"https://creativecommons.org/licenses/by-sa/2.0/","original_url":"https://perenual.com/storage/species_image/2029_colquhounia_coccinea/og/50330270631_258aff4d19_b.jpg","regular_url":"https://perenual.com/storage/species_image/2029_colquhounia_coccinea/regular/50330270631_258aff4d19_b.jpg","medium_url":"https://perenual.com/storage/species_image/2029_colquhounia_coccinea/medium/50330270631_258aff4d19_b.jpg","small_url":"https://perenual.com/storage/species_image/2029_colquhounia_coccinea/small/50330270631_258aff4d19_b.jpg","thumbnail":"https://perenual.com/storage/species_image/2029_colquhounia_coccinea/thumbnail/50330270631_258aff4d19_b.jpg"}},{"id":2030,"common_name":"columnea","scientific_name":["Columnea microcalyx"],"other_name":null,"cycle":"Perennial","watering":"Average","sunlight":["Part shade","full shade"],"default_image":{"image_id":9,"license":5,"license_name":"Attribution-ShareAlike License","license_url":"https://creativecommons.org/licenses/by-sa/2.0/","original_url":"https://perenual.com/storage/species_image/2_abies_alba_pyramidalis/og/49255769768_df55596553_b.jpg","regular_url":"https://perenual.com/storage/species_image/2_abies_alba_pyramidalis/regular/49255769768_df55596553_b.jpg","medium_url":"https://perenual.com/storage/species_image/2_abies_alba_pyramidalis/medium/49255769768_df55596553_b.jpg","small_url":"https://perenual.com/storage/species_image/2_abies_alba_pyramidalis/small/49255769768_df55596553_b.jpg","thumbnail":"https://perenual.com/storage/species_image/2_abies_alba_pyramidalis/thumbnail/49255769768_df55596553_b.jpg"}},{"id":2031,"common_name":"bladder senna","scientific_name":["Colutea media"],"other_name":null,"cycle":"Perennial","watering":"Minimum","sunlight":["Full sun"],"default_image":{"image_id":4915,"license":5,"license_name":"Attribution-ShareAlike License","license_url":"https://creativecommons.org/licenses/by-sa/2.0/","original_url":"https://perenual.com/storage/species_image/2031_colutea_media/og/36467221140_634294b467_b.jpg","regular_url":"https://perenual.com/storage/species_image/2031_colutea_media/regular/36467221140_634294b467_b.jpg","medium_url":"https://perenual.com/storage/species_image/2031_colutea_media/medium/36467221140_634294b467_b.jpg","small_url":"https://perenual.com/storage/species_image/2031_colutea_media/small/36467221140_634294b467_b.jpg","thumbnail":"https://perenual.com/storage/species_image/2031_colutea_media/thumbnail/36467221140_634294b467_b.jpg"}},{"id":2032,"common_name":"sweet fern","scientific_name":["Comptonia peregrina"],"other_name":null,"cycle":"Perennial","watering":"Minimum","sunlight":["Full sun","part shade"],"default_image":{"image_id":9,"license":5,"license_name":"Attribution-ShareAlike License","license_url":"https://creativecommons.org/licenses/by-sa/2.0/","original_url":"https://perenual.com/storage/species_image/2_abies_alba_pyramidalis/og/49255769768_df55596553_b.jpg","regular_url":"https://perenual.com/storage/species_image/2_abies_alba_pyramidalis/regular/49255769768_df55596553_b.jpg","medium_url":"https://perenual.com/storage/species_image/2_abies_alba_pyramidalis/medium/49255769768_df55596553_b.jpg","small_url":"https://perenual.com/storage/species_image/2_abies_alba_pyramidalis/small/49255769768_df55596553_b.jpg","thumbnail":"https://perenual.com/storage/species_image/2_abies_alba_pyramidalis/thumbnail/49255769768_df55596553_b.jpg"}},{"id":2033,"common_name":"mistflower","scientific_name":["Conoclinium coelestinum 'Cori'"],"other_name":null,"cycle":"Perennial","watering":"Frequent","sunlight":["Full sun","part shade"],"default_image":{"image_id":4923,"license":4,"license_name":"Attribution License","license_url":"https://creativecommons.org/licenses/by/2.0/","original_url":"https://perenual.com/storage/species_image/2033_conoclinium_coelestinum_cori/og/52545510174_bdeecc60a4_b.jpg","regular_url":"https://perenual.com/storage/species_image/2033_conoclinium_coelestinum_cori/regular/52545510174_bdeecc60a4_b.jpg","medium_url":"https://perenual.com/storage/species_image/2033_conoclinium_coelestinum_cori/medium/52545510174_bdeecc60a4_b.jpg","small_url":"https://perenual.com/storage/species_image/2033_conoclinium_coelestinum_cori/small/52545510174_bdeecc60a4_b.jpg","thumbnail":"https://perenual.com/storage/species_image/2033_conoclinium_coelestinum_cori/thumbnail/52545510174_bdeecc60a4_b.jpg"}},{"id":2034,"common_name":"thoroughwort","scientific_name":["Conoclinium greggii"],"other_name":null,"cycle":"Perennial","watering":"Average","sunlight":["Full sun","part shade"],"default_image":{"image_id":4926,"license":5,"license_name":"Attribution-ShareAlike License","license_url":"https://creativecommons.org/licenses/by-sa/2.0/","original_url":"https://perenual.com/storage/species_image/2034_conoclinium_greggii/og/9240150998_f75af727fb_b.jpg","regular_url":"https://perenual.com/storage/species_image/2034_conoclinium_greggii/regular/9240150998_f75af727fb_b.jpg","medium_url":"https://perenual.com/storage/species_image/2034_conoclinium_greggii/medium/9240150998_f75af727fb_b.jpg","small_url":"https://perenual.com/storage/species_image/2034_conoclinium_greggii/small/9240150998_f75af727fb_b.jpg","thumbnail":"https://perenual.com/storage/species_image/2034_conoclinium_greggii/thumbnail/9240150998_f75af727fb_b.jpg"}},{"id":2035,"common_name":"Cumberland rosemary","scientific_name":["Conradina verticillata"],"other_name":null,"cycle":"Perennial","watering":"Minimum","sunlight":["Full sun"],"default_image":{"image_id":4929,"license":451,"license_name":"CC0 1.0 Universal (CC0 1.0) Public Domain Dedication","license_url":"https://creativecommons.org/publicdomain/zero/1.0/","original_url":"https://perenual.com/storage/species_image/2035_conradina_verticillata/og/cHJpdmF0ZS9sci9pbWFnZXMvd2Vic2l0ZS8yMDIyLTExL2ZsNTE2Njc3OTUyMDYtaW1hZ2UuanBn.jpg","regular_url":"https://perenual.com/storage/species_image/2035_conradina_verticillata/regular/cHJpdmF0ZS9sci9pbWFnZXMvd2Vic2l0ZS8yMDIyLTExL2ZsNTE2Njc3OTUyMDYtaW1hZ2UuanBn.jpg","medium_url":"https://perenual.com/storage/species_image/2035_conradina_verticillata/medium/cHJpdmF0ZS9sci9pbWFnZXMvd2Vic2l0ZS8yMDIyLTExL2ZsNTE2Njc3OTUyMDYtaW1hZ2UuanBn.jpg","small_url":"https://perenual.com/storage/species_image/2035_conradina_verticillata/small/cHJpdmF0ZS9sci9pbWFnZXMvd2Vic2l0ZS8yMDIyLTExL2ZsNTE2Njc3OTUyMDYtaW1hZ2UuanBn.jpg","thumbnail":"https://perenual.com/storage/species_image/2035_conradina_verticillata/thumbnail/cHJpdmF0ZS9sci9pbWFnZXMvd2Vic2l0ZS8yMDIyLTExL2ZsNTE2Njc3OTUyMDYtaW1hZ2UuanBn.jpg"}},{"id":2036,"common_name":"giant larkspur","scientific_name":["Consolida ajacis"],"other_name":null,"cycle":"Perennial","watering":"Average","sunlight":["Full sun"],"default_image":{"image_id":9,"license":5,"license_name":"Attribution-ShareAlike License","license_url":"https://creativecommons.org/licenses/by-sa/2.0/","original_url":"https://perenual.com/storage/species_image/2_abies_alba_pyramidalis/og/49255769768_df55596553_b.jpg","regular_url":"https://perenual.com/storage/species_image/2_abies_alba_pyramidalis/regular/49255769768_df55596553_b.jpg","medium_url":"https://perenual.com/storage/species_image/2_abies_alba_pyramidalis/medium/49255769768_df55596553_b.jpg","small_url":"https://perenual.com/storage/species_image/2_abies_alba_pyramidalis/small/49255769768_df55596553_b.jpg","thumbnail":"https://perenual.com/storage/species_image/2_abies_alba_pyramidalis/thumbnail/49255769768_df55596553_b.jpg"}},{"id":2037,"common_name":"lily of the valley","scientific_name":["Convallaria majalis"],"other_name":null,"cycle":"Perennial","watering":"Average","sunlight":["Part shade","full shade"],"default_image":{"image_id":4931,"license":6,"license_name":"Attribution-NoDerivs License","license_url":"https://creativecommons.org/licenses/by-nd/2.0/","original_url":"https://perenual.com/storage/species_image/2040_convallaria_majalis_var_rosea/og/52114408902_a8aff4db18_b.jpg"}},{"id":2038,"common_name":"lily of the valley","scientific_name":["Convallaria majalis 'Golden Slippers'"],"other_name":null,"cycle":"Perennial","watering":"Average","sunlight":["Part shade","full shade"],"default_image":{"image_id":9,"license":5,"license_name":"Attribution-ShareAlike License","license_url":"https://creativecommons.org/licenses/by-sa/2.0/","original_url":"https://perenual.com/storage/species_image/2_abies_alba_pyramidalis/og/49255769768_df55596553_b.jpg","regular_url":"https://perenual.com/storage/species_image/2_abies_alba_pyramidalis/regular/49255769768_df55596553_b.jpg","medium_url":"https://perenual.com/storage/species_image/2_abies_alba_pyramidalis/medium/49255769768_df55596553_b.jpg","small_url":"https://perenual.com/storage/species_image/2_abies_alba_pyramidalis/small/49255769768_df55596553_b.jpg","thumbnail":"https://perenual.com/storage/species_image/2_abies_alba_pyramidalis/thumbnail/49255769768_df55596553_b.jpg"}},{"id":2039,"common_name":"lily of the valley","scientific_name":["Convallaria majalis 'Potsdam Stripe'"],"other_name":null,"cycle":"Perennial","watering":"Average","sunlight":["Part shade","full shade"],"default_image":{"image_id":4934,"license":5,"license_name":"Attribution-ShareAlike License","license_url":"https://creativecommons.org/licenses/by-sa/2.0/","original_url":"https://perenual.com/storage/species_image/2039_convallaria_majalis_potsdam_stripe/og/5676090227_2e2f04d3ea_z.jpg","regular_url":"https://perenual.com/storage/species_image/2039_convallaria_majalis_potsdam_stripe/regular/5676090227_2e2f04d3ea_z.jpg","medium_url":"https://perenual.com/storage/species_image/2039_convallaria_majalis_potsdam_stripe/medium/5676090227_2e2f04d3ea_z.jpg","small_url":"https://perenual.com/storage/species_image/2039_convallaria_majalis_potsdam_stripe/small/5676090227_2e2f04d3ea_z.jpg","thumbnail":"https://perenual.com/storage/species_image/2039_convallaria_majalis_potsdam_stripe/thumbnail/5676090227_2e2f04d3ea_z.jpg"}},{"id":2040,"common_name":"lily of the valley","scientific_name":["Convallaria majalis var. rosea"],"other_name":null,"cycle":"Perennial","watering":"Average","sunlight":["Part shade","full shade"],"default_image":{"image_id":4931,"license":6,"license_name":"Attribution-NoDerivs License","license_url":"https://creativecommons.org/licenses/by-nd/2.0/","original_url":"https://perenual.com/storage/species_image/2040_convallaria_majalis_var_rosea/og/52114408902_a8aff4db18_b.jpg"}}],"to":2040,"per_page":30,"current_page":68,"from":2011,"last_page":200,"total":6000}