{"data":[{"id":3481,"common_name":"tetraploid daylily","scientific_name":["Hemerocallis 'Canadian Border Patrol'"],"other_name":null,"cycle":"Perennial","watering":"Average","sunlight":["Full sun","part shade"],"default_image":{"image_id":9,"license":5,"license_name":"Attribution-ShareAlike License","license_url":"https://creativecommons.org/licenses/by-sa/2.0/","original_url":"https://perenual.com/storage/species_image/2_abies_alba_pyramidalis/og/49255769768_df55596553_b.jpg","regular_url":"https://perenual.com/storage/species_image/2_abies_alba_pyramidalis/regular/49255769768_df55596553_b.jpg","medium_url":"https://perenual.com/storage/species_image/2_abies_alba_pyramidalis/medium/49255769768_df55596553_b.jpg","small_url":"https://perenual.com/storage/species_image/2_abies_alba_pyramidalis/small/49255769768_df55596553_b.jpg","thumbnail":"https://perenual.com/storage/species_image/2_abies_alba_pyramidalis/thumbnail/49255769768_df55596553_b.jpg"}},{"id":3482,"common_name":"daylily","scientific_name":["Hemerocallis 'Carolyn Criswell'"],"other_name":null,"cycle":"Perennial","watering":"Average","sunlight":["Full sun","part shade"],"default_image":{"image_id":7351,"license":5,"license_name":"Attribution-ShareAlike License","license_url":"https://creativecommons.org/licenses/by-sa/2.0/","original_url":"https://perenual.com/storage/species_image/3482_hemerocallis_carolyn_criswell/og/43113770301_a7a015eaf8_b.jpg","regular_url":"https://perenual.com/storage/species_image/3482_hemerocallis_carolyn_criswell/regular/43113770301_a7a015eaf8_b.jpg","medium_url":"https://perenual.com/storage/species_image/3482_hemerocallis_carolyn_criswell/medium/43113770301_a7a015eaf8_b.jpg","small_url":"https://perenual.com/storage/species_image/3482_hemerocallis_carolyn_criswell/small/43113770301_a7a015eaf8_b.jpg","thumbnail":"https://perenual.com/storage/species_image/3482_hemerocallis_carolyn_criswell/thumbnail/43113770301_a7a015eaf8_b.jpg"}},{"id":3483,"common_name":"daylily","scientific_name":["Hemerocallis 'Cee Tee'"],"other_name":null,"cycle":"Perennial","watering":"Average","sunlight":["Full sun","part shade"],"default_image":{"image_id":9,"license":5,"license_name":"Attribution-ShareAlike License","license_url":"https://creativecommons.org/licenses/by-sa/2.0/","original_url":"https://perenual.com/storage/species_image/2_abies_alba_pyramidalis/og/49255769768_df55596553_b.jpg","regular_url":"https://perenual.com/storage/species_image/2_abies_alba_pyramidalis/regular/49255769768_df55596553_b.jpg","medium_url":"https://perenual.com/storage/species_image/2_abies_alba_pyramidalis/medium/49255769768_df55596553_b.jpg","small_url":"https://perenual.com/storage/species_image/2_abies_alba_pyramidalis/small/49255769768_df55596553_b.jpg","thumbnail":"https://perenual.com/storage/species_image/2_abies_alba_pyramidalis/thumbnail/49255769768_df55596553_b.jpg"}},{"id":3484,"common_name":"daylily","scientific_name":["Hemerocallis 'Chablis Blanc'"],"other_name":null,"cycle":"Perennial","watering":"Average","sunlight":["Full sun","part shade"],"default_image":{"image_id":7353,"license":4,"license_name":"Attribution License","license_url":"https://creativecommons.org/licenses/by/2.0/","original_url":"https://perenual.com/storage/species_image/3484_hemerocallis_chablis_blanc/og/52256248537_7256a5b016_b.jpg","regular_url":"https://perenual.com/storage/species_image/3484_hemerocallis_chablis_blanc/regular/52256248537_7256a5b016_b.jpg","medium_url":"https://perenual.com/storage/species_image/3484_hemerocallis_chablis_blanc/medium/52256248537_7256a5b016_b.jpg","small_url":"https://perenual.com/storage/species_image/3484_hemerocallis_chablis_blanc/small/52256248537_7256a5b016_b.jpg","thumbnail":"https://perenual.com/storage/species_image/3484_hemerocallis_chablis_blanc/thumbnail/52256248537_7256a5b016_b.jpg"}},{"id":3485,"common_name":"tetraploid daylily","scientific_name":["Hemerocallis 'Champagne Royale'"],"other_name":null,"cycle":"Perennial","watering":"Average","sunlight":["Full sun","part shade"],"default_image":{"image_id":7354,"license":5,"license_name":"Attribution-ShareAlike License","license_url":"https://creativecommons.org/licenses/by-sa/2.0/","original_url":"https://perenual.com/storage/species_image/3485_hemerocallis_champagne_royale/og/52222789434_dc14ac66f0_b.jpg","regular_url":"https://perenual.com/storage/species_image/3485_hemerocallis_champagne_royale/regular/52222789434_dc14ac66f0_b.jpg","medium_url":"https://perenual.com/storage/species_image/3485_hemerocallis_champagne_royale/medium/52222789434_dc14ac66f0_b.jpg","small_url":"https://perenual.com/storage/species_image/3485_hemerocallis_champagne_royale/small/52222789434_dc14ac66f0_b.jpg","thumbnail":"https://perenual.com/storage/species_image/3485_hemerocallis_champagne_royale/thumbnail/52222789434_dc14ac66f0_b.jpg"}},{"id":3486,"common_name":"daylily","scientific_name":["Hemerocallis 'Charles Johnston'"],"other_name":null,"cycle":"Perennial","watering":"Average","sunlight":["Full sun","part shade"],"default_image":{"image_id":7355,"license":6,"license_name":"Attribution-NoDerivs License","license_url":"https://creativecommons.org/licenses/by-nd/2.0/","original_url":"https://perenual.com/storage/species_image/3486_hemerocallis_charles_johnston/og/52280799067_86459712f0_b.jpg"}},{"id":3487,"common_name":"tetraploid daylily","scientific_name":["Hemerocallis 'Cherry Berry'"],"other_name":null,"cycle":"Perennial","watering":"Average","sunlight":["Full sun","part shade"],"default_image":{"image_id":7356,"license":5,"license_name":"Attribution-ShareAlike License","license_url":"https://creativecommons.org/licenses/by-sa/2.0/","original_url":"https://perenual.com/storage/species_image/3487_hemerocallis_cherry_berry/og/52222518641_2092d98366_b.jpg","regular_url":"https://perenual.com/storage/species_image/3487_hemerocallis_cherry_berry/regular/52222518641_2092d98366_b.jpg","medium_url":"https://perenual.com/storage/species_image/3487_hemerocallis_cherry_berry/medium/52222518641_2092d98366_b.jpg","small_url":"https://perenual.com/storage/species_image/3487_hemerocallis_cherry_berry/small/52222518641_2092d98366_b.jpg","thumbnail":"https://perenual.com/storage/species_image/3487_hemerocallis_cherry_berry/thumbnail/52222518641_2092d98366_b.jpg"}},{"id":3488,"common_name":"daylily","scientific_name":["Hemerocallis 'Chicago Fire'"],"other_name":null,"cycle":"Perennial","watering":"Average","sunlight":["Full sun","part shade"],"default_image":{"image_id":9,"license":5,"license_name":"Attribution-ShareAlike License","license_url":"https://creativecommons.org/licenses/by-sa/2.0/","original_url":"https://perenual.com/storage/species_image/2_abies_alba_pyramidalis/og/49255769768_df55596553_b.jpg","regular_url":"https://perenual.com/storage/species_image/2_abies_alba_pyramidalis/regular/49255769768_df55596553_b.jpg","medium_url":"https://perenual.com/storage/species_image/2_abies_alba_pyramidalis/medium/49255769768_df55596553_b.jpg","small_url":"https://perenual.com/storage/species_image/2_abies_alba_pyramidalis/small/49255769768_df55596553_b.jpg","thumbnail":"https://perenual.com/storage/species_image/2_abies_alba_pyramidalis/thumbnail/49255769768_df55596553_b.jpg"}},{"id":3489,"common_name":"daylily","scientific_name":["Hemerocallis 'Chicago Sunrise'"],"other_name":null,"cycle":"Perennial","watering":"Average","sunlight":["Full sun","part shade"],"default_image":{"image_id":9,"license":5,"license_name":"Attribution-ShareAlike License","license_url":"https://creativecommons.org/licenses/by-sa/2.0/","original_url":"https://perenual.com/storage/species_image/2_abies_alba_pyramidalis/og/49255769768_df55596553_b.jpg","regular_url":"https://perenual.com/storage/species_image/2_abies_alba_pyramidalis/regular/49255769768_df55596553_b.jpg","medium_url":"https://perenual.com/storage/species_image/2_abies_alba_pyramidalis/medium/49255769768_df55596553_b.jpg","small_url":"https://perenual.com/storage/species_image/2_abies_alba_pyramidalis/small/49255769768_df55596553_b.jpg","thumbnail":"https://perenual.com/storage/species_image/2_abies_alba_pyramidalis/thumbnail/49255769768_df55596553_b.jpg"}},{"id":3490,"common_name":"daylily","scientific_name":["Hemerocallis 'China Bride'"],"other_name":null,"cycle":"Perennial","watering":"Average","sunlight":["Full sun","part shade"],"default_image":{"image_id":7360,"license":4,"license_name":"Attribution License","license_url":"https://creativecommons.org/licenses/by/2.0/","original_url":"https://perenual.com/storage/species_image/3490_hemerocallis_china_bride/og/52257236523_fb04d5ae92_b.jpg","regular_url":"https://perenual.com/storage/species_image/3490_hemerocallis_china_bride/regular/52257236523_fb04d5ae92_b.jpg","medium_url":"https://perenual.com/storage/species_image/3490_hemerocallis_china_bride/medium/52257236523_fb04d5ae92_b.jpg","small_url":"https://perenual.com/storage/species_image/3490_hemerocallis_china_bride/small/52257236523_fb04d5ae92_b.jpg","thumbnail":"https://perenual.com/storage/species_image/3490_hemerocallis_china_bride/thumbnail/52257236523_fb04d5ae92_b.jpg"}},{"id":3491,"common_name":"daylily","scientific_name":["Hemerocallis 'Chorus Line'"],"other_name":null,"cycle":"Perennial","watering":"Average","sunlight":["Full sun","part shade"],"default_image":{"image_id":7361,"license":5,"license_name":"Attribution-ShareAlike License","license_url":"https://creativecommons.org/licenses/by-sa/2.0/","original_url":"https://perenual.com/storage/species_image/3491_hemerocallis_chorus_line/og/52193435768_4e283d7f64_b.jpg","regular_url":"https://perenual.com/storage/species_image/3491_hemerocallis_chorus_line/regular/52193435768_4e283d7f64_b.jpg","medium_url":"https://perenual.com/storage/species_image/3491_hemerocallis_chorus_line/medium/52193435768_4e283d7f64_b.jpg","small_url":"https://perenual.com/storage/species_image/3491_hemerocallis_chorus_line/small/52193435768_4e283d7f64_b.jpg","thumbnail":"https://perenual.com/storage/species_image/3491_hemerocallis_chorus_line/thumbnail/52193435768_4e283d7f64_b.jpg"}},{"id":3492,"common_name":"daylily","scientific_name":["Hemerocallis 'Christmas Is'"],"other_name":null,"cycle":"Perennial","watering":"Average","sunlight":["Full sun","part shade"],"default_image":{"image_id":7363,"license":5,"license_name":"Attribution-ShareAlike License","license_url":"https://creativecommons.org/licenses/by-sa/2.0/","original_url":"https://perenual.com/storage/species_image/3492_hemerocallis_christmas_is/og/33321304070_35caeeea71_b.jpg","regular_url":"https://perenual.com/storage/species_image/3492_hemerocallis_christmas_is/regular/33321304070_35caeeea71_b.jpg","medium_url":"https://perenual.com/storage/species_image/3492_hemerocallis_christmas_is/medium/33321304070_35caeeea71_b.jpg","small_url":"https://perenual.com/storage/species_image/3492_hemerocallis_christmas_is/small/33321304070_35caeeea71_b.jpg","thumbnail":"https://perenual.com/storage/species_image/3492_hemerocallis_christmas_is/thumbnail/33321304070_35caeeea71_b.jpg"}},{"id":3493,"common_name":"daylily","scientific_name":["Hemerocallis 'Ciel D'Or'"],"other_name":null,"cycle":"Perennial","watering":"Average","sunlight":["Full sun","part shade"],"default_image":{"image_id":7364,"license":5,"license_name":"Attribution-ShareAlike License","license_url":"https://creativecommons.org/licenses/by-sa/2.0/","original_url":"https://perenual.com/storage/species_image/3504_hemerocallis_english_pixie/og/52308810903_92a879aab0_b.jpg","regular_url":"https://perenual.com/storage/species_image/3504_hemerocallis_english_pixie/regular/52308810903_92a879aab0_b.jpg","medium_url":"https://perenual.com/storage/species_image/3504_hemerocallis_english_pixie/medium/52308810903_92a879aab0_b.jpg","small_url":"https://perenual.com/storage/species_image/3504_hemerocallis_english_pixie/small/52308810903_92a879aab0_b.jpg","thumbnail":"https://perenual.com/storage/species_image/3504_hemerocallis_english_pixie/thumbnail/52308810903_92a879aab0_b.jpg"}},{"id":3494,"common_name":"tetraploid daylily","scientific_name":["Hemerocallis 'Cinnamon Pleasure'"],"other_name":null,"cycle":"Perennial","watering":"Average","sunlight":["Full sun","part shade"],"default_image":{"image_id":9,"license":5,"license_name":"Attribution-ShareAlike License","license_url":"https://creativecommons.org/licenses/by-sa/2.0/","original_url":"https://perenual.com/storage/species_image/2_abies_alba_pyramidalis/og/49255769768_df55596553_b.jpg","regular_url":"https://perenual.com/storage/species_image/2_abies_alba_pyramidalis/regular/49255769768_df55596553_b.jpg","medium_url":"https://perenual.com/storage/species_image/2_abies_alba_pyramidalis/medium/49255769768_df55596553_b.jpg","small_url":"https://perenual.com/storage/species_image/2_abies_alba_pyramidalis/small/49255769768_df55596553_b.jpg","thumbnail":"https://perenual.com/storage/species_image/2_abies_alba_pyramidalis/thumbnail/49255769768_df55596553_b.jpg"}},{"id":3495,"common_name":"citron daylily","scientific_name":["Hemerocallis citrina"],"other_name":null,"cycle":"Perennial","watering":"Average","sunlight":["Full sun","part shade"],"default_image":{"image_id":7365,"license":4,"license_name":"Attribution License","license_url":"https://creativecommons.org/licenses/by/2.0/","original_url":"https://perenual.com/storage/species_image/3495_hemerocallis_citrina/og/52308869446_6fee2a5d23_b.jpg","regular_url":"https://perenual.com/storage/species_image/3495_hemerocallis_citrina/regular/52308869446_6fee2a5d23_b.jpg","medium_url":"https://perenual.com/storage/species_image/3495_hemerocallis_citrina/medium/52308869446_6fee2a5d23_b.jpg","small_url":"https://perenual.com/storage/species_image/3495_hemerocallis_citrina/small/52308869446_6fee2a5d23_b.jpg","thumbnail":"https://perenual.com/storage/species_image/3495_hemerocallis_citrina/thumbnail/52308869446_6fee2a5d23_b.jpg"}},{"id":3496,"common_name":"daylily","scientific_name":["Hemerocallis 'Clearly a Thrill'"],"other_name":null,"cycle":"Perennial","watering":"Average","sunlight":["Full sun","part shade"],"default_image":{"image_id":9,"license":5,"license_name":"Attribution-ShareAlike License","license_url":"https://creativecommons.org/licenses/by-sa/2.0/","original_url":"https://perenual.com/storage/species_image/2_abies_alba_pyramidalis/og/49255769768_df55596553_b.jpg","regular_url":"https://perenual.com/storage/species_image/2_abies_alba_pyramidalis/regular/49255769768_df55596553_b.jpg","medium_url":"https://perenual.com/storage/species_image/2_abies_alba_pyramidalis/medium/49255769768_df55596553_b.jpg","small_url":"https://perenual.com/storage/species_image/2_abies_alba_pyramidalis/small/49255769768_df55596553_b.jpg","thumbnail":"https://perenual.com/storage/species_image/2_abies_alba_pyramidalis/thumbnail/49255769768_df55596553_b.jpg"}},{"id":3497,"common_name":"daylily","scientific_name":["Hemerocallis 'Concorde Nelson'"],"other_name":null,"cycle":"Perennial","watering":"Average","sunlight":["Full sun","part shade"],"default_image":{"image_id":7370,"license":5,"license_name":"Attribution-ShareAlike License","license_url":"https://creativecommons.org/licenses/by-sa/2.0/","original_url":"https://perenual.com/storage/species_image/3545_hemerocallis_lady_emily_lovely_lady/og/52283994159_f462d85438_b.jpg","regular_url":"https://perenual.com/storage/species_image/3545_hemerocallis_lady_emily_lovely_lady/regular/52283994159_f462d85438_b.jpg","medium_url":"https://perenual.com/storage/species_image/3545_hemerocallis_lady_emily_lovely_lady/medium/52283994159_f462d85438_b.jpg","small_url":"https://perenual.com/storage/species_image/3545_hemerocallis_lady_emily_lovely_lady/small/52283994159_f462d85438_b.jpg","thumbnail":"https://perenual.com/storage/species_image/3545_hemerocallis_lady_emily_lovely_lady/thumbnail/52283994159_f462d85438_b.jpg"}},{"id":3498,"common_name":"tetraploid daylily","scientific_name":["Hemerocallis 'Crown Royal'"],"other_name":null,"cycle":"Perennial","watering":"Average","sunlight":["Full sun","part shade"],"default_image":{"image_id":7329,"license":5,"license_name":"Attribution-ShareAlike License","license_url":"https://creativecommons.org/licenses/by-sa/2.0/","original_url":"https://perenual.com/storage/species_image/3599_hemerocallis_rosana/og/52377894822_58e27b6592_b.jpg","regular_url":"https://perenual.com/storage/species_image/3599_hemerocallis_rosana/regular/52377894822_58e27b6592_b.jpg","medium_url":"https://perenual.com/storage/species_image/3599_hemerocallis_rosana/medium/52377894822_58e27b6592_b.jpg","small_url":"https://perenual.com/storage/species_image/3599_hemerocallis_rosana/small/52377894822_58e27b6592_b.jpg","thumbnail":"https://perenual.com/storage/species_image/3599_hemerocallis_rosana/thumbnail/52377894822_58e27b6592_b.jpg"}},{"id":3499,"common_name":"daylily","scientific_name":["Hemerocallis 'Curly Rosy Posey'"],"other_name":null,"cycle":"Perennial","watering":"Average","sunlight":["Full sun","part shade"],"default_image":{"image_id":7370,"license":5,"license_name":"Attribution-ShareAlike License","license_url":"https://creativecommons.org/licenses/by-sa/2.0/","original_url":"https://perenual.com/storage/species_image/3545_hemerocallis_lady_emily_lovely_lady/og/52283994159_f462d85438_b.jpg","regular_url":"https://perenual.com/storage/species_image/3545_hemerocallis_lady_emily_lovely_lady/regular/52283994159_f462d85438_b.jpg","medium_url":"https://perenual.com/storage/species_image/3545_hemerocallis_lady_emily_lovely_lady/medium/52283994159_f462d85438_b.jpg","small_url":"https://perenual.com/storage/species_image/3545_hemerocallis_lady_emily_lovely_lady/small/52283994159_f462d85438_b.jpg","thumbnail":"https://perenual.com/storage/species_image/3545_hemerocallis_lady_emily_lovely_lady/thumbnail/52283994159_f462d85438_b.jpg"}},{"id":3500,"common_name":"daylily","scientific_name":["Hemerocallis 'Double Doodah'"],"other_name":null,"cycle":"Perennial","watering":"Average","sunlight":["Full sun","part shade"],"default_image":{"image_id":9,"license":5,"license_name":"Attribution-ShareAlike License","license_url":"https://creativecommons.org/licenses/by-sa/2.0/","original_url":"https://perenual.com/storage/species_image/2_abies_alba_pyramidalis/og/49255769768_df55596553_b.jpg","regular_url":"https://perenual.com/storage/species_image/2_abies_alba_pyramidalis/regular/49255769768_df55596553_b.jpg","medium_url":"https://perenual.com/storage/species_image/2_abies_alba_pyramidalis/medium/49255769768_df55596553_b.jpg","small_url":"https://perenual.com/storage/species_image/2_abies_alba_pyramidalis/small/49255769768_df55596553_b.jpg","thumbnail":"https://perenual.com/storage/species_image/2_abies_alba_pyramidalis/thumbnail/49255769768_df55596553_b.jpg"}},{"id":3501,"common_name":"daylily","scientific_name":["Hemerocallis 'Double Pompom'"],"other_name":null,"cycle":"Perennial","watering":"Average","sunlight":["Full sun","part shade"],"default_image":{"image_id":9,"license":5,"license_name":"Attribution-ShareAlike License","license_url":"https://creativecommons.org/licenses/by-sa/2.0/","original_url":"https://perenual.com/storage/species_image/2_abies_alba_pyramidalis/og/49255769768_df55596553_b.jpg","regular_url":"https://perenual.com/storage/species_image/2_abies_alba_pyramidalis/regular/49255769768_df55596553_b.jpg","medium_url":"https://perenual.com/storage/species_image/2_abies_alba_pyramidalis/medium/49255769768_df55596553_b.jpg","small_url":"https://perenual.com/storage/species_image/2_abies_alba_pyramidalis/small/49255769768_df55596553_b.jpg","thumbnail":"https://perenual.com/storage/species_image/2_abies_alba_pyramidalis/thumbnail/49255769768_df55596553_b.jpg"}},{"id":3502,"common_name":"tetraploid daylily","scientific_name":["Hemerocallis 'Doug's Red Mercedes'"],"other_name":null,"cycle":"Perennial","watering":"Average","sunlight":["Full sun","part shade"],"default_image":{"image_id":7373,"license":5,"license_name":"Attribution-ShareAlike License","license_url":"https://creativecommons.org/licenses/by-sa/2.0/","original_url":"https://perenual.com/storage/species_image/3502_hemerocallis_dougs_red_mercedes/og/52252176286_c18e4d3fb6_b.jpg","regular_url":"https://perenual.com/storage/species_image/3502_hemerocallis_dougs_red_mercedes/regular/52252176286_c18e4d3fb6_b.jpg","medium_url":"https://perenual.com/storage/species_image/3502_hemerocallis_dougs_red_mercedes/medium/52252176286_c18e4d3fb6_b.jpg","small_url":"https://perenual.com/storage/species_image/3502_hemerocallis_dougs_red_mercedes/small/52252176286_c18e4d3fb6_b.jpg","thumbnail":"https://perenual.com/storage/species_image/3502_hemerocallis_dougs_red_mercedes/thumbnail/52252176286_c18e4d3fb6_b.jpg"}},{"id":3503,"common_name":"daylily","scientific_name":["Hemerocallis 'Eenie Weenie'"],"other_name":null,"cycle":"Perennial","watering":"Average","sunlight":["Full sun","part shade"],"default_image":{"image_id":9,"license":5,"license_name":"Attribution-ShareAlike License","license_url":"https://creativecommons.org/licenses/by-sa/2.0/","original_url":"https://perenual.com/storage/species_image/2_abies_alba_pyramidalis/og/49255769768_df55596553_b.jpg","regular_url":"https://perenual.com/storage/species_image/2_abies_alba_pyramidalis/regular/49255769768_df55596553_b.jpg","medium_url":"https://perenual.com/storage/species_image/2_abies_alba_pyramidalis/medium/49255769768_df55596553_b.jpg","small_url":"https://perenual.com/storage/species_image/2_abies_alba_pyramidalis/small/49255769768_df55596553_b.jpg","thumbnail":"https://perenual.com/storage/species_image/2_abies_alba_pyramidalis/thumbnail/49255769768_df55596553_b.jpg"}},{"id":3504,"common_name":"daylily","scientific_name":["Hemerocallis 'English Pixie'"],"other_name":null,"cycle":"Perennial","watering":"Average","sunlight":["Full sun","part shade"],"default_image":{"image_id":7364,"license":5,"license_name":"Attribution-ShareAlike License","license_url":"https://creativecommons.org/licenses/by-sa/2.0/","original_url":"https://perenual.com/storage/species_image/3504_hemerocallis_english_pixie/og/52308810903_92a879aab0_b.jpg","regular_url":"https://perenual.com/storage/species_image/3504_hemerocallis_english_pixie/regular/52308810903_92a879aab0_b.jpg","medium_url":"https://perenual.com/storage/species_image/3504_hemerocallis_english_pixie/medium/52308810903_92a879aab0_b.jpg","small_url":"https://perenual.com/storage/species_image/3504_hemerocallis_english_pixie/small/52308810903_92a879aab0_b.jpg","thumbnail":"https://perenual.com/storage/species_image/3504_hemerocallis_english_pixie/thumbnail/52308810903_92a879aab0_b.jpg"}},{"id":3505,"common_name":"daylily","scientific_name":["Hemerocallis 'Erin Prairie'"],"other_name":null,"cycle":"Perennial","watering":"Average","sunlight":["Full sun","part shade"],"default_image":{"image_id":9,"license":5,"license_name":"Attribution-ShareAlike License","license_url":"https://creativecommons.org/licenses/by-sa/2.0/","original_url":"https://perenual.com/storage/species_image/2_abies_alba_pyramidalis/og/49255769768_df55596553_b.jpg","regular_url":"https://perenual.com/storage/species_image/2_abies_alba_pyramidalis/regular/49255769768_df55596553_b.jpg","medium_url":"https://perenual.com/storage/species_image/2_abies_alba_pyramidalis/medium/49255769768_df55596553_b.jpg","small_url":"https://perenual.com/storage/species_image/2_abies_alba_pyramidalis/small/49255769768_df55596553_b.jpg","thumbnail":"https://perenual.com/storage/species_image/2_abies_alba_pyramidalis/thumbnail/49255769768_df55596553_b.jpg"}},{"id":3506,"common_name":"tetraploid daylily","scientific_name":["Hemerocallis 'Evening Enchantment'"],"other_name":null,"cycle":"Perennial","watering":"Average","sunlight":["Full sun","part shade"],"default_image":{"image_id":7377,"license":5,"license_name":"Attribution-ShareAlike License","license_url":"https://creativecommons.org/licenses/by-sa/2.0/","original_url":"https://perenual.com/storage/species_image/3506_hemerocallis_evening_enchantment/og/52247677929_c8d69f5228_b.jpg","regular_url":"https://perenual.com/storage/species_image/3506_hemerocallis_evening_enchantment/regular/52247677929_c8d69f5228_b.jpg","medium_url":"https://perenual.com/storage/species_image/3506_hemerocallis_evening_enchantment/medium/52247677929_c8d69f5228_b.jpg","small_url":"https://perenual.com/storage/species_image/3506_hemerocallis_evening_enchantment/small/52247677929_c8d69f5228_b.jpg","thumbnail":"https://perenual.com/storage/species_image/3506_hemerocallis_evening_enchantment/thumbnail/52247677929_c8d69f5228_b.jpg"}},{"id":3507,"common_name":"daylily","scientific_name":["Hemerocallis 'Everblooming Doll'"],"other_name":null,"cycle":"Perennial","watering":"Average","sunlight":["Full sun","part shade"],"default_image":{"image_id":9,"license":5,"license_name":"Attribution-ShareAlike License","license_url":"https://creativecommons.org/licenses/by-sa/2.0/","original_url":"https://perenual.com/storage/species_image/2_abies_alba_pyramidalis/og/49255769768_df55596553_b.jpg","regular_url":"https://perenual.com/storage/species_image/2_abies_alba_pyramidalis/regular/49255769768_df55596553_b.jpg","medium_url":"https://perenual.com/storage/species_image/2_abies_alba_pyramidalis/medium/49255769768_df55596553_b.jpg","small_url":"https://perenual.com/storage/species_image/2_abies_alba_pyramidalis/small/49255769768_df55596553_b.jpg","thumbnail":"https://perenual.com/storage/species_image/2_abies_alba_pyramidalis/thumbnail/49255769768_df55596553_b.jpg"}},{"id":3508,"common_name":"daylily","scientific_name":["Hemerocallis 'Evermore Greatful'"],"other_name":null,"cycle":"Perennial","watering":"Average","sunlight":["Full sun","part shade"],"default_image":{"image_id":7380,"license":6,"license_name":"Attribution-NoDerivs License","license_url":"https://creativecommons.org/licenses/by-nd/2.0/","original_url":"https://perenual.com/storage/species_image/3508_hemerocallis_evermore_greatful/og/52282008191_7d60cb382c_b.jpg"}},{"id":3509,"common_name":"daylily","scientific_name":["Hemerocallis 'Eye of Newt'"],"other_name":null,"cycle":"Perennial","watering":"Average","sunlight":["Full sun","part shade"],"default_image":{"image_id":9,"license":5,"license_name":"Attribution-ShareAlike License","license_url":"https://creativecommons.org/licenses/by-sa/2.0/","original_url":"https://perenual.com/storage/species_image/2_abies_alba_pyramidalis/og/49255769768_df55596553_b.jpg","regular_url":"https://perenual.com/storage/species_image/2_abies_alba_pyramidalis/regular/49255769768_df55596553_b.jpg","medium_url":"https://perenual.com/storage/species_image/2_abies_alba_pyramidalis/medium/49255769768_df55596553_b.jpg","small_url":"https://perenual.com/storage/species_image/2_abies_alba_pyramidalis/small/49255769768_df55596553_b.jpg","thumbnail":"https://perenual.com/storage/species_image/2_abies_alba_pyramidalis/thumbnail/49255769768_df55596553_b.jpg"}},{"id":3510,"common_name":"daylily","scientific_name":["Hemerocallis 'Eye Yi Yi'"],"other_name":null,"cycle":"Perennial","watering":"Average","sunlight":["Full sun","part shade"],"default_image":{"image_id":9,"license":5,"license_name":"Attribution-ShareAlike License","license_url":"https://creativecommons.org/licenses/by-sa/2.0/","original_url":"https://perenual.com/storage/species_image/2_abies_alba_pyramidalis/og/49255769768_df55596553_b.jpg","regular_url":"https://perenual.com/storage/species_image/2_abies_alba_pyramidalis/regular/49255769768_df55596553_b.jpg","medium_url":"https://perenual.com/storage/species_image/2_abies_alba_pyramidalis/medium/49255769768_df55596553_b.jpg","small_url":"https://perenual.com/storage/species_image/2_abies_alba_pyramidalis/small/49255769768_df55596553_b.jpg","thumbnail":"https://perenual.com/storage/species_image/2_abies_alba_pyramidalis/thumbnail/49255769768_df55596553_b.jpg"}}],"to":3510,"per_page":30,"current_page":117,"from":3481,"last_page":200,"total":6000}