{"data":[{"id":4201,"common_name":"holly","scientific_name":["Ilex ciliospinosa"],"other_name":null,"cycle":"Perennial","watering":"Average","sunlight":["Full sun","part shade"],"default_image":{"image_id":8552,"license":5,"license_name":"Attribution-ShareAlike License","license_url":"https://creativecommons.org/licenses/by-sa/2.0/","original_url":"https://perenual.com/storage/species_image/4201_ilex_ciliospinosa/og/31580432304_a5b37aafea_b.jpg","regular_url":"https://perenual.com/storage/species_image/4201_ilex_ciliospinosa/regular/31580432304_a5b37aafea_b.jpg","medium_url":"https://perenual.com/storage/species_image/4201_ilex_ciliospinosa/medium/31580432304_a5b37aafea_b.jpg","small_url":"https://perenual.com/storage/species_image/4201_ilex_ciliospinosa/small/31580432304_a5b37aafea_b.jpg","thumbnail":"https://perenual.com/storage/species_image/4201_ilex_ciliospinosa/thumbnail/31580432304_a5b37aafea_b.jpg"}},{"id":4202,"common_name":"black sea holly","scientific_name":["Ilex colchica"],"other_name":null,"cycle":"Perennial","watering":"Average","sunlight":["Full sun","part shade"],"default_image":{"image_id":8554,"license":5,"license_name":"Attribution-ShareAlike License","license_url":"https://creativecommons.org/licenses/by-sa/2.0/","original_url":"https://perenual.com/storage/species_image/4202_ilex_colchica/og/27155793994_113781da8b_b.jpg","regular_url":"https://perenual.com/storage/species_image/4202_ilex_colchica/regular/27155793994_113781da8b_b.jpg","medium_url":"https://perenual.com/storage/species_image/4202_ilex_colchica/medium/27155793994_113781da8b_b.jpg","small_url":"https://perenual.com/storage/species_image/4202_ilex_colchica/small/27155793994_113781da8b_b.jpg","thumbnail":"https://perenual.com/storage/species_image/4202_ilex_colchica/thumbnail/27155793994_113781da8b_b.jpg"}},{"id":4203,"common_name":"holly","scientific_name":["Ilex 'Conaf' OAKLEAF"],"other_name":null,"cycle":"Perennial","watering":"Average","sunlight":["Full sun","part shade"],"default_image":{"image_id":8557,"license":4,"license_name":"Attribution License","license_url":"https://creativecommons.org/licenses/by/2.0/","original_url":"https://perenual.com/storage/species_image/4203_ilex_conaf_oakleaf/og/52496133614_4404c89624_b.jpg","regular_url":"https://perenual.com/storage/species_image/4203_ilex_conaf_oakleaf/regular/52496133614_4404c89624_b.jpg","medium_url":"https://perenual.com/storage/species_image/4203_ilex_conaf_oakleaf/medium/52496133614_4404c89624_b.jpg","small_url":"https://perenual.com/storage/species_image/4203_ilex_conaf_oakleaf/small/52496133614_4404c89624_b.jpg","thumbnail":"https://perenual.com/storage/species_image/4203_ilex_conaf_oakleaf/thumbnail/52496133614_4404c89624_b.jpg"}},{"id":4204,"common_name":"Chinese holly","scientific_name":["Ilex cornuta"],"other_name":null,"cycle":"Perennial","watering":"Average","sunlight":["Full sun","part shade"],"default_image":{"image_id":8558,"license":5,"license_name":"Attribution-ShareAlike License","license_url":"https://creativecommons.org/licenses/by-sa/2.0/","original_url":"https://perenual.com/storage/species_image/4204_ilex_cornuta/og/29860945104_ab06671b1a_b.jpg","regular_url":"https://perenual.com/storage/species_image/4204_ilex_cornuta/regular/29860945104_ab06671b1a_b.jpg","medium_url":"https://perenual.com/storage/species_image/4204_ilex_cornuta/medium/29860945104_ab06671b1a_b.jpg","small_url":"https://perenual.com/storage/species_image/4204_ilex_cornuta/small/29860945104_ab06671b1a_b.jpg","thumbnail":"https://perenual.com/storage/species_image/4204_ilex_cornuta/thumbnail/29860945104_ab06671b1a_b.jpg"}},{"id":4205,"common_name":"Chinese holly","scientific_name":["Ilex cornuta 'Delcon'"],"other_name":null,"cycle":"Perennial","watering":"Average","sunlight":["Full sun","part shade"],"default_image":{"image_id":8563,"license":5,"license_name":"Attribution-ShareAlike License","license_url":"https://creativecommons.org/licenses/by-sa/2.0/","original_url":"https://perenual.com/storage/species_image/4205_ilex_cornuta_delcon/og/11547509366_1c6c4d0fbc_b.jpg","regular_url":"https://perenual.com/storage/species_image/4205_ilex_cornuta_delcon/regular/11547509366_1c6c4d0fbc_b.jpg","medium_url":"https://perenual.com/storage/species_image/4205_ilex_cornuta_delcon/medium/11547509366_1c6c4d0fbc_b.jpg","small_url":"https://perenual.com/storage/species_image/4205_ilex_cornuta_delcon/small/11547509366_1c6c4d0fbc_b.jpg","thumbnail":"https://perenual.com/storage/species_image/4205_ilex_cornuta_delcon/thumbnail/11547509366_1c6c4d0fbc_b.jpg"}},{"id":4206,"common_name":"Chinese holly","scientific_name":["Ilex cornuta 'Dwarf Burford'"],"other_name":null,"cycle":"Perennial","watering":"Average","sunlight":["Full sun","part shade"],"default_image":{"image_id":9,"license":5,"license_name":"Attribution-ShareAlike License","license_url":"https://creativecommons.org/licenses/by-sa/2.0/","original_url":"https://perenual.com/storage/species_image/2_abies_alba_pyramidalis/og/49255769768_df55596553_b.jpg","regular_url":"https://perenual.com/storage/species_image/2_abies_alba_pyramidalis/regular/49255769768_df55596553_b.jpg","medium_url":"https://perenual.com/storage/species_image/2_abies_alba_pyramidalis/medium/49255769768_df55596553_b.jpg","small_url":"https://perenual.com/storage/species_image/2_abies_alba_pyramidalis/small/49255769768_df55596553_b.jpg","thumbnail":"https://perenual.com/storage/species_image/2_abies_alba_pyramidalis/thumbnail/49255769768_df55596553_b.jpg"}},{"id":4207,"common_name":"Japanese holly","scientific_name":["Ilex crenata"],"other_name":null,"cycle":"Perennial","watering":"Average","sunlight":["Filtered shade"," Full sun"],"default_image":{"image_id":8566,"license":4,"license_name":"Attribution License","license_url":"https://creativecommons.org/licenses/by/2.0/","original_url":"https://perenual.com/storage/species_image/4212_ilex_crenata_helleri/og/48858609116_560cf1913f_b.jpg","regular_url":"https://perenual.com/storage/species_image/4212_ilex_crenata_helleri/regular/48858609116_560cf1913f_b.jpg","medium_url":"https://perenual.com/storage/species_image/4212_ilex_crenata_helleri/medium/48858609116_560cf1913f_b.jpg","small_url":"https://perenual.com/storage/species_image/4212_ilex_crenata_helleri/small/48858609116_560cf1913f_b.jpg","thumbnail":"https://perenual.com/storage/species_image/4212_ilex_crenata_helleri/thumbnail/48858609116_560cf1913f_b.jpg"}},{"id":4208,"common_name":"Japanese holly","scientific_name":["Ilex crenata 'Drops of Gold'"],"other_name":null,"cycle":"Perennial","watering":"Average","sunlight":["Filtered shade"," Full sun"],"default_image":{"image_id":8567,"license":5,"license_name":"Attribution-ShareAlike License","license_url":"https://creativecommons.org/licenses/by-sa/2.0/","original_url":"https://perenual.com/storage/species_image/4208_ilex_crenata_drops_of_gold/og/4850141809_d462d2cf16_b.jpg","regular_url":"https://perenual.com/storage/species_image/4208_ilex_crenata_drops_of_gold/regular/4850141809_d462d2cf16_b.jpg","medium_url":"https://perenual.com/storage/species_image/4208_ilex_crenata_drops_of_gold/medium/4850141809_d462d2cf16_b.jpg","small_url":"https://perenual.com/storage/species_image/4208_ilex_crenata_drops_of_gold/small/4850141809_d462d2cf16_b.jpg","thumbnail":"https://perenual.com/storage/species_image/4208_ilex_crenata_drops_of_gold/thumbnail/4850141809_d462d2cf16_b.jpg"}},{"id":4209,"common_name":"Japanese holly","scientific_name":["Ilex crenata 'Farrowone' SKY POINTER"],"other_name":null,"cycle":"Perennial","watering":"Average","sunlight":["Filtered shade"," Full sun"],"default_image":{"image_id":8574,"license":5,"license_name":"Attribution-ShareAlike License","license_url":"https://creativecommons.org/licenses/by-sa/2.0/","original_url":"https://perenual.com/storage/species_image/4213_ilex_crenata_hetzii/og/36261307750_a4ae6d14cb_b.jpg","regular_url":"https://perenual.com/storage/species_image/4213_ilex_crenata_hetzii/regular/36261307750_a4ae6d14cb_b.jpg","medium_url":"https://perenual.com/storage/species_image/4213_ilex_crenata_hetzii/medium/36261307750_a4ae6d14cb_b.jpg","small_url":"https://perenual.com/storage/species_image/4213_ilex_crenata_hetzii/small/36261307750_a4ae6d14cb_b.jpg","thumbnail":"https://perenual.com/storage/species_image/4213_ilex_crenata_hetzii/thumbnail/36261307750_a4ae6d14cb_b.jpg"}},{"id":4210,"common_name":"Japanese holly","scientific_name":["Ilex crenata 'Geisha'"],"other_name":null,"cycle":"Perennial","watering":"Average","sunlight":["Filtered shade"," Full sun"],"default_image":{"image_id":8576,"license":5,"license_name":"Attribution-ShareAlike License","license_url":"https://creativecommons.org/licenses/by-sa/2.0/","original_url":"https://perenual.com/storage/species_image/4210_ilex_crenata_geisha/og/4849396143_bd0e6427c9_b.jpg","regular_url":"https://perenual.com/storage/species_image/4210_ilex_crenata_geisha/regular/4849396143_bd0e6427c9_b.jpg","medium_url":"https://perenual.com/storage/species_image/4210_ilex_crenata_geisha/medium/4849396143_bd0e6427c9_b.jpg","small_url":"https://perenual.com/storage/species_image/4210_ilex_crenata_geisha/small/4849396143_bd0e6427c9_b.jpg","thumbnail":"https://perenual.com/storage/species_image/4210_ilex_crenata_geisha/thumbnail/4849396143_bd0e6427c9_b.jpg"}},{"id":4211,"common_name":"Japanese holly","scientific_name":["Ilex crenata 'Golden Gem'"],"other_name":null,"cycle":"Perennial","watering":"Average","sunlight":["Filtered shade"," Full sun"],"default_image":{"image_id":8577,"license":5,"license_name":"Attribution-ShareAlike License","license_url":"https://creativecommons.org/licenses/by-sa/2.0/","original_url":"https://perenual.com/storage/species_image/4211_ilex_crenata_golden_gem/og/48453164377_568a8d60b8_b.jpg","regular_url":"https://perenual.com/storage/species_image/4211_ilex_crenata_golden_gem/regular/48453164377_568a8d60b8_b.jpg","medium_url":"https://perenual.com/storage/species_image/4211_ilex_crenata_golden_gem/medium/48453164377_568a8d60b8_b.jpg","small_url":"https://perenual.com/storage/species_image/4211_ilex_crenata_golden_gem/small/48453164377_568a8d60b8_b.jpg","thumbnail":"https://perenual.com/storage/species_image/4211_ilex_crenata_golden_gem/thumbnail/48453164377_568a8d60b8_b.jpg"}},{"id":4212,"common_name":"Japanese holly","scientific_name":["Ilex crenata 'Helleri'"],"other_name":null,"cycle":"Perennial","watering":"Average","sunlight":["Filtered shade"," Full sun"],"default_image":{"image_id":8570,"license":4,"license_name":"Attribution License","license_url":"https://creativecommons.org/licenses/by/2.0/","original_url":"https://perenual.com/storage/species_image/4212_ilex_crenata_helleri/og/48858804872_a287af51d0_b.jpg","regular_url":"https://perenual.com/storage/species_image/4212_ilex_crenata_helleri/regular/48858804872_a287af51d0_b.jpg","medium_url":"https://perenual.com/storage/species_image/4212_ilex_crenata_helleri/medium/48858804872_a287af51d0_b.jpg","small_url":"https://perenual.com/storage/species_image/4212_ilex_crenata_helleri/small/48858804872_a287af51d0_b.jpg","thumbnail":"https://perenual.com/storage/species_image/4212_ilex_crenata_helleri/thumbnail/48858804872_a287af51d0_b.jpg"}},{"id":4213,"common_name":"Japanese holly","scientific_name":["Ilex crenata 'Hetzii'"],"other_name":null,"cycle":"Perennial","watering":"Average","sunlight":["Filtered shade"," Full sun"],"default_image":{"image_id":8574,"license":5,"license_name":"Attribution-ShareAlike License","license_url":"https://creativecommons.org/licenses/by-sa/2.0/","original_url":"https://perenual.com/storage/species_image/4213_ilex_crenata_hetzii/og/36261307750_a4ae6d14cb_b.jpg","regular_url":"https://perenual.com/storage/species_image/4213_ilex_crenata_hetzii/regular/36261307750_a4ae6d14cb_b.jpg","medium_url":"https://perenual.com/storage/species_image/4213_ilex_crenata_hetzii/medium/36261307750_a4ae6d14cb_b.jpg","small_url":"https://perenual.com/storage/species_image/4213_ilex_crenata_hetzii/small/36261307750_a4ae6d14cb_b.jpg","thumbnail":"https://perenual.com/storage/species_image/4213_ilex_crenata_hetzii/thumbnail/36261307750_a4ae6d14cb_b.jpg"}},{"id":4214,"common_name":"Japanese holly","scientific_name":["Ilex crenata 'Shiro-fukurin'"],"other_name":null,"cycle":"Perennial","watering":"Average","sunlight":["Filtered shade"," Full sun"],"default_image":{"image_id":8578,"license":5,"license_name":"Attribution-ShareAlike License","license_url":"https://creativecommons.org/licenses/by-sa/2.0/","original_url":"https://perenual.com/storage/species_image/4214_ilex_crenata_shiro-fukurin/og/27850452976_8a04882ae2_b.jpg","regular_url":"https://perenual.com/storage/species_image/4214_ilex_crenata_shiro-fukurin/regular/27850452976_8a04882ae2_b.jpg","medium_url":"https://perenual.com/storage/species_image/4214_ilex_crenata_shiro-fukurin/medium/27850452976_8a04882ae2_b.jpg","small_url":"https://perenual.com/storage/species_image/4214_ilex_crenata_shiro-fukurin/small/27850452976_8a04882ae2_b.jpg","thumbnail":"https://perenual.com/storage/species_image/4214_ilex_crenata_shiro-fukurin/thumbnail/27850452976_8a04882ae2_b.jpg"}},{"id":4215,"common_name":"Japanese holly","scientific_name":["Ilex crenata 'Sky Pencil'"],"other_name":null,"cycle":"Perennial","watering":"Average","sunlight":["Filtered shade"," Full sun"],"default_image":{"image_id":8579,"license":5,"license_name":"Attribution-ShareAlike License","license_url":"https://creativecommons.org/licenses/by-sa/2.0/","original_url":"https://perenual.com/storage/species_image/4215_ilex_crenata_sky_pencil/og/25041517559_b8bfd04b1e_b.jpg","regular_url":"https://perenual.com/storage/species_image/4215_ilex_crenata_sky_pencil/regular/25041517559_b8bfd04b1e_b.jpg","medium_url":"https://perenual.com/storage/species_image/4215_ilex_crenata_sky_pencil/medium/25041517559_b8bfd04b1e_b.jpg","small_url":"https://perenual.com/storage/species_image/4215_ilex_crenata_sky_pencil/small/25041517559_b8bfd04b1e_b.jpg","thumbnail":"https://perenual.com/storage/species_image/4215_ilex_crenata_sky_pencil/thumbnail/25041517559_b8bfd04b1e_b.jpg"}},{"id":4216,"common_name":"possumhaw","scientific_name":["Ilex decidua"],"other_name":null,"cycle":"Perennial","watering":"Average","sunlight":["Full sun","part shade"],"default_image":{"image_id":8583,"license":4,"license_name":"Attribution License","license_url":"https://creativecommons.org/licenses/by/2.0/","original_url":"https://perenual.com/storage/species_image/4216_ilex_decidua/og/49563158922_af5bb8a98f_b.jpg","regular_url":"https://perenual.com/storage/species_image/4216_ilex_decidua/regular/49563158922_af5bb8a98f_b.jpg","medium_url":"https://perenual.com/storage/species_image/4216_ilex_decidua/medium/49563158922_af5bb8a98f_b.jpg","small_url":"https://perenual.com/storage/species_image/4216_ilex_decidua/small/49563158922_af5bb8a98f_b.jpg","thumbnail":"https://perenual.com/storage/species_image/4216_ilex_decidua/thumbnail/49563158922_af5bb8a98f_b.jpg"}},{"id":4217,"common_name":"possumhaw","scientific_name":["Ilex decidua 'Council Fire'"],"other_name":null,"cycle":"Perennial","watering":"Average","sunlight":["Full sun","part shade"],"default_image":{"image_id":9,"license":5,"license_name":"Attribution-ShareAlike License","license_url":"https://creativecommons.org/licenses/by-sa/2.0/","original_url":"https://perenual.com/storage/species_image/2_abies_alba_pyramidalis/og/49255769768_df55596553_b.jpg","regular_url":"https://perenual.com/storage/species_image/2_abies_alba_pyramidalis/regular/49255769768_df55596553_b.jpg","medium_url":"https://perenual.com/storage/species_image/2_abies_alba_pyramidalis/medium/49255769768_df55596553_b.jpg","small_url":"https://perenual.com/storage/species_image/2_abies_alba_pyramidalis/small/49255769768_df55596553_b.jpg","thumbnail":"https://perenual.com/storage/species_image/2_abies_alba_pyramidalis/thumbnail/49255769768_df55596553_b.jpg"}},{"id":4218,"common_name":"possumhaw","scientific_name":["Ilex decidua 'Warren's Red'"],"other_name":null,"cycle":"Perennial","watering":"Average","sunlight":["Full sun","part shade"],"default_image":{"image_id":9,"license":5,"license_name":"Attribution-ShareAlike License","license_url":"https://creativecommons.org/licenses/by-sa/2.0/","original_url":"https://perenual.com/storage/species_image/2_abies_alba_pyramidalis/og/49255769768_df55596553_b.jpg","regular_url":"https://perenual.com/storage/species_image/2_abies_alba_pyramidalis/regular/49255769768_df55596553_b.jpg","medium_url":"https://perenual.com/storage/species_image/2_abies_alba_pyramidalis/medium/49255769768_df55596553_b.jpg","small_url":"https://perenual.com/storage/species_image/2_abies_alba_pyramidalis/small/49255769768_df55596553_b.jpg","thumbnail":"https://perenual.com/storage/species_image/2_abies_alba_pyramidalis/thumbnail/49255769768_df55596553_b.jpg"}},{"id":4219,"common_name":"inkberry","scientific_name":["Ilex glabra"],"other_name":null,"cycle":"Perennial","watering":"Frequent","sunlight":["Full sun","part shade"],"default_image":{"image_id":9,"license":5,"license_name":"Attribution-ShareAlike License","license_url":"https://creativecommons.org/licenses/by-sa/2.0/","original_url":"https://perenual.com/storage/species_image/2_abies_alba_pyramidalis/og/49255769768_df55596553_b.jpg","regular_url":"https://perenual.com/storage/species_image/2_abies_alba_pyramidalis/regular/49255769768_df55596553_b.jpg","medium_url":"https://perenual.com/storage/species_image/2_abies_alba_pyramidalis/medium/49255769768_df55596553_b.jpg","small_url":"https://perenual.com/storage/species_image/2_abies_alba_pyramidalis/small/49255769768_df55596553_b.jpg","thumbnail":"https://perenual.com/storage/species_image/2_abies_alba_pyramidalis/thumbnail/49255769768_df55596553_b.jpg"}},{"id":4220,"common_name":"nordic inkberry","scientific_name":["Ilex glabra 'Chamzin' NORDIC"],"other_name":null,"cycle":"Perennial","watering":"Frequent","sunlight":["Full sun","part shade"],"default_image":{"image_id":9,"license":5,"license_name":"Attribution-ShareAlike License","license_url":"https://creativecommons.org/licenses/by-sa/2.0/","original_url":"https://perenual.com/storage/species_image/2_abies_alba_pyramidalis/og/49255769768_df55596553_b.jpg","regular_url":"https://perenual.com/storage/species_image/2_abies_alba_pyramidalis/regular/49255769768_df55596553_b.jpg","medium_url":"https://perenual.com/storage/species_image/2_abies_alba_pyramidalis/medium/49255769768_df55596553_b.jpg","small_url":"https://perenual.com/storage/species_image/2_abies_alba_pyramidalis/small/49255769768_df55596553_b.jpg","thumbnail":"https://perenual.com/storage/species_image/2_abies_alba_pyramidalis/thumbnail/49255769768_df55596553_b.jpg"}},{"id":4221,"common_name":"inkberry","scientific_name":["Ilex glabra 'Compacta'"],"other_name":null,"cycle":"Perennial","watering":"Frequent","sunlight":["Full sun","part shade"],"default_image":{"image_id":8601,"license":4,"license_name":"Attribution License","license_url":"https://creativecommons.org/licenses/by/2.0/","original_url":"https://perenual.com/storage/species_image/4222_ilex_glabra_shamrock/og/48903890103_e379932840_b.jpg","regular_url":"https://perenual.com/storage/species_image/4222_ilex_glabra_shamrock/regular/48903890103_e379932840_b.jpg","medium_url":"https://perenual.com/storage/species_image/4222_ilex_glabra_shamrock/medium/48903890103_e379932840_b.jpg","small_url":"https://perenual.com/storage/species_image/4222_ilex_glabra_shamrock/small/48903890103_e379932840_b.jpg","thumbnail":"https://perenual.com/storage/species_image/4222_ilex_glabra_shamrock/thumbnail/48903890103_e379932840_b.jpg"}},{"id":4222,"common_name":"inkberry","scientific_name":["Ilex glabra 'Shamrock'"],"other_name":null,"cycle":"Perennial","watering":"Frequent","sunlight":["Full sun","part shade"],"default_image":{"image_id":8601,"license":4,"license_name":"Attribution License","license_url":"https://creativecommons.org/licenses/by/2.0/","original_url":"https://perenual.com/storage/species_image/4222_ilex_glabra_shamrock/og/48903890103_e379932840_b.jpg","regular_url":"https://perenual.com/storage/species_image/4222_ilex_glabra_shamrock/regular/48903890103_e379932840_b.jpg","medium_url":"https://perenual.com/storage/species_image/4222_ilex_glabra_shamrock/medium/48903890103_e379932840_b.jpg","small_url":"https://perenual.com/storage/species_image/4222_ilex_glabra_shamrock/small/48903890103_e379932840_b.jpg","thumbnail":"https://perenual.com/storage/species_image/4222_ilex_glabra_shamrock/thumbnail/48903890103_e379932840_b.jpg"}},{"id":4223,"common_name":"dwarf holly","scientific_name":["Ilex 'Jersey Male'"],"other_name":null,"cycle":"Perennial","watering":"Average","sunlight":["Full sun","part shade"],"default_image":{"image_id":9,"license":5,"license_name":"Attribution-ShareAlike License","license_url":"https://creativecommons.org/licenses/by-sa/2.0/","original_url":"https://perenual.com/storage/species_image/2_abies_alba_pyramidalis/og/49255769768_df55596553_b.jpg","regular_url":"https://perenual.com/storage/species_image/2_abies_alba_pyramidalis/regular/49255769768_df55596553_b.jpg","medium_url":"https://perenual.com/storage/species_image/2_abies_alba_pyramidalis/medium/49255769768_df55596553_b.jpg","small_url":"https://perenual.com/storage/species_image/2_abies_alba_pyramidalis/small/49255769768_df55596553_b.jpg","thumbnail":"https://perenual.com/storage/species_image/2_abies_alba_pyramidalis/thumbnail/49255769768_df55596553_b.jpg"}},{"id":4224,"common_name":"holly","scientific_name":["Ilex koehneana 'Loch Raven'"],"other_name":null,"cycle":"Perennial","watering":"Average","sunlight":["Full sun","part shade"],"default_image":{"image_id":9,"license":5,"license_name":"Attribution-ShareAlike License","license_url":"https://creativecommons.org/licenses/by-sa/2.0/","original_url":"https://perenual.com/storage/species_image/2_abies_alba_pyramidalis/og/49255769768_df55596553_b.jpg","regular_url":"https://perenual.com/storage/species_image/2_abies_alba_pyramidalis/regular/49255769768_df55596553_b.jpg","medium_url":"https://perenual.com/storage/species_image/2_abies_alba_pyramidalis/medium/49255769768_df55596553_b.jpg","small_url":"https://perenual.com/storage/species_image/2_abies_alba_pyramidalis/small/49255769768_df55596553_b.jpg","thumbnail":"https://perenual.com/storage/species_image/2_abies_alba_pyramidalis/thumbnail/49255769768_df55596553_b.jpg"}},{"id":4225,"common_name":"koehne holly","scientific_name":["Ilex koehneana 'San Jose'"],"other_name":null,"cycle":"Perennial","watering":"Average","sunlight":["Full sun","part shade"],"default_image":{"image_id":8604,"license":45,"license_name":"Attribution-ShareAlike 3.0 Unported (CC BY-SA 3.0)","license_url":"https://creativecommons.org/licenses/by-sa/3.0/deed.en","original_url":"https://perenual.com/storage/species_image/4225_ilex_koehneana_san_jose/og/Ilex_x_koehneana_Agena_3zz.jpg","regular_url":"https://perenual.com/storage/species_image/4225_ilex_koehneana_san_jose/regular/Ilex_x_koehneana_Agena_3zz.jpg","medium_url":"https://perenual.com/storage/species_image/4225_ilex_koehneana_san_jose/medium/Ilex_x_koehneana_Agena_3zz.jpg","small_url":"https://perenual.com/storage/species_image/4225_ilex_koehneana_san_jose/small/Ilex_x_koehneana_Agena_3zz.jpg","thumbnail":"https://perenual.com/storage/species_image/4225_ilex_koehneana_san_jose/thumbnail/Ilex_x_koehneana_Agena_3zz.jpg"}},{"id":4226,"common_name":"holly","scientific_name":["Ilex 'Magland' OAKLAND"],"other_name":null,"cycle":"Perennial","watering":"Average","sunlight":["Full sun","part shade"],"default_image":{"image_id":8605,"license":4,"license_name":"Attribution License","license_url":"https://creativecommons.org/licenses/by/2.0/","original_url":"https://perenual.com/storage/species_image/4249_ilex_opaca_waysides_christmas_tree/og/52596797338_ebcc5fdf75_b.jpg","regular_url":"https://perenual.com/storage/species_image/4249_ilex_opaca_waysides_christmas_tree/regular/52596797338_ebcc5fdf75_b.jpg","medium_url":"https://perenual.com/storage/species_image/4249_ilex_opaca_waysides_christmas_tree/medium/52596797338_ebcc5fdf75_b.jpg","small_url":"https://perenual.com/storage/species_image/4249_ilex_opaca_waysides_christmas_tree/small/52596797338_ebcc5fdf75_b.jpg","thumbnail":"https://perenual.com/storage/species_image/4249_ilex_opaca_waysides_christmas_tree/thumbnail/52596797338_ebcc5fdf75_b.jpg"}},{"id":4227,"common_name":"holly","scientific_name":["Ilex 'Mesdob' CHINA BOY"],"other_name":null,"cycle":"Perennial","watering":"Average","sunlight":["Full sun","part shade"],"default_image":{"image_id":8605,"license":4,"license_name":"Attribution License","license_url":"https://creativecommons.org/licenses/by/2.0/","original_url":"https://perenual.com/storage/species_image/4249_ilex_opaca_waysides_christmas_tree/og/52596797338_ebcc5fdf75_b.jpg","regular_url":"https://perenual.com/storage/species_image/4249_ilex_opaca_waysides_christmas_tree/regular/52596797338_ebcc5fdf75_b.jpg","medium_url":"https://perenual.com/storage/species_image/4249_ilex_opaca_waysides_christmas_tree/medium/52596797338_ebcc5fdf75_b.jpg","small_url":"https://perenual.com/storage/species_image/4249_ilex_opaca_waysides_christmas_tree/small/52596797338_ebcc5fdf75_b.jpg","thumbnail":"https://perenual.com/storage/species_image/4249_ilex_opaca_waysides_christmas_tree/thumbnail/52596797338_ebcc5fdf75_b.jpg"}},{"id":4228,"common_name":"blue holly","scientific_name":["Ilex meserveae BLUE PRINCE"],"other_name":null,"cycle":"Perennial","watering":"Average","sunlight":["Full sun","part shade"],"default_image":{"image_id":9,"license":5,"license_name":"Attribution-ShareAlike License","license_url":"https://creativecommons.org/licenses/by-sa/2.0/","original_url":"https://perenual.com/storage/species_image/2_abies_alba_pyramidalis/og/49255769768_df55596553_b.jpg","regular_url":"https://perenual.com/storage/species_image/2_abies_alba_pyramidalis/regular/49255769768_df55596553_b.jpg","medium_url":"https://perenual.com/storage/species_image/2_abies_alba_pyramidalis/medium/49255769768_df55596553_b.jpg","small_url":"https://perenual.com/storage/species_image/2_abies_alba_pyramidalis/small/49255769768_df55596553_b.jpg","thumbnail":"https://perenual.com/storage/species_image/2_abies_alba_pyramidalis/thumbnail/49255769768_df55596553_b.jpg"}},{"id":4229,"common_name":"blue holly","scientific_name":["Ilex meserveae BLUE PRINCESS"],"other_name":null,"cycle":"Perennial","watering":"Average","sunlight":["Full sun","part shade"],"default_image":{"image_id":9,"license":5,"license_name":"Attribution-ShareAlike License","license_url":"https://creativecommons.org/licenses/by-sa/2.0/","original_url":"https://perenual.com/storage/species_image/2_abies_alba_pyramidalis/og/49255769768_df55596553_b.jpg","regular_url":"https://perenual.com/storage/species_image/2_abies_alba_pyramidalis/regular/49255769768_df55596553_b.jpg","medium_url":"https://perenual.com/storage/species_image/2_abies_alba_pyramidalis/medium/49255769768_df55596553_b.jpg","small_url":"https://perenual.com/storage/species_image/2_abies_alba_pyramidalis/small/49255769768_df55596553_b.jpg","thumbnail":"https://perenual.com/storage/species_image/2_abies_alba_pyramidalis/thumbnail/49255769768_df55596553_b.jpg"}},{"id":4230,"common_name":"holly","scientific_name":["Ilex meserveae 'Hachfee' CASTLE SPIRE"],"other_name":null,"cycle":"Perennial","watering":"Average","sunlight":["Full sun","part shade"],"default_image":{"image_id":8606,"license":4,"license_name":"Attribution License","license_url":"https://creativecommons.org/licenses/by/2.0/","original_url":"https://perenual.com/storage/species_image/4231_ilex_meserveae_heckenstar_castle_wall/og/52596701890_fb9511b5ac_b.jpg","regular_url":"https://perenual.com/storage/species_image/4231_ilex_meserveae_heckenstar_castle_wall/regular/52596701890_fb9511b5ac_b.jpg","medium_url":"https://perenual.com/storage/species_image/4231_ilex_meserveae_heckenstar_castle_wall/medium/52596701890_fb9511b5ac_b.jpg","small_url":"https://perenual.com/storage/species_image/4231_ilex_meserveae_heckenstar_castle_wall/small/52596701890_fb9511b5ac_b.jpg","thumbnail":"https://perenual.com/storage/species_image/4231_ilex_meserveae_heckenstar_castle_wall/thumbnail/52596701890_fb9511b5ac_b.jpg"}}],"to":4230,"per_page":30,"current_page":141,"from":4201,"last_page":200,"total":6000}