{"data":[{"id":1141,"common_name":"Japanese painted fern","scientific_name":["Athyrium 'Silver Slippers'"],"other_name":null,"cycle":"Perennial","watering":"Average","sunlight":["Part shade","full shade"],"default_image":{"image_id":21990,"license":3,"license_name":null,"license_url":null,"original_url":"https://perenual.com/storage/species_image/1141_athyrium_silver_slippers/og/45815421711_dfdea8f2a2_b.jpg","regular_url":"https://perenual.com/storage/species_image/1141_athyrium_silver_slippers/regular/45815421711_dfdea8f2a2_b.jpg","medium_url":"https://perenual.com/storage/species_image/1141_athyrium_silver_slippers/medium/45815421711_dfdea8f2a2_b.jpg","small_url":"https://perenual.com/storage/species_image/1141_athyrium_silver_slippers/small/45815421711_dfdea8f2a2_b.jpg","thumbnail":"https://perenual.com/storage/species_image/1141_athyrium_silver_slippers/thumbnail/45815421711_dfdea8f2a2_b.jpg"}},{"id":1142,"common_name":"lady fern","scientific_name":["Athyrium thelypterioides"],"other_name":null,"cycle":"Perennial","watering":"Average","sunlight":["Part shade","full shade"],"default_image":{"image_id":21989,"license":3,"license_name":null,"license_url":null,"original_url":"https://perenual.com/storage/species_image/1142_athyrium_thelypterioides/og/52066852266_6140e10942_b.jpg","regular_url":"https://perenual.com/storage/species_image/1142_athyrium_thelypterioides/regular/52066852266_6140e10942_b.jpg","medium_url":"https://perenual.com/storage/species_image/1142_athyrium_thelypterioides/medium/52066852266_6140e10942_b.jpg","small_url":"https://perenual.com/storage/species_image/1142_athyrium_thelypterioides/small/52066852266_6140e10942_b.jpg","thumbnail":"https://perenual.com/storage/species_image/1142_athyrium_thelypterioides/thumbnail/52066852266_6140e10942_b.jpg"}},{"id":1143,"common_name":"lady fern","scientific_name":["Athyrium vidalii"],"other_name":null,"cycle":"Perennial","watering":"Average","sunlight":["Part shade","full shade"],"default_image":{"image_id":2702,"license":5,"license_name":"Attribution-ShareAlike License","license_url":"https://creativecommons.org/licenses/by-sa/2.0/","original_url":"https://perenual.com/storage/species_image/1143_athyrium_vidalii/og/17113820030_7839cabb0c_b.jpg","regular_url":"https://perenual.com/storage/species_image/1143_athyrium_vidalii/regular/17113820030_7839cabb0c_b.jpg","medium_url":"https://perenual.com/storage/species_image/1143_athyrium_vidalii/medium/17113820030_7839cabb0c_b.jpg","small_url":"https://perenual.com/storage/species_image/1143_athyrium_vidalii/small/17113820030_7839cabb0c_b.jpg","thumbnail":"https://perenual.com/storage/species_image/1143_athyrium_vidalii/thumbnail/17113820030_7839cabb0c_b.jpg"}},{"id":1144,"common_name":"mountain spinach","scientific_name":["Atriplex hortensis"],"other_name":null,"cycle":"Perennial","watering":"Average","sunlight":[],"default_image":{"image_id":2704,"license":6,"license_name":"Attribution-NoDerivs License","license_url":"https://creativecommons.org/licenses/by-nd/2.0/","original_url":"https://perenual.com/storage/species_image/1144_atriplex_hortensis/og/29489868944_06b587da94_b.jpg"}},{"id":1145,"common_name":"deadly nightshade","scientific_name":["Atropa belladonna"],"other_name":null,"cycle":"Perennial","watering":"Average","sunlight":[],"default_image":{"image_id":9,"license":5,"license_name":"Attribution-ShareAlike License","license_url":"https://creativecommons.org/licenses/by-sa/2.0/","original_url":"https://perenual.com/storage/species_image/2_abies_alba_pyramidalis/og/49255769768_df55596553_b.jpg","regular_url":"https://perenual.com/storage/species_image/2_abies_alba_pyramidalis/regular/49255769768_df55596553_b.jpg","medium_url":"https://perenual.com/storage/species_image/2_abies_alba_pyramidalis/medium/49255769768_df55596553_b.jpg","small_url":"https://perenual.com/storage/species_image/2_abies_alba_pyramidalis/small/49255769768_df55596553_b.jpg","thumbnail":"https://perenual.com/storage/species_image/2_abies_alba_pyramidalis/thumbnail/49255769768_df55596553_b.jpg"}},{"id":1146,"common_name":"spotted laurel","scientific_name":["Aucuba japonica"],"other_name":["Japanese laurel"],"cycle":"Perennial","watering":"Average","sunlight":["Part shade","full shade"],"default_image":{"image_id":9,"license":5,"license_name":"Attribution-ShareAlike License","license_url":"https://creativecommons.org/licenses/by-sa/2.0/","original_url":"https://perenual.com/storage/species_image/2_abies_alba_pyramidalis/og/49255769768_df55596553_b.jpg","regular_url":"https://perenual.com/storage/species_image/2_abies_alba_pyramidalis/regular/49255769768_df55596553_b.jpg","medium_url":"https://perenual.com/storage/species_image/2_abies_alba_pyramidalis/medium/49255769768_df55596553_b.jpg","small_url":"https://perenual.com/storage/species_image/2_abies_alba_pyramidalis/small/49255769768_df55596553_b.jpg","thumbnail":"https://perenual.com/storage/species_image/2_abies_alba_pyramidalis/thumbnail/49255769768_df55596553_b.jpg"}},{"id":1147,"common_name":"spotted laurel","scientific_name":["Aucuba japonica 'Mr. Goldstrike'"],"other_name":null,"cycle":"Perennial","watering":"Average","sunlight":["Part shade"],"default_image":{"image_id":2708,"license":5,"license_name":"Attribution-ShareAlike License","license_url":"https://creativecommons.org/licenses/by-sa/2.0/","original_url":"https://perenual.com/storage/species_image/1149_aucuba_japonica_suruga_benten/og/50589856477_0b4ceffe2a_b.jpg","regular_url":"https://perenual.com/storage/species_image/1149_aucuba_japonica_suruga_benten/regular/50589856477_0b4ceffe2a_b.jpg","medium_url":"https://perenual.com/storage/species_image/1149_aucuba_japonica_suruga_benten/medium/50589856477_0b4ceffe2a_b.jpg","small_url":"https://perenual.com/storage/species_image/1149_aucuba_japonica_suruga_benten/small/50589856477_0b4ceffe2a_b.jpg","thumbnail":"https://perenual.com/storage/species_image/1149_aucuba_japonica_suruga_benten/thumbnail/50589856477_0b4ceffe2a_b.jpg"}},{"id":1148,"common_name":"spotted laurel","scientific_name":["Aucuba japonica 'Picturata'"],"other_name":null,"cycle":"Perennial","watering":"Average","sunlight":["Part shade"],"default_image":{"image_id":2710,"license":5,"license_name":"Attribution-ShareAlike License","license_url":"https://creativecommons.org/licenses/by-sa/2.0/","original_url":"https://perenual.com/storage/species_image/1148_aucuba_japonica_picturata/og/4543653157_a94e44f0e2_b.jpg","regular_url":"https://perenual.com/storage/species_image/1148_aucuba_japonica_picturata/regular/4543653157_a94e44f0e2_b.jpg","medium_url":"https://perenual.com/storage/species_image/1148_aucuba_japonica_picturata/medium/4543653157_a94e44f0e2_b.jpg","small_url":"https://perenual.com/storage/species_image/1148_aucuba_japonica_picturata/small/4543653157_a94e44f0e2_b.jpg","thumbnail":"https://perenual.com/storage/species_image/1148_aucuba_japonica_picturata/thumbnail/4543653157_a94e44f0e2_b.jpg"}},{"id":1149,"common_name":"spotted laurel","scientific_name":["Aucuba japonica 'Suruga Benten'"],"other_name":null,"cycle":"Perennial","watering":"Average","sunlight":["Part shade"],"default_image":{"image_id":2712,"license":4,"license_name":"Attribution License","license_url":"https://creativecommons.org/licenses/by/2.0/","original_url":"https://perenual.com/storage/species_image/1149_aucuba_japonica_suruga_benten/og/51218918813_f1ca2c7a36_b.jpg","regular_url":"https://perenual.com/storage/species_image/1149_aucuba_japonica_suruga_benten/regular/51218918813_f1ca2c7a36_b.jpg","medium_url":"https://perenual.com/storage/species_image/1149_aucuba_japonica_suruga_benten/medium/51218918813_f1ca2c7a36_b.jpg","small_url":"https://perenual.com/storage/species_image/1149_aucuba_japonica_suruga_benten/small/51218918813_f1ca2c7a36_b.jpg","thumbnail":"https://perenual.com/storage/species_image/1149_aucuba_japonica_suruga_benten/thumbnail/51218918813_f1ca2c7a36_b.jpg"}},{"id":1150,"common_name":"spotted laurel","scientific_name":["Aucuba japonica 'Variegata'"],"other_name":null,"cycle":"Perennial","watering":"Average","sunlight":["Part shade"],"default_image":{"image_id":9,"license":5,"license_name":"Attribution-ShareAlike License","license_url":"https://creativecommons.org/licenses/by-sa/2.0/","original_url":"https://perenual.com/storage/species_image/2_abies_alba_pyramidalis/og/49255769768_df55596553_b.jpg","regular_url":"https://perenual.com/storage/species_image/2_abies_alba_pyramidalis/regular/49255769768_df55596553_b.jpg","medium_url":"https://perenual.com/storage/species_image/2_abies_alba_pyramidalis/medium/49255769768_df55596553_b.jpg","small_url":"https://perenual.com/storage/species_image/2_abies_alba_pyramidalis/small/49255769768_df55596553_b.jpg","thumbnail":"https://perenual.com/storage/species_image/2_abies_alba_pyramidalis/thumbnail/49255769768_df55596553_b.jpg"}},{"id":1151,"common_name":"basket-of-gold","scientific_name":["Aurinia saxatilis"],"other_name":["basket-of-gold","gold dust alyssum","gold dust alyssum"],"cycle":"Perennial","watering":"Minimum","sunlight":[],"default_image":{"image_id":2716,"license":4,"license_name":"Attribution License","license_url":"https://creativecommons.org/licenses/by/2.0/","original_url":"https://perenual.com/storage/species_image/1151_aurinia_saxatilis/og/34689507682_64cc2e8ec7_b.jpg","regular_url":"https://perenual.com/storage/species_image/1151_aurinia_saxatilis/regular/34689507682_64cc2e8ec7_b.jpg","medium_url":"https://perenual.com/storage/species_image/1151_aurinia_saxatilis/medium/34689507682_64cc2e8ec7_b.jpg","small_url":"https://perenual.com/storage/species_image/1151_aurinia_saxatilis/small/34689507682_64cc2e8ec7_b.jpg","thumbnail":"https://perenual.com/storage/species_image/1151_aurinia_saxatilis/thumbnail/34689507682_64cc2e8ec7_b.jpg"}},{"id":1152,"common_name":"basket of gold","scientific_name":["Aurinia saxatilis 'Dudley Nevill Variegated'"],"other_name":["basket-of-gold","gold dust alyssum","gold dust alyssum"],"cycle":"Perennial","watering":"Minimum","sunlight":[],"default_image":{"image_id":2719,"license":4,"license_name":"Attribution License","license_url":"https://creativecommons.org/licenses/by/2.0/","original_url":"https://perenual.com/storage/species_image/1152_aurinia_saxatilis_dudley_nevill_variegated/og/52522771711_19610b5349_b.jpg","regular_url":"https://perenual.com/storage/species_image/1152_aurinia_saxatilis_dudley_nevill_variegated/regular/52522771711_19610b5349_b.jpg","medium_url":"https://perenual.com/storage/species_image/1152_aurinia_saxatilis_dudley_nevill_variegated/medium/52522771711_19610b5349_b.jpg","small_url":"https://perenual.com/storage/species_image/1152_aurinia_saxatilis_dudley_nevill_variegated/small/52522771711_19610b5349_b.jpg","thumbnail":"https://perenual.com/storage/species_image/1152_aurinia_saxatilis_dudley_nevill_variegated/thumbnail/52522771711_19610b5349_b.jpg"}},{"id":1153,"common_name":"basket of gold","scientific_name":["Aurinia saxatilis 'Gold Dust'"],"other_name":["basket-of-gold","gold dust alyssum","gold dust alyssum"],"cycle":"Perennial","watering":"Minimum","sunlight":[],"default_image":{"image_id":2720,"license":5,"license_name":"Attribution-ShareAlike License","license_url":"https://creativecommons.org/licenses/by-sa/2.0/","original_url":"https://perenual.com/storage/species_image/1153_aurinia_saxatilis_gold_dust/og/3512757995_5624dfff1e_b.jpg","regular_url":"https://perenual.com/storage/species_image/1153_aurinia_saxatilis_gold_dust/regular/3512757995_5624dfff1e_b.jpg","medium_url":"https://perenual.com/storage/species_image/1153_aurinia_saxatilis_gold_dust/medium/3512757995_5624dfff1e_b.jpg","small_url":"https://perenual.com/storage/species_image/1153_aurinia_saxatilis_gold_dust/small/3512757995_5624dfff1e_b.jpg","thumbnail":"https://perenual.com/storage/species_image/1153_aurinia_saxatilis_gold_dust/thumbnail/3512757995_5624dfff1e_b.jpg"}},{"id":1154,"common_name":"star fruit","scientific_name":["Averrhoa carambola"],"other_name":null,"cycle":"Perennial","watering":"Average","sunlight":["Full sun"],"default_image":{"image_id":2721,"license":5,"license_name":"Attribution-ShareAlike License","license_url":"https://creativecommons.org/licenses/by-sa/2.0/","original_url":"https://perenual.com/storage/species_image/1154_averrhoa_carambola/og/52334449226_20bfe2f29d_b.jpg","regular_url":"https://perenual.com/storage/species_image/1154_averrhoa_carambola/regular/52334449226_20bfe2f29d_b.jpg","medium_url":"https://perenual.com/storage/species_image/1154_averrhoa_carambola/medium/52334449226_20bfe2f29d_b.jpg","small_url":"https://perenual.com/storage/species_image/1154_averrhoa_carambola/small/52334449226_20bfe2f29d_b.jpg","thumbnail":"https://perenual.com/storage/species_image/1154_averrhoa_carambola/thumbnail/52334449226_20bfe2f29d_b.jpg"}},{"id":1155,"common_name":"neem","scientific_name":["Azadirachta indica"],"other_name":null,"cycle":"Perennial","watering":"Minimum","sunlight":["Full sun","part shade"],"default_image":{"image_id":2729,"license":5,"license_name":"Attribution-ShareAlike License","license_url":"https://creativecommons.org/licenses/by-sa/2.0/","original_url":"https://perenual.com/storage/species_image/1155_azadirachta_indica/og/31761735438_24132d574f_b.jpg","regular_url":"https://perenual.com/storage/species_image/1155_azadirachta_indica/regular/31761735438_24132d574f_b.jpg","medium_url":"https://perenual.com/storage/species_image/1155_azadirachta_indica/medium/31761735438_24132d574f_b.jpg","small_url":"https://perenual.com/storage/species_image/1155_azadirachta_indica/small/31761735438_24132d574f_b.jpg","thumbnail":"https://perenual.com/storage/species_image/1155_azadirachta_indica/thumbnail/31761735438_24132d574f_b.jpg"}},{"id":1156,"common_name":"azara","scientific_name":["Azara microphylla"],"other_name":null,"cycle":"Perennial","watering":"Average","sunlight":["Full sun","part shade"],"default_image":{"image_id":2734,"license":5,"license_name":"Attribution-ShareAlike License","license_url":"https://creativecommons.org/licenses/by-sa/2.0/","original_url":"https://perenual.com/storage/species_image/1156_azara_microphylla/og/46332585474_c13cacf220_b.jpg","regular_url":"https://perenual.com/storage/species_image/1156_azara_microphylla/regular/46332585474_c13cacf220_b.jpg","medium_url":"https://perenual.com/storage/species_image/1156_azara_microphylla/medium/46332585474_c13cacf220_b.jpg","small_url":"https://perenual.com/storage/species_image/1156_azara_microphylla/small/46332585474_c13cacf220_b.jpg","thumbnail":"https://perenual.com/storage/species_image/1156_azara_microphylla/thumbnail/46332585474_c13cacf220_b.jpg"}},{"id":1157,"common_name":"saw toothed azara","scientific_name":["Azara serrata"],"other_name":null,"cycle":"Perennial","watering":"Average","sunlight":["Full sun","part shade"],"default_image":{"image_id":2738,"license":4,"license_name":"Attribution License","license_url":"https://creativecommons.org/licenses/by/2.0/","original_url":"https://perenual.com/storage/species_image/1157_azara_serrata/og/8643721293_5a03849dc6_b.jpg","regular_url":"https://perenual.com/storage/species_image/1157_azara_serrata/regular/8643721293_5a03849dc6_b.jpg","medium_url":"https://perenual.com/storage/species_image/1157_azara_serrata/medium/8643721293_5a03849dc6_b.jpg","small_url":"https://perenual.com/storage/species_image/1157_azara_serrata/small/8643721293_5a03849dc6_b.jpg","thumbnail":"https://perenual.com/storage/species_image/1157_azara_serrata/thumbnail/8643721293_5a03849dc6_b.jpg"}},{"id":1158,"common_name":"saw toothed azara","scientific_name":["Azara serrata ANDEAN GOLD"],"other_name":null,"cycle":"Perennial","watering":"Average","sunlight":["Full sun","part shade"],"default_image":{"image_id":2741,"license":4,"license_name":"Attribution License","license_url":"https://creativecommons.org/licenses/by/2.0/","original_url":"https://perenual.com/storage/species_image/1158_azara_serrata_andean_gold/og/42741085262_cf263d4daa_b.jpg","regular_url":"https://perenual.com/storage/species_image/1158_azara_serrata_andean_gold/regular/42741085262_cf263d4daa_b.jpg","medium_url":"https://perenual.com/storage/species_image/1158_azara_serrata_andean_gold/medium/42741085262_cf263d4daa_b.jpg","small_url":"https://perenual.com/storage/species_image/1158_azara_serrata_andean_gold/small/42741085262_cf263d4daa_b.jpg","thumbnail":"https://perenual.com/storage/species_image/1158_azara_serrata_andean_gold/thumbnail/42741085262_cf263d4daa_b.jpg"}},{"id":1159,"common_name":"water fern","scientific_name":["Azolla filiculoides"],"other_name":["mosquito fern","Large Mosquitofern"],"cycle":"Perennial","watering":"Frequent","sunlight":[],"default_image":{"image_id":9,"license":5,"license_name":"Attribution-ShareAlike License","license_url":"https://creativecommons.org/licenses/by-sa/2.0/","original_url":"https://perenual.com/storage/species_image/2_abies_alba_pyramidalis/og/49255769768_df55596553_b.jpg","regular_url":"https://perenual.com/storage/species_image/2_abies_alba_pyramidalis/regular/49255769768_df55596553_b.jpg","medium_url":"https://perenual.com/storage/species_image/2_abies_alba_pyramidalis/medium/49255769768_df55596553_b.jpg","small_url":"https://perenual.com/storage/species_image/2_abies_alba_pyramidalis/small/49255769768_df55596553_b.jpg","thumbnail":"https://perenual.com/storage/species_image/2_abies_alba_pyramidalis/thumbnail/49255769768_df55596553_b.jpg"}},{"id":1160,"common_name":"false willow","scientific_name":["Baccharis angustifolia"],"other_name":null,"cycle":"Perennial","watering":"Frequent","sunlight":["Full sun"],"default_image":{"image_id":21001,"license":4,"license_name":null,"license_url":null,"original_url":"https://perenual.com/storage/species_image/1160_baccharis_angustifolia/og/30197099822_5c63c64feb_b.jpg","regular_url":"https://perenual.com/storage/species_image/1160_baccharis_angustifolia/regular/30197099822_5c63c64feb_b.jpg","medium_url":"https://perenual.com/storage/species_image/1160_baccharis_angustifolia/medium/30197099822_5c63c64feb_b.jpg","small_url":"https://perenual.com/storage/species_image/1160_baccharis_angustifolia/small/30197099822_5c63c64feb_b.jpg","thumbnail":"https://perenual.com/storage/species_image/1160_baccharis_angustifolia/thumbnail/30197099822_5c63c64feb_b.jpg"}},{"id":1161,"common_name":"eastern baccharis","scientific_name":["Baccharis halimifolia"],"other_name":null,"cycle":"Perennial","watering":"Frequent","sunlight":["Full sun"],"default_image":{"image_id":9,"license":5,"license_name":"Attribution-ShareAlike License","license_url":"https://creativecommons.org/licenses/by-sa/2.0/","original_url":"https://perenual.com/storage/species_image/2_abies_alba_pyramidalis/og/49255769768_df55596553_b.jpg","regular_url":"https://perenual.com/storage/species_image/2_abies_alba_pyramidalis/regular/49255769768_df55596553_b.jpg","medium_url":"https://perenual.com/storage/species_image/2_abies_alba_pyramidalis/medium/49255769768_df55596553_b.jpg","small_url":"https://perenual.com/storage/species_image/2_abies_alba_pyramidalis/small/49255769768_df55596553_b.jpg","thumbnail":"https://perenual.com/storage/species_image/2_abies_alba_pyramidalis/thumbnail/49255769768_df55596553_b.jpg"}},{"id":1162,"common_name":"dwarf chapparal-broom","scientific_name":["Baccharis pilularis"],"other_name":null,"cycle":"Perennial","watering":"Minimum","sunlight":["Full sun","part shade"],"default_image":{"image_id":9,"license":5,"license_name":"Attribution-ShareAlike License","license_url":"https://creativecommons.org/licenses/by-sa/2.0/","original_url":"https://perenual.com/storage/species_image/2_abies_alba_pyramidalis/og/49255769768_df55596553_b.jpg","regular_url":"https://perenual.com/storage/species_image/2_abies_alba_pyramidalis/regular/49255769768_df55596553_b.jpg","medium_url":"https://perenual.com/storage/species_image/2_abies_alba_pyramidalis/medium/49255769768_df55596553_b.jpg","small_url":"https://perenual.com/storage/species_image/2_abies_alba_pyramidalis/small/49255769768_df55596553_b.jpg","thumbnail":"https://perenual.com/storage/species_image/2_abies_alba_pyramidalis/thumbnail/49255769768_df55596553_b.jpg"}},{"id":1163,"common_name":"dwarf chapparal-broom","scientific_name":["Baccharis pilularis 'Pigeon Point'"],"other_name":null,"cycle":"Perennial","watering":"Minimum","sunlight":["Full sun","part shade"],"default_image":{"image_id":2753,"license":4,"license_name":"Attribution License","license_url":"https://creativecommons.org/licenses/by/2.0/","original_url":"https://perenual.com/storage/species_image/1163_baccharis_pilularis_pigeon_point/og/10355511633_50f94d204d_b.jpg","regular_url":"https://perenual.com/storage/species_image/1163_baccharis_pilularis_pigeon_point/regular/10355511633_50f94d204d_b.jpg","medium_url":"https://perenual.com/storage/species_image/1163_baccharis_pilularis_pigeon_point/medium/10355511633_50f94d204d_b.jpg","small_url":"https://perenual.com/storage/species_image/1163_baccharis_pilularis_pigeon_point/small/10355511633_50f94d204d_b.jpg","thumbnail":"https://perenual.com/storage/species_image/1163_baccharis_pilularis_pigeon_point/thumbnail/10355511633_50f94d204d_b.jpg"}},{"id":1164,"common_name":"Buddha belly bamboo","scientific_name":["Bambusa ventricosa"],"other_name":null,"cycle":"Perennial","watering":"Average","sunlight":["Full sun","part shade"],"default_image":{"image_id":2754,"license":4,"license_name":"Attribution License","license_url":"https://creativecommons.org/licenses/by/2.0/","original_url":"https://perenual.com/storage/species_image/1164_bambusa_ventricosa/og/5690344982_ab2d5ae605_b.jpg","regular_url":"https://perenual.com/storage/species_image/1164_bambusa_ventricosa/regular/5690344982_ab2d5ae605_b.jpg","medium_url":"https://perenual.com/storage/species_image/1164_bambusa_ventricosa/medium/5690344982_ab2d5ae605_b.jpg","small_url":"https://perenual.com/storage/species_image/1164_bambusa_ventricosa/small/5690344982_ab2d5ae605_b.jpg","thumbnail":"https://perenual.com/storage/species_image/1164_bambusa_ventricosa/thumbnail/5690344982_ab2d5ae605_b.jpg"}},{"id":1165,"common_name":"false indigo","scientific_name":["Baptisia alba"],"other_name":null,"cycle":"Perennial","watering":"Minimum","sunlight":[],"default_image":{"image_id":9,"license":5,"license_name":"Attribution-ShareAlike License","license_url":"https://creativecommons.org/licenses/by-sa/2.0/","original_url":"https://perenual.com/storage/species_image/2_abies_alba_pyramidalis/og/49255769768_df55596553_b.jpg","regular_url":"https://perenual.com/storage/species_image/2_abies_alba_pyramidalis/regular/49255769768_df55596553_b.jpg","medium_url":"https://perenual.com/storage/species_image/2_abies_alba_pyramidalis/medium/49255769768_df55596553_b.jpg","small_url":"https://perenual.com/storage/species_image/2_abies_alba_pyramidalis/small/49255769768_df55596553_b.jpg","thumbnail":"https://perenual.com/storage/species_image/2_abies_alba_pyramidalis/thumbnail/49255769768_df55596553_b.jpg"}},{"id":1166,"common_name":"false indigo","scientific_name":["Baptisia alba (Pendula Group)"],"other_name":null,"cycle":"Perennial","watering":"Minimum","sunlight":[],"default_image":{"image_id":9,"license":5,"license_name":"Attribution-ShareAlike License","license_url":"https://creativecommons.org/licenses/by-sa/2.0/","original_url":"https://perenual.com/storage/species_image/2_abies_alba_pyramidalis/og/49255769768_df55596553_b.jpg","regular_url":"https://perenual.com/storage/species_image/2_abies_alba_pyramidalis/regular/49255769768_df55596553_b.jpg","medium_url":"https://perenual.com/storage/species_image/2_abies_alba_pyramidalis/medium/49255769768_df55596553_b.jpg","small_url":"https://perenual.com/storage/species_image/2_abies_alba_pyramidalis/small/49255769768_df55596553_b.jpg","thumbnail":"https://perenual.com/storage/species_image/2_abies_alba_pyramidalis/thumbnail/49255769768_df55596553_b.jpg"}},{"id":1167,"common_name":"white false indigo","scientific_name":["Baptisia alba var. macrophylla"],"other_name":null,"cycle":"Perennial","watering":"Minimum","sunlight":[],"default_image":{"image_id":9,"license":5,"license_name":"Attribution-ShareAlike License","license_url":"https://creativecommons.org/licenses/by-sa/2.0/","original_url":"https://perenual.com/storage/species_image/2_abies_alba_pyramidalis/og/49255769768_df55596553_b.jpg","regular_url":"https://perenual.com/storage/species_image/2_abies_alba_pyramidalis/regular/49255769768_df55596553_b.jpg","medium_url":"https://perenual.com/storage/species_image/2_abies_alba_pyramidalis/medium/49255769768_df55596553_b.jpg","small_url":"https://perenual.com/storage/species_image/2_abies_alba_pyramidalis/small/49255769768_df55596553_b.jpg","thumbnail":"https://perenual.com/storage/species_image/2_abies_alba_pyramidalis/thumbnail/49255769768_df55596553_b.jpg"}},{"id":1168,"common_name":"blue false indigo","scientific_name":["Baptisia australis"],"other_name":null,"cycle":"Perennial","watering":"Minimum","sunlight":[],"default_image":{"image_id":2767,"license":5,"license_name":"Attribution-ShareAlike License","license_url":"https://creativecommons.org/licenses/by-sa/2.0/","original_url":"https://perenual.com/storage/species_image/1169_baptisia_australis_var_minor/og/52132109029_52616bc258_b.jpg","regular_url":"https://perenual.com/storage/species_image/1169_baptisia_australis_var_minor/regular/52132109029_52616bc258_b.jpg","medium_url":"https://perenual.com/storage/species_image/1169_baptisia_australis_var_minor/medium/52132109029_52616bc258_b.jpg","small_url":"https://perenual.com/storage/species_image/1169_baptisia_australis_var_minor/small/52132109029_52616bc258_b.jpg","thumbnail":"https://perenual.com/storage/species_image/1169_baptisia_australis_var_minor/thumbnail/52132109029_52616bc258_b.jpg"}},{"id":1169,"common_name":"blue false indigo","scientific_name":["Baptisia australis var. minor"],"other_name":null,"cycle":"Perennial","watering":"Minimum","sunlight":[],"default_image":{"image_id":2770,"license":5,"license_name":"Attribution-ShareAlike License","license_url":"https://creativecommons.org/licenses/by-sa/2.0/","original_url":"https://perenual.com/storage/species_image/1182_baptisia_purple_smoke/og/52113088800_a7e3037d62_b.jpg","regular_url":"https://perenual.com/storage/species_image/1182_baptisia_purple_smoke/regular/52113088800_a7e3037d62_b.jpg","medium_url":"https://perenual.com/storage/species_image/1182_baptisia_purple_smoke/medium/52113088800_a7e3037d62_b.jpg","small_url":"https://perenual.com/storage/species_image/1182_baptisia_purple_smoke/small/52113088800_a7e3037d62_b.jpg","thumbnail":"https://perenual.com/storage/species_image/1182_baptisia_purple_smoke/thumbnail/52113088800_a7e3037d62_b.jpg"}},{"id":1170,"common_name":"false indigo","scientific_name":["Baptisia 'Blueberry Sundae'"],"other_name":null,"cycle":"Perennial","watering":"Minimum","sunlight":["Full sun","part shade"],"default_image":{"image_id":2773,"license":5,"license_name":"Attribution-ShareAlike License","license_url":"https://creativecommons.org/licenses/by-sa/2.0/","original_url":"https://perenual.com/storage/species_image/1170_baptisia_blueberry_sundae/og/51233966101_614cd6e954_b.jpg","regular_url":"https://perenual.com/storage/species_image/1170_baptisia_blueberry_sundae/regular/51233966101_614cd6e954_b.jpg","medium_url":"https://perenual.com/storage/species_image/1170_baptisia_blueberry_sundae/medium/51233966101_614cd6e954_b.jpg","small_url":"https://perenual.com/storage/species_image/1170_baptisia_blueberry_sundae/small/51233966101_614cd6e954_b.jpg","thumbnail":"https://perenual.com/storage/species_image/1170_baptisia_blueberry_sundae/thumbnail/51233966101_614cd6e954_b.jpg"}}],"to":1170,"per_page":30,"current_page":39,"from":1141,"last_page":200,"total":6000}