{"data":[{"id":4441,"common_name":"itea","scientific_name":["Itea ilicifolia"],"other_name":null,"cycle":"Perennial","watering":"Average","sunlight":["Full sun","part shade"],"default_image":{"image_id":9223,"license":4,"license_name":"Attribution License","license_url":"https://creativecommons.org/licenses/by/2.0/","original_url":"https://perenual.com/storage/species_image/4441_itea_ilicifolia/og/52117879174_0944411938_b.jpg","regular_url":"https://perenual.com/storage/species_image/4441_itea_ilicifolia/regular/52117879174_0944411938_b.jpg","medium_url":"https://perenual.com/storage/species_image/4441_itea_ilicifolia/medium/52117879174_0944411938_b.jpg","small_url":"https://perenual.com/storage/species_image/4441_itea_ilicifolia/small/52117879174_0944411938_b.jpg","thumbnail":"https://perenual.com/storage/species_image/4441_itea_ilicifolia/thumbnail/52117879174_0944411938_b.jpg"}},{"id":4442,"common_name":"Japanese sweetspire","scientific_name":["Itea japonica"],"other_name":null,"cycle":"Perennial","watering":"Frequent","sunlight":["Full sun","part shade"],"default_image":{"image_id":21883,"license":45,"license_name":"Attribution-ShareAlike 3.0 Unported (CC BY-SA 3.0)","license_url":"https://creativecommons.org/licenses/by-sa/3.0/deed.en","original_url":"https://perenual.com/storage/species_image/4442_itea_japonica/og/Kanta_Alu_%28Bengali-_%E0%A6%95%E0%A6%BE%E0%A6%81%E0%A6%9F%E0%A6%BE_%E0%A6%86%E0%A6%B2%E0%A7%81%29_%2821801649165%29.jpg","regular_url":"https://perenual.com/storage/species_image/4442_itea_japonica/regular/Kanta_Alu_%28Bengali-_%E0%A6%95%E0%A6%BE%E0%A6%81%E0%A6%9F%E0%A6%BE_%E0%A6%86%E0%A6%B2%E0%A7%81%29_%2821801649165%29.jpg","medium_url":"https://perenual.com/storage/species_image/4442_itea_japonica/medium/Kanta_Alu_%28Bengali-_%E0%A6%95%E0%A6%BE%E0%A6%81%E0%A6%9F%E0%A6%BE_%E0%A6%86%E0%A6%B2%E0%A7%81%29_%2821801649165%29.jpg","small_url":"https://perenual.com/storage/species_image/4442_itea_japonica/small/Kanta_Alu_%28Bengali-_%E0%A6%95%E0%A6%BE%E0%A6%81%E0%A6%9F%E0%A6%BE_%E0%A6%86%E0%A6%B2%E0%A7%81%29_%2821801649165%29.jpg","thumbnail":"https://perenual.com/storage/species_image/4442_itea_japonica/thumbnail/Kanta_Alu_%28Bengali-_%E0%A6%95%E0%A6%BE%E0%A6%81%E0%A6%9F%E0%A6%BE_%E0%A6%86%E0%A6%B2%E0%A7%81%29_%2821801649165%29.jpg"}},{"id":4443,"common_name":"Japanese sweetspire","scientific_name":["Itea japonica 'Beppu'"],"other_name":null,"cycle":"Perennial","watering":"Frequent","sunlight":["Full sun","part shade"],"default_image":{"image_id":9,"license":5,"license_name":"Attribution-ShareAlike License","license_url":"https://creativecommons.org/licenses/by-sa/2.0/","original_url":"https://perenual.com/storage/species_image/2_abies_alba_pyramidalis/og/49255769768_df55596553_b.jpg","regular_url":"https://perenual.com/storage/species_image/2_abies_alba_pyramidalis/regular/49255769768_df55596553_b.jpg","medium_url":"https://perenual.com/storage/species_image/2_abies_alba_pyramidalis/medium/49255769768_df55596553_b.jpg","small_url":"https://perenual.com/storage/species_image/2_abies_alba_pyramidalis/small/49255769768_df55596553_b.jpg","thumbnail":"https://perenual.com/storage/species_image/2_abies_alba_pyramidalis/thumbnail/49255769768_df55596553_b.jpg"}},{"id":4444,"common_name":"Virginia sweetspire","scientific_name":["Itea virginica"],"other_name":null,"cycle":"Perennial","watering":"Frequent","sunlight":["Full sun","part shade"],"default_image":{"image_id":9230,"license":5,"license_name":"Attribution-ShareAlike License","license_url":"https://creativecommons.org/licenses/by-sa/2.0/","original_url":"https://perenual.com/storage/species_image/4449_itea_virginica_sprich_little_henry/og/51998345117_7561f03dd6_b.jpg","regular_url":"https://perenual.com/storage/species_image/4449_itea_virginica_sprich_little_henry/regular/51998345117_7561f03dd6_b.jpg","medium_url":"https://perenual.com/storage/species_image/4449_itea_virginica_sprich_little_henry/medium/51998345117_7561f03dd6_b.jpg","small_url":"https://perenual.com/storage/species_image/4449_itea_virginica_sprich_little_henry/small/51998345117_7561f03dd6_b.jpg","thumbnail":"https://perenual.com/storage/species_image/4449_itea_virginica_sprich_little_henry/thumbnail/51998345117_7561f03dd6_b.jpg"}},{"id":4445,"common_name":"Virginia sweetspire","scientific_name":["Itea virginica 'Henry's Garnet'"],"other_name":null,"cycle":"Perennial","watering":"Frequent","sunlight":["Full sun","part shade"],"default_image":{"image_id":9236,"license":5,"license_name":"Attribution-ShareAlike License","license_url":"https://creativecommons.org/licenses/by-sa/2.0/","original_url":"https://perenual.com/storage/species_image/4445_itea_virginica_henrys_garnet/og/40911128663_8cee0c7d80_b.jpg","regular_url":"https://perenual.com/storage/species_image/4445_itea_virginica_henrys_garnet/regular/40911128663_8cee0c7d80_b.jpg","medium_url":"https://perenual.com/storage/species_image/4445_itea_virginica_henrys_garnet/medium/40911128663_8cee0c7d80_b.jpg","small_url":"https://perenual.com/storage/species_image/4445_itea_virginica_henrys_garnet/small/40911128663_8cee0c7d80_b.jpg","thumbnail":"https://perenual.com/storage/species_image/4445_itea_virginica_henrys_garnet/thumbnail/40911128663_8cee0c7d80_b.jpg"}},{"id":4446,"common_name":"Virginia sweetspire","scientific_name":["Itea virginica 'Sarah Eve'"],"other_name":null,"cycle":"Perennial","watering":"Frequent","sunlight":["Full sun","part shade"],"default_image":{"image_id":9237,"license":4,"license_name":"Attribution License","license_url":"https://creativecommons.org/licenses/by/2.0/","original_url":"https://perenual.com/storage/species_image/4446_itea_virginica_sarah_eve/og/52103330300_9b48f81e03_b.jpg","regular_url":"https://perenual.com/storage/species_image/4446_itea_virginica_sarah_eve/regular/52103330300_9b48f81e03_b.jpg","medium_url":"https://perenual.com/storage/species_image/4446_itea_virginica_sarah_eve/medium/52103330300_9b48f81e03_b.jpg","small_url":"https://perenual.com/storage/species_image/4446_itea_virginica_sarah_eve/small/52103330300_9b48f81e03_b.jpg","thumbnail":"https://perenual.com/storage/species_image/4446_itea_virginica_sarah_eve/thumbnail/52103330300_9b48f81e03_b.jpg"}},{"id":4447,"common_name":"Virginia sweetspire","scientific_name":["Itea virginica 'Saturnalia'"],"other_name":null,"cycle":"Perennial","watering":"Frequent","sunlight":["Full sun","part shade"],"default_image":{"image_id":22023,"license":1,"license_name":null,"license_url":null,"original_url":"https://perenual.com/storage/species_image/4447_itea_virginica_saturnalia/og/50026354622_878d1aab2d_b.jpg","regular_url":"https://perenual.com/storage/species_image/4447_itea_virginica_saturnalia/regular/50026354622_878d1aab2d_b.jpg","medium_url":"https://perenual.com/storage/species_image/4447_itea_virginica_saturnalia/medium/50026354622_878d1aab2d_b.jpg","small_url":"https://perenual.com/storage/species_image/4447_itea_virginica_saturnalia/small/50026354622_878d1aab2d_b.jpg","thumbnail":"https://perenual.com/storage/species_image/4447_itea_virginica_saturnalia/thumbnail/50026354622_878d1aab2d_b.jpg"}},{"id":4448,"common_name":"Virginia sweetspire","scientific_name":["Itea virginica 'SMNIVDFC' SCENTLANDIA"],"other_name":null,"cycle":"Perennial","watering":"Average","sunlight":[],"default_image":{"image_id":9230,"license":5,"license_name":"Attribution-ShareAlike License","license_url":"https://creativecommons.org/licenses/by-sa/2.0/","original_url":"https://perenual.com/storage/species_image/4449_itea_virginica_sprich_little_henry/og/51998345117_7561f03dd6_b.jpg","regular_url":"https://perenual.com/storage/species_image/4449_itea_virginica_sprich_little_henry/regular/51998345117_7561f03dd6_b.jpg","medium_url":"https://perenual.com/storage/species_image/4449_itea_virginica_sprich_little_henry/medium/51998345117_7561f03dd6_b.jpg","small_url":"https://perenual.com/storage/species_image/4449_itea_virginica_sprich_little_henry/small/51998345117_7561f03dd6_b.jpg","thumbnail":"https://perenual.com/storage/species_image/4449_itea_virginica_sprich_little_henry/thumbnail/51998345117_7561f03dd6_b.jpg"}},{"id":4449,"common_name":"Virginia sweetspire","scientific_name":["Itea virginica 'Sprich' LITTLE HENRY"],"other_name":null,"cycle":"Perennial","watering":"Frequent","sunlight":["Full sun","part shade"],"default_image":{"image_id":9242,"license":5,"license_name":"Attribution-ShareAlike License","license_url":"https://creativecommons.org/licenses/by-sa/2.0/","original_url":"https://perenual.com/storage/species_image/4449_itea_virginica_sprich_little_henry/og/7174097305_bacb74ef64_b.jpg","regular_url":"https://perenual.com/storage/species_image/4449_itea_virginica_sprich_little_henry/regular/7174097305_bacb74ef64_b.jpg","medium_url":"https://perenual.com/storage/species_image/4449_itea_virginica_sprich_little_henry/medium/7174097305_bacb74ef64_b.jpg","small_url":"https://perenual.com/storage/species_image/4449_itea_virginica_sprich_little_henry/small/7174097305_bacb74ef64_b.jpg","thumbnail":"https://perenual.com/storage/species_image/4449_itea_virginica_sprich_little_henry/thumbnail/7174097305_bacb74ef64_b.jpg"}},{"id":4450,"common_name":"ixia","scientific_name":["Ixia maculata"],"other_name":null,"cycle":"Perennial","watering":"Average","sunlight":["Full sun"],"default_image":{"image_id":9244,"license":6,"license_name":"Attribution-NoDerivs License","license_url":"https://creativecommons.org/licenses/by-nd/2.0/","original_url":"https://perenual.com/storage/species_image/4450_ixia_maculata/og/49848928096_fe9c9cf2fb_b.jpg"}},{"id":4451,"common_name":"flame of the woods","scientific_name":["Ixora casei"],"other_name":null,"cycle":"Perennial","watering":"Average","sunlight":["Full sun"],"default_image":{"image_id":9251,"license":6,"license_name":"Attribution-NoDerivs License","license_url":"https://creativecommons.org/licenses/by-nd/2.0/","original_url":"https://perenual.com/storage/species_image/4451_ixora_casei/og/5686332088_22f3f23107_b.jpg"}},{"id":4452,"common_name":"flame of the woods","scientific_name":["Ixora coccinea"],"other_name":null,"cycle":"Perennial","watering":"Average","sunlight":["Full sun"],"default_image":{"image_id":9256,"license":4,"license_name":"Attribution License","license_url":"https://creativecommons.org/licenses/by/2.0/","original_url":"https://perenual.com/storage/species_image/4452_ixora_coccinea/og/14228069926_b0a58ddfaa_b.jpg","regular_url":"https://perenual.com/storage/species_image/4452_ixora_coccinea/regular/14228069926_b0a58ddfaa_b.jpg","medium_url":"https://perenual.com/storage/species_image/4452_ixora_coccinea/medium/14228069926_b0a58ddfaa_b.jpg","small_url":"https://perenual.com/storage/species_image/4452_ixora_coccinea/small/14228069926_b0a58ddfaa_b.jpg","thumbnail":"https://perenual.com/storage/species_image/4452_ixora_coccinea/thumbnail/14228069926_b0a58ddfaa_b.jpg"}},{"id":4453,"common_name":"black poui","scientific_name":["Jacaranda mimosifolia"],"other_name":null,"cycle":"Perennial","watering":"Average","sunlight":["Full sun"],"default_image":{"image_id":9259,"license":5,"license_name":"Attribution-ShareAlike License","license_url":"https://creativecommons.org/licenses/by-sa/2.0/","original_url":"https://perenual.com/storage/species_image/4453_jacaranda_mimosifolia/og/51968095005_84dfbc8fce_b.jpg","regular_url":"https://perenual.com/storage/species_image/4453_jacaranda_mimosifolia/regular/51968095005_84dfbc8fce_b.jpg","medium_url":"https://perenual.com/storage/species_image/4453_jacaranda_mimosifolia/medium/51968095005_84dfbc8fce_b.jpg","small_url":"https://perenual.com/storage/species_image/4453_jacaranda_mimosifolia/small/51968095005_84dfbc8fce_b.jpg","thumbnail":"https://perenual.com/storage/species_image/4453_jacaranda_mimosifolia/thumbnail/51968095005_84dfbc8fce_b.jpg"}},{"id":4454,"common_name":"silver ragwort","scientific_name":["Jacobaea maritima"],"other_name":null,"cycle":"Perennial","watering":"Average","sunlight":["Full sun","part shade"],"default_image":{"image_id":9262,"license":6,"license_name":"Attribution-NoDerivs License","license_url":"https://creativecommons.org/licenses/by-nd/2.0/","original_url":"https://perenual.com/storage/species_image/4454_jacobaea_maritima/og/52161089478_afa90267dc_b.jpg"}},{"id":4455,"common_name":"winter jasmine","scientific_name":["Jasminum nudiflorum"],"other_name":null,"cycle":"Perennial","watering":"Average","sunlight":["Full sun","part shade"],"default_image":{"image_id":9267,"license":4,"license_name":"Attribution License","license_url":"https://creativecommons.org/licenses/by/2.0/","original_url":"https://perenual.com/storage/species_image/4455_jasminum_nudiflorum/og/51876759557_44d1ef8bb6_b.jpg","regular_url":"https://perenual.com/storage/species_image/4455_jasminum_nudiflorum/regular/51876759557_44d1ef8bb6_b.jpg","medium_url":"https://perenual.com/storage/species_image/4455_jasminum_nudiflorum/medium/51876759557_44d1ef8bb6_b.jpg","small_url":"https://perenual.com/storage/species_image/4455_jasminum_nudiflorum/small/51876759557_44d1ef8bb6_b.jpg","thumbnail":"https://perenual.com/storage/species_image/4455_jasminum_nudiflorum/thumbnail/51876759557_44d1ef8bb6_b.jpg"}},{"id":4456,"common_name":"common jasmine","scientific_name":["Jasminum officinale"],"other_name":null,"cycle":"Perennial","watering":"Average","sunlight":["Full sun","part shade"],"default_image":{"image_id":9272,"license":4,"license_name":"Attribution License","license_url":"https://creativecommons.org/licenses/by/2.0/","original_url":"https://perenual.com/storage/species_image/4457_jasminum_sambac/og/43526176731_f60ccb734e_b.jpg","regular_url":"https://perenual.com/storage/species_image/4457_jasminum_sambac/regular/43526176731_f60ccb734e_b.jpg","medium_url":"https://perenual.com/storage/species_image/4457_jasminum_sambac/medium/43526176731_f60ccb734e_b.jpg","small_url":"https://perenual.com/storage/species_image/4457_jasminum_sambac/small/43526176731_f60ccb734e_b.jpg","thumbnail":"https://perenual.com/storage/species_image/4457_jasminum_sambac/thumbnail/43526176731_f60ccb734e_b.jpg"}},{"id":4457,"common_name":"Arabian jasmine","scientific_name":["Jasminum sambac"],"other_name":null,"cycle":"Perennial","watering":"Average","sunlight":["Full sun","part shade"],"default_image":{"image_id":9280,"license":4,"license_name":"Attribution License","license_url":"https://creativecommons.org/licenses/by/2.0/","original_url":"https://perenual.com/storage/species_image/4457_jasminum_sambac/og/24901316515_35c04da8a4_b.jpg","regular_url":"https://perenual.com/storage/species_image/4457_jasminum_sambac/regular/24901316515_35c04da8a4_b.jpg","medium_url":"https://perenual.com/storage/species_image/4457_jasminum_sambac/medium/24901316515_35c04da8a4_b.jpg","small_url":"https://perenual.com/storage/species_image/4457_jasminum_sambac/small/24901316515_35c04da8a4_b.jpg","thumbnail":"https://perenual.com/storage/species_image/4457_jasminum_sambac/thumbnail/24901316515_35c04da8a4_b.jpg"}},{"id":4458,"common_name":"Arabian jasmine","scientific_name":["Jasminum sambac 'Jewel of India'"],"other_name":null,"cycle":"Perennial","watering":"Average","sunlight":["Full sun","part shade"],"default_image":{"image_id":9,"license":5,"license_name":"Attribution-ShareAlike License","license_url":"https://creativecommons.org/licenses/by-sa/2.0/","original_url":"https://perenual.com/storage/species_image/2_abies_alba_pyramidalis/og/49255769768_df55596553_b.jpg","regular_url":"https://perenual.com/storage/species_image/2_abies_alba_pyramidalis/regular/49255769768_df55596553_b.jpg","medium_url":"https://perenual.com/storage/species_image/2_abies_alba_pyramidalis/medium/49255769768_df55596553_b.jpg","small_url":"https://perenual.com/storage/species_image/2_abies_alba_pyramidalis/small/49255769768_df55596553_b.jpg","thumbnail":"https://perenual.com/storage/species_image/2_abies_alba_pyramidalis/thumbnail/49255769768_df55596553_b.jpg"}},{"id":4459,"common_name":"jasmine","scientific_name":["Jasminum stephanense"],"other_name":null,"cycle":"Perennial","watering":"Average","sunlight":["Full sun","part shade"],"default_image":{"image_id":9,"license":5,"license_name":"Attribution-ShareAlike License","license_url":"https://creativecommons.org/licenses/by-sa/2.0/","original_url":"https://perenual.com/storage/species_image/2_abies_alba_pyramidalis/og/49255769768_df55596553_b.jpg","regular_url":"https://perenual.com/storage/species_image/2_abies_alba_pyramidalis/regular/49255769768_df55596553_b.jpg","medium_url":"https://perenual.com/storage/species_image/2_abies_alba_pyramidalis/medium/49255769768_df55596553_b.jpg","small_url":"https://perenual.com/storage/species_image/2_abies_alba_pyramidalis/small/49255769768_df55596553_b.jpg","thumbnail":"https://perenual.com/storage/species_image/2_abies_alba_pyramidalis/thumbnail/49255769768_df55596553_b.jpg"}},{"id":4460,"common_name":"barbados nut","scientific_name":["Jatropha curcas"],"other_name":null,"cycle":"Perennial","watering":"Minimum","sunlight":["Full sun"],"default_image":{"image_id":9286,"license":4,"license_name":"Attribution License","license_url":"https://creativecommons.org/licenses/by/2.0/","original_url":"https://perenual.com/storage/species_image/4460_jatropha_curcas/og/24554844944_f31887302a_b.jpg","regular_url":"https://perenual.com/storage/species_image/4460_jatropha_curcas/regular/24554844944_f31887302a_b.jpg","medium_url":"https://perenual.com/storage/species_image/4460_jatropha_curcas/medium/24554844944_f31887302a_b.jpg","small_url":"https://perenual.com/storage/species_image/4460_jatropha_curcas/small/24554844944_f31887302a_b.jpg","thumbnail":"https://perenual.com/storage/species_image/4460_jatropha_curcas/thumbnail/24554844944_f31887302a_b.jpg"}},{"id":4461,"common_name":"coralbush","scientific_name":["Jatropha multifida"],"other_name":null,"cycle":"Perennial","watering":"Average","sunlight":["Full sun"],"default_image":{"image_id":9301,"license":4,"license_name":"Attribution License","license_url":"https://creativecommons.org/licenses/by/2.0/","original_url":"https://perenual.com/storage/species_image/4461_jatropha_multifida/og/24834888962_35120cdb5f_b.jpg","regular_url":"https://perenual.com/storage/species_image/4461_jatropha_multifida/regular/24834888962_35120cdb5f_b.jpg","medium_url":"https://perenual.com/storage/species_image/4461_jatropha_multifida/medium/24834888962_35120cdb5f_b.jpg","small_url":"https://perenual.com/storage/species_image/4461_jatropha_multifida/small/24834888962_35120cdb5f_b.jpg","thumbnail":"https://perenual.com/storage/species_image/4461_jatropha_multifida/thumbnail/24834888962_35120cdb5f_b.jpg"}},{"id":4462,"common_name":"twinleaf","scientific_name":["Jeffersonia diphylla"],"other_name":null,"cycle":"Perennial","watering":"Average","sunlight":["Part shade"],"default_image":{"image_id":9303,"license":4,"license_name":"Attribution License","license_url":"https://creativecommons.org/licenses/by/2.0/","original_url":"https://perenual.com/storage/species_image/4462_jeffersonia_diphylla/og/17061028111_0dac0d62b7_b.jpg","regular_url":"https://perenual.com/storage/species_image/4462_jeffersonia_diphylla/regular/17061028111_0dac0d62b7_b.jpg","medium_url":"https://perenual.com/storage/species_image/4462_jeffersonia_diphylla/medium/17061028111_0dac0d62b7_b.jpg","small_url":"https://perenual.com/storage/species_image/4462_jeffersonia_diphylla/small/17061028111_0dac0d62b7_b.jpg","thumbnail":"https://perenual.com/storage/species_image/4462_jeffersonia_diphylla/thumbnail/17061028111_0dac0d62b7_b.jpg"}},{"id":4463,"common_name":"butter nut","scientific_name":["Juglans cinerea"],"other_name":null,"cycle":"Perennial","watering":"Minimum","sunlight":["Full sun"],"default_image":{"image_id":9,"license":5,"license_name":"Attribution-ShareAlike License","license_url":"https://creativecommons.org/licenses/by-sa/2.0/","original_url":"https://perenual.com/storage/species_image/2_abies_alba_pyramidalis/og/49255769768_df55596553_b.jpg","regular_url":"https://perenual.com/storage/species_image/2_abies_alba_pyramidalis/regular/49255769768_df55596553_b.jpg","medium_url":"https://perenual.com/storage/species_image/2_abies_alba_pyramidalis/medium/49255769768_df55596553_b.jpg","small_url":"https://perenual.com/storage/species_image/2_abies_alba_pyramidalis/small/49255769768_df55596553_b.jpg","thumbnail":"https://perenual.com/storage/species_image/2_abies_alba_pyramidalis/thumbnail/49255769768_df55596553_b.jpg"}},{"id":4464,"common_name":"black walnut","scientific_name":["Juglans nigra"],"other_name":null,"cycle":"Perennial","watering":"Frequent","sunlight":["Full sun"],"default_image":{"image_id":9312,"license":5,"license_name":"Attribution-ShareAlike License","license_url":"https://creativecommons.org/licenses/by-sa/2.0/","original_url":"https://perenual.com/storage/species_image/4464_juglans_nigra/og/51680537398_eb9fd7c8b3_b.jpg","regular_url":"https://perenual.com/storage/species_image/4464_juglans_nigra/regular/51680537398_eb9fd7c8b3_b.jpg","medium_url":"https://perenual.com/storage/species_image/4464_juglans_nigra/medium/51680537398_eb9fd7c8b3_b.jpg","small_url":"https://perenual.com/storage/species_image/4464_juglans_nigra/small/51680537398_eb9fd7c8b3_b.jpg","thumbnail":"https://perenual.com/storage/species_image/4464_juglans_nigra/thumbnail/51680537398_eb9fd7c8b3_b.jpg"}},{"id":4465,"common_name":"rush","scientific_name":["Juncus 'Blue Dart'"],"other_name":null,"cycle":"Perennial","watering":"Frequent","sunlight":["Full sun","part shade"],"default_image":{"image_id":21888,"license":5,"license_name":"Attribution-ShareAlike License","license_url":"https://creativecommons.org/licenses/by-sa/2.0/","original_url":"https://perenual.com/storage/species_image/4465_juncus_blue_dart/og/14376053939_62ac784cee_b.jpg","regular_url":"https://perenual.com/storage/species_image/4465_juncus_blue_dart/regular/14376053939_62ac784cee_b.jpg","medium_url":"https://perenual.com/storage/species_image/4465_juncus_blue_dart/medium/14376053939_62ac784cee_b.jpg","small_url":"https://perenual.com/storage/species_image/4465_juncus_blue_dart/small/14376053939_62ac784cee_b.jpg","thumbnail":"https://perenual.com/storage/species_image/4465_juncus_blue_dart/thumbnail/14376053939_62ac784cee_b.jpg"}},{"id":4466,"common_name":"rush","scientific_name":["Juncus decipiens 'Curly-wurly'"],"other_name":null,"cycle":"Perennial","watering":"Frequent","sunlight":["Full sun"],"default_image":{"image_id":21889,"license":4,"license_name":"Attribution License","license_url":"https://creativecommons.org/licenses/by/2.0/","original_url":"https://perenual.com/storage/species_image/4466_juncus_decipiens_curly-wurly/og/3476005320_36342df0fa_b.jpg","regular_url":"https://perenual.com/storage/species_image/4466_juncus_decipiens_curly-wurly/regular/3476005320_36342df0fa_b.jpg","medium_url":"https://perenual.com/storage/species_image/4466_juncus_decipiens_curly-wurly/medium/3476005320_36342df0fa_b.jpg","small_url":"https://perenual.com/storage/species_image/4466_juncus_decipiens_curly-wurly/small/3476005320_36342df0fa_b.jpg","thumbnail":"https://perenual.com/storage/species_image/4466_juncus_decipiens_curly-wurly/thumbnail/3476005320_36342df0fa_b.jpg"}},{"id":4467,"common_name":"Dudley's rush","scientific_name":["Juncus dudleyi"],"other_name":null,"cycle":"Perennial","watering":"Frequent","sunlight":["Full sun"],"default_image":{"image_id":9316,"license":5,"license_name":"Attribution-ShareAlike License","license_url":"https://creativecommons.org/licenses/by-sa/2.0/","original_url":"https://perenual.com/storage/species_image/4467_juncus_dudleyi/og/4155056833_13aae0c8e3_b.jpg","regular_url":"https://perenual.com/storage/species_image/4467_juncus_dudleyi/regular/4155056833_13aae0c8e3_b.jpg","medium_url":"https://perenual.com/storage/species_image/4467_juncus_dudleyi/medium/4155056833_13aae0c8e3_b.jpg","small_url":"https://perenual.com/storage/species_image/4467_juncus_dudleyi/small/4155056833_13aae0c8e3_b.jpg","thumbnail":"https://perenual.com/storage/species_image/4467_juncus_dudleyi/thumbnail/4155056833_13aae0c8e3_b.jpg"}},{"id":4468,"common_name":"common rush","scientific_name":["Juncus effusus"],"other_name":["bog rush"],"cycle":"Perennial","watering":"Frequent","sunlight":["Full sun"],"default_image":{"image_id":9317,"license":4,"license_name":"Attribution License","license_url":"https://creativecommons.org/licenses/by/2.0/","original_url":"https://perenual.com/storage/species_image/4468_juncus_effusus/og/25027215462_d168f7293a_b.jpg","regular_url":"https://perenual.com/storage/species_image/4468_juncus_effusus/regular/25027215462_d168f7293a_b.jpg","medium_url":"https://perenual.com/storage/species_image/4468_juncus_effusus/medium/25027215462_d168f7293a_b.jpg","small_url":"https://perenual.com/storage/species_image/4468_juncus_effusus/small/25027215462_d168f7293a_b.jpg","thumbnail":"https://perenual.com/storage/species_image/4468_juncus_effusus/thumbnail/25027215462_d168f7293a_b.jpg"}},{"id":4469,"common_name":"corkscrew rush","scientific_name":["Juncus effusus f. spiralis"],"other_name":null,"cycle":"Perennial","watering":"Frequent","sunlight":["Full sun"],"default_image":{"image_id":9,"license":5,"license_name":"Attribution-ShareAlike License","license_url":"https://creativecommons.org/licenses/by-sa/2.0/","original_url":"https://perenual.com/storage/species_image/2_abies_alba_pyramidalis/og/49255769768_df55596553_b.jpg","regular_url":"https://perenual.com/storage/species_image/2_abies_alba_pyramidalis/regular/49255769768_df55596553_b.jpg","medium_url":"https://perenual.com/storage/species_image/2_abies_alba_pyramidalis/medium/49255769768_df55596553_b.jpg","small_url":"https://perenual.com/storage/species_image/2_abies_alba_pyramidalis/small/49255769768_df55596553_b.jpg","thumbnail":"https://perenual.com/storage/species_image/2_abies_alba_pyramidalis/thumbnail/49255769768_df55596553_b.jpg"}},{"id":4470,"common_name":"corkscrew rush","scientific_name":["Juncus effusus f. spiralis 'Blonde Ambition'"],"other_name":null,"cycle":"Perennial","watering":"Frequent","sunlight":["Full sun"],"default_image":{"image_id":9,"license":5,"license_name":"Attribution-ShareAlike License","license_url":"https://creativecommons.org/licenses/by-sa/2.0/","original_url":"https://perenual.com/storage/species_image/2_abies_alba_pyramidalis/og/49255769768_df55596553_b.jpg","regular_url":"https://perenual.com/storage/species_image/2_abies_alba_pyramidalis/regular/49255769768_df55596553_b.jpg","medium_url":"https://perenual.com/storage/species_image/2_abies_alba_pyramidalis/medium/49255769768_df55596553_b.jpg","small_url":"https://perenual.com/storage/species_image/2_abies_alba_pyramidalis/small/49255769768_df55596553_b.jpg","thumbnail":"https://perenual.com/storage/species_image/2_abies_alba_pyramidalis/thumbnail/49255769768_df55596553_b.jpg"}}],"to":4470,"per_page":30,"current_page":149,"from":4441,"last_page":200,"total":6000}