{"data":[{"id":2251,"common_name":"cucumber","scientific_name":["Cucumis sativus"],"other_name":["European cucumber"],"cycle":"Annual","watering":"Average","sunlight":["Full sun"],"default_image":{"image_id":9,"license":5,"license_name":"Attribution-ShareAlike License","license_url":"https://creativecommons.org/licenses/by-sa/2.0/","original_url":"https://perenual.com/storage/species_image/2_abies_alba_pyramidalis/og/49255769768_df55596553_b.jpg","regular_url":"https://perenual.com/storage/species_image/2_abies_alba_pyramidalis/regular/49255769768_df55596553_b.jpg","medium_url":"https://perenual.com/storage/species_image/2_abies_alba_pyramidalis/medium/49255769768_df55596553_b.jpg","small_url":"https://perenual.com/storage/species_image/2_abies_alba_pyramidalis/small/49255769768_df55596553_b.jpg","thumbnail":"https://perenual.com/storage/species_image/2_abies_alba_pyramidalis/thumbnail/49255769768_df55596553_b.jpg"}},{"id":2252,"common_name":"winter squash","scientific_name":["Cucurbita argyrosperma"],"other_name":null,"cycle":"Perennial","watering":"Average","sunlight":["Full sun"],"default_image":{"image_id":9,"license":5,"license_name":"Attribution-ShareAlike License","license_url":"https://creativecommons.org/licenses/by-sa/2.0/","original_url":"https://perenual.com/storage/species_image/2_abies_alba_pyramidalis/og/49255769768_df55596553_b.jpg","regular_url":"https://perenual.com/storage/species_image/2_abies_alba_pyramidalis/regular/49255769768_df55596553_b.jpg","medium_url":"https://perenual.com/storage/species_image/2_abies_alba_pyramidalis/medium/49255769768_df55596553_b.jpg","small_url":"https://perenual.com/storage/species_image/2_abies_alba_pyramidalis/small/49255769768_df55596553_b.jpg","thumbnail":"https://perenual.com/storage/species_image/2_abies_alba_pyramidalis/thumbnail/49255769768_df55596553_b.jpg"}},{"id":2253,"common_name":"winter squash","scientific_name":["Cucurbita maxima"],"other_name":["winter squash"],"cycle":"Perennial","watering":"Average","sunlight":["Full sun"," Part sun/part shade"],"default_image":{"image_id":5302,"license":4,"license_name":"Attribution License","license_url":"https://creativecommons.org/licenses/by/2.0/","original_url":"https://perenual.com/storage/species_image/2253_cucurbita_maxima/og/35821477330_688f30f50d_b.jpg","regular_url":"https://perenual.com/storage/species_image/2253_cucurbita_maxima/regular/35821477330_688f30f50d_b.jpg","medium_url":"https://perenual.com/storage/species_image/2253_cucurbita_maxima/medium/35821477330_688f30f50d_b.jpg","small_url":"https://perenual.com/storage/species_image/2253_cucurbita_maxima/small/35821477330_688f30f50d_b.jpg","thumbnail":"https://perenual.com/storage/species_image/2253_cucurbita_maxima/thumbnail/35821477330_688f30f50d_b.jpg"}},{"id":2254,"common_name":"winter squash","scientific_name":["Cucurbita moschata"],"other_name":null,"cycle":"Perennial","watering":"Average","sunlight":["Full sun"],"default_image":{"image_id":5309,"license":4,"license_name":"Attribution License","license_url":"https://creativecommons.org/licenses/by/2.0/","original_url":"https://perenual.com/storage/species_image/2254_cucurbita_moschata/og/24859608269_b96f74bc60_b.jpg","regular_url":"https://perenual.com/storage/species_image/2254_cucurbita_moschata/regular/24859608269_b96f74bc60_b.jpg","medium_url":"https://perenual.com/storage/species_image/2254_cucurbita_moschata/medium/24859608269_b96f74bc60_b.jpg","small_url":"https://perenual.com/storage/species_image/2254_cucurbita_moschata/small/24859608269_b96f74bc60_b.jpg","thumbnail":"https://perenual.com/storage/species_image/2254_cucurbita_moschata/thumbnail/24859608269_b96f74bc60_b.jpg"}},{"id":2255,"common_name":"summer squash","scientific_name":["Cucurbita pepo"],"other_name":["zucchini"],"cycle":"Perennial","watering":"Average","sunlight":["Full sun"],"default_image":{"image_id":5315,"license":4,"license_name":"Attribution License","license_url":"https://creativecommons.org/licenses/by/2.0/","original_url":"https://perenual.com/storage/species_image/2255_cucurbita_pepo/og/30834361358_ce4119cf89_b.jpg","regular_url":"https://perenual.com/storage/species_image/2255_cucurbita_pepo/regular/30834361358_ce4119cf89_b.jpg","medium_url":"https://perenual.com/storage/species_image/2255_cucurbita_pepo/medium/30834361358_ce4119cf89_b.jpg","small_url":"https://perenual.com/storage/species_image/2255_cucurbita_pepo/small/30834361358_ce4119cf89_b.jpg","thumbnail":"https://perenual.com/storage/species_image/2255_cucurbita_pepo/thumbnail/30834361358_ce4119cf89_b.jpg"}},{"id":2256,"common_name":"common dittany","scientific_name":["Cunila origanoides"],"other_name":null,"cycle":"Perennial","watering":"Minimum","sunlight":["Full sun","part shade"],"default_image":{"image_id":5321,"license":5,"license_name":"Attribution-ShareAlike License","license_url":"https://creativecommons.org/licenses/by-sa/2.0/","original_url":"https://perenual.com/storage/species_image/2256_cunila_origanoides/og/9578954870_0aaf03af74_b.jpg","regular_url":"https://perenual.com/storage/species_image/2256_cunila_origanoides/regular/9578954870_0aaf03af74_b.jpg","medium_url":"https://perenual.com/storage/species_image/2256_cunila_origanoides/medium/9578954870_0aaf03af74_b.jpg","small_url":"https://perenual.com/storage/species_image/2256_cunila_origanoides/small/9578954870_0aaf03af74_b.jpg","thumbnail":"https://perenual.com/storage/species_image/2256_cunila_origanoides/thumbnail/9578954870_0aaf03af74_b.jpg"}},{"id":2257,"common_name":"China-fir","scientific_name":["Cunninghamia lanceolata"],"other_name":null,"cycle":"Perennial","watering":"Average","sunlight":["Full sun"," Part sun/part shade"],"default_image":{"image_id":5324,"license":4,"license_name":"Attribution License","license_url":"https://creativecommons.org/licenses/by/2.0/","original_url":"https://perenual.com/storage/species_image/2257_cunninghamia_lanceolata/og/24628441741_28283850d5_b.jpg","regular_url":"https://perenual.com/storage/species_image/2257_cunninghamia_lanceolata/regular/24628441741_28283850d5_b.jpg","medium_url":"https://perenual.com/storage/species_image/2257_cunninghamia_lanceolata/medium/24628441741_28283850d5_b.jpg","small_url":"https://perenual.com/storage/species_image/2257_cunninghamia_lanceolata/small/24628441741_28283850d5_b.jpg","thumbnail":"https://perenual.com/storage/species_image/2257_cunninghamia_lanceolata/thumbnail/24628441741_28283850d5_b.jpg"}},{"id":2258,"common_name":"cuphea","scientific_name":["Cuphea 'David Verity'"],"other_name":null,"cycle":"Perennial","watering":"Average","sunlight":["Full sun"],"default_image":{"image_id":5325,"license":4,"license_name":"Attribution License","license_url":"https://creativecommons.org/licenses/by/2.0/","original_url":"https://perenual.com/storage/species_image/2258_cuphea_david_verity/og/51854325106_33ed9ec628_b.jpg","regular_url":"https://perenual.com/storage/species_image/2258_cuphea_david_verity/regular/51854325106_33ed9ec628_b.jpg","medium_url":"https://perenual.com/storage/species_image/2258_cuphea_david_verity/medium/51854325106_33ed9ec628_b.jpg","small_url":"https://perenual.com/storage/species_image/2258_cuphea_david_verity/small/51854325106_33ed9ec628_b.jpg","thumbnail":"https://perenual.com/storage/species_image/2258_cuphea_david_verity/thumbnail/51854325106_33ed9ec628_b.jpg"}},{"id":2259,"common_name":"false heather","scientific_name":["Cuphea hyssopifolia"],"other_name":null,"cycle":"Perennial","watering":"Average","sunlight":["Full sun"],"default_image":{"image_id":5326,"license":4,"license_name":"Attribution License","license_url":"https://creativecommons.org/licenses/by/2.0/","original_url":"https://perenual.com/storage/species_image/2259_cuphea_hyssopifolia/og/24865152956_a5ee722767_b.jpg","regular_url":"https://perenual.com/storage/species_image/2259_cuphea_hyssopifolia/regular/24865152956_a5ee722767_b.jpg","medium_url":"https://perenual.com/storage/species_image/2259_cuphea_hyssopifolia/medium/24865152956_a5ee722767_b.jpg","small_url":"https://perenual.com/storage/species_image/2259_cuphea_hyssopifolia/small/24865152956_a5ee722767_b.jpg","thumbnail":"https://perenual.com/storage/species_image/2259_cuphea_hyssopifolia/thumbnail/24865152956_a5ee722767_b.jpg"}},{"id":2260,"common_name":"cigar flower","scientific_name":["Cuphea ignea"],"other_name":null,"cycle":"Perennial","watering":"Average","sunlight":["Full sun"],"default_image":{"image_id":9,"license":5,"license_name":"Attribution-ShareAlike License","license_url":"https://creativecommons.org/licenses/by-sa/2.0/","original_url":"https://perenual.com/storage/species_image/2_abies_alba_pyramidalis/og/49255769768_df55596553_b.jpg","regular_url":"https://perenual.com/storage/species_image/2_abies_alba_pyramidalis/regular/49255769768_df55596553_b.jpg","medium_url":"https://perenual.com/storage/species_image/2_abies_alba_pyramidalis/medium/49255769768_df55596553_b.jpg","small_url":"https://perenual.com/storage/species_image/2_abies_alba_pyramidalis/small/49255769768_df55596553_b.jpg","thumbnail":"https://perenual.com/storage/species_image/2_abies_alba_pyramidalis/thumbnail/49255769768_df55596553_b.jpg"}},{"id":2261,"common_name":"cuphea","scientific_name":["Cuphea llavea"],"other_name":null,"cycle":"Perennial","watering":"Average","sunlight":["Full sun"],"default_image":{"image_id":5330,"license":4,"license_name":"Attribution License","license_url":"https://creativecommons.org/licenses/by/2.0/","original_url":"https://perenual.com/storage/species_image/2261_cuphea_llavea/og/24263208354_07ba6c4b14_b.jpg","regular_url":"https://perenual.com/storage/species_image/2261_cuphea_llavea/regular/24263208354_07ba6c4b14_b.jpg","medium_url":"https://perenual.com/storage/species_image/2261_cuphea_llavea/medium/24263208354_07ba6c4b14_b.jpg","small_url":"https://perenual.com/storage/species_image/2261_cuphea_llavea/small/24263208354_07ba6c4b14_b.jpg","thumbnail":"https://perenual.com/storage/species_image/2261_cuphea_llavea/thumbnail/24263208354_07ba6c4b14_b.jpg"}},{"id":2262,"common_name":"bat-faced cuphea","scientific_name":["Cuphea purpurea"],"other_name":null,"cycle":"Perennial","watering":"Average","sunlight":["Full sun"],"default_image":{"image_id":5332,"license":4,"license_name":"Attribution License","license_url":"https://creativecommons.org/licenses/by/2.0/","original_url":"https://perenual.com/storage/species_image/2262_cuphea_purpurea/og/24865061776_cd11e29ac7_b.jpg","regular_url":"https://perenual.com/storage/species_image/2262_cuphea_purpurea/regular/24865061776_cd11e29ac7_b.jpg","medium_url":"https://perenual.com/storage/species_image/2262_cuphea_purpurea/medium/24865061776_cd11e29ac7_b.jpg","small_url":"https://perenual.com/storage/species_image/2262_cuphea_purpurea/small/24865061776_cd11e29ac7_b.jpg","thumbnail":"https://perenual.com/storage/species_image/2262_cuphea_purpurea/thumbnail/24865061776_cd11e29ac7_b.jpg"}},{"id":2263,"common_name":"cuphea","scientific_name":["Cuphea VERMILLIONAIRE"],"other_name":null,"cycle":"Perennial","watering":"Average","sunlight":["Full sun"],"default_image":{"image_id":5333,"license":4,"license_name":"Attribution License","license_url":"https://creativecommons.org/licenses/by/2.0/","original_url":"https://perenual.com/storage/species_image/2263_cuphea_vermillionaire/og/32464743934_597a0058bf_b.jpg","regular_url":"https://perenual.com/storage/species_image/2263_cuphea_vermillionaire/regular/32464743934_597a0058bf_b.jpg","medium_url":"https://perenual.com/storage/species_image/2263_cuphea_vermillionaire/medium/32464743934_597a0058bf_b.jpg","small_url":"https://perenual.com/storage/species_image/2263_cuphea_vermillionaire/small/32464743934_597a0058bf_b.jpg","thumbnail":"https://perenual.com/storage/species_image/2263_cuphea_vermillionaire/thumbnail/32464743934_597a0058bf_b.jpg"}},{"id":2264,"common_name":"blue waxweed","scientific_name":["Cuphea viscosissima"],"other_name":null,"cycle":"Perennial","watering":"Average","sunlight":["Full sun"],"default_image":{"image_id":5334,"license":4,"license_name":"Attribution License","license_url":"https://creativecommons.org/licenses/by/2.0/","original_url":"https://perenual.com/storage/species_image/2264_cuphea_viscosissima/og/30040508631_acd1669836_b.jpg","regular_url":"https://perenual.com/storage/species_image/2264_cuphea_viscosissima/regular/30040508631_acd1669836_b.jpg","medium_url":"https://perenual.com/storage/species_image/2264_cuphea_viscosissima/medium/30040508631_acd1669836_b.jpg","small_url":"https://perenual.com/storage/species_image/2264_cuphea_viscosissima/small/30040508631_acd1669836_b.jpg","thumbnail":"https://perenual.com/storage/species_image/2264_cuphea_viscosissima/thumbnail/30040508631_acd1669836_b.jpg"}},{"id":2265,"common_name":"Kashmir cypress","scientific_name":["Cupressus cashmeriana"],"other_name":null,"cycle":"Perennial","watering":"Average","sunlight":["Full sun"],"default_image":{"image_id":5336,"license":4,"license_name":"Attribution License","license_url":"https://creativecommons.org/licenses/by/2.0/","original_url":"https://perenual.com/storage/species_image/2265_cupressus_cashmeriana/og/8206347511_86896d966b_b.jpg","regular_url":"https://perenual.com/storage/species_image/2265_cupressus_cashmeriana/regular/8206347511_86896d966b_b.jpg","medium_url":"https://perenual.com/storage/species_image/2265_cupressus_cashmeriana/medium/8206347511_86896d966b_b.jpg","small_url":"https://perenual.com/storage/species_image/2265_cupressus_cashmeriana/small/8206347511_86896d966b_b.jpg","thumbnail":"https://perenual.com/storage/species_image/2265_cupressus_cashmeriana/thumbnail/8206347511_86896d966b_b.jpg"}},{"id":2266,"common_name":"Italian cypress","scientific_name":["Cupressus sempervirens"],"other_name":null,"cycle":"Perennial","watering":"Average","sunlight":["Full sun"],"default_image":{"image_id":5337,"license":4,"license_name":"Attribution License","license_url":"https://creativecommons.org/licenses/by/2.0/","original_url":"https://perenual.com/storage/species_image/2266_cupressus_sempervirens/og/24533680609_353785430b_b.jpg","regular_url":"https://perenual.com/storage/species_image/2266_cupressus_sempervirens/regular/24533680609_353785430b_b.jpg","medium_url":"https://perenual.com/storage/species_image/2266_cupressus_sempervirens/medium/24533680609_353785430b_b.jpg","small_url":"https://perenual.com/storage/species_image/2266_cupressus_sempervirens/small/24533680609_353785430b_b.jpg","thumbnail":"https://perenual.com/storage/species_image/2266_cupressus_sempervirens/thumbnail/24533680609_353785430b_b.jpg"}},{"id":2267,"common_name":"Italian cypress","scientific_name":["Cupressus sempervirens 'Glauca'"],"other_name":null,"cycle":"Perennial","watering":"Average","sunlight":["Full sun"],"default_image":{"image_id":9,"license":5,"license_name":"Attribution-ShareAlike License","license_url":"https://creativecommons.org/licenses/by-sa/2.0/","original_url":"https://perenual.com/storage/species_image/2_abies_alba_pyramidalis/og/49255769768_df55596553_b.jpg","regular_url":"https://perenual.com/storage/species_image/2_abies_alba_pyramidalis/regular/49255769768_df55596553_b.jpg","medium_url":"https://perenual.com/storage/species_image/2_abies_alba_pyramidalis/medium/49255769768_df55596553_b.jpg","small_url":"https://perenual.com/storage/species_image/2_abies_alba_pyramidalis/small/49255769768_df55596553_b.jpg","thumbnail":"https://perenual.com/storage/species_image/2_abies_alba_pyramidalis/thumbnail/49255769768_df55596553_b.jpg"}},{"id":2268,"common_name":"Italian cypress","scientific_name":["Cupressus sempervirens subsp. dupreziana"],"other_name":null,"cycle":"Perennial","watering":"Average","sunlight":["Full sun"],"default_image":{"image_id":9,"license":5,"license_name":"Attribution-ShareAlike License","license_url":"https://creativecommons.org/licenses/by-sa/2.0/","original_url":"https://perenual.com/storage/species_image/2_abies_alba_pyramidalis/og/49255769768_df55596553_b.jpg","regular_url":"https://perenual.com/storage/species_image/2_abies_alba_pyramidalis/regular/49255769768_df55596553_b.jpg","medium_url":"https://perenual.com/storage/species_image/2_abies_alba_pyramidalis/medium/49255769768_df55596553_b.jpg","small_url":"https://perenual.com/storage/species_image/2_abies_alba_pyramidalis/small/49255769768_df55596553_b.jpg","thumbnail":"https://perenual.com/storage/species_image/2_abies_alba_pyramidalis/thumbnail/49255769768_df55596553_b.jpg"}},{"id":2269,"common_name":"Siam tulip","scientific_name":["Curcuma alismatifolia 'Pink'"],"other_name":null,"cycle":"Perennial","watering":"Average","sunlight":["Full sun","part shade"],"default_image":{"image_id":5340,"license":4,"license_name":"Attribution License","license_url":"https://creativecommons.org/licenses/by/2.0/","original_url":"https://perenual.com/storage/species_image/2269_curcuma_alismatifolia_pink/og/14756807415_eb959c5b10_b.jpg","regular_url":"https://perenual.com/storage/species_image/2269_curcuma_alismatifolia_pink/regular/14756807415_eb959c5b10_b.jpg","medium_url":"https://perenual.com/storage/species_image/2269_curcuma_alismatifolia_pink/medium/14756807415_eb959c5b10_b.jpg","small_url":"https://perenual.com/storage/species_image/2269_curcuma_alismatifolia_pink/small/14756807415_eb959c5b10_b.jpg","thumbnail":"https://perenual.com/storage/species_image/2269_curcuma_alismatifolia_pink/thumbnail/14756807415_eb959c5b10_b.jpg"}},{"id":2270,"common_name":"common turmeric","scientific_name":["Curcuma longa"],"other_name":null,"cycle":"Perennial","watering":"Frequent","sunlight":["Full sun","part shade"],"default_image":{"image_id":5342,"license":4,"license_name":"Attribution License","license_url":"https://creativecommons.org/licenses/by/2.0/","original_url":"https://perenual.com/storage/species_image/2270_curcuma_longa/og/24615930674_282cb658e6_b.jpg","regular_url":"https://perenual.com/storage/species_image/2270_curcuma_longa/regular/24615930674_282cb658e6_b.jpg","medium_url":"https://perenual.com/storage/species_image/2270_curcuma_longa/medium/24615930674_282cb658e6_b.jpg","small_url":"https://perenual.com/storage/species_image/2270_curcuma_longa/small/24615930674_282cb658e6_b.jpg","thumbnail":"https://perenual.com/storage/species_image/2270_curcuma_longa/thumbnail/24615930674_282cb658e6_b.jpg"}},{"id":2271,"common_name":"queen lily","scientific_name":["Curcuma petiolata"],"other_name":null,"cycle":"Perennial","watering":"Average","sunlight":["Part shade"],"default_image":{"image_id":5346,"license":4,"license_name":"Attribution License","license_url":"https://creativecommons.org/licenses/by/2.0/","original_url":"https://perenual.com/storage/species_image/2271_curcuma_petiolata/og/9782467372_b9280c679c_b.jpg","regular_url":"https://perenual.com/storage/species_image/2271_curcuma_petiolata/regular/9782467372_b9280c679c_b.jpg","medium_url":"https://perenual.com/storage/species_image/2271_curcuma_petiolata/medium/9782467372_b9280c679c_b.jpg","small_url":"https://perenual.com/storage/species_image/2271_curcuma_petiolata/small/9782467372_b9280c679c_b.jpg","thumbnail":"https://perenual.com/storage/species_image/2271_curcuma_petiolata/thumbnail/9782467372_b9280c679c_b.jpg"}},{"id":2272,"common_name":"Sago palm","scientific_name":["Cycas revoluta"],"other_name":null,"cycle":"Perennial","watering":"Average","sunlight":["Full sun","part shade"],"default_image":{"image_id":5348,"license":5,"license_name":"Attribution-ShareAlike License","license_url":"https://creativecommons.org/licenses/by-sa/2.0/","original_url":"https://perenual.com/storage/species_image/2272_cycas_revoluta/og/26712271676_6dc6c5fabc_b.jpg","regular_url":"https://perenual.com/storage/species_image/2272_cycas_revoluta/regular/26712271676_6dc6c5fabc_b.jpg","medium_url":"https://perenual.com/storage/species_image/2272_cycas_revoluta/medium/26712271676_6dc6c5fabc_b.jpg","small_url":"https://perenual.com/storage/species_image/2272_cycas_revoluta/small/26712271676_6dc6c5fabc_b.jpg","thumbnail":"https://perenual.com/storage/species_image/2272_cycas_revoluta/thumbnail/26712271676_6dc6c5fabc_b.jpg"}},{"id":2273,"common_name":"cycad","scientific_name":["Cycas rumphii"],"other_name":null,"cycle":"Perennial","watering":"Average","sunlight":["Full sun","part shade"],"default_image":{"image_id":5349,"license":5,"license_name":"Attribution-ShareAlike License","license_url":"https://creativecommons.org/licenses/by-sa/2.0/","original_url":"https://perenual.com/storage/species_image/2273_cycas_rumphii/og/6273048921_8d7c24328c_b.jpg","regular_url":"https://perenual.com/storage/species_image/2273_cycas_rumphii/regular/6273048921_8d7c24328c_b.jpg","medium_url":"https://perenual.com/storage/species_image/2273_cycas_rumphii/medium/6273048921_8d7c24328c_b.jpg","small_url":"https://perenual.com/storage/species_image/2273_cycas_rumphii/small/6273048921_8d7c24328c_b.jpg","thumbnail":"https://perenual.com/storage/species_image/2273_cycas_rumphii/thumbnail/6273048921_8d7c24328c_b.jpg"}},{"id":2274,"common_name":"Persian violet","scientific_name":["Cyclamen hederifolium"],"other_name":null,"cycle":"Perennial","watering":"Minimum","sunlight":["Filtered shade"," Part sun/part shade"],"default_image":{"image_id":5350,"license":5,"license_name":"Attribution-ShareAlike License","license_url":"https://creativecommons.org/licenses/by-sa/2.0/","original_url":"https://perenual.com/storage/species_image/2274_cyclamen_hederifolium/og/5983579935_e7b1779710_b.jpg","regular_url":"https://perenual.com/storage/species_image/2274_cyclamen_hederifolium/regular/5983579935_e7b1779710_b.jpg","medium_url":"https://perenual.com/storage/species_image/2274_cyclamen_hederifolium/medium/5983579935_e7b1779710_b.jpg","small_url":"https://perenual.com/storage/species_image/2274_cyclamen_hederifolium/small/5983579935_e7b1779710_b.jpg","thumbnail":"https://perenual.com/storage/species_image/2274_cyclamen_hederifolium/thumbnail/5983579935_e7b1779710_b.jpg"}},{"id":2275,"common_name":"cyclamen","scientific_name":["Cyclamen persicum"],"other_name":null,"cycle":"Perennial","watering":"Average","sunlight":["Part shade"],"default_image":{"image_id":9,"license":5,"license_name":"Attribution-ShareAlike License","license_url":"https://creativecommons.org/licenses/by-sa/2.0/","original_url":"https://perenual.com/storage/species_image/2_abies_alba_pyramidalis/og/49255769768_df55596553_b.jpg","regular_url":"https://perenual.com/storage/species_image/2_abies_alba_pyramidalis/regular/49255769768_df55596553_b.jpg","medium_url":"https://perenual.com/storage/species_image/2_abies_alba_pyramidalis/medium/49255769768_df55596553_b.jpg","small_url":"https://perenual.com/storage/species_image/2_abies_alba_pyramidalis/small/49255769768_df55596553_b.jpg","thumbnail":"https://perenual.com/storage/species_image/2_abies_alba_pyramidalis/thumbnail/49255769768_df55596553_b.jpg"}},{"id":2276,"common_name":"quince","scientific_name":["Cydonia oblonga"],"other_name":null,"cycle":"Perennial","watering":"Average","sunlight":["Full sun"],"default_image":{"image_id":5354,"license":4,"license_name":"Attribution License","license_url":"https://creativecommons.org/licenses/by/2.0/","original_url":"https://perenual.com/storage/species_image/2276_cydonia_oblonga/og/51709597151_e111f71788_b.jpg","regular_url":"https://perenual.com/storage/species_image/2276_cydonia_oblonga/regular/51709597151_e111f71788_b.jpg","medium_url":"https://perenual.com/storage/species_image/2276_cydonia_oblonga/medium/51709597151_e111f71788_b.jpg","small_url":"https://perenual.com/storage/species_image/2276_cydonia_oblonga/small/51709597151_e111f71788_b.jpg","thumbnail":"https://perenual.com/storage/species_image/2276_cydonia_oblonga/thumbnail/51709597151_e111f71788_b.jpg"}},{"id":2277,"common_name":"cymbalaria","scientific_name":["Cymbalaria aequitriloba"],"other_name":null,"cycle":"Perennial","watering":"Average","sunlight":["Part shade","full shade"],"default_image":{"image_id":5360,"license":6,"license_name":"Attribution-NoDerivs License","license_url":"https://creativecommons.org/licenses/by-nd/2.0/","original_url":"https://perenual.com/storage/species_image/2277_cymbalaria_aequitriloba/og/2730359080_13a1753434_b.jpg"}},{"id":2278,"common_name":"Kenilworth ivy","scientific_name":["Cymbalaria muralis"],"other_name":null,"cycle":"Perennial","watering":"Average","sunlight":["Part shade","full shade"],"default_image":{"image_id":9,"license":5,"license_name":"Attribution-ShareAlike License","license_url":"https://creativecommons.org/licenses/by-sa/2.0/","original_url":"https://perenual.com/storage/species_image/2_abies_alba_pyramidalis/og/49255769768_df55596553_b.jpg","regular_url":"https://perenual.com/storage/species_image/2_abies_alba_pyramidalis/regular/49255769768_df55596553_b.jpg","medium_url":"https://perenual.com/storage/species_image/2_abies_alba_pyramidalis/medium/49255769768_df55596553_b.jpg","small_url":"https://perenual.com/storage/species_image/2_abies_alba_pyramidalis/small/49255769768_df55596553_b.jpg","thumbnail":"https://perenual.com/storage/species_image/2_abies_alba_pyramidalis/thumbnail/49255769768_df55596553_b.jpg"}},{"id":2279,"common_name":"orchid","scientific_name":["Cymbidium (group)"],"other_name":null,"cycle":"Perennial","watering":"Average","sunlight":["Part shade"],"default_image":{"image_id":9,"license":5,"license_name":"Attribution-ShareAlike License","license_url":"https://creativecommons.org/licenses/by-sa/2.0/","original_url":"https://perenual.com/storage/species_image/2_abies_alba_pyramidalis/og/49255769768_df55596553_b.jpg","regular_url":"https://perenual.com/storage/species_image/2_abies_alba_pyramidalis/regular/49255769768_df55596553_b.jpg","medium_url":"https://perenual.com/storage/species_image/2_abies_alba_pyramidalis/medium/49255769768_df55596553_b.jpg","small_url":"https://perenual.com/storage/species_image/2_abies_alba_pyramidalis/small/49255769768_df55596553_b.jpg","thumbnail":"https://perenual.com/storage/species_image/2_abies_alba_pyramidalis/thumbnail/49255769768_df55596553_b.jpg"}},{"id":2280,"common_name":"lemon grass","scientific_name":["Cymbopogon citratus"],"other_name":null,"cycle":"Perennial","watering":"Average","sunlight":["Full sun"],"default_image":{"image_id":5363,"license":4,"license_name":"Attribution License","license_url":"https://creativecommons.org/licenses/by/2.0/","original_url":"https://perenual.com/storage/species_image/2280_cymbopogon_citratus/og/24450188904_50e0c258d6_b.jpg","regular_url":"https://perenual.com/storage/species_image/2280_cymbopogon_citratus/regular/24450188904_50e0c258d6_b.jpg","medium_url":"https://perenual.com/storage/species_image/2280_cymbopogon_citratus/medium/24450188904_50e0c258d6_b.jpg","small_url":"https://perenual.com/storage/species_image/2280_cymbopogon_citratus/small/24450188904_50e0c258d6_b.jpg","thumbnail":"https://perenual.com/storage/species_image/2280_cymbopogon_citratus/thumbnail/24450188904_50e0c258d6_b.jpg"}}],"to":2280,"per_page":30,"current_page":76,"from":2251,"last_page":200,"total":6000}