{"data":[{"id":2401,"common_name":"maiden pink","scientific_name":["Dianthus deltoides 'Zing Salmon'"],"other_name":null,"cycle":"Perennial","watering":"Average","sunlight":["Full sun"],"default_image":{"image_id":5508,"license":5,"license_name":"Attribution-ShareAlike License","license_url":"https://creativecommons.org/licenses/by-sa/2.0/","original_url":"https://perenual.com/storage/species_image/2401_dianthus_deltoides_zing_salmon/og/52266729868_bc45c09cbe_b.jpg","regular_url":"https://perenual.com/storage/species_image/2401_dianthus_deltoides_zing_salmon/regular/52266729868_bc45c09cbe_b.jpg","medium_url":"https://perenual.com/storage/species_image/2401_dianthus_deltoides_zing_salmon/medium/52266729868_bc45c09cbe_b.jpg","small_url":"https://perenual.com/storage/species_image/2401_dianthus_deltoides_zing_salmon/small/52266729868_bc45c09cbe_b.jpg","thumbnail":"https://perenual.com/storage/species_image/2401_dianthus_deltoides_zing_salmon/thumbnail/52266729868_bc45c09cbe_b.jpg"}},{"id":2402,"common_name":"pink","scientific_name":["Dianthus 'Devon Xera' FIRE STAR"],"other_name":null,"cycle":"Perennial","watering":"Average","sunlight":["Full sun"],"default_image":{"image_id":5499,"license":4,"license_name":"Attribution License","license_url":"https://creativecommons.org/licenses/by/2.0/","original_url":"https://perenual.com/storage/species_image/6942_rosa_zlesak_poly3_oso_happy_smoothie/og/52621298110_6190251dd9_b.jpg","regular_url":"https://perenual.com/storage/species_image/6942_rosa_zlesak_poly3_oso_happy_smoothie/regular/52621298110_6190251dd9_b.jpg","medium_url":"https://perenual.com/storage/species_image/6942_rosa_zlesak_poly3_oso_happy_smoothie/medium/52621298110_6190251dd9_b.jpg","small_url":"https://perenual.com/storage/species_image/6942_rosa_zlesak_poly3_oso_happy_smoothie/small/52621298110_6190251dd9_b.jpg","thumbnail":"https://perenual.com/storage/species_image/6942_rosa_zlesak_poly3_oso_happy_smoothie/thumbnail/52621298110_6190251dd9_b.jpg"}},{"id":2403,"common_name":"pink","scientific_name":["Dianthus DIAMOND SCARLET IMPROVED"],"other_name":null,"cycle":"Perennial","watering":"Average","sunlight":["Full sun"],"default_image":{"image_id":5509,"license":4,"license_name":"Attribution License","license_url":"https://creativecommons.org/licenses/by/2.0/","original_url":"https://perenual.com/storage/species_image/2403_dianthus_diamond_scarlet_improved/og/49112283097_b41f9bd7e1_b.jpg","regular_url":"https://perenual.com/storage/species_image/2403_dianthus_diamond_scarlet_improved/regular/49112283097_b41f9bd7e1_b.jpg","medium_url":"https://perenual.com/storage/species_image/2403_dianthus_diamond_scarlet_improved/medium/49112283097_b41f9bd7e1_b.jpg","small_url":"https://perenual.com/storage/species_image/2403_dianthus_diamond_scarlet_improved/small/49112283097_b41f9bd7e1_b.jpg","thumbnail":"https://perenual.com/storage/species_image/2403_dianthus_diamond_scarlet_improved/thumbnail/49112283097_b41f9bd7e1_b.jpg"}},{"id":2404,"common_name":"cheddar pink","scientific_name":["Dianthus 'Feuerhexe' FIREWITCH"],"other_name":null,"cycle":"Perennial","watering":"Average","sunlight":["Full sun"],"default_image":{"image_id":5510,"license":5,"license_name":"Attribution-ShareAlike License","license_url":"https://creativecommons.org/licenses/by-sa/2.0/","original_url":"https://perenual.com/storage/species_image/2404_dianthus_feuerhexe_firewitch/og/28773252326_68f030ce9d_b.jpg","regular_url":"https://perenual.com/storage/species_image/2404_dianthus_feuerhexe_firewitch/regular/28773252326_68f030ce9d_b.jpg","medium_url":"https://perenual.com/storage/species_image/2404_dianthus_feuerhexe_firewitch/medium/28773252326_68f030ce9d_b.jpg","small_url":"https://perenual.com/storage/species_image/2404_dianthus_feuerhexe_firewitch/small/28773252326_68f030ce9d_b.jpg","thumbnail":"https://perenual.com/storage/species_image/2404_dianthus_feuerhexe_firewitch/thumbnail/28773252326_68f030ce9d_b.jpg"}},{"id":2405,"common_name":"cheddar pink","scientific_name":["Dianthus 'First Love'"],"other_name":null,"cycle":"Perennial","watering":"Average","sunlight":["Full sun"],"default_image":{"image_id":5511,"license":6,"license_name":"Attribution-NoDerivs License","license_url":"https://creativecommons.org/licenses/by-nd/2.0/","original_url":"https://perenual.com/storage/species_image/2405_dianthus_first_love/og/2551780732_5ca74bd255_b.jpg"}},{"id":2406,"common_name":"cheddar pink","scientific_name":["Dianthus gratianopolitanus"],"other_name":null,"cycle":"Perennial","watering":"Average","sunlight":["Full sun"],"default_image":{"image_id":5514,"license":5,"license_name":"Attribution-ShareAlike License","license_url":"https://creativecommons.org/licenses/by-sa/2.0/","original_url":"https://perenual.com/storage/species_image/2406_dianthus_gratianopolitanus/og/8991504647_3ea570fccb_b.jpg","regular_url":"https://perenual.com/storage/species_image/2406_dianthus_gratianopolitanus/regular/8991504647_3ea570fccb_b.jpg","medium_url":"https://perenual.com/storage/species_image/2406_dianthus_gratianopolitanus/medium/8991504647_3ea570fccb_b.jpg","small_url":"https://perenual.com/storage/species_image/2406_dianthus_gratianopolitanus/small/8991504647_3ea570fccb_b.jpg","thumbnail":"https://perenual.com/storage/species_image/2406_dianthus_gratianopolitanus/thumbnail/8991504647_3ea570fccb_b.jpg"}},{"id":2407,"common_name":"cheddar pink","scientific_name":["Dianthus gratianopolitanus 'Grandiflorus'"],"other_name":null,"cycle":"Perennial","watering":"Average","sunlight":["Full sun"],"default_image":{"image_id":5519,"license":4,"license_name":"Attribution License","license_url":"https://creativecommons.org/licenses/by/2.0/","original_url":"https://perenual.com/storage/species_image/2407_dianthus_gratianopolitanus_grandiflorus/og/3886491718_a0b542cacd_b.jpg","regular_url":"https://perenual.com/storage/species_image/2407_dianthus_gratianopolitanus_grandiflorus/regular/3886491718_a0b542cacd_b.jpg","medium_url":"https://perenual.com/storage/species_image/2407_dianthus_gratianopolitanus_grandiflorus/medium/3886491718_a0b542cacd_b.jpg","small_url":"https://perenual.com/storage/species_image/2407_dianthus_gratianopolitanus_grandiflorus/small/3886491718_a0b542cacd_b.jpg","thumbnail":"https://perenual.com/storage/species_image/2407_dianthus_gratianopolitanus_grandiflorus/thumbnail/3886491718_a0b542cacd_b.jpg"}},{"id":2408,"common_name":"dianthus","scientific_name":["Dianthus 'Heart's Desire'"],"other_name":null,"cycle":"Perennial","watering":"Average","sunlight":["Full sun"],"default_image":{"image_id":5503,"license":4,"license_name":"Attribution License","license_url":"https://creativecommons.org/licenses/by/2.0/","original_url":"https://perenual.com/storage/species_image/2434_dianthus_stagirond_rondo/og/52608863762_65e4a44d82_b.jpg","regular_url":"https://perenual.com/storage/species_image/2434_dianthus_stagirond_rondo/regular/52608863762_65e4a44d82_b.jpg","medium_url":"https://perenual.com/storage/species_image/2434_dianthus_stagirond_rondo/medium/52608863762_65e4a44d82_b.jpg","small_url":"https://perenual.com/storage/species_image/2434_dianthus_stagirond_rondo/small/52608863762_65e4a44d82_b.jpg","thumbnail":"https://perenual.com/storage/species_image/2434_dianthus_stagirond_rondo/thumbnail/52608863762_65e4a44d82_b.jpg"}},{"id":2409,"common_name":"carnation","scientific_name":["Dianthus 'Helen'"],"other_name":null,"cycle":"Perennial","watering":"Average","sunlight":["Full sun"],"default_image":{"image_id":9,"license":5,"license_name":"Attribution-ShareAlike License","license_url":"https://creativecommons.org/licenses/by-sa/2.0/","original_url":"https://perenual.com/storage/species_image/2_abies_alba_pyramidalis/og/49255769768_df55596553_b.jpg","regular_url":"https://perenual.com/storage/species_image/2_abies_alba_pyramidalis/regular/49255769768_df55596553_b.jpg","medium_url":"https://perenual.com/storage/species_image/2_abies_alba_pyramidalis/medium/49255769768_df55596553_b.jpg","small_url":"https://perenual.com/storage/species_image/2_abies_alba_pyramidalis/small/49255769768_df55596553_b.jpg","thumbnail":"https://perenual.com/storage/species_image/2_abies_alba_pyramidalis/thumbnail/49255769768_df55596553_b.jpg"}},{"id":2410,"common_name":"pink","scientific_name":["Dianthus 'Horatio'"],"other_name":null,"cycle":"Perennial","watering":"Average","sunlight":["Full sun"],"default_image":{"image_id":9,"license":5,"license_name":"Attribution-ShareAlike License","license_url":"https://creativecommons.org/licenses/by-sa/2.0/","original_url":"https://perenual.com/storage/species_image/2_abies_alba_pyramidalis/og/49255769768_df55596553_b.jpg","regular_url":"https://perenual.com/storage/species_image/2_abies_alba_pyramidalis/regular/49255769768_df55596553_b.jpg","medium_url":"https://perenual.com/storage/species_image/2_abies_alba_pyramidalis/medium/49255769768_df55596553_b.jpg","small_url":"https://perenual.com/storage/species_image/2_abies_alba_pyramidalis/small/49255769768_df55596553_b.jpg","thumbnail":"https://perenual.com/storage/species_image/2_abies_alba_pyramidalis/thumbnail/49255769768_df55596553_b.jpg"}},{"id":2411,"common_name":"pink","scientific_name":["Dianthus 'Inchmery'"],"other_name":null,"cycle":"Perennial","watering":"Average","sunlight":["Full sun"],"default_image":{"image_id":9,"license":5,"license_name":"Attribution-ShareAlike License","license_url":"https://creativecommons.org/licenses/by-sa/2.0/","original_url":"https://perenual.com/storage/species_image/2_abies_alba_pyramidalis/og/49255769768_df55596553_b.jpg","regular_url":"https://perenual.com/storage/species_image/2_abies_alba_pyramidalis/regular/49255769768_df55596553_b.jpg","medium_url":"https://perenual.com/storage/species_image/2_abies_alba_pyramidalis/medium/49255769768_df55596553_b.jpg","small_url":"https://perenual.com/storage/species_image/2_abies_alba_pyramidalis/small/49255769768_df55596553_b.jpg","thumbnail":"https://perenual.com/storage/species_image/2_abies_alba_pyramidalis/thumbnail/49255769768_df55596553_b.jpg"}},{"id":2412,"common_name":"pink","scientific_name":["Dianthus 'Ipswich Pink'"],"other_name":null,"cycle":"Perennial","watering":"Average","sunlight":["Full sun"],"default_image":{"image_id":9,"license":5,"license_name":"Attribution-ShareAlike License","license_url":"https://creativecommons.org/licenses/by-sa/2.0/","original_url":"https://perenual.com/storage/species_image/2_abies_alba_pyramidalis/og/49255769768_df55596553_b.jpg","regular_url":"https://perenual.com/storage/species_image/2_abies_alba_pyramidalis/regular/49255769768_df55596553_b.jpg","medium_url":"https://perenual.com/storage/species_image/2_abies_alba_pyramidalis/medium/49255769768_df55596553_b.jpg","small_url":"https://perenual.com/storage/species_image/2_abies_alba_pyramidalis/small/49255769768_df55596553_b.jpg","thumbnail":"https://perenual.com/storage/species_image/2_abies_alba_pyramidalis/thumbnail/49255769768_df55596553_b.jpg"}},{"id":2413,"common_name":"pink","scientific_name":["Dianthus 'Kahori'"],"other_name":null,"cycle":"Perennial","watering":"Average","sunlight":["Full sun"],"default_image":{"image_id":5522,"license":5,"license_name":"Attribution-ShareAlike License","license_url":"https://creativecommons.org/licenses/by-sa/2.0/","original_url":"https://perenual.com/storage/species_image/2413_dianthus_kahori/og/33321658620_09774103a1_b.jpg","regular_url":"https://perenual.com/storage/species_image/2413_dianthus_kahori/regular/33321658620_09774103a1_b.jpg","medium_url":"https://perenual.com/storage/species_image/2413_dianthus_kahori/medium/33321658620_09774103a1_b.jpg","small_url":"https://perenual.com/storage/species_image/2413_dianthus_kahori/small/33321658620_09774103a1_b.jpg","thumbnail":"https://perenual.com/storage/species_image/2413_dianthus_kahori/thumbnail/33321658620_09774103a1_b.jpg"}},{"id":2414,"common_name":"carnation","scientific_name":["Dianthus 'Laced Romeo'"],"other_name":null,"cycle":"Perennial","watering":"Average","sunlight":["Full sun"],"default_image":{"image_id":9,"license":5,"license_name":"Attribution-ShareAlike License","license_url":"https://creativecommons.org/licenses/by-sa/2.0/","original_url":"https://perenual.com/storage/species_image/2_abies_alba_pyramidalis/og/49255769768_df55596553_b.jpg","regular_url":"https://perenual.com/storage/species_image/2_abies_alba_pyramidalis/regular/49255769768_df55596553_b.jpg","medium_url":"https://perenual.com/storage/species_image/2_abies_alba_pyramidalis/medium/49255769768_df55596553_b.jpg","small_url":"https://perenual.com/storage/species_image/2_abies_alba_pyramidalis/small/49255769768_df55596553_b.jpg","thumbnail":"https://perenual.com/storage/species_image/2_abies_alba_pyramidalis/thumbnail/49255769768_df55596553_b.jpg"}},{"id":2415,"common_name":"pink","scientific_name":["Dianthus 'Little Bobby'"],"other_name":null,"cycle":"Perennial","watering":"Average","sunlight":["Full sun"],"default_image":{"image_id":5524,"license":4,"license_name":"Attribution License","license_url":"https://creativecommons.org/licenses/by/2.0/","original_url":"https://perenual.com/storage/species_image/2415_dianthus_little_bobby/og/21554279754_f171555ab4_b.jpg","regular_url":"https://perenual.com/storage/species_image/2415_dianthus_little_bobby/regular/21554279754_f171555ab4_b.jpg","medium_url":"https://perenual.com/storage/species_image/2415_dianthus_little_bobby/medium/21554279754_f171555ab4_b.jpg","small_url":"https://perenual.com/storage/species_image/2415_dianthus_little_bobby/small/21554279754_f171555ab4_b.jpg","thumbnail":"https://perenual.com/storage/species_image/2415_dianthus_little_bobby/thumbnail/21554279754_f171555ab4_b.jpg"}},{"id":2416,"common_name":"cheddar pink","scientific_name":["Dianthus 'Mountain Mist'"],"other_name":null,"cycle":"Perennial","watering":"Average","sunlight":["Full sun"],"default_image":{"image_id":9,"license":5,"license_name":"Attribution-ShareAlike License","license_url":"https://creativecommons.org/licenses/by-sa/2.0/","original_url":"https://perenual.com/storage/species_image/2_abies_alba_pyramidalis/og/49255769768_df55596553_b.jpg","regular_url":"https://perenual.com/storage/species_image/2_abies_alba_pyramidalis/regular/49255769768_df55596553_b.jpg","medium_url":"https://perenual.com/storage/species_image/2_abies_alba_pyramidalis/medium/49255769768_df55596553_b.jpg","small_url":"https://perenual.com/storage/species_image/2_abies_alba_pyramidalis/small/49255769768_df55596553_b.jpg","thumbnail":"https://perenual.com/storage/species_image/2_abies_alba_pyramidalis/thumbnail/49255769768_df55596553_b.jpg"}},{"id":2417,"common_name":"pink","scientific_name":["Dianthus 'Musgrave's Pink'"],"other_name":null,"cycle":"Perennial","watering":"Average","sunlight":["Full sun"],"default_image":{"image_id":9,"license":5,"license_name":"Attribution-ShareAlike License","license_url":"https://creativecommons.org/licenses/by-sa/2.0/","original_url":"https://perenual.com/storage/species_image/2_abies_alba_pyramidalis/og/49255769768_df55596553_b.jpg","regular_url":"https://perenual.com/storage/species_image/2_abies_alba_pyramidalis/regular/49255769768_df55596553_b.jpg","medium_url":"https://perenual.com/storage/species_image/2_abies_alba_pyramidalis/medium/49255769768_df55596553_b.jpg","small_url":"https://perenual.com/storage/species_image/2_abies_alba_pyramidalis/small/49255769768_df55596553_b.jpg","thumbnail":"https://perenual.com/storage/species_image/2_abies_alba_pyramidalis/thumbnail/49255769768_df55596553_b.jpg"}},{"id":2418,"common_name":"dianthus","scientific_name":["Dianthus 'Nana Pink Tones'"],"other_name":null,"cycle":"Perennial","watering":"Average","sunlight":["Full sun"],"default_image":{"image_id":9,"license":5,"license_name":"Attribution-ShareAlike License","license_url":"https://creativecommons.org/licenses/by-sa/2.0/","original_url":"https://perenual.com/storage/species_image/2_abies_alba_pyramidalis/og/49255769768_df55596553_b.jpg","regular_url":"https://perenual.com/storage/species_image/2_abies_alba_pyramidalis/regular/49255769768_df55596553_b.jpg","medium_url":"https://perenual.com/storage/species_image/2_abies_alba_pyramidalis/medium/49255769768_df55596553_b.jpg","small_url":"https://perenual.com/storage/species_image/2_abies_alba_pyramidalis/small/49255769768_df55596553_b.jpg","thumbnail":"https://perenual.com/storage/species_image/2_abies_alba_pyramidalis/thumbnail/49255769768_df55596553_b.jpg"}},{"id":2419,"common_name":"pink","scientific_name":["Dianthus 'Paint The Town Fancy'"],"other_name":null,"cycle":"Perennial","watering":"Average","sunlight":["Full sun"],"default_image":{"image_id":9,"license":5,"license_name":"Attribution-ShareAlike License","license_url":"https://creativecommons.org/licenses/by-sa/2.0/","original_url":"https://perenual.com/storage/species_image/2_abies_alba_pyramidalis/og/49255769768_df55596553_b.jpg","regular_url":"https://perenual.com/storage/species_image/2_abies_alba_pyramidalis/regular/49255769768_df55596553_b.jpg","medium_url":"https://perenual.com/storage/species_image/2_abies_alba_pyramidalis/medium/49255769768_df55596553_b.jpg","small_url":"https://perenual.com/storage/species_image/2_abies_alba_pyramidalis/small/49255769768_df55596553_b.jpg","thumbnail":"https://perenual.com/storage/species_image/2_abies_alba_pyramidalis/thumbnail/49255769768_df55596553_b.jpg"}},{"id":2420,"common_name":"pink","scientific_name":["Dianthus 'Paint The Town Red'"],"other_name":null,"cycle":"Perennial","watering":"Average","sunlight":["Full sun"],"default_image":{"image_id":9,"license":5,"license_name":"Attribution-ShareAlike License","license_url":"https://creativecommons.org/licenses/by-sa/2.0/","original_url":"https://perenual.com/storage/species_image/2_abies_alba_pyramidalis/og/49255769768_df55596553_b.jpg","regular_url":"https://perenual.com/storage/species_image/2_abies_alba_pyramidalis/regular/49255769768_df55596553_b.jpg","medium_url":"https://perenual.com/storage/species_image/2_abies_alba_pyramidalis/medium/49255769768_df55596553_b.jpg","small_url":"https://perenual.com/storage/species_image/2_abies_alba_pyramidalis/small/49255769768_df55596553_b.jpg","thumbnail":"https://perenual.com/storage/species_image/2_abies_alba_pyramidalis/thumbnail/49255769768_df55596553_b.jpg"}},{"id":2421,"common_name":"pink","scientific_name":["Dianthus 'Painted Beauty'"],"other_name":null,"cycle":"Perennial","watering":"Average","sunlight":["Full sun"],"default_image":{"image_id":5526,"license":451,"license_name":"CC0 1.0 Universal (CC0 1.0) Public Domain Dedication","license_url":"https://creativecommons.org/publicdomain/zero/1.0/","original_url":"https://perenual.com/storage/species_image/2421_dianthus_painted_beauty/og/sweet_william_dianthus_flower_garden_sweet_william_plant_flora-628455.jpg","regular_url":"https://perenual.com/storage/species_image/2421_dianthus_painted_beauty/regular/sweet_william_dianthus_flower_garden_sweet_william_plant_flora-628455.jpg","medium_url":"https://perenual.com/storage/species_image/2421_dianthus_painted_beauty/medium/sweet_william_dianthus_flower_garden_sweet_william_plant_flora-628455.jpg","small_url":"https://perenual.com/storage/species_image/2421_dianthus_painted_beauty/small/sweet_william_dianthus_flower_garden_sweet_william_plant_flora-628455.jpg","thumbnail":"https://perenual.com/storage/species_image/2421_dianthus_painted_beauty/thumbnail/sweet_william_dianthus_flower_garden_sweet_william_plant_flora-628455.jpg"}},{"id":2422,"common_name":"pink","scientific_name":["Dianthus pavonius 'Nancy Lindsay'"],"other_name":null,"cycle":"Perennial","watering":"Average","sunlight":["Full sun"],"default_image":{"image_id":9,"license":5,"license_name":"Attribution-ShareAlike License","license_url":"https://creativecommons.org/licenses/by-sa/2.0/","original_url":"https://perenual.com/storage/species_image/2_abies_alba_pyramidalis/og/49255769768_df55596553_b.jpg","regular_url":"https://perenual.com/storage/species_image/2_abies_alba_pyramidalis/regular/49255769768_df55596553_b.jpg","medium_url":"https://perenual.com/storage/species_image/2_abies_alba_pyramidalis/medium/49255769768_df55596553_b.jpg","small_url":"https://perenual.com/storage/species_image/2_abies_alba_pyramidalis/small/49255769768_df55596553_b.jpg","thumbnail":"https://perenual.com/storage/species_image/2_abies_alba_pyramidalis/thumbnail/49255769768_df55596553_b.jpg"}},{"id":2423,"common_name":"pink","scientific_name":["Dianthus 'Pheasant's Eye'"],"other_name":null,"cycle":"Perennial","watering":"Average","sunlight":["Full sun"],"default_image":{"image_id":9,"license":5,"license_name":"Attribution-ShareAlike License","license_url":"https://creativecommons.org/licenses/by-sa/2.0/","original_url":"https://perenual.com/storage/species_image/2_abies_alba_pyramidalis/og/49255769768_df55596553_b.jpg","regular_url":"https://perenual.com/storage/species_image/2_abies_alba_pyramidalis/regular/49255769768_df55596553_b.jpg","medium_url":"https://perenual.com/storage/species_image/2_abies_alba_pyramidalis/medium/49255769768_df55596553_b.jpg","small_url":"https://perenual.com/storage/species_image/2_abies_alba_pyramidalis/small/49255769768_df55596553_b.jpg","thumbnail":"https://perenual.com/storage/species_image/2_abies_alba_pyramidalis/thumbnail/49255769768_df55596553_b.jpg"}},{"id":2424,"common_name":"border carnation","scientific_name":["Dianthus 'Pixie'"],"other_name":null,"cycle":"Perennial","watering":"Average","sunlight":["Full sun"],"default_image":{"image_id":9,"license":5,"license_name":"Attribution-ShareAlike License","license_url":"https://creativecommons.org/licenses/by-sa/2.0/","original_url":"https://perenual.com/storage/species_image/2_abies_alba_pyramidalis/og/49255769768_df55596553_b.jpg","regular_url":"https://perenual.com/storage/species_image/2_abies_alba_pyramidalis/regular/49255769768_df55596553_b.jpg","medium_url":"https://perenual.com/storage/species_image/2_abies_alba_pyramidalis/medium/49255769768_df55596553_b.jpg","small_url":"https://perenual.com/storage/species_image/2_abies_alba_pyramidalis/small/49255769768_df55596553_b.jpg","thumbnail":"https://perenual.com/storage/species_image/2_abies_alba_pyramidalis/thumbnail/49255769768_df55596553_b.jpg"}},{"id":2425,"common_name":"carnation","scientific_name":["Dianthus 'Pixie Star'"],"other_name":null,"cycle":"Perennial","watering":"Average","sunlight":["Full sun"],"default_image":{"image_id":9,"license":5,"license_name":"Attribution-ShareAlike License","license_url":"https://creativecommons.org/licenses/by-sa/2.0/","original_url":"https://perenual.com/storage/species_image/2_abies_alba_pyramidalis/og/49255769768_df55596553_b.jpg","regular_url":"https://perenual.com/storage/species_image/2_abies_alba_pyramidalis/regular/49255769768_df55596553_b.jpg","medium_url":"https://perenual.com/storage/species_image/2_abies_alba_pyramidalis/medium/49255769768_df55596553_b.jpg","small_url":"https://perenual.com/storage/species_image/2_abies_alba_pyramidalis/small/49255769768_df55596553_b.jpg","thumbnail":"https://perenual.com/storage/species_image/2_abies_alba_pyramidalis/thumbnail/49255769768_df55596553_b.jpg"}},{"id":2426,"common_name":"pink","scientific_name":["Dianthus plumarius 'Itsaul White'"],"other_name":null,"cycle":"Perennial","watering":"Average","sunlight":["Full sun"],"default_image":{"image_id":9,"license":5,"license_name":"Attribution-ShareAlike License","license_url":"https://creativecommons.org/licenses/by-sa/2.0/","original_url":"https://perenual.com/storage/species_image/2_abies_alba_pyramidalis/og/49255769768_df55596553_b.jpg","regular_url":"https://perenual.com/storage/species_image/2_abies_alba_pyramidalis/regular/49255769768_df55596553_b.jpg","medium_url":"https://perenual.com/storage/species_image/2_abies_alba_pyramidalis/medium/49255769768_df55596553_b.jpg","small_url":"https://perenual.com/storage/species_image/2_abies_alba_pyramidalis/small/49255769768_df55596553_b.jpg","thumbnail":"https://perenual.com/storage/species_image/2_abies_alba_pyramidalis/thumbnail/49255769768_df55596553_b.jpg"}},{"id":2427,"common_name":"pink","scientific_name":["Dianthus 'Pomegranate Kiss'"],"other_name":null,"cycle":"Perennial","watering":"Average","sunlight":["Full sun"],"default_image":{"image_id":9,"license":5,"license_name":"Attribution-ShareAlike License","license_url":"https://creativecommons.org/licenses/by-sa/2.0/","original_url":"https://perenual.com/storage/species_image/2_abies_alba_pyramidalis/og/49255769768_df55596553_b.jpg","regular_url":"https://perenual.com/storage/species_image/2_abies_alba_pyramidalis/regular/49255769768_df55596553_b.jpg","medium_url":"https://perenual.com/storage/species_image/2_abies_alba_pyramidalis/medium/49255769768_df55596553_b.jpg","small_url":"https://perenual.com/storage/species_image/2_abies_alba_pyramidalis/small/49255769768_df55596553_b.jpg","thumbnail":"https://perenual.com/storage/species_image/2_abies_alba_pyramidalis/thumbnail/49255769768_df55596553_b.jpg"}},{"id":2428,"common_name":"pink","scientific_name":["Dianthus 'Prairie Pink'"],"other_name":null,"cycle":"Perennial","watering":"Average","sunlight":["Full sun"],"default_image":{"image_id":9,"license":5,"license_name":"Attribution-ShareAlike License","license_url":"https://creativecommons.org/licenses/by-sa/2.0/","original_url":"https://perenual.com/storage/species_image/2_abies_alba_pyramidalis/og/49255769768_df55596553_b.jpg","regular_url":"https://perenual.com/storage/species_image/2_abies_alba_pyramidalis/regular/49255769768_df55596553_b.jpg","medium_url":"https://perenual.com/storage/species_image/2_abies_alba_pyramidalis/medium/49255769768_df55596553_b.jpg","small_url":"https://perenual.com/storage/species_image/2_abies_alba_pyramidalis/small/49255769768_df55596553_b.jpg","thumbnail":"https://perenual.com/storage/species_image/2_abies_alba_pyramidalis/thumbnail/49255769768_df55596553_b.jpg"}},{"id":2429,"common_name":"garden pinks","scientific_name":["Dianthus 'Rainbow Loveliness'"],"other_name":null,"cycle":"Perennial","watering":"Average","sunlight":["Full sun"],"default_image":{"image_id":9,"license":5,"license_name":"Attribution-ShareAlike License","license_url":"https://creativecommons.org/licenses/by-sa/2.0/","original_url":"https://perenual.com/storage/species_image/2_abies_alba_pyramidalis/og/49255769768_df55596553_b.jpg","regular_url":"https://perenual.com/storage/species_image/2_abies_alba_pyramidalis/regular/49255769768_df55596553_b.jpg","medium_url":"https://perenual.com/storage/species_image/2_abies_alba_pyramidalis/medium/49255769768_df55596553_b.jpg","small_url":"https://perenual.com/storage/species_image/2_abies_alba_pyramidalis/small/49255769768_df55596553_b.jpg","thumbnail":"https://perenual.com/storage/species_image/2_abies_alba_pyramidalis/thumbnail/49255769768_df55596553_b.jpg"}},{"id":2430,"common_name":"pink","scientific_name":["Dianthus 'Rosish One'"],"other_name":null,"cycle":"Perennial","watering":"Average","sunlight":["Full sun"],"default_image":{"image_id":5529,"license":4,"license_name":"Attribution License","license_url":"https://creativecommons.org/licenses/by/2.0/","original_url":"https://perenual.com/storage/species_image/2430_dianthus_rosish_one/og/2550613003_cff8da6ca1_b.jpg","regular_url":"https://perenual.com/storage/species_image/2430_dianthus_rosish_one/regular/2550613003_cff8da6ca1_b.jpg","medium_url":"https://perenual.com/storage/species_image/2430_dianthus_rosish_one/medium/2550613003_cff8da6ca1_b.jpg","small_url":"https://perenual.com/storage/species_image/2430_dianthus_rosish_one/small/2550613003_cff8da6ca1_b.jpg","thumbnail":"https://perenual.com/storage/species_image/2430_dianthus_rosish_one/thumbnail/2550613003_cff8da6ca1_b.jpg"}}],"to":2430,"per_page":30,"current_page":81,"from":2401,"last_page":200,"total":6000}