{"data":[{"id":2041,"common_name":"silverbush","scientific_name":["Convolvulus cneorum"],"other_name":null,"cycle":"Perennial","watering":"Minimum","sunlight":["Full sun"],"default_image":{"image_id":9,"license":5,"license_name":"Attribution-ShareAlike License","license_url":"https://creativecommons.org/licenses/by-sa/2.0/","original_url":"https://perenual.com/storage/species_image/2_abies_alba_pyramidalis/og/49255769768_df55596553_b.jpg","regular_url":"https://perenual.com/storage/species_image/2_abies_alba_pyramidalis/regular/49255769768_df55596553_b.jpg","medium_url":"https://perenual.com/storage/species_image/2_abies_alba_pyramidalis/medium/49255769768_df55596553_b.jpg","small_url":"https://perenual.com/storage/species_image/2_abies_alba_pyramidalis/small/49255769768_df55596553_b.jpg","thumbnail":"https://perenual.com/storage/species_image/2_abies_alba_pyramidalis/thumbnail/49255769768_df55596553_b.jpg"}},{"id":2048,"common_name":"ear-leaved tickseed","scientific_name":["Coreopsis auriculata 'Zamphir'"],"other_name":null,"cycle":"Perennial","watering":"Average","sunlight":["Full sun"],"default_image":{"image_id":9,"license":5,"license_name":"Attribution-ShareAlike License","license_url":"https://creativecommons.org/licenses/by-sa/2.0/","original_url":"https://perenual.com/storage/species_image/2_abies_alba_pyramidalis/og/49255769768_df55596553_b.jpg","regular_url":"https://perenual.com/storage/species_image/2_abies_alba_pyramidalis/regular/49255769768_df55596553_b.jpg","medium_url":"https://perenual.com/storage/species_image/2_abies_alba_pyramidalis/medium/49255769768_df55596553_b.jpg","small_url":"https://perenual.com/storage/species_image/2_abies_alba_pyramidalis/small/49255769768_df55596553_b.jpg","thumbnail":"https://perenual.com/storage/species_image/2_abies_alba_pyramidalis/thumbnail/49255769768_df55596553_b.jpg"}},{"id":2049,"common_name":"tickseed","scientific_name":["Coreopsis 'Autumn Blush'"],"other_name":null,"cycle":"Perennial","watering":"Minimum","sunlight":["Full sun"],"default_image":{"image_id":9,"license":5,"license_name":"Attribution-ShareAlike License","license_url":"https://creativecommons.org/licenses/by-sa/2.0/","original_url":"https://perenual.com/storage/species_image/2_abies_alba_pyramidalis/og/49255769768_df55596553_b.jpg","regular_url":"https://perenual.com/storage/species_image/2_abies_alba_pyramidalis/regular/49255769768_df55596553_b.jpg","medium_url":"https://perenual.com/storage/species_image/2_abies_alba_pyramidalis/medium/49255769768_df55596553_b.jpg","small_url":"https://perenual.com/storage/species_image/2_abies_alba_pyramidalis/small/49255769768_df55596553_b.jpg","thumbnail":"https://perenual.com/storage/species_image/2_abies_alba_pyramidalis/thumbnail/49255769768_df55596553_b.jpg"}},{"id":2050,"common_name":"tickseed","scientific_name":["Coreopsis 'Creme Brulee'"],"other_name":null,"cycle":"Perennial","watering":"Minimum","sunlight":["Full sun"],"default_image":{"image_id":9,"license":5,"license_name":"Attribution-ShareAlike License","license_url":"https://creativecommons.org/licenses/by-sa/2.0/","original_url":"https://perenual.com/storage/species_image/2_abies_alba_pyramidalis/og/49255769768_df55596553_b.jpg","regular_url":"https://perenual.com/storage/species_image/2_abies_alba_pyramidalis/regular/49255769768_df55596553_b.jpg","medium_url":"https://perenual.com/storage/species_image/2_abies_alba_pyramidalis/medium/49255769768_df55596553_b.jpg","small_url":"https://perenual.com/storage/species_image/2_abies_alba_pyramidalis/small/49255769768_df55596553_b.jpg","thumbnail":"https://perenual.com/storage/species_image/2_abies_alba_pyramidalis/thumbnail/49255769768_df55596553_b.jpg"}},{"id":2051,"common_name":"tickseed","scientific_name":["Coreopsis 'Gold Nugget'"],"other_name":null,"cycle":"Perennial","watering":"Minimum","sunlight":["Full sun"],"default_image":{"image_id":9,"license":5,"license_name":"Attribution-ShareAlike License","license_url":"https://creativecommons.org/licenses/by-sa/2.0/","original_url":"https://perenual.com/storage/species_image/2_abies_alba_pyramidalis/og/49255769768_df55596553_b.jpg","regular_url":"https://perenual.com/storage/species_image/2_abies_alba_pyramidalis/regular/49255769768_df55596553_b.jpg","medium_url":"https://perenual.com/storage/species_image/2_abies_alba_pyramidalis/medium/49255769768_df55596553_b.jpg","small_url":"https://perenual.com/storage/species_image/2_abies_alba_pyramidalis/small/49255769768_df55596553_b.jpg","thumbnail":"https://perenual.com/storage/species_image/2_abies_alba_pyramidalis/thumbnail/49255769768_df55596553_b.jpg"}},{"id":2052,"common_name":"tickseed","scientific_name":["Coreopsis 'Goldfink'"],"other_name":null,"cycle":"Perennial","watering":"Minimum","sunlight":["Full sun"],"default_image":{"image_id":4954,"license":6,"license_name":"Attribution-NoDerivs License","license_url":"https://creativecommons.org/licenses/by-nd/2.0/","original_url":"https://perenual.com/storage/species_image/2073_coreopsis_pubescens_sunshine_superman/og/52534573588_4041277b56_b.jpg"}},{"id":2053,"common_name":"large-flowered tickseed","scientific_name":["Coreopsis grandiflora"],"other_name":null,"cycle":"Perennial","watering":"Minimum","sunlight":["Full sun"],"default_image":{"image_id":4957,"license":4,"license_name":"Attribution License","license_url":"https://creativecommons.org/licenses/by/2.0/","original_url":"https://perenual.com/storage/species_image/2053_coreopsis_grandiflora/og/4727228506_8c81831cae_b.jpg","regular_url":"https://perenual.com/storage/species_image/2053_coreopsis_grandiflora/regular/4727228506_8c81831cae_b.jpg","medium_url":"https://perenual.com/storage/species_image/2053_coreopsis_grandiflora/medium/4727228506_8c81831cae_b.jpg","small_url":"https://perenual.com/storage/species_image/2053_coreopsis_grandiflora/small/4727228506_8c81831cae_b.jpg","thumbnail":"https://perenual.com/storage/species_image/2053_coreopsis_grandiflora/thumbnail/4727228506_8c81831cae_b.jpg"}},{"id":2042,"common_name":"bindweed","scientific_name":["Convolvulus tricolor"],"other_name":null,"cycle":"Perennial","watering":"Average","sunlight":["Full sun"],"default_image":{"image_id":4940,"license":6,"license_name":"Attribution-NoDerivs License","license_url":"https://creativecommons.org/licenses/by-nd/2.0/","original_url":"https://perenual.com/storage/species_image/2042_convolvulus_tricolor/og/19356693111_968c587203_b.jpg"}},{"id":2043,"common_name":"Black Cloud Mirror Bush","scientific_name":["Coprosma 'Black Cloud'"],"other_name":null,"cycle":"Perennial","watering":"Average","sunlight":["Full sun","part shade"],"default_image":{"image_id":4944,"license":5,"license_name":"Attribution-ShareAlike License","license_url":"https://creativecommons.org/licenses/by-sa/2.0/","original_url":"https://perenual.com/storage/species_image/2043_coprosma_black_cloud/og/5922642222_19030318da_b.jpg","regular_url":"https://perenual.com/storage/species_image/2043_coprosma_black_cloud/regular/5922642222_19030318da_b.jpg","medium_url":"https://perenual.com/storage/species_image/2043_coprosma_black_cloud/medium/5922642222_19030318da_b.jpg","small_url":"https://perenual.com/storage/species_image/2043_coprosma_black_cloud/small/5922642222_19030318da_b.jpg","thumbnail":"https://perenual.com/storage/species_image/2043_coprosma_black_cloud/thumbnail/5922642222_19030318da_b.jpg"}},{"id":2044,"common_name":"cabbage tree","scientific_name":["Cordyline australis 'Salsa'"],"other_name":null,"cycle":"Perennial","watering":"Average","sunlight":["Full sun","part shade"],"default_image":{"image_id":4945,"license":45,"license_name":"Attribution-ShareAlike 3.0 Unported (CC BY-SA 3.0)","license_url":"https://creativecommons.org/licenses/by-sa/3.0/deed.en","original_url":"https://perenual.com/storage/species_image/2044_cordyline_australis_salsa/og/Cordyline_australis_%27Red_Sensation%27_Plant_1900px.jpg","regular_url":"https://perenual.com/storage/species_image/2044_cordyline_australis_salsa/regular/Cordyline_australis_%27Red_Sensation%27_Plant_1900px.jpg","medium_url":"https://perenual.com/storage/species_image/2044_cordyline_australis_salsa/medium/Cordyline_australis_%27Red_Sensation%27_Plant_1900px.jpg","small_url":"https://perenual.com/storage/species_image/2044_cordyline_australis_salsa/small/Cordyline_australis_%27Red_Sensation%27_Plant_1900px.jpg","thumbnail":"https://perenual.com/storage/species_image/2044_cordyline_australis_salsa/thumbnail/Cordyline_australis_%27Red_Sensation%27_Plant_1900px.jpg"}},{"id":2045,"common_name":"cabbage tree","scientific_name":["Cordyline fruticosa"],"other_name":null,"cycle":"Perennial","watering":"Average","sunlight":["Part shade","full shade"],"default_image":{"image_id":9,"license":5,"license_name":"Attribution-ShareAlike License","license_url":"https://creativecommons.org/licenses/by-sa/2.0/","original_url":"https://perenual.com/storage/species_image/2_abies_alba_pyramidalis/og/49255769768_df55596553_b.jpg","regular_url":"https://perenual.com/storage/species_image/2_abies_alba_pyramidalis/regular/49255769768_df55596553_b.jpg","medium_url":"https://perenual.com/storage/species_image/2_abies_alba_pyramidalis/medium/49255769768_df55596553_b.jpg","small_url":"https://perenual.com/storage/species_image/2_abies_alba_pyramidalis/small/49255769768_df55596553_b.jpg","thumbnail":"https://perenual.com/storage/species_image/2_abies_alba_pyramidalis/thumbnail/49255769768_df55596553_b.jpg"}},{"id":2046,"common_name":"mountain palm","scientific_name":["Cordyline indivisa"],"other_name":null,"cycle":"Perennial","watering":"Average","sunlight":["Part shade"],"default_image":{"image_id":4947,"license":6,"license_name":"Attribution-NoDerivs License","license_url":"https://creativecommons.org/licenses/by-nd/2.0/","original_url":"https://perenual.com/storage/species_image/2046_cordyline_indivisa/og/3528331298_df72e751a4_b.jpg"}},{"id":2047,"common_name":"ear-leaved tickseed","scientific_name":["Coreopsis auriculata 'Nana'"],"other_name":null,"cycle":"Perennial","watering":"Average","sunlight":["Full sun"],"default_image":{"image_id":4949,"license":4,"license_name":"Attribution License","license_url":"https://creativecommons.org/licenses/by/2.0/","original_url":"https://perenual.com/storage/species_image/2047_coreopsis_auriculata_nana/og/1971324341_d79a58e3a9_b.jpg","regular_url":"https://perenual.com/storage/species_image/2047_coreopsis_auriculata_nana/regular/1971324341_d79a58e3a9_b.jpg","medium_url":"https://perenual.com/storage/species_image/2047_coreopsis_auriculata_nana/medium/1971324341_d79a58e3a9_b.jpg","small_url":"https://perenual.com/storage/species_image/2047_coreopsis_auriculata_nana/small/1971324341_d79a58e3a9_b.jpg","thumbnail":"https://perenual.com/storage/species_image/2047_coreopsis_auriculata_nana/thumbnail/1971324341_d79a58e3a9_b.jpg"}},{"id":2054,"common_name":"large-flowered tickseed","scientific_name":["Coreopsis grandiflora 'Domino'"],"other_name":null,"cycle":"Perennial","watering":"Minimum","sunlight":["Full sun"],"default_image":{"image_id":9,"license":5,"license_name":"Attribution-ShareAlike License","license_url":"https://creativecommons.org/licenses/by-sa/2.0/","original_url":"https://perenual.com/storage/species_image/2_abies_alba_pyramidalis/og/49255769768_df55596553_b.jpg","regular_url":"https://perenual.com/storage/species_image/2_abies_alba_pyramidalis/regular/49255769768_df55596553_b.jpg","medium_url":"https://perenual.com/storage/species_image/2_abies_alba_pyramidalis/medium/49255769768_df55596553_b.jpg","small_url":"https://perenual.com/storage/species_image/2_abies_alba_pyramidalis/small/49255769768_df55596553_b.jpg","thumbnail":"https://perenual.com/storage/species_image/2_abies_alba_pyramidalis/thumbnail/49255769768_df55596553_b.jpg"}},{"id":2055,"common_name":"large-flowered tickseed","scientific_name":["Coreopsis grandiflora 'Early Sunrise'"],"other_name":null,"cycle":"Perennial","watering":"Minimum","sunlight":["Full sun"],"default_image":{"image_id":9,"license":5,"license_name":"Attribution-ShareAlike License","license_url":"https://creativecommons.org/licenses/by-sa/2.0/","original_url":"https://perenual.com/storage/species_image/2_abies_alba_pyramidalis/og/49255769768_df55596553_b.jpg","regular_url":"https://perenual.com/storage/species_image/2_abies_alba_pyramidalis/regular/49255769768_df55596553_b.jpg","medium_url":"https://perenual.com/storage/species_image/2_abies_alba_pyramidalis/medium/49255769768_df55596553_b.jpg","small_url":"https://perenual.com/storage/species_image/2_abies_alba_pyramidalis/small/49255769768_df55596553_b.jpg","thumbnail":"https://perenual.com/storage/species_image/2_abies_alba_pyramidalis/thumbnail/49255769768_df55596553_b.jpg"}},{"id":2056,"common_name":"large-flowered tickseed","scientific_name":["Coreopsis grandiflora 'Mayfield Giant'"],"other_name":null,"cycle":"Perennial","watering":"Minimum","sunlight":["Full sun"],"default_image":{"image_id":9,"license":5,"license_name":"Attribution-ShareAlike License","license_url":"https://creativecommons.org/licenses/by-sa/2.0/","original_url":"https://perenual.com/storage/species_image/2_abies_alba_pyramidalis/og/49255769768_df55596553_b.jpg","regular_url":"https://perenual.com/storage/species_image/2_abies_alba_pyramidalis/regular/49255769768_df55596553_b.jpg","medium_url":"https://perenual.com/storage/species_image/2_abies_alba_pyramidalis/medium/49255769768_df55596553_b.jpg","small_url":"https://perenual.com/storage/species_image/2_abies_alba_pyramidalis/small/49255769768_df55596553_b.jpg","thumbnail":"https://perenual.com/storage/species_image/2_abies_alba_pyramidalis/thumbnail/49255769768_df55596553_b.jpg"}},{"id":2057,"common_name":"tickseed","scientific_name":["Coreopsis grandiflora SUN UP"],"other_name":null,"cycle":"Perennial","watering":"Minimum","sunlight":["Full sun"],"default_image":{"image_id":4954,"license":6,"license_name":"Attribution-NoDerivs License","license_url":"https://creativecommons.org/licenses/by-nd/2.0/","original_url":"https://perenual.com/storage/species_image/2073_coreopsis_pubescens_sunshine_superman/og/52534573588_4041277b56_b.jpg"}},{"id":2058,"common_name":"large-flowered tickseed","scientific_name":["Coreopsis grandiflora 'Sundancer'"],"other_name":null,"cycle":"Perennial","watering":"Minimum","sunlight":["Full sun"],"default_image":{"image_id":9,"license":5,"license_name":"Attribution-ShareAlike License","license_url":"https://creativecommons.org/licenses/by-sa/2.0/","original_url":"https://perenual.com/storage/species_image/2_abies_alba_pyramidalis/og/49255769768_df55596553_b.jpg","regular_url":"https://perenual.com/storage/species_image/2_abies_alba_pyramidalis/regular/49255769768_df55596553_b.jpg","medium_url":"https://perenual.com/storage/species_image/2_abies_alba_pyramidalis/medium/49255769768_df55596553_b.jpg","small_url":"https://perenual.com/storage/species_image/2_abies_alba_pyramidalis/small/49255769768_df55596553_b.jpg","thumbnail":"https://perenual.com/storage/species_image/2_abies_alba_pyramidalis/thumbnail/49255769768_df55596553_b.jpg"}},{"id":2059,"common_name":"large-flowered tickseed","scientific_name":["Coreopsis grandiflora 'Walcoreop' FLYING SAUCERS"],"other_name":null,"cycle":"Perennial","watering":"Minimum","sunlight":["Full sun"],"default_image":{"image_id":9,"license":5,"license_name":"Attribution-ShareAlike License","license_url":"https://creativecommons.org/licenses/by-sa/2.0/","original_url":"https://perenual.com/storage/species_image/2_abies_alba_pyramidalis/og/49255769768_df55596553_b.jpg","regular_url":"https://perenual.com/storage/species_image/2_abies_alba_pyramidalis/regular/49255769768_df55596553_b.jpg","medium_url":"https://perenual.com/storage/species_image/2_abies_alba_pyramidalis/medium/49255769768_df55596553_b.jpg","small_url":"https://perenual.com/storage/species_image/2_abies_alba_pyramidalis/small/49255769768_df55596553_b.jpg","thumbnail":"https://perenual.com/storage/species_image/2_abies_alba_pyramidalis/thumbnail/49255769768_df55596553_b.jpg"}},{"id":2060,"common_name":"fringeleaf tickseed","scientific_name":["Coreopsis integrifolia"],"other_name":null,"cycle":"Perennial","watering":"Frequent","sunlight":["Full sun","part shade"],"default_image":{"image_id":9,"license":5,"license_name":"Attribution-ShareAlike License","license_url":"https://creativecommons.org/licenses/by-sa/2.0/","original_url":"https://perenual.com/storage/species_image/2_abies_alba_pyramidalis/og/49255769768_df55596553_b.jpg","regular_url":"https://perenual.com/storage/species_image/2_abies_alba_pyramidalis/regular/49255769768_df55596553_b.jpg","medium_url":"https://perenual.com/storage/species_image/2_abies_alba_pyramidalis/medium/49255769768_df55596553_b.jpg","small_url":"https://perenual.com/storage/species_image/2_abies_alba_pyramidalis/small/49255769768_df55596553_b.jpg","thumbnail":"https://perenual.com/storage/species_image/2_abies_alba_pyramidalis/thumbnail/49255769768_df55596553_b.jpg"}},{"id":2061,"common_name":"tickseed","scientific_name":["Coreopsis 'Jethro Tull'"],"other_name":null,"cycle":"Perennial","watering":"Minimum","sunlight":["Full sun"],"default_image":{"image_id":4962,"license":4,"license_name":"Attribution License","license_url":"https://creativecommons.org/licenses/by/2.0/","original_url":"https://perenual.com/storage/species_image/2061_coreopsis_jethro_tull/og/14288032847_f2d034d68e_b.jpg","regular_url":"https://perenual.com/storage/species_image/2061_coreopsis_jethro_tull/regular/14288032847_f2d034d68e_b.jpg","medium_url":"https://perenual.com/storage/species_image/2061_coreopsis_jethro_tull/medium/14288032847_f2d034d68e_b.jpg","small_url":"https://perenual.com/storage/species_image/2061_coreopsis_jethro_tull/small/14288032847_f2d034d68e_b.jpg","thumbnail":"https://perenual.com/storage/species_image/2061_coreopsis_jethro_tull/thumbnail/14288032847_f2d034d68e_b.jpg"}},{"id":2062,"common_name":"lanceleaf coreopsis","scientific_name":["Coreopsis lanceolata"],"other_name":null,"cycle":"Perennial","watering":"Minimum","sunlight":["Full sun"],"default_image":{"image_id":9,"license":5,"license_name":"Attribution-ShareAlike License","license_url":"https://creativecommons.org/licenses/by-sa/2.0/","original_url":"https://perenual.com/storage/species_image/2_abies_alba_pyramidalis/og/49255769768_df55596553_b.jpg","regular_url":"https://perenual.com/storage/species_image/2_abies_alba_pyramidalis/regular/49255769768_df55596553_b.jpg","medium_url":"https://perenual.com/storage/species_image/2_abies_alba_pyramidalis/medium/49255769768_df55596553_b.jpg","small_url":"https://perenual.com/storage/species_image/2_abies_alba_pyramidalis/small/49255769768_df55596553_b.jpg","thumbnail":"https://perenual.com/storage/species_image/2_abies_alba_pyramidalis/thumbnail/49255769768_df55596553_b.jpg"}},{"id":2063,"common_name":"lanceleaf coreopsis","scientific_name":["Coreopsis lanceolata 'Summer Sprite'"],"other_name":null,"cycle":"Perennial","watering":"Minimum","sunlight":["Full sun"],"default_image":{"image_id":9,"license":5,"license_name":"Attribution-ShareAlike License","license_url":"https://creativecommons.org/licenses/by-sa/2.0/","original_url":"https://perenual.com/storage/species_image/2_abies_alba_pyramidalis/og/49255769768_df55596553_b.jpg","regular_url":"https://perenual.com/storage/species_image/2_abies_alba_pyramidalis/regular/49255769768_df55596553_b.jpg","medium_url":"https://perenual.com/storage/species_image/2_abies_alba_pyramidalis/medium/49255769768_df55596553_b.jpg","small_url":"https://perenual.com/storage/species_image/2_abies_alba_pyramidalis/small/49255769768_df55596553_b.jpg","thumbnail":"https://perenual.com/storage/species_image/2_abies_alba_pyramidalis/thumbnail/49255769768_df55596553_b.jpg"}},{"id":2064,"common_name":"tickseed","scientific_name":["Coreopsis 'Lightning Flash'"],"other_name":null,"cycle":"Perennial","watering":"Minimum","sunlight":["Full sun"],"default_image":{"image_id":4969,"license":4,"license_name":"Attribution License","license_url":"https://creativecommons.org/licenses/by/2.0/","original_url":"https://perenual.com/storage/species_image/2064_coreopsis_lightning_flash/og/52610664744_edee9636e5_b.jpg","regular_url":"https://perenual.com/storage/species_image/2064_coreopsis_lightning_flash/regular/52610664744_edee9636e5_b.jpg","medium_url":"https://perenual.com/storage/species_image/2064_coreopsis_lightning_flash/medium/52610664744_edee9636e5_b.jpg","small_url":"https://perenual.com/storage/species_image/2064_coreopsis_lightning_flash/small/52610664744_edee9636e5_b.jpg","thumbnail":"https://perenual.com/storage/species_image/2064_coreopsis_lightning_flash/thumbnail/52610664744_edee9636e5_b.jpg"}},{"id":2065,"common_name":"tickseed","scientific_name":["Coreopsis LI'L BANG GOLDILOCKS"],"other_name":null,"cycle":"Perennial","watering":"Minimum","sunlight":["Full sun"],"default_image":{"image_id":9,"license":5,"license_name":"Attribution-ShareAlike License","license_url":"https://creativecommons.org/licenses/by-sa/2.0/","original_url":"https://perenual.com/storage/species_image/2_abies_alba_pyramidalis/og/49255769768_df55596553_b.jpg","regular_url":"https://perenual.com/storage/species_image/2_abies_alba_pyramidalis/regular/49255769768_df55596553_b.jpg","medium_url":"https://perenual.com/storage/species_image/2_abies_alba_pyramidalis/medium/49255769768_df55596553_b.jpg","small_url":"https://perenual.com/storage/species_image/2_abies_alba_pyramidalis/small/49255769768_df55596553_b.jpg","thumbnail":"https://perenual.com/storage/species_image/2_abies_alba_pyramidalis/thumbnail/49255769768_df55596553_b.jpg"}},{"id":2066,"common_name":"tickseed","scientific_name":["Coreopsis 'Limerock Ruby'"],"other_name":null,"cycle":"Perennial","watering":"Minimum","sunlight":["Full sun"],"default_image":{"image_id":4970,"license":5,"license_name":"Attribution-ShareAlike License","license_url":"https://creativecommons.org/licenses/by-sa/2.0/","original_url":"https://perenual.com/storage/species_image/2066_coreopsis_limerock_ruby/og/4885989455_3fcbd0b137_b.jpg","regular_url":"https://perenual.com/storage/species_image/2066_coreopsis_limerock_ruby/regular/4885989455_3fcbd0b137_b.jpg","medium_url":"https://perenual.com/storage/species_image/2066_coreopsis_limerock_ruby/medium/4885989455_3fcbd0b137_b.jpg","small_url":"https://perenual.com/storage/species_image/2066_coreopsis_limerock_ruby/small/4885989455_3fcbd0b137_b.jpg","thumbnail":"https://perenual.com/storage/species_image/2066_coreopsis_limerock_ruby/thumbnail/4885989455_3fcbd0b137_b.jpg"}},{"id":2067,"common_name":"greater tickseed","scientific_name":["Coreopsis major"],"other_name":null,"cycle":"Perennial","watering":"Minimum","sunlight":["Full sun"],"default_image":{"image_id":4971,"license":5,"license_name":"Attribution-ShareAlike License","license_url":"https://creativecommons.org/licenses/by-sa/2.0/","original_url":"https://perenual.com/storage/species_image/2067_coreopsis_major/og/18376948593_cd1cfa0bd8_b.jpg","regular_url":"https://perenual.com/storage/species_image/2067_coreopsis_major/regular/18376948593_cd1cfa0bd8_b.jpg","medium_url":"https://perenual.com/storage/species_image/2067_coreopsis_major/medium/18376948593_cd1cfa0bd8_b.jpg","small_url":"https://perenual.com/storage/species_image/2067_coreopsis_major/small/18376948593_cd1cfa0bd8_b.jpg","thumbnail":"https://perenual.com/storage/species_image/2067_coreopsis_major/thumbnail/18376948593_cd1cfa0bd8_b.jpg"}},{"id":2068,"common_name":"tickseed","scientific_name":["Coreopsis 'Mercury Rising'"],"other_name":null,"cycle":"Perennial","watering":"Minimum","sunlight":["Full sun"],"default_image":{"image_id":9,"license":5,"license_name":"Attribution-ShareAlike License","license_url":"https://creativecommons.org/licenses/by-sa/2.0/","original_url":"https://perenual.com/storage/species_image/2_abies_alba_pyramidalis/og/49255769768_df55596553_b.jpg","regular_url":"https://perenual.com/storage/species_image/2_abies_alba_pyramidalis/regular/49255769768_df55596553_b.jpg","medium_url":"https://perenual.com/storage/species_image/2_abies_alba_pyramidalis/medium/49255769768_df55596553_b.jpg","small_url":"https://perenual.com/storage/species_image/2_abies_alba_pyramidalis/small/49255769768_df55596553_b.jpg","thumbnail":"https://perenual.com/storage/species_image/2_abies_alba_pyramidalis/thumbnail/49255769768_df55596553_b.jpg"}},{"id":2069,"common_name":"tickseed","scientific_name":["Coreopsis 'Moonlight'"],"other_name":null,"cycle":"Perennial","watering":"Minimum","sunlight":["Full sun"],"default_image":{"image_id":4974,"license":4,"license_name":"Attribution License","license_url":"https://creativecommons.org/licenses/by/2.0/","original_url":"https://perenual.com/storage/species_image/2069_coreopsis_moonlight/og/52132397541_9f3e50a8a5_b.jpg","regular_url":"https://perenual.com/storage/species_image/2069_coreopsis_moonlight/regular/52132397541_9f3e50a8a5_b.jpg","medium_url":"https://perenual.com/storage/species_image/2069_coreopsis_moonlight/medium/52132397541_9f3e50a8a5_b.jpg","small_url":"https://perenual.com/storage/species_image/2069_coreopsis_moonlight/small/52132397541_9f3e50a8a5_b.jpg","thumbnail":"https://perenual.com/storage/species_image/2069_coreopsis_moonlight/thumbnail/52132397541_9f3e50a8a5_b.jpg"}},{"id":2070,"common_name":"tickseed","scientific_name":["Coreopsis palmata"],"other_name":null,"cycle":"Perennial","watering":"Minimum","sunlight":["Full sun"],"default_image":{"image_id":4975,"license":5,"license_name":"Attribution-ShareAlike License","license_url":"https://creativecommons.org/licenses/by-sa/2.0/","original_url":"https://perenual.com/storage/species_image/2070_coreopsis_palmata/og/25873405600_e59b317141_b.jpg","regular_url":"https://perenual.com/storage/species_image/2070_coreopsis_palmata/regular/25873405600_e59b317141_b.jpg","medium_url":"https://perenual.com/storage/species_image/2070_coreopsis_palmata/medium/25873405600_e59b317141_b.jpg","small_url":"https://perenual.com/storage/species_image/2070_coreopsis_palmata/small/25873405600_e59b317141_b.jpg","thumbnail":"https://perenual.com/storage/species_image/2070_coreopsis_palmata/thumbnail/25873405600_e59b317141_b.jpg"}}],"to":2070,"per_page":30,"current_page":69,"from":2041,"last_page":200,"total":6000}