{"data":[{"id":2761,"common_name":"bishop's hat","scientific_name":["Epimedium pubescens"],"other_name":null,"cycle":"Perennial","watering":"Minimum","sunlight":["Part shade","full shade"],"default_image":{"image_id":6042,"license":5,"license_name":"Attribution-ShareAlike License","license_url":"https://creativecommons.org/licenses/by-sa/2.0/","original_url":"https://perenual.com/storage/species_image/2761_epimedium_pubescens/og/9229900150_b67ca3d1bb_b.jpg","regular_url":"https://perenual.com/storage/species_image/2761_epimedium_pubescens/regular/9229900150_b67ca3d1bb_b.jpg","medium_url":"https://perenual.com/storage/species_image/2761_epimedium_pubescens/medium/9229900150_b67ca3d1bb_b.jpg","small_url":"https://perenual.com/storage/species_image/2761_epimedium_pubescens/small/9229900150_b67ca3d1bb_b.jpg","thumbnail":"https://perenual.com/storage/species_image/2761_epimedium_pubescens/thumbnail/9229900150_b67ca3d1bb_b.jpg"}},{"id":2762,"common_name":"bishop's hat","scientific_name":["Epimedium pubigerum"],"other_name":null,"cycle":"Perennial","watering":"Minimum","sunlight":["Part shade","full shade"],"default_image":{"image_id":9,"license":5,"license_name":"Attribution-ShareAlike License","license_url":"https://creativecommons.org/licenses/by-sa/2.0/","original_url":"https://perenual.com/storage/species_image/2_abies_alba_pyramidalis/og/49255769768_df55596553_b.jpg","regular_url":"https://perenual.com/storage/species_image/2_abies_alba_pyramidalis/regular/49255769768_df55596553_b.jpg","medium_url":"https://perenual.com/storage/species_image/2_abies_alba_pyramidalis/medium/49255769768_df55596553_b.jpg","small_url":"https://perenual.com/storage/species_image/2_abies_alba_pyramidalis/small/49255769768_df55596553_b.jpg","thumbnail":"https://perenual.com/storage/species_image/2_abies_alba_pyramidalis/thumbnail/49255769768_df55596553_b.jpg"}},{"id":2763,"common_name":"bishop's hat","scientific_name":["Epimedium rubrum"],"other_name":null,"cycle":"Perennial","watering":"Minimum","sunlight":["Part shade","full shade"],"default_image":{"image_id":9,"license":5,"license_name":"Attribution-ShareAlike License","license_url":"https://creativecommons.org/licenses/by-sa/2.0/","original_url":"https://perenual.com/storage/species_image/2_abies_alba_pyramidalis/og/49255769768_df55596553_b.jpg","regular_url":"https://perenual.com/storage/species_image/2_abies_alba_pyramidalis/regular/49255769768_df55596553_b.jpg","medium_url":"https://perenual.com/storage/species_image/2_abies_alba_pyramidalis/medium/49255769768_df55596553_b.jpg","small_url":"https://perenual.com/storage/species_image/2_abies_alba_pyramidalis/small/49255769768_df55596553_b.jpg","thumbnail":"https://perenual.com/storage/species_image/2_abies_alba_pyramidalis/thumbnail/49255769768_df55596553_b.jpg"}},{"id":2764,"common_name":"bishop's hat","scientific_name":["Epimedium sempervirens"],"other_name":null,"cycle":"Perennial","watering":"Minimum","sunlight":["Part shade","full shade"],"default_image":{"image_id":6045,"license":5,"license_name":"Attribution-ShareAlike License","license_url":"https://creativecommons.org/licenses/by-sa/2.0/","original_url":"https://perenual.com/storage/species_image/2764_epimedium_sempervirens/og/17011542359_b48db7c0e9_b.jpg","regular_url":"https://perenual.com/storage/species_image/2764_epimedium_sempervirens/regular/17011542359_b48db7c0e9_b.jpg","medium_url":"https://perenual.com/storage/species_image/2764_epimedium_sempervirens/medium/17011542359_b48db7c0e9_b.jpg","small_url":"https://perenual.com/storage/species_image/2764_epimedium_sempervirens/small/17011542359_b48db7c0e9_b.jpg","thumbnail":"https://perenual.com/storage/species_image/2764_epimedium_sempervirens/thumbnail/17011542359_b48db7c0e9_b.jpg"}},{"id":2765,"common_name":"bishop's hat","scientific_name":["Epimedium 'Tama-no-genpei'"],"other_name":null,"cycle":"Perennial","watering":"Minimum","sunlight":["Part shade","full shade"],"default_image":{"image_id":6047,"license":4,"license_name":"Attribution License","license_url":"https://creativecommons.org/licenses/by/2.0/","original_url":"https://perenual.com/storage/species_image/2765_epimedium_tama-no-genpei/og/10720743013_fa4350480d_b.jpg","regular_url":"https://perenual.com/storage/species_image/2765_epimedium_tama-no-genpei/regular/10720743013_fa4350480d_b.jpg","medium_url":"https://perenual.com/storage/species_image/2765_epimedium_tama-no-genpei/medium/10720743013_fa4350480d_b.jpg","small_url":"https://perenual.com/storage/species_image/2765_epimedium_tama-no-genpei/small/10720743013_fa4350480d_b.jpg","thumbnail":"https://perenual.com/storage/species_image/2765_epimedium_tama-no-genpei/thumbnail/10720743013_fa4350480d_b.jpg"}},{"id":2766,"common_name":"bishop's hat","scientific_name":["Epimedium versicolor 'Discolor'"],"other_name":null,"cycle":"Perennial","watering":"Minimum","sunlight":["Part shade","full shade"],"default_image":{"image_id":9,"license":5,"license_name":"Attribution-ShareAlike License","license_url":"https://creativecommons.org/licenses/by-sa/2.0/","original_url":"https://perenual.com/storage/species_image/2_abies_alba_pyramidalis/og/49255769768_df55596553_b.jpg","regular_url":"https://perenual.com/storage/species_image/2_abies_alba_pyramidalis/regular/49255769768_df55596553_b.jpg","medium_url":"https://perenual.com/storage/species_image/2_abies_alba_pyramidalis/medium/49255769768_df55596553_b.jpg","small_url":"https://perenual.com/storage/species_image/2_abies_alba_pyramidalis/small/49255769768_df55596553_b.jpg","thumbnail":"https://perenual.com/storage/species_image/2_abies_alba_pyramidalis/thumbnail/49255769768_df55596553_b.jpg"}},{"id":2767,"common_name":"bishop's hat","scientific_name":["Epimedium versicolor 'Sulphureum'"],"other_name":null,"cycle":"Perennial","watering":"Minimum","sunlight":["Part shade","full shade"],"default_image":{"image_id":9,"license":5,"license_name":"Attribution-ShareAlike License","license_url":"https://creativecommons.org/licenses/by-sa/2.0/","original_url":"https://perenual.com/storage/species_image/2_abies_alba_pyramidalis/og/49255769768_df55596553_b.jpg","regular_url":"https://perenual.com/storage/species_image/2_abies_alba_pyramidalis/regular/49255769768_df55596553_b.jpg","medium_url":"https://perenual.com/storage/species_image/2_abies_alba_pyramidalis/medium/49255769768_df55596553_b.jpg","small_url":"https://perenual.com/storage/species_image/2_abies_alba_pyramidalis/small/49255769768_df55596553_b.jpg","thumbnail":"https://perenual.com/storage/species_image/2_abies_alba_pyramidalis/thumbnail/49255769768_df55596553_b.jpg"}},{"id":2768,"common_name":"bishop's hat","scientific_name":["Epimedium warleyense"],"other_name":null,"cycle":"Perennial","watering":"Minimum","sunlight":["Part shade","full shade"],"default_image":{"image_id":6049,"license":5,"license_name":"Attribution-ShareAlike License","license_url":"https://creativecommons.org/licenses/by-sa/2.0/","original_url":"https://perenual.com/storage/species_image/2768_epimedium_warleyense/og/5672589871_3866f0e0b6_b.jpg","regular_url":"https://perenual.com/storage/species_image/2768_epimedium_warleyense/regular/5672589871_3866f0e0b6_b.jpg","medium_url":"https://perenual.com/storage/species_image/2768_epimedium_warleyense/medium/5672589871_3866f0e0b6_b.jpg","small_url":"https://perenual.com/storage/species_image/2768_epimedium_warleyense/small/5672589871_3866f0e0b6_b.jpg","thumbnail":"https://perenual.com/storage/species_image/2768_epimedium_warleyense/thumbnail/5672589871_3866f0e0b6_b.jpg"}},{"id":2769,"common_name":"bishop's hat","scientific_name":["Epimedium youngianum"],"other_name":null,"cycle":"Perennial","watering":"Minimum","sunlight":["Part shade","full shade"],"default_image":{"image_id":6050,"license":5,"license_name":"Attribution-ShareAlike License","license_url":"https://creativecommons.org/licenses/by-sa/2.0/","original_url":"https://perenual.com/storage/species_image/2769_epimedium_youngianum/og/17172784760_2321e8ec45_b.jpg","regular_url":"https://perenual.com/storage/species_image/2769_epimedium_youngianum/regular/17172784760_2321e8ec45_b.jpg","medium_url":"https://perenual.com/storage/species_image/2769_epimedium_youngianum/medium/17172784760_2321e8ec45_b.jpg","small_url":"https://perenual.com/storage/species_image/2769_epimedium_youngianum/small/17172784760_2321e8ec45_b.jpg","thumbnail":"https://perenual.com/storage/species_image/2769_epimedium_youngianum/thumbnail/17172784760_2321e8ec45_b.jpg"}},{"id":2770,"common_name":"bishop's hat","scientific_name":["Epimedium youngianum 'Niveum'"],"other_name":null,"cycle":"Perennial","watering":"Minimum","sunlight":["Part shade","full shade"],"default_image":{"image_id":6052,"license":4,"license_name":"Attribution License","license_url":"https://creativecommons.org/licenses/by/2.0/","original_url":"https://perenual.com/storage/species_image/8555_epimedium_x_youngianum/og/26785385986_936083463f_b.jpg","regular_url":"https://perenual.com/storage/species_image/8555_epimedium_x_youngianum/regular/26785385986_936083463f_b.jpg","medium_url":"https://perenual.com/storage/species_image/8555_epimedium_x_youngianum/medium/26785385986_936083463f_b.jpg","small_url":"https://perenual.com/storage/species_image/8555_epimedium_x_youngianum/small/26785385986_936083463f_b.jpg","thumbnail":"https://perenual.com/storage/species_image/8555_epimedium_x_youngianum/thumbnail/26785385986_936083463f_b.jpg"}},{"id":2771,"common_name":"bishop's hat","scientific_name":["Epimedium 'Yubae'"],"other_name":null,"cycle":"Perennial","watering":"Minimum","sunlight":["Part shade","full shade"],"default_image":{"image_id":9,"license":5,"license_name":"Attribution-ShareAlike License","license_url":"https://creativecommons.org/licenses/by-sa/2.0/","original_url":"https://perenual.com/storage/species_image/2_abies_alba_pyramidalis/og/49255769768_df55596553_b.jpg","regular_url":"https://perenual.com/storage/species_image/2_abies_alba_pyramidalis/regular/49255769768_df55596553_b.jpg","medium_url":"https://perenual.com/storage/species_image/2_abies_alba_pyramidalis/medium/49255769768_df55596553_b.jpg","small_url":"https://perenual.com/storage/species_image/2_abies_alba_pyramidalis/small/49255769768_df55596553_b.jpg","thumbnail":"https://perenual.com/storage/species_image/2_abies_alba_pyramidalis/thumbnail/49255769768_df55596553_b.jpg"}},{"id":2772,"common_name":"marsh helleborine","scientific_name":["Epipactis palustris"],"other_name":null,"cycle":"Perennial","watering":"Frequent","sunlight":["Full sun","part shade"],"default_image":{"image_id":6056,"license":4,"license_name":"Attribution License","license_url":"https://creativecommons.org/licenses/by/2.0/","original_url":"https://perenual.com/storage/species_image/2772_epipactis_palustris/og/52213305286_fe97935eda_b.jpg","regular_url":"https://perenual.com/storage/species_image/2772_epipactis_palustris/regular/52213305286_fe97935eda_b.jpg","medium_url":"https://perenual.com/storage/species_image/2772_epipactis_palustris/medium/52213305286_fe97935eda_b.jpg","small_url":"https://perenual.com/storage/species_image/2772_epipactis_palustris/small/52213305286_fe97935eda_b.jpg","thumbnail":"https://perenual.com/storage/species_image/2772_epipactis_palustris/thumbnail/52213305286_fe97935eda_b.jpg"}},{"id":2773,"common_name":"golden pothos","scientific_name":["Epipremnum aureum"],"other_name":["golden pothos"],"cycle":"Perennial","watering":"Average","sunlight":["Part shade"],"default_image":{"image_id":9,"license":5,"license_name":"Attribution-ShareAlike License","license_url":"https://creativecommons.org/licenses/by-sa/2.0/","original_url":"https://perenual.com/storage/species_image/2_abies_alba_pyramidalis/og/49255769768_df55596553_b.jpg","regular_url":"https://perenual.com/storage/species_image/2_abies_alba_pyramidalis/regular/49255769768_df55596553_b.jpg","medium_url":"https://perenual.com/storage/species_image/2_abies_alba_pyramidalis/medium/49255769768_df55596553_b.jpg","small_url":"https://perenual.com/storage/species_image/2_abies_alba_pyramidalis/small/49255769768_df55596553_b.jpg","thumbnail":"https://perenual.com/storage/species_image/2_abies_alba_pyramidalis/thumbnail/49255769768_df55596553_b.jpg"}},{"id":2774,"common_name":"pothos","scientific_name":["Epipremnum aureum 'Neon'"],"other_name":null,"cycle":"Perennial","watering":"Average","sunlight":["Part shade"],"default_image":{"image_id":6070,"license":5,"license_name":"Attribution-ShareAlike License","license_url":"https://creativecommons.org/licenses/by-sa/2.0/","original_url":"https://perenual.com/storage/species_image/2774_epipremnum_aureum_neon/og/3665937247_7801145167_b.jpg","regular_url":"https://perenual.com/storage/species_image/2774_epipremnum_aureum_neon/regular/3665937247_7801145167_b.jpg","medium_url":"https://perenual.com/storage/species_image/2774_epipremnum_aureum_neon/medium/3665937247_7801145167_b.jpg","small_url":"https://perenual.com/storage/species_image/2774_epipremnum_aureum_neon/small/3665937247_7801145167_b.jpg","thumbnail":"https://perenual.com/storage/species_image/2774_epipremnum_aureum_neon/thumbnail/3665937247_7801145167_b.jpg"}},{"id":2775,"common_name":"flame violet","scientific_name":["Episcia cupreata"],"other_name":null,"cycle":"Perennial","watering":"Average","sunlight":["Part shade","full shade"],"default_image":{"image_id":9,"license":5,"license_name":"Attribution-ShareAlike License","license_url":"https://creativecommons.org/licenses/by-sa/2.0/","original_url":"https://perenual.com/storage/species_image/2_abies_alba_pyramidalis/og/49255769768_df55596553_b.jpg","regular_url":"https://perenual.com/storage/species_image/2_abies_alba_pyramidalis/regular/49255769768_df55596553_b.jpg","medium_url":"https://perenual.com/storage/species_image/2_abies_alba_pyramidalis/medium/49255769768_df55596553_b.jpg","small_url":"https://perenual.com/storage/species_image/2_abies_alba_pyramidalis/small/49255769768_df55596553_b.jpg","thumbnail":"https://perenual.com/storage/species_image/2_abies_alba_pyramidalis/thumbnail/49255769768_df55596553_b.jpg"}},{"id":2776,"common_name":"scouringrush horsetail","scientific_name":["Equisetum hyemale"],"other_name":["horsetail"],"cycle":"Perennial","watering":"Frequent","sunlight":["Full sun","part shade"],"default_image":{"image_id":6073,"license":4,"license_name":"Attribution License","license_url":"https://creativecommons.org/licenses/by/2.0/","original_url":"https://perenual.com/storage/species_image/2776_equisetum_hyemale/og/52147634626_d995ac3584_b.jpg","regular_url":"https://perenual.com/storage/species_image/2776_equisetum_hyemale/regular/52147634626_d995ac3584_b.jpg","medium_url":"https://perenual.com/storage/species_image/2776_equisetum_hyemale/medium/52147634626_d995ac3584_b.jpg","small_url":"https://perenual.com/storage/species_image/2776_equisetum_hyemale/small/52147634626_d995ac3584_b.jpg","thumbnail":"https://perenual.com/storage/species_image/2776_equisetum_hyemale/thumbnail/52147634626_d995ac3584_b.jpg"}},{"id":2777,"common_name":"lovegrass","scientific_name":["Eragrostis elliottii 'Wind Dancer'"],"other_name":null,"cycle":"Perennial","watering":"Minimum","sunlight":["Full sun"],"default_image":{"image_id":9,"license":5,"license_name":"Attribution-ShareAlike License","license_url":"https://creativecommons.org/licenses/by-sa/2.0/","original_url":"https://perenual.com/storage/species_image/2_abies_alba_pyramidalis/og/49255769768_df55596553_b.jpg","regular_url":"https://perenual.com/storage/species_image/2_abies_alba_pyramidalis/regular/49255769768_df55596553_b.jpg","medium_url":"https://perenual.com/storage/species_image/2_abies_alba_pyramidalis/medium/49255769768_df55596553_b.jpg","small_url":"https://perenual.com/storage/species_image/2_abies_alba_pyramidalis/small/49255769768_df55596553_b.jpg","thumbnail":"https://perenual.com/storage/species_image/2_abies_alba_pyramidalis/thumbnail/49255769768_df55596553_b.jpg"}},{"id":2778,"common_name":"sand lovegrass","scientific_name":["Eragrostis trichodes"],"other_name":null,"cycle":"Perennial","watering":"Minimum","sunlight":["Full sun"],"default_image":{"image_id":9,"license":5,"license_name":"Attribution-ShareAlike License","license_url":"https://creativecommons.org/licenses/by-sa/2.0/","original_url":"https://perenual.com/storage/species_image/2_abies_alba_pyramidalis/og/49255769768_df55596553_b.jpg","regular_url":"https://perenual.com/storage/species_image/2_abies_alba_pyramidalis/regular/49255769768_df55596553_b.jpg","medium_url":"https://perenual.com/storage/species_image/2_abies_alba_pyramidalis/medium/49255769768_df55596553_b.jpg","small_url":"https://perenual.com/storage/species_image/2_abies_alba_pyramidalis/small/49255769768_df55596553_b.jpg","thumbnail":"https://perenual.com/storage/species_image/2_abies_alba_pyramidalis/thumbnail/49255769768_df55596553_b.jpg"}},{"id":2779,"common_name":"lovegrass","scientific_name":["Eragrostis trichodes 'Bend'"],"other_name":null,"cycle":"Perennial","watering":"Minimum","sunlight":["Full sun"],"default_image":{"image_id":6077,"license":4,"license_name":"Attribution License","license_url":"https://creativecommons.org/licenses/by/2.0/","original_url":"https://perenual.com/storage/species_image/2779_eragrostis_trichodes_bend/og/30206384951_34876597d1_b.jpg","regular_url":"https://perenual.com/storage/species_image/2779_eragrostis_trichodes_bend/regular/30206384951_34876597d1_b.jpg","medium_url":"https://perenual.com/storage/species_image/2779_eragrostis_trichodes_bend/medium/30206384951_34876597d1_b.jpg","small_url":"https://perenual.com/storage/species_image/2779_eragrostis_trichodes_bend/small/30206384951_34876597d1_b.jpg","thumbnail":"https://perenual.com/storage/species_image/2779_eragrostis_trichodes_bend/thumbnail/30206384951_34876597d1_b.jpg"}},{"id":2780,"common_name":"blue sage","scientific_name":["Eranthemum pulchellum"],"other_name":null,"cycle":"Perennial","watering":"Average","sunlight":["Full sun","part shade"],"default_image":{"image_id":6078,"license":4,"license_name":"Attribution License","license_url":"https://creativecommons.org/licenses/by/2.0/","original_url":"https://perenual.com/storage/species_image/2780_eranthemum_pulchellum/og/52061634205_5e412329b8_b.jpg","regular_url":"https://perenual.com/storage/species_image/2780_eranthemum_pulchellum/regular/52061634205_5e412329b8_b.jpg","medium_url":"https://perenual.com/storage/species_image/2780_eranthemum_pulchellum/medium/52061634205_5e412329b8_b.jpg","small_url":"https://perenual.com/storage/species_image/2780_eranthemum_pulchellum/small/52061634205_5e412329b8_b.jpg","thumbnail":"https://perenual.com/storage/species_image/2780_eranthemum_pulchellum/thumbnail/52061634205_5e412329b8_b.jpg"}},{"id":2781,"common_name":"winter aconite","scientific_name":["Eranthis hyemalis"],"other_name":null,"cycle":"Perennial","watering":"Average","sunlight":["Full sun","part shade"],"default_image":{"image_id":6079,"license":4,"license_name":"Attribution License","license_url":"https://creativecommons.org/licenses/by/2.0/","original_url":"https://perenual.com/storage/species_image/2781_eranthis_hyemalis/og/51887104946_37600c6b89_b.jpg","regular_url":"https://perenual.com/storage/species_image/2781_eranthis_hyemalis/regular/51887104946_37600c6b89_b.jpg","medium_url":"https://perenual.com/storage/species_image/2781_eranthis_hyemalis/medium/51887104946_37600c6b89_b.jpg","small_url":"https://perenual.com/storage/species_image/2781_eranthis_hyemalis/small/51887104946_37600c6b89_b.jpg","thumbnail":"https://perenual.com/storage/species_image/2781_eranthis_hyemalis/thumbnail/51887104946_37600c6b89_b.jpg"}},{"id":2782,"common_name":"winter aconite","scientific_name":["Eranthis hyemalis (Cilicica Group)"],"other_name":null,"cycle":"Perennial","watering":"Average","sunlight":["Full sun","part shade"],"default_image":{"image_id":9,"license":5,"license_name":"Attribution-ShareAlike License","license_url":"https://creativecommons.org/licenses/by-sa/2.0/","original_url":"https://perenual.com/storage/species_image/2_abies_alba_pyramidalis/og/49255769768_df55596553_b.jpg","regular_url":"https://perenual.com/storage/species_image/2_abies_alba_pyramidalis/regular/49255769768_df55596553_b.jpg","medium_url":"https://perenual.com/storage/species_image/2_abies_alba_pyramidalis/medium/49255769768_df55596553_b.jpg","small_url":"https://perenual.com/storage/species_image/2_abies_alba_pyramidalis/small/49255769768_df55596553_b.jpg","thumbnail":"https://perenual.com/storage/species_image/2_abies_alba_pyramidalis/thumbnail/49255769768_df55596553_b.jpg"}},{"id":2783,"common_name":"foxtail lily","scientific_name":["Eremurus himalaicus"],"other_name":null,"cycle":"Perennial","watering":"Average","sunlight":["Full sun"],"default_image":{"image_id":9,"license":5,"license_name":"Attribution-ShareAlike License","license_url":"https://creativecommons.org/licenses/by-sa/2.0/","original_url":"https://perenual.com/storage/species_image/2_abies_alba_pyramidalis/og/49255769768_df55596553_b.jpg","regular_url":"https://perenual.com/storage/species_image/2_abies_alba_pyramidalis/regular/49255769768_df55596553_b.jpg","medium_url":"https://perenual.com/storage/species_image/2_abies_alba_pyramidalis/medium/49255769768_df55596553_b.jpg","small_url":"https://perenual.com/storage/species_image/2_abies_alba_pyramidalis/small/49255769768_df55596553_b.jpg","thumbnail":"https://perenual.com/storage/species_image/2_abies_alba_pyramidalis/thumbnail/49255769768_df55596553_b.jpg"}},{"id":2784,"common_name":"foxtail lily","scientific_name":["Eremurus isabellinus (Shelford Hybrids)"],"other_name":null,"cycle":"Perennial","watering":"Average","sunlight":["Full sun"],"default_image":{"image_id":6082,"license":5,"license_name":"Attribution-ShareAlike License","license_url":"https://creativecommons.org/licenses/by-sa/2.0/","original_url":"https://perenual.com/storage/species_image/2784_eremurus_isabellinus_shelford_hybrids/og/14429495965_70a9c8c4aa_b.jpg","regular_url":"https://perenual.com/storage/species_image/2784_eremurus_isabellinus_shelford_hybrids/regular/14429495965_70a9c8c4aa_b.jpg","medium_url":"https://perenual.com/storage/species_image/2784_eremurus_isabellinus_shelford_hybrids/medium/14429495965_70a9c8c4aa_b.jpg","small_url":"https://perenual.com/storage/species_image/2784_eremurus_isabellinus_shelford_hybrids/small/14429495965_70a9c8c4aa_b.jpg","thumbnail":"https://perenual.com/storage/species_image/2784_eremurus_isabellinus_shelford_hybrids/thumbnail/14429495965_70a9c8c4aa_b.jpg"}},{"id":2785,"common_name":"giant desert candle","scientific_name":["Eremurus robustus"],"other_name":null,"cycle":"Perennial","watering":"Average","sunlight":["Full sun"],"default_image":{"image_id":9,"license":5,"license_name":"Attribution-ShareAlike License","license_url":"https://creativecommons.org/licenses/by-sa/2.0/","original_url":"https://perenual.com/storage/species_image/2_abies_alba_pyramidalis/og/49255769768_df55596553_b.jpg","regular_url":"https://perenual.com/storage/species_image/2_abies_alba_pyramidalis/regular/49255769768_df55596553_b.jpg","medium_url":"https://perenual.com/storage/species_image/2_abies_alba_pyramidalis/medium/49255769768_df55596553_b.jpg","small_url":"https://perenual.com/storage/species_image/2_abies_alba_pyramidalis/small/49255769768_df55596553_b.jpg","thumbnail":"https://perenual.com/storage/species_image/2_abies_alba_pyramidalis/thumbnail/49255769768_df55596553_b.jpg"}},{"id":2786,"common_name":"silver plume grass","scientific_name":["Erianthus alopecuroides"],"other_name":null,"cycle":"Perennial","watering":"Minimum","sunlight":["Full sun","part shade"],"default_image":{"image_id":6084,"license":5,"license_name":"Attribution-ShareAlike License","license_url":"https://creativecommons.org/licenses/by-sa/2.0/","original_url":"https://perenual.com/storage/species_image/2786_erianthus_alopecuroides/og/52494667621_6aa3afc10d_b.jpg","regular_url":"https://perenual.com/storage/species_image/2786_erianthus_alopecuroides/regular/52494667621_6aa3afc10d_b.jpg","medium_url":"https://perenual.com/storage/species_image/2786_erianthus_alopecuroides/medium/52494667621_6aa3afc10d_b.jpg","small_url":"https://perenual.com/storage/species_image/2786_erianthus_alopecuroides/small/52494667621_6aa3afc10d_b.jpg","thumbnail":"https://perenual.com/storage/species_image/2786_erianthus_alopecuroides/thumbnail/52494667621_6aa3afc10d_b.jpg"}},{"id":2787,"common_name":"tree heath","scientific_name":["Erica arborea"],"other_name":null,"cycle":"Perennial","watering":"Average","sunlight":["Full sun","part shade"],"default_image":{"image_id":9,"license":5,"license_name":"Attribution-ShareAlike License","license_url":"https://creativecommons.org/licenses/by-sa/2.0/","original_url":"https://perenual.com/storage/species_image/2_abies_alba_pyramidalis/og/49255769768_df55596553_b.jpg","regular_url":"https://perenual.com/storage/species_image/2_abies_alba_pyramidalis/regular/49255769768_df55596553_b.jpg","medium_url":"https://perenual.com/storage/species_image/2_abies_alba_pyramidalis/medium/49255769768_df55596553_b.jpg","small_url":"https://perenual.com/storage/species_image/2_abies_alba_pyramidalis/small/49255769768_df55596553_b.jpg","thumbnail":"https://perenual.com/storage/species_image/2_abies_alba_pyramidalis/thumbnail/49255769768_df55596553_b.jpg"}},{"id":2788,"common_name":"rubber rabbitbrush","scientific_name":["Ericameria nauseosa"],"other_name":null,"cycle":"Perennial","watering":"Minimum","sunlight":["Full sun"],"default_image":{"image_id":6086,"license":4,"license_name":"Attribution License","license_url":"https://creativecommons.org/licenses/by/2.0/","original_url":"https://perenual.com/storage/species_image/2788_ericameria_nauseosa/og/51598503775_b4d12c05da_b.jpg","regular_url":"https://perenual.com/storage/species_image/2788_ericameria_nauseosa/regular/51598503775_b4d12c05da_b.jpg","medium_url":"https://perenual.com/storage/species_image/2788_ericameria_nauseosa/medium/51598503775_b4d12c05da_b.jpg","small_url":"https://perenual.com/storage/species_image/2788_ericameria_nauseosa/small/51598503775_b4d12c05da_b.jpg","thumbnail":"https://perenual.com/storage/species_image/2788_ericameria_nauseosa/thumbnail/51598503775_b4d12c05da_b.jpg"}},{"id":2789,"common_name":"fleabane","scientific_name":["Erigeron 'Azurfee' AZURE FAIRY"],"other_name":null,"cycle":"Perennial","watering":"Minimum","sunlight":["Full sun"],"default_image":{"image_id":9,"license":5,"license_name":"Attribution-ShareAlike License","license_url":"https://creativecommons.org/licenses/by-sa/2.0/","original_url":"https://perenual.com/storage/species_image/2_abies_alba_pyramidalis/og/49255769768_df55596553_b.jpg","regular_url":"https://perenual.com/storage/species_image/2_abies_alba_pyramidalis/regular/49255769768_df55596553_b.jpg","medium_url":"https://perenual.com/storage/species_image/2_abies_alba_pyramidalis/medium/49255769768_df55596553_b.jpg","small_url":"https://perenual.com/storage/species_image/2_abies_alba_pyramidalis/small/49255769768_df55596553_b.jpg","thumbnail":"https://perenual.com/storage/species_image/2_abies_alba_pyramidalis/thumbnail/49255769768_df55596553_b.jpg"}},{"id":2790,"common_name":"daisy fleabane","scientific_name":["Erigeron 'Dunkelste Aller' DARKEST OF ALL"],"other_name":null,"cycle":"Perennial","watering":"Minimum","sunlight":["Full sun"],"default_image":{"image_id":9,"license":5,"license_name":"Attribution-ShareAlike License","license_url":"https://creativecommons.org/licenses/by-sa/2.0/","original_url":"https://perenual.com/storage/species_image/2_abies_alba_pyramidalis/og/49255769768_df55596553_b.jpg","regular_url":"https://perenual.com/storage/species_image/2_abies_alba_pyramidalis/regular/49255769768_df55596553_b.jpg","medium_url":"https://perenual.com/storage/species_image/2_abies_alba_pyramidalis/medium/49255769768_df55596553_b.jpg","small_url":"https://perenual.com/storage/species_image/2_abies_alba_pyramidalis/small/49255769768_df55596553_b.jpg","thumbnail":"https://perenual.com/storage/species_image/2_abies_alba_pyramidalis/thumbnail/49255769768_df55596553_b.jpg"}}],"to":2790,"per_page":30,"current_page":93,"from":2761,"last_page":200,"total":6000}