{"data":[{"id":3751,"common_name":"coral bells","scientific_name":["Heuchera 'Velvet Night'"],"other_name":null,"cycle":"Perennial","watering":"Average","sunlight":["Full sun","part shade"],"default_image":{"image_id":7521,"license":5,"license_name":"Attribution-ShareAlike License","license_url":"https://creativecommons.org/licenses/by-sa/2.0/","original_url":"https://perenual.com/storage/species_image/3752_heuchera_vesuvius/og/52334767830_64b85b2d5e_b.jpg","regular_url":"https://perenual.com/storage/species_image/3752_heuchera_vesuvius/regular/52334767830_64b85b2d5e_b.jpg","medium_url":"https://perenual.com/storage/species_image/3752_heuchera_vesuvius/medium/52334767830_64b85b2d5e_b.jpg","small_url":"https://perenual.com/storage/species_image/3752_heuchera_vesuvius/small/52334767830_64b85b2d5e_b.jpg","thumbnail":"https://perenual.com/storage/species_image/3752_heuchera_vesuvius/thumbnail/52334767830_64b85b2d5e_b.jpg"}},{"id":3752,"common_name":"coral bells","scientific_name":["Heuchera 'Vesuvius'"],"other_name":null,"cycle":"Perennial","watering":"Average","sunlight":["Full sun","part shade"],"default_image":{"image_id":7521,"license":5,"license_name":"Attribution-ShareAlike License","license_url":"https://creativecommons.org/licenses/by-sa/2.0/","original_url":"https://perenual.com/storage/species_image/3752_heuchera_vesuvius/og/52334767830_64b85b2d5e_b.jpg","regular_url":"https://perenual.com/storage/species_image/3752_heuchera_vesuvius/regular/52334767830_64b85b2d5e_b.jpg","medium_url":"https://perenual.com/storage/species_image/3752_heuchera_vesuvius/medium/52334767830_64b85b2d5e_b.jpg","small_url":"https://perenual.com/storage/species_image/3752_heuchera_vesuvius/small/52334767830_64b85b2d5e_b.jpg","thumbnail":"https://perenual.com/storage/species_image/3752_heuchera_vesuvius/thumbnail/52334767830_64b85b2d5e_b.jpg"}},{"id":3753,"common_name":"hairy alum root","scientific_name":["Heuchera villosa"],"other_name":null,"cycle":"Perennial","watering":"Average","sunlight":["Full sun","part shade"],"default_image":{"image_id":7636,"license":5,"license_name":"Attribution-ShareAlike License","license_url":"https://creativecommons.org/licenses/by-sa/2.0/","original_url":"https://perenual.com/storage/species_image/3753_heuchera_villosa/og/51498486390_bb9c555012_b.jpg","regular_url":"https://perenual.com/storage/species_image/3753_heuchera_villosa/regular/51498486390_bb9c555012_b.jpg","medium_url":"https://perenual.com/storage/species_image/3753_heuchera_villosa/medium/51498486390_bb9c555012_b.jpg","small_url":"https://perenual.com/storage/species_image/3753_heuchera_villosa/small/51498486390_bb9c555012_b.jpg","thumbnail":"https://perenual.com/storage/species_image/3753_heuchera_villosa/thumbnail/51498486390_bb9c555012_b.jpg"}},{"id":3754,"common_name":"hairy alum root","scientific_name":["Heuchera villosa 'Autumn Bride'"],"other_name":null,"cycle":"Perennial","watering":"Average","sunlight":["Full sun","part shade"],"default_image":{"image_id":7645,"license":4,"license_name":"Attribution License","license_url":"https://creativecommons.org/licenses/by/2.0/","original_url":"https://perenual.com/storage/species_image/3754_heuchera_villosa_autumn_bride/og/22252690512_bd424b831d_b.jpg","regular_url":"https://perenual.com/storage/species_image/3754_heuchera_villosa_autumn_bride/regular/22252690512_bd424b831d_b.jpg","medium_url":"https://perenual.com/storage/species_image/3754_heuchera_villosa_autumn_bride/medium/22252690512_bd424b831d_b.jpg","small_url":"https://perenual.com/storage/species_image/3754_heuchera_villosa_autumn_bride/small/22252690512_bd424b831d_b.jpg","thumbnail":"https://perenual.com/storage/species_image/3754_heuchera_villosa_autumn_bride/thumbnail/22252690512_bd424b831d_b.jpg"}},{"id":3755,"common_name":"hairy alum root","scientific_name":["Heuchera villosa 'Brownies'"],"other_name":null,"cycle":"Perennial","watering":"Average","sunlight":["Full sun","part shade"],"default_image":{"image_id":7651,"license":5,"license_name":"Attribution-ShareAlike License","license_url":"https://creativecommons.org/licenses/by-sa/2.0/","original_url":"https://perenual.com/storage/species_image/3755_heuchera_villosa_brownies/og/20073079218_821ceaa9f9_b.jpg","regular_url":"https://perenual.com/storage/species_image/3755_heuchera_villosa_brownies/regular/20073079218_821ceaa9f9_b.jpg","medium_url":"https://perenual.com/storage/species_image/3755_heuchera_villosa_brownies/medium/20073079218_821ceaa9f9_b.jpg","small_url":"https://perenual.com/storage/species_image/3755_heuchera_villosa_brownies/small/20073079218_821ceaa9f9_b.jpg","thumbnail":"https://perenual.com/storage/species_image/3755_heuchera_villosa_brownies/thumbnail/20073079218_821ceaa9f9_b.jpg"}},{"id":3756,"common_name":"hairy alum root","scientific_name":["Heuchera villosa 'Chantilly'"],"other_name":null,"cycle":"Perennial","watering":"Average","sunlight":["Full sun","part shade"],"default_image":{"image_id":9,"license":5,"license_name":"Attribution-ShareAlike License","license_url":"https://creativecommons.org/licenses/by-sa/2.0/","original_url":"https://perenual.com/storage/species_image/2_abies_alba_pyramidalis/og/49255769768_df55596553_b.jpg","regular_url":"https://perenual.com/storage/species_image/2_abies_alba_pyramidalis/regular/49255769768_df55596553_b.jpg","medium_url":"https://perenual.com/storage/species_image/2_abies_alba_pyramidalis/medium/49255769768_df55596553_b.jpg","small_url":"https://perenual.com/storage/species_image/2_abies_alba_pyramidalis/small/49255769768_df55596553_b.jpg","thumbnail":"https://perenual.com/storage/species_image/2_abies_alba_pyramidalis/thumbnail/49255769768_df55596553_b.jpg"}},{"id":3757,"common_name":"hairy alum root","scientific_name":["Heuchera villosa 'Purpurea'"],"other_name":null,"cycle":"Perennial","watering":"Average","sunlight":["Full sun","part shade"],"default_image":{"image_id":9,"license":5,"license_name":"Attribution-ShareAlike License","license_url":"https://creativecommons.org/licenses/by-sa/2.0/","original_url":"https://perenual.com/storage/species_image/2_abies_alba_pyramidalis/og/49255769768_df55596553_b.jpg","regular_url":"https://perenual.com/storage/species_image/2_abies_alba_pyramidalis/regular/49255769768_df55596553_b.jpg","medium_url":"https://perenual.com/storage/species_image/2_abies_alba_pyramidalis/medium/49255769768_df55596553_b.jpg","small_url":"https://perenual.com/storage/species_image/2_abies_alba_pyramidalis/small/49255769768_df55596553_b.jpg","thumbnail":"https://perenual.com/storage/species_image/2_abies_alba_pyramidalis/thumbnail/49255769768_df55596553_b.jpg"}},{"id":3758,"common_name":"hardy hibiscus","scientific_name":["Hibiscus '100 Degrees'"],"other_name":null,"cycle":"Perennial","watering":"Frequent","sunlight":["Full sun"],"default_image":{"image_id":7657,"license":4,"license_name":"Attribution License","license_url":"https://creativecommons.org/licenses/by/2.0/","original_url":"https://perenual.com/storage/species_image/3805_hibiscus_summer_storm/og/49553254326_4a8df5a3fd_b.jpg","regular_url":"https://perenual.com/storage/species_image/3805_hibiscus_summer_storm/regular/49553254326_4a8df5a3fd_b.jpg","medium_url":"https://perenual.com/storage/species_image/3805_hibiscus_summer_storm/medium/49553254326_4a8df5a3fd_b.jpg","small_url":"https://perenual.com/storage/species_image/3805_hibiscus_summer_storm/small/49553254326_4a8df5a3fd_b.jpg","thumbnail":"https://perenual.com/storage/species_image/3805_hibiscus_summer_storm/thumbnail/49553254326_4a8df5a3fd_b.jpg"}},{"id":3759,"common_name":"hardy hibiscus","scientific_name":["Hibiscus 'Anne Arundel'"],"other_name":null,"cycle":"Perennial","watering":"Frequent","sunlight":["Full sun"],"default_image":{"image_id":9,"license":5,"license_name":"Attribution-ShareAlike License","license_url":"https://creativecommons.org/licenses/by-sa/2.0/","original_url":"https://perenual.com/storage/species_image/2_abies_alba_pyramidalis/og/49255769768_df55596553_b.jpg","regular_url":"https://perenual.com/storage/species_image/2_abies_alba_pyramidalis/regular/49255769768_df55596553_b.jpg","medium_url":"https://perenual.com/storage/species_image/2_abies_alba_pyramidalis/medium/49255769768_df55596553_b.jpg","small_url":"https://perenual.com/storage/species_image/2_abies_alba_pyramidalis/small/49255769768_df55596553_b.jpg","thumbnail":"https://perenual.com/storage/species_image/2_abies_alba_pyramidalis/thumbnail/49255769768_df55596553_b.jpg"}},{"id":3760,"common_name":"hardy hibiscus","scientific_name":["Hibiscus 'Annie J. Hemming'"],"other_name":null,"cycle":"Perennial","watering":"Frequent","sunlight":["Full sun"],"default_image":{"image_id":9,"license":5,"license_name":"Attribution-ShareAlike License","license_url":"https://creativecommons.org/licenses/by-sa/2.0/","original_url":"https://perenual.com/storage/species_image/2_abies_alba_pyramidalis/og/49255769768_df55596553_b.jpg","regular_url":"https://perenual.com/storage/species_image/2_abies_alba_pyramidalis/regular/49255769768_df55596553_b.jpg","medium_url":"https://perenual.com/storage/species_image/2_abies_alba_pyramidalis/medium/49255769768_df55596553_b.jpg","small_url":"https://perenual.com/storage/species_image/2_abies_alba_pyramidalis/small/49255769768_df55596553_b.jpg","thumbnail":"https://perenual.com/storage/species_image/2_abies_alba_pyramidalis/thumbnail/49255769768_df55596553_b.jpg"}},{"id":3761,"common_name":"hardy hibiscus","scientific_name":["Hibiscus 'Blue River II'"],"other_name":null,"cycle":"Perennial","watering":"Frequent","sunlight":["Full sun"],"default_image":{"image_id":9,"license":5,"license_name":"Attribution-ShareAlike License","license_url":"https://creativecommons.org/licenses/by-sa/2.0/","original_url":"https://perenual.com/storage/species_image/2_abies_alba_pyramidalis/og/49255769768_df55596553_b.jpg","regular_url":"https://perenual.com/storage/species_image/2_abies_alba_pyramidalis/regular/49255769768_df55596553_b.jpg","medium_url":"https://perenual.com/storage/species_image/2_abies_alba_pyramidalis/medium/49255769768_df55596553_b.jpg","small_url":"https://perenual.com/storage/species_image/2_abies_alba_pyramidalis/small/49255769768_df55596553_b.jpg","thumbnail":"https://perenual.com/storage/species_image/2_abies_alba_pyramidalis/thumbnail/49255769768_df55596553_b.jpg"}},{"id":3762,"common_name":"hardy hibiscus","scientific_name":["Hibiscus 'Brandy Punch'"],"other_name":null,"cycle":"Perennial","watering":"Frequent","sunlight":["Full sun"],"default_image":{"image_id":9,"license":5,"license_name":"Attribution-ShareAlike License","license_url":"https://creativecommons.org/licenses/by-sa/2.0/","original_url":"https://perenual.com/storage/species_image/2_abies_alba_pyramidalis/og/49255769768_df55596553_b.jpg","regular_url":"https://perenual.com/storage/species_image/2_abies_alba_pyramidalis/regular/49255769768_df55596553_b.jpg","medium_url":"https://perenual.com/storage/species_image/2_abies_alba_pyramidalis/medium/49255769768_df55596553_b.jpg","small_url":"https://perenual.com/storage/species_image/2_abies_alba_pyramidalis/small/49255769768_df55596553_b.jpg","thumbnail":"https://perenual.com/storage/species_image/2_abies_alba_pyramidalis/thumbnail/49255769768_df55596553_b.jpg"}},{"id":3763,"common_name":"hardy hibiscus","scientific_name":["Hibiscus 'Candy Stripe'"],"other_name":null,"cycle":"Perennial","watering":"Frequent","sunlight":["Full sun"],"default_image":{"image_id":9,"license":5,"license_name":"Attribution-ShareAlike License","license_url":"https://creativecommons.org/licenses/by-sa/2.0/","original_url":"https://perenual.com/storage/species_image/2_abies_alba_pyramidalis/og/49255769768_df55596553_b.jpg","regular_url":"https://perenual.com/storage/species_image/2_abies_alba_pyramidalis/regular/49255769768_df55596553_b.jpg","medium_url":"https://perenual.com/storage/species_image/2_abies_alba_pyramidalis/medium/49255769768_df55596553_b.jpg","small_url":"https://perenual.com/storage/species_image/2_abies_alba_pyramidalis/small/49255769768_df55596553_b.jpg","thumbnail":"https://perenual.com/storage/species_image/2_abies_alba_pyramidalis/thumbnail/49255769768_df55596553_b.jpg"}},{"id":3764,"common_name":"hardy hibiscus","scientific_name":["Hibiscus 'Cherry Cheesecake'"],"other_name":null,"cycle":"Perennial","watering":"Frequent","sunlight":["Full sun"],"default_image":{"image_id":9,"license":5,"license_name":"Attribution-ShareAlike License","license_url":"https://creativecommons.org/licenses/by-sa/2.0/","original_url":"https://perenual.com/storage/species_image/2_abies_alba_pyramidalis/og/49255769768_df55596553_b.jpg","regular_url":"https://perenual.com/storage/species_image/2_abies_alba_pyramidalis/regular/49255769768_df55596553_b.jpg","medium_url":"https://perenual.com/storage/species_image/2_abies_alba_pyramidalis/medium/49255769768_df55596553_b.jpg","small_url":"https://perenual.com/storage/species_image/2_abies_alba_pyramidalis/small/49255769768_df55596553_b.jpg","thumbnail":"https://perenual.com/storage/species_image/2_abies_alba_pyramidalis/thumbnail/49255769768_df55596553_b.jpg"}},{"id":3765,"common_name":"hardy hibiscus","scientific_name":["Hibiscus 'Clown'"],"other_name":null,"cycle":"Perennial","watering":"Frequent","sunlight":["Full sun"],"default_image":{"image_id":9,"license":5,"license_name":"Attribution-ShareAlike License","license_url":"https://creativecommons.org/licenses/by-sa/2.0/","original_url":"https://perenual.com/storage/species_image/2_abies_alba_pyramidalis/og/49255769768_df55596553_b.jpg","regular_url":"https://perenual.com/storage/species_image/2_abies_alba_pyramidalis/regular/49255769768_df55596553_b.jpg","medium_url":"https://perenual.com/storage/species_image/2_abies_alba_pyramidalis/medium/49255769768_df55596553_b.jpg","small_url":"https://perenual.com/storage/species_image/2_abies_alba_pyramidalis/small/49255769768_df55596553_b.jpg","thumbnail":"https://perenual.com/storage/species_image/2_abies_alba_pyramidalis/thumbnail/49255769768_df55596553_b.jpg"}},{"id":3766,"common_name":"scarlet rose mallow","scientific_name":["Hibiscus coccineus"],"other_name":null,"cycle":"Perennial","watering":"Frequent","sunlight":["Full sun","part shade"],"default_image":{"image_id":7663,"license":5,"license_name":"Attribution-ShareAlike License","license_url":"https://creativecommons.org/licenses/by-sa/2.0/","original_url":"https://perenual.com/storage/species_image/3766_hibiscus_coccineus/og/52388111073_9f00c6a876_b.jpg","regular_url":"https://perenual.com/storage/species_image/3766_hibiscus_coccineus/regular/52388111073_9f00c6a876_b.jpg","medium_url":"https://perenual.com/storage/species_image/3766_hibiscus_coccineus/medium/52388111073_9f00c6a876_b.jpg","small_url":"https://perenual.com/storage/species_image/3766_hibiscus_coccineus/small/52388111073_9f00c6a876_b.jpg","thumbnail":"https://perenual.com/storage/species_image/3766_hibiscus_coccineus/thumbnail/52388111073_9f00c6a876_b.jpg"}},{"id":3767,"common_name":"hardy hibiscus","scientific_name":["Hibiscus 'Cranberry Crush'"],"other_name":null,"cycle":"Perennial","watering":"Frequent","sunlight":["Full sun"],"default_image":{"image_id":9,"license":5,"license_name":"Attribution-ShareAlike License","license_url":"https://creativecommons.org/licenses/by-sa/2.0/","original_url":"https://perenual.com/storage/species_image/2_abies_alba_pyramidalis/og/49255769768_df55596553_b.jpg","regular_url":"https://perenual.com/storage/species_image/2_abies_alba_pyramidalis/regular/49255769768_df55596553_b.jpg","medium_url":"https://perenual.com/storage/species_image/2_abies_alba_pyramidalis/medium/49255769768_df55596553_b.jpg","small_url":"https://perenual.com/storage/species_image/2_abies_alba_pyramidalis/small/49255769768_df55596553_b.jpg","thumbnail":"https://perenual.com/storage/species_image/2_abies_alba_pyramidalis/thumbnail/49255769768_df55596553_b.jpg"}},{"id":3768,"common_name":"Neches River rosemallow","scientific_name":["Hibiscus dasycalyx"],"other_name":null,"cycle":"Perennial","watering":"Frequent","sunlight":["Full sun"],"default_image":{"image_id":9,"license":5,"license_name":"Attribution-ShareAlike License","license_url":"https://creativecommons.org/licenses/by-sa/2.0/","original_url":"https://perenual.com/storage/species_image/2_abies_alba_pyramidalis/og/49255769768_df55596553_b.jpg","regular_url":"https://perenual.com/storage/species_image/2_abies_alba_pyramidalis/regular/49255769768_df55596553_b.jpg","medium_url":"https://perenual.com/storage/species_image/2_abies_alba_pyramidalis/medium/49255769768_df55596553_b.jpg","small_url":"https://perenual.com/storage/species_image/2_abies_alba_pyramidalis/small/49255769768_df55596553_b.jpg","thumbnail":"https://perenual.com/storage/species_image/2_abies_alba_pyramidalis/thumbnail/49255769768_df55596553_b.jpg"}},{"id":3769,"common_name":"hardy hibiscus","scientific_name":["Hibiscus 'Draped Lady'"],"other_name":null,"cycle":"Perennial","watering":"Frequent","sunlight":["Full sun"],"default_image":{"image_id":7671,"license":5,"license_name":"Attribution-ShareAlike License","license_url":"https://creativecommons.org/licenses/by-sa/2.0/","original_url":"https://perenual.com/storage/species_image/8612_hibiscus_moscheutos_incl_hybrid_cvs/og/52283754086_9113d20d97_b.jpg","regular_url":"https://perenual.com/storage/species_image/8612_hibiscus_moscheutos_incl_hybrid_cvs/regular/52283754086_9113d20d97_b.jpg","medium_url":"https://perenual.com/storage/species_image/8612_hibiscus_moscheutos_incl_hybrid_cvs/medium/52283754086_9113d20d97_b.jpg","small_url":"https://perenual.com/storage/species_image/8612_hibiscus_moscheutos_incl_hybrid_cvs/small/52283754086_9113d20d97_b.jpg","thumbnail":"https://perenual.com/storage/species_image/8612_hibiscus_moscheutos_incl_hybrid_cvs/thumbnail/52283754086_9113d20d97_b.jpg"}},{"id":3770,"common_name":"hardy hibiscus","scientific_name":["Hibiscus 'Etna Pink'"],"other_name":null,"cycle":"Perennial","watering":"Frequent","sunlight":["Full sun"],"default_image":{"image_id":7672,"license":5,"license_name":"Attribution-ShareAlike License","license_url":"https://creativecommons.org/licenses/by-sa/2.0/","original_url":"https://perenual.com/storage/species_image/3770_hibiscus_etna_pink/og/52282774002_c7c922476e_b.jpg","regular_url":"https://perenual.com/storage/species_image/3770_hibiscus_etna_pink/regular/52282774002_c7c922476e_b.jpg","medium_url":"https://perenual.com/storage/species_image/3770_hibiscus_etna_pink/medium/52282774002_c7c922476e_b.jpg","small_url":"https://perenual.com/storage/species_image/3770_hibiscus_etna_pink/small/52282774002_c7c922476e_b.jpg","thumbnail":"https://perenual.com/storage/species_image/3770_hibiscus_etna_pink/thumbnail/52282774002_c7c922476e_b.jpg"}},{"id":3771,"common_name":"common rose mallow","scientific_name":["Hibiscus 'Everest White'"],"other_name":null,"cycle":"Perennial","watering":"Frequent","sunlight":["Full sun"],"default_image":{"image_id":9,"license":5,"license_name":"Attribution-ShareAlike License","license_url":"https://creativecommons.org/licenses/by-sa/2.0/","original_url":"https://perenual.com/storage/species_image/2_abies_alba_pyramidalis/og/49255769768_df55596553_b.jpg","regular_url":"https://perenual.com/storage/species_image/2_abies_alba_pyramidalis/regular/49255769768_df55596553_b.jpg","medium_url":"https://perenual.com/storage/species_image/2_abies_alba_pyramidalis/medium/49255769768_df55596553_b.jpg","small_url":"https://perenual.com/storage/species_image/2_abies_alba_pyramidalis/small/49255769768_df55596553_b.jpg","thumbnail":"https://perenual.com/storage/species_image/2_abies_alba_pyramidalis/thumbnail/49255769768_df55596553_b.jpg"}},{"id":3772,"common_name":"hardy hibiscus","scientific_name":["Hibiscus 'Fantasia'"],"other_name":null,"cycle":"Perennial","watering":"Frequent","sunlight":["Full sun"],"default_image":{"image_id":9,"license":5,"license_name":"Attribution-ShareAlike License","license_url":"https://creativecommons.org/licenses/by-sa/2.0/","original_url":"https://perenual.com/storage/species_image/2_abies_alba_pyramidalis/og/49255769768_df55596553_b.jpg","regular_url":"https://perenual.com/storage/species_image/2_abies_alba_pyramidalis/regular/49255769768_df55596553_b.jpg","medium_url":"https://perenual.com/storage/species_image/2_abies_alba_pyramidalis/medium/49255769768_df55596553_b.jpg","small_url":"https://perenual.com/storage/species_image/2_abies_alba_pyramidalis/small/49255769768_df55596553_b.jpg","thumbnail":"https://perenual.com/storage/species_image/2_abies_alba_pyramidalis/thumbnail/49255769768_df55596553_b.jpg"}},{"id":3773,"common_name":"hibiscus","scientific_name":["Hibiscus 'Giant Maroon'"],"other_name":null,"cycle":"Perennial","watering":"Frequent","sunlight":["Full sun"],"default_image":null},{"id":3774,"common_name":"hardy hibiscus","scientific_name":["Hibiscus 'Kopper King'"],"other_name":null,"cycle":"Perennial","watering":"Frequent","sunlight":["Full sun"],"default_image":{"image_id":7679,"license":4,"license_name":"Attribution License","license_url":"https://creativecommons.org/licenses/by/2.0/","original_url":"https://perenual.com/storage/species_image/3774_hibiscus_kopper_king/og/22105530525_ed5f9e5100_b.jpg","regular_url":"https://perenual.com/storage/species_image/3774_hibiscus_kopper_king/regular/22105530525_ed5f9e5100_b.jpg","medium_url":"https://perenual.com/storage/species_image/3774_hibiscus_kopper_king/medium/22105530525_ed5f9e5100_b.jpg","small_url":"https://perenual.com/storage/species_image/3774_hibiscus_kopper_king/small/22105530525_ed5f9e5100_b.jpg","thumbnail":"https://perenual.com/storage/species_image/3774_hibiscus_kopper_king/thumbnail/22105530525_ed5f9e5100_b.jpg"}},{"id":3775,"common_name":"rose mallow","scientific_name":["Hibiscus laevis"],"other_name":null,"cycle":"Perennial","watering":"Frequent","sunlight":["Full sun"],"default_image":{"image_id":7681,"license":4,"license_name":"Attribution License","license_url":"https://creativecommons.org/licenses/by/2.0/","original_url":"https://perenual.com/storage/species_image/3775_hibiscus_laevis/og/19274353164_d7750a8bfc_b.jpg","regular_url":"https://perenual.com/storage/species_image/3775_hibiscus_laevis/regular/19274353164_d7750a8bfc_b.jpg","medium_url":"https://perenual.com/storage/species_image/3775_hibiscus_laevis/medium/19274353164_d7750a8bfc_b.jpg","small_url":"https://perenual.com/storage/species_image/3775_hibiscus_laevis/small/19274353164_d7750a8bfc_b.jpg","thumbnail":"https://perenual.com/storage/species_image/3775_hibiscus_laevis/thumbnail/19274353164_d7750a8bfc_b.jpg"}},{"id":3776,"common_name":"rose mallow","scientific_name":["Hibiscus lasiocarpos"],"other_name":null,"cycle":"Perennial","watering":"Frequent","sunlight":["Full sun"],"default_image":{"image_id":7684,"license":4,"license_name":"Attribution License","license_url":"https://creativecommons.org/licenses/by/2.0/","original_url":"https://perenual.com/storage/species_image/3776_hibiscus_lasiocarpos/og/36775506932_0d6051f038_b.jpg","regular_url":"https://perenual.com/storage/species_image/3776_hibiscus_lasiocarpos/regular/36775506932_0d6051f038_b.jpg","medium_url":"https://perenual.com/storage/species_image/3776_hibiscus_lasiocarpos/medium/36775506932_0d6051f038_b.jpg","small_url":"https://perenual.com/storage/species_image/3776_hibiscus_lasiocarpos/small/36775506932_0d6051f038_b.jpg","thumbnail":"https://perenual.com/storage/species_image/3776_hibiscus_lasiocarpos/thumbnail/36775506932_0d6051f038_b.jpg"}},{"id":3777,"common_name":"hardy hibiscus","scientific_name":["Hibiscus 'Lester Riegel'"],"other_name":null,"cycle":"Perennial","watering":"Frequent","sunlight":["Full sun"],"default_image":{"image_id":7671,"license":5,"license_name":"Attribution-ShareAlike License","license_url":"https://creativecommons.org/licenses/by-sa/2.0/","original_url":"https://perenual.com/storage/species_image/8612_hibiscus_moscheutos_incl_hybrid_cvs/og/52283754086_9113d20d97_b.jpg","regular_url":"https://perenual.com/storage/species_image/8612_hibiscus_moscheutos_incl_hybrid_cvs/regular/52283754086_9113d20d97_b.jpg","medium_url":"https://perenual.com/storage/species_image/8612_hibiscus_moscheutos_incl_hybrid_cvs/medium/52283754086_9113d20d97_b.jpg","small_url":"https://perenual.com/storage/species_image/8612_hibiscus_moscheutos_incl_hybrid_cvs/small/52283754086_9113d20d97_b.jpg","thumbnail":"https://perenual.com/storage/species_image/8612_hibiscus_moscheutos_incl_hybrid_cvs/thumbnail/52283754086_9113d20d97_b.jpg"}},{"id":3778,"common_name":"hibiscus","scientific_name":["Hibiscus 'Lilikoi Yellow' LUAU"],"other_name":null,"cycle":"Perennial","watering":"Average","sunlight":["Full sun","part shade"],"default_image":{"image_id":9,"license":5,"license_name":"Attribution-ShareAlike License","license_url":"https://creativecommons.org/licenses/by-sa/2.0/","original_url":"https://perenual.com/storage/species_image/2_abies_alba_pyramidalis/og/49255769768_df55596553_b.jpg","regular_url":"https://perenual.com/storage/species_image/2_abies_alba_pyramidalis/regular/49255769768_df55596553_b.jpg","medium_url":"https://perenual.com/storage/species_image/2_abies_alba_pyramidalis/medium/49255769768_df55596553_b.jpg","small_url":"https://perenual.com/storage/species_image/2_abies_alba_pyramidalis/small/49255769768_df55596553_b.jpg","thumbnail":"https://perenual.com/storage/species_image/2_abies_alba_pyramidalis/thumbnail/49255769768_df55596553_b.jpg"}},{"id":3779,"common_name":"hardy hibiscus","scientific_name":["Hibiscus 'Lord Baltimore'"],"other_name":null,"cycle":"Perennial","watering":"Frequent","sunlight":["Full sun"],"default_image":{"image_id":7687,"license":4,"license_name":"Attribution License","license_url":"https://creativecommons.org/licenses/by/2.0/","original_url":"https://perenual.com/storage/species_image/3779_hibiscus_lord_baltimore/og/35811961920_a09436ee69_b.jpg","regular_url":"https://perenual.com/storage/species_image/3779_hibiscus_lord_baltimore/regular/35811961920_a09436ee69_b.jpg","medium_url":"https://perenual.com/storage/species_image/3779_hibiscus_lord_baltimore/medium/35811961920_a09436ee69_b.jpg","small_url":"https://perenual.com/storage/species_image/3779_hibiscus_lord_baltimore/small/35811961920_a09436ee69_b.jpg","thumbnail":"https://perenual.com/storage/species_image/3779_hibiscus_lord_baltimore/thumbnail/35811961920_a09436ee69_b.jpg"}},{"id":3780,"common_name":"hardy hibiscus","scientific_name":["Hibiscus 'Matterhorn'"],"other_name":null,"cycle":"Perennial","watering":"Frequent","sunlight":["Full sun"],"default_image":{"image_id":7671,"license":5,"license_name":"Attribution-ShareAlike License","license_url":"https://creativecommons.org/licenses/by-sa/2.0/","original_url":"https://perenual.com/storage/species_image/8612_hibiscus_moscheutos_incl_hybrid_cvs/og/52283754086_9113d20d97_b.jpg","regular_url":"https://perenual.com/storage/species_image/8612_hibiscus_moscheutos_incl_hybrid_cvs/regular/52283754086_9113d20d97_b.jpg","medium_url":"https://perenual.com/storage/species_image/8612_hibiscus_moscheutos_incl_hybrid_cvs/medium/52283754086_9113d20d97_b.jpg","small_url":"https://perenual.com/storage/species_image/8612_hibiscus_moscheutos_incl_hybrid_cvs/small/52283754086_9113d20d97_b.jpg","thumbnail":"https://perenual.com/storage/species_image/8612_hibiscus_moscheutos_incl_hybrid_cvs/thumbnail/52283754086_9113d20d97_b.jpg"}}],"to":3780,"per_page":30,"current_page":126,"from":3751,"last_page":200,"total":6000}