{"data":[{"id":5281,"common_name":"blood banana","scientific_name":["Musa acuminata 'Zebrina'"],"other_name":null,"cycle":"Perennial","watering":"Average","sunlight":["Full sun"],"default_image":{"image_id":11152,"license":5,"license_name":"Attribution-ShareAlike License","license_url":"https://creativecommons.org/licenses/by-sa/2.0/","original_url":"https://perenual.com/storage/species_image/5281_musa_acuminata_zebrina/og/28436451843_66a538925f_b.jpg","regular_url":"https://perenual.com/storage/species_image/5281_musa_acuminata_zebrina/regular/28436451843_66a538925f_b.jpg","medium_url":"https://perenual.com/storage/species_image/5281_musa_acuminata_zebrina/medium/28436451843_66a538925f_b.jpg","small_url":"https://perenual.com/storage/species_image/5281_musa_acuminata_zebrina/small/28436451843_66a538925f_b.jpg","thumbnail":"https://perenual.com/storage/species_image/5281_musa_acuminata_zebrina/thumbnail/28436451843_66a538925f_b.jpg"}},{"id":5282,"common_name":"Japanese banana","scientific_name":["Musa basjoo"],"other_name":null,"cycle":"Perennial","watering":"Average","sunlight":["Full sun"],"default_image":{"image_id":11154,"license":4,"license_name":"Attribution License","license_url":"https://creativecommons.org/licenses/by/2.0/","original_url":"https://perenual.com/storage/species_image/5282_musa_basjoo/og/49639151686_0ae07c39dd_b.jpg","regular_url":"https://perenual.com/storage/species_image/5282_musa_basjoo/regular/49639151686_0ae07c39dd_b.jpg","medium_url":"https://perenual.com/storage/species_image/5282_musa_basjoo/medium/49639151686_0ae07c39dd_b.jpg","small_url":"https://perenual.com/storage/species_image/5282_musa_basjoo/small/49639151686_0ae07c39dd_b.jpg","thumbnail":"https://perenual.com/storage/species_image/5282_musa_basjoo/thumbnail/49639151686_0ae07c39dd_b.jpg"}},{"id":5283,"common_name":"flowering banana","scientific_name":["Musa ornata"],"other_name":null,"cycle":"Perennial","watering":"Average","sunlight":["Full sun"],"default_image":{"image_id":11158,"license":5,"license_name":"Attribution-ShareAlike License","license_url":"https://creativecommons.org/licenses/by-sa/2.0/","original_url":"https://perenual.com/storage/species_image/5283_musa_ornata/og/51006263437_61c7b99e73_b.jpg","regular_url":"https://perenual.com/storage/species_image/5283_musa_ornata/regular/51006263437_61c7b99e73_b.jpg","medium_url":"https://perenual.com/storage/species_image/5283_musa_ornata/medium/51006263437_61c7b99e73_b.jpg","small_url":"https://perenual.com/storage/species_image/5283_musa_ornata/small/51006263437_61c7b99e73_b.jpg","thumbnail":"https://perenual.com/storage/species_image/5283_musa_ornata/thumbnail/51006263437_61c7b99e73_b.jpg"}},{"id":5284,"common_name":"banana","scientific_name":["Musa 'Siam Ruby'"],"other_name":null,"cycle":"Perennial","watering":"Average","sunlight":["Full sun"],"default_image":{"image_id":11160,"license":5,"license_name":"Attribution-ShareAlike License","license_url":"https://creativecommons.org/licenses/by-sa/2.0/","original_url":"https://perenual.com/storage/species_image/5284_musa_siam_ruby/og/4941292296_ab8019a1e6_b.jpg","regular_url":"https://perenual.com/storage/species_image/5284_musa_siam_ruby/regular/4941292296_ab8019a1e6_b.jpg","medium_url":"https://perenual.com/storage/species_image/5284_musa_siam_ruby/medium/4941292296_ab8019a1e6_b.jpg","small_url":"https://perenual.com/storage/species_image/5284_musa_siam_ruby/small/4941292296_ab8019a1e6_b.jpg","thumbnail":"https://perenual.com/storage/species_image/5284_musa_siam_ruby/thumbnail/4941292296_ab8019a1e6_b.jpg"}},{"id":5285,"common_name":"grape hyacinth","scientific_name":["Muscari armeniacum"],"other_name":null,"cycle":"Perennial","watering":"Average","sunlight":["Full sun","part shade"],"default_image":{"image_id":11162,"license":4,"license_name":"Attribution License","license_url":"https://creativecommons.org/licenses/by/2.0/","original_url":"https://perenual.com/storage/species_image/5285_muscari_armeniacum/og/51998098270_b1c256b8af_b.jpg","regular_url":"https://perenual.com/storage/species_image/5285_muscari_armeniacum/regular/51998098270_b1c256b8af_b.jpg","medium_url":"https://perenual.com/storage/species_image/5285_muscari_armeniacum/medium/51998098270_b1c256b8af_b.jpg","small_url":"https://perenual.com/storage/species_image/5285_muscari_armeniacum/small/51998098270_b1c256b8af_b.jpg","thumbnail":"https://perenual.com/storage/species_image/5285_muscari_armeniacum/thumbnail/51998098270_b1c256b8af_b.jpg"}},{"id":5286,"common_name":"grape hyacinth","scientific_name":["Muscari armeniacum 'Cantab'"],"other_name":null,"cycle":"Perennial","watering":"Average","sunlight":["Full sun","part shade"],"default_image":{"image_id":11163,"license":4,"license_name":"Attribution License","license_url":"https://creativecommons.org/licenses/by/2.0/","original_url":"https://perenual.com/storage/species_image/5286_muscari_armeniacum_cantab/og/52566826306_05aeef662c_b.jpg","regular_url":"https://perenual.com/storage/species_image/5286_muscari_armeniacum_cantab/regular/52566826306_05aeef662c_b.jpg","medium_url":"https://perenual.com/storage/species_image/5286_muscari_armeniacum_cantab/medium/52566826306_05aeef662c_b.jpg","small_url":"https://perenual.com/storage/species_image/5286_muscari_armeniacum_cantab/small/52566826306_05aeef662c_b.jpg","thumbnail":"https://perenual.com/storage/species_image/5286_muscari_armeniacum_cantab/thumbnail/52566826306_05aeef662c_b.jpg"}},{"id":5287,"common_name":"grape hyacinth","scientific_name":["Muscari armeniacum 'Valerie Finnis'"],"other_name":null,"cycle":"Perennial","watering":"Average","sunlight":["Full sun","part shade"],"default_image":{"image_id":9,"license":5,"license_name":"Attribution-ShareAlike License","license_url":"https://creativecommons.org/licenses/by-sa/2.0/","original_url":"https://perenual.com/storage/species_image/2_abies_alba_pyramidalis/og/49255769768_df55596553_b.jpg","regular_url":"https://perenual.com/storage/species_image/2_abies_alba_pyramidalis/regular/49255769768_df55596553_b.jpg","medium_url":"https://perenual.com/storage/species_image/2_abies_alba_pyramidalis/medium/49255769768_df55596553_b.jpg","small_url":"https://perenual.com/storage/species_image/2_abies_alba_pyramidalis/small/49255769768_df55596553_b.jpg","thumbnail":"https://perenual.com/storage/species_image/2_abies_alba_pyramidalis/thumbnail/49255769768_df55596553_b.jpg"}},{"id":5288,"common_name":"grape hyacinth","scientific_name":["Muscari latifolium"],"other_name":null,"cycle":"Perennial","watering":"Average","sunlight":["Full sun","part shade"],"default_image":{"image_id":9,"license":5,"license_name":"Attribution-ShareAlike License","license_url":"https://creativecommons.org/licenses/by-sa/2.0/","original_url":"https://perenual.com/storage/species_image/2_abies_alba_pyramidalis/og/49255769768_df55596553_b.jpg","regular_url":"https://perenual.com/storage/species_image/2_abies_alba_pyramidalis/regular/49255769768_df55596553_b.jpg","medium_url":"https://perenual.com/storage/species_image/2_abies_alba_pyramidalis/medium/49255769768_df55596553_b.jpg","small_url":"https://perenual.com/storage/species_image/2_abies_alba_pyramidalis/small/49255769768_df55596553_b.jpg","thumbnail":"https://perenual.com/storage/species_image/2_abies_alba_pyramidalis/thumbnail/49255769768_df55596553_b.jpg"}},{"id":5289,"common_name":"grape hyacinth","scientific_name":["Muscari macrocarpum 'Golden Fragrance'"],"other_name":null,"cycle":"Perennial","watering":"Average","sunlight":["Full sun","part shade"],"default_image":{"image_id":9,"license":5,"license_name":"Attribution-ShareAlike License","license_url":"https://creativecommons.org/licenses/by-sa/2.0/","original_url":"https://perenual.com/storage/species_image/2_abies_alba_pyramidalis/og/49255769768_df55596553_b.jpg","regular_url":"https://perenual.com/storage/species_image/2_abies_alba_pyramidalis/regular/49255769768_df55596553_b.jpg","medium_url":"https://perenual.com/storage/species_image/2_abies_alba_pyramidalis/medium/49255769768_df55596553_b.jpg","small_url":"https://perenual.com/storage/species_image/2_abies_alba_pyramidalis/small/49255769768_df55596553_b.jpg","thumbnail":"https://perenual.com/storage/species_image/2_abies_alba_pyramidalis/thumbnail/49255769768_df55596553_b.jpg"}},{"id":5290,"common_name":"paper-rose","scientific_name":["Mussaenda (group)"],"other_name":null,"cycle":"Perennial","watering":"Average","sunlight":["Full sun","part shade"],"default_image":{"image_id":9,"license":5,"license_name":"Attribution-ShareAlike License","license_url":"https://creativecommons.org/licenses/by-sa/2.0/","original_url":"https://perenual.com/storage/species_image/2_abies_alba_pyramidalis/og/49255769768_df55596553_b.jpg","regular_url":"https://perenual.com/storage/species_image/2_abies_alba_pyramidalis/regular/49255769768_df55596553_b.jpg","medium_url":"https://perenual.com/storage/species_image/2_abies_alba_pyramidalis/medium/49255769768_df55596553_b.jpg","small_url":"https://perenual.com/storage/species_image/2_abies_alba_pyramidalis/small/49255769768_df55596553_b.jpg","thumbnail":"https://perenual.com/storage/species_image/2_abies_alba_pyramidalis/thumbnail/49255769768_df55596553_b.jpg"}},{"id":5291,"common_name":"forget-me-not","scientific_name":["Myosotis scorpioides 'Semperflorens'"],"other_name":null,"cycle":"Perennial","watering":"Frequent","sunlight":["Full sun","part shade"],"default_image":{"image_id":9,"license":5,"license_name":"Attribution-ShareAlike License","license_url":"https://creativecommons.org/licenses/by-sa/2.0/","original_url":"https://perenual.com/storage/species_image/2_abies_alba_pyramidalis/og/49255769768_df55596553_b.jpg","regular_url":"https://perenual.com/storage/species_image/2_abies_alba_pyramidalis/regular/49255769768_df55596553_b.jpg","medium_url":"https://perenual.com/storage/species_image/2_abies_alba_pyramidalis/medium/49255769768_df55596553_b.jpg","small_url":"https://perenual.com/storage/species_image/2_abies_alba_pyramidalis/small/49255769768_df55596553_b.jpg","thumbnail":"https://perenual.com/storage/species_image/2_abies_alba_pyramidalis/thumbnail/49255769768_df55596553_b.jpg"}},{"id":5292,"common_name":"woodland forget-me-not","scientific_name":["Myosotis sylvatica"],"other_name":null,"cycle":"Perennial","watering":"Average","sunlight":["Full sun"," Part sun/part shade"],"default_image":{"image_id":11169,"license":4,"license_name":"Attribution License","license_url":"https://creativecommons.org/licenses/by/2.0/","original_url":"https://perenual.com/storage/species_image/5292_myosotis_sylvatica/og/26042793734_e2f9f4c095_b.jpg","regular_url":"https://perenual.com/storage/species_image/5292_myosotis_sylvatica/regular/26042793734_e2f9f4c095_b.jpg","medium_url":"https://perenual.com/storage/species_image/5292_myosotis_sylvatica/medium/26042793734_e2f9f4c095_b.jpg","small_url":"https://perenual.com/storage/species_image/5292_myosotis_sylvatica/small/26042793734_e2f9f4c095_b.jpg","thumbnail":"https://perenual.com/storage/species_image/5292_myosotis_sylvatica/thumbnail/26042793734_e2f9f4c095_b.jpg"}},{"id":5293,"common_name":"forget-me-not","scientific_name":["Myosotis sylvatica 'Victoria Blue'"],"other_name":null,"cycle":"Perennial","watering":"Average","sunlight":["Full sun"," Part sun/part shade"],"default_image":{"image_id":11170,"license":4,"license_name":"Attribution License","license_url":"https://creativecommons.org/licenses/by/2.0/","original_url":"https://perenual.com/storage/species_image/5293_myosotis_sylvatica_victoria_blue/og/14093869903_9c336fdeb7_b.jpg","regular_url":"https://perenual.com/storage/species_image/5293_myosotis_sylvatica_victoria_blue/regular/14093869903_9c336fdeb7_b.jpg","medium_url":"https://perenual.com/storage/species_image/5293_myosotis_sylvatica_victoria_blue/medium/14093869903_9c336fdeb7_b.jpg","small_url":"https://perenual.com/storage/species_image/5293_myosotis_sylvatica_victoria_blue/small/14093869903_9c336fdeb7_b.jpg","thumbnail":"https://perenual.com/storage/species_image/5293_myosotis_sylvatica_victoria_blue/thumbnail/14093869903_9c336fdeb7_b.jpg"}},{"id":5294,"common_name":"bayberry","scientific_name":["Myrica pensylvanica"],"other_name":null,"cycle":"Perennial","watering":"Frequent","sunlight":["Full sun","part shade"],"default_image":{"image_id":11173,"license":5,"license_name":"Attribution-ShareAlike License","license_url":"https://creativecommons.org/licenses/by-sa/2.0/","original_url":"https://perenual.com/storage/species_image/5294_myrica_pensylvanica/og/51595603016_68b8edcc7a_b.jpg","regular_url":"https://perenual.com/storage/species_image/5294_myrica_pensylvanica/regular/51595603016_68b8edcc7a_b.jpg","medium_url":"https://perenual.com/storage/species_image/5294_myrica_pensylvanica/medium/51595603016_68b8edcc7a_b.jpg","small_url":"https://perenual.com/storage/species_image/5294_myrica_pensylvanica/small/51595603016_68b8edcc7a_b.jpg","thumbnail":"https://perenual.com/storage/species_image/5294_myrica_pensylvanica/thumbnail/51595603016_68b8edcc7a_b.jpg"}},{"id":5295,"common_name":"bayberry","scientific_name":["Myrica pensylvanica 'Morton'"],"other_name":null,"cycle":"Perennial","watering":"Minimum","sunlight":["Full sun","part shade"],"default_image":{"image_id":9,"license":5,"license_name":"Attribution-ShareAlike License","license_url":"https://creativecommons.org/licenses/by-sa/2.0/","original_url":"https://perenual.com/storage/species_image/2_abies_alba_pyramidalis/og/49255769768_df55596553_b.jpg","regular_url":"https://perenual.com/storage/species_image/2_abies_alba_pyramidalis/regular/49255769768_df55596553_b.jpg","medium_url":"https://perenual.com/storage/species_image/2_abies_alba_pyramidalis/medium/49255769768_df55596553_b.jpg","small_url":"https://perenual.com/storage/species_image/2_abies_alba_pyramidalis/small/49255769768_df55596553_b.jpg","thumbnail":"https://perenual.com/storage/species_image/2_abies_alba_pyramidalis/thumbnail/49255769768_df55596553_b.jpg"}},{"id":5296,"common_name":"nutmeg","scientific_name":["Myristica fragrans"],"other_name":null,"cycle":"Perennial","watering":"Average","sunlight":["Full sun","part shade"],"default_image":{"image_id":9,"license":5,"license_name":"Attribution-ShareAlike License","license_url":"https://creativecommons.org/licenses/by-sa/2.0/","original_url":"https://perenual.com/storage/species_image/2_abies_alba_pyramidalis/og/49255769768_df55596553_b.jpg","regular_url":"https://perenual.com/storage/species_image/2_abies_alba_pyramidalis/regular/49255769768_df55596553_b.jpg","medium_url":"https://perenual.com/storage/species_image/2_abies_alba_pyramidalis/medium/49255769768_df55596553_b.jpg","small_url":"https://perenual.com/storage/species_image/2_abies_alba_pyramidalis/small/49255769768_df55596553_b.jpg","thumbnail":"https://perenual.com/storage/species_image/2_abies_alba_pyramidalis/thumbnail/49255769768_df55596553_b.jpg"}},{"id":5297,"common_name":"myrtle","scientific_name":["Myrtus communis"],"other_name":null,"cycle":"Perennial","watering":"Average","sunlight":["Full sun","part shade"],"default_image":{"image_id":9,"license":5,"license_name":"Attribution-ShareAlike License","license_url":"https://creativecommons.org/licenses/by-sa/2.0/","original_url":"https://perenual.com/storage/species_image/2_abies_alba_pyramidalis/og/49255769768_df55596553_b.jpg","regular_url":"https://perenual.com/storage/species_image/2_abies_alba_pyramidalis/regular/49255769768_df55596553_b.jpg","medium_url":"https://perenual.com/storage/species_image/2_abies_alba_pyramidalis/medium/49255769768_df55596553_b.jpg","small_url":"https://perenual.com/storage/species_image/2_abies_alba_pyramidalis/small/49255769768_df55596553_b.jpg","thumbnail":"https://perenual.com/storage/species_image/2_abies_alba_pyramidalis/thumbnail/49255769768_df55596553_b.jpg"}},{"id":5298,"common_name":"myrtle","scientific_name":["Myrtus communis 'Compacta'"],"other_name":null,"cycle":"Perennial","watering":"Average","sunlight":["Full sun","part shade"],"default_image":{"image_id":11181,"license":4,"license_name":"Attribution License","license_url":"https://creativecommons.org/licenses/by/2.0/","original_url":"https://perenual.com/storage/species_image/5298_myrtus_communis_compacta/og/5715835681_27c5e1567d_b.jpg","regular_url":"https://perenual.com/storage/species_image/5298_myrtus_communis_compacta/regular/5715835681_27c5e1567d_b.jpg","medium_url":"https://perenual.com/storage/species_image/5298_myrtus_communis_compacta/medium/5715835681_27c5e1567d_b.jpg","small_url":"https://perenual.com/storage/species_image/5298_myrtus_communis_compacta/small/5715835681_27c5e1567d_b.jpg","thumbnail":"https://perenual.com/storage/species_image/5298_myrtus_communis_compacta/thumbnail/5715835681_27c5e1567d_b.jpg"}},{"id":5299,"common_name":"negeia","scientific_name":["Nageia nagi"],"other_name":null,"cycle":"Perennial","watering":"Average","sunlight":["Full sun","part shade"],"default_image":{"image_id":9,"license":5,"license_name":"Attribution-ShareAlike License","license_url":"https://creativecommons.org/licenses/by-sa/2.0/","original_url":"https://perenual.com/storage/species_image/2_abies_alba_pyramidalis/og/49255769768_df55596553_b.jpg","regular_url":"https://perenual.com/storage/species_image/2_abies_alba_pyramidalis/regular/49255769768_df55596553_b.jpg","medium_url":"https://perenual.com/storage/species_image/2_abies_alba_pyramidalis/medium/49255769768_df55596553_b.jpg","small_url":"https://perenual.com/storage/species_image/2_abies_alba_pyramidalis/small/49255769768_df55596553_b.jpg","thumbnail":"https://perenual.com/storage/species_image/2_abies_alba_pyramidalis/thumbnail/49255769768_df55596553_b.jpg"}},{"id":5300,"common_name":"nandina","scientific_name":["Nandina domestica"],"other_name":null,"cycle":"Perennial","watering":"Average","sunlight":["Part sun/part shade"," Sheltered"],"default_image":{"image_id":11185,"license":6,"license_name":"Attribution-NoDerivs License","license_url":"https://creativecommons.org/licenses/by-nd/2.0/","original_url":"https://perenual.com/storage/species_image/5300_nandina_domestica/og/52564172619_a8b0662cce_b.jpg"}},{"id":5301,"common_name":"heavenly bamboo","scientific_name":["Nandina domestica 'Aka' BLUSH PINK"],"other_name":null,"cycle":"Perennial","watering":"Average","sunlight":["Part sun/part shade"," Sheltered"],"default_image":{"image_id":11188,"license":4,"license_name":"Attribution License","license_url":"https://creativecommons.org/licenses/by/2.0/","original_url":"https://perenual.com/storage/species_image/5301_nandina_domestica_aka_blush_pink/og/24446906454_bdfcab87d0_b.jpg","regular_url":"https://perenual.com/storage/species_image/5301_nandina_domestica_aka_blush_pink/regular/24446906454_bdfcab87d0_b.jpg","medium_url":"https://perenual.com/storage/species_image/5301_nandina_domestica_aka_blush_pink/medium/24446906454_bdfcab87d0_b.jpg","small_url":"https://perenual.com/storage/species_image/5301_nandina_domestica_aka_blush_pink/small/24446906454_bdfcab87d0_b.jpg","thumbnail":"https://perenual.com/storage/species_image/5301_nandina_domestica_aka_blush_pink/thumbnail/24446906454_bdfcab87d0_b.jpg"}},{"id":5302,"common_name":"heavenly bamboo","scientific_name":["Nandina domestica 'Emerald Sea'"],"other_name":null,"cycle":"Perennial","watering":"Average","sunlight":["Part sun/part shade"," Sheltered"],"default_image":{"image_id":9,"license":5,"license_name":"Attribution-ShareAlike License","license_url":"https://creativecommons.org/licenses/by-sa/2.0/","original_url":"https://perenual.com/storage/species_image/2_abies_alba_pyramidalis/og/49255769768_df55596553_b.jpg","regular_url":"https://perenual.com/storage/species_image/2_abies_alba_pyramidalis/regular/49255769768_df55596553_b.jpg","medium_url":"https://perenual.com/storage/species_image/2_abies_alba_pyramidalis/medium/49255769768_df55596553_b.jpg","small_url":"https://perenual.com/storage/species_image/2_abies_alba_pyramidalis/small/49255769768_df55596553_b.jpg","thumbnail":"https://perenual.com/storage/species_image/2_abies_alba_pyramidalis/thumbnail/49255769768_df55596553_b.jpg"}},{"id":5303,"common_name":"heavenly bamboo","scientific_name":["Nandina domestica 'Fire Power'"],"other_name":null,"cycle":"Perennial","watering":"Average","sunlight":["Part sun/part shade"," Sheltered"],"default_image":{"image_id":9,"license":5,"license_name":"Attribution-ShareAlike License","license_url":"https://creativecommons.org/licenses/by-sa/2.0/","original_url":"https://perenual.com/storage/species_image/2_abies_alba_pyramidalis/og/49255769768_df55596553_b.jpg","regular_url":"https://perenual.com/storage/species_image/2_abies_alba_pyramidalis/regular/49255769768_df55596553_b.jpg","medium_url":"https://perenual.com/storage/species_image/2_abies_alba_pyramidalis/medium/49255769768_df55596553_b.jpg","small_url":"https://perenual.com/storage/species_image/2_abies_alba_pyramidalis/small/49255769768_df55596553_b.jpg","thumbnail":"https://perenual.com/storage/species_image/2_abies_alba_pyramidalis/thumbnail/49255769768_df55596553_b.jpg"}},{"id":5304,"common_name":"heavenly bamboo","scientific_name":["Nandina domestica 'Harbour Dwarf'"],"other_name":null,"cycle":"Perennial","watering":"Average","sunlight":["Part sun/part shade"," Sheltered"],"default_image":{"image_id":9,"license":5,"license_name":"Attribution-ShareAlike License","license_url":"https://creativecommons.org/licenses/by-sa/2.0/","original_url":"https://perenual.com/storage/species_image/2_abies_alba_pyramidalis/og/49255769768_df55596553_b.jpg","regular_url":"https://perenual.com/storage/species_image/2_abies_alba_pyramidalis/regular/49255769768_df55596553_b.jpg","medium_url":"https://perenual.com/storage/species_image/2_abies_alba_pyramidalis/medium/49255769768_df55596553_b.jpg","small_url":"https://perenual.com/storage/species_image/2_abies_alba_pyramidalis/small/49255769768_df55596553_b.jpg","thumbnail":"https://perenual.com/storage/species_image/2_abies_alba_pyramidalis/thumbnail/49255769768_df55596553_b.jpg"}},{"id":5305,"common_name":"heavenly bamboo","scientific_name":["Nandina domestica 'Lemon-Lime'"],"other_name":null,"cycle":"Perennial","watering":"Average","sunlight":["Part sun/part shade"," Sheltered"],"default_image":{"image_id":9,"license":5,"license_name":"Attribution-ShareAlike License","license_url":"https://creativecommons.org/licenses/by-sa/2.0/","original_url":"https://perenual.com/storage/species_image/2_abies_alba_pyramidalis/og/49255769768_df55596553_b.jpg","regular_url":"https://perenual.com/storage/species_image/2_abies_alba_pyramidalis/regular/49255769768_df55596553_b.jpg","medium_url":"https://perenual.com/storage/species_image/2_abies_alba_pyramidalis/medium/49255769768_df55596553_b.jpg","small_url":"https://perenual.com/storage/species_image/2_abies_alba_pyramidalis/small/49255769768_df55596553_b.jpg","thumbnail":"https://perenual.com/storage/species_image/2_abies_alba_pyramidalis/thumbnail/49255769768_df55596553_b.jpg"}},{"id":5306,"common_name":"heavenly bamboo","scientific_name":["Nandina domestica 'Monfar' SIENNA SUNRISE"],"other_name":null,"cycle":"Perennial","watering":"Average","sunlight":["Part sun/part shade"," Sheltered"],"default_image":{"image_id":9,"license":5,"license_name":"Attribution-ShareAlike License","license_url":"https://creativecommons.org/licenses/by-sa/2.0/","original_url":"https://perenual.com/storage/species_image/2_abies_alba_pyramidalis/og/49255769768_df55596553_b.jpg","regular_url":"https://perenual.com/storage/species_image/2_abies_alba_pyramidalis/regular/49255769768_df55596553_b.jpg","medium_url":"https://perenual.com/storage/species_image/2_abies_alba_pyramidalis/medium/49255769768_df55596553_b.jpg","small_url":"https://perenual.com/storage/species_image/2_abies_alba_pyramidalis/small/49255769768_df55596553_b.jpg","thumbnail":"https://perenual.com/storage/species_image/2_abies_alba_pyramidalis/thumbnail/49255769768_df55596553_b.jpg"}},{"id":5307,"common_name":"heavenly bamboo","scientific_name":["Nandina domestica 'Monum' PLUM PASSION"],"other_name":null,"cycle":"Perennial","watering":"Average","sunlight":["Part sun/part shade"," Sheltered"],"default_image":{"image_id":9,"license":5,"license_name":"Attribution-ShareAlike License","license_url":"https://creativecommons.org/licenses/by-sa/2.0/","original_url":"https://perenual.com/storage/species_image/2_abies_alba_pyramidalis/og/49255769768_df55596553_b.jpg","regular_url":"https://perenual.com/storage/species_image/2_abies_alba_pyramidalis/regular/49255769768_df55596553_b.jpg","medium_url":"https://perenual.com/storage/species_image/2_abies_alba_pyramidalis/medium/49255769768_df55596553_b.jpg","small_url":"https://perenual.com/storage/species_image/2_abies_alba_pyramidalis/small/49255769768_df55596553_b.jpg","thumbnail":"https://perenual.com/storage/species_image/2_abies_alba_pyramidalis/thumbnail/49255769768_df55596553_b.jpg"}},{"id":5308,"common_name":"heavenly bamboo","scientific_name":["Nandina domestica 'Moon Bay'"],"other_name":null,"cycle":"Perennial","watering":"Average","sunlight":["Part sun/part shade"," Sheltered"],"default_image":{"image_id":11193,"license":4,"license_name":"Attribution License","license_url":"https://creativecommons.org/licenses/by/2.0/","original_url":"https://perenual.com/storage/species_image/5308_nandina_domestica_moon_bay/og/89066525_c80b69ceee_b.jpg","regular_url":"https://perenual.com/storage/species_image/5308_nandina_domestica_moon_bay/regular/89066525_c80b69ceee_b.jpg","medium_url":"https://perenual.com/storage/species_image/5308_nandina_domestica_moon_bay/medium/89066525_c80b69ceee_b.jpg","small_url":"https://perenual.com/storage/species_image/5308_nandina_domestica_moon_bay/small/89066525_c80b69ceee_b.jpg","thumbnail":"https://perenual.com/storage/species_image/5308_nandina_domestica_moon_bay/thumbnail/89066525_c80b69ceee_b.jpg"}},{"id":5309,"common_name":"heavenly bamboo","scientific_name":["Nandina domestica 'Murasaki' FLIRT"],"other_name":null,"cycle":"Perennial","watering":"Average","sunlight":["Part sun/part shade"," Sheltered"],"default_image":{"image_id":9,"license":5,"license_name":"Attribution-ShareAlike License","license_url":"https://creativecommons.org/licenses/by-sa/2.0/","original_url":"https://perenual.com/storage/species_image/2_abies_alba_pyramidalis/og/49255769768_df55596553_b.jpg","regular_url":"https://perenual.com/storage/species_image/2_abies_alba_pyramidalis/regular/49255769768_df55596553_b.jpg","medium_url":"https://perenual.com/storage/species_image/2_abies_alba_pyramidalis/medium/49255769768_df55596553_b.jpg","small_url":"https://perenual.com/storage/species_image/2_abies_alba_pyramidalis/small/49255769768_df55596553_b.jpg","thumbnail":"https://perenual.com/storage/species_image/2_abies_alba_pyramidalis/thumbnail/49255769768_df55596553_b.jpg"}},{"id":5310,"common_name":"heavenly bamboo","scientific_name":["Nandina domestica 'Pygmaea'"],"other_name":null,"cycle":"Perennial","watering":"Average","sunlight":["Part sun/part shade"," Sheltered"],"default_image":{"image_id":9,"license":5,"license_name":"Attribution-ShareAlike License","license_url":"https://creativecommons.org/licenses/by-sa/2.0/","original_url":"https://perenual.com/storage/species_image/2_abies_alba_pyramidalis/og/49255769768_df55596553_b.jpg","regular_url":"https://perenual.com/storage/species_image/2_abies_alba_pyramidalis/regular/49255769768_df55596553_b.jpg","medium_url":"https://perenual.com/storage/species_image/2_abies_alba_pyramidalis/medium/49255769768_df55596553_b.jpg","small_url":"https://perenual.com/storage/species_image/2_abies_alba_pyramidalis/small/49255769768_df55596553_b.jpg","thumbnail":"https://perenual.com/storage/species_image/2_abies_alba_pyramidalis/thumbnail/49255769768_df55596553_b.jpg"}}],"to":5310,"per_page":30,"current_page":177,"from":5281,"last_page":200,"total":6000}