{"data":[{"id":3571,"common_name":"daylily","scientific_name":["Hemerocallis 'Miss Tinkerbell'"],"other_name":null,"cycle":"Perennial","watering":"Average","sunlight":["Full sun","part shade"],"default_image":{"image_id":22003,"license":2,"license_name":null,"license_url":null,"original_url":"https://perenual.com/storage/species_image/3630_hemerocallis_ver00204_everydaylily_yellow_punch/og/52389752668_ff18329a33_b.jpg","regular_url":"https://perenual.com/storage/species_image/3630_hemerocallis_ver00204_everydaylily_yellow_punch/regular/52389752668_ff18329a33_b.jpg","medium_url":"https://perenual.com/storage/species_image/3630_hemerocallis_ver00204_everydaylily_yellow_punch/medium/52389752668_ff18329a33_b.jpg","small_url":"https://perenual.com/storage/species_image/3630_hemerocallis_ver00204_everydaylily_yellow_punch/small/52389752668_ff18329a33_b.jpg","thumbnail":"https://perenual.com/storage/species_image/3630_hemerocallis_ver00204_everydaylily_yellow_punch/thumbnail/52389752668_ff18329a33_b.jpg"}},{"id":3572,"common_name":"daylily","scientific_name":["Hemerocallis 'Miss Victoria'"],"other_name":null,"cycle":"Perennial","watering":"Average","sunlight":["Full sun","part shade"],"default_image":{"image_id":22003,"license":2,"license_name":null,"license_url":null,"original_url":"https://perenual.com/storage/species_image/3630_hemerocallis_ver00204_everydaylily_yellow_punch/og/52389752668_ff18329a33_b.jpg","regular_url":"https://perenual.com/storage/species_image/3630_hemerocallis_ver00204_everydaylily_yellow_punch/regular/52389752668_ff18329a33_b.jpg","medium_url":"https://perenual.com/storage/species_image/3630_hemerocallis_ver00204_everydaylily_yellow_punch/medium/52389752668_ff18329a33_b.jpg","small_url":"https://perenual.com/storage/species_image/3630_hemerocallis_ver00204_everydaylily_yellow_punch/small/52389752668_ff18329a33_b.jpg","thumbnail":"https://perenual.com/storage/species_image/3630_hemerocallis_ver00204_everydaylily_yellow_punch/thumbnail/52389752668_ff18329a33_b.jpg"}},{"id":3573,"common_name":"daylily","scientific_name":["Hemerocallis 'Mission Moonlight'"],"other_name":null,"cycle":"Perennial","watering":"Average","sunlight":["Full sun","part shade"],"default_image":{"image_id":7326,"license":5,"license_name":"Attribution-ShareAlike License","license_url":"https://creativecommons.org/licenses/by-sa/2.0/","original_url":"https://perenual.com/storage/species_image/3630_hemerocallis_ver00204_everydaylily_yellow_punch/og/52332119471_200e73af3d_b.jpg","regular_url":"https://perenual.com/storage/species_image/3630_hemerocallis_ver00204_everydaylily_yellow_punch/regular/52332119471_200e73af3d_b.jpg","medium_url":"https://perenual.com/storage/species_image/3630_hemerocallis_ver00204_everydaylily_yellow_punch/medium/52332119471_200e73af3d_b.jpg","small_url":"https://perenual.com/storage/species_image/3630_hemerocallis_ver00204_everydaylily_yellow_punch/small/52332119471_200e73af3d_b.jpg","thumbnail":"https://perenual.com/storage/species_image/3630_hemerocallis_ver00204_everydaylily_yellow_punch/thumbnail/52332119471_200e73af3d_b.jpg"}},{"id":3574,"common_name":"daylily","scientific_name":["Hemerocallis 'Mississippi Red Dragon'"],"other_name":null,"cycle":"Perennial","watering":"Average","sunlight":["Full sun","part shade"],"default_image":{"image_id":7410,"license":4,"license_name":"Attribution License","license_url":"https://creativecommons.org/licenses/by/2.0/","original_url":"https://perenual.com/storage/species_image/3574_hemerocallis_mississippi_red_dragon/og/52329872508_28042d7190_b.jpg","regular_url":"https://perenual.com/storage/species_image/3574_hemerocallis_mississippi_red_dragon/regular/52329872508_28042d7190_b.jpg","medium_url":"https://perenual.com/storage/species_image/3574_hemerocallis_mississippi_red_dragon/medium/52329872508_28042d7190_b.jpg","small_url":"https://perenual.com/storage/species_image/3574_hemerocallis_mississippi_red_dragon/small/52329872508_28042d7190_b.jpg","thumbnail":"https://perenual.com/storage/species_image/3574_hemerocallis_mississippi_red_dragon/thumbnail/52329872508_28042d7190_b.jpg"}},{"id":3575,"common_name":"daylily","scientific_name":["Hemerocallis 'Moontraveller'"],"other_name":null,"cycle":"Perennial","watering":"Average","sunlight":["Full sun","part shade"],"default_image":{"image_id":22003,"license":2,"license_name":null,"license_url":null,"original_url":"https://perenual.com/storage/species_image/3630_hemerocallis_ver00204_everydaylily_yellow_punch/og/52389752668_ff18329a33_b.jpg","regular_url":"https://perenual.com/storage/species_image/3630_hemerocallis_ver00204_everydaylily_yellow_punch/regular/52389752668_ff18329a33_b.jpg","medium_url":"https://perenual.com/storage/species_image/3630_hemerocallis_ver00204_everydaylily_yellow_punch/medium/52389752668_ff18329a33_b.jpg","small_url":"https://perenual.com/storage/species_image/3630_hemerocallis_ver00204_everydaylily_yellow_punch/small/52389752668_ff18329a33_b.jpg","thumbnail":"https://perenual.com/storage/species_image/3630_hemerocallis_ver00204_everydaylily_yellow_punch/thumbnail/52389752668_ff18329a33_b.jpg"}},{"id":3576,"common_name":"daylily","scientific_name":["Hemerocallis 'My Ways'"],"other_name":null,"cycle":"Perennial","watering":"Average","sunlight":["Full sun","part shade"],"default_image":{"image_id":7437,"license":5,"license_name":"Attribution-ShareAlike License","license_url":"https://creativecommons.org/licenses/by-sa/2.0/","original_url":"https://perenual.com/storage/species_image/3576_hemerocallis_my_ways/og/52243651316_ce307ddc90_b.jpg","regular_url":"https://perenual.com/storage/species_image/3576_hemerocallis_my_ways/regular/52243651316_ce307ddc90_b.jpg","medium_url":"https://perenual.com/storage/species_image/3576_hemerocallis_my_ways/medium/52243651316_ce307ddc90_b.jpg","small_url":"https://perenual.com/storage/species_image/3576_hemerocallis_my_ways/small/52243651316_ce307ddc90_b.jpg","thumbnail":"https://perenual.com/storage/species_image/3576_hemerocallis_my_ways/thumbnail/52243651316_ce307ddc90_b.jpg"}},{"id":3584,"common_name":"daylily","scientific_name":["Hemerocallis 'Pink Lavender Appeal'"],"other_name":null,"cycle":"Perennial","watering":"Average","sunlight":["Full sun","part shade"],"default_image":{"image_id":7445,"license":4,"license_name":"Attribution License","license_url":"https://creativecommons.org/licenses/by/2.0/","original_url":"https://perenual.com/storage/species_image/3584_hemerocallis_pink_lavender_appeal/og/29330093857_e66ec7e4ed_b.jpg","regular_url":"https://perenual.com/storage/species_image/3584_hemerocallis_pink_lavender_appeal/regular/29330093857_e66ec7e4ed_b.jpg","medium_url":"https://perenual.com/storage/species_image/3584_hemerocallis_pink_lavender_appeal/medium/29330093857_e66ec7e4ed_b.jpg","small_url":"https://perenual.com/storage/species_image/3584_hemerocallis_pink_lavender_appeal/small/29330093857_e66ec7e4ed_b.jpg","thumbnail":"https://perenual.com/storage/species_image/3584_hemerocallis_pink_lavender_appeal/thumbnail/29330093857_e66ec7e4ed_b.jpg"}},{"id":3577,"common_name":"daylily","scientific_name":["Hemerocallis 'Northbrook Star'"],"other_name":null,"cycle":"Perennial","watering":"Average","sunlight":["Full sun","part shade"],"default_image":{"image_id":7439,"license":5,"license_name":"Attribution-ShareAlike License","license_url":"https://creativecommons.org/licenses/by-sa/2.0/","original_url":"https://perenual.com/storage/species_image/3577_hemerocallis_northbrook_star/og/48330801601_cd5e8482a4_b.jpg","regular_url":"https://perenual.com/storage/species_image/3577_hemerocallis_northbrook_star/regular/48330801601_cd5e8482a4_b.jpg","medium_url":"https://perenual.com/storage/species_image/3577_hemerocallis_northbrook_star/medium/48330801601_cd5e8482a4_b.jpg","small_url":"https://perenual.com/storage/species_image/3577_hemerocallis_northbrook_star/small/48330801601_cd5e8482a4_b.jpg","thumbnail":"https://perenual.com/storage/species_image/3577_hemerocallis_northbrook_star/thumbnail/48330801601_cd5e8482a4_b.jpg"}},{"id":3578,"common_name":"daylily","scientific_name":["Hemerocallis 'Nuthatch'"],"other_name":null,"cycle":"Perennial","watering":"Average","sunlight":["Full sun","part shade"],"default_image":{"image_id":22005,"license":2,"license_name":null,"license_url":null,"original_url":"https://perenual.com/storage/species_image/3634_hemerocallis_zada_mae/og/52389510911_c9bb22c165_b.jpg","regular_url":"https://perenual.com/storage/species_image/3634_hemerocallis_zada_mae/regular/52389510911_c9bb22c165_b.jpg","medium_url":"https://perenual.com/storage/species_image/3634_hemerocallis_zada_mae/medium/52389510911_c9bb22c165_b.jpg","small_url":"https://perenual.com/storage/species_image/3634_hemerocallis_zada_mae/small/52389510911_c9bb22c165_b.jpg","thumbnail":"https://perenual.com/storage/species_image/3634_hemerocallis_zada_mae/thumbnail/52389510911_c9bb22c165_b.jpg"}},{"id":3579,"common_name":"daylily","scientific_name":["Hemerocallis 'Painted Trillium'"],"other_name":null,"cycle":"Perennial","watering":"Average","sunlight":["Full sun","part shade"],"default_image":{"image_id":7441,"license":5,"license_name":"Attribution-ShareAlike License","license_url":"https://creativecommons.org/licenses/by-sa/2.0/","original_url":"https://perenual.com/storage/species_image/3598_hemerocallis_ribbons_and_curls/og/52334581538_f1df7c1beb_b.jpg","regular_url":"https://perenual.com/storage/species_image/3598_hemerocallis_ribbons_and_curls/regular/52334581538_f1df7c1beb_b.jpg","medium_url":"https://perenual.com/storage/species_image/3598_hemerocallis_ribbons_and_curls/medium/52334581538_f1df7c1beb_b.jpg","small_url":"https://perenual.com/storage/species_image/3598_hemerocallis_ribbons_and_curls/small/52334581538_f1df7c1beb_b.jpg","thumbnail":"https://perenual.com/storage/species_image/3598_hemerocallis_ribbons_and_curls/thumbnail/52334581538_f1df7c1beb_b.jpg"}},{"id":3580,"common_name":"daylily","scientific_name":["Hemerocallis 'Pardon Me'"],"other_name":null,"cycle":"Perennial","watering":"Average","sunlight":["Full sun","part shade"],"default_image":{"image_id":7442,"license":5,"license_name":"Attribution-ShareAlike License","license_url":"https://creativecommons.org/licenses/by-sa/2.0/","original_url":"https://perenual.com/storage/species_image/3580_hemerocallis_pardon_me/og/48357130046_4d64c86ef5_b.jpg","regular_url":"https://perenual.com/storage/species_image/3580_hemerocallis_pardon_me/regular/48357130046_4d64c86ef5_b.jpg","medium_url":"https://perenual.com/storage/species_image/3580_hemerocallis_pardon_me/medium/48357130046_4d64c86ef5_b.jpg","small_url":"https://perenual.com/storage/species_image/3580_hemerocallis_pardon_me/small/48357130046_4d64c86ef5_b.jpg","thumbnail":"https://perenual.com/storage/species_image/3580_hemerocallis_pardon_me/thumbnail/48357130046_4d64c86ef5_b.jpg"}},{"id":3581,"common_name":"daylily","scientific_name":["Hemerocallis 'Pawn of Prophecy'"],"other_name":null,"cycle":"Perennial","watering":"Average","sunlight":["Full sun","part shade"],"default_image":{"image_id":22004,"license":2,"license_name":null,"license_url":null,"original_url":"https://perenual.com/storage/species_image/3635_hemerocallis_zuni_thunderbird/og/52582474823_f80a05c7ff_b.jpg","regular_url":"https://perenual.com/storage/species_image/3635_hemerocallis_zuni_thunderbird/regular/52582474823_f80a05c7ff_b.jpg","medium_url":"https://perenual.com/storage/species_image/3635_hemerocallis_zuni_thunderbird/medium/52582474823_f80a05c7ff_b.jpg","small_url":"https://perenual.com/storage/species_image/3635_hemerocallis_zuni_thunderbird/small/52582474823_f80a05c7ff_b.jpg","thumbnail":"https://perenual.com/storage/species_image/3635_hemerocallis_zuni_thunderbird/thumbnail/52582474823_f80a05c7ff_b.jpg"}},{"id":3582,"common_name":"daylily","scientific_name":["Hemerocallis 'Piggy Tails'"],"other_name":null,"cycle":"Perennial","watering":"Average","sunlight":["Full sun","part shade"],"default_image":{"image_id":7372,"license":5,"license_name":"Attribution-ShareAlike License","license_url":"https://creativecommons.org/licenses/by-sa/2.0/","original_url":"https://perenual.com/storage/species_image/3582_hemerocallis_piggy_tails/og/52283735198_71a0780929_b.jpg","regular_url":"https://perenual.com/storage/species_image/3582_hemerocallis_piggy_tails/regular/52283735198_71a0780929_b.jpg","medium_url":"https://perenual.com/storage/species_image/3582_hemerocallis_piggy_tails/medium/52283735198_71a0780929_b.jpg","small_url":"https://perenual.com/storage/species_image/3582_hemerocallis_piggy_tails/small/52283735198_71a0780929_b.jpg","thumbnail":"https://perenual.com/storage/species_image/3582_hemerocallis_piggy_tails/thumbnail/52283735198_71a0780929_b.jpg"}},{"id":3583,"common_name":"daylily","scientific_name":["Hemerocallis 'Pink Goodie'"],"other_name":null,"cycle":"Perennial","watering":"Average","sunlight":["Full sun","part shade"],"default_image":{"image_id":7326,"license":5,"license_name":"Attribution-ShareAlike License","license_url":"https://creativecommons.org/licenses/by-sa/2.0/","original_url":"https://perenual.com/storage/species_image/3630_hemerocallis_ver00204_everydaylily_yellow_punch/og/52332119471_200e73af3d_b.jpg","regular_url":"https://perenual.com/storage/species_image/3630_hemerocallis_ver00204_everydaylily_yellow_punch/regular/52332119471_200e73af3d_b.jpg","medium_url":"https://perenual.com/storage/species_image/3630_hemerocallis_ver00204_everydaylily_yellow_punch/medium/52332119471_200e73af3d_b.jpg","small_url":"https://perenual.com/storage/species_image/3630_hemerocallis_ver00204_everydaylily_yellow_punch/small/52332119471_200e73af3d_b.jpg","thumbnail":"https://perenual.com/storage/species_image/3630_hemerocallis_ver00204_everydaylily_yellow_punch/thumbnail/52332119471_200e73af3d_b.jpg"}},{"id":3585,"common_name":"daylily","scientific_name":["Hemerocallis 'Pink Puff'"],"other_name":null,"cycle":"Perennial","watering":"Average","sunlight":["Full sun","part shade"],"default_image":{"image_id":9,"license":5,"license_name":"Attribution-ShareAlike License","license_url":"https://creativecommons.org/licenses/by-sa/2.0/","original_url":"https://perenual.com/storage/species_image/2_abies_alba_pyramidalis/og/49255769768_df55596553_b.jpg","regular_url":"https://perenual.com/storage/species_image/2_abies_alba_pyramidalis/regular/49255769768_df55596553_b.jpg","medium_url":"https://perenual.com/storage/species_image/2_abies_alba_pyramidalis/medium/49255769768_df55596553_b.jpg","small_url":"https://perenual.com/storage/species_image/2_abies_alba_pyramidalis/small/49255769768_df55596553_b.jpg","thumbnail":"https://perenual.com/storage/species_image/2_abies_alba_pyramidalis/thumbnail/49255769768_df55596553_b.jpg"}},{"id":3586,"common_name":"daylily","scientific_name":["Hemerocallis 'Pink Super Spider'"],"other_name":null,"cycle":"Perennial","watering":"Average","sunlight":["Full sun","part shade"],"default_image":{"image_id":7446,"license":5,"license_name":"Attribution-ShareAlike License","license_url":"https://creativecommons.org/licenses/by-sa/2.0/","original_url":"https://perenual.com/storage/species_image/3586_hemerocallis_pink_super_spider/og/52296558393_1c376d33c8_b.jpg","regular_url":"https://perenual.com/storage/species_image/3586_hemerocallis_pink_super_spider/regular/52296558393_1c376d33c8_b.jpg","medium_url":"https://perenual.com/storage/species_image/3586_hemerocallis_pink_super_spider/medium/52296558393_1c376d33c8_b.jpg","small_url":"https://perenual.com/storage/species_image/3586_hemerocallis_pink_super_spider/small/52296558393_1c376d33c8_b.jpg","thumbnail":"https://perenual.com/storage/species_image/3586_hemerocallis_pink_super_spider/thumbnail/52296558393_1c376d33c8_b.jpg"}},{"id":3587,"common_name":"daylily","scientific_name":["Hemerocallis 'Pink Tangerine'"],"other_name":null,"cycle":"Perennial","watering":"Average","sunlight":["Full sun","part shade"],"default_image":{"image_id":9,"license":5,"license_name":"Attribution-ShareAlike License","license_url":"https://creativecommons.org/licenses/by-sa/2.0/","original_url":"https://perenual.com/storage/species_image/2_abies_alba_pyramidalis/og/49255769768_df55596553_b.jpg","regular_url":"https://perenual.com/storage/species_image/2_abies_alba_pyramidalis/regular/49255769768_df55596553_b.jpg","medium_url":"https://perenual.com/storage/species_image/2_abies_alba_pyramidalis/medium/49255769768_df55596553_b.jpg","small_url":"https://perenual.com/storage/species_image/2_abies_alba_pyramidalis/small/49255769768_df55596553_b.jpg","thumbnail":"https://perenual.com/storage/species_image/2_abies_alba_pyramidalis/thumbnail/49255769768_df55596553_b.jpg"}},{"id":3588,"common_name":"daylily","scientific_name":["Hemerocallis 'Pony'"],"other_name":null,"cycle":"Perennial","watering":"Average","sunlight":["Full sun","part shade"],"default_image":{"image_id":7449,"license":5,"license_name":"Attribution-ShareAlike License","license_url":"https://creativecommons.org/licenses/by-sa/2.0/","original_url":"https://perenual.com/storage/species_image/3588_hemerocallis_pony/og/52214927689_869e0a442c_b.jpg","regular_url":"https://perenual.com/storage/species_image/3588_hemerocallis_pony/regular/52214927689_869e0a442c_b.jpg","medium_url":"https://perenual.com/storage/species_image/3588_hemerocallis_pony/medium/52214927689_869e0a442c_b.jpg","small_url":"https://perenual.com/storage/species_image/3588_hemerocallis_pony/small/52214927689_869e0a442c_b.jpg","thumbnail":"https://perenual.com/storage/species_image/3588_hemerocallis_pony/thumbnail/52214927689_869e0a442c_b.jpg"}},{"id":3589,"common_name":"daylily","scientific_name":["Hemerocallis 'Prairie Blue Eyes'"],"other_name":null,"cycle":"Perennial","watering":"Average","sunlight":["Full sun","part shade"],"default_image":{"image_id":7451,"license":5,"license_name":"Attribution-ShareAlike License","license_url":"https://creativecommons.org/licenses/by-sa/2.0/","original_url":"https://perenual.com/storage/species_image/3589_hemerocallis_prairie_blue_eyes/og/35409268430_b38c5c7eaf_b.jpg","regular_url":"https://perenual.com/storage/species_image/3589_hemerocallis_prairie_blue_eyes/regular/35409268430_b38c5c7eaf_b.jpg","medium_url":"https://perenual.com/storage/species_image/3589_hemerocallis_prairie_blue_eyes/medium/35409268430_b38c5c7eaf_b.jpg","small_url":"https://perenual.com/storage/species_image/3589_hemerocallis_prairie_blue_eyes/small/35409268430_b38c5c7eaf_b.jpg","thumbnail":"https://perenual.com/storage/species_image/3589_hemerocallis_prairie_blue_eyes/thumbnail/35409268430_b38c5c7eaf_b.jpg"}},{"id":3590,"common_name":"daylily","scientific_name":["Hemerocallis 'Prince of Venice'"],"other_name":null,"cycle":"Perennial","watering":"Average","sunlight":["Full sun","part shade"],"default_image":{"image_id":7329,"license":5,"license_name":"Attribution-ShareAlike License","license_url":"https://creativecommons.org/licenses/by-sa/2.0/","original_url":"https://perenual.com/storage/species_image/3599_hemerocallis_rosana/og/52377894822_58e27b6592_b.jpg","regular_url":"https://perenual.com/storage/species_image/3599_hemerocallis_rosana/regular/52377894822_58e27b6592_b.jpg","medium_url":"https://perenual.com/storage/species_image/3599_hemerocallis_rosana/medium/52377894822_58e27b6592_b.jpg","small_url":"https://perenual.com/storage/species_image/3599_hemerocallis_rosana/small/52377894822_58e27b6592_b.jpg","thumbnail":"https://perenual.com/storage/species_image/3599_hemerocallis_rosana/thumbnail/52377894822_58e27b6592_b.jpg"}},{"id":3591,"common_name":"daylily","scientific_name":["Hemerocallis 'Purple d'Oro'"],"other_name":null,"cycle":"Perennial","watering":"Average","sunlight":["Full sun","part shade"],"default_image":{"image_id":9,"license":5,"license_name":"Attribution-ShareAlike License","license_url":"https://creativecommons.org/licenses/by-sa/2.0/","original_url":"https://perenual.com/storage/species_image/2_abies_alba_pyramidalis/og/49255769768_df55596553_b.jpg","regular_url":"https://perenual.com/storage/species_image/2_abies_alba_pyramidalis/regular/49255769768_df55596553_b.jpg","medium_url":"https://perenual.com/storage/species_image/2_abies_alba_pyramidalis/medium/49255769768_df55596553_b.jpg","small_url":"https://perenual.com/storage/species_image/2_abies_alba_pyramidalis/small/49255769768_df55596553_b.jpg","thumbnail":"https://perenual.com/storage/species_image/2_abies_alba_pyramidalis/thumbnail/49255769768_df55596553_b.jpg"}},{"id":3592,"common_name":"daylily","scientific_name":["Hemerocallis 'Purple Pauper'"],"other_name":null,"cycle":"Perennial","watering":"Average","sunlight":["Full sun","part shade"],"default_image":{"image_id":22003,"license":2,"license_name":null,"license_url":null,"original_url":"https://perenual.com/storage/species_image/3630_hemerocallis_ver00204_everydaylily_yellow_punch/og/52389752668_ff18329a33_b.jpg","regular_url":"https://perenual.com/storage/species_image/3630_hemerocallis_ver00204_everydaylily_yellow_punch/regular/52389752668_ff18329a33_b.jpg","medium_url":"https://perenual.com/storage/species_image/3630_hemerocallis_ver00204_everydaylily_yellow_punch/medium/52389752668_ff18329a33_b.jpg","small_url":"https://perenual.com/storage/species_image/3630_hemerocallis_ver00204_everydaylily_yellow_punch/small/52389752668_ff18329a33_b.jpg","thumbnail":"https://perenual.com/storage/species_image/3630_hemerocallis_ver00204_everydaylily_yellow_punch/thumbnail/52389752668_ff18329a33_b.jpg"}},{"id":3593,"common_name":"daylily","scientific_name":["Hemerocallis 'Radiant Greetings'"],"other_name":null,"cycle":"Perennial","watering":"Average","sunlight":["Full sun","part shade"],"default_image":{"image_id":9,"license":5,"license_name":"Attribution-ShareAlike License","license_url":"https://creativecommons.org/licenses/by-sa/2.0/","original_url":"https://perenual.com/storage/species_image/2_abies_alba_pyramidalis/og/49255769768_df55596553_b.jpg","regular_url":"https://perenual.com/storage/species_image/2_abies_alba_pyramidalis/regular/49255769768_df55596553_b.jpg","medium_url":"https://perenual.com/storage/species_image/2_abies_alba_pyramidalis/medium/49255769768_df55596553_b.jpg","small_url":"https://perenual.com/storage/species_image/2_abies_alba_pyramidalis/small/49255769768_df55596553_b.jpg","thumbnail":"https://perenual.com/storage/species_image/2_abies_alba_pyramidalis/thumbnail/49255769768_df55596553_b.jpg"}},{"id":3594,"common_name":"daylily","scientific_name":["Hemerocallis 'Raspberry Pixie'"],"other_name":null,"cycle":"Perennial","watering":"Average","sunlight":["Full sun","part shade"],"default_image":{"image_id":7456,"license":5,"license_name":"Attribution-ShareAlike License","license_url":"https://creativecommons.org/licenses/by-sa/2.0/","original_url":"https://perenual.com/storage/species_image/3594_hemerocallis_raspberry_pixie/og/51284972492_2b36f1a243_b.jpg","regular_url":"https://perenual.com/storage/species_image/3594_hemerocallis_raspberry_pixie/regular/51284972492_2b36f1a243_b.jpg","medium_url":"https://perenual.com/storage/species_image/3594_hemerocallis_raspberry_pixie/medium/51284972492_2b36f1a243_b.jpg","small_url":"https://perenual.com/storage/species_image/3594_hemerocallis_raspberry_pixie/small/51284972492_2b36f1a243_b.jpg","thumbnail":"https://perenual.com/storage/species_image/3594_hemerocallis_raspberry_pixie/thumbnail/51284972492_2b36f1a243_b.jpg"}},{"id":3595,"common_name":"daylily","scientific_name":["Hemerocallis 'Red Hot Returns'"],"other_name":null,"cycle":"Perennial","watering":"Average","sunlight":["Full sun","part shade"],"default_image":{"image_id":7458,"license":5,"license_name":"Attribution-ShareAlike License","license_url":"https://creativecommons.org/licenses/by-sa/2.0/","original_url":"https://perenual.com/storage/species_image/3595_hemerocallis_red_hot_returns/og/51267318327_69bb7961e2_b.jpg","regular_url":"https://perenual.com/storage/species_image/3595_hemerocallis_red_hot_returns/regular/51267318327_69bb7961e2_b.jpg","medium_url":"https://perenual.com/storage/species_image/3595_hemerocallis_red_hot_returns/medium/51267318327_69bb7961e2_b.jpg","small_url":"https://perenual.com/storage/species_image/3595_hemerocallis_red_hot_returns/small/51267318327_69bb7961e2_b.jpg","thumbnail":"https://perenual.com/storage/species_image/3595_hemerocallis_red_hot_returns/thumbnail/51267318327_69bb7961e2_b.jpg"}},{"id":3596,"common_name":"daylily","scientific_name":["Hemerocallis 'Red Magic'"],"other_name":null,"cycle":"Perennial","watering":"Average","sunlight":["Full sun","part shade"],"default_image":{"image_id":7460,"license":5,"license_name":"Attribution-ShareAlike License","license_url":"https://creativecommons.org/licenses/by-sa/2.0/","original_url":"https://perenual.com/storage/species_image/3596_hemerocallis_red_magic/og/52252195023_877ec74294_b.jpg","regular_url":"https://perenual.com/storage/species_image/3596_hemerocallis_red_magic/regular/52252195023_877ec74294_b.jpg","medium_url":"https://perenual.com/storage/species_image/3596_hemerocallis_red_magic/medium/52252195023_877ec74294_b.jpg","small_url":"https://perenual.com/storage/species_image/3596_hemerocallis_red_magic/small/52252195023_877ec74294_b.jpg","thumbnail":"https://perenual.com/storage/species_image/3596_hemerocallis_red_magic/thumbnail/52252195023_877ec74294_b.jpg"}},{"id":3597,"common_name":"tetraploid daylily","scientific_name":["Hemerocallis 'Respighi'"],"other_name":null,"cycle":"Perennial","watering":"Average","sunlight":["Full sun","part shade"],"default_image":{"image_id":7330,"license":5,"license_name":"Attribution-ShareAlike License","license_url":"https://creativecommons.org/licenses/by-sa/2.0/","original_url":"https://perenual.com/storage/species_image/3597_hemerocallis_respighi/og/52379254630_863d9c894f_b.jpg","regular_url":"https://perenual.com/storage/species_image/3597_hemerocallis_respighi/regular/52379254630_863d9c894f_b.jpg","medium_url":"https://perenual.com/storage/species_image/3597_hemerocallis_respighi/medium/52379254630_863d9c894f_b.jpg","small_url":"https://perenual.com/storage/species_image/3597_hemerocallis_respighi/small/52379254630_863d9c894f_b.jpg","thumbnail":"https://perenual.com/storage/species_image/3597_hemerocallis_respighi/thumbnail/52379254630_863d9c894f_b.jpg"}},{"id":3598,"common_name":"daylily","scientific_name":["Hemerocallis 'Ribbons and Curls'"],"other_name":null,"cycle":"Perennial","watering":"Average","sunlight":["Full sun","part shade"],"default_image":{"image_id":7441,"license":5,"license_name":"Attribution-ShareAlike License","license_url":"https://creativecommons.org/licenses/by-sa/2.0/","original_url":"https://perenual.com/storage/species_image/3598_hemerocallis_ribbons_and_curls/og/52334581538_f1df7c1beb_b.jpg","regular_url":"https://perenual.com/storage/species_image/3598_hemerocallis_ribbons_and_curls/regular/52334581538_f1df7c1beb_b.jpg","medium_url":"https://perenual.com/storage/species_image/3598_hemerocallis_ribbons_and_curls/medium/52334581538_f1df7c1beb_b.jpg","small_url":"https://perenual.com/storage/species_image/3598_hemerocallis_ribbons_and_curls/small/52334581538_f1df7c1beb_b.jpg","thumbnail":"https://perenual.com/storage/species_image/3598_hemerocallis_ribbons_and_curls/thumbnail/52334581538_f1df7c1beb_b.jpg"}},{"id":3599,"common_name":"daylily","scientific_name":["Hemerocallis 'Rosana'"],"other_name":null,"cycle":"Perennial","watering":"Average","sunlight":["Full sun","part shade"],"default_image":{"image_id":7329,"license":5,"license_name":"Attribution-ShareAlike License","license_url":"https://creativecommons.org/licenses/by-sa/2.0/","original_url":"https://perenual.com/storage/species_image/3599_hemerocallis_rosana/og/52377894822_58e27b6592_b.jpg","regular_url":"https://perenual.com/storage/species_image/3599_hemerocallis_rosana/regular/52377894822_58e27b6592_b.jpg","medium_url":"https://perenual.com/storage/species_image/3599_hemerocallis_rosana/medium/52377894822_58e27b6592_b.jpg","small_url":"https://perenual.com/storage/species_image/3599_hemerocallis_rosana/small/52377894822_58e27b6592_b.jpg","thumbnail":"https://perenual.com/storage/species_image/3599_hemerocallis_rosana/thumbnail/52377894822_58e27b6592_b.jpg"}},{"id":3600,"common_name":"tetraploid daylily","scientific_name":["Hemerocallis 'Rose'"],"other_name":null,"cycle":"Perennial","watering":"Average","sunlight":["Full sun","part shade"],"default_image":{"image_id":7462,"license":5,"license_name":"Attribution-ShareAlike License","license_url":"https://creativecommons.org/licenses/by-sa/2.0/","original_url":"https://perenual.com/storage/species_image/3600_hemerocallis_rose/og/52222909315_20f7b2e304_b.jpg","regular_url":"https://perenual.com/storage/species_image/3600_hemerocallis_rose/regular/52222909315_20f7b2e304_b.jpg","medium_url":"https://perenual.com/storage/species_image/3600_hemerocallis_rose/medium/52222909315_20f7b2e304_b.jpg","small_url":"https://perenual.com/storage/species_image/3600_hemerocallis_rose/small/52222909315_20f7b2e304_b.jpg","thumbnail":"https://perenual.com/storage/species_image/3600_hemerocallis_rose/thumbnail/52222909315_20f7b2e304_b.jpg"}}],"to":3600,"per_page":30,"current_page":120,"from":3571,"last_page":200,"total":6000}