{"data":[{"id":601,"common_name":"giant hyssop","scientific_name":["Agastache SUMMER GLOW"],"other_name":null,"cycle":"Perennial","watering":"Average","sunlight":["Full sun"],"default_image":{"image_id":9,"license":5,"license_name":"Attribution-ShareAlike License","license_url":"https://creativecommons.org/licenses/by-sa/2.0/","original_url":"https://perenual.com/storage/species_image/2_abies_alba_pyramidalis/og/49255769768_df55596553_b.jpg","regular_url":"https://perenual.com/storage/species_image/2_abies_alba_pyramidalis/regular/49255769768_df55596553_b.jpg","medium_url":"https://perenual.com/storage/species_image/2_abies_alba_pyramidalis/medium/49255769768_df55596553_b.jpg","small_url":"https://perenual.com/storage/species_image/2_abies_alba_pyramidalis/small/49255769768_df55596553_b.jpg","thumbnail":"https://perenual.com/storage/species_image/2_abies_alba_pyramidalis/thumbnail/49255769768_df55596553_b.jpg"}},{"id":602,"common_name":"giant hyssop","scientific_name":["Agastache 'Summer Love'"],"other_name":null,"cycle":"Perennial","watering":"Average","sunlight":["Full sun"],"default_image":{"image_id":21986,"license":1,"license_name":null,"license_url":null,"original_url":"https://perenual.com/storage/species_image/602_agastache_summer_love/og/28307632893_f5bb8dac83_b.jpg","regular_url":"https://perenual.com/storage/species_image/602_agastache_summer_love/regular/28307632893_f5bb8dac83_b.jpg","medium_url":"https://perenual.com/storage/species_image/602_agastache_summer_love/medium/28307632893_f5bb8dac83_b.jpg","small_url":"https://perenual.com/storage/species_image/602_agastache_summer_love/small/28307632893_f5bb8dac83_b.jpg","thumbnail":"https://perenual.com/storage/species_image/602_agastache_summer_love/thumbnail/28307632893_f5bb8dac83_b.jpg"}},{"id":603,"common_name":"giant hyssop","scientific_name":["Agastache 'TNAGAPBY' POQUITO BUTTER YELLOW"],"other_name":null,"cycle":"Perennial","watering":"Average","sunlight":["Full sun"],"default_image":{"image_id":9,"license":5,"license_name":"Attribution-ShareAlike License","license_url":"https://creativecommons.org/licenses/by-sa/2.0/","original_url":"https://perenual.com/storage/species_image/2_abies_alba_pyramidalis/og/49255769768_df55596553_b.jpg","regular_url":"https://perenual.com/storage/species_image/2_abies_alba_pyramidalis/regular/49255769768_df55596553_b.jpg","medium_url":"https://perenual.com/storage/species_image/2_abies_alba_pyramidalis/medium/49255769768_df55596553_b.jpg","small_url":"https://perenual.com/storage/species_image/2_abies_alba_pyramidalis/small/49255769768_df55596553_b.jpg","thumbnail":"https://perenual.com/storage/species_image/2_abies_alba_pyramidalis/thumbnail/49255769768_df55596553_b.jpg"}},{"id":604,"common_name":"giant hyssop","scientific_name":["Agastache 'Tutti-frutti'"],"other_name":null,"cycle":"Perennial","watering":"Average","sunlight":["Full sun"],"default_image":{"image_id":9,"license":5,"license_name":"Attribution-ShareAlike License","license_url":"https://creativecommons.org/licenses/by-sa/2.0/","original_url":"https://perenual.com/storage/species_image/2_abies_alba_pyramidalis/og/49255769768_df55596553_b.jpg","regular_url":"https://perenual.com/storage/species_image/2_abies_alba_pyramidalis/regular/49255769768_df55596553_b.jpg","medium_url":"https://perenual.com/storage/species_image/2_abies_alba_pyramidalis/medium/49255769768_df55596553_b.jpg","small_url":"https://perenual.com/storage/species_image/2_abies_alba_pyramidalis/small/49255769768_df55596553_b.jpg","thumbnail":"https://perenual.com/storage/species_image/2_abies_alba_pyramidalis/thumbnail/49255769768_df55596553_b.jpg"}},{"id":605,"common_name":"hummingbird's mint","scientific_name":["Agastache 'Violet Vision'"],"other_name":null,"cycle":"Perennial","watering":"Average","sunlight":["Full sun"],"default_image":{"image_id":21177,"license":45,"license_name":"Attribution-ShareAlike 3.0 Unported (CC BY-SA 3.0)","license_url":"https://creativecommons.org/licenses/by-sa/3.0/deed.en","original_url":"https://perenual.com/storage/species_image/605_agastache_violet_vision/og/Salvia_verticillata_2.jpg","regular_url":"https://perenual.com/storage/species_image/605_agastache_violet_vision/regular/Salvia_verticillata_2.jpg","medium_url":"https://perenual.com/storage/species_image/605_agastache_violet_vision/medium/Salvia_verticillata_2.jpg","small_url":"https://perenual.com/storage/species_image/605_agastache_violet_vision/small/Salvia_verticillata_2.jpg","thumbnail":"https://perenual.com/storage/species_image/605_agastache_violet_vision/thumbnail/Salvia_verticillata_2.jpg"}},{"id":606,"common_name":"American century plant","scientific_name":["Agave americana"],"other_name":null,"cycle":"Perennial","watering":"Minimum","sunlight":["Full sun"," Sheltered"],"default_image":{"image_id":1311,"license":4,"license_name":"Attribution License","license_url":"https://creativecommons.org/licenses/by/2.0/","original_url":"https://perenual.com/storage/species_image/606_agave_americana/og/51350574500_deff0b0166_b.jpg","regular_url":"https://perenual.com/storage/species_image/606_agave_americana/regular/51350574500_deff0b0166_b.jpg","medium_url":"https://perenual.com/storage/species_image/606_agave_americana/medium/51350574500_deff0b0166_b.jpg","small_url":"https://perenual.com/storage/species_image/606_agave_americana/small/51350574500_deff0b0166_b.jpg","thumbnail":"https://perenual.com/storage/species_image/606_agave_americana/thumbnail/51350574500_deff0b0166_b.jpg"}},{"id":607,"common_name":"century plant","scientific_name":["Agave attenuata"],"other_name":null,"cycle":"Perennial","watering":"Average","sunlight":["Full sun","part shade"],"default_image":{"image_id":1313,"license":4,"license_name":"Attribution License","license_url":"https://creativecommons.org/licenses/by/2.0/","original_url":"https://perenual.com/storage/species_image/607_agave_attenuata/og/51962911337_8de0a51422_b.jpg","regular_url":"https://perenual.com/storage/species_image/607_agave_attenuata/regular/51962911337_8de0a51422_b.jpg","medium_url":"https://perenual.com/storage/species_image/607_agave_attenuata/medium/51962911337_8de0a51422_b.jpg","small_url":"https://perenual.com/storage/species_image/607_agave_attenuata/small/51962911337_8de0a51422_b.jpg","thumbnail":"https://perenual.com/storage/species_image/607_agave_attenuata/thumbnail/51962911337_8de0a51422_b.jpg"}},{"id":608,"common_name":"century plant","scientific_name":["Agave 'Blue Glow'"],"other_name":null,"cycle":"Perennial","watering":"Minimum","sunlight":["Full sun","part shade"],"default_image":{"image_id":1317,"license":5,"license_name":"Attribution-ShareAlike License","license_url":"https://creativecommons.org/licenses/by-sa/2.0/","original_url":"https://perenual.com/storage/species_image/608_agave_blue_glow/og/50936460346_a8e544d18f_b.jpg","regular_url":"https://perenual.com/storage/species_image/608_agave_blue_glow/regular/50936460346_a8e544d18f_b.jpg","medium_url":"https://perenual.com/storage/species_image/608_agave_blue_glow/medium/50936460346_a8e544d18f_b.jpg","small_url":"https://perenual.com/storage/species_image/608_agave_blue_glow/small/50936460346_a8e544d18f_b.jpg","thumbnail":"https://perenual.com/storage/species_image/608_agave_blue_glow/thumbnail/50936460346_a8e544d18f_b.jpg"}},{"id":609,"common_name":"spineless jade agave","scientific_name":["Agave desmetiana"],"other_name":null,"cycle":"Perennial","watering":"Average","sunlight":["Full sun","part shade"],"default_image":{"image_id":1319,"license":4,"license_name":"Attribution License","license_url":"https://creativecommons.org/licenses/by/2.0/","original_url":"https://perenual.com/storage/species_image/609_agave_desmetiana/og/32890107377_b45716fb43_b.jpg","regular_url":"https://perenual.com/storage/species_image/609_agave_desmetiana/regular/32890107377_b45716fb43_b.jpg","medium_url":"https://perenual.com/storage/species_image/609_agave_desmetiana/medium/32890107377_b45716fb43_b.jpg","small_url":"https://perenual.com/storage/species_image/609_agave_desmetiana/small/32890107377_b45716fb43_b.jpg","thumbnail":"https://perenual.com/storage/species_image/609_agave_desmetiana/thumbnail/32890107377_b45716fb43_b.jpg"}},{"id":610,"common_name":"agave","scientific_name":["Agave geminiflora RASTA MAN"],"other_name":null,"cycle":"Perennial","watering":"Minimum","sunlight":["Full sun","part shade"],"default_image":{"image_id":1321,"license":4,"license_name":"Attribution License","license_url":"https://creativecommons.org/licenses/by/2.0/","original_url":"https://perenual.com/storage/species_image/610_agave_geminiflora_rasta_man/og/52530443763_67d6cb9ebb_b.jpg","regular_url":"https://perenual.com/storage/species_image/610_agave_geminiflora_rasta_man/regular/52530443763_67d6cb9ebb_b.jpg","medium_url":"https://perenual.com/storage/species_image/610_agave_geminiflora_rasta_man/medium/52530443763_67d6cb9ebb_b.jpg","small_url":"https://perenual.com/storage/species_image/610_agave_geminiflora_rasta_man/small/52530443763_67d6cb9ebb_b.jpg","thumbnail":"https://perenual.com/storage/species_image/610_agave_geminiflora_rasta_man/thumbnail/52530443763_67d6cb9ebb_b.jpg"}},{"id":611,"common_name":"century plant","scientific_name":["Agave havardiana"],"other_name":null,"cycle":"Perennial","watering":"Minimum","sunlight":["Full sun","part shade"],"default_image":{"image_id":9,"license":5,"license_name":"Attribution-ShareAlike License","license_url":"https://creativecommons.org/licenses/by-sa/2.0/","original_url":"https://perenual.com/storage/species_image/2_abies_alba_pyramidalis/og/49255769768_df55596553_b.jpg","regular_url":"https://perenual.com/storage/species_image/2_abies_alba_pyramidalis/regular/49255769768_df55596553_b.jpg","medium_url":"https://perenual.com/storage/species_image/2_abies_alba_pyramidalis/medium/49255769768_df55596553_b.jpg","small_url":"https://perenual.com/storage/species_image/2_abies_alba_pyramidalis/small/49255769768_df55596553_b.jpg","thumbnail":"https://perenual.com/storage/species_image/2_abies_alba_pyramidalis/thumbnail/49255769768_df55596553_b.jpg"}},{"id":612,"common_name":"whale's tongue agave","scientific_name":["Agave ovatifolia"],"other_name":null,"cycle":"Perennial","watering":"Minimum","sunlight":["Full sun"],"default_image":{"image_id":9,"license":5,"license_name":"Attribution-ShareAlike License","license_url":"https://creativecommons.org/licenses/by-sa/2.0/","original_url":"https://perenual.com/storage/species_image/2_abies_alba_pyramidalis/og/49255769768_df55596553_b.jpg","regular_url":"https://perenual.com/storage/species_image/2_abies_alba_pyramidalis/regular/49255769768_df55596553_b.jpg","medium_url":"https://perenual.com/storage/species_image/2_abies_alba_pyramidalis/medium/49255769768_df55596553_b.jpg","small_url":"https://perenual.com/storage/species_image/2_abies_alba_pyramidalis/small/49255769768_df55596553_b.jpg","thumbnail":"https://perenual.com/storage/species_image/2_abies_alba_pyramidalis/thumbnail/49255769768_df55596553_b.jpg"}},{"id":613,"common_name":"Parry's agave","scientific_name":["Agave parryi"],"other_name":null,"cycle":"Perennial","watering":"Average","sunlight":["Full sun"],"default_image":{"image_id":1328,"license":5,"license_name":"Attribution-ShareAlike License","license_url":"https://creativecommons.org/licenses/by-sa/2.0/","original_url":"https://perenual.com/storage/species_image/613_agave_parryi/og/51853759307_703d562098_b.jpg","regular_url":"https://perenual.com/storage/species_image/613_agave_parryi/regular/51853759307_703d562098_b.jpg","medium_url":"https://perenual.com/storage/species_image/613_agave_parryi/medium/51853759307_703d562098_b.jpg","small_url":"https://perenual.com/storage/species_image/613_agave_parryi/small/51853759307_703d562098_b.jpg","thumbnail":"https://perenual.com/storage/species_image/613_agave_parryi/thumbnail/51853759307_703d562098_b.jpg"}},{"id":614,"common_name":"century plant","scientific_name":["Agave schidigera"],"other_name":null,"cycle":"Perennial","watering":"Average","sunlight":["Full sun","part shade"],"default_image":{"image_id":1335,"license":4,"license_name":"Attribution License","license_url":"https://creativecommons.org/licenses/by/2.0/","original_url":"https://perenual.com/storage/species_image/614_agave_schidigera/og/51852950940_ee9d405f2b_b.jpg","regular_url":"https://perenual.com/storage/species_image/614_agave_schidigera/regular/51852950940_ee9d405f2b_b.jpg","medium_url":"https://perenual.com/storage/species_image/614_agave_schidigera/medium/51852950940_ee9d405f2b_b.jpg","small_url":"https://perenual.com/storage/species_image/614_agave_schidigera/small/51852950940_ee9d405f2b_b.jpg","thumbnail":"https://perenual.com/storage/species_image/614_agave_schidigera/thumbnail/51852950940_ee9d405f2b_b.jpg"}},{"id":615,"common_name":"century plant","scientific_name":["Agave schidigera 'Shira-ito-no-ohi'"],"other_name":null,"cycle":"Perennial","watering":"Average","sunlight":["Full sun","part shade"],"default_image":{"image_id":21178,"license":45,"license_name":"Attribution-ShareAlike 3.0 Unported (CC BY-SA 3.0)","license_url":"https://creativecommons.org/licenses/by-sa/3.0/deed.en","original_url":"https://perenual.com/storage/species_image/615_agave_schidigera_shira-ito-no-ohi/og/Starr_071221-0080_Bromus_rubens.jpg","regular_url":"https://perenual.com/storage/species_image/615_agave_schidigera_shira-ito-no-ohi/regular/Starr_071221-0080_Bromus_rubens.jpg","medium_url":"https://perenual.com/storage/species_image/615_agave_schidigera_shira-ito-no-ohi/medium/Starr_071221-0080_Bromus_rubens.jpg","small_url":"https://perenual.com/storage/species_image/615_agave_schidigera_shira-ito-no-ohi/small/Starr_071221-0080_Bromus_rubens.jpg","thumbnail":"https://perenual.com/storage/species_image/615_agave_schidigera_shira-ito-no-ohi/thumbnail/Starr_071221-0080_Bromus_rubens.jpg"}},{"id":616,"common_name":"coastal agave","scientific_name":["Agave shawii"],"other_name":null,"cycle":"Perennial","watering":"Minimum","sunlight":["Full sun"],"default_image":{"image_id":1344,"license":4,"license_name":"Attribution License","license_url":"https://creativecommons.org/licenses/by/2.0/","original_url":"https://perenual.com/storage/species_image/616_agave_shawii/og/36689783073_9767391d99_b.jpg","regular_url":"https://perenual.com/storage/species_image/616_agave_shawii/regular/36689783073_9767391d99_b.jpg","medium_url":"https://perenual.com/storage/species_image/616_agave_shawii/medium/36689783073_9767391d99_b.jpg","small_url":"https://perenual.com/storage/species_image/616_agave_shawii/small/36689783073_9767391d99_b.jpg","thumbnail":"https://perenual.com/storage/species_image/616_agave_shawii/thumbnail/36689783073_9767391d99_b.jpg"}},{"id":617,"common_name":"century plant","scientific_name":["Agave univittata 'Splendida'"],"other_name":null,"cycle":"Perennial","watering":"Minimum","sunlight":["Full sun"],"default_image":{"image_id":21179,"license":45,"license_name":"Attribution-ShareAlike 3.0 Unported (CC BY-SA 3.0)","license_url":"https://creativecommons.org/licenses/by-sa/3.0/deed.en","original_url":"https://perenual.com/storage/species_image/617_agave_univittata_splendida/og/A121_agave_univittata_-_Flickr_-_Juan_Ignacio_1976.jpg","regular_url":"https://perenual.com/storage/species_image/617_agave_univittata_splendida/regular/A121_agave_univittata_-_Flickr_-_Juan_Ignacio_1976.jpg","medium_url":"https://perenual.com/storage/species_image/617_agave_univittata_splendida/medium/A121_agave_univittata_-_Flickr_-_Juan_Ignacio_1976.jpg","small_url":"https://perenual.com/storage/species_image/617_agave_univittata_splendida/small/A121_agave_univittata_-_Flickr_-_Juan_Ignacio_1976.jpg","thumbnail":"https://perenual.com/storage/species_image/617_agave_univittata_splendida/thumbnail/A121_agave_univittata_-_Flickr_-_Juan_Ignacio_1976.jpg"}},{"id":618,"common_name":"century plant","scientific_name":["Agave victoriae-reginae"],"other_name":null,"cycle":"Perennial","watering":"Minimum","sunlight":["Full sun"],"default_image":{"image_id":9,"license":5,"license_name":"Attribution-ShareAlike License","license_url":"https://creativecommons.org/licenses/by-sa/2.0/","original_url":"https://perenual.com/storage/species_image/2_abies_alba_pyramidalis/og/49255769768_df55596553_b.jpg","regular_url":"https://perenual.com/storage/species_image/2_abies_alba_pyramidalis/regular/49255769768_df55596553_b.jpg","medium_url":"https://perenual.com/storage/species_image/2_abies_alba_pyramidalis/medium/49255769768_df55596553_b.jpg","small_url":"https://perenual.com/storage/species_image/2_abies_alba_pyramidalis/small/49255769768_df55596553_b.jpg","thumbnail":"https://perenual.com/storage/species_image/2_abies_alba_pyramidalis/thumbnail/49255769768_df55596553_b.jpg"}},{"id":619,"common_name":"white snakeroot","scientific_name":["Ageratina altissima"],"other_name":null,"cycle":"Perennial","watering":"Frequent","sunlight":[],"default_image":{"image_id":1347,"license":5,"license_name":"Attribution-ShareAlike License","license_url":"https://creativecommons.org/licenses/by-sa/2.0/","original_url":"https://perenual.com/storage/species_image/620_ageratina_altissima_chocolate/og/51543903434_138f246306_b.jpg","regular_url":"https://perenual.com/storage/species_image/620_ageratina_altissima_chocolate/regular/51543903434_138f246306_b.jpg","medium_url":"https://perenual.com/storage/species_image/620_ageratina_altissima_chocolate/medium/51543903434_138f246306_b.jpg","small_url":"https://perenual.com/storage/species_image/620_ageratina_altissima_chocolate/small/51543903434_138f246306_b.jpg","thumbnail":"https://perenual.com/storage/species_image/620_ageratina_altissima_chocolate/thumbnail/51543903434_138f246306_b.jpg"}},{"id":620,"common_name":"white snakeroot","scientific_name":["Ageratina altissima 'Chocolate'"],"other_name":null,"cycle":"Perennial","watering":"Frequent","sunlight":[],"default_image":{"image_id":1347,"license":5,"license_name":"Attribution-ShareAlike License","license_url":"https://creativecommons.org/licenses/by-sa/2.0/","original_url":"https://perenual.com/storage/species_image/620_ageratina_altissima_chocolate/og/51543903434_138f246306_b.jpg","regular_url":"https://perenual.com/storage/species_image/620_ageratina_altissima_chocolate/regular/51543903434_138f246306_b.jpg","medium_url":"https://perenual.com/storage/species_image/620_ageratina_altissima_chocolate/medium/51543903434_138f246306_b.jpg","small_url":"https://perenual.com/storage/species_image/620_ageratina_altissima_chocolate/small/51543903434_138f246306_b.jpg","thumbnail":"https://perenual.com/storage/species_image/620_ageratina_altissima_chocolate/thumbnail/51543903434_138f246306_b.jpg"}},{"id":621,"common_name":"floss flower","scientific_name":["Ageratum houstonianum"],"other_name":null,"cycle":"Annual","watering":"Average","sunlight":["Full sun only if soil kept moist"," Part sun/part shade"],"default_image":{"image_id":1360,"license":4,"license_name":"Attribution License","license_url":"https://creativecommons.org/licenses/by/2.0/","original_url":"https://perenual.com/storage/species_image/621_ageratum_houstonianum/og/51344979097_90743ec1fc_b.jpg","regular_url":"https://perenual.com/storage/species_image/621_ageratum_houstonianum/regular/51344979097_90743ec1fc_b.jpg","medium_url":"https://perenual.com/storage/species_image/621_ageratum_houstonianum/medium/51344979097_90743ec1fc_b.jpg","small_url":"https://perenual.com/storage/species_image/621_ageratum_houstonianum/small/51344979097_90743ec1fc_b.jpg","thumbnail":"https://perenual.com/storage/species_image/621_ageratum_houstonianum/thumbnail/51344979097_90743ec1fc_b.jpg"}},{"id":622,"common_name":"floss flower","scientific_name":["Ageratum houstonianum 'Blue Horizon'"],"other_name":null,"cycle":"Perennial","watering":"Average","sunlight":["Full sun only if soil kept moist"," Part sun/part shade"],"default_image":{"image_id":9,"license":5,"license_name":"Attribution-ShareAlike License","license_url":"https://creativecommons.org/licenses/by-sa/2.0/","original_url":"https://perenual.com/storage/species_image/2_abies_alba_pyramidalis/og/49255769768_df55596553_b.jpg","regular_url":"https://perenual.com/storage/species_image/2_abies_alba_pyramidalis/regular/49255769768_df55596553_b.jpg","medium_url":"https://perenual.com/storage/species_image/2_abies_alba_pyramidalis/medium/49255769768_df55596553_b.jpg","small_url":"https://perenual.com/storage/species_image/2_abies_alba_pyramidalis/small/49255769768_df55596553_b.jpg","thumbnail":"https://perenual.com/storage/species_image/2_abies_alba_pyramidalis/thumbnail/49255769768_df55596553_b.jpg"}},{"id":623,"common_name":"chu-lan tree","scientific_name":["Aglaia edulis"],"other_name":null,"cycle":"Perennial","watering":"Average","sunlight":["Full sun","part shade"],"default_image":{"image_id":21183,"license":45,"license_name":"Attribution-ShareAlike 3.0 Unported (CC BY-SA 3.0)","license_url":"https://creativecommons.org/licenses/by-sa/3.0/deed.en","original_url":"https://perenual.com/storage/species_image/623_aglaia_edulis/og/726px-Me%C3%B1%C3%B1efum_tol.jpg","regular_url":"https://perenual.com/storage/species_image/623_aglaia_edulis/regular/726px-Me%C3%B1%C3%B1efum_tol.jpg","medium_url":"https://perenual.com/storage/species_image/623_aglaia_edulis/medium/726px-Me%C3%B1%C3%B1efum_tol.jpg","small_url":"https://perenual.com/storage/species_image/623_aglaia_edulis/small/726px-Me%C3%B1%C3%B1efum_tol.jpg","thumbnail":"https://perenual.com/storage/species_image/623_aglaia_edulis/thumbnail/726px-Me%C3%B1%C3%B1efum_tol.jpg"}},{"id":624,"common_name":"chu-lan tree","scientific_name":["Aglaia odorata"],"other_name":null,"cycle":"Perennial","watering":"Average","sunlight":["Full sun","part shade"],"default_image":{"image_id":1361,"license":5,"license_name":"Attribution-ShareAlike License","license_url":"https://creativecommons.org/licenses/by-sa/2.0/","original_url":"https://perenual.com/storage/species_image/624_aglaia_odorata/og/51246982944_75e2fb8d88_b.jpg","regular_url":"https://perenual.com/storage/species_image/624_aglaia_odorata/regular/51246982944_75e2fb8d88_b.jpg","medium_url":"https://perenual.com/storage/species_image/624_aglaia_odorata/medium/51246982944_75e2fb8d88_b.jpg","small_url":"https://perenual.com/storage/species_image/624_aglaia_odorata/small/51246982944_75e2fb8d88_b.jpg","thumbnail":"https://perenual.com/storage/species_image/624_aglaia_odorata/thumbnail/51246982944_75e2fb8d88_b.jpg"}},{"id":625,"common_name":"Philippine evergreen","scientific_name":["Aglaonema commutatum"],"other_name":null,"cycle":"Perennial","watering":"Average","sunlight":["Part shade","full shade"],"default_image":{"image_id":1367,"license":4,"license_name":"Attribution License","license_url":"https://creativecommons.org/licenses/by/2.0/","original_url":"https://perenual.com/storage/species_image/628_aglaonema_silver_queen/og/24798632751_3a039ecbc6_b.jpg","regular_url":"https://perenual.com/storage/species_image/628_aglaonema_silver_queen/regular/24798632751_3a039ecbc6_b.jpg","medium_url":"https://perenual.com/storage/species_image/628_aglaonema_silver_queen/medium/24798632751_3a039ecbc6_b.jpg","small_url":"https://perenual.com/storage/species_image/628_aglaonema_silver_queen/small/24798632751_3a039ecbc6_b.jpg","thumbnail":"https://perenual.com/storage/species_image/628_aglaonema_silver_queen/thumbnail/24798632751_3a039ecbc6_b.jpg"}},{"id":626,"common_name":"Chinese evegreen","scientific_name":["Aglaonema 'Cutlass'"],"other_name":null,"cycle":"Perennial","watering":"Average","sunlight":["Part shade","full shade"],"default_image":{"image_id":9,"license":5,"license_name":"Attribution-ShareAlike License","license_url":"https://creativecommons.org/licenses/by-sa/2.0/","original_url":"https://perenual.com/storage/species_image/2_abies_alba_pyramidalis/og/49255769768_df55596553_b.jpg","regular_url":"https://perenual.com/storage/species_image/2_abies_alba_pyramidalis/regular/49255769768_df55596553_b.jpg","medium_url":"https://perenual.com/storage/species_image/2_abies_alba_pyramidalis/medium/49255769768_df55596553_b.jpg","small_url":"https://perenual.com/storage/species_image/2_abies_alba_pyramidalis/small/49255769768_df55596553_b.jpg","thumbnail":"https://perenual.com/storage/species_image/2_abies_alba_pyramidalis/thumbnail/49255769768_df55596553_b.jpg"}},{"id":627,"common_name":"Chinese evergreen","scientific_name":["Aglaonema 'Red Gold'"],"other_name":null,"cycle":"Perennial","watering":"Average","sunlight":["Part shade"],"default_image":{"image_id":9,"license":5,"license_name":"Attribution-ShareAlike License","license_url":"https://creativecommons.org/licenses/by-sa/2.0/","original_url":"https://perenual.com/storage/species_image/2_abies_alba_pyramidalis/og/49255769768_df55596553_b.jpg","regular_url":"https://perenual.com/storage/species_image/2_abies_alba_pyramidalis/regular/49255769768_df55596553_b.jpg","medium_url":"https://perenual.com/storage/species_image/2_abies_alba_pyramidalis/medium/49255769768_df55596553_b.jpg","small_url":"https://perenual.com/storage/species_image/2_abies_alba_pyramidalis/small/49255769768_df55596553_b.jpg","thumbnail":"https://perenual.com/storage/species_image/2_abies_alba_pyramidalis/thumbnail/49255769768_df55596553_b.jpg"}},{"id":628,"common_name":"Chinese evergreen","scientific_name":["Aglaonema 'Silver Queen'"],"other_name":null,"cycle":"Perennial","watering":"Average","sunlight":["Part shade","full shade"],"default_image":{"image_id":1367,"license":4,"license_name":"Attribution License","license_url":"https://creativecommons.org/licenses/by/2.0/","original_url":"https://perenual.com/storage/species_image/628_aglaonema_silver_queen/og/24798632751_3a039ecbc6_b.jpg","regular_url":"https://perenual.com/storage/species_image/628_aglaonema_silver_queen/regular/24798632751_3a039ecbc6_b.jpg","medium_url":"https://perenual.com/storage/species_image/628_aglaonema_silver_queen/medium/24798632751_3a039ecbc6_b.jpg","small_url":"https://perenual.com/storage/species_image/628_aglaonema_silver_queen/small/24798632751_3a039ecbc6_b.jpg","thumbnail":"https://perenual.com/storage/species_image/628_aglaonema_silver_queen/thumbnail/24798632751_3a039ecbc6_b.jpg"}},{"id":629,"common_name":"creeping bent grass","scientific_name":["Agrostis palustris NO MOW"],"other_name":null,"cycle":"Perennial","watering":"Average","sunlight":["Full sun"],"default_image":{"image_id":21185,"license":45,"license_name":"Attribution-ShareAlike 3.0 Unported (CC BY-SA 3.0)","license_url":"https://creativecommons.org/licenses/by-sa/3.0/deed.en","original_url":"https://perenual.com/storage/species_image/630_agrostis_palustris_pennlinks/og/Agrostis_Wuchs.jpg","regular_url":"https://perenual.com/storage/species_image/630_agrostis_palustris_pennlinks/regular/Agrostis_Wuchs.jpg","medium_url":"https://perenual.com/storage/species_image/630_agrostis_palustris_pennlinks/medium/Agrostis_Wuchs.jpg","small_url":"https://perenual.com/storage/species_image/630_agrostis_palustris_pennlinks/small/Agrostis_Wuchs.jpg","thumbnail":"https://perenual.com/storage/species_image/630_agrostis_palustris_pennlinks/thumbnail/Agrostis_Wuchs.jpg"}},{"id":630,"common_name":"cloud grass","scientific_name":["Agrostis palustris 'Pennlinks'"],"other_name":null,"cycle":"Perennial","watering":"Average","sunlight":["Full sun"],"default_image":{"image_id":21185,"license":45,"license_name":"Attribution-ShareAlike 3.0 Unported (CC BY-SA 3.0)","license_url":"https://creativecommons.org/licenses/by-sa/3.0/deed.en","original_url":"https://perenual.com/storage/species_image/630_agrostis_palustris_pennlinks/og/Agrostis_Wuchs.jpg","regular_url":"https://perenual.com/storage/species_image/630_agrostis_palustris_pennlinks/regular/Agrostis_Wuchs.jpg","medium_url":"https://perenual.com/storage/species_image/630_agrostis_palustris_pennlinks/medium/Agrostis_Wuchs.jpg","small_url":"https://perenual.com/storage/species_image/630_agrostis_palustris_pennlinks/small/Agrostis_Wuchs.jpg","thumbnail":"https://perenual.com/storage/species_image/630_agrostis_palustris_pennlinks/thumbnail/Agrostis_Wuchs.jpg"}}],"to":630,"per_page":30,"current_page":21,"from":601,"last_page":200,"total":6000}