{"data":[{"id":1921,"common_name":"clematis","scientific_name":["Clematis florida var. sieboldiana"],"other_name":null,"cycle":"Perennial","watering":"Average","sunlight":["Full sun","part shade"],"default_image":{"image_id":4637,"license":4,"license_name":"Attribution License","license_url":"https://creativecommons.org/licenses/by/2.0/","original_url":"https://perenual.com/storage/species_image/1921_clematis_florida_var_sieboldiana/og/5791725997_007d0b489d_b.jpg","regular_url":"https://perenual.com/storage/species_image/1921_clematis_florida_var_sieboldiana/regular/5791725997_007d0b489d_b.jpg","medium_url":"https://perenual.com/storage/species_image/1921_clematis_florida_var_sieboldiana/medium/5791725997_007d0b489d_b.jpg","small_url":"https://perenual.com/storage/species_image/1921_clematis_florida_var_sieboldiana/small/5791725997_007d0b489d_b.jpg","thumbnail":"https://perenual.com/storage/species_image/1921_clematis_florida_var_sieboldiana/thumbnail/5791725997_007d0b489d_b.jpg"}},{"id":1922,"common_name":"Fremont's leather flower","scientific_name":["Clematis fremontii"],"other_name":null,"cycle":"Perennial","watering":"Average","sunlight":["Full sun","part shade"],"default_image":{"image_id":4638,"license":5,"license_name":"Attribution-ShareAlike License","license_url":"https://creativecommons.org/licenses/by-sa/2.0/","original_url":"https://perenual.com/storage/species_image/1922_clematis_fremontii/og/48306102187_7de45e1ba4_b.jpg","regular_url":"https://perenual.com/storage/species_image/1922_clematis_fremontii/regular/48306102187_7de45e1ba4_b.jpg","medium_url":"https://perenual.com/storage/species_image/1922_clematis_fremontii/medium/48306102187_7de45e1ba4_b.jpg","small_url":"https://perenual.com/storage/species_image/1922_clematis_fremontii/small/48306102187_7de45e1ba4_b.jpg","thumbnail":"https://perenual.com/storage/species_image/1922_clematis_fremontii/thumbnail/48306102187_7de45e1ba4_b.jpg"}},{"id":1923,"common_name":"Mongolian gold clematis","scientific_name":["Clematis fruticosa 'Mongolian Gold'"],"other_name":null,"cycle":"Perennial","watering":"Average","sunlight":["Full sun","part shade"],"default_image":{"image_id":4643,"license":451,"license_name":"CC0 1.0 Universal (CC0 1.0) Public Domain Dedication","license_url":"https://creativecommons.org/publicdomain/zero/1.0/","original_url":"https://perenual.com/storage/species_image/1923_clematis_fruticosa_mongolian_gold/og/frbeech_wood_autumn_autumn-image-kyci3chf.jpg?w=800&dpr=1&fit=default&crop=default&q=65&vib=3&con=3&usm=15&bg=F4F4F3&ixlib=js-2.2.jpg","regular_url":"https://perenual.com/storage/species_image/1923_clematis_fruticosa_mongolian_gold/regular/frbeech_wood_autumn_autumn-image-kyci3chf.jpg?w=800&dpr=1&fit=default&crop=default&q=65&vib=3&con=3&usm=15&bg=F4F4F3&ixlib=js-2.2.jpg","medium_url":"https://perenual.com/storage/species_image/1923_clematis_fruticosa_mongolian_gold/medium/frbeech_wood_autumn_autumn-image-kyci3chf.jpg?w=800&dpr=1&fit=default&crop=default&q=65&vib=3&con=3&usm=15&bg=F4F4F3&ixlib=js-2.2.jpg","small_url":"https://perenual.com/storage/species_image/1923_clematis_fruticosa_mongolian_gold/small/frbeech_wood_autumn_autumn-image-kyci3chf.jpg?w=800&dpr=1&fit=default&crop=default&q=65&vib=3&con=3&usm=15&bg=F4F4F3&ixlib=js-2.2.jpg","thumbnail":"https://perenual.com/storage/species_image/1923_clematis_fruticosa_mongolian_gold/thumbnail/frbeech_wood_autumn_autumn-image-kyci3chf.jpg?w=800&dpr=1&fit=default&crop=default&q=65&vib=3&con=3&usm=15&bg=F4F4F3&ixlib=js-2.2.jpg"}},{"id":1924,"common_name":"clematis","scientific_name":["Clematis 'General Sikorski'"],"other_name":null,"cycle":"Perennial","watering":"Average","sunlight":["Full sun","part shade"],"default_image":{"image_id":4644,"license":4,"license_name":"Attribution License","license_url":"https://creativecommons.org/licenses/by/2.0/","original_url":"https://perenual.com/storage/species_image/1924_clematis_general_sikorski/og/14193662676_a5b4f58918_b.jpg","regular_url":"https://perenual.com/storage/species_image/1924_clematis_general_sikorski/regular/14193662676_a5b4f58918_b.jpg","medium_url":"https://perenual.com/storage/species_image/1924_clematis_general_sikorski/medium/14193662676_a5b4f58918_b.jpg","small_url":"https://perenual.com/storage/species_image/1924_clematis_general_sikorski/small/14193662676_a5b4f58918_b.jpg","thumbnail":"https://perenual.com/storage/species_image/1924_clematis_general_sikorski/thumbnail/14193662676_a5b4f58918_b.jpg"}},{"id":1925,"common_name":"clematis","scientific_name":["Clematis 'Golden Cross'"],"other_name":null,"cycle":"Perennial","watering":"Average","sunlight":["Full sun","part shade"],"default_image":{"image_id":4645,"license":4,"license_name":"Attribution License","license_url":"https://creativecommons.org/licenses/by/2.0/","original_url":"https://perenual.com/storage/species_image/1925_clematis_golden_cross/og/52596644039_aa40cbbc61_b.jpg","regular_url":"https://perenual.com/storage/species_image/1925_clematis_golden_cross/regular/52596644039_aa40cbbc61_b.jpg","medium_url":"https://perenual.com/storage/species_image/1925_clematis_golden_cross/medium/52596644039_aa40cbbc61_b.jpg","small_url":"https://perenual.com/storage/species_image/1925_clematis_golden_cross/small/52596644039_aa40cbbc61_b.jpg","thumbnail":"https://perenual.com/storage/species_image/1925_clematis_golden_cross/thumbnail/52596644039_aa40cbbc61_b.jpg"}},{"id":1926,"common_name":"clematis","scientific_name":["Clematis 'Gravetye Beauty'"],"other_name":null,"cycle":"Perennial","watering":"Average","sunlight":["Full sun","part shade"],"default_image":{"image_id":4646,"license":5,"license_name":"Attribution-ShareAlike License","license_url":"https://creativecommons.org/licenses/by-sa/2.0/","original_url":"https://perenual.com/storage/species_image/1926_clematis_gravetye_beauty/og/14661043961_2ac91561b1_b.jpg","regular_url":"https://perenual.com/storage/species_image/1926_clematis_gravetye_beauty/regular/14661043961_2ac91561b1_b.jpg","medium_url":"https://perenual.com/storage/species_image/1926_clematis_gravetye_beauty/medium/14661043961_2ac91561b1_b.jpg","small_url":"https://perenual.com/storage/species_image/1926_clematis_gravetye_beauty/small/14661043961_2ac91561b1_b.jpg","thumbnail":"https://perenual.com/storage/species_image/1926_clematis_gravetye_beauty/thumbnail/14661043961_2ac91561b1_b.jpg"}},{"id":1927,"common_name":"clematis","scientific_name":["Clematis 'Hagley Hybrid'"],"other_name":null,"cycle":"Perennial","watering":"Average","sunlight":["Full sun","part shade"],"default_image":{"image_id":4653,"license":5,"license_name":"Attribution-ShareAlike License","license_url":"https://creativecommons.org/licenses/by-sa/2.0/","original_url":"https://perenual.com/storage/species_image/1927_clematis_hagley_hybrid/og/50026651892_70b43e2d95_b.jpg","regular_url":"https://perenual.com/storage/species_image/1927_clematis_hagley_hybrid/regular/50026651892_70b43e2d95_b.jpg","medium_url":"https://perenual.com/storage/species_image/1927_clematis_hagley_hybrid/medium/50026651892_70b43e2d95_b.jpg","small_url":"https://perenual.com/storage/species_image/1927_clematis_hagley_hybrid/small/50026651892_70b43e2d95_b.jpg","thumbnail":"https://perenual.com/storage/species_image/1927_clematis_hagley_hybrid/thumbnail/50026651892_70b43e2d95_b.jpg"}},{"id":1928,"common_name":"clematis","scientific_name":["Clematis 'Henryi'"],"other_name":null,"cycle":"Perennial","watering":"Average","sunlight":["Full sun","part shade"],"default_image":{"image_id":4657,"license":5,"license_name":"Attribution-ShareAlike License","license_url":"https://creativecommons.org/licenses/by-sa/2.0/","original_url":"https://perenual.com/storage/species_image/1928_clematis_henryi/og/1954176150_8802c82f6c_b.jpg","regular_url":"https://perenual.com/storage/species_image/1928_clematis_henryi/regular/1954176150_8802c82f6c_b.jpg","medium_url":"https://perenual.com/storage/species_image/1928_clematis_henryi/medium/1954176150_8802c82f6c_b.jpg","small_url":"https://perenual.com/storage/species_image/1928_clematis_henryi/small/1954176150_8802c82f6c_b.jpg","thumbnail":"https://perenual.com/storage/species_image/1928_clematis_henryi/thumbnail/1954176150_8802c82f6c_b.jpg"}},{"id":1929,"common_name":"clematis","scientific_name":["Clematis heracleifolia"],"other_name":null,"cycle":"Perennial","watering":"Average","sunlight":["Full sun","part shade"],"default_image":{"image_id":9,"license":5,"license_name":"Attribution-ShareAlike License","license_url":"https://creativecommons.org/licenses/by-sa/2.0/","original_url":"https://perenual.com/storage/species_image/2_abies_alba_pyramidalis/og/49255769768_df55596553_b.jpg","regular_url":"https://perenual.com/storage/species_image/2_abies_alba_pyramidalis/regular/49255769768_df55596553_b.jpg","medium_url":"https://perenual.com/storage/species_image/2_abies_alba_pyramidalis/medium/49255769768_df55596553_b.jpg","small_url":"https://perenual.com/storage/species_image/2_abies_alba_pyramidalis/small/49255769768_df55596553_b.jpg","thumbnail":"https://perenual.com/storage/species_image/2_abies_alba_pyramidalis/thumbnail/49255769768_df55596553_b.jpg"}},{"id":1930,"common_name":"solitary clematis","scientific_name":["Clematis integrifolia"],"other_name":null,"cycle":"Perennial","watering":"Average","sunlight":["Full sun","part shade"],"default_image":{"image_id":4662,"license":5,"license_name":"Attribution-ShareAlike License","license_url":"https://creativecommons.org/licenses/by-sa/2.0/","original_url":"https://perenual.com/storage/species_image/1930_clematis_integrifolia/og/9200878030_d2b4e026b0_b.jpg","regular_url":"https://perenual.com/storage/species_image/1930_clematis_integrifolia/regular/9200878030_d2b4e026b0_b.jpg","medium_url":"https://perenual.com/storage/species_image/1930_clematis_integrifolia/medium/9200878030_d2b4e026b0_b.jpg","small_url":"https://perenual.com/storage/species_image/1930_clematis_integrifolia/small/9200878030_d2b4e026b0_b.jpg","thumbnail":"https://perenual.com/storage/species_image/1930_clematis_integrifolia/thumbnail/9200878030_d2b4e026b0_b.jpg"}},{"id":1931,"common_name":"solitary clematis","scientific_name":["Clematis integrifolia 'Caerulea'"],"other_name":null,"cycle":"Perennial","watering":"Average","sunlight":["Full sun","part shade"],"default_image":{"image_id":9,"license":5,"license_name":"Attribution-ShareAlike License","license_url":"https://creativecommons.org/licenses/by-sa/2.0/","original_url":"https://perenual.com/storage/species_image/2_abies_alba_pyramidalis/og/49255769768_df55596553_b.jpg","regular_url":"https://perenual.com/storage/species_image/2_abies_alba_pyramidalis/regular/49255769768_df55596553_b.jpg","medium_url":"https://perenual.com/storage/species_image/2_abies_alba_pyramidalis/medium/49255769768_df55596553_b.jpg","small_url":"https://perenual.com/storage/species_image/2_abies_alba_pyramidalis/small/49255769768_df55596553_b.jpg","thumbnail":"https://perenual.com/storage/species_image/2_abies_alba_pyramidalis/thumbnail/49255769768_df55596553_b.jpg"}},{"id":1932,"common_name":"solitary clematis","scientific_name":["Clematis integrifolia 'Rose Colored Glasses'"],"other_name":null,"cycle":"Perennial","watering":"Average","sunlight":["Full sun","part shade"],"default_image":{"image_id":4669,"license":5,"license_name":"Attribution-ShareAlike License","license_url":"https://creativecommons.org/licenses/by-sa/2.0/","original_url":"https://perenual.com/storage/species_image/1932_clematis_integrifolia_rose_colored_glasses/og/40784923420_5b0fc3540e_b.jpg","regular_url":"https://perenual.com/storage/species_image/1932_clematis_integrifolia_rose_colored_glasses/regular/40784923420_5b0fc3540e_b.jpg","medium_url":"https://perenual.com/storage/species_image/1932_clematis_integrifolia_rose_colored_glasses/medium/40784923420_5b0fc3540e_b.jpg","small_url":"https://perenual.com/storage/species_image/1932_clematis_integrifolia_rose_colored_glasses/small/40784923420_5b0fc3540e_b.jpg","thumbnail":"https://perenual.com/storage/species_image/1932_clematis_integrifolia_rose_colored_glasses/thumbnail/40784923420_5b0fc3540e_b.jpg"}},{"id":1933,"common_name":"clematis","scientific_name":["Clematis 'Jackmanii'"],"other_name":null,"cycle":"Perennial","watering":"Average","sunlight":["Full sun","part shade"],"default_image":{"image_id":4670,"license":4,"license_name":"Attribution License","license_url":"https://creativecommons.org/licenses/by/2.0/","original_url":"https://perenual.com/storage/species_image/1933_clematis_jackmanii/og/50378597926_1766fd55ab_b.jpg","regular_url":"https://perenual.com/storage/species_image/1933_clematis_jackmanii/regular/50378597926_1766fd55ab_b.jpg","medium_url":"https://perenual.com/storage/species_image/1933_clematis_jackmanii/medium/50378597926_1766fd55ab_b.jpg","small_url":"https://perenual.com/storage/species_image/1933_clematis_jackmanii/small/50378597926_1766fd55ab_b.jpg","thumbnail":"https://perenual.com/storage/species_image/1933_clematis_jackmanii/thumbnail/50378597926_1766fd55ab_b.jpg"}},{"id":1934,"common_name":"clematis","scientific_name":["Clematis 'Jackmanii Superba'"],"other_name":null,"cycle":"Perennial","watering":"Average","sunlight":["Full sun","part shade"],"default_image":{"image_id":4622,"license":5,"license_name":"Attribution-ShareAlike License","license_url":"https://creativecommons.org/licenses/by-sa/2.0/","original_url":"https://perenual.com/storage/species_image/1934_clematis_jackmanii_superba/og/52462026639_fdb821eaf9_b.jpg","regular_url":"https://perenual.com/storage/species_image/1934_clematis_jackmanii_superba/regular/52462026639_fdb821eaf9_b.jpg","medium_url":"https://perenual.com/storage/species_image/1934_clematis_jackmanii_superba/medium/52462026639_fdb821eaf9_b.jpg","small_url":"https://perenual.com/storage/species_image/1934_clematis_jackmanii_superba/small/52462026639_fdb821eaf9_b.jpg","thumbnail":"https://perenual.com/storage/species_image/1934_clematis_jackmanii_superba/thumbnail/52462026639_fdb821eaf9_b.jpg"}},{"id":1935,"common_name":"clematis","scientific_name":["Clematis 'John Huxtable'"],"other_name":null,"cycle":"Perennial","watering":"Average","sunlight":["Full sun","part shade"],"default_image":{"image_id":4673,"license":5,"license_name":"Attribution-ShareAlike License","license_url":"https://creativecommons.org/licenses/by-sa/2.0/","original_url":"https://perenual.com/storage/species_image/1953_clematis_silver_moon/og/52609575523_98fc523349_b.jpg","regular_url":"https://perenual.com/storage/species_image/1953_clematis_silver_moon/regular/52609575523_98fc523349_b.jpg","medium_url":"https://perenual.com/storage/species_image/1953_clematis_silver_moon/medium/52609575523_98fc523349_b.jpg","small_url":"https://perenual.com/storage/species_image/1953_clematis_silver_moon/small/52609575523_98fc523349_b.jpg","thumbnail":"https://perenual.com/storage/species_image/1953_clematis_silver_moon/thumbnail/52609575523_98fc523349_b.jpg"}},{"id":1936,"common_name":"clematis","scientific_name":["Clematis jouiniana"],"other_name":null,"cycle":"Perennial","watering":"Average","sunlight":["Full sun","part shade"],"default_image":{"image_id":4675,"license":5,"license_name":"Attribution-ShareAlike License","license_url":"https://creativecommons.org/licenses/by-sa/2.0/","original_url":"https://perenual.com/storage/species_image/1936_clematis_jouiniana/og/2777855567_56f9d94643_b.jpg","regular_url":"https://perenual.com/storage/species_image/1936_clematis_jouiniana/regular/2777855567_56f9d94643_b.jpg","medium_url":"https://perenual.com/storage/species_image/1936_clematis_jouiniana/medium/2777855567_56f9d94643_b.jpg","small_url":"https://perenual.com/storage/species_image/1936_clematis_jouiniana/small/2777855567_56f9d94643_b.jpg","thumbnail":"https://perenual.com/storage/species_image/1936_clematis_jouiniana/thumbnail/2777855567_56f9d94643_b.jpg"}},{"id":1937,"common_name":"clematis","scientific_name":["Clematis 'Little Nell'"],"other_name":null,"cycle":"Perennial","watering":"Average","sunlight":["Full sun","part shade"],"default_image":null},{"id":1938,"common_name":"downy clematis","scientific_name":["Clematis macropetala"],"other_name":null,"cycle":"Perennial","watering":"Average","sunlight":["Full sun","part shade"],"default_image":{"image_id":4676,"license":5,"license_name":"Attribution-ShareAlike License","license_url":"https://creativecommons.org/licenses/by-sa/2.0/","original_url":"https://perenual.com/storage/species_image/1938_clematis_macropetala/og/34068299575_48d4eec1a6_b.jpg","regular_url":"https://perenual.com/storage/species_image/1938_clematis_macropetala/regular/34068299575_48d4eec1a6_b.jpg","medium_url":"https://perenual.com/storage/species_image/1938_clematis_macropetala/medium/34068299575_48d4eec1a6_b.jpg","small_url":"https://perenual.com/storage/species_image/1938_clematis_macropetala/small/34068299575_48d4eec1a6_b.jpg","thumbnail":"https://perenual.com/storage/species_image/1938_clematis_macropetala/thumbnail/34068299575_48d4eec1a6_b.jpg"}},{"id":1939,"common_name":"clematis","scientific_name":["Clematis 'Madame Julia Correvon'"],"other_name":null,"cycle":"Perennial","watering":"Average","sunlight":["Full sun","part shade"],"default_image":{"image_id":9,"license":5,"license_name":"Attribution-ShareAlike License","license_url":"https://creativecommons.org/licenses/by-sa/2.0/","original_url":"https://perenual.com/storage/species_image/2_abies_alba_pyramidalis/og/49255769768_df55596553_b.jpg","regular_url":"https://perenual.com/storage/species_image/2_abies_alba_pyramidalis/regular/49255769768_df55596553_b.jpg","medium_url":"https://perenual.com/storage/species_image/2_abies_alba_pyramidalis/medium/49255769768_df55596553_b.jpg","small_url":"https://perenual.com/storage/species_image/2_abies_alba_pyramidalis/small/49255769768_df55596553_b.jpg","thumbnail":"https://perenual.com/storage/species_image/2_abies_alba_pyramidalis/thumbnail/49255769768_df55596553_b.jpg"}},{"id":1940,"common_name":"clematis","scientific_name":["Clematis montana f. grandiflora"],"other_name":null,"cycle":"Perennial","watering":"Average","sunlight":["Full sun","part shade"],"default_image":{"image_id":9,"license":5,"license_name":"Attribution-ShareAlike License","license_url":"https://creativecommons.org/licenses/by-sa/2.0/","original_url":"https://perenual.com/storage/species_image/2_abies_alba_pyramidalis/og/49255769768_df55596553_b.jpg","regular_url":"https://perenual.com/storage/species_image/2_abies_alba_pyramidalis/regular/49255769768_df55596553_b.jpg","medium_url":"https://perenual.com/storage/species_image/2_abies_alba_pyramidalis/medium/49255769768_df55596553_b.jpg","small_url":"https://perenual.com/storage/species_image/2_abies_alba_pyramidalis/small/49255769768_df55596553_b.jpg","thumbnail":"https://perenual.com/storage/species_image/2_abies_alba_pyramidalis/thumbnail/49255769768_df55596553_b.jpg"}},{"id":1941,"common_name":"clematis","scientific_name":["Clematis 'My Angel'"],"other_name":null,"cycle":"Perennial","watering":"Average","sunlight":["Full sun","part shade"],"default_image":{"image_id":9,"license":5,"license_name":"Attribution-ShareAlike License","license_url":"https://creativecommons.org/licenses/by-sa/2.0/","original_url":"https://perenual.com/storage/species_image/2_abies_alba_pyramidalis/og/49255769768_df55596553_b.jpg","regular_url":"https://perenual.com/storage/species_image/2_abies_alba_pyramidalis/regular/49255769768_df55596553_b.jpg","medium_url":"https://perenual.com/storage/species_image/2_abies_alba_pyramidalis/medium/49255769768_df55596553_b.jpg","small_url":"https://perenual.com/storage/species_image/2_abies_alba_pyramidalis/small/49255769768_df55596553_b.jpg","thumbnail":"https://perenual.com/storage/species_image/2_abies_alba_pyramidalis/thumbnail/49255769768_df55596553_b.jpg"}},{"id":1942,"common_name":"clematis","scientific_name":["Clematis 'Nelly Moser'"],"other_name":null,"cycle":"Perennial","watering":"Average","sunlight":["Full sun","part shade"],"default_image":{"image_id":4653,"license":5,"license_name":"Attribution-ShareAlike License","license_url":"https://creativecommons.org/licenses/by-sa/2.0/","original_url":"https://perenual.com/storage/species_image/1927_clematis_hagley_hybrid/og/50026651892_70b43e2d95_b.jpg","regular_url":"https://perenual.com/storage/species_image/1927_clematis_hagley_hybrid/regular/50026651892_70b43e2d95_b.jpg","medium_url":"https://perenual.com/storage/species_image/1927_clematis_hagley_hybrid/medium/50026651892_70b43e2d95_b.jpg","small_url":"https://perenual.com/storage/species_image/1927_clematis_hagley_hybrid/small/50026651892_70b43e2d95_b.jpg","thumbnail":"https://perenual.com/storage/species_image/1927_clematis_hagley_hybrid/thumbnail/50026651892_70b43e2d95_b.jpg"}},{"id":1943,"common_name":"clematis","scientific_name":["Clematis 'Niobe'"],"other_name":null,"cycle":"Perennial","watering":"Average","sunlight":["Full sun","part shade"],"default_image":{"image_id":4691,"license":5,"license_name":"Attribution-ShareAlike License","license_url":"https://creativecommons.org/licenses/by-sa/2.0/","original_url":"https://perenual.com/storage/species_image/1943_clematis_niobe/og/52164744197_50396b95b4_b.jpg","regular_url":"https://perenual.com/storage/species_image/1943_clematis_niobe/regular/52164744197_50396b95b4_b.jpg","medium_url":"https://perenual.com/storage/species_image/1943_clematis_niobe/medium/52164744197_50396b95b4_b.jpg","small_url":"https://perenual.com/storage/species_image/1943_clematis_niobe/small/52164744197_50396b95b4_b.jpg","thumbnail":"https://perenual.com/storage/species_image/1943_clematis_niobe/thumbnail/52164744197_50396b95b4_b.jpg"}},{"id":1944,"common_name":"clematis","scientific_name":["Clematis 'Paul Farges' SUMMER SNOW"],"other_name":null,"cycle":"Perennial","watering":"Average","sunlight":["Full sun","part shade"],"default_image":{"image_id":9,"license":5,"license_name":"Attribution-ShareAlike License","license_url":"https://creativecommons.org/licenses/by-sa/2.0/","original_url":"https://perenual.com/storage/species_image/2_abies_alba_pyramidalis/og/49255769768_df55596553_b.jpg","regular_url":"https://perenual.com/storage/species_image/2_abies_alba_pyramidalis/regular/49255769768_df55596553_b.jpg","medium_url":"https://perenual.com/storage/species_image/2_abies_alba_pyramidalis/medium/49255769768_df55596553_b.jpg","small_url":"https://perenual.com/storage/species_image/2_abies_alba_pyramidalis/small/49255769768_df55596553_b.jpg","thumbnail":"https://perenual.com/storage/species_image/2_abies_alba_pyramidalis/thumbnail/49255769768_df55596553_b.jpg"}},{"id":1945,"common_name":"clematis","scientific_name":["Clematis 'Pink Fantasy'"],"other_name":null,"cycle":"Perennial","watering":"Average","sunlight":["Full sun","part shade"],"default_image":{"image_id":9,"license":5,"license_name":"Attribution-ShareAlike License","license_url":"https://creativecommons.org/licenses/by-sa/2.0/","original_url":"https://perenual.com/storage/species_image/2_abies_alba_pyramidalis/og/49255769768_df55596553_b.jpg","regular_url":"https://perenual.com/storage/species_image/2_abies_alba_pyramidalis/regular/49255769768_df55596553_b.jpg","medium_url":"https://perenual.com/storage/species_image/2_abies_alba_pyramidalis/medium/49255769768_df55596553_b.jpg","small_url":"https://perenual.com/storage/species_image/2_abies_alba_pyramidalis/small/49255769768_df55596553_b.jpg","thumbnail":"https://perenual.com/storage/species_image/2_abies_alba_pyramidalis/thumbnail/49255769768_df55596553_b.jpg"}},{"id":1946,"common_name":"clematis","scientific_name":["Clematis pitcheri"],"other_name":null,"cycle":"Perennial","watering":"Average","sunlight":["Full sun","part shade"],"default_image":{"image_id":4698,"license":5,"license_name":"Attribution-ShareAlike License","license_url":"https://creativecommons.org/licenses/by-sa/2.0/","original_url":"https://perenual.com/storage/species_image/1946_clematis_pitcheri/og/42391620810_61aedbe39d_b.jpg","regular_url":"https://perenual.com/storage/species_image/1946_clematis_pitcheri/regular/42391620810_61aedbe39d_b.jpg","medium_url":"https://perenual.com/storage/species_image/1946_clematis_pitcheri/medium/42391620810_61aedbe39d_b.jpg","small_url":"https://perenual.com/storage/species_image/1946_clematis_pitcheri/small/42391620810_61aedbe39d_b.jpg","thumbnail":"https://perenual.com/storage/species_image/1946_clematis_pitcheri/thumbnail/42391620810_61aedbe39d_b.jpg"}},{"id":1947,"common_name":"clematis","scientific_name":["Clematis 'Princess Diana'"],"other_name":null,"cycle":"Perennial","watering":"Average","sunlight":["Full sun","part shade"],"default_image":{"image_id":4702,"license":4,"license_name":"Attribution License","license_url":"https://creativecommons.org/licenses/by/2.0/","original_url":"https://perenual.com/storage/species_image/1947_clematis_princess_diana/og/48777145132_b7279ccb06_b.jpg","regular_url":"https://perenual.com/storage/species_image/1947_clematis_princess_diana/regular/48777145132_b7279ccb06_b.jpg","medium_url":"https://perenual.com/storage/species_image/1947_clematis_princess_diana/medium/48777145132_b7279ccb06_b.jpg","small_url":"https://perenual.com/storage/species_image/1947_clematis_princess_diana/small/48777145132_b7279ccb06_b.jpg","thumbnail":"https://perenual.com/storage/species_image/1947_clematis_princess_diana/thumbnail/48777145132_b7279ccb06_b.jpg"}},{"id":1948,"common_name":"clematis","scientific_name":["Clematis 'Ramona'"],"other_name":null,"cycle":"Perennial","watering":"Average","sunlight":["Full sun","part shade"],"default_image":{"image_id":4705,"license":5,"license_name":"Attribution-ShareAlike License","license_url":"https://creativecommons.org/licenses/by-sa/2.0/","original_url":"https://perenual.com/storage/species_image/1948_clematis_ramona/og/43029586755_aa48bc8200_b.jpg","regular_url":"https://perenual.com/storage/species_image/1948_clematis_ramona/regular/43029586755_aa48bc8200_b.jpg","medium_url":"https://perenual.com/storage/species_image/1948_clematis_ramona/medium/43029586755_aa48bc8200_b.jpg","small_url":"https://perenual.com/storage/species_image/1948_clematis_ramona/small/43029586755_aa48bc8200_b.jpg","thumbnail":"https://perenual.com/storage/species_image/1948_clematis_ramona/thumbnail/43029586755_aa48bc8200_b.jpg"}},{"id":1949,"common_name":"clematis","scientific_name":["Clematis recta 'Purpurea'"],"other_name":null,"cycle":"Perennial","watering":"Average","sunlight":["Full sun"],"default_image":{"image_id":9,"license":5,"license_name":"Attribution-ShareAlike License","license_url":"https://creativecommons.org/licenses/by-sa/2.0/","original_url":"https://perenual.com/storage/species_image/2_abies_alba_pyramidalis/og/49255769768_df55596553_b.jpg","regular_url":"https://perenual.com/storage/species_image/2_abies_alba_pyramidalis/regular/49255769768_df55596553_b.jpg","medium_url":"https://perenual.com/storage/species_image/2_abies_alba_pyramidalis/medium/49255769768_df55596553_b.jpg","small_url":"https://perenual.com/storage/species_image/2_abies_alba_pyramidalis/small/49255769768_df55596553_b.jpg","thumbnail":"https://perenual.com/storage/species_image/2_abies_alba_pyramidalis/thumbnail/49255769768_df55596553_b.jpg"}},{"id":1950,"common_name":"clematis","scientific_name":["Clematis 'Rooguchi'"],"other_name":null,"cycle":"Perennial","watering":"Average","sunlight":["Full sun","part shade"],"default_image":{"image_id":9,"license":5,"license_name":"Attribution-ShareAlike License","license_url":"https://creativecommons.org/licenses/by-sa/2.0/","original_url":"https://perenual.com/storage/species_image/2_abies_alba_pyramidalis/og/49255769768_df55596553_b.jpg","regular_url":"https://perenual.com/storage/species_image/2_abies_alba_pyramidalis/regular/49255769768_df55596553_b.jpg","medium_url":"https://perenual.com/storage/species_image/2_abies_alba_pyramidalis/medium/49255769768_df55596553_b.jpg","small_url":"https://perenual.com/storage/species_image/2_abies_alba_pyramidalis/small/49255769768_df55596553_b.jpg","thumbnail":"https://perenual.com/storage/species_image/2_abies_alba_pyramidalis/thumbnail/49255769768_df55596553_b.jpg"}}],"to":1950,"per_page":30,"current_page":65,"from":1921,"last_page":200,"total":6000}