{"data":[{"id":631,"common_name":"tree of Heaven","scientific_name":["Ailanthus altissima"],"other_name":["Chinese Sumac","Stinking Sumac","Stinking Sumac"],"cycle":"Perennial","watering":"Minimum","sunlight":["Sun"," Partial Shade"," Shade"],"default_image":{"image_id":1376,"license":4,"license_name":"Attribution License","license_url":"https://creativecommons.org/licenses/by/2.0/","original_url":"https://perenual.com/storage/species_image/631_ailanthus_altissima/og/48991100806_d53cf134e8_b.jpg","regular_url":"https://perenual.com/storage/species_image/631_ailanthus_altissima/regular/48991100806_d53cf134e8_b.jpg","medium_url":"https://perenual.com/storage/species_image/631_ailanthus_altissima/medium/48991100806_d53cf134e8_b.jpg","small_url":"https://perenual.com/storage/species_image/631_ailanthus_altissima/small/48991100806_d53cf134e8_b.jpg","thumbnail":"https://perenual.com/storage/species_image/631_ailanthus_altissima/thumbnail/48991100806_d53cf134e8_b.jpg"}},{"id":632,"common_name":"ajania","scientific_name":["Ajania pacifica"],"other_name":null,"cycle":"Perennial","watering":"Average","sunlight":["Full sun","part shade"],"default_image":{"image_id":1378,"license":4,"license_name":"Attribution License","license_url":"https://creativecommons.org/licenses/by/2.0/","original_url":"https://perenual.com/storage/species_image/632_ajania_pacifica/og/24828121799_f4d4f35043_b.jpg","regular_url":"https://perenual.com/storage/species_image/632_ajania_pacifica/regular/24828121799_f4d4f35043_b.jpg","medium_url":"https://perenual.com/storage/species_image/632_ajania_pacifica/medium/24828121799_f4d4f35043_b.jpg","small_url":"https://perenual.com/storage/species_image/632_ajania_pacifica/small/24828121799_f4d4f35043_b.jpg","thumbnail":"https://perenual.com/storage/species_image/632_ajania_pacifica/thumbnail/24828121799_f4d4f35043_b.jpg"}},{"id":633,"common_name":"ajania","scientific_name":["Ajania pacifica 'Pink Ice'"],"other_name":null,"cycle":"Perennial","watering":"Average","sunlight":["Full sun","part shade"],"default_image":{"image_id":9,"license":5,"license_name":"Attribution-ShareAlike License","license_url":"https://creativecommons.org/licenses/by-sa/2.0/","original_url":"https://perenual.com/storage/species_image/2_abies_alba_pyramidalis/og/49255769768_df55596553_b.jpg","regular_url":"https://perenual.com/storage/species_image/2_abies_alba_pyramidalis/regular/49255769768_df55596553_b.jpg","medium_url":"https://perenual.com/storage/species_image/2_abies_alba_pyramidalis/medium/49255769768_df55596553_b.jpg","small_url":"https://perenual.com/storage/species_image/2_abies_alba_pyramidalis/small/49255769768_df55596553_b.jpg","thumbnail":"https://perenual.com/storage/species_image/2_abies_alba_pyramidalis/thumbnail/49255769768_df55596553_b.jpg"}},{"id":634,"common_name":"common bugle","scientific_name":["Ajuga reptans"],"other_name":["carpet bugleweed","Bugleweed"],"cycle":"Perennial","watering":"Average","sunlight":["Partial Shade"," Shade"],"default_image":{"image_id":1379,"license":4,"license_name":"Attribution License","license_url":"https://creativecommons.org/licenses/by/2.0/","original_url":"https://perenual.com/storage/species_image/637_ajuga_reptans_binblasca_black_scallop/og/52105985298_bef92726b8_b.jpg","regular_url":"https://perenual.com/storage/species_image/637_ajuga_reptans_binblasca_black_scallop/regular/52105985298_bef92726b8_b.jpg","medium_url":"https://perenual.com/storage/species_image/637_ajuga_reptans_binblasca_black_scallop/medium/52105985298_bef92726b8_b.jpg","small_url":"https://perenual.com/storage/species_image/637_ajuga_reptans_binblasca_black_scallop/small/52105985298_bef92726b8_b.jpg","thumbnail":"https://perenual.com/storage/species_image/637_ajuga_reptans_binblasca_black_scallop/thumbnail/52105985298_bef92726b8_b.jpg"}},{"id":635,"common_name":"bugleweed","scientific_name":["Ajuga reptans 'Arctic Fox'"],"other_name":["carpet bugleweed","Bugleweed"],"cycle":"Perennial","watering":"Average","sunlight":["Partial Shade"," Shade"],"default_image":{"image_id":9,"license":5,"license_name":"Attribution-ShareAlike License","license_url":"https://creativecommons.org/licenses/by-sa/2.0/","original_url":"https://perenual.com/storage/species_image/2_abies_alba_pyramidalis/og/49255769768_df55596553_b.jpg","regular_url":"https://perenual.com/storage/species_image/2_abies_alba_pyramidalis/regular/49255769768_df55596553_b.jpg","medium_url":"https://perenual.com/storage/species_image/2_abies_alba_pyramidalis/medium/49255769768_df55596553_b.jpg","small_url":"https://perenual.com/storage/species_image/2_abies_alba_pyramidalis/small/49255769768_df55596553_b.jpg","thumbnail":"https://perenual.com/storage/species_image/2_abies_alba_pyramidalis/thumbnail/49255769768_df55596553_b.jpg"}},{"id":636,"common_name":"bugleweed","scientific_name":["Ajuga reptans 'Atropurpurea'"],"other_name":["carpet bugleweed","Bugleweed"],"cycle":"Perennial","watering":"Average","sunlight":["Partial Shade"," Shade"],"default_image":{"image_id":9,"license":5,"license_name":"Attribution-ShareAlike License","license_url":"https://creativecommons.org/licenses/by-sa/2.0/","original_url":"https://perenual.com/storage/species_image/2_abies_alba_pyramidalis/og/49255769768_df55596553_b.jpg","regular_url":"https://perenual.com/storage/species_image/2_abies_alba_pyramidalis/regular/49255769768_df55596553_b.jpg","medium_url":"https://perenual.com/storage/species_image/2_abies_alba_pyramidalis/medium/49255769768_df55596553_b.jpg","small_url":"https://perenual.com/storage/species_image/2_abies_alba_pyramidalis/small/49255769768_df55596553_b.jpg","thumbnail":"https://perenual.com/storage/species_image/2_abies_alba_pyramidalis/thumbnail/49255769768_df55596553_b.jpg"}},{"id":637,"common_name":"bugleweed","scientific_name":["Ajuga reptans 'Binblasca' BLACK SCALLOP"],"other_name":["carpet bugleweed","Bugleweed"],"cycle":"Perennial","watering":"Average","sunlight":["Partial Shade"," Shade"],"default_image":{"image_id":1379,"license":4,"license_name":"Attribution License","license_url":"https://creativecommons.org/licenses/by/2.0/","original_url":"https://perenual.com/storage/species_image/637_ajuga_reptans_binblasca_black_scallop/og/52105985298_bef92726b8_b.jpg","regular_url":"https://perenual.com/storage/species_image/637_ajuga_reptans_binblasca_black_scallop/regular/52105985298_bef92726b8_b.jpg","medium_url":"https://perenual.com/storage/species_image/637_ajuga_reptans_binblasca_black_scallop/medium/52105985298_bef92726b8_b.jpg","small_url":"https://perenual.com/storage/species_image/637_ajuga_reptans_binblasca_black_scallop/small/52105985298_bef92726b8_b.jpg","thumbnail":"https://perenual.com/storage/species_image/637_ajuga_reptans_binblasca_black_scallop/thumbnail/52105985298_bef92726b8_b.jpg"}},{"id":638,"common_name":"bugleweed","scientific_name":["Ajuga reptans 'Braunherz'"],"other_name":["carpet bugleweed","Bugleweed"],"cycle":"Perennial","watering":"Average","sunlight":["Partial Shade"," Shade"],"default_image":{"image_id":21186,"license":45,"license_name":"Attribution-ShareAlike 3.0 Unported (CC BY-SA 3.0)","license_url":"https://creativecommons.org/licenses/by-sa/3.0/deed.en","original_url":"https://perenual.com/storage/species_image/643_ajuga_reptans_purple_brocade/og/Ajuga_reptans_%27Chocolate_Chip%27_kz04.jpg","regular_url":"https://perenual.com/storage/species_image/643_ajuga_reptans_purple_brocade/regular/Ajuga_reptans_%27Chocolate_Chip%27_kz04.jpg","medium_url":"https://perenual.com/storage/species_image/643_ajuga_reptans_purple_brocade/medium/Ajuga_reptans_%27Chocolate_Chip%27_kz04.jpg","small_url":"https://perenual.com/storage/species_image/643_ajuga_reptans_purple_brocade/small/Ajuga_reptans_%27Chocolate_Chip%27_kz04.jpg","thumbnail":"https://perenual.com/storage/species_image/643_ajuga_reptans_purple_brocade/thumbnail/Ajuga_reptans_%27Chocolate_Chip%27_kz04.jpg"}},{"id":639,"common_name":"bugleweed","scientific_name":["Ajuga reptans 'Burgundy Glow'"],"other_name":["carpet bugleweed","Bugleweed"],"cycle":"Perennial","watering":"Average","sunlight":["Partial Shade"," Shade"],"default_image":{"image_id":9,"license":5,"license_name":"Attribution-ShareAlike License","license_url":"https://creativecommons.org/licenses/by-sa/2.0/","original_url":"https://perenual.com/storage/species_image/2_abies_alba_pyramidalis/og/49255769768_df55596553_b.jpg","regular_url":"https://perenual.com/storage/species_image/2_abies_alba_pyramidalis/regular/49255769768_df55596553_b.jpg","medium_url":"https://perenual.com/storage/species_image/2_abies_alba_pyramidalis/medium/49255769768_df55596553_b.jpg","small_url":"https://perenual.com/storage/species_image/2_abies_alba_pyramidalis/small/49255769768_df55596553_b.jpg","thumbnail":"https://perenual.com/storage/species_image/2_abies_alba_pyramidalis/thumbnail/49255769768_df55596553_b.jpg"}},{"id":640,"common_name":"bugleweed","scientific_name":["Ajuga reptans 'Catlin's Giant'"],"other_name":["carpet bugleweed","Bugleweed"],"cycle":"Perennial","watering":"Average","sunlight":["Partial Shade"," Shade"],"default_image":{"image_id":1397,"license":4,"license_name":"Attribution License","license_url":"https://creativecommons.org/licenses/by/2.0/","original_url":"https://perenual.com/storage/species_image/640_ajuga_reptans_catlins_giant/og/17052157095_7cbeecd445_b.jpg","regular_url":"https://perenual.com/storage/species_image/640_ajuga_reptans_catlins_giant/regular/17052157095_7cbeecd445_b.jpg","medium_url":"https://perenual.com/storage/species_image/640_ajuga_reptans_catlins_giant/medium/17052157095_7cbeecd445_b.jpg","small_url":"https://perenual.com/storage/species_image/640_ajuga_reptans_catlins_giant/small/17052157095_7cbeecd445_b.jpg","thumbnail":"https://perenual.com/storage/species_image/640_ajuga_reptans_catlins_giant/thumbnail/17052157095_7cbeecd445_b.jpg"}},{"id":641,"common_name":"bugleweed","scientific_name":["Ajuga reptans 'Dixie Chip'"],"other_name":["carpet bugleweed","Bugleweed"],"cycle":"Perennial","watering":"Average","sunlight":["Partial Shade"," Shade"],"default_image":{"image_id":21187,"license":45,"license_name":"Attribution-ShareAlike 3.0 Unported (CC BY-SA 3.0)","license_url":"https://creativecommons.org/licenses/by-sa/3.0/deed.en","original_url":"https://perenual.com/storage/species_image/641_ajuga_reptans_dixie_chip/og/Ajuga_reptans_%27Chocolate_Chip%27_kz1.jpg","regular_url":"https://perenual.com/storage/species_image/641_ajuga_reptans_dixie_chip/regular/Ajuga_reptans_%27Chocolate_Chip%27_kz1.jpg","medium_url":"https://perenual.com/storage/species_image/641_ajuga_reptans_dixie_chip/medium/Ajuga_reptans_%27Chocolate_Chip%27_kz1.jpg","small_url":"https://perenual.com/storage/species_image/641_ajuga_reptans_dixie_chip/small/Ajuga_reptans_%27Chocolate_Chip%27_kz1.jpg","thumbnail":"https://perenual.com/storage/species_image/641_ajuga_reptans_dixie_chip/thumbnail/Ajuga_reptans_%27Chocolate_Chip%27_kz1.jpg"}},{"id":642,"common_name":"bugleweed","scientific_name":["Ajuga reptans 'Mahogany'"],"other_name":["carpet bugleweed","Bugleweed"],"cycle":"Perennial","watering":"Average","sunlight":["Partial Shade"," Shade"],"default_image":{"image_id":1399,"license":4,"license_name":"Attribution License","license_url":"https://creativecommons.org/licenses/by/2.0/","original_url":"https://perenual.com/storage/species_image/642_ajuga_reptans_mahogany/og/24264586983_18eb192a79_b.jpg","regular_url":"https://perenual.com/storage/species_image/642_ajuga_reptans_mahogany/regular/24264586983_18eb192a79_b.jpg","medium_url":"https://perenual.com/storage/species_image/642_ajuga_reptans_mahogany/medium/24264586983_18eb192a79_b.jpg","small_url":"https://perenual.com/storage/species_image/642_ajuga_reptans_mahogany/small/24264586983_18eb192a79_b.jpg","thumbnail":"https://perenual.com/storage/species_image/642_ajuga_reptans_mahogany/thumbnail/24264586983_18eb192a79_b.jpg"}},{"id":643,"common_name":"bugleweed","scientific_name":["Ajuga reptans 'Purple Brocade'"],"other_name":["carpet bugleweed","Bugleweed"],"cycle":"Perennial","watering":"Average","sunlight":["Partial Shade"," Shade"],"default_image":{"image_id":21186,"license":45,"license_name":"Attribution-ShareAlike 3.0 Unported (CC BY-SA 3.0)","license_url":"https://creativecommons.org/licenses/by-sa/3.0/deed.en","original_url":"https://perenual.com/storage/species_image/643_ajuga_reptans_purple_brocade/og/Ajuga_reptans_%27Chocolate_Chip%27_kz04.jpg","regular_url":"https://perenual.com/storage/species_image/643_ajuga_reptans_purple_brocade/regular/Ajuga_reptans_%27Chocolate_Chip%27_kz04.jpg","medium_url":"https://perenual.com/storage/species_image/643_ajuga_reptans_purple_brocade/medium/Ajuga_reptans_%27Chocolate_Chip%27_kz04.jpg","small_url":"https://perenual.com/storage/species_image/643_ajuga_reptans_purple_brocade/small/Ajuga_reptans_%27Chocolate_Chip%27_kz04.jpg","thumbnail":"https://perenual.com/storage/species_image/643_ajuga_reptans_purple_brocade/thumbnail/Ajuga_reptans_%27Chocolate_Chip%27_kz04.jpg"}},{"id":644,"common_name":"bugleweed","scientific_name":["Ajuga reptans 'Purple Torch'"],"other_name":["carpet bugleweed","Bugleweed"],"cycle":"Perennial","watering":"Average","sunlight":["Partial Shade"," Shade"],"default_image":{"image_id":21188,"license":45,"license_name":"Attribution-ShareAlike 3.0 Unported (CC BY-SA 3.0)","license_url":"https://creativecommons.org/licenses/by-sa/3.0/deed.en","original_url":"https://perenual.com/storage/species_image/644_ajuga_reptans_purple_torch/og/Ajuga_reptans_Purple_Torch_0zz.jpg","regular_url":"https://perenual.com/storage/species_image/644_ajuga_reptans_purple_torch/regular/Ajuga_reptans_Purple_Torch_0zz.jpg","medium_url":"https://perenual.com/storage/species_image/644_ajuga_reptans_purple_torch/medium/Ajuga_reptans_Purple_Torch_0zz.jpg","small_url":"https://perenual.com/storage/species_image/644_ajuga_reptans_purple_torch/small/Ajuga_reptans_Purple_Torch_0zz.jpg","thumbnail":"https://perenual.com/storage/species_image/644_ajuga_reptans_purple_torch/thumbnail/Ajuga_reptans_Purple_Torch_0zz.jpg"}},{"id":645,"common_name":"bugleweed","scientific_name":["Ajuga reptans 'Silver Beauty'"],"other_name":["carpet bugleweed","Bugleweed"],"cycle":"Perennial","watering":"Average","sunlight":["Partial Shade"," Shade"],"default_image":{"image_id":21191,"license":45,"license_name":"Attribution-ShareAlike 3.0 Unported (CC BY-SA 3.0)","license_url":"https://creativecommons.org/licenses/by-sa/3.0/deed.en","original_url":"https://perenual.com/storage/species_image/645_ajuga_reptans_silver_beauty/og/Ajuga_reptans_2zz.jpg","regular_url":"https://perenual.com/storage/species_image/645_ajuga_reptans_silver_beauty/regular/Ajuga_reptans_2zz.jpg","medium_url":"https://perenual.com/storage/species_image/645_ajuga_reptans_silver_beauty/medium/Ajuga_reptans_2zz.jpg","small_url":"https://perenual.com/storage/species_image/645_ajuga_reptans_silver_beauty/small/Ajuga_reptans_2zz.jpg","thumbnail":"https://perenual.com/storage/species_image/645_ajuga_reptans_silver_beauty/thumbnail/Ajuga_reptans_2zz.jpg"}},{"id":646,"common_name":"bugleweed","scientific_name":["Ajuga reptans 'Toffee Chip'"],"other_name":["carpet bugleweed","Bugleweed"],"cycle":"Perennial","watering":"Average","sunlight":["Partial Shade"," Shade"],"default_image":{"image_id":9,"license":5,"license_name":"Attribution-ShareAlike License","license_url":"https://creativecommons.org/licenses/by-sa/2.0/","original_url":"https://perenual.com/storage/species_image/2_abies_alba_pyramidalis/og/49255769768_df55596553_b.jpg","regular_url":"https://perenual.com/storage/species_image/2_abies_alba_pyramidalis/regular/49255769768_df55596553_b.jpg","medium_url":"https://perenual.com/storage/species_image/2_abies_alba_pyramidalis/medium/49255769768_df55596553_b.jpg","small_url":"https://perenual.com/storage/species_image/2_abies_alba_pyramidalis/small/49255769768_df55596553_b.jpg","thumbnail":"https://perenual.com/storage/species_image/2_abies_alba_pyramidalis/thumbnail/49255769768_df55596553_b.jpg"}},{"id":647,"common_name":"bugleweed","scientific_name":["Ajuga reptans 'Valfredda' CHOCOLATE CHIP"],"other_name":["carpet bugleweed","Bugleweed"],"cycle":"Perennial","watering":"Average","sunlight":["Partial Shade"," Shade"],"default_image":{"image_id":21192,"license":45,"license_name":"Attribution-ShareAlike 3.0 Unported (CC BY-SA 3.0)","license_url":"https://creativecommons.org/licenses/by-sa/3.0/deed.en","original_url":"https://perenual.com/storage/species_image/647_ajuga_reptans_valfredda_chocolate_chip/og/Ajuga_reptans_valfredda_002.jpg","regular_url":"https://perenual.com/storage/species_image/647_ajuga_reptans_valfredda_chocolate_chip/regular/Ajuga_reptans_valfredda_002.jpg","medium_url":"https://perenual.com/storage/species_image/647_ajuga_reptans_valfredda_chocolate_chip/medium/Ajuga_reptans_valfredda_002.jpg","small_url":"https://perenual.com/storage/species_image/647_ajuga_reptans_valfredda_chocolate_chip/small/Ajuga_reptans_valfredda_002.jpg","thumbnail":"https://perenual.com/storage/species_image/647_ajuga_reptans_valfredda_chocolate_chip/thumbnail/Ajuga_reptans_valfredda_002.jpg"}},{"id":648,"common_name":"bugleweed","scientific_name":["Ajuga 'Sparkler'"],"other_name":null,"cycle":"Perennial","watering":"Average","sunlight":["Full sun","part shade"],"default_image":{"image_id":9,"license":5,"license_name":"Attribution-ShareAlike License","license_url":"https://creativecommons.org/licenses/by-sa/2.0/","original_url":"https://perenual.com/storage/species_image/2_abies_alba_pyramidalis/og/49255769768_df55596553_b.jpg","regular_url":"https://perenual.com/storage/species_image/2_abies_alba_pyramidalis/regular/49255769768_df55596553_b.jpg","medium_url":"https://perenual.com/storage/species_image/2_abies_alba_pyramidalis/medium/49255769768_df55596553_b.jpg","small_url":"https://perenual.com/storage/species_image/2_abies_alba_pyramidalis/small/49255769768_df55596553_b.jpg","thumbnail":"https://perenual.com/storage/species_image/2_abies_alba_pyramidalis/thumbnail/49255769768_df55596553_b.jpg"}},{"id":649,"common_name":"chocolate vine","scientific_name":["Akebia quinata"],"other_name":null,"cycle":"Perennial","watering":"Average","sunlight":["Full sun","part shade"],"default_image":{"image_id":1404,"license":4,"license_name":"Attribution License","license_url":"https://creativecommons.org/licenses/by/2.0/","original_url":"https://perenual.com/storage/species_image/649_akebia_quinata/og/14766055561_6e9fcb386e_b.jpg","regular_url":"https://perenual.com/storage/species_image/649_akebia_quinata/regular/14766055561_6e9fcb386e_b.jpg","medium_url":"https://perenual.com/storage/species_image/649_akebia_quinata/medium/14766055561_6e9fcb386e_b.jpg","small_url":"https://perenual.com/storage/species_image/649_akebia_quinata/small/14766055561_6e9fcb386e_b.jpg","thumbnail":"https://perenual.com/storage/species_image/649_akebia_quinata/thumbnail/14766055561_6e9fcb386e_b.jpg"}},{"id":650,"common_name":"alangium","scientific_name":["Alangium platanifolium"],"other_name":null,"cycle":"Perennial","watering":"Average","sunlight":["Full sun","part shade"],"default_image":{"image_id":1409,"license":5,"license_name":"Attribution-ShareAlike License","license_url":"https://creativecommons.org/licenses/by-sa/2.0/","original_url":"https://perenual.com/storage/species_image/650_alangium_platanifolium/og/50165791711_849d3d5107_b.jpg","regular_url":"https://perenual.com/storage/species_image/650_alangium_platanifolium/regular/50165791711_849d3d5107_b.jpg","medium_url":"https://perenual.com/storage/species_image/650_alangium_platanifolium/medium/50165791711_849d3d5107_b.jpg","small_url":"https://perenual.com/storage/species_image/650_alangium_platanifolium/small/50165791711_849d3d5107_b.jpg","thumbnail":"https://perenual.com/storage/species_image/650_alangium_platanifolium/thumbnail/50165791711_849d3d5107_b.jpg"}},{"id":651,"common_name":"alangium","scientific_name":["Alangium platanifolium var. macrophyllum"],"other_name":null,"cycle":"Perennial","watering":"Average","sunlight":["Full sun","part shade"],"default_image":{"image_id":21193,"license":45,"license_name":"Attribution-ShareAlike 3.0 Unported (CC BY-SA 3.0)","license_url":"https://creativecommons.org/licenses/by-sa/3.0/deed.en","original_url":"https://perenual.com/storage/species_image/651_alangium_platanifolium_var_macrophyllum/og/Alangium_chinensis_floraison2.jpg","regular_url":"https://perenual.com/storage/species_image/651_alangium_platanifolium_var_macrophyllum/regular/Alangium_chinensis_floraison2.jpg","medium_url":"https://perenual.com/storage/species_image/651_alangium_platanifolium_var_macrophyllum/medium/Alangium_chinensis_floraison2.jpg","small_url":"https://perenual.com/storage/species_image/651_alangium_platanifolium_var_macrophyllum/small/Alangium_chinensis_floraison2.jpg","thumbnail":"https://perenual.com/storage/species_image/651_alangium_platanifolium_var_macrophyllum/thumbnail/Alangium_chinensis_floraison2.jpg"}},{"id":652,"common_name":"rain tree","scientific_name":["Albizia saman"],"other_name":null,"cycle":"Perennial","watering":"Average","sunlight":["Full sun"],"default_image":{"image_id":1412,"license":4,"license_name":"Attribution License","license_url":"https://creativecommons.org/licenses/by/2.0/","original_url":"https://perenual.com/storage/species_image/652_albizia_saman/og/48301317661_620fd032a0_b.jpg","regular_url":"https://perenual.com/storage/species_image/652_albizia_saman/regular/48301317661_620fd032a0_b.jpg","medium_url":"https://perenual.com/storage/species_image/652_albizia_saman/medium/48301317661_620fd032a0_b.jpg","small_url":"https://perenual.com/storage/species_image/652_albizia_saman/small/48301317661_620fd032a0_b.jpg","thumbnail":"https://perenual.com/storage/species_image/652_albizia_saman/thumbnail/48301317661_620fd032a0_b.jpg"}},{"id":653,"common_name":"hollyhock","scientific_name":["Alcea rosea"],"other_name":null,"cycle":"Perennial","watering":"Average","sunlight":[],"default_image":{"image_id":1414,"license":5,"license_name":"Attribution-ShareAlike License","license_url":"https://creativecommons.org/licenses/by-sa/2.0/","original_url":"https://perenual.com/storage/species_image/653_alcea_rosea/og/52177324906_3e75a503f7_b.jpg","regular_url":"https://perenual.com/storage/species_image/653_alcea_rosea/regular/52177324906_3e75a503f7_b.jpg","medium_url":"https://perenual.com/storage/species_image/653_alcea_rosea/medium/52177324906_3e75a503f7_b.jpg","small_url":"https://perenual.com/storage/species_image/653_alcea_rosea/small/52177324906_3e75a503f7_b.jpg","thumbnail":"https://perenual.com/storage/species_image/653_alcea_rosea/thumbnail/52177324906_3e75a503f7_b.jpg"}},{"id":654,"common_name":"hollyhock","scientific_name":["Alcea rosea 'Nigra'"],"other_name":null,"cycle":"Perennial","watering":"Average","sunlight":[],"default_image":{"image_id":1417,"license":5,"license_name":"Attribution-ShareAlike License","license_url":"https://creativecommons.org/licenses/by-sa/2.0/","original_url":"https://perenual.com/storage/species_image/654_alcea_rosea_nigra/og/7972146336_7430b09f99_b.jpg","regular_url":"https://perenual.com/storage/species_image/654_alcea_rosea_nigra/regular/7972146336_7430b09f99_b.jpg","medium_url":"https://perenual.com/storage/species_image/654_alcea_rosea_nigra/medium/7972146336_7430b09f99_b.jpg","small_url":"https://perenual.com/storage/species_image/654_alcea_rosea_nigra/small/7972146336_7430b09f99_b.jpg","thumbnail":"https://perenual.com/storage/species_image/654_alcea_rosea_nigra/thumbnail/7972146336_7430b09f99_b.jpg"}},{"id":655,"common_name":"hollyhock","scientific_name":["Alcea rosea (single)"],"other_name":null,"cycle":"Perennial","watering":"Average","sunlight":[],"default_image":{"image_id":1416,"license":5,"license_name":"Attribution-ShareAlike License","license_url":"https://creativecommons.org/licenses/by-sa/2.0/","original_url":"https://perenual.com/storage/species_image/655_alcea_rosea_single/og/52177545349_06c3a75dcf_b.jpg","regular_url":"https://perenual.com/storage/species_image/655_alcea_rosea_single/regular/52177545349_06c3a75dcf_b.jpg","medium_url":"https://perenual.com/storage/species_image/655_alcea_rosea_single/medium/52177545349_06c3a75dcf_b.jpg","small_url":"https://perenual.com/storage/species_image/655_alcea_rosea_single/small/52177545349_06c3a75dcf_b.jpg","thumbnail":"https://perenual.com/storage/species_image/655_alcea_rosea_single/thumbnail/52177545349_06c3a75dcf_b.jpg"}},{"id":656,"common_name":"hollyhock","scientific_name":["Alcea rugosa"],"other_name":null,"cycle":"Perennial","watering":"Average","sunlight":["Full sun"],"default_image":{"image_id":1422,"license":5,"license_name":"Attribution-ShareAlike License","license_url":"https://creativecommons.org/licenses/by-sa/2.0/","original_url":"https://perenual.com/storage/species_image/656_alcea_rugosa/og/7850732032_1e91b38508_b.jpg","regular_url":"https://perenual.com/storage/species_image/656_alcea_rugosa/regular/7850732032_1e91b38508_b.jpg","medium_url":"https://perenual.com/storage/species_image/656_alcea_rugosa/medium/7850732032_1e91b38508_b.jpg","small_url":"https://perenual.com/storage/species_image/656_alcea_rugosa/small/7850732032_1e91b38508_b.jpg","thumbnail":"https://perenual.com/storage/species_image/656_alcea_rugosa/thumbnail/7850732032_1e91b38508_b.jpg"}},{"id":657,"common_name":"lady's mantle","scientific_name":["Alchemilla mollis"],"other_name":null,"cycle":"Perennial","watering":"Average","sunlight":[],"default_image":{"image_id":1427,"license":5,"license_name":"Attribution-ShareAlike License","license_url":"https://creativecommons.org/licenses/by-sa/2.0/","original_url":"https://perenual.com/storage/species_image/657_alchemilla_mollis/og/52123708969_7cab2fd287_b.jpg","regular_url":"https://perenual.com/storage/species_image/657_alchemilla_mollis/regular/52123708969_7cab2fd287_b.jpg","medium_url":"https://perenual.com/storage/species_image/657_alchemilla_mollis/medium/52123708969_7cab2fd287_b.jpg","small_url":"https://perenual.com/storage/species_image/657_alchemilla_mollis/small/52123708969_7cab2fd287_b.jpg","thumbnail":"https://perenual.com/storage/species_image/657_alchemilla_mollis/thumbnail/52123708969_7cab2fd287_b.jpg"}},{"id":658,"common_name":"lady's mantle","scientific_name":["Alchemilla mollis 'Thriller'"],"other_name":null,"cycle":"Perennial","watering":"Average","sunlight":[],"default_image":{"image_id":1435,"license":4,"license_name":"Attribution License","license_url":"https://creativecommons.org/licenses/by/2.0/","original_url":"https://perenual.com/storage/species_image/658_alchemilla_mollis_thriller/og/6989599758_f6eacf968f_b.jpg","regular_url":"https://perenual.com/storage/species_image/658_alchemilla_mollis_thriller/regular/6989599758_f6eacf968f_b.jpg","medium_url":"https://perenual.com/storage/species_image/658_alchemilla_mollis_thriller/medium/6989599758_f6eacf968f_b.jpg","small_url":"https://perenual.com/storage/species_image/658_alchemilla_mollis_thriller/small/6989599758_f6eacf968f_b.jpg","thumbnail":"https://perenual.com/storage/species_image/658_alchemilla_mollis_thriller/thumbnail/6989599758_f6eacf968f_b.jpg"}},{"id":659,"common_name":"silky lady's mantle","scientific_name":["Alchemilla sericata 'Gold Strike'"],"other_name":null,"cycle":"Perennial","watering":"Average","sunlight":["Full sun","part shade"],"default_image":{"image_id":21194,"license":45,"license_name":"Attribution-ShareAlike 3.0 Unported (CC BY-SA 3.0)","license_url":"https://creativecommons.org/licenses/by-sa/3.0/deed.en","original_url":"https://perenual.com/storage/species_image/659_alchemilla_sericata_gold_strike/og/Alchemilla_peristerica_kz02.jpg","regular_url":"https://perenual.com/storage/species_image/659_alchemilla_sericata_gold_strike/regular/Alchemilla_peristerica_kz02.jpg","medium_url":"https://perenual.com/storage/species_image/659_alchemilla_sericata_gold_strike/medium/Alchemilla_peristerica_kz02.jpg","small_url":"https://perenual.com/storage/species_image/659_alchemilla_sericata_gold_strike/small/Alchemilla_peristerica_kz02.jpg","thumbnail":"https://perenual.com/storage/species_image/659_alchemilla_sericata_gold_strike/thumbnail/Alchemilla_peristerica_kz02.jpg"}},{"id":660,"common_name":"tung-oil tree","scientific_name":["Aleurites fordii"],"other_name":null,"cycle":"Perennial","watering":"Average","sunlight":["Full sun"],"default_image":{"image_id":9,"license":5,"license_name":"Attribution-ShareAlike License","license_url":"https://creativecommons.org/licenses/by-sa/2.0/","original_url":"https://perenual.com/storage/species_image/2_abies_alba_pyramidalis/og/49255769768_df55596553_b.jpg","regular_url":"https://perenual.com/storage/species_image/2_abies_alba_pyramidalis/regular/49255769768_df55596553_b.jpg","medium_url":"https://perenual.com/storage/species_image/2_abies_alba_pyramidalis/medium/49255769768_df55596553_b.jpg","small_url":"https://perenual.com/storage/species_image/2_abies_alba_pyramidalis/small/49255769768_df55596553_b.jpg","thumbnail":"https://perenual.com/storage/species_image/2_abies_alba_pyramidalis/thumbnail/49255769768_df55596553_b.jpg"}}],"to":660,"per_page":30,"current_page":22,"from":631,"last_page":200,"total":6000}