{"data":[{"id":4111,"common_name":"oakleaf hydrangea","scientific_name":["Hydrangea quercifolia 'Ruby Slippers'"],"other_name":null,"cycle":"Perennial","watering":"Average","sunlight":["Full sun","part shade"],"default_image":{"image_id":8267,"license":5,"license_name":"Attribution-ShareAlike License","license_url":"https://creativecommons.org/licenses/by-sa/2.0/","original_url":"https://perenual.com/storage/species_image/4111_hydrangea_quercifolia_ruby_slippers/og/51266851218_d10a57a18a_b.jpg","regular_url":"https://perenual.com/storage/species_image/4111_hydrangea_quercifolia_ruby_slippers/regular/51266851218_d10a57a18a_b.jpg","medium_url":"https://perenual.com/storage/species_image/4111_hydrangea_quercifolia_ruby_slippers/medium/51266851218_d10a57a18a_b.jpg","small_url":"https://perenual.com/storage/species_image/4111_hydrangea_quercifolia_ruby_slippers/small/51266851218_d10a57a18a_b.jpg","thumbnail":"https://perenual.com/storage/species_image/4111_hydrangea_quercifolia_ruby_slippers/thumbnail/51266851218_d10a57a18a_b.jpg"}},{"id":4112,"common_name":"oakleaf hydrangea","scientific_name":["Hydrangea quercifolia 'Sike's Dwarf'"],"other_name":null,"cycle":"Perennial","watering":"Average","sunlight":["Full sun","part shade"],"default_image":{"image_id":8283,"license":4,"license_name":"Attribution License","license_url":"https://creativecommons.org/licenses/by/2.0/","original_url":"https://perenual.com/storage/species_image/4112_hydrangea_quercifolia_sikes_dwarf/og/52170468309_b19e4d561e_b.jpg","regular_url":"https://perenual.com/storage/species_image/4112_hydrangea_quercifolia_sikes_dwarf/regular/52170468309_b19e4d561e_b.jpg","medium_url":"https://perenual.com/storage/species_image/4112_hydrangea_quercifolia_sikes_dwarf/medium/52170468309_b19e4d561e_b.jpg","small_url":"https://perenual.com/storage/species_image/4112_hydrangea_quercifolia_sikes_dwarf/small/52170468309_b19e4d561e_b.jpg","thumbnail":"https://perenual.com/storage/species_image/4112_hydrangea_quercifolia_sikes_dwarf/thumbnail/52170468309_b19e4d561e_b.jpg"}},{"id":4113,"common_name":"oakleaf hydrangea","scientific_name":["Hydrangea quercifolia 'Vaughn's Lillie'"],"other_name":null,"cycle":"Perennial","watering":"Average","sunlight":["Full sun","part shade"],"default_image":{"image_id":8258,"license":5,"license_name":"Attribution-ShareAlike License","license_url":"https://creativecommons.org/licenses/by-sa/2.0/","original_url":"https://perenual.com/storage/species_image/4101_hydrangea_quercifolia/og/52325754878_66b662c0ed_b.jpg","regular_url":"https://perenual.com/storage/species_image/4101_hydrangea_quercifolia/regular/52325754878_66b662c0ed_b.jpg","medium_url":"https://perenual.com/storage/species_image/4101_hydrangea_quercifolia/medium/52325754878_66b662c0ed_b.jpg","small_url":"https://perenual.com/storage/species_image/4101_hydrangea_quercifolia/small/52325754878_66b662c0ed_b.jpg","thumbnail":"https://perenual.com/storage/species_image/4101_hydrangea_quercifolia/thumbnail/52325754878_66b662c0ed_b.jpg"}},{"id":4114,"common_name":"bigleaf hydrangea","scientific_name":["Hydrangea sargentiana"],"other_name":null,"cycle":"Perennial","watering":"Average","sunlight":["Part shade"],"default_image":{"image_id":8288,"license":5,"license_name":"Attribution-ShareAlike License","license_url":"https://creativecommons.org/licenses/by-sa/2.0/","original_url":"https://perenual.com/storage/species_image/4114_hydrangea_sargentiana/og/43064700245_3e36c1a170_b.jpg","regular_url":"https://perenual.com/storage/species_image/4114_hydrangea_sargentiana/regular/43064700245_3e36c1a170_b.jpg","medium_url":"https://perenual.com/storage/species_image/4114_hydrangea_sargentiana/medium/43064700245_3e36c1a170_b.jpg","small_url":"https://perenual.com/storage/species_image/4114_hydrangea_sargentiana/small/43064700245_3e36c1a170_b.jpg","thumbnail":"https://perenual.com/storage/species_image/4114_hydrangea_sargentiana/thumbnail/43064700245_3e36c1a170_b.jpg"}},{"id":4115,"common_name":"hydrangea","scientific_name":["Hydrangea serrata"],"other_name":null,"cycle":"Perennial","watering":"Average","sunlight":["Part shade"],"default_image":{"image_id":9,"license":5,"license_name":"Attribution-ShareAlike License","license_url":"https://creativecommons.org/licenses/by-sa/2.0/","original_url":"https://perenual.com/storage/species_image/2_abies_alba_pyramidalis/og/49255769768_df55596553_b.jpg","regular_url":"https://perenual.com/storage/species_image/2_abies_alba_pyramidalis/regular/49255769768_df55596553_b.jpg","medium_url":"https://perenual.com/storage/species_image/2_abies_alba_pyramidalis/medium/49255769768_df55596553_b.jpg","small_url":"https://perenual.com/storage/species_image/2_abies_alba_pyramidalis/small/49255769768_df55596553_b.jpg","thumbnail":"https://perenual.com/storage/species_image/2_abies_alba_pyramidalis/thumbnail/49255769768_df55596553_b.jpg"}},{"id":4116,"common_name":"hydrangea","scientific_name":["Hydrangea serrata 'Golden Sunlight'"],"other_name":null,"cycle":"Perennial","watering":"Average","sunlight":["Part shade"],"default_image":{"image_id":8294,"license":4,"license_name":"Attribution License","license_url":"https://creativecommons.org/licenses/by/2.0/","original_url":"https://perenual.com/storage/species_image/4116_hydrangea_serrata_golden_sunlight/og/52596007045_d8caa9264c_b.jpg","regular_url":"https://perenual.com/storage/species_image/4116_hydrangea_serrata_golden_sunlight/regular/52596007045_d8caa9264c_b.jpg","medium_url":"https://perenual.com/storage/species_image/4116_hydrangea_serrata_golden_sunlight/medium/52596007045_d8caa9264c_b.jpg","small_url":"https://perenual.com/storage/species_image/4116_hydrangea_serrata_golden_sunlight/small/52596007045_d8caa9264c_b.jpg","thumbnail":"https://perenual.com/storage/species_image/4116_hydrangea_serrata_golden_sunlight/thumbnail/52596007045_d8caa9264c_b.jpg"}},{"id":4117,"common_name":"hydrangea","scientific_name":["Hydrangea serrata 'SMNHSDD' TUFF STUFF AH-HA"],"other_name":null,"cycle":"Perennial","watering":"Average","sunlight":["Part shade"],"default_image":{"image_id":8296,"license":4,"license_name":"Attribution License","license_url":"https://creativecommons.org/licenses/by/2.0/","original_url":"https://perenual.com/storage/species_image/4117_hydrangea_serrata_smnhsdd_tuff_stuff_ah-ha/og/52591545779_56834511f0_b.jpg","regular_url":"https://perenual.com/storage/species_image/4117_hydrangea_serrata_smnhsdd_tuff_stuff_ah-ha/regular/52591545779_56834511f0_b.jpg","medium_url":"https://perenual.com/storage/species_image/4117_hydrangea_serrata_smnhsdd_tuff_stuff_ah-ha/medium/52591545779_56834511f0_b.jpg","small_url":"https://perenual.com/storage/species_image/4117_hydrangea_serrata_smnhsdd_tuff_stuff_ah-ha/small/52591545779_56834511f0_b.jpg","thumbnail":"https://perenual.com/storage/species_image/4117_hydrangea_serrata_smnhsdd_tuff_stuff_ah-ha/thumbnail/52591545779_56834511f0_b.jpg"}},{"id":4118,"common_name":"hydrangea","scientific_name":["Hydrangea 'SMNHSC' LET'S DANCE ¡ARRIBA!"],"other_name":null,"cycle":"Perennial","watering":"Average","sunlight":["Part shade"],"default_image":{"image_id":8255,"license":4,"license_name":"Attribution License","license_url":"https://creativecommons.org/licenses/by/2.0/","original_url":"https://perenual.com/storage/species_image/4118_hydrangea_smnhsc_lets_dance_¡arriba!/og/52569597671_f01ba173eb_b.jpg","regular_url":"https://perenual.com/storage/species_image/4118_hydrangea_smnhsc_lets_dance_¡arriba!/regular/52569597671_f01ba173eb_b.jpg","medium_url":"https://perenual.com/storage/species_image/4118_hydrangea_smnhsc_lets_dance_¡arriba!/medium/52569597671_f01ba173eb_b.jpg","small_url":"https://perenual.com/storage/species_image/4118_hydrangea_smnhsc_lets_dance_¡arriba!/small/52569597671_f01ba173eb_b.jpg","thumbnail":"https://perenual.com/storage/species_image/4118_hydrangea_smnhsc_lets_dance_¡arriba!/thumbnail/52569597671_f01ba173eb_b.jpg"}},{"id":4119,"common_name":"cascade hydrangea","scientific_name":["Hydrangea 'USHYD0405' FAIRYTRAIL BRIDE"],"other_name":null,"cycle":"Perennial","watering":"Average","sunlight":["Full sun","part shade"],"default_image":{"image_id":8300,"license":5,"license_name":"Attribution-ShareAlike License","license_url":"https://creativecommons.org/licenses/by-sa/2.0/","original_url":"https://perenual.com/storage/species_image/4119_hydrangea_ushyd0405_fairytrail_bride/og/51329190475_68557222ac_b.jpg","regular_url":"https://perenual.com/storage/species_image/4119_hydrangea_ushyd0405_fairytrail_bride/regular/51329190475_68557222ac_b.jpg","medium_url":"https://perenual.com/storage/species_image/4119_hydrangea_ushyd0405_fairytrail_bride/medium/51329190475_68557222ac_b.jpg","small_url":"https://perenual.com/storage/species_image/4119_hydrangea_ushyd0405_fairytrail_bride/small/51329190475_68557222ac_b.jpg","thumbnail":"https://perenual.com/storage/species_image/4119_hydrangea_ushyd0405_fairytrail_bride/thumbnail/51329190475_68557222ac_b.jpg"}},{"id":4120,"common_name":"golden seal","scientific_name":["Hydrastis canadensis"],"other_name":null,"cycle":"Perennial","watering":"Average","sunlight":["Part shade"],"default_image":{"image_id":8302,"license":4,"license_name":"Attribution License","license_url":"https://creativecommons.org/licenses/by/2.0/","original_url":"https://perenual.com/storage/species_image/4120_hydrastis_canadensis/og/51127693427_4a0b43a203_b.jpg","regular_url":"https://perenual.com/storage/species_image/4120_hydrastis_canadensis/regular/51127693427_4a0b43a203_b.jpg","medium_url":"https://perenual.com/storage/species_image/4120_hydrastis_canadensis/medium/51127693427_4a0b43a203_b.jpg","small_url":"https://perenual.com/storage/species_image/4120_hydrastis_canadensis/small/51127693427_4a0b43a203_b.jpg","thumbnail":"https://perenual.com/storage/species_image/4120_hydrastis_canadensis/thumbnail/51127693427_4a0b43a203_b.jpg"}},{"id":4121,"common_name":"water poppy","scientific_name":["Hydrocleys nymphoides"],"other_name":null,"cycle":"Perennial","watering":"Frequent","sunlight":["Full sun"],"default_image":{"image_id":9,"license":5,"license_name":"Attribution-ShareAlike License","license_url":"https://creativecommons.org/licenses/by-sa/2.0/","original_url":"https://perenual.com/storage/species_image/2_abies_alba_pyramidalis/og/49255769768_df55596553_b.jpg","regular_url":"https://perenual.com/storage/species_image/2_abies_alba_pyramidalis/regular/49255769768_df55596553_b.jpg","medium_url":"https://perenual.com/storage/species_image/2_abies_alba_pyramidalis/medium/49255769768_df55596553_b.jpg","small_url":"https://perenual.com/storage/species_image/2_abies_alba_pyramidalis/small/49255769768_df55596553_b.jpg","thumbnail":"https://perenual.com/storage/species_image/2_abies_alba_pyramidalis/thumbnail/49255769768_df55596553_b.jpg"}},{"id":4122,"common_name":"pennywort","scientific_name":["Hydrocotyle vulgaris"],"other_name":null,"cycle":"Perennial","watering":"Frequent","sunlight":["Full sun","part shade"],"default_image":{"image_id":8321,"license":4,"license_name":"Attribution License","license_url":"https://creativecommons.org/licenses/by/2.0/","original_url":"https://perenual.com/storage/species_image/4122_hydrocotyle_vulgaris/og/9468970380_4f8147f193_b.jpg","regular_url":"https://perenual.com/storage/species_image/4122_hydrocotyle_vulgaris/regular/9468970380_4f8147f193_b.jpg","medium_url":"https://perenual.com/storage/species_image/4122_hydrocotyle_vulgaris/medium/9468970380_4f8147f193_b.jpg","small_url":"https://perenual.com/storage/species_image/4122_hydrocotyle_vulgaris/small/9468970380_4f8147f193_b.jpg","thumbnail":"https://perenual.com/storage/species_image/4122_hydrocotyle_vulgaris/thumbnail/9468970380_4f8147f193_b.jpg"}},{"id":4123,"common_name":"Virginia waterleaf","scientific_name":["Hydrophyllum virginianum"],"other_name":null,"cycle":"Perennial","watering":"Frequent","sunlight":["Partial sun"],"default_image":{"image_id":8327,"license":5,"license_name":"Attribution-ShareAlike License","license_url":"https://creativecommons.org/licenses/by-sa/2.0/","original_url":"https://perenual.com/storage/species_image/4123_hydrophyllum_virginianum/og/35532549094_000af8493a_b.jpg","regular_url":"https://perenual.com/storage/species_image/4123_hydrophyllum_virginianum/regular/35532549094_000af8493a_b.jpg","medium_url":"https://perenual.com/storage/species_image/4123_hydrophyllum_virginianum/medium/35532549094_000af8493a_b.jpg","small_url":"https://perenual.com/storage/species_image/4123_hydrophyllum_virginianum/small/35532549094_000af8493a_b.jpg","thumbnail":"https://perenual.com/storage/species_image/4123_hydrophyllum_virginianum/thumbnail/35532549094_000af8493a_b.jpg"}},{"id":4124,"common_name":"stonecrop","scientific_name":["Hylotelephium 'Blade Runner'"],"other_name":null,"cycle":"Perennial","watering":"Minimum","sunlight":["Full sun"],"default_image":{"image_id":8332,"license":5,"license_name":"Attribution-ShareAlike License","license_url":"https://creativecommons.org/licenses/by-sa/2.0/","original_url":"https://perenual.com/storage/species_image/4148_hylotelephium_telephium_munstead_dark_red/og/52072565816_121a485d5f_b.jpg","regular_url":"https://perenual.com/storage/species_image/4148_hylotelephium_telephium_munstead_dark_red/regular/52072565816_121a485d5f_b.jpg","medium_url":"https://perenual.com/storage/species_image/4148_hylotelephium_telephium_munstead_dark_red/medium/52072565816_121a485d5f_b.jpg","small_url":"https://perenual.com/storage/species_image/4148_hylotelephium_telephium_munstead_dark_red/small/52072565816_121a485d5f_b.jpg","thumbnail":"https://perenual.com/storage/species_image/4148_hylotelephium_telephium_munstead_dark_red/thumbnail/52072565816_121a485d5f_b.jpg"}},{"id":4125,"common_name":"stonecrop","scientific_name":["Hylotelephium 'Carl'"],"other_name":null,"cycle":"Perennial","watering":"Minimum","sunlight":["Full sun"],"default_image":{"image_id":8333,"license":5,"license_name":"Attribution-ShareAlike License","license_url":"https://creativecommons.org/licenses/by-sa/2.0/","original_url":"https://perenual.com/storage/species_image/4148_hylotelephium_telephium_munstead_dark_red/og/52072788849_a987ca0cc9_b.jpg","regular_url":"https://perenual.com/storage/species_image/4148_hylotelephium_telephium_munstead_dark_red/regular/52072788849_a987ca0cc9_b.jpg","medium_url":"https://perenual.com/storage/species_image/4148_hylotelephium_telephium_munstead_dark_red/medium/52072788849_a987ca0cc9_b.jpg","small_url":"https://perenual.com/storage/species_image/4148_hylotelephium_telephium_munstead_dark_red/small/52072788849_a987ca0cc9_b.jpg","thumbnail":"https://perenual.com/storage/species_image/4148_hylotelephium_telephium_munstead_dark_red/thumbnail/52072788849_a987ca0cc9_b.jpg"}},{"id":4126,"common_name":"stonecrop","scientific_name":["Hylotelephium 'Chocolate Cherry'"],"other_name":null,"cycle":"Perennial","watering":"Minimum","sunlight":["Full sun"],"default_image":{"image_id":8337,"license":6,"license_name":"Attribution-NoDerivs License","license_url":"https://creativecommons.org/licenses/by-nd/2.0/","original_url":"https://perenual.com/storage/species_image/4126_hylotelephium_chocolate_cherry/og/50787400871_6f82f1b0a6_b.jpg"}},{"id":4127,"common_name":"stonecrop","scientific_name":["Hylotelephium erythrostictum 'Mediovariegatum'"],"other_name":null,"cycle":"Perennial","watering":"Minimum","sunlight":["Full sun"],"default_image":{"image_id":8338,"license":5,"license_name":"Attribution-ShareAlike License","license_url":"https://creativecommons.org/licenses/by-sa/2.0/","original_url":"https://perenual.com/storage/species_image/4127_hylotelephium_erythrostictum_mediovariegatum/og/52285172614_db50730ced_b.jpg","regular_url":"https://perenual.com/storage/species_image/4127_hylotelephium_erythrostictum_mediovariegatum/regular/52285172614_db50730ced_b.jpg","medium_url":"https://perenual.com/storage/species_image/4127_hylotelephium_erythrostictum_mediovariegatum/medium/52285172614_db50730ced_b.jpg","small_url":"https://perenual.com/storage/species_image/4127_hylotelephium_erythrostictum_mediovariegatum/small/52285172614_db50730ced_b.jpg","thumbnail":"https://perenual.com/storage/species_image/4127_hylotelephium_erythrostictum_mediovariegatum/thumbnail/52285172614_db50730ced_b.jpg"}},{"id":4128,"common_name":"stonecrop","scientific_name":["Hylotelephium 'Herbstfreude' AUTUMN JOY"],"other_name":null,"cycle":"Perennial","watering":"Minimum","sunlight":["Full sun"],"default_image":null},{"id":4129,"common_name":"stonecrop","scientific_name":["Hylotelephium 'Lajos' AUTUMN CHARM"],"other_name":null,"cycle":"Perennial","watering":"Minimum","sunlight":["Full sun"],"default_image":{"image_id":9,"license":5,"license_name":"Attribution-ShareAlike License","license_url":"https://creativecommons.org/licenses/by-sa/2.0/","original_url":"https://perenual.com/storage/species_image/2_abies_alba_pyramidalis/og/49255769768_df55596553_b.jpg","regular_url":"https://perenual.com/storage/species_image/2_abies_alba_pyramidalis/regular/49255769768_df55596553_b.jpg","medium_url":"https://perenual.com/storage/species_image/2_abies_alba_pyramidalis/medium/49255769768_df55596553_b.jpg","small_url":"https://perenual.com/storage/species_image/2_abies_alba_pyramidalis/small/49255769768_df55596553_b.jpg","thumbnail":"https://perenual.com/storage/species_image/2_abies_alba_pyramidalis/thumbnail/49255769768_df55596553_b.jpg"}},{"id":4130,"common_name":"stonecrop","scientific_name":["Hylotelephium 'Maestro'"],"other_name":null,"cycle":"Perennial","watering":"Minimum","sunlight":["Full sun"],"default_image":{"image_id":8342,"license":5,"license_name":"Attribution-ShareAlike License","license_url":"https://creativecommons.org/licenses/by-sa/2.0/","original_url":"https://perenual.com/storage/species_image/4131_hylotelephium_pure_joy/og/51450429596_b480907dbb_b.jpg","regular_url":"https://perenual.com/storage/species_image/4131_hylotelephium_pure_joy/regular/51450429596_b480907dbb_b.jpg","medium_url":"https://perenual.com/storage/species_image/4131_hylotelephium_pure_joy/medium/51450429596_b480907dbb_b.jpg","small_url":"https://perenual.com/storage/species_image/4131_hylotelephium_pure_joy/small/51450429596_b480907dbb_b.jpg","thumbnail":"https://perenual.com/storage/species_image/4131_hylotelephium_pure_joy/thumbnail/51450429596_b480907dbb_b.jpg"}},{"id":4131,"common_name":"stonecrop","scientific_name":["Hylotelephium 'Pure Joy'"],"other_name":null,"cycle":"Perennial","watering":"Minimum","sunlight":["Full sun"],"default_image":{"image_id":8342,"license":5,"license_name":"Attribution-ShareAlike License","license_url":"https://creativecommons.org/licenses/by-sa/2.0/","original_url":"https://perenual.com/storage/species_image/4131_hylotelephium_pure_joy/og/51450429596_b480907dbb_b.jpg","regular_url":"https://perenual.com/storage/species_image/4131_hylotelephium_pure_joy/regular/51450429596_b480907dbb_b.jpg","medium_url":"https://perenual.com/storage/species_image/4131_hylotelephium_pure_joy/medium/51450429596_b480907dbb_b.jpg","small_url":"https://perenual.com/storage/species_image/4131_hylotelephium_pure_joy/small/51450429596_b480907dbb_b.jpg","thumbnail":"https://perenual.com/storage/species_image/4131_hylotelephium_pure_joy/thumbnail/51450429596_b480907dbb_b.jpg"}},{"id":4132,"common_name":"October daphne","scientific_name":["Hylotelephium sieboldii"],"other_name":null,"cycle":"Perennial","watering":"Minimum","sunlight":["Full sun"],"default_image":{"image_id":9,"license":5,"license_name":"Attribution-ShareAlike License","license_url":"https://creativecommons.org/licenses/by-sa/2.0/","original_url":"https://perenual.com/storage/species_image/2_abies_alba_pyramidalis/og/49255769768_df55596553_b.jpg","regular_url":"https://perenual.com/storage/species_image/2_abies_alba_pyramidalis/regular/49255769768_df55596553_b.jpg","medium_url":"https://perenual.com/storage/species_image/2_abies_alba_pyramidalis/medium/49255769768_df55596553_b.jpg","small_url":"https://perenual.com/storage/species_image/2_abies_alba_pyramidalis/small/49255769768_df55596553_b.jpg","thumbnail":"https://perenual.com/storage/species_image/2_abies_alba_pyramidalis/thumbnail/49255769768_df55596553_b.jpg"}},{"id":4133,"common_name":"hylotelephium","scientific_name":["Hylotelephium spectabile"],"other_name":null,"cycle":"Perennial","watering":"Minimum","sunlight":["Full sun"],"default_image":{"image_id":8353,"license":6,"license_name":"Attribution-NoDerivs License","license_url":"https://creativecommons.org/licenses/by-nd/2.0/","original_url":"https://perenual.com/storage/species_image/4133_hylotelephium_spectabile/og/51479269253_a9d4de94e0_b.jpg"}},{"id":4134,"common_name":"hylotelephium","scientific_name":["Hylotelephium spectabile 'Autumn Fire'"],"other_name":null,"cycle":"Perennial","watering":"Minimum","sunlight":["Full sun"],"default_image":{"image_id":8355,"license":5,"license_name":"Attribution-ShareAlike License","license_url":"https://creativecommons.org/licenses/by-sa/2.0/","original_url":"https://perenual.com/storage/species_image/4134_hylotelephium_spectabile_autumn_fire/og/24388010915_919c6dd1f4_b.jpg","regular_url":"https://perenual.com/storage/species_image/4134_hylotelephium_spectabile_autumn_fire/regular/24388010915_919c6dd1f4_b.jpg","medium_url":"https://perenual.com/storage/species_image/4134_hylotelephium_spectabile_autumn_fire/medium/24388010915_919c6dd1f4_b.jpg","small_url":"https://perenual.com/storage/species_image/4134_hylotelephium_spectabile_autumn_fire/small/24388010915_919c6dd1f4_b.jpg","thumbnail":"https://perenual.com/storage/species_image/4134_hylotelephium_spectabile_autumn_fire/thumbnail/24388010915_919c6dd1f4_b.jpg"}},{"id":4135,"common_name":"hylotelephium","scientific_name":["Hylotelephium spectabile 'Brilliant'"],"other_name":null,"cycle":"Perennial","watering":"Minimum","sunlight":["Full sun"],"default_image":{"image_id":8359,"license":4,"license_name":"Attribution License","license_url":"https://creativecommons.org/licenses/by/2.0/","original_url":"https://perenual.com/storage/species_image/4135_hylotelephium_spectabile_brilliant/og/52363125086_89f89f7689_b.jpg","regular_url":"https://perenual.com/storage/species_image/4135_hylotelephium_spectabile_brilliant/regular/52363125086_89f89f7689_b.jpg","medium_url":"https://perenual.com/storage/species_image/4135_hylotelephium_spectabile_brilliant/medium/52363125086_89f89f7689_b.jpg","small_url":"https://perenual.com/storage/species_image/4135_hylotelephium_spectabile_brilliant/small/52363125086_89f89f7689_b.jpg","thumbnail":"https://perenual.com/storage/species_image/4135_hylotelephium_spectabile_brilliant/thumbnail/52363125086_89f89f7689_b.jpg"}},{"id":4136,"common_name":"stonecrop","scientific_name":["Hylotelephium spectabile 'Crystal Pink'"],"other_name":null,"cycle":"Perennial","watering":"Minimum","sunlight":["Full sun"],"default_image":{"image_id":8340,"license":4,"license_name":"Attribution License","license_url":"https://creativecommons.org/licenses/by/2.0/","original_url":"https://perenual.com/storage/species_image/4150_hylotelephium_telephium_subsp_ruprechtii/og/52220689516_5c64f00d72_b.jpg","regular_url":"https://perenual.com/storage/species_image/4150_hylotelephium_telephium_subsp_ruprechtii/regular/52220689516_5c64f00d72_b.jpg","medium_url":"https://perenual.com/storage/species_image/4150_hylotelephium_telephium_subsp_ruprechtii/medium/52220689516_5c64f00d72_b.jpg","small_url":"https://perenual.com/storage/species_image/4150_hylotelephium_telephium_subsp_ruprechtii/small/52220689516_5c64f00d72_b.jpg","thumbnail":"https://perenual.com/storage/species_image/4150_hylotelephium_telephium_subsp_ruprechtii/thumbnail/52220689516_5c64f00d72_b.jpg"}},{"id":4137,"common_name":"showy stonecrop","scientific_name":["Hylotelephium spectabile 'Meteor'"],"other_name":null,"cycle":"Perennial","watering":"Minimum","sunlight":["Full sun"],"default_image":{"image_id":9,"license":5,"license_name":"Attribution-ShareAlike License","license_url":"https://creativecommons.org/licenses/by-sa/2.0/","original_url":"https://perenual.com/storage/species_image/2_abies_alba_pyramidalis/og/49255769768_df55596553_b.jpg","regular_url":"https://perenual.com/storage/species_image/2_abies_alba_pyramidalis/regular/49255769768_df55596553_b.jpg","medium_url":"https://perenual.com/storage/species_image/2_abies_alba_pyramidalis/medium/49255769768_df55596553_b.jpg","small_url":"https://perenual.com/storage/species_image/2_abies_alba_pyramidalis/small/49255769768_df55596553_b.jpg","thumbnail":"https://perenual.com/storage/species_image/2_abies_alba_pyramidalis/thumbnail/49255769768_df55596553_b.jpg"}},{"id":4138,"common_name":"hylotelephium","scientific_name":["Hylotelephium spectabile 'Neon'"],"other_name":null,"cycle":"Perennial","watering":"Minimum","sunlight":["Full sun"],"default_image":{"image_id":8363,"license":5,"license_name":"Attribution-ShareAlike License","license_url":"https://creativecommons.org/licenses/by-sa/2.0/","original_url":"https://perenual.com/storage/species_image/4138_hylotelephium_spectabile_neon/og/42686791340_9719a4a0f4_b.jpg","regular_url":"https://perenual.com/storage/species_image/4138_hylotelephium_spectabile_neon/regular/42686791340_9719a4a0f4_b.jpg","medium_url":"https://perenual.com/storage/species_image/4138_hylotelephium_spectabile_neon/medium/42686791340_9719a4a0f4_b.jpg","small_url":"https://perenual.com/storage/species_image/4138_hylotelephium_spectabile_neon/small/42686791340_9719a4a0f4_b.jpg","thumbnail":"https://perenual.com/storage/species_image/4138_hylotelephium_spectabile_neon/thumbnail/42686791340_9719a4a0f4_b.jpg"}},{"id":4139,"common_name":"hylotelephium","scientific_name":["Hylotelephium spectabile 'Ruby Jewel'"],"other_name":null,"cycle":"Perennial","watering":"Minimum","sunlight":["Full sun"],"default_image":{"image_id":9,"license":5,"license_name":"Attribution-ShareAlike License","license_url":"https://creativecommons.org/licenses/by-sa/2.0/","original_url":"https://perenual.com/storage/species_image/2_abies_alba_pyramidalis/og/49255769768_df55596553_b.jpg","regular_url":"https://perenual.com/storage/species_image/2_abies_alba_pyramidalis/regular/49255769768_df55596553_b.jpg","medium_url":"https://perenual.com/storage/species_image/2_abies_alba_pyramidalis/medium/49255769768_df55596553_b.jpg","small_url":"https://perenual.com/storage/species_image/2_abies_alba_pyramidalis/small/49255769768_df55596553_b.jpg","thumbnail":"https://perenual.com/storage/species_image/2_abies_alba_pyramidalis/thumbnail/49255769768_df55596553_b.jpg"}},{"id":4140,"common_name":"showy stonecrop","scientific_name":["Hylotelephium spectabile 'Stardust'"],"other_name":null,"cycle":"Perennial","watering":"Minimum","sunlight":["Full sun"],"default_image":{"image_id":9,"license":5,"license_name":"Attribution-ShareAlike License","license_url":"https://creativecommons.org/licenses/by-sa/2.0/","original_url":"https://perenual.com/storage/species_image/2_abies_alba_pyramidalis/og/49255769768_df55596553_b.jpg","regular_url":"https://perenual.com/storage/species_image/2_abies_alba_pyramidalis/regular/49255769768_df55596553_b.jpg","medium_url":"https://perenual.com/storage/species_image/2_abies_alba_pyramidalis/medium/49255769768_df55596553_b.jpg","small_url":"https://perenual.com/storage/species_image/2_abies_alba_pyramidalis/small/49255769768_df55596553_b.jpg","thumbnail":"https://perenual.com/storage/species_image/2_abies_alba_pyramidalis/thumbnail/49255769768_df55596553_b.jpg"}}],"to":4140,"per_page":30,"current_page":138,"from":4111,"last_page":200,"total":6000}