{"data":[{"id":2191,"common_name":"colewort","scientific_name":["Crambe cordifolia"],"other_name":null,"cycle":"Perennial","watering":"Average","sunlight":["Full sun"],"default_image":{"image_id":5176,"license":45,"license_name":"Attribution-ShareAlike 3.0 Unported (CC BY-SA 3.0)","license_url":"https://creativecommons.org/licenses/by-sa/3.0/deed.en","original_url":"https://perenual.com/storage/species_image/2191_crambe_cordifolia/og/Crambe_cordifolia02.jpg","regular_url":"https://perenual.com/storage/species_image/2191_crambe_cordifolia/regular/Crambe_cordifolia02.jpg","medium_url":"https://perenual.com/storage/species_image/2191_crambe_cordifolia/medium/Crambe_cordifolia02.jpg","small_url":"https://perenual.com/storage/species_image/2191_crambe_cordifolia/small/Crambe_cordifolia02.jpg","thumbnail":"https://perenual.com/storage/species_image/2191_crambe_cordifolia/thumbnail/Crambe_cordifolia02.jpg"}},{"id":2192,"common_name":"sea kale","scientific_name":["Crambe maritima"],"other_name":null,"cycle":"Perennial","watering":"Average","sunlight":["Full sun"],"default_image":{"image_id":5177,"license":5,"license_name":"Attribution-ShareAlike License","license_url":"https://creativecommons.org/licenses/by-sa/2.0/","original_url":"https://perenual.com/storage/species_image/2192_crambe_maritima/og/27250076285_5e18531595_b.jpg","regular_url":"https://perenual.com/storage/species_image/2192_crambe_maritima/regular/27250076285_5e18531595_b.jpg","medium_url":"https://perenual.com/storage/species_image/2192_crambe_maritima/medium/27250076285_5e18531595_b.jpg","small_url":"https://perenual.com/storage/species_image/2192_crambe_maritima/small/27250076285_5e18531595_b.jpg","thumbnail":"https://perenual.com/storage/species_image/2192_crambe_maritima/thumbnail/27250076285_5e18531595_b.jpg"}},{"id":2193,"common_name":"jade plant","scientific_name":["Crassula ovata"],"other_name":null,"cycle":"Perennial","watering":"Average","sunlight":[],"default_image":{"image_id":5178,"license":4,"license_name":"Attribution License","license_url":"https://creativecommons.org/licenses/by/2.0/","original_url":"https://perenual.com/storage/species_image/2193_crassula_ovata/og/33253726791_980c738a1e_b.jpg","regular_url":"https://perenual.com/storage/species_image/2193_crassula_ovata/regular/33253726791_980c738a1e_b.jpg","medium_url":"https://perenual.com/storage/species_image/2193_crassula_ovata/medium/33253726791_980c738a1e_b.jpg","small_url":"https://perenual.com/storage/species_image/2193_crassula_ovata/small/33253726791_980c738a1e_b.jpg","thumbnail":"https://perenual.com/storage/species_image/2193_crassula_ovata/thumbnail/33253726791_980c738a1e_b.jpg"}},{"id":2194,"common_name":"hawthorn","scientific_name":["Crataegus coccinea"],"other_name":null,"cycle":"Perennial","watering":"Average","sunlight":["Full sun"],"default_image":{"image_id":9,"license":5,"license_name":"Attribution-ShareAlike License","license_url":"https://creativecommons.org/licenses/by-sa/2.0/","original_url":"https://perenual.com/storage/species_image/2_abies_alba_pyramidalis/og/49255769768_df55596553_b.jpg","regular_url":"https://perenual.com/storage/species_image/2_abies_alba_pyramidalis/regular/49255769768_df55596553_b.jpg","medium_url":"https://perenual.com/storage/species_image/2_abies_alba_pyramidalis/medium/49255769768_df55596553_b.jpg","small_url":"https://perenual.com/storage/species_image/2_abies_alba_pyramidalis/small/49255769768_df55596553_b.jpg","thumbnail":"https://perenual.com/storage/species_image/2_abies_alba_pyramidalis/thumbnail/49255769768_df55596553_b.jpg"}},{"id":2195,"common_name":"cockspur thorn","scientific_name":["Crataegus crus-galli"],"other_name":null,"cycle":"Perennial","watering":"Average","sunlight":["Full sun"],"default_image":{"image_id":9,"license":5,"license_name":"Attribution-ShareAlike License","license_url":"https://creativecommons.org/licenses/by-sa/2.0/","original_url":"https://perenual.com/storage/species_image/2_abies_alba_pyramidalis/og/49255769768_df55596553_b.jpg","regular_url":"https://perenual.com/storage/species_image/2_abies_alba_pyramidalis/regular/49255769768_df55596553_b.jpg","medium_url":"https://perenual.com/storage/species_image/2_abies_alba_pyramidalis/medium/49255769768_df55596553_b.jpg","small_url":"https://perenual.com/storage/species_image/2_abies_alba_pyramidalis/small/49255769768_df55596553_b.jpg","thumbnail":"https://perenual.com/storage/species_image/2_abies_alba_pyramidalis/thumbnail/49255769768_df55596553_b.jpg"}},{"id":2196,"common_name":"cockspur thorn","scientific_name":["Crataegus crus-galli 'Cruzam' CRUSADER"],"other_name":null,"cycle":"Perennial","watering":"Average","sunlight":["Full sun"],"default_image":{"image_id":9,"license":5,"license_name":"Attribution-ShareAlike License","license_url":"https://creativecommons.org/licenses/by-sa/2.0/","original_url":"https://perenual.com/storage/species_image/2_abies_alba_pyramidalis/og/49255769768_df55596553_b.jpg","regular_url":"https://perenual.com/storage/species_image/2_abies_alba_pyramidalis/regular/49255769768_df55596553_b.jpg","medium_url":"https://perenual.com/storage/species_image/2_abies_alba_pyramidalis/medium/49255769768_df55596553_b.jpg","small_url":"https://perenual.com/storage/species_image/2_abies_alba_pyramidalis/small/49255769768_df55596553_b.jpg","thumbnail":"https://perenual.com/storage/species_image/2_abies_alba_pyramidalis/thumbnail/49255769768_df55596553_b.jpg"}},{"id":2197,"common_name":"cockspur thorn","scientific_name":["Crataegus crus-galli (thornless form)"],"other_name":null,"cycle":"Perennial","watering":"Average","sunlight":["Full sun"],"default_image":{"image_id":5190,"license":4,"license_name":"Attribution License","license_url":"https://creativecommons.org/licenses/by/2.0/","original_url":"https://perenual.com/storage/species_image/2197_crataegus_crus-galli_thornless_form/og/52428693910_16ed9870ea_b.jpg","regular_url":"https://perenual.com/storage/species_image/2197_crataegus_crus-galli_thornless_form/regular/52428693910_16ed9870ea_b.jpg","medium_url":"https://perenual.com/storage/species_image/2197_crataegus_crus-galli_thornless_form/medium/52428693910_16ed9870ea_b.jpg","small_url":"https://perenual.com/storage/species_image/2197_crataegus_crus-galli_thornless_form/small/52428693910_16ed9870ea_b.jpg","thumbnail":"https://perenual.com/storage/species_image/2197_crataegus_crus-galli_thornless_form/thumbnail/52428693910_16ed9870ea_b.jpg"}},{"id":2198,"common_name":"black hawthorn","scientific_name":["Crataegus douglasii"],"other_name":null,"cycle":"Perennial","watering":"Frequent","sunlight":["Full sun Partial sun"],"default_image":{"image_id":5192,"license":5,"license_name":"Attribution-ShareAlike License","license_url":"https://creativecommons.org/licenses/by-sa/2.0/","original_url":"https://perenual.com/storage/species_image/2198_crataegus_douglasii/og/46329950334_f837a4a159_b.jpg","regular_url":"https://perenual.com/storage/species_image/2198_crataegus_douglasii/regular/46329950334_f837a4a159_b.jpg","medium_url":"https://perenual.com/storage/species_image/2198_crataegus_douglasii/medium/46329950334_f837a4a159_b.jpg","small_url":"https://perenual.com/storage/species_image/2198_crataegus_douglasii/small/46329950334_f837a4a159_b.jpg","thumbnail":"https://perenual.com/storage/species_image/2198_crataegus_douglasii/thumbnail/46329950334_f837a4a159_b.jpg"}},{"id":2199,"common_name":"hawthorn","scientific_name":["Crataegus lavalleei"],"other_name":null,"cycle":"Perennial","watering":"Average","sunlight":["Full sun"],"default_image":{"image_id":5197,"license":45,"license_name":"Attribution-ShareAlike 3.0 Unported (CC BY-SA 3.0)","license_url":"https://creativecommons.org/licenses/by-sa/3.0/deed.en","original_url":"https://perenual.com/storage/species_image/2199_crataegus_lavalleei/og/Crataegus_lavalei_Carrierei_Frucht.jpg","regular_url":"https://perenual.com/storage/species_image/2199_crataegus_lavalleei/regular/Crataegus_lavalei_Carrierei_Frucht.jpg","medium_url":"https://perenual.com/storage/species_image/2199_crataegus_lavalleei/medium/Crataegus_lavalei_Carrierei_Frucht.jpg","small_url":"https://perenual.com/storage/species_image/2199_crataegus_lavalleei/small/Crataegus_lavalei_Carrierei_Frucht.jpg","thumbnail":"https://perenual.com/storage/species_image/2199_crataegus_lavalleei/thumbnail/Crataegus_lavalei_Carrierei_Frucht.jpg"}},{"id":2200,"common_name":"hawthorn","scientific_name":["Crataegus nitida"],"other_name":null,"cycle":"Perennial","watering":"Average","sunlight":["Full sun"],"default_image":{"image_id":9,"license":5,"license_name":"Attribution-ShareAlike License","license_url":"https://creativecommons.org/licenses/by-sa/2.0/","original_url":"https://perenual.com/storage/species_image/2_abies_alba_pyramidalis/og/49255769768_df55596553_b.jpg","regular_url":"https://perenual.com/storage/species_image/2_abies_alba_pyramidalis/regular/49255769768_df55596553_b.jpg","medium_url":"https://perenual.com/storage/species_image/2_abies_alba_pyramidalis/medium/49255769768_df55596553_b.jpg","small_url":"https://perenual.com/storage/species_image/2_abies_alba_pyramidalis/small/49255769768_df55596553_b.jpg","thumbnail":"https://perenual.com/storage/species_image/2_abies_alba_pyramidalis/thumbnail/49255769768_df55596553_b.jpg"}},{"id":2201,"common_name":"Washington hawthorn","scientific_name":["Crataegus phaenopyrum"],"other_name":null,"cycle":"Perennial","watering":"Average","sunlight":["Full sun"],"default_image":{"image_id":5201,"license":5,"license_name":"Attribution-ShareAlike License","license_url":"https://creativecommons.org/licenses/by-sa/2.0/","original_url":"https://perenual.com/storage/species_image/2201_crataegus_phaenopyrum/og/52398108594_c24c30508e_b.jpg","regular_url":"https://perenual.com/storage/species_image/2201_crataegus_phaenopyrum/regular/52398108594_c24c30508e_b.jpg","medium_url":"https://perenual.com/storage/species_image/2201_crataegus_phaenopyrum/medium/52398108594_c24c30508e_b.jpg","small_url":"https://perenual.com/storage/species_image/2201_crataegus_phaenopyrum/small/52398108594_c24c30508e_b.jpg","thumbnail":"https://perenual.com/storage/species_image/2201_crataegus_phaenopyrum/thumbnail/52398108594_c24c30508e_b.jpg"}},{"id":2202,"common_name":"hawthorn","scientific_name":["Crataegus punctata 'Ohio Pioneer'"],"other_name":null,"cycle":"Perennial","watering":"Average","sunlight":["Full sun"],"default_image":{"image_id":9,"license":5,"license_name":"Attribution-ShareAlike License","license_url":"https://creativecommons.org/licenses/by-sa/2.0/","original_url":"https://perenual.com/storage/species_image/2_abies_alba_pyramidalis/og/49255769768_df55596553_b.jpg","regular_url":"https://perenual.com/storage/species_image/2_abies_alba_pyramidalis/regular/49255769768_df55596553_b.jpg","medium_url":"https://perenual.com/storage/species_image/2_abies_alba_pyramidalis/medium/49255769768_df55596553_b.jpg","small_url":"https://perenual.com/storage/species_image/2_abies_alba_pyramidalis/small/49255769768_df55596553_b.jpg","thumbnail":"https://perenual.com/storage/species_image/2_abies_alba_pyramidalis/thumbnail/49255769768_df55596553_b.jpg"}},{"id":2203,"common_name":"cockspur thorn","scientific_name":["Crataegus 'Vaughn'"],"other_name":null,"cycle":"Perennial","watering":"Average","sunlight":["Full sun"],"default_image":{"image_id":5207,"license":5,"license_name":"Attribution-ShareAlike License","license_url":"https://creativecommons.org/licenses/by-sa/2.0/","original_url":"https://perenual.com/storage/species_image/2203_crataegus_vaughn/og/4104823947_0907ed622e_b.jpg","regular_url":"https://perenual.com/storage/species_image/2203_crataegus_vaughn/regular/4104823947_0907ed622e_b.jpg","medium_url":"https://perenual.com/storage/species_image/2203_crataegus_vaughn/medium/4104823947_0907ed622e_b.jpg","small_url":"https://perenual.com/storage/species_image/2203_crataegus_vaughn/small/4104823947_0907ed622e_b.jpg","thumbnail":"https://perenual.com/storage/species_image/2203_crataegus_vaughn/thumbnail/4104823947_0907ed622e_b.jpg"}},{"id":2204,"common_name":"green hawthorn","scientific_name":["Crataegus viridis"],"other_name":null,"cycle":"Perennial","watering":"Minimum","sunlight":["Full sun"],"default_image":{"image_id":9,"license":5,"license_name":"Attribution-ShareAlike License","license_url":"https://creativecommons.org/licenses/by-sa/2.0/","original_url":"https://perenual.com/storage/species_image/2_abies_alba_pyramidalis/og/49255769768_df55596553_b.jpg","regular_url":"https://perenual.com/storage/species_image/2_abies_alba_pyramidalis/regular/49255769768_df55596553_b.jpg","medium_url":"https://perenual.com/storage/species_image/2_abies_alba_pyramidalis/medium/49255769768_df55596553_b.jpg","small_url":"https://perenual.com/storage/species_image/2_abies_alba_pyramidalis/small/49255769768_df55596553_b.jpg","thumbnail":"https://perenual.com/storage/species_image/2_abies_alba_pyramidalis/thumbnail/49255769768_df55596553_b.jpg"}},{"id":2205,"common_name":"green hawthorn","scientific_name":["Crataegus viridis 'Winter King'"],"other_name":null,"cycle":"Perennial","watering":"Minimum","sunlight":["Full sun"],"default_image":{"image_id":9,"license":5,"license_name":"Attribution-ShareAlike License","license_url":"https://creativecommons.org/licenses/by-sa/2.0/","original_url":"https://perenual.com/storage/species_image/2_abies_alba_pyramidalis/og/49255769768_df55596553_b.jpg","regular_url":"https://perenual.com/storage/species_image/2_abies_alba_pyramidalis/regular/49255769768_df55596553_b.jpg","medium_url":"https://perenual.com/storage/species_image/2_abies_alba_pyramidalis/medium/49255769768_df55596553_b.jpg","small_url":"https://perenual.com/storage/species_image/2_abies_alba_pyramidalis/small/49255769768_df55596553_b.jpg","thumbnail":"https://perenual.com/storage/species_image/2_abies_alba_pyramidalis/thumbnail/49255769768_df55596553_b.jpg"}},{"id":2206,"common_name":"common calabash tree","scientific_name":["Crescentia cujete"],"other_name":null,"cycle":"Perennial","watering":"Average","sunlight":["Full sun","part shade"],"default_image":{"image_id":9,"license":5,"license_name":"Attribution-ShareAlike License","license_url":"https://creativecommons.org/licenses/by-sa/2.0/","original_url":"https://perenual.com/storage/species_image/2_abies_alba_pyramidalis/og/49255769768_df55596553_b.jpg","regular_url":"https://perenual.com/storage/species_image/2_abies_alba_pyramidalis/regular/49255769768_df55596553_b.jpg","medium_url":"https://perenual.com/storage/species_image/2_abies_alba_pyramidalis/medium/49255769768_df55596553_b.jpg","small_url":"https://perenual.com/storage/species_image/2_abies_alba_pyramidalis/small/49255769768_df55596553_b.jpg","thumbnail":"https://perenual.com/storage/species_image/2_abies_alba_pyramidalis/thumbnail/49255769768_df55596553_b.jpg"}},{"id":2207,"common_name":"Florida swamp lily","scientific_name":["Crinum americanum"],"other_name":null,"cycle":"Perennial","watering":"Frequent","sunlight":["Full sun","part shade"],"default_image":{"image_id":5219,"license":4,"license_name":"Attribution License","license_url":"https://creativecommons.org/licenses/by/2.0/","original_url":"https://perenual.com/storage/species_image/2207_crinum_americanum/og/49748942177_ebd1d0d78d_b.jpg","regular_url":"https://perenual.com/storage/species_image/2207_crinum_americanum/regular/49748942177_ebd1d0d78d_b.jpg","medium_url":"https://perenual.com/storage/species_image/2207_crinum_americanum/medium/49748942177_ebd1d0d78d_b.jpg","small_url":"https://perenual.com/storage/species_image/2207_crinum_americanum/small/49748942177_ebd1d0d78d_b.jpg","thumbnail":"https://perenual.com/storage/species_image/2207_crinum_americanum/thumbnail/49748942177_ebd1d0d78d_b.jpg"}},{"id":2208,"common_name":"poison bulb","scientific_name":["Crinum asiaticum"],"other_name":null,"cycle":"Perennial","watering":"Average","sunlight":["Full sun","part shade"],"default_image":{"image_id":5222,"license":5,"license_name":"Attribution-ShareAlike License","license_url":"https://creativecommons.org/licenses/by-sa/2.0/","original_url":"https://perenual.com/storage/species_image/2208_crinum_asiaticum/og/49089789722_250452e5d4_b.jpg","regular_url":"https://perenual.com/storage/species_image/2208_crinum_asiaticum/regular/49089789722_250452e5d4_b.jpg","medium_url":"https://perenual.com/storage/species_image/2208_crinum_asiaticum/medium/49089789722_250452e5d4_b.jpg","small_url":"https://perenual.com/storage/species_image/2208_crinum_asiaticum/small/49089789722_250452e5d4_b.jpg","thumbnail":"https://perenual.com/storage/species_image/2208_crinum_asiaticum/thumbnail/49089789722_250452e5d4_b.jpg"}},{"id":2209,"common_name":"crinum","scientific_name":["Crinum bulbispermum"],"other_name":null,"cycle":"Perennial","watering":"Average","sunlight":["Full sun","part shade"],"default_image":{"image_id":5224,"license":5,"license_name":"Attribution-ShareAlike License","license_url":"https://creativecommons.org/licenses/by-sa/2.0/","original_url":"https://perenual.com/storage/species_image/2209_crinum_bulbispermum/og/36816161921_b8598f67c9_b.jpg","regular_url":"https://perenual.com/storage/species_image/2209_crinum_bulbispermum/regular/36816161921_b8598f67c9_b.jpg","medium_url":"https://perenual.com/storage/species_image/2209_crinum_bulbispermum/medium/36816161921_b8598f67c9_b.jpg","small_url":"https://perenual.com/storage/species_image/2209_crinum_bulbispermum/small/36816161921_b8598f67c9_b.jpg","thumbnail":"https://perenual.com/storage/species_image/2209_crinum_bulbispermum/thumbnail/36816161921_b8598f67c9_b.jpg"}},{"id":2210,"common_name":"crinum","scientific_name":["Crinum 'Ellen Bosanquet'"],"other_name":null,"cycle":"Perennial","watering":"Average","sunlight":["Full sun","part shade"],"default_image":{"image_id":5228,"license":5,"license_name":"Attribution-ShareAlike License","license_url":"https://creativecommons.org/licenses/by-sa/2.0/","original_url":"https://perenual.com/storage/species_image/2210_crinum_ellen_bosanquet/og/9171282191_189e992243_b.jpg","regular_url":"https://perenual.com/storage/species_image/2210_crinum_ellen_bosanquet/regular/9171282191_189e992243_b.jpg","medium_url":"https://perenual.com/storage/species_image/2210_crinum_ellen_bosanquet/medium/9171282191_189e992243_b.jpg","small_url":"https://perenual.com/storage/species_image/2210_crinum_ellen_bosanquet/small/9171282191_189e992243_b.jpg","thumbnail":"https://perenual.com/storage/species_image/2210_crinum_ellen_bosanquet/thumbnail/9171282191_189e992243_b.jpg"}},{"id":2211,"common_name":"crinum","scientific_name":["Crinum (group)"],"other_name":null,"cycle":"Perennial","watering":"Average","sunlight":["Full sun","part shade"],"default_image":{"image_id":3798,"license":4,"license_name":"Attribution License","license_url":"https://creativecommons.org/licenses/by/2.0/","original_url":"https://perenual.com/storage/species_image/2211_crinum_group/og/51498623574_67c4f06230_b.jpg","regular_url":"https://perenual.com/storage/species_image/2211_crinum_group/regular/51498623574_67c4f06230_b.jpg","medium_url":"https://perenual.com/storage/species_image/2211_crinum_group/medium/51498623574_67c4f06230_b.jpg","small_url":"https://perenual.com/storage/species_image/2211_crinum_group/small/51498623574_67c4f06230_b.jpg","thumbnail":"https://perenual.com/storage/species_image/2211_crinum_group/thumbnail/51498623574_67c4f06230_b.jpg"}},{"id":2212,"common_name":"crinum","scientific_name":["Crinum jagus"],"other_name":null,"cycle":"Perennial","watering":"Average","sunlight":["Full sun","part shade"],"default_image":{"image_id":9,"license":5,"license_name":"Attribution-ShareAlike License","license_url":"https://creativecommons.org/licenses/by-sa/2.0/","original_url":"https://perenual.com/storage/species_image/2_abies_alba_pyramidalis/og/49255769768_df55596553_b.jpg","regular_url":"https://perenual.com/storage/species_image/2_abies_alba_pyramidalis/regular/49255769768_df55596553_b.jpg","medium_url":"https://perenual.com/storage/species_image/2_abies_alba_pyramidalis/medium/49255769768_df55596553_b.jpg","small_url":"https://perenual.com/storage/species_image/2_abies_alba_pyramidalis/small/49255769768_df55596553_b.jpg","thumbnail":"https://perenual.com/storage/species_image/2_abies_alba_pyramidalis/thumbnail/49255769768_df55596553_b.jpg"}},{"id":2213,"common_name":"crinum","scientific_name":["Crinum powellii"],"other_name":null,"cycle":"Perennial","watering":"Average","sunlight":["Full sun","part shade"],"default_image":{"image_id":5233,"license":5,"license_name":"Attribution-ShareAlike License","license_url":"https://creativecommons.org/licenses/by-sa/2.0/","original_url":"https://perenual.com/storage/species_image/2213_crinum_powellii/og/16273062387_3b871aaf03_b.jpg","regular_url":"https://perenual.com/storage/species_image/2213_crinum_powellii/regular/16273062387_3b871aaf03_b.jpg","medium_url":"https://perenual.com/storage/species_image/2213_crinum_powellii/medium/16273062387_3b871aaf03_b.jpg","small_url":"https://perenual.com/storage/species_image/2213_crinum_powellii/small/16273062387_3b871aaf03_b.jpg","thumbnail":"https://perenual.com/storage/species_image/2213_crinum_powellii/thumbnail/16273062387_3b871aaf03_b.jpg"}},{"id":2214,"common_name":"montbretia","scientific_name":["Crocosmia 'Blos' BRESSINGHAM BEACON"],"other_name":null,"cycle":"Perennial","watering":"Average","sunlight":["Full sun","part shade"],"default_image":{"image_id":5234,"license":4,"license_name":"Attribution License","license_url":"https://creativecommons.org/licenses/by/2.0/","original_url":"https://perenual.com/storage/species_image/2223_crocosmia_gold_rush/og/52202336109_caef4247a3_b.jpg","regular_url":"https://perenual.com/storage/species_image/2223_crocosmia_gold_rush/regular/52202336109_caef4247a3_b.jpg","medium_url":"https://perenual.com/storage/species_image/2223_crocosmia_gold_rush/medium/52202336109_caef4247a3_b.jpg","small_url":"https://perenual.com/storage/species_image/2223_crocosmia_gold_rush/small/52202336109_caef4247a3_b.jpg","thumbnail":"https://perenual.com/storage/species_image/2223_crocosmia_gold_rush/thumbnail/52202336109_caef4247a3_b.jpg"}},{"id":2215,"common_name":"montbretia","scientific_name":["Crocosmia crocosmiiflora 'Buttercup'"],"other_name":null,"cycle":"Perennial","watering":"Average","sunlight":["Full sun","part shade"],"default_image":{"image_id":9,"license":5,"license_name":"Attribution-ShareAlike License","license_url":"https://creativecommons.org/licenses/by-sa/2.0/","original_url":"https://perenual.com/storage/species_image/2_abies_alba_pyramidalis/og/49255769768_df55596553_b.jpg","regular_url":"https://perenual.com/storage/species_image/2_abies_alba_pyramidalis/regular/49255769768_df55596553_b.jpg","medium_url":"https://perenual.com/storage/species_image/2_abies_alba_pyramidalis/medium/49255769768_df55596553_b.jpg","small_url":"https://perenual.com/storage/species_image/2_abies_alba_pyramidalis/small/49255769768_df55596553_b.jpg","thumbnail":"https://perenual.com/storage/species_image/2_abies_alba_pyramidalis/thumbnail/49255769768_df55596553_b.jpg"}},{"id":2216,"common_name":"montbretia","scientific_name":["Crocosmia crocosmiiflora 'George Davison'"],"other_name":null,"cycle":"Perennial","watering":"Average","sunlight":["Full sun","part shade"],"default_image":{"image_id":9,"license":5,"license_name":"Attribution-ShareAlike License","license_url":"https://creativecommons.org/licenses/by-sa/2.0/","original_url":"https://perenual.com/storage/species_image/2_abies_alba_pyramidalis/og/49255769768_df55596553_b.jpg","regular_url":"https://perenual.com/storage/species_image/2_abies_alba_pyramidalis/regular/49255769768_df55596553_b.jpg","medium_url":"https://perenual.com/storage/species_image/2_abies_alba_pyramidalis/medium/49255769768_df55596553_b.jpg","small_url":"https://perenual.com/storage/species_image/2_abies_alba_pyramidalis/small/49255769768_df55596553_b.jpg","thumbnail":"https://perenual.com/storage/species_image/2_abies_alba_pyramidalis/thumbnail/49255769768_df55596553_b.jpg"}},{"id":2217,"common_name":"montbretia","scientific_name":["Crocosmia crocosmiiflora 'His Majesty'"],"other_name":null,"cycle":"Perennial","watering":"Average","sunlight":["Full sun","part shade"],"default_image":{"image_id":9,"license":5,"license_name":"Attribution-ShareAlike License","license_url":"https://creativecommons.org/licenses/by-sa/2.0/","original_url":"https://perenual.com/storage/species_image/2_abies_alba_pyramidalis/og/49255769768_df55596553_b.jpg","regular_url":"https://perenual.com/storage/species_image/2_abies_alba_pyramidalis/regular/49255769768_df55596553_b.jpg","medium_url":"https://perenual.com/storage/species_image/2_abies_alba_pyramidalis/medium/49255769768_df55596553_b.jpg","small_url":"https://perenual.com/storage/species_image/2_abies_alba_pyramidalis/small/49255769768_df55596553_b.jpg","thumbnail":"https://perenual.com/storage/species_image/2_abies_alba_pyramidalis/thumbnail/49255769768_df55596553_b.jpg"}},{"id":2218,"common_name":"montbretia","scientific_name":["Crocosmia crocosmiiflora NOVA DRAGONFIRE"],"other_name":null,"cycle":"Perennial","watering":"Average","sunlight":["Full sun","part shade"],"default_image":{"image_id":5240,"license":4,"license_name":"Attribution License","license_url":"https://creativecommons.org/licenses/by/2.0/","original_url":"https://perenual.com/storage/species_image/2218_crocosmia_crocosmiiflora_nova_dragonfire/og/51501193248_b40e573149_b.jpg","regular_url":"https://perenual.com/storage/species_image/2218_crocosmia_crocosmiiflora_nova_dragonfire/regular/51501193248_b40e573149_b.jpg","medium_url":"https://perenual.com/storage/species_image/2218_crocosmia_crocosmiiflora_nova_dragonfire/medium/51501193248_b40e573149_b.jpg","small_url":"https://perenual.com/storage/species_image/2218_crocosmia_crocosmiiflora_nova_dragonfire/small/51501193248_b40e573149_b.jpg","thumbnail":"https://perenual.com/storage/species_image/2218_crocosmia_crocosmiiflora_nova_dragonfire/thumbnail/51501193248_b40e573149_b.jpg"}},{"id":2219,"common_name":"montbretia","scientific_name":["Crocosmia crocosmiiflora 'Solfatare'"],"other_name":null,"cycle":"Perennial","watering":"Average","sunlight":["Full sun","part shade"],"default_image":{"image_id":9,"license":5,"license_name":"Attribution-ShareAlike License","license_url":"https://creativecommons.org/licenses/by-sa/2.0/","original_url":"https://perenual.com/storage/species_image/2_abies_alba_pyramidalis/og/49255769768_df55596553_b.jpg","regular_url":"https://perenual.com/storage/species_image/2_abies_alba_pyramidalis/regular/49255769768_df55596553_b.jpg","medium_url":"https://perenual.com/storage/species_image/2_abies_alba_pyramidalis/medium/49255769768_df55596553_b.jpg","small_url":"https://perenual.com/storage/species_image/2_abies_alba_pyramidalis/small/49255769768_df55596553_b.jpg","thumbnail":"https://perenual.com/storage/species_image/2_abies_alba_pyramidalis/thumbnail/49255769768_df55596553_b.jpg"}},{"id":2220,"common_name":"montbretia","scientific_name":["Crocosmia 'Cropom' IRISH SUNSET"],"other_name":null,"cycle":"Perennial","watering":"Average","sunlight":["Full sun","part shade"],"default_image":{"image_id":9,"license":5,"license_name":"Attribution-ShareAlike License","license_url":"https://creativecommons.org/licenses/by-sa/2.0/","original_url":"https://perenual.com/storage/species_image/2_abies_alba_pyramidalis/og/49255769768_df55596553_b.jpg","regular_url":"https://perenual.com/storage/species_image/2_abies_alba_pyramidalis/regular/49255769768_df55596553_b.jpg","medium_url":"https://perenual.com/storage/species_image/2_abies_alba_pyramidalis/medium/49255769768_df55596553_b.jpg","small_url":"https://perenual.com/storage/species_image/2_abies_alba_pyramidalis/small/49255769768_df55596553_b.jpg","thumbnail":"https://perenual.com/storage/species_image/2_abies_alba_pyramidalis/thumbnail/49255769768_df55596553_b.jpg"}}],"to":2220,"per_page":30,"current_page":74,"from":2191,"last_page":200,"total":6000}