{"data":[{"id":721,"common_name":"aloe","scientific_name":["Aloe harlana"],"other_name":null,"cycle":"Perennial","watering":"Minimum","sunlight":["Full sun","part shade"],"default_image":{"image_id":1612,"license":5,"license_name":"Attribution-ShareAlike License","license_url":"https://creativecommons.org/licenses/by-sa/2.0/","original_url":"https://perenual.com/storage/species_image/721_aloe_harlana/og/5582077315_8d613454aa_b.jpg","regular_url":"https://perenual.com/storage/species_image/721_aloe_harlana/regular/5582077315_8d613454aa_b.jpg","medium_url":"https://perenual.com/storage/species_image/721_aloe_harlana/medium/5582077315_8d613454aa_b.jpg","small_url":"https://perenual.com/storage/species_image/721_aloe_harlana/small/5582077315_8d613454aa_b.jpg","thumbnail":"https://perenual.com/storage/species_image/721_aloe_harlana/thumbnail/5582077315_8d613454aa_b.jpg"}},{"id":722,"common_name":"Karoo aloe","scientific_name":["Aloe longistyla"],"other_name":null,"cycle":"Perennial","watering":"Minimum","sunlight":["Full sun","part shade"],"default_image":{"image_id":21209,"license":451,"license_name":"CC0 1.0 Universal (CC0 1.0) Public Domain Dedication","license_url":"https://creativecommons.org/publicdomain/zero/1.0/","original_url":"https://perenual.com/storage/species_image/722_aloe_longistyla/og/pexels-photo-6156450.jpg","regular_url":"https://perenual.com/storage/species_image/722_aloe_longistyla/regular/pexels-photo-6156450.jpg","medium_url":"https://perenual.com/storage/species_image/722_aloe_longistyla/medium/pexels-photo-6156450.jpg","small_url":"https://perenual.com/storage/species_image/722_aloe_longistyla/small/pexels-photo-6156450.jpg","thumbnail":"https://perenual.com/storage/species_image/722_aloe_longistyla/thumbnail/pexels-photo-6156450.jpg"}},{"id":723,"common_name":"large Chimanimani aloe","scientific_name":["Aloe munchii"],"other_name":null,"cycle":"Perennial","watering":"Minimum","sunlight":["Full sun"],"default_image":{"image_id":1614,"license":5,"license_name":"Attribution-ShareAlike License","license_url":"https://creativecommons.org/licenses/by-sa/2.0/","original_url":"https://perenual.com/storage/species_image/723_aloe_munchii/og/4329678019_9e37d1442d_b.jpg","regular_url":"https://perenual.com/storage/species_image/723_aloe_munchii/regular/4329678019_9e37d1442d_b.jpg","medium_url":"https://perenual.com/storage/species_image/723_aloe_munchii/medium/4329678019_9e37d1442d_b.jpg","small_url":"https://perenual.com/storage/species_image/723_aloe_munchii/small/4329678019_9e37d1442d_b.jpg","thumbnail":"https://perenual.com/storage/species_image/723_aloe_munchii/thumbnail/4329678019_9e37d1442d_b.jpg"}},{"id":724,"common_name":"aloe","scientific_name":["Aloe rauhii"],"other_name":null,"cycle":"Perennial","watering":"Minimum","sunlight":["Full sun","part shade"],"default_image":{"image_id":1618,"license":5,"license_name":"Attribution-ShareAlike License","license_url":"https://creativecommons.org/licenses/by-sa/2.0/","original_url":"https://perenual.com/storage/species_image/724_aloe_rauhii/og/49632877987_c3e54f1a2f_b.jpg","regular_url":"https://perenual.com/storage/species_image/724_aloe_rauhii/regular/49632877987_c3e54f1a2f_b.jpg","medium_url":"https://perenual.com/storage/species_image/724_aloe_rauhii/medium/49632877987_c3e54f1a2f_b.jpg","small_url":"https://perenual.com/storage/species_image/724_aloe_rauhii/small/49632877987_c3e54f1a2f_b.jpg","thumbnail":"https://perenual.com/storage/species_image/724_aloe_rauhii/thumbnail/49632877987_c3e54f1a2f_b.jpg"}},{"id":725,"common_name":"Yemen tree aloe","scientific_name":["Aloe sabaea"],"other_name":null,"cycle":"Perennial","watering":"Minimum","sunlight":["Full sun"],"default_image":null},{"id":726,"common_name":"coral aloe","scientific_name":["Aloe striata"],"other_name":null,"cycle":"Perennial","watering":"Minimum","sunlight":["Full sun"],"default_image":{"image_id":1622,"license":4,"license_name":"Attribution License","license_url":"https://creativecommons.org/licenses/by/2.0/","original_url":"https://perenual.com/storage/species_image/726_aloe_striata/og/46765462314_294129dbb5_b.jpg","regular_url":"https://perenual.com/storage/species_image/726_aloe_striata/regular/46765462314_294129dbb5_b.jpg","medium_url":"https://perenual.com/storage/species_image/726_aloe_striata/medium/46765462314_294129dbb5_b.jpg","small_url":"https://perenual.com/storage/species_image/726_aloe_striata/small/46765462314_294129dbb5_b.jpg","thumbnail":"https://perenual.com/storage/species_image/726_aloe_striata/thumbnail/46765462314_294129dbb5_b.jpg"}},{"id":727,"common_name":"aloe","scientific_name":["Aloe suzannae"],"other_name":null,"cycle":"Perennial","watering":"Minimum","sunlight":["Full sun"],"default_image":{"image_id":1628,"license":4,"license_name":"Attribution License","license_url":"https://creativecommons.org/licenses/by/2.0/","original_url":"https://perenual.com/storage/species_image/727_aloe_suzannae/og/23704519300_5ec1807143_b.jpg","regular_url":"https://perenual.com/storage/species_image/727_aloe_suzannae/regular/23704519300_5ec1807143_b.jpg","medium_url":"https://perenual.com/storage/species_image/727_aloe_suzannae/medium/23704519300_5ec1807143_b.jpg","small_url":"https://perenual.com/storage/species_image/727_aloe_suzannae/small/23704519300_5ec1807143_b.jpg","thumbnail":"https://perenual.com/storage/species_image/727_aloe_suzannae/thumbnail/23704519300_5ec1807143_b.jpg"}},{"id":728,"common_name":"aloe","scientific_name":["Aloe vera"],"other_name":null,"cycle":"Perennial","watering":"Minimum","sunlight":["Full sun"],"default_image":{"image_id":1629,"license":5,"license_name":"Attribution-ShareAlike License","license_url":"https://creativecommons.org/licenses/by-sa/2.0/","original_url":"https://perenual.com/storage/species_image/728_aloe_vera/og/52619084582_6ebcfe6a74_b.jpg","regular_url":"https://perenual.com/storage/species_image/728_aloe_vera/regular/52619084582_6ebcfe6a74_b.jpg","medium_url":"https://perenual.com/storage/species_image/728_aloe_vera/medium/52619084582_6ebcfe6a74_b.jpg","small_url":"https://perenual.com/storage/species_image/728_aloe_vera/small/52619084582_6ebcfe6a74_b.jpg","thumbnail":"https://perenual.com/storage/species_image/728_aloe_vera/thumbnail/52619084582_6ebcfe6a74_b.jpg"}},{"id":729,"common_name":"lemon verbena","scientific_name":["Aloysia citriodora"],"other_name":null,"cycle":"Perennial","watering":"Average","sunlight":["Full sun"],"default_image":{"image_id":21210,"license":4,"license_name":"Attribution License","license_url":"https://creativecommons.org/licenses/by/2.0/","original_url":"https://perenual.com/storage/species_image/729_aloysia_citriodora/og/49215257062_e24ef40444_b.jpg","regular_url":"https://perenual.com/storage/species_image/729_aloysia_citriodora/regular/49215257062_e24ef40444_b.jpg","medium_url":"https://perenual.com/storage/species_image/729_aloysia_citriodora/medium/49215257062_e24ef40444_b.jpg","small_url":"https://perenual.com/storage/species_image/729_aloysia_citriodora/small/49215257062_e24ef40444_b.jpg","thumbnail":"https://perenual.com/storage/species_image/729_aloysia_citriodora/thumbnail/49215257062_e24ef40444_b.jpg"}},{"id":730,"common_name":"sweet almond bush","scientific_name":["Aloysia virgata"],"other_name":null,"cycle":"Perennial","watering":"Minimum","sunlight":["Full sun"],"default_image":{"image_id":9,"license":5,"license_name":"Attribution-ShareAlike License","license_url":"https://creativecommons.org/licenses/by-sa/2.0/","original_url":"https://perenual.com/storage/species_image/2_abies_alba_pyramidalis/og/49255769768_df55596553_b.jpg","regular_url":"https://perenual.com/storage/species_image/2_abies_alba_pyramidalis/regular/49255769768_df55596553_b.jpg","medium_url":"https://perenual.com/storage/species_image/2_abies_alba_pyramidalis/medium/49255769768_df55596553_b.jpg","small_url":"https://perenual.com/storage/species_image/2_abies_alba_pyramidalis/small/49255769768_df55596553_b.jpg","thumbnail":"https://perenual.com/storage/species_image/2_abies_alba_pyramidalis/thumbnail/49255769768_df55596553_b.jpg"}},{"id":731,"common_name":"siamese ginger","scientific_name":["Alpinia galanga"],"other_name":null,"cycle":"Perennial","watering":"Average","sunlight":["Full sun","part shade"],"default_image":{"image_id":1638,"license":4,"license_name":"Attribution License","license_url":"https://creativecommons.org/licenses/by/2.0/","original_url":"https://perenual.com/storage/species_image/731_alpinia_galanga/og/48273723091_277cd37b51_b.jpg","regular_url":"https://perenual.com/storage/species_image/731_alpinia_galanga/regular/48273723091_277cd37b51_b.jpg","medium_url":"https://perenual.com/storage/species_image/731_alpinia_galanga/medium/48273723091_277cd37b51_b.jpg","small_url":"https://perenual.com/storage/species_image/731_alpinia_galanga/small/48273723091_277cd37b51_b.jpg","thumbnail":"https://perenual.com/storage/species_image/731_alpinia_galanga/thumbnail/48273723091_277cd37b51_b.jpg"}},{"id":732,"common_name":"ginger lily","scientific_name":["Alpinia japonica"],"other_name":null,"cycle":"Perennial","watering":"Frequent","sunlight":["Part shade"],"default_image":{"image_id":1640,"license":5,"license_name":"Attribution-ShareAlike License","license_url":"https://creativecommons.org/licenses/by-sa/2.0/","original_url":"https://perenual.com/storage/species_image/732_alpinia_japonica/og/9207617816_a0facab3f0_b.jpg","regular_url":"https://perenual.com/storage/species_image/732_alpinia_japonica/regular/9207617816_a0facab3f0_b.jpg","medium_url":"https://perenual.com/storage/species_image/732_alpinia_japonica/medium/9207617816_a0facab3f0_b.jpg","small_url":"https://perenual.com/storage/species_image/732_alpinia_japonica/small/9207617816_a0facab3f0_b.jpg","thumbnail":"https://perenual.com/storage/species_image/732_alpinia_japonica/thumbnail/9207617816_a0facab3f0_b.jpg"}},{"id":733,"common_name":"shellplant","scientific_name":["Alpinia zerumbet"],"other_name":null,"cycle":"Perennial","watering":"Average","sunlight":["Full sun","part shade"],"default_image":{"image_id":1642,"license":4,"license_name":"Attribution License","license_url":"https://creativecommons.org/licenses/by/2.0/","original_url":"https://perenual.com/storage/species_image/733_alpinia_zerumbet/og/50121588037_5c1e5c1272_b.jpg","regular_url":"https://perenual.com/storage/species_image/733_alpinia_zerumbet/regular/50121588037_5c1e5c1272_b.jpg","medium_url":"https://perenual.com/storage/species_image/733_alpinia_zerumbet/medium/50121588037_5c1e5c1272_b.jpg","small_url":"https://perenual.com/storage/species_image/733_alpinia_zerumbet/small/50121588037_5c1e5c1272_b.jpg","thumbnail":"https://perenual.com/storage/species_image/733_alpinia_zerumbet/thumbnail/50121588037_5c1e5c1272_b.jpg"}},{"id":734,"common_name":"shell ginger","scientific_name":["Alpinia zerumbet 'Variegata'"],"other_name":null,"cycle":"Perennial","watering":"Average","sunlight":["Full sun","part shade"],"default_image":{"image_id":1649,"license":5,"license_name":"Attribution-ShareAlike License","license_url":"https://creativecommons.org/licenses/by-sa/2.0/","original_url":"https://perenual.com/storage/species_image/734_alpinia_zerumbet_variegata/og/2463223337_25c98419a3_b.jpg","regular_url":"https://perenual.com/storage/species_image/734_alpinia_zerumbet_variegata/regular/2463223337_25c98419a3_b.jpg","medium_url":"https://perenual.com/storage/species_image/734_alpinia_zerumbet_variegata/medium/2463223337_25c98419a3_b.jpg","small_url":"https://perenual.com/storage/species_image/734_alpinia_zerumbet_variegata/small/2463223337_25c98419a3_b.jpg","thumbnail":"https://perenual.com/storage/species_image/734_alpinia_zerumbet_variegata/thumbnail/2463223337_25c98419a3_b.jpg"}},{"id":735,"common_name":"lily of the Incas","scientific_name":["Alstroemeria aurea"],"other_name":null,"cycle":"Perennial","watering":"Average","sunlight":["Full sun","part shade"],"default_image":{"image_id":1654,"license":4,"license_name":"Attribution License","license_url":"https://creativecommons.org/licenses/by/2.0/","original_url":"https://perenual.com/storage/species_image/735_alstroemeria_aurea/og/9065256170_72118879aa_b.jpg","regular_url":"https://perenual.com/storage/species_image/735_alstroemeria_aurea/regular/9065256170_72118879aa_b.jpg","medium_url":"https://perenual.com/storage/species_image/735_alstroemeria_aurea/medium/9065256170_72118879aa_b.jpg","small_url":"https://perenual.com/storage/species_image/735_alstroemeria_aurea/small/9065256170_72118879aa_b.jpg","thumbnail":"https://perenual.com/storage/species_image/735_alstroemeria_aurea/thumbnail/9065256170_72118879aa_b.jpg"}},{"id":736,"common_name":"lily of the Incas","scientific_name":["Alstroemeria 'Casablanca'"],"other_name":null,"cycle":"Perennial","watering":"Average","sunlight":["Full sun","part shade"],"default_image":{"image_id":1655,"license":4,"license_name":"Attribution License","license_url":"https://creativecommons.org/licenses/by/2.0/","original_url":"https://perenual.com/storage/species_image/1346_brugmansia_suaveolens/og/51282682179_b3c9afc30d_b.jpg","regular_url":"https://perenual.com/storage/species_image/1346_brugmansia_suaveolens/regular/51282682179_b3c9afc30d_b.jpg","medium_url":"https://perenual.com/storage/species_image/1346_brugmansia_suaveolens/medium/51282682179_b3c9afc30d_b.jpg","small_url":"https://perenual.com/storage/species_image/1346_brugmansia_suaveolens/small/51282682179_b3c9afc30d_b.jpg","thumbnail":"https://perenual.com/storage/species_image/1346_brugmansia_suaveolens/thumbnail/51282682179_b3c9afc30d_b.jpg"}},{"id":737,"common_name":"lily of the Incas","scientific_name":["Alstroemeria 'Glory of the Andes'"],"other_name":null,"cycle":"Perennial","watering":"Average","sunlight":["Full sun","part shade"],"default_image":{"image_id":21213,"license":45,"license_name":"Attribution-ShareAlike 3.0 Unported (CC BY-SA 3.0)","license_url":"https://creativecommons.org/licenses/by-sa/3.0/deed.en","original_url":"https://perenual.com/storage/species_image/737_alstroemeria_glory_of_the_andes/og/Alstroemeria_Sweet_Laura_%289441208063%29.jpg","regular_url":"https://perenual.com/storage/species_image/737_alstroemeria_glory_of_the_andes/regular/Alstroemeria_Sweet_Laura_%289441208063%29.jpg","medium_url":"https://perenual.com/storage/species_image/737_alstroemeria_glory_of_the_andes/medium/Alstroemeria_Sweet_Laura_%289441208063%29.jpg","small_url":"https://perenual.com/storage/species_image/737_alstroemeria_glory_of_the_andes/small/Alstroemeria_Sweet_Laura_%289441208063%29.jpg","thumbnail":"https://perenual.com/storage/species_image/737_alstroemeria_glory_of_the_andes/thumbnail/Alstroemeria_Sweet_Laura_%289441208063%29.jpg"}},{"id":738,"common_name":"lily of the Incas","scientific_name":["Alstroemeria isabellana"],"other_name":null,"cycle":"Perennial","watering":"Average","sunlight":["Full sun","part shade"],"default_image":{"image_id":1660,"license":5,"license_name":"Attribution-ShareAlike License","license_url":"https://creativecommons.org/licenses/by-sa/2.0/","original_url":"https://perenual.com/storage/species_image/738_alstroemeria_isabellana/og/29065273245_e56206d0d9_b.jpg","regular_url":"https://perenual.com/storage/species_image/738_alstroemeria_isabellana/regular/29065273245_e56206d0d9_b.jpg","medium_url":"https://perenual.com/storage/species_image/738_alstroemeria_isabellana/medium/29065273245_e56206d0d9_b.jpg","small_url":"https://perenual.com/storage/species_image/738_alstroemeria_isabellana/small/29065273245_e56206d0d9_b.jpg","thumbnail":"https://perenual.com/storage/species_image/738_alstroemeria_isabellana/thumbnail/29065273245_e56206d0d9_b.jpg"}},{"id":739,"common_name":"lily of the Incas","scientific_name":["Alstroemeria 'Jupiter'"],"other_name":null,"cycle":"Perennial","watering":"Average","sunlight":["Full sun","part shade"],"default_image":{"image_id":21214,"license":451,"license_name":"CC0 1.0 Universal (CC0 1.0) Public Domain Dedication","license_url":"https://creativecommons.org/publicdomain/zero/1.0/","original_url":"https://perenual.com/storage/species_image/739_alstroemeria_jupiter/og/px1609578-image-kwypqzx5.jpg?w=800&dpr=1&fit=default&crop=default&q=65&vib=3&con=3&usm=15&bg=F4F4F3&ixlib=js-2.2.jpg","regular_url":"https://perenual.com/storage/species_image/739_alstroemeria_jupiter/regular/px1609578-image-kwypqzx5.jpg?w=800&dpr=1&fit=default&crop=default&q=65&vib=3&con=3&usm=15&bg=F4F4F3&ixlib=js-2.2.jpg","medium_url":"https://perenual.com/storage/species_image/739_alstroemeria_jupiter/medium/px1609578-image-kwypqzx5.jpg?w=800&dpr=1&fit=default&crop=default&q=65&vib=3&con=3&usm=15&bg=F4F4F3&ixlib=js-2.2.jpg","small_url":"https://perenual.com/storage/species_image/739_alstroemeria_jupiter/small/px1609578-image-kwypqzx5.jpg?w=800&dpr=1&fit=default&crop=default&q=65&vib=3&con=3&usm=15&bg=F4F4F3&ixlib=js-2.2.jpg","thumbnail":"https://perenual.com/storage/species_image/739_alstroemeria_jupiter/thumbnail/px1609578-image-kwypqzx5.jpg?w=800&dpr=1&fit=default&crop=default&q=65&vib=3&con=3&usm=15&bg=F4F4F3&ixlib=js-2.2.jpg"}},{"id":740,"common_name":"lily of the Incas","scientific_name":["Alstroemeria 'Koice' INCA ICE"],"other_name":null,"cycle":"Perennial","watering":"Average","sunlight":["Full sun","part shade"],"default_image":{"image_id":21215,"license":10,"license_name":"Public Domain Mark","license_url":"https://creativecommons.org/publicdomain/mark/1.0/","original_url":"https://perenual.com/storage/species_image/740_alstroemeria_koice_inca_ice/og/51708474372_b2bfbc509a_b.jpg","regular_url":"https://perenual.com/storage/species_image/740_alstroemeria_koice_inca_ice/regular/51708474372_b2bfbc509a_b.jpg","medium_url":"https://perenual.com/storage/species_image/740_alstroemeria_koice_inca_ice/medium/51708474372_b2bfbc509a_b.jpg","small_url":"https://perenual.com/storage/species_image/740_alstroemeria_koice_inca_ice/small/51708474372_b2bfbc509a_b.jpg","thumbnail":"https://perenual.com/storage/species_image/740_alstroemeria_koice_inca_ice/thumbnail/51708474372_b2bfbc509a_b.jpg"}},{"id":741,"common_name":"inca lily","scientific_name":["Alstroemeria ligtu subsp. incarnata"],"other_name":null,"cycle":"Perennial","watering":"Average","sunlight":["Full sun","part shade"],"default_image":{"image_id":21216,"license":451,"license_name":"CC0 1.0 Universal (CC0 1.0) Public Domain Dedication","license_url":"https://creativecommons.org/publicdomain/zero/1.0/","original_url":"https://perenual.com/storage/species_image/741_alstroemeria_ligtu_subsp_incarnata/og/alstroemeria_pink_flower_summer_flowers-1101402.jpg","regular_url":"https://perenual.com/storage/species_image/741_alstroemeria_ligtu_subsp_incarnata/regular/alstroemeria_pink_flower_summer_flowers-1101402.jpg","medium_url":"https://perenual.com/storage/species_image/741_alstroemeria_ligtu_subsp_incarnata/medium/alstroemeria_pink_flower_summer_flowers-1101402.jpg","small_url":"https://perenual.com/storage/species_image/741_alstroemeria_ligtu_subsp_incarnata/small/alstroemeria_pink_flower_summer_flowers-1101402.jpg","thumbnail":"https://perenual.com/storage/species_image/741_alstroemeria_ligtu_subsp_incarnata/thumbnail/alstroemeria_pink_flower_summer_flowers-1101402.jpg"}},{"id":742,"common_name":"lily of the Incas","scientific_name":["Alstroemeria 'Pacific Sunset Dark Pink'"],"other_name":null,"cycle":"Perennial","watering":"Average","sunlight":["Full sun","part shade"],"default_image":{"image_id":21217,"license":44,"license_name":"Attribution-ShareAlike 4.0 International (CC BY-SA 4.0)","license_url":"https://creativecommons.org/licenses/by-sa/4.0/","original_url":"https://perenual.com/storage/species_image/742_alstroemeria_pacific_sunset_dark_pink/og/0a854b252d2533d8fbd907fd371d9ebc493076b2.jpg","regular_url":"https://perenual.com/storage/species_image/742_alstroemeria_pacific_sunset_dark_pink/regular/0a854b252d2533d8fbd907fd371d9ebc493076b2.jpg","medium_url":"https://perenual.com/storage/species_image/742_alstroemeria_pacific_sunset_dark_pink/medium/0a854b252d2533d8fbd907fd371d9ebc493076b2.jpg","small_url":"https://perenual.com/storage/species_image/742_alstroemeria_pacific_sunset_dark_pink/small/0a854b252d2533d8fbd907fd371d9ebc493076b2.jpg","thumbnail":"https://perenual.com/storage/species_image/742_alstroemeria_pacific_sunset_dark_pink/thumbnail/0a854b252d2533d8fbd907fd371d9ebc493076b2.jpg"}},{"id":743,"common_name":"lily of the Incas","scientific_name":["Alstroemeria 'Sweet Laura'"],"other_name":null,"cycle":"Perennial","watering":"Average","sunlight":["Full sun","part shade"],"default_image":{"image_id":1664,"license":5,"license_name":"Attribution-ShareAlike License","license_url":"https://creativecommons.org/licenses/by-sa/2.0/","original_url":"https://perenual.com/storage/species_image/743_alstroemeria_sweet_laura/og/9441208197_3a5d7d10fd_b.jpg","regular_url":"https://perenual.com/storage/species_image/743_alstroemeria_sweet_laura/regular/9441208197_3a5d7d10fd_b.jpg","medium_url":"https://perenual.com/storage/species_image/743_alstroemeria_sweet_laura/medium/9441208197_3a5d7d10fd_b.jpg","small_url":"https://perenual.com/storage/species_image/743_alstroemeria_sweet_laura/small/9441208197_3a5d7d10fd_b.jpg","thumbnail":"https://perenual.com/storage/species_image/743_alstroemeria_sweet_laura/thumbnail/9441208197_3a5d7d10fd_b.jpg"}},{"id":744,"common_name":"lily of the Incas","scientific_name":["Alstroemeria 'The Third Harmonic'"],"other_name":null,"cycle":"Perennial","watering":"Average","sunlight":["Full sun","part shade"],"default_image":{"image_id":21218,"license":45,"license_name":"Attribution-ShareAlike 3.0 Unported (CC BY-SA 3.0)","license_url":"https://creativecommons.org/licenses/by-sa/3.0/deed.en","original_url":"https://perenual.com/storage/species_image/744_alstroemeria_the_third_harmonic/og/Lilium_IMG_5376.jpg","regular_url":"https://perenual.com/storage/species_image/744_alstroemeria_the_third_harmonic/regular/Lilium_IMG_5376.jpg","medium_url":"https://perenual.com/storage/species_image/744_alstroemeria_the_third_harmonic/medium/Lilium_IMG_5376.jpg","small_url":"https://perenual.com/storage/species_image/744_alstroemeria_the_third_harmonic/small/Lilium_IMG_5376.jpg","thumbnail":"https://perenual.com/storage/species_image/744_alstroemeria_the_third_harmonic/thumbnail/Lilium_IMG_5376.jpg"}},{"id":745,"common_name":"brazilian joyweed","scientific_name":["Alternanthera brasiliana 'Purple Prince'"],"other_name":null,"cycle":"Perennial","watering":"Average","sunlight":["Full sun","part shade"],"default_image":{"image_id":21219,"license":45,"license_name":"Attribution-ShareAlike 3.0 Unported (CC BY-SA 3.0)","license_url":"https://creativecommons.org/licenses/by-sa/3.0/deed.en","original_url":"https://perenual.com/storage/species_image/745_alternanthera_brasiliana_purple_prince/og/Alternanthera_dentata_%27Brazilian_Red_Hots%27.jpg","regular_url":"https://perenual.com/storage/species_image/745_alternanthera_brasiliana_purple_prince/regular/Alternanthera_dentata_%27Brazilian_Red_Hots%27.jpg","medium_url":"https://perenual.com/storage/species_image/745_alternanthera_brasiliana_purple_prince/medium/Alternanthera_dentata_%27Brazilian_Red_Hots%27.jpg","small_url":"https://perenual.com/storage/species_image/745_alternanthera_brasiliana_purple_prince/small/Alternanthera_dentata_%27Brazilian_Red_Hots%27.jpg","thumbnail":"https://perenual.com/storage/species_image/745_alternanthera_brasiliana_purple_prince/thumbnail/Alternanthera_dentata_%27Brazilian_Red_Hots%27.jpg"}},{"id":746,"common_name":"Joseph's coat","scientific_name":["Alternanthera dentata"],"other_name":null,"cycle":"Perennial","watering":"Average","sunlight":["Full sun","part shade"],"default_image":{"image_id":1668,"license":5,"license_name":"Attribution-ShareAlike License","license_url":"https://creativecommons.org/licenses/by-sa/2.0/","original_url":"https://perenual.com/storage/species_image/746_alternanthera_dentata/og/46631152982_619a105c5b_b.jpg","regular_url":"https://perenual.com/storage/species_image/746_alternanthera_dentata/regular/46631152982_619a105c5b_b.jpg","medium_url":"https://perenual.com/storage/species_image/746_alternanthera_dentata/medium/46631152982_619a105c5b_b.jpg","small_url":"https://perenual.com/storage/species_image/746_alternanthera_dentata/small/46631152982_619a105c5b_b.jpg","thumbnail":"https://perenual.com/storage/species_image/746_alternanthera_dentata/thumbnail/46631152982_619a105c5b_b.jpg"}},{"id":747,"common_name":"Joseph's coat","scientific_name":["Alternanthera ficoidea"],"other_name":null,"cycle":"Perennial","watering":"Average","sunlight":["Full sun","part shade"],"default_image":{"image_id":1673,"license":4,"license_name":"Attribution License","license_url":"https://creativecommons.org/licenses/by/2.0/","original_url":"https://perenual.com/storage/species_image/747_alternanthera_ficoidea/og/48756446498_fc5901c40d_b.jpg","regular_url":"https://perenual.com/storage/species_image/747_alternanthera_ficoidea/regular/48756446498_fc5901c40d_b.jpg","medium_url":"https://perenual.com/storage/species_image/747_alternanthera_ficoidea/medium/48756446498_fc5901c40d_b.jpg","small_url":"https://perenual.com/storage/species_image/747_alternanthera_ficoidea/small/48756446498_fc5901c40d_b.jpg","thumbnail":"https://perenual.com/storage/species_image/747_alternanthera_ficoidea/thumbnail/48756446498_fc5901c40d_b.jpg"}},{"id":748,"common_name":"Joseph's coat","scientific_name":["Alternanthera ficoidea (yellow form)"],"other_name":null,"cycle":"Perennial","watering":"Average","sunlight":["Full sun","part shade"],"default_image":{"image_id":9,"license":5,"license_name":"Attribution-ShareAlike License","license_url":"https://creativecommons.org/licenses/by-sa/2.0/","original_url":"https://perenual.com/storage/species_image/2_abies_alba_pyramidalis/og/49255769768_df55596553_b.jpg","regular_url":"https://perenual.com/storage/species_image/2_abies_alba_pyramidalis/regular/49255769768_df55596553_b.jpg","medium_url":"https://perenual.com/storage/species_image/2_abies_alba_pyramidalis/medium/49255769768_df55596553_b.jpg","small_url":"https://perenual.com/storage/species_image/2_abies_alba_pyramidalis/small/49255769768_df55596553_b.jpg","thumbnail":"https://perenual.com/storage/species_image/2_abies_alba_pyramidalis/thumbnail/49255769768_df55596553_b.jpg"}},{"id":749,"common_name":"marsh mallow","scientific_name":["Althaea officinalis"],"other_name":null,"cycle":"Perennial","watering":"Frequent","sunlight":["Full sun"],"default_image":{"image_id":1680,"license":6,"license_name":"Attribution-NoDerivs License","license_url":"https://creativecommons.org/licenses/by-nd/2.0/","original_url":"https://perenual.com/storage/species_image/749_althaea_officinalis/og/50126317018_6bc876abe9_b.jpg"}},{"id":750,"common_name":"yellowtuft","scientific_name":["Alyssum murale"],"other_name":null,"cycle":"Perennial","watering":"Minimum","sunlight":["Full sun"],"default_image":{"image_id":1681,"license":5,"license_name":"Attribution-ShareAlike License","license_url":"https://creativecommons.org/licenses/by-sa/2.0/","original_url":"https://perenual.com/storage/species_image/750_alyssum_murale/og/35098400373_dcdb39285e_b.jpg","regular_url":"https://perenual.com/storage/species_image/750_alyssum_murale/regular/35098400373_dcdb39285e_b.jpg","medium_url":"https://perenual.com/storage/species_image/750_alyssum_murale/medium/35098400373_dcdb39285e_b.jpg","small_url":"https://perenual.com/storage/species_image/750_alyssum_murale/small/35098400373_dcdb39285e_b.jpg","thumbnail":"https://perenual.com/storage/species_image/750_alyssum_murale/thumbnail/35098400373_dcdb39285e_b.jpg"}}],"to":750,"per_page":30,"current_page":25,"from":721,"last_page":200,"total":6000}