{"data":[{"id":2671,"common_name":"purple coneflower","scientific_name":["Echinacea 'Raspberry Tart'"],"other_name":null,"cycle":"Perennial","watering":"Minimum","sunlight":["Full sun","part shade"],"default_image":{"image_id":5814,"license":4,"license_name":"Attribution License","license_url":"https://creativecommons.org/licenses/by/2.0/","original_url":"https://perenual.com/storage/species_image/2671_echinacea_raspberry_tart/og/52225635060_17c1ecdf5a_b.jpg","regular_url":"https://perenual.com/storage/species_image/2671_echinacea_raspberry_tart/regular/52225635060_17c1ecdf5a_b.jpg","medium_url":"https://perenual.com/storage/species_image/2671_echinacea_raspberry_tart/medium/52225635060_17c1ecdf5a_b.jpg","small_url":"https://perenual.com/storage/species_image/2671_echinacea_raspberry_tart/small/52225635060_17c1ecdf5a_b.jpg","thumbnail":"https://perenual.com/storage/species_image/2671_echinacea_raspberry_tart/thumbnail/52225635060_17c1ecdf5a_b.jpg"}},{"id":2672,"common_name":"coneflower","scientific_name":["Echinacea 'Secret Glow'"],"other_name":null,"cycle":"Perennial","watering":"Minimum","sunlight":["Full sun","part shade"],"default_image":{"image_id":9,"license":5,"license_name":"Attribution-ShareAlike License","license_url":"https://creativecommons.org/licenses/by-sa/2.0/","original_url":"https://perenual.com/storage/species_image/2_abies_alba_pyramidalis/og/49255769768_df55596553_b.jpg","regular_url":"https://perenual.com/storage/species_image/2_abies_alba_pyramidalis/regular/49255769768_df55596553_b.jpg","medium_url":"https://perenual.com/storage/species_image/2_abies_alba_pyramidalis/medium/49255769768_df55596553_b.jpg","small_url":"https://perenual.com/storage/species_image/2_abies_alba_pyramidalis/small/49255769768_df55596553_b.jpg","thumbnail":"https://perenual.com/storage/species_image/2_abies_alba_pyramidalis/thumbnail/49255769768_df55596553_b.jpg"}},{"id":2673,"common_name":"coneflower","scientific_name":["Echinacea 'Secret Lust'"],"other_name":null,"cycle":"Perennial","watering":"Minimum","sunlight":["Full sun","part shade"],"default_image":{"image_id":9,"license":5,"license_name":"Attribution-ShareAlike License","license_url":"https://creativecommons.org/licenses/by-sa/2.0/","original_url":"https://perenual.com/storage/species_image/2_abies_alba_pyramidalis/og/49255769768_df55596553_b.jpg","regular_url":"https://perenual.com/storage/species_image/2_abies_alba_pyramidalis/regular/49255769768_df55596553_b.jpg","medium_url":"https://perenual.com/storage/species_image/2_abies_alba_pyramidalis/medium/49255769768_df55596553_b.jpg","small_url":"https://perenual.com/storage/species_image/2_abies_alba_pyramidalis/small/49255769768_df55596553_b.jpg","thumbnail":"https://perenual.com/storage/species_image/2_abies_alba_pyramidalis/thumbnail/49255769768_df55596553_b.jpg"}},{"id":2674,"common_name":"wavyleaf purple coneflower","scientific_name":["Echinacea simulata"],"other_name":null,"cycle":"Perennial","watering":"Average","sunlight":["Full sun","part shade"],"default_image":{"image_id":9,"license":5,"license_name":"Attribution-ShareAlike License","license_url":"https://creativecommons.org/licenses/by-sa/2.0/","original_url":"https://perenual.com/storage/species_image/2_abies_alba_pyramidalis/og/49255769768_df55596553_b.jpg","regular_url":"https://perenual.com/storage/species_image/2_abies_alba_pyramidalis/regular/49255769768_df55596553_b.jpg","medium_url":"https://perenual.com/storage/species_image/2_abies_alba_pyramidalis/medium/49255769768_df55596553_b.jpg","small_url":"https://perenual.com/storage/species_image/2_abies_alba_pyramidalis/small/49255769768_df55596553_b.jpg","thumbnail":"https://perenual.com/storage/species_image/2_abies_alba_pyramidalis/thumbnail/49255769768_df55596553_b.jpg"}},{"id":2675,"common_name":"eastern coneflower","scientific_name":["Echinacea 'Snow Cone'"],"other_name":null,"cycle":"Perennial","watering":"Minimum","sunlight":["Full sun","part shade"],"default_image":{"image_id":9,"license":5,"license_name":"Attribution-ShareAlike License","license_url":"https://creativecommons.org/licenses/by-sa/2.0/","original_url":"https://perenual.com/storage/species_image/2_abies_alba_pyramidalis/og/49255769768_df55596553_b.jpg","regular_url":"https://perenual.com/storage/species_image/2_abies_alba_pyramidalis/regular/49255769768_df55596553_b.jpg","medium_url":"https://perenual.com/storage/species_image/2_abies_alba_pyramidalis/medium/49255769768_df55596553_b.jpg","small_url":"https://perenual.com/storage/species_image/2_abies_alba_pyramidalis/small/49255769768_df55596553_b.jpg","thumbnail":"https://perenual.com/storage/species_image/2_abies_alba_pyramidalis/thumbnail/49255769768_df55596553_b.jpg"}},{"id":2676,"common_name":"coneflower","scientific_name":["Echinacea 'Solar Flare'"],"other_name":null,"cycle":"Perennial","watering":"Minimum","sunlight":["Full sun","part shade"],"default_image":{"image_id":9,"license":5,"license_name":"Attribution-ShareAlike License","license_url":"https://creativecommons.org/licenses/by-sa/2.0/","original_url":"https://perenual.com/storage/species_image/2_abies_alba_pyramidalis/og/49255769768_df55596553_b.jpg","regular_url":"https://perenual.com/storage/species_image/2_abies_alba_pyramidalis/regular/49255769768_df55596553_b.jpg","medium_url":"https://perenual.com/storage/species_image/2_abies_alba_pyramidalis/medium/49255769768_df55596553_b.jpg","small_url":"https://perenual.com/storage/species_image/2_abies_alba_pyramidalis/small/49255769768_df55596553_b.jpg","thumbnail":"https://perenual.com/storage/species_image/2_abies_alba_pyramidalis/thumbnail/49255769768_df55596553_b.jpg"}},{"id":2677,"common_name":"coneflower","scientific_name":["Echinacea 'Sombrero Hot Pink'"],"other_name":null,"cycle":"Perennial","watering":"Minimum","sunlight":["Full sun","part shade"],"default_image":{"image_id":9,"license":5,"license_name":"Attribution-ShareAlike License","license_url":"https://creativecommons.org/licenses/by-sa/2.0/","original_url":"https://perenual.com/storage/species_image/2_abies_alba_pyramidalis/og/49255769768_df55596553_b.jpg","regular_url":"https://perenual.com/storage/species_image/2_abies_alba_pyramidalis/regular/49255769768_df55596553_b.jpg","medium_url":"https://perenual.com/storage/species_image/2_abies_alba_pyramidalis/medium/49255769768_df55596553_b.jpg","small_url":"https://perenual.com/storage/species_image/2_abies_alba_pyramidalis/small/49255769768_df55596553_b.jpg","thumbnail":"https://perenual.com/storage/species_image/2_abies_alba_pyramidalis/thumbnail/49255769768_df55596553_b.jpg"}},{"id":2678,"common_name":"coneflower","scientific_name":["Echinacea 'Sunbird'"],"other_name":null,"cycle":"Perennial","watering":"Minimum","sunlight":["Full sun","part shade"],"default_image":{"image_id":9,"license":5,"license_name":"Attribution-ShareAlike License","license_url":"https://creativecommons.org/licenses/by-sa/2.0/","original_url":"https://perenual.com/storage/species_image/2_abies_alba_pyramidalis/og/49255769768_df55596553_b.jpg","regular_url":"https://perenual.com/storage/species_image/2_abies_alba_pyramidalis/regular/49255769768_df55596553_b.jpg","medium_url":"https://perenual.com/storage/species_image/2_abies_alba_pyramidalis/medium/49255769768_df55596553_b.jpg","small_url":"https://perenual.com/storage/species_image/2_abies_alba_pyramidalis/small/49255769768_df55596553_b.jpg","thumbnail":"https://perenual.com/storage/species_image/2_abies_alba_pyramidalis/thumbnail/49255769768_df55596553_b.jpg"}},{"id":2679,"common_name":"coneflower","scientific_name":["Echinacea 'Sunrise' BIG SKY SUNRISE"],"other_name":null,"cycle":"Perennial","watering":"Minimum","sunlight":["Full sun","part shade"],"default_image":{"image_id":9,"license":5,"license_name":"Attribution-ShareAlike License","license_url":"https://creativecommons.org/licenses/by-sa/2.0/","original_url":"https://perenual.com/storage/species_image/2_abies_alba_pyramidalis/og/49255769768_df55596553_b.jpg","regular_url":"https://perenual.com/storage/species_image/2_abies_alba_pyramidalis/regular/49255769768_df55596553_b.jpg","medium_url":"https://perenual.com/storage/species_image/2_abies_alba_pyramidalis/medium/49255769768_df55596553_b.jpg","small_url":"https://perenual.com/storage/species_image/2_abies_alba_pyramidalis/small/49255769768_df55596553_b.jpg","thumbnail":"https://perenual.com/storage/species_image/2_abies_alba_pyramidalis/thumbnail/49255769768_df55596553_b.jpg"}},{"id":2680,"common_name":"coneflower","scientific_name":["Echinacea 'Sunset' BIG SKY SUNSET"],"other_name":null,"cycle":"Perennial","watering":"Minimum","sunlight":["Full sun","part shade"],"default_image":{"image_id":9,"license":5,"license_name":"Attribution-ShareAlike License","license_url":"https://creativecommons.org/licenses/by-sa/2.0/","original_url":"https://perenual.com/storage/species_image/2_abies_alba_pyramidalis/og/49255769768_df55596553_b.jpg","regular_url":"https://perenual.com/storage/species_image/2_abies_alba_pyramidalis/regular/49255769768_df55596553_b.jpg","medium_url":"https://perenual.com/storage/species_image/2_abies_alba_pyramidalis/medium/49255769768_df55596553_b.jpg","small_url":"https://perenual.com/storage/species_image/2_abies_alba_pyramidalis/small/49255769768_df55596553_b.jpg","thumbnail":"https://perenual.com/storage/species_image/2_abies_alba_pyramidalis/thumbnail/49255769768_df55596553_b.jpg"}},{"id":2681,"common_name":"coneflower","scientific_name":["Echinacea (Supreme Series) 'Cantaloupe'"],"other_name":null,"cycle":"Perennial","watering":"Minimum","sunlight":["Full sun","part shade"],"default_image":{"image_id":5894,"license":451,"license_name":"CC0 1.0 Universal (CC0 1.0) Public Domain Dedication","license_url":"https://creativecommons.org/publicdomain/zero/1.0/","original_url":"https://perenual.com/storage/species_image/2681_echinacea_supreme_series_cantaloupe/og/echinacea-orange-purpurea-flower-preview.jpg","regular_url":"https://perenual.com/storage/species_image/2681_echinacea_supreme_series_cantaloupe/regular/echinacea-orange-purpurea-flower-preview.jpg","medium_url":"https://perenual.com/storage/species_image/2681_echinacea_supreme_series_cantaloupe/medium/echinacea-orange-purpurea-flower-preview.jpg","small_url":"https://perenual.com/storage/species_image/2681_echinacea_supreme_series_cantaloupe/small/echinacea-orange-purpurea-flower-preview.jpg","thumbnail":"https://perenual.com/storage/species_image/2681_echinacea_supreme_series_cantaloupe/thumbnail/echinacea-orange-purpurea-flower-preview.jpg"}},{"id":2682,"common_name":"coneflower","scientific_name":["Echinacea (Supreme Series) 'Elegance'"],"other_name":null,"cycle":"Perennial","watering":"Minimum","sunlight":["Full sun","part shade"],"default_image":{"image_id":9,"license":5,"license_name":"Attribution-ShareAlike License","license_url":"https://creativecommons.org/licenses/by-sa/2.0/","original_url":"https://perenual.com/storage/species_image/2_abies_alba_pyramidalis/og/49255769768_df55596553_b.jpg","regular_url":"https://perenual.com/storage/species_image/2_abies_alba_pyramidalis/regular/49255769768_df55596553_b.jpg","medium_url":"https://perenual.com/storage/species_image/2_abies_alba_pyramidalis/medium/49255769768_df55596553_b.jpg","small_url":"https://perenual.com/storage/species_image/2_abies_alba_pyramidalis/small/49255769768_df55596553_b.jpg","thumbnail":"https://perenual.com/storage/species_image/2_abies_alba_pyramidalis/thumbnail/49255769768_df55596553_b.jpg"}},{"id":2683,"common_name":"coneflower","scientific_name":["Echinacea (Supreme Series) 'Flamingo'"],"other_name":null,"cycle":"Perennial","watering":"Minimum","sunlight":["Full sun","part shade"],"default_image":{"image_id":9,"license":5,"license_name":"Attribution-ShareAlike License","license_url":"https://creativecommons.org/licenses/by-sa/2.0/","original_url":"https://perenual.com/storage/species_image/2_abies_alba_pyramidalis/og/49255769768_df55596553_b.jpg","regular_url":"https://perenual.com/storage/species_image/2_abies_alba_pyramidalis/regular/49255769768_df55596553_b.jpg","medium_url":"https://perenual.com/storage/species_image/2_abies_alba_pyramidalis/medium/49255769768_df55596553_b.jpg","small_url":"https://perenual.com/storage/species_image/2_abies_alba_pyramidalis/small/49255769768_df55596553_b.jpg","thumbnail":"https://perenual.com/storage/species_image/2_abies_alba_pyramidalis/thumbnail/49255769768_df55596553_b.jpg"}},{"id":2684,"common_name":"coneflower","scientific_name":["Echinacea 'Tanager'"],"other_name":null,"cycle":"Perennial","watering":"Minimum","sunlight":["Full sun","part shade"],"default_image":{"image_id":5895,"license":4,"license_name":"Attribution License","license_url":"https://creativecommons.org/licenses/by/2.0/","original_url":"https://perenual.com/storage/species_image/2684_echinacea_tanager/og/52299046365_f2cb8a9317_b.jpg","regular_url":"https://perenual.com/storage/species_image/2684_echinacea_tanager/regular/52299046365_f2cb8a9317_b.jpg","medium_url":"https://perenual.com/storage/species_image/2684_echinacea_tanager/medium/52299046365_f2cb8a9317_b.jpg","small_url":"https://perenual.com/storage/species_image/2684_echinacea_tanager/small/52299046365_f2cb8a9317_b.jpg","thumbnail":"https://perenual.com/storage/species_image/2684_echinacea_tanager/thumbnail/52299046365_f2cb8a9317_b.jpg"}},{"id":2685,"common_name":"coneflower","scientific_name":["Echinacea 'Tangerine Dream'"],"other_name":null,"cycle":"Perennial","watering":"Minimum","sunlight":["Full sun","part shade"],"default_image":{"image_id":5896,"license":4,"license_name":"Attribution License","license_url":"https://creativecommons.org/licenses/by/2.0/","original_url":"https://perenual.com/storage/species_image/2685_echinacea_tangerine_dream/og/9652842315_86cee068c1_b.jpg","regular_url":"https://perenual.com/storage/species_image/2685_echinacea_tangerine_dream/regular/9652842315_86cee068c1_b.jpg","medium_url":"https://perenual.com/storage/species_image/2685_echinacea_tangerine_dream/medium/9652842315_86cee068c1_b.jpg","small_url":"https://perenual.com/storage/species_image/2685_echinacea_tangerine_dream/small/9652842315_86cee068c1_b.jpg","thumbnail":"https://perenual.com/storage/species_image/2685_echinacea_tangerine_dream/thumbnail/9652842315_86cee068c1_b.jpg"}},{"id":2686,"common_name":"Tennessee coneflower","scientific_name":["Echinacea tennesseensis"],"other_name":null,"cycle":"Perennial","watering":"Average","sunlight":["Full sun","part shade"],"default_image":{"image_id":9,"license":5,"license_name":"Attribution-ShareAlike License","license_url":"https://creativecommons.org/licenses/by-sa/2.0/","original_url":"https://perenual.com/storage/species_image/2_abies_alba_pyramidalis/og/49255769768_df55596553_b.jpg","regular_url":"https://perenual.com/storage/species_image/2_abies_alba_pyramidalis/regular/49255769768_df55596553_b.jpg","medium_url":"https://perenual.com/storage/species_image/2_abies_alba_pyramidalis/medium/49255769768_df55596553_b.jpg","small_url":"https://perenual.com/storage/species_image/2_abies_alba_pyramidalis/small/49255769768_df55596553_b.jpg","thumbnail":"https://perenual.com/storage/species_image/2_abies_alba_pyramidalis/thumbnail/49255769768_df55596553_b.jpg"}},{"id":2687,"common_name":"Tennessee coneflower","scientific_name":["Echinacea tennesseensis 'Rocky Top'"],"other_name":null,"cycle":"Perennial","watering":"Minimum","sunlight":["Full sun","part shade"],"default_image":{"image_id":9,"license":5,"license_name":"Attribution-ShareAlike License","license_url":"https://creativecommons.org/licenses/by-sa/2.0/","original_url":"https://perenual.com/storage/species_image/2_abies_alba_pyramidalis/og/49255769768_df55596553_b.jpg","regular_url":"https://perenual.com/storage/species_image/2_abies_alba_pyramidalis/regular/49255769768_df55596553_b.jpg","medium_url":"https://perenual.com/storage/species_image/2_abies_alba_pyramidalis/medium/49255769768_df55596553_b.jpg","small_url":"https://perenual.com/storage/species_image/2_abies_alba_pyramidalis/small/49255769768_df55596553_b.jpg","thumbnail":"https://perenual.com/storage/species_image/2_abies_alba_pyramidalis/thumbnail/49255769768_df55596553_b.jpg"}},{"id":2688,"common_name":"coneflower","scientific_name":["Echinacea 'The Price is White'"],"other_name":null,"cycle":"Perennial","watering":"Minimum","sunlight":["Full sun","part shade"],"default_image":{"image_id":9,"license":5,"license_name":"Attribution-ShareAlike License","license_url":"https://creativecommons.org/licenses/by-sa/2.0/","original_url":"https://perenual.com/storage/species_image/2_abies_alba_pyramidalis/og/49255769768_df55596553_b.jpg","regular_url":"https://perenual.com/storage/species_image/2_abies_alba_pyramidalis/regular/49255769768_df55596553_b.jpg","medium_url":"https://perenual.com/storage/species_image/2_abies_alba_pyramidalis/medium/49255769768_df55596553_b.jpg","small_url":"https://perenual.com/storage/species_image/2_abies_alba_pyramidalis/small/49255769768_df55596553_b.jpg","thumbnail":"https://perenual.com/storage/species_image/2_abies_alba_pyramidalis/thumbnail/49255769768_df55596553_b.jpg"}},{"id":2689,"common_name":"coneflower","scientific_name":["Echinacea 'Tiki Torch'"],"other_name":null,"cycle":"Perennial","watering":"Minimum","sunlight":["Full sun","part shade"],"default_image":{"image_id":5899,"license":5,"license_name":"Attribution-ShareAlike License","license_url":"https://creativecommons.org/licenses/by-sa/2.0/","original_url":"https://perenual.com/storage/species_image/2689_echinacea_tiki_torch/og/4824363590_01907fc887_b.jpg","regular_url":"https://perenual.com/storage/species_image/2689_echinacea_tiki_torch/regular/4824363590_01907fc887_b.jpg","medium_url":"https://perenual.com/storage/species_image/2689_echinacea_tiki_torch/medium/4824363590_01907fc887_b.jpg","small_url":"https://perenual.com/storage/species_image/2689_echinacea_tiki_torch/small/4824363590_01907fc887_b.jpg","thumbnail":"https://perenual.com/storage/species_image/2689_echinacea_tiki_torch/thumbnail/4824363590_01907fc887_b.jpg"}},{"id":2690,"common_name":"coneflower","scientific_name":["Echinacea 'TNECHKIO' KISMET INTENSE ORANGE"],"other_name":null,"cycle":"Perennial","watering":"Minimum","sunlight":["Full sun","part shade"],"default_image":{"image_id":9,"license":5,"license_name":"Attribution-ShareAlike License","license_url":"https://creativecommons.org/licenses/by-sa/2.0/","original_url":"https://perenual.com/storage/species_image/2_abies_alba_pyramidalis/og/49255769768_df55596553_b.jpg","regular_url":"https://perenual.com/storage/species_image/2_abies_alba_pyramidalis/regular/49255769768_df55596553_b.jpg","medium_url":"https://perenual.com/storage/species_image/2_abies_alba_pyramidalis/medium/49255769768_df55596553_b.jpg","small_url":"https://perenual.com/storage/species_image/2_abies_alba_pyramidalis/small/49255769768_df55596553_b.jpg","thumbnail":"https://perenual.com/storage/species_image/2_abies_alba_pyramidalis/thumbnail/49255769768_df55596553_b.jpg"}},{"id":2691,"common_name":"coneflower","scientific_name":["Echinacea 'TNECHKR' KISMET RASPBERRY"],"other_name":null,"cycle":"","watering":"Minimum","sunlight":["Full sun","part shade"],"default_image":{"image_id":9,"license":5,"license_name":"Attribution-ShareAlike License","license_url":"https://creativecommons.org/licenses/by-sa/2.0/","original_url":"https://perenual.com/storage/species_image/2_abies_alba_pyramidalis/og/49255769768_df55596553_b.jpg","regular_url":"https://perenual.com/storage/species_image/2_abies_alba_pyramidalis/regular/49255769768_df55596553_b.jpg","medium_url":"https://perenual.com/storage/species_image/2_abies_alba_pyramidalis/medium/49255769768_df55596553_b.jpg","small_url":"https://perenual.com/storage/species_image/2_abies_alba_pyramidalis/small/49255769768_df55596553_b.jpg","thumbnail":"https://perenual.com/storage/species_image/2_abies_alba_pyramidalis/thumbnail/49255769768_df55596553_b.jpg"}},{"id":2692,"common_name":"coneflower","scientific_name":["Echinacea 'Tomato Soup'"],"other_name":null,"cycle":"Perennial","watering":"Minimum","sunlight":["Full sun","part shade"],"default_image":{"image_id":9,"license":5,"license_name":"Attribution-ShareAlike License","license_url":"https://creativecommons.org/licenses/by-sa/2.0/","original_url":"https://perenual.com/storage/species_image/2_abies_alba_pyramidalis/og/49255769768_df55596553_b.jpg","regular_url":"https://perenual.com/storage/species_image/2_abies_alba_pyramidalis/regular/49255769768_df55596553_b.jpg","medium_url":"https://perenual.com/storage/species_image/2_abies_alba_pyramidalis/medium/49255769768_df55596553_b.jpg","small_url":"https://perenual.com/storage/species_image/2_abies_alba_pyramidalis/small/49255769768_df55596553_b.jpg","thumbnail":"https://perenual.com/storage/species_image/2_abies_alba_pyramidalis/thumbnail/49255769768_df55596553_b.jpg"}},{"id":2693,"common_name":"coneflower","scientific_name":["Echinacea 'Twilight' BIG SKY TWILIGHT"],"other_name":null,"cycle":"Perennial","watering":"Minimum","sunlight":["Full sun","part shade"],"default_image":{"image_id":5812,"license":4,"license_name":"Attribution License","license_url":"https://creativecommons.org/licenses/by/2.0/","original_url":"https://perenual.com/storage/species_image/2693_echinacea_twilight_big_sky_twilight/og/52379997665_d3df7b0e0b_b.jpg","regular_url":"https://perenual.com/storage/species_image/2693_echinacea_twilight_big_sky_twilight/regular/52379997665_d3df7b0e0b_b.jpg","medium_url":"https://perenual.com/storage/species_image/2693_echinacea_twilight_big_sky_twilight/medium/52379997665_d3df7b0e0b_b.jpg","small_url":"https://perenual.com/storage/species_image/2693_echinacea_twilight_big_sky_twilight/small/52379997665_d3df7b0e0b_b.jpg","thumbnail":"https://perenual.com/storage/species_image/2693_echinacea_twilight_big_sky_twilight/thumbnail/52379997665_d3df7b0e0b_b.jpg"}},{"id":2694,"common_name":"coneflower","scientific_name":["Echinacea 'White Mist'"],"other_name":null,"cycle":"Perennial","watering":"Minimum","sunlight":["Full sun","part shade"],"default_image":{"image_id":5902,"license":4,"license_name":"Attribution License","license_url":"https://creativecommons.org/licenses/by/2.0/","original_url":"https://perenual.com/storage/species_image/2694_echinacea_white_mist/og/14395972349_9c02f4a511_b.jpg","regular_url":"https://perenual.com/storage/species_image/2694_echinacea_white_mist/regular/14395972349_9c02f4a511_b.jpg","medium_url":"https://perenual.com/storage/species_image/2694_echinacea_white_mist/medium/14395972349_9c02f4a511_b.jpg","small_url":"https://perenual.com/storage/species_image/2694_echinacea_white_mist/small/14395972349_9c02f4a511_b.jpg","thumbnail":"https://perenual.com/storage/species_image/2694_echinacea_white_mist/thumbnail/14395972349_9c02f4a511_b.jpg"}},{"id":2695,"common_name":"globe thistle","scientific_name":["Echinops bannaticus"],"other_name":null,"cycle":"Perennial","watering":"Average","sunlight":["Full sun"],"default_image":{"image_id":5910,"license":4,"license_name":"Attribution License","license_url":"https://creativecommons.org/licenses/by/2.0/","original_url":"https://perenual.com/storage/species_image/2695_echinops_bannaticus/og/7727622362_6327cebd43_b.jpg","regular_url":"https://perenual.com/storage/species_image/2695_echinops_bannaticus/regular/7727622362_6327cebd43_b.jpg","medium_url":"https://perenual.com/storage/species_image/2695_echinops_bannaticus/medium/7727622362_6327cebd43_b.jpg","small_url":"https://perenual.com/storage/species_image/2695_echinops_bannaticus/small/7727622362_6327cebd43_b.jpg","thumbnail":"https://perenual.com/storage/species_image/2695_echinops_bannaticus/thumbnail/7727622362_6327cebd43_b.jpg"}},{"id":2696,"common_name":"globe thistle","scientific_name":["Echinops bannaticus 'Blue Globe'"],"other_name":null,"cycle":"Perennial","watering":"Average","sunlight":["Full sun"],"default_image":{"image_id":9,"license":5,"license_name":"Attribution-ShareAlike License","license_url":"https://creativecommons.org/licenses/by-sa/2.0/","original_url":"https://perenual.com/storage/species_image/2_abies_alba_pyramidalis/og/49255769768_df55596553_b.jpg","regular_url":"https://perenual.com/storage/species_image/2_abies_alba_pyramidalis/regular/49255769768_df55596553_b.jpg","medium_url":"https://perenual.com/storage/species_image/2_abies_alba_pyramidalis/medium/49255769768_df55596553_b.jpg","small_url":"https://perenual.com/storage/species_image/2_abies_alba_pyramidalis/small/49255769768_df55596553_b.jpg","thumbnail":"https://perenual.com/storage/species_image/2_abies_alba_pyramidalis/thumbnail/49255769768_df55596553_b.jpg"}},{"id":2697,"common_name":"blue globe thistle","scientific_name":["Echinops bannaticus 'Blue Glow'"],"other_name":null,"cycle":"Perennial","watering":"Average","sunlight":["Full sun"],"default_image":{"image_id":9,"license":5,"license_name":"Attribution-ShareAlike License","license_url":"https://creativecommons.org/licenses/by-sa/2.0/","original_url":"https://perenual.com/storage/species_image/2_abies_alba_pyramidalis/og/49255769768_df55596553_b.jpg","regular_url":"https://perenual.com/storage/species_image/2_abies_alba_pyramidalis/regular/49255769768_df55596553_b.jpg","medium_url":"https://perenual.com/storage/species_image/2_abies_alba_pyramidalis/medium/49255769768_df55596553_b.jpg","small_url":"https://perenual.com/storage/species_image/2_abies_alba_pyramidalis/small/49255769768_df55596553_b.jpg","thumbnail":"https://perenual.com/storage/species_image/2_abies_alba_pyramidalis/thumbnail/49255769768_df55596553_b.jpg"}},{"id":2698,"common_name":"globe thistle","scientific_name":["Echinops gmelinii"],"other_name":null,"cycle":"Perennial","watering":"Average","sunlight":["Full sun"],"default_image":{"image_id":5914,"license":4,"license_name":"Attribution License","license_url":"https://creativecommons.org/licenses/by/2.0/","original_url":"https://perenual.com/storage/species_image/2698_echinops_gmelinii/og/51347065931_76083721a0_b.jpg","regular_url":"https://perenual.com/storage/species_image/2698_echinops_gmelinii/regular/51347065931_76083721a0_b.jpg","medium_url":"https://perenual.com/storage/species_image/2698_echinops_gmelinii/medium/51347065931_76083721a0_b.jpg","small_url":"https://perenual.com/storage/species_image/2698_echinops_gmelinii/small/51347065931_76083721a0_b.jpg","thumbnail":"https://perenual.com/storage/species_image/2698_echinops_gmelinii/thumbnail/51347065931_76083721a0_b.jpg"}},{"id":2699,"common_name":"small globe thistle","scientific_name":["Echinops ritro"],"other_name":null,"cycle":"Perennial","watering":"Minimum","sunlight":["Full sun"],"default_image":{"image_id":5916,"license":4,"license_name":"Attribution License","license_url":"https://creativecommons.org/licenses/by/2.0/","original_url":"https://perenual.com/storage/species_image/2699_echinops_ritro/og/52315581367_1406967d9d_b.jpg","regular_url":"https://perenual.com/storage/species_image/2699_echinops_ritro/regular/52315581367_1406967d9d_b.jpg","medium_url":"https://perenual.com/storage/species_image/2699_echinops_ritro/medium/52315581367_1406967d9d_b.jpg","small_url":"https://perenual.com/storage/species_image/2699_echinops_ritro/small/52315581367_1406967d9d_b.jpg","thumbnail":"https://perenual.com/storage/species_image/2699_echinops_ritro/thumbnail/52315581367_1406967d9d_b.jpg"}},{"id":2700,"common_name":"small globe thistle","scientific_name":["Echinops ritro subsp. ruthenicus"],"other_name":null,"cycle":"Perennial","watering":"Minimum","sunlight":["Full sun"],"default_image":{"image_id":9,"license":5,"license_name":"Attribution-ShareAlike License","license_url":"https://creativecommons.org/licenses/by-sa/2.0/","original_url":"https://perenual.com/storage/species_image/2_abies_alba_pyramidalis/og/49255769768_df55596553_b.jpg","regular_url":"https://perenual.com/storage/species_image/2_abies_alba_pyramidalis/regular/49255769768_df55596553_b.jpg","medium_url":"https://perenual.com/storage/species_image/2_abies_alba_pyramidalis/medium/49255769768_df55596553_b.jpg","small_url":"https://perenual.com/storage/species_image/2_abies_alba_pyramidalis/small/49255769768_df55596553_b.jpg","thumbnail":"https://perenual.com/storage/species_image/2_abies_alba_pyramidalis/thumbnail/49255769768_df55596553_b.jpg"}}],"to":2700,"per_page":30,"current_page":90,"from":2671,"last_page":200,"total":6000}