{"data":[{"id":961,"common_name":"black chokeberry","scientific_name":["Aronia melanocarpa 'Estland'"],"other_name":["Chokeberry"],"cycle":"Perennial","watering":"Frequent","sunlight":["Sun"," Partial Shade"],"default_image":{"image_id":21285,"license":45,"license_name":"Attribution-ShareAlike 3.0 Unported (CC BY-SA 3.0)","license_url":"https://creativecommons.org/licenses/by-sa/3.0/deed.en","original_url":"https://perenual.com/storage/species_image/961_aronia_melanocarpa_estland/og/Aronia_melanocarpa_fruit.jpg","regular_url":"https://perenual.com/storage/species_image/961_aronia_melanocarpa_estland/regular/Aronia_melanocarpa_fruit.jpg","medium_url":"https://perenual.com/storage/species_image/961_aronia_melanocarpa_estland/medium/Aronia_melanocarpa_fruit.jpg","small_url":"https://perenual.com/storage/species_image/961_aronia_melanocarpa_estland/small/Aronia_melanocarpa_fruit.jpg","thumbnail":"https://perenual.com/storage/species_image/961_aronia_melanocarpa_estland/thumbnail/Aronia_melanocarpa_fruit.jpg"}},{"id":962,"common_name":"black chokeberry","scientific_name":["Aronia melanocarpa 'Morton' IROQUOIS BEAUTY"],"other_name":["Chokeberry"],"cycle":"Perennial","watering":"Frequent","sunlight":["Sun"," Partial Shade"],"default_image":{"image_id":21287,"license":45,"license_name":"Attribution-ShareAlike 3.0 Unported (CC BY-SA 3.0)","license_url":"https://creativecommons.org/licenses/by-sa/3.0/deed.en","original_url":"https://perenual.com/storage/species_image/962_aronia_melanocarpa_morton_iroquois_beauty/og/Aronia_melanocarpa_%28Black_Chokeberry%29_%2836286083332%29.jpg","regular_url":"https://perenual.com/storage/species_image/962_aronia_melanocarpa_morton_iroquois_beauty/regular/Aronia_melanocarpa_%28Black_Chokeberry%29_%2836286083332%29.jpg","medium_url":"https://perenual.com/storage/species_image/962_aronia_melanocarpa_morton_iroquois_beauty/medium/Aronia_melanocarpa_%28Black_Chokeberry%29_%2836286083332%29.jpg","small_url":"https://perenual.com/storage/species_image/962_aronia_melanocarpa_morton_iroquois_beauty/small/Aronia_melanocarpa_%28Black_Chokeberry%29_%2836286083332%29.jpg","thumbnail":"https://perenual.com/storage/species_image/962_aronia_melanocarpa_morton_iroquois_beauty/thumbnail/Aronia_melanocarpa_%28Black_Chokeberry%29_%2836286083332%29.jpg"}},{"id":963,"common_name":"black chokeberry","scientific_name":["Aronia melanocarpa 'Professor Ed'"],"other_name":["Chokeberry"],"cycle":"Perennial","watering":"Frequent","sunlight":["Sun"," Partial Shade"],"default_image":{"image_id":21288,"license":45,"license_name":"Attribution-ShareAlike 3.0 Unported (CC BY-SA 3.0)","license_url":"https://creativecommons.org/licenses/by-sa/3.0/deed.en","original_url":"https://perenual.com/storage/species_image/963_aronia_melanocarpa_professor_ed/og/Aronia_melanocarpa_6329.jpg","regular_url":"https://perenual.com/storage/species_image/963_aronia_melanocarpa_professor_ed/regular/Aronia_melanocarpa_6329.jpg","medium_url":"https://perenual.com/storage/species_image/963_aronia_melanocarpa_professor_ed/medium/Aronia_melanocarpa_6329.jpg","small_url":"https://perenual.com/storage/species_image/963_aronia_melanocarpa_professor_ed/small/Aronia_melanocarpa_6329.jpg","thumbnail":"https://perenual.com/storage/species_image/963_aronia_melanocarpa_professor_ed/thumbnail/Aronia_melanocarpa_6329.jpg"}},{"id":964,"common_name":"black chokeberry","scientific_name":["Aronia melanocarpa 'UCONNAM012' GROUND HOG"],"other_name":["Chokeberry"],"cycle":"Perennial","watering":"Frequent","sunlight":["Sun"," Partial Shade"],"default_image":{"image_id":9,"license":5,"license_name":"Attribution-ShareAlike License","license_url":"https://creativecommons.org/licenses/by-sa/2.0/","original_url":"https://perenual.com/storage/species_image/2_abies_alba_pyramidalis/og/49255769768_df55596553_b.jpg","regular_url":"https://perenual.com/storage/species_image/2_abies_alba_pyramidalis/regular/49255769768_df55596553_b.jpg","medium_url":"https://perenual.com/storage/species_image/2_abies_alba_pyramidalis/medium/49255769768_df55596553_b.jpg","small_url":"https://perenual.com/storage/species_image/2_abies_alba_pyramidalis/small/49255769768_df55596553_b.jpg","thumbnail":"https://perenual.com/storage/species_image/2_abies_alba_pyramidalis/thumbnail/49255769768_df55596553_b.jpg"}},{"id":965,"common_name":"black chokeberry","scientific_name":["Aronia melanocarpa 'UCONNAM165' LOW SCAPE MOUND"],"other_name":["Chokeberry"],"cycle":"Perennial","watering":"Frequent","sunlight":["Sun"," Partial Shade"],"default_image":{"image_id":21290,"license":45,"license_name":"Attribution-ShareAlike 3.0 Unported (CC BY-SA 3.0)","license_url":"https://creativecommons.org/licenses/by-sa/3.0/deed.en","original_url":"https://perenual.com/storage/species_image/965_aronia_melanocarpa_uconnam165_low_scape_mound/og/Aronia_melanocarpa_cv_Rubina_P1020524.jpg","regular_url":"https://perenual.com/storage/species_image/965_aronia_melanocarpa_uconnam165_low_scape_mound/regular/Aronia_melanocarpa_cv_Rubina_P1020524.jpg","medium_url":"https://perenual.com/storage/species_image/965_aronia_melanocarpa_uconnam165_low_scape_mound/medium/Aronia_melanocarpa_cv_Rubina_P1020524.jpg","small_url":"https://perenual.com/storage/species_image/965_aronia_melanocarpa_uconnam165_low_scape_mound/small/Aronia_melanocarpa_cv_Rubina_P1020524.jpg","thumbnail":"https://perenual.com/storage/species_image/965_aronia_melanocarpa_uconnam165_low_scape_mound/thumbnail/Aronia_melanocarpa_cv_Rubina_P1020524.jpg"}},{"id":966,"common_name":"black chokeberry","scientific_name":["Aronia melanocarpa var. elata"],"other_name":["Chokeberry"],"cycle":"Perennial","watering":"Frequent","sunlight":["Sun"," Partial Shade"],"default_image":{"image_id":21291,"license":45,"license_name":"Attribution-ShareAlike 3.0 Unported (CC BY-SA 3.0)","license_url":"https://creativecommons.org/licenses/by-sa/3.0/deed.en","original_url":"https://perenual.com/storage/species_image/966_aronia_melanocarpa_var_elata/og/Aronia_melanocarpa_var_elata_kz1.jpg","regular_url":"https://perenual.com/storage/species_image/966_aronia_melanocarpa_var_elata/regular/Aronia_melanocarpa_var_elata_kz1.jpg","medium_url":"https://perenual.com/storage/species_image/966_aronia_melanocarpa_var_elata/medium/Aronia_melanocarpa_var_elata_kz1.jpg","small_url":"https://perenual.com/storage/species_image/966_aronia_melanocarpa_var_elata/small/Aronia_melanocarpa_var_elata_kz1.jpg","thumbnail":"https://perenual.com/storage/species_image/966_aronia_melanocarpa_var_elata/thumbnail/Aronia_melanocarpa_var_elata_kz1.jpg"}},{"id":967,"common_name":"black chokeberry","scientific_name":["Aronia melanocarpa 'Viking'"],"other_name":["Chokeberry"],"cycle":"Perennial","watering":"Frequent","sunlight":["Sun"," Partial Shade"],"default_image":{"image_id":9,"license":5,"license_name":"Attribution-ShareAlike License","license_url":"https://creativecommons.org/licenses/by-sa/2.0/","original_url":"https://perenual.com/storage/species_image/2_abies_alba_pyramidalis/og/49255769768_df55596553_b.jpg","regular_url":"https://perenual.com/storage/species_image/2_abies_alba_pyramidalis/regular/49255769768_df55596553_b.jpg","medium_url":"https://perenual.com/storage/species_image/2_abies_alba_pyramidalis/medium/49255769768_df55596553_b.jpg","small_url":"https://perenual.com/storage/species_image/2_abies_alba_pyramidalis/small/49255769768_df55596553_b.jpg","thumbnail":"https://perenual.com/storage/species_image/2_abies_alba_pyramidalis/thumbnail/49255769768_df55596553_b.jpg"}},{"id":968,"common_name":"purple-fruited chokeberry","scientific_name":["Aronia prunifolia"],"other_name":null,"cycle":"Perennial","watering":"Average","sunlight":["Full sun","part shade"],"default_image":{"image_id":2301,"license":4,"license_name":"Attribution License","license_url":"https://creativecommons.org/licenses/by/2.0/","original_url":"https://perenual.com/storage/species_image/968_aronia_prunifolia/og/50352225938_fcc00078d3_b.jpg","regular_url":"https://perenual.com/storage/species_image/968_aronia_prunifolia/regular/50352225938_fcc00078d3_b.jpg","medium_url":"https://perenual.com/storage/species_image/968_aronia_prunifolia/medium/50352225938_fcc00078d3_b.jpg","small_url":"https://perenual.com/storage/species_image/968_aronia_prunifolia/small/50352225938_fcc00078d3_b.jpg","thumbnail":"https://perenual.com/storage/species_image/968_aronia_prunifolia/thumbnail/50352225938_fcc00078d3_b.jpg"}},{"id":969,"common_name":"southernwood","scientific_name":["Artemisia abrotanum"],"other_name":["Sagebrush"],"cycle":"Perennial","watering":"Minimum","sunlight":["Sun"],"default_image":{"image_id":2307,"license":4,"license_name":"Attribution License","license_url":"https://creativecommons.org/licenses/by/2.0/","original_url":"https://perenual.com/storage/species_image/969_artemisia_abrotanum/og/3825719144_9de775e7a5_b.jpg","regular_url":"https://perenual.com/storage/species_image/969_artemisia_abrotanum/regular/3825719144_9de775e7a5_b.jpg","medium_url":"https://perenual.com/storage/species_image/969_artemisia_abrotanum/medium/3825719144_9de775e7a5_b.jpg","small_url":"https://perenual.com/storage/species_image/969_artemisia_abrotanum/small/3825719144_9de775e7a5_b.jpg","thumbnail":"https://perenual.com/storage/species_image/969_artemisia_abrotanum/thumbnail/3825719144_9de775e7a5_b.jpg"}},{"id":970,"common_name":"wormwood","scientific_name":["Artemisia absinthium"],"other_name":["Common Wormwood"],"cycle":"Perennial","watering":"Minimum","sunlight":["Full sun"],"default_image":{"image_id":2308,"license":6,"license_name":"Attribution-NoDerivs License","license_url":"https://creativecommons.org/licenses/by-nd/2.0/","original_url":"https://perenual.com/storage/species_image/970_artemisia_absinthium/og/51178698401_7c209b9c8f_b.jpg"}},{"id":971,"common_name":"mugwort","scientific_name":["Artemisia afra"],"other_name":null,"cycle":"Perennial","watering":"Minimum","sunlight":["Full sun"],"default_image":{"image_id":2315,"license":4,"license_name":"Attribution License","license_url":"https://creativecommons.org/licenses/by/2.0/","original_url":"https://perenual.com/storage/species_image/971_artemisia_afra/og/6823388305_e59b4979da_b.jpg","regular_url":"https://perenual.com/storage/species_image/971_artemisia_afra/regular/6823388305_e59b4979da_b.jpg","medium_url":"https://perenual.com/storage/species_image/971_artemisia_afra/medium/6823388305_e59b4979da_b.jpg","small_url":"https://perenual.com/storage/species_image/971_artemisia_afra/small/6823388305_e59b4979da_b.jpg","thumbnail":"https://perenual.com/storage/species_image/971_artemisia_afra/thumbnail/6823388305_e59b4979da_b.jpg"}},{"id":972,"common_name":"California sagebrush","scientific_name":["Artemisia californica 'Canyon Gray'"],"other_name":null,"cycle":"Perennial","watering":"Minimum","sunlight":["Full sun","part shade"],"default_image":{"image_id":2316,"license":5,"license_name":"Attribution-ShareAlike License","license_url":"https://creativecommons.org/licenses/by-sa/2.0/","original_url":"https://perenual.com/storage/species_image/972_artemisia_californica_canyon_gray/og/51175626765_a033a0855c_b.jpg","regular_url":"https://perenual.com/storage/species_image/972_artemisia_californica_canyon_gray/regular/51175626765_a033a0855c_b.jpg","medium_url":"https://perenual.com/storage/species_image/972_artemisia_californica_canyon_gray/medium/51175626765_a033a0855c_b.jpg","small_url":"https://perenual.com/storage/species_image/972_artemisia_californica_canyon_gray/small/51175626765_a033a0855c_b.jpg","thumbnail":"https://perenual.com/storage/species_image/972_artemisia_californica_canyon_gray/thumbnail/51175626765_a033a0855c_b.jpg"}},{"id":973,"common_name":"wormwood","scientific_name":["Artemisia capillaris"],"other_name":null,"cycle":"Perennial","watering":"Minimum","sunlight":["Full sun"],"default_image":{"image_id":2317,"license":5,"license_name":"Attribution-ShareAlike License","license_url":"https://creativecommons.org/licenses/by-sa/2.0/","original_url":"https://perenual.com/storage/species_image/973_artemisia_capillaris/og/29604488505_819de93c57_b.jpg","regular_url":"https://perenual.com/storage/species_image/973_artemisia_capillaris/regular/29604488505_819de93c57_b.jpg","medium_url":"https://perenual.com/storage/species_image/973_artemisia_capillaris/medium/29604488505_819de93c57_b.jpg","small_url":"https://perenual.com/storage/species_image/973_artemisia_capillaris/small/29604488505_819de93c57_b.jpg","thumbnail":"https://perenual.com/storage/species_image/973_artemisia_capillaris/thumbnail/29604488505_819de93c57_b.jpg"}},{"id":974,"common_name":"tarragon","scientific_name":["Artemisia dracunculus"],"other_name":["Tarragon"],"cycle":"Perennial","watering":"Minimum","sunlight":[],"default_image":{"image_id":2318,"license":5,"license_name":"Attribution-ShareAlike License","license_url":"https://creativecommons.org/licenses/by-sa/2.0/","original_url":"https://perenual.com/storage/species_image/974_artemisia_dracunculus/og/38707336995_edd3f8c50c_b.jpg","regular_url":"https://perenual.com/storage/species_image/974_artemisia_dracunculus/regular/38707336995_edd3f8c50c_b.jpg","medium_url":"https://perenual.com/storage/species_image/974_artemisia_dracunculus/medium/38707336995_edd3f8c50c_b.jpg","small_url":"https://perenual.com/storage/species_image/974_artemisia_dracunculus/small/38707336995_edd3f8c50c_b.jpg","thumbnail":"https://perenual.com/storage/species_image/974_artemisia_dracunculus/thumbnail/38707336995_edd3f8c50c_b.jpg"}},{"id":975,"common_name":"French tarragon","scientific_name":["Artemisia dracunculus 'Sativa'"],"other_name":["Tarragon"],"cycle":"Perennial","watering":"Minimum","sunlight":[],"default_image":{"image_id":2319,"license":6,"license_name":"Attribution-NoDerivs License","license_url":"https://creativecommons.org/licenses/by-nd/2.0/","original_url":"https://perenual.com/storage/species_image/975_artemisia_dracunculus_sativa/og/3509541123_639fb9d3f8_b.jpg"}},{"id":976,"common_name":"silky wormwood","scientific_name":["Artemisia frigida"],"other_name":["Pasture Sagewort","Prairie Sagebrush","Prairie Sagebrush"],"cycle":"Perennial","watering":"Minimum","sunlight":["Sun"],"default_image":{"image_id":2320,"license":5,"license_name":"Attribution-ShareAlike License","license_url":"https://creativecommons.org/licenses/by-sa/2.0/","original_url":"https://perenual.com/storage/species_image/976_artemisia_frigida/og/52389600665_c8fc39039b_b.jpg","regular_url":"https://perenual.com/storage/species_image/976_artemisia_frigida/regular/52389600665_c8fc39039b_b.jpg","medium_url":"https://perenual.com/storage/species_image/976_artemisia_frigida/medium/52389600665_c8fc39039b_b.jpg","small_url":"https://perenual.com/storage/species_image/976_artemisia_frigida/small/52389600665_c8fc39039b_b.jpg","thumbnail":"https://perenual.com/storage/species_image/976_artemisia_frigida/thumbnail/52389600665_c8fc39039b_b.jpg"}},{"id":977,"common_name":"white mugwort","scientific_name":["Artemisia lactiflora (Guizhou Group)"],"other_name":null,"cycle":"Perennial","watering":"Average","sunlight":["Full sun"],"default_image":{"image_id":2325,"license":5,"license_name":"Attribution-ShareAlike License","license_url":"https://creativecommons.org/licenses/by-sa/2.0/","original_url":"https://perenual.com/storage/species_image/977_artemisia_lactiflora_guizhou_group/og/50320418362_baf156d999_b.jpg","regular_url":"https://perenual.com/storage/species_image/977_artemisia_lactiflora_guizhou_group/regular/50320418362_baf156d999_b.jpg","medium_url":"https://perenual.com/storage/species_image/977_artemisia_lactiflora_guizhou_group/medium/50320418362_baf156d999_b.jpg","small_url":"https://perenual.com/storage/species_image/977_artemisia_lactiflora_guizhou_group/small/50320418362_baf156d999_b.jpg","thumbnail":"https://perenual.com/storage/species_image/977_artemisia_lactiflora_guizhou_group/thumbnail/50320418362_baf156d999_b.jpg"}},{"id":978,"common_name":"white sage","scientific_name":["Artemisia ludoviciana"],"other_name":null,"cycle":"Perennial","watering":"Minimum","sunlight":["Full sun"],"default_image":{"image_id":2327,"license":5,"license_name":"Attribution-ShareAlike License","license_url":"https://creativecommons.org/licenses/by-sa/2.0/","original_url":"https://perenual.com/storage/species_image/978_artemisia_ludoviciana/og/52401041454_c801eb77fc_b.jpg","regular_url":"https://perenual.com/storage/species_image/978_artemisia_ludoviciana/regular/52401041454_c801eb77fc_b.jpg","medium_url":"https://perenual.com/storage/species_image/978_artemisia_ludoviciana/medium/52401041454_c801eb77fc_b.jpg","small_url":"https://perenual.com/storage/species_image/978_artemisia_ludoviciana/small/52401041454_c801eb77fc_b.jpg","thumbnail":"https://perenual.com/storage/species_image/978_artemisia_ludoviciana/thumbnail/52401041454_c801eb77fc_b.jpg"}},{"id":979,"common_name":"western mugwort","scientific_name":["Artemisia ludoviciana 'Silver Frost'"],"other_name":null,"cycle":"Perennial","watering":"Minimum","sunlight":["Full sun"],"default_image":{"image_id":21292,"license":45,"license_name":"Attribution-ShareAlike 3.0 Unported (CC BY-SA 3.0)","license_url":"https://creativecommons.org/licenses/by-sa/3.0/deed.en","original_url":"https://perenual.com/storage/species_image/979_artemisia_ludoviciana_silver_frost/og/Artemisia_ludoviciana_Silver_Queen_2020-06-23_0668.jpg","regular_url":"https://perenual.com/storage/species_image/979_artemisia_ludoviciana_silver_frost/regular/Artemisia_ludoviciana_Silver_Queen_2020-06-23_0668.jpg","medium_url":"https://perenual.com/storage/species_image/979_artemisia_ludoviciana_silver_frost/medium/Artemisia_ludoviciana_Silver_Queen_2020-06-23_0668.jpg","small_url":"https://perenual.com/storage/species_image/979_artemisia_ludoviciana_silver_frost/small/Artemisia_ludoviciana_Silver_Queen_2020-06-23_0668.jpg","thumbnail":"https://perenual.com/storage/species_image/979_artemisia_ludoviciana_silver_frost/thumbnail/Artemisia_ludoviciana_Silver_Queen_2020-06-23_0668.jpg"}},{"id":980,"common_name":"white sage","scientific_name":["Artemisia ludoviciana 'Silver King'"],"other_name":null,"cycle":"Perennial","watering":"Minimum","sunlight":["Full sun"],"default_image":{"image_id":9,"license":5,"license_name":"Attribution-ShareAlike License","license_url":"https://creativecommons.org/licenses/by-sa/2.0/","original_url":"https://perenual.com/storage/species_image/2_abies_alba_pyramidalis/og/49255769768_df55596553_b.jpg","regular_url":"https://perenual.com/storage/species_image/2_abies_alba_pyramidalis/regular/49255769768_df55596553_b.jpg","medium_url":"https://perenual.com/storage/species_image/2_abies_alba_pyramidalis/medium/49255769768_df55596553_b.jpg","small_url":"https://perenual.com/storage/species_image/2_abies_alba_pyramidalis/small/49255769768_df55596553_b.jpg","thumbnail":"https://perenual.com/storage/species_image/2_abies_alba_pyramidalis/thumbnail/49255769768_df55596553_b.jpg"}},{"id":981,"common_name":"western mugwort","scientific_name":["Artemisia ludoviciana 'Valerie Finnis'"],"other_name":null,"cycle":"Perennial","watering":"Minimum","sunlight":["Full sun"],"default_image":{"image_id":9,"license":5,"license_name":"Attribution-ShareAlike License","license_url":"https://creativecommons.org/licenses/by-sa/2.0/","original_url":"https://perenual.com/storage/species_image/2_abies_alba_pyramidalis/og/49255769768_df55596553_b.jpg","regular_url":"https://perenual.com/storage/species_image/2_abies_alba_pyramidalis/regular/49255769768_df55596553_b.jpg","medium_url":"https://perenual.com/storage/species_image/2_abies_alba_pyramidalis/medium/49255769768_df55596553_b.jpg","small_url":"https://perenual.com/storage/species_image/2_abies_alba_pyramidalis/small/49255769768_df55596553_b.jpg","thumbnail":"https://perenual.com/storage/species_image/2_abies_alba_pyramidalis/thumbnail/49255769768_df55596553_b.jpg"}},{"id":982,"common_name":"wormwood","scientific_name":["Artemisia 'Powis Castle'"],"other_name":null,"cycle":"Perennial","watering":"Minimum","sunlight":["Full sun"],"default_image":{"image_id":2336,"license":4,"license_name":"Attribution License","license_url":"https://creativecommons.org/licenses/by/2.0/","original_url":"https://perenual.com/storage/species_image/982_artemisia_powis_castle/og/9109145122_fd5931bd3e_b.jpg","regular_url":"https://perenual.com/storage/species_image/982_artemisia_powis_castle/regular/9109145122_fd5931bd3e_b.jpg","medium_url":"https://perenual.com/storage/species_image/982_artemisia_powis_castle/medium/9109145122_fd5931bd3e_b.jpg","small_url":"https://perenual.com/storage/species_image/982_artemisia_powis_castle/small/9109145122_fd5931bd3e_b.jpg","thumbnail":"https://perenual.com/storage/species_image/982_artemisia_powis_castle/thumbnail/9109145122_fd5931bd3e_b.jpg"}},{"id":983,"common_name":"wormwood","scientific_name":["Artemisia 'Tiny Green'"],"other_name":null,"cycle":"Perennial","watering":"Minimum","sunlight":["Full sun"],"default_image":{"image_id":21293,"license":44,"license_name":"Attribution-ShareAlike 4.0 International (CC BY-SA 4.0)","license_url":"https://creativecommons.org/licenses/by-sa/4.0/","original_url":"https://perenual.com/storage/species_image/983_artemisia_tiny_green/og/44db18d7eab59195c18975ed013f74ec839b921a.jpg","regular_url":"https://perenual.com/storage/species_image/983_artemisia_tiny_green/regular/44db18d7eab59195c18975ed013f74ec839b921a.jpg","medium_url":"https://perenual.com/storage/species_image/983_artemisia_tiny_green/medium/44db18d7eab59195c18975ed013f74ec839b921a.jpg","small_url":"https://perenual.com/storage/species_image/983_artemisia_tiny_green/small/44db18d7eab59195c18975ed013f74ec839b921a.jpg","thumbnail":"https://perenual.com/storage/species_image/983_artemisia_tiny_green/thumbnail/44db18d7eab59195c18975ed013f74ec839b921a.jpg"}},{"id":984,"common_name":"mugwort","scientific_name":["Artemisia vulgaris"],"other_name":null,"cycle":"Perennial","watering":"Minimum","sunlight":[],"default_image":{"image_id":2337,"license":4,"license_name":"Attribution License","license_url":"https://creativecommons.org/licenses/by/2.0/","original_url":"https://perenual.com/storage/species_image/984_artemisia_vulgaris/og/52276003747_32447c5ab2_b.jpg","regular_url":"https://perenual.com/storage/species_image/984_artemisia_vulgaris/regular/52276003747_32447c5ab2_b.jpg","medium_url":"https://perenual.com/storage/species_image/984_artemisia_vulgaris/medium/52276003747_32447c5ab2_b.jpg","small_url":"https://perenual.com/storage/species_image/984_artemisia_vulgaris/small/52276003747_32447c5ab2_b.jpg","thumbnail":"https://perenual.com/storage/species_image/984_artemisia_vulgaris/thumbnail/52276003747_32447c5ab2_b.jpg"}},{"id":985,"common_name":"wormwood","scientific_name":["Artemisia vulgaris 'Cragg-Barber Eye'"],"other_name":null,"cycle":"Perennial","watering":"Minimum","sunlight":[],"default_image":{"image_id":21294,"license":45,"license_name":"Attribution-ShareAlike 3.0 Unported (CC BY-SA 3.0)","license_url":"https://creativecommons.org/licenses/by-sa/3.0/deed.en","original_url":"https://perenual.com/storage/species_image/985_artemisia_vulgaris_cragg-barber_eye/og/Common_Mugwort_%28Artemisia_vulgaris%29_-_Oslo%2C_Norway_2020-08-15.jpg","regular_url":"https://perenual.com/storage/species_image/985_artemisia_vulgaris_cragg-barber_eye/regular/Common_Mugwort_%28Artemisia_vulgaris%29_-_Oslo%2C_Norway_2020-08-15.jpg","medium_url":"https://perenual.com/storage/species_image/985_artemisia_vulgaris_cragg-barber_eye/medium/Common_Mugwort_%28Artemisia_vulgaris%29_-_Oslo%2C_Norway_2020-08-15.jpg","small_url":"https://perenual.com/storage/species_image/985_artemisia_vulgaris_cragg-barber_eye/small/Common_Mugwort_%28Artemisia_vulgaris%29_-_Oslo%2C_Norway_2020-08-15.jpg","thumbnail":"https://perenual.com/storage/species_image/985_artemisia_vulgaris_cragg-barber_eye/thumbnail/Common_Mugwort_%28Artemisia_vulgaris%29_-_Oslo%2C_Norway_2020-08-15.jpg"}},{"id":986,"common_name":"wormwood","scientific_name":["Artemisia vulgaris 'Janlim' ORIENTAL LIMELIGHT"],"other_name":null,"cycle":"Perennial","watering":"Minimum","sunlight":[],"default_image":{"image_id":9,"license":5,"license_name":"Attribution-ShareAlike License","license_url":"https://creativecommons.org/licenses/by-sa/2.0/","original_url":"https://perenual.com/storage/species_image/2_abies_alba_pyramidalis/og/49255769768_df55596553_b.jpg","regular_url":"https://perenual.com/storage/species_image/2_abies_alba_pyramidalis/regular/49255769768_df55596553_b.jpg","medium_url":"https://perenual.com/storage/species_image/2_abies_alba_pyramidalis/medium/49255769768_df55596553_b.jpg","small_url":"https://perenual.com/storage/species_image/2_abies_alba_pyramidalis/small/49255769768_df55596553_b.jpg","thumbnail":"https://perenual.com/storage/species_image/2_abies_alba_pyramidalis/thumbnail/49255769768_df55596553_b.jpg"}},{"id":987,"common_name":"rienga lily","scientific_name":["Arthropodium cirrhatum"],"other_name":null,"cycle":"Perennial","watering":"Minimum","sunlight":["Part shade"],"default_image":{"image_id":9,"license":5,"license_name":"Attribution-ShareAlike License","license_url":"https://creativecommons.org/licenses/by-sa/2.0/","original_url":"https://perenual.com/storage/species_image/2_abies_alba_pyramidalis/og/49255769768_df55596553_b.jpg","regular_url":"https://perenual.com/storage/species_image/2_abies_alba_pyramidalis/regular/49255769768_df55596553_b.jpg","medium_url":"https://perenual.com/storage/species_image/2_abies_alba_pyramidalis/medium/49255769768_df55596553_b.jpg","small_url":"https://perenual.com/storage/species_image/2_abies_alba_pyramidalis/small/49255769768_df55596553_b.jpg","thumbnail":"https://perenual.com/storage/species_image/2_abies_alba_pyramidalis/thumbnail/49255769768_df55596553_b.jpg"}},{"id":988,"common_name":"breadfruit","scientific_name":["Artocarpus altilis"],"other_name":null,"cycle":"Perennial","watering":"Average","sunlight":["Full sun","part shade"],"default_image":{"image_id":2351,"license":4,"license_name":"Attribution License","license_url":"https://creativecommons.org/licenses/by/2.0/","original_url":"https://perenual.com/storage/species_image/988_artocarpus_altilis/og/27300926886_1fe42029eb_b.jpg","regular_url":"https://perenual.com/storage/species_image/988_artocarpus_altilis/regular/27300926886_1fe42029eb_b.jpg","medium_url":"https://perenual.com/storage/species_image/988_artocarpus_altilis/medium/27300926886_1fe42029eb_b.jpg","small_url":"https://perenual.com/storage/species_image/988_artocarpus_altilis/small/27300926886_1fe42029eb_b.jpg","thumbnail":"https://perenual.com/storage/species_image/988_artocarpus_altilis/thumbnail/27300926886_1fe42029eb_b.jpg"}},{"id":989,"common_name":"jackfruit","scientific_name":["Artocarpus heterophyllus"],"other_name":null,"cycle":"Perennial","watering":"Average","sunlight":["Full sun"],"default_image":{"image_id":2354,"license":5,"license_name":"Attribution-ShareAlike License","license_url":"https://creativecommons.org/licenses/by-sa/2.0/","original_url":"https://perenual.com/storage/species_image/989_artocarpus_heterophyllus/og/52334746009_86cd4b3f95_b.jpg","regular_url":"https://perenual.com/storage/species_image/989_artocarpus_heterophyllus/regular/52334746009_86cd4b3f95_b.jpg","medium_url":"https://perenual.com/storage/species_image/989_artocarpus_heterophyllus/medium/52334746009_86cd4b3f95_b.jpg","small_url":"https://perenual.com/storage/species_image/989_artocarpus_heterophyllus/small/52334746009_86cd4b3f95_b.jpg","thumbnail":"https://perenual.com/storage/species_image/989_artocarpus_heterophyllus/thumbnail/52334746009_86cd4b3f95_b.jpg"}},{"id":990,"common_name":"Italian arum","scientific_name":["Arum italicum"],"other_name":null,"cycle":"Perennial","watering":"Average","sunlight":["Part shade","full shade"],"default_image":{"image_id":2364,"license":4,"license_name":"Attribution License","license_url":"https://creativecommons.org/licenses/by/2.0/","original_url":"https://perenual.com/storage/species_image/990_arum_italicum/og/48693499968_df49cf244d_b.jpg","regular_url":"https://perenual.com/storage/species_image/990_arum_italicum/regular/48693499968_df49cf244d_b.jpg","medium_url":"https://perenual.com/storage/species_image/990_arum_italicum/medium/48693499968_df49cf244d_b.jpg","small_url":"https://perenual.com/storage/species_image/990_arum_italicum/small/48693499968_df49cf244d_b.jpg","thumbnail":"https://perenual.com/storage/species_image/990_arum_italicum/thumbnail/48693499968_df49cf244d_b.jpg"}}],"to":990,"per_page":30,"current_page":33,"from":961,"last_page":200,"total":6000}