{"data":[{"id":1027,"common_name":"asparagus","scientific_name":["Asparagus officinalis 'Jersey Knight'"],"other_name":null,"cycle":"Perennial","watering":"Average","sunlight":["Full sun"],"default_image":{"image_id":9,"license":5,"license_name":"Attribution-ShareAlike License","license_url":"https://creativecommons.org/licenses/by-sa/2.0/","original_url":"https://perenual.com/storage/species_image/2_abies_alba_pyramidalis/og/49255769768_df55596553_b.jpg","regular_url":"https://perenual.com/storage/species_image/2_abies_alba_pyramidalis/regular/49255769768_df55596553_b.jpg","medium_url":"https://perenual.com/storage/species_image/2_abies_alba_pyramidalis/medium/49255769768_df55596553_b.jpg","small_url":"https://perenual.com/storage/species_image/2_abies_alba_pyramidalis/small/49255769768_df55596553_b.jpg","thumbnail":"https://perenual.com/storage/species_image/2_abies_alba_pyramidalis/thumbnail/49255769768_df55596553_b.jpg"}},{"id":1028,"common_name":"asparagus","scientific_name":["Asparagus officinalis 'Mary Washington'"],"other_name":null,"cycle":"Perennial","watering":"Average","sunlight":["Full sun"],"default_image":{"image_id":9,"license":5,"license_name":"Attribution-ShareAlike License","license_url":"https://creativecommons.org/licenses/by-sa/2.0/","original_url":"https://perenual.com/storage/species_image/2_abies_alba_pyramidalis/og/49255769768_df55596553_b.jpg","regular_url":"https://perenual.com/storage/species_image/2_abies_alba_pyramidalis/regular/49255769768_df55596553_b.jpg","medium_url":"https://perenual.com/storage/species_image/2_abies_alba_pyramidalis/medium/49255769768_df55596553_b.jpg","small_url":"https://perenual.com/storage/species_image/2_abies_alba_pyramidalis/small/49255769768_df55596553_b.jpg","thumbnail":"https://perenual.com/storage/species_image/2_abies_alba_pyramidalis/thumbnail/49255769768_df55596553_b.jpg"}},{"id":1029,"common_name":"asparagus","scientific_name":["Asparagus officinalis 'Purple Passion'"],"other_name":null,"cycle":"Perennial","watering":"Average","sunlight":["Full sun"],"default_image":{"image_id":9,"license":5,"license_name":"Attribution-ShareAlike License","license_url":"https://creativecommons.org/licenses/by-sa/2.0/","original_url":"https://perenual.com/storage/species_image/2_abies_alba_pyramidalis/og/49255769768_df55596553_b.jpg","regular_url":"https://perenual.com/storage/species_image/2_abies_alba_pyramidalis/regular/49255769768_df55596553_b.jpg","medium_url":"https://perenual.com/storage/species_image/2_abies_alba_pyramidalis/medium/49255769768_df55596553_b.jpg","small_url":"https://perenual.com/storage/species_image/2_abies_alba_pyramidalis/small/49255769768_df55596553_b.jpg","thumbnail":"https://perenual.com/storage/species_image/2_abies_alba_pyramidalis/thumbnail/49255769768_df55596553_b.jpg"}},{"id":1030,"common_name":"Ming fern","scientific_name":["Asparagus retrofractus"],"other_name":["pom pom asparagus fern"],"cycle":"Perennial","watering":"Average","sunlight":["Full sun","part shade"],"default_image":{"image_id":9,"license":5,"license_name":"Attribution-ShareAlike License","license_url":"https://creativecommons.org/licenses/by-sa/2.0/","original_url":"https://perenual.com/storage/species_image/2_abies_alba_pyramidalis/og/49255769768_df55596553_b.jpg","regular_url":"https://perenual.com/storage/species_image/2_abies_alba_pyramidalis/regular/49255769768_df55596553_b.jpg","medium_url":"https://perenual.com/storage/species_image/2_abies_alba_pyramidalis/medium/49255769768_df55596553_b.jpg","small_url":"https://perenual.com/storage/species_image/2_abies_alba_pyramidalis/small/49255769768_df55596553_b.jpg","thumbnail":"https://perenual.com/storage/species_image/2_abies_alba_pyramidalis/thumbnail/49255769768_df55596553_b.jpg"}},{"id":1031,"common_name":"asparagus fern","scientific_name":["Asparagus setaceus"],"other_name":null,"cycle":"Perennial","watering":"Average","sunlight":["Part shade"],"default_image":{"image_id":2487,"license":4,"license_name":"Attribution License","license_url":"https://creativecommons.org/licenses/by/2.0/","original_url":"https://perenual.com/storage/species_image/1031_asparagus_setaceus/og/24274026853_98d1a2733a_b.jpg","regular_url":"https://perenual.com/storage/species_image/1031_asparagus_setaceus/regular/24274026853_98d1a2733a_b.jpg","medium_url":"https://perenual.com/storage/species_image/1031_asparagus_setaceus/medium/24274026853_98d1a2733a_b.jpg","small_url":"https://perenual.com/storage/species_image/1031_asparagus_setaceus/small/24274026853_98d1a2733a_b.jpg","thumbnail":"https://perenual.com/storage/species_image/1031_asparagus_setaceus/thumbnail/24274026853_98d1a2733a_b.jpg"}},{"id":1032,"common_name":"woodruff","scientific_name":["Asperula gussonii"],"other_name":null,"cycle":"Perennial","watering":"Minimum","sunlight":["Full sun"],"default_image":{"image_id":20997,"license":45,"license_name":"Attribution-ShareAlike 3.0 Unported (CC BY-SA 3.0)","license_url":"https://creativecommons.org/licenses/by-sa/3.0/deed.en","original_url":"https://perenual.com/storage/species_image/1032_asperula_gussonii/og/Asperula_gussonii_01.jpg","regular_url":"https://perenual.com/storage/species_image/1032_asperula_gussonii/regular/Asperula_gussonii_01.jpg","medium_url":"https://perenual.com/storage/species_image/1032_asperula_gussonii/medium/Asperula_gussonii_01.jpg","small_url":"https://perenual.com/storage/species_image/1032_asperula_gussonii/small/Asperula_gussonii_01.jpg","thumbnail":"https://perenual.com/storage/species_image/1032_asperula_gussonii/thumbnail/Asperula_gussonii_01.jpg"}},{"id":1033,"common_name":"woodruff","scientific_name":["Asperula tinctoria"],"other_name":null,"cycle":"Perennial","watering":"Average","sunlight":["Full sun"],"default_image":{"image_id":2490,"license":4,"license_name":"Attribution License","license_url":"https://creativecommons.org/licenses/by/2.0/","original_url":"https://perenual.com/storage/species_image/1033_asperula_tinctoria/og/49988194711_f81a03d6e0_b.jpg","regular_url":"https://perenual.com/storage/species_image/1033_asperula_tinctoria/regular/49988194711_f81a03d6e0_b.jpg","medium_url":"https://perenual.com/storage/species_image/1033_asperula_tinctoria/medium/49988194711_f81a03d6e0_b.jpg","small_url":"https://perenual.com/storage/species_image/1033_asperula_tinctoria/small/49988194711_f81a03d6e0_b.jpg","thumbnail":"https://perenual.com/storage/species_image/1033_asperula_tinctoria/thumbnail/49988194711_f81a03d6e0_b.jpg"}},{"id":1034,"common_name":"king's spear","scientific_name":["Asphodeline lutea"],"other_name":null,"cycle":"Perennial","watering":"Average","sunlight":["Full sun"],"default_image":{"image_id":2496,"license":5,"license_name":"Attribution-ShareAlike License","license_url":"https://creativecommons.org/licenses/by-sa/2.0/","original_url":"https://perenual.com/storage/species_image/1034_asphodeline_lutea/og/8869006693_cd691deaed_b.jpg","regular_url":"https://perenual.com/storage/species_image/1034_asphodeline_lutea/regular/8869006693_cd691deaed_b.jpg","medium_url":"https://perenual.com/storage/species_image/1034_asphodeline_lutea/medium/8869006693_cd691deaed_b.jpg","small_url":"https://perenual.com/storage/species_image/1034_asphodeline_lutea/small/8869006693_cd691deaed_b.jpg","thumbnail":"https://perenual.com/storage/species_image/1034_asphodeline_lutea/thumbnail/8869006693_cd691deaed_b.jpg"}},{"id":1018,"common_name":"butterfly weed","scientific_name":["Asclepias tuberosa"],"other_name":["Orange Milkweed","Chigger Plant"],"cycle":"Perennial","watering":"Minimum","sunlight":["Full sun Partial sun"],"default_image":{"image_id":2457,"license":4,"license_name":"Attribution License","license_url":"https://creativecommons.org/licenses/by/2.0/","original_url":"https://perenual.com/storage/species_image/1018_asclepias_tuberosa/og/52556085902_253f911f0d_b.jpg","regular_url":"https://perenual.com/storage/species_image/1018_asclepias_tuberosa/regular/52556085902_253f911f0d_b.jpg","medium_url":"https://perenual.com/storage/species_image/1018_asclepias_tuberosa/medium/52556085902_253f911f0d_b.jpg","small_url":"https://perenual.com/storage/species_image/1018_asclepias_tuberosa/small/52556085902_253f911f0d_b.jpg","thumbnail":"https://perenual.com/storage/species_image/1018_asclepias_tuberosa/thumbnail/52556085902_253f911f0d_b.jpg"}},{"id":1019,"common_name":"butterfly weed","scientific_name":["Asclepias tuberosa 'Blonde Bombshell'"],"other_name":["Orange Milkweed","Chigger Plant"],"cycle":"Perennial","watering":"Minimum","sunlight":["Full sun Partial sun"],"default_image":{"image_id":9,"license":5,"license_name":"Attribution-ShareAlike License","license_url":"https://creativecommons.org/licenses/by-sa/2.0/","original_url":"https://perenual.com/storage/species_image/2_abies_alba_pyramidalis/og/49255769768_df55596553_b.jpg","regular_url":"https://perenual.com/storage/species_image/2_abies_alba_pyramidalis/regular/49255769768_df55596553_b.jpg","medium_url":"https://perenual.com/storage/species_image/2_abies_alba_pyramidalis/medium/49255769768_df55596553_b.jpg","small_url":"https://perenual.com/storage/species_image/2_abies_alba_pyramidalis/small/49255769768_df55596553_b.jpg","thumbnail":"https://perenual.com/storage/species_image/2_abies_alba_pyramidalis/thumbnail/49255769768_df55596553_b.jpg"}},{"id":1020,"common_name":"butterfly weed","scientific_name":["Asclepias tuberosa 'Hello Yellow'"],"other_name":["Orange Milkweed","Chigger Plant"],"cycle":"Perennial","watering":"Minimum","sunlight":["Full sun Partial sun"],"default_image":{"image_id":2465,"license":4,"license_name":"Attribution License","license_url":"https://creativecommons.org/licenses/by/2.0/","original_url":"https://perenual.com/storage/species_image/1020_asclepias_tuberosa_hello_yellow/og/44371823665_3a92a6e889_b.jpg","regular_url":"https://perenual.com/storage/species_image/1020_asclepias_tuberosa_hello_yellow/regular/44371823665_3a92a6e889_b.jpg","medium_url":"https://perenual.com/storage/species_image/1020_asclepias_tuberosa_hello_yellow/medium/44371823665_3a92a6e889_b.jpg","small_url":"https://perenual.com/storage/species_image/1020_asclepias_tuberosa_hello_yellow/small/44371823665_3a92a6e889_b.jpg","thumbnail":"https://perenual.com/storage/species_image/1020_asclepias_tuberosa_hello_yellow/thumbnail/44371823665_3a92a6e889_b.jpg"}},{"id":1021,"common_name":"whorled milkweed","scientific_name":["Asclepias verticillata"],"other_name":["Eastern Whorled Milkweed"],"cycle":"Perennial","watering":"Minimum","sunlight":["Full sun","part shade"],"default_image":{"image_id":2468,"license":5,"license_name":"Attribution-ShareAlike License","license_url":"https://creativecommons.org/licenses/by-sa/2.0/","original_url":"https://perenual.com/storage/species_image/1021_asclepias_verticillata/og/29538479571_3ef54dd273_b.jpg","regular_url":"https://perenual.com/storage/species_image/1021_asclepias_verticillata/regular/29538479571_3ef54dd273_b.jpg","medium_url":"https://perenual.com/storage/species_image/1021_asclepias_verticillata/medium/29538479571_3ef54dd273_b.jpg","small_url":"https://perenual.com/storage/species_image/1021_asclepias_verticillata/small/29538479571_3ef54dd273_b.jpg","thumbnail":"https://perenual.com/storage/species_image/1021_asclepias_verticillata/thumbnail/29538479571_3ef54dd273_b.jpg"}},{"id":1022,"common_name":"green milkweed","scientific_name":["Asclepias viridis"],"other_name":null,"cycle":"Perennial","watering":"Minimum","sunlight":["Full sun"],"default_image":{"image_id":2471,"license":5,"license_name":"Attribution-ShareAlike License","license_url":"https://creativecommons.org/licenses/by-sa/2.0/","original_url":"https://perenual.com/storage/species_image/1022_asclepias_viridis/og/9123680137_d82dea1342_b.jpg","regular_url":"https://perenual.com/storage/species_image/1022_asclepias_viridis/regular/9123680137_d82dea1342_b.jpg","medium_url":"https://perenual.com/storage/species_image/1022_asclepias_viridis/medium/9123680137_d82dea1342_b.jpg","small_url":"https://perenual.com/storage/species_image/1022_asclepias_viridis/small/9123680137_d82dea1342_b.jpg","thumbnail":"https://perenual.com/storage/species_image/1022_asclepias_viridis/thumbnail/9123680137_d82dea1342_b.jpg"}},{"id":1023,"common_name":"Sprenger's asparagus fern","scientific_name":["Asparagus densiflorus"],"other_name":null,"cycle":"Perennial","watering":"Average","sunlight":["Part shade"],"default_image":{"image_id":2473,"license":5,"license_name":"Attribution-ShareAlike License","license_url":"https://creativecommons.org/licenses/by-sa/2.0/","original_url":"https://perenual.com/storage/species_image/1023_asparagus_densiflorus/og/49289066276_4bbe4e5b94_b.jpg","regular_url":"https://perenual.com/storage/species_image/1023_asparagus_densiflorus/regular/49289066276_4bbe4e5b94_b.jpg","medium_url":"https://perenual.com/storage/species_image/1023_asparagus_densiflorus/medium/49289066276_4bbe4e5b94_b.jpg","small_url":"https://perenual.com/storage/species_image/1023_asparagus_densiflorus/small/49289066276_4bbe4e5b94_b.jpg","thumbnail":"https://perenual.com/storage/species_image/1023_asparagus_densiflorus/thumbnail/49289066276_4bbe4e5b94_b.jpg"}},{"id":1035,"common_name":"white-flowered asphodel","scientific_name":["Asphodelus albus"],"other_name":null,"cycle":"Perennial","watering":"Average","sunlight":["Full sun","part shade"],"default_image":{"image_id":2499,"license":4,"license_name":"Attribution License","license_url":"https://creativecommons.org/licenses/by/2.0/","original_url":"https://perenual.com/storage/species_image/1035_asphodelus_albus/og/51165198881_b75d352195_b.jpg","regular_url":"https://perenual.com/storage/species_image/1035_asphodelus_albus/regular/51165198881_b75d352195_b.jpg","medium_url":"https://perenual.com/storage/species_image/1035_asphodelus_albus/medium/51165198881_b75d352195_b.jpg","small_url":"https://perenual.com/storage/species_image/1035_asphodelus_albus/small/51165198881_b75d352195_b.jpg","thumbnail":"https://perenual.com/storage/species_image/1035_asphodelus_albus/thumbnail/51165198881_b75d352195_b.jpg"}},{"id":1036,"common_name":"cast-iron plant","scientific_name":["Aspidistra elatior"],"other_name":null,"cycle":"Perennial","watering":"Average","sunlight":["Part shade","full shade"],"default_image":{"image_id":9,"license":5,"license_name":"Attribution-ShareAlike License","license_url":"https://creativecommons.org/licenses/by-sa/2.0/","original_url":"https://perenual.com/storage/species_image/2_abies_alba_pyramidalis/og/49255769768_df55596553_b.jpg","regular_url":"https://perenual.com/storage/species_image/2_abies_alba_pyramidalis/regular/49255769768_df55596553_b.jpg","medium_url":"https://perenual.com/storage/species_image/2_abies_alba_pyramidalis/medium/49255769768_df55596553_b.jpg","small_url":"https://perenual.com/storage/species_image/2_abies_alba_pyramidalis/small/49255769768_df55596553_b.jpg","thumbnail":"https://perenual.com/storage/species_image/2_abies_alba_pyramidalis/thumbnail/49255769768_df55596553_b.jpg"}},{"id":1037,"common_name":"walking spleenwort","scientific_name":["Asplenium ebenoides"],"other_name":null,"cycle":"Perennial","watering":"Average","sunlight":["Part shade","full shade"],"default_image":{"image_id":20998,"license":5,"license_name":null,"license_url":null,"original_url":"https://perenual.com/storage/species_image/1037_asplenium_ebenoides/og/4991032969_910e731977_z.jpg","regular_url":"https://perenual.com/storage/species_image/1037_asplenium_ebenoides/regular/4991032969_910e731977_z.jpg","medium_url":"https://perenual.com/storage/species_image/1037_asplenium_ebenoides/medium/4991032969_910e731977_z.jpg","small_url":"https://perenual.com/storage/species_image/1037_asplenium_ebenoides/small/4991032969_910e731977_z.jpg","thumbnail":"https://perenual.com/storage/species_image/1037_asplenium_ebenoides/thumbnail/4991032969_910e731977_z.jpg"}},{"id":1038,"common_name":"bird's nest fern","scientific_name":["Asplenium nidus 'Antiquum'"],"other_name":null,"cycle":"Perennial","watering":"Frequent","sunlight":[],"default_image":{"image_id":2507,"license":4,"license_name":"Attribution License","license_url":"https://creativecommons.org/licenses/by/2.0/","original_url":"https://perenual.com/storage/species_image/1038_asplenium_nidus_antiquum/og/29457334967_82a2d8789c_b.jpg","regular_url":"https://perenual.com/storage/species_image/1038_asplenium_nidus_antiquum/regular/29457334967_82a2d8789c_b.jpg","medium_url":"https://perenual.com/storage/species_image/1038_asplenium_nidus_antiquum/medium/29457334967_82a2d8789c_b.jpg","small_url":"https://perenual.com/storage/species_image/1038_asplenium_nidus_antiquum/small/29457334967_82a2d8789c_b.jpg","thumbnail":"https://perenual.com/storage/species_image/1038_asplenium_nidus_antiquum/thumbnail/29457334967_82a2d8789c_b.jpg"}},{"id":1039,"common_name":"ebony spleenwort","scientific_name":["Asplenium platyneuron"],"other_name":null,"cycle":"Perennial","watering":"Minimum","sunlight":["Partial Shade"," Shade"],"default_image":{"image_id":2510,"license":4,"license_name":"Attribution License","license_url":"https://creativecommons.org/licenses/by/2.0/","original_url":"https://perenual.com/storage/species_image/1039_asplenium_platyneuron/og/52117887278_1388a4ee0a_b.jpg","regular_url":"https://perenual.com/storage/species_image/1039_asplenium_platyneuron/regular/52117887278_1388a4ee0a_b.jpg","medium_url":"https://perenual.com/storage/species_image/1039_asplenium_platyneuron/medium/52117887278_1388a4ee0a_b.jpg","small_url":"https://perenual.com/storage/species_image/1039_asplenium_platyneuron/small/52117887278_1388a4ee0a_b.jpg","thumbnail":"https://perenual.com/storage/species_image/1039_asplenium_platyneuron/thumbnail/52117887278_1388a4ee0a_b.jpg"}},{"id":1040,"common_name":"hart's tongue fern","scientific_name":["Asplenium scolopendrium"],"other_name":null,"cycle":"Perennial","watering":"Average","sunlight":["Deep shade"," Filtered shade"," Full sun"," Part sun/part shade"],"default_image":{"image_id":2517,"license":4,"license_name":"Attribution License","license_url":"https://creativecommons.org/licenses/by/2.0/","original_url":"https://perenual.com/storage/species_image/1042_asplenium_scolopendrium_undulatum_group/og/35131361740_d7dc5930c1_b.jpg","regular_url":"https://perenual.com/storage/species_image/1042_asplenium_scolopendrium_undulatum_group/regular/35131361740_d7dc5930c1_b.jpg","medium_url":"https://perenual.com/storage/species_image/1042_asplenium_scolopendrium_undulatum_group/medium/35131361740_d7dc5930c1_b.jpg","small_url":"https://perenual.com/storage/species_image/1042_asplenium_scolopendrium_undulatum_group/small/35131361740_d7dc5930c1_b.jpg","thumbnail":"https://perenual.com/storage/species_image/1042_asplenium_scolopendrium_undulatum_group/thumbnail/35131361740_d7dc5930c1_b.jpg"}},{"id":1041,"common_name":"hart's tongue fern","scientific_name":["Asplenium scolopendrium (Crispum Group)"],"other_name":null,"cycle":"Perennial","watering":"Average","sunlight":["Deep shade"," Filtered shade"," Full sun"," Part sun/part shade"],"default_image":{"image_id":2519,"license":4,"license_name":"Attribution License","license_url":"https://creativecommons.org/licenses/by/2.0/","original_url":"https://perenual.com/storage/species_image/1042_asplenium_scolopendrium_undulatum_group/og/51173252594_82e874318c_b.jpg","regular_url":"https://perenual.com/storage/species_image/1042_asplenium_scolopendrium_undulatum_group/regular/51173252594_82e874318c_b.jpg","medium_url":"https://perenual.com/storage/species_image/1042_asplenium_scolopendrium_undulatum_group/medium/51173252594_82e874318c_b.jpg","small_url":"https://perenual.com/storage/species_image/1042_asplenium_scolopendrium_undulatum_group/small/51173252594_82e874318c_b.jpg","thumbnail":"https://perenual.com/storage/species_image/1042_asplenium_scolopendrium_undulatum_group/thumbnail/51173252594_82e874318c_b.jpg"}},{"id":1042,"common_name":"hart's tongue fern","scientific_name":["Asplenium scolopendrium (Undulatum Group)"],"other_name":null,"cycle":"Perennial","watering":"Average","sunlight":["Deep shade"," Filtered shade"," Full sun"," Part sun/part shade"],"default_image":{"image_id":2519,"license":4,"license_name":"Attribution License","license_url":"https://creativecommons.org/licenses/by/2.0/","original_url":"https://perenual.com/storage/species_image/1042_asplenium_scolopendrium_undulatum_group/og/51173252594_82e874318c_b.jpg","regular_url":"https://perenual.com/storage/species_image/1042_asplenium_scolopendrium_undulatum_group/regular/51173252594_82e874318c_b.jpg","medium_url":"https://perenual.com/storage/species_image/1042_asplenium_scolopendrium_undulatum_group/medium/51173252594_82e874318c_b.jpg","small_url":"https://perenual.com/storage/species_image/1042_asplenium_scolopendrium_undulatum_group/small/51173252594_82e874318c_b.jpg","thumbnail":"https://perenual.com/storage/species_image/1042_asplenium_scolopendrium_undulatum_group/thumbnail/51173252594_82e874318c_b.jpg"}},{"id":1043,"common_name":"maidenhair spleenwort","scientific_name":["Asplenium trichomanes"],"other_name":null,"cycle":"Perennial","watering":"Average","sunlight":["Part shade","full shade"],"default_image":{"image_id":9,"license":5,"license_name":"Attribution-ShareAlike License","license_url":"https://creativecommons.org/licenses/by-sa/2.0/","original_url":"https://perenual.com/storage/species_image/2_abies_alba_pyramidalis/og/49255769768_df55596553_b.jpg","regular_url":"https://perenual.com/storage/species_image/2_abies_alba_pyramidalis/regular/49255769768_df55596553_b.jpg","medium_url":"https://perenual.com/storage/species_image/2_abies_alba_pyramidalis/medium/49255769768_df55596553_b.jpg","small_url":"https://perenual.com/storage/species_image/2_abies_alba_pyramidalis/small/49255769768_df55596553_b.jpg","thumbnail":"https://perenual.com/storage/species_image/2_abies_alba_pyramidalis/thumbnail/49255769768_df55596553_b.jpg"}},{"id":1044,"common_name":"Italian aster","scientific_name":["Aster amellus 'Veilchenkönigin' VIOLET QUEEN"],"other_name":null,"cycle":"Perennial","watering":"Average","sunlight":["Full sun"],"default_image":{"image_id":9,"license":5,"license_name":"Attribution-ShareAlike License","license_url":"https://creativecommons.org/licenses/by-sa/2.0/","original_url":"https://perenual.com/storage/species_image/2_abies_alba_pyramidalis/og/49255769768_df55596553_b.jpg","regular_url":"https://perenual.com/storage/species_image/2_abies_alba_pyramidalis/regular/49255769768_df55596553_b.jpg","medium_url":"https://perenual.com/storage/species_image/2_abies_alba_pyramidalis/medium/49255769768_df55596553_b.jpg","small_url":"https://perenual.com/storage/species_image/2_abies_alba_pyramidalis/small/49255769768_df55596553_b.jpg","thumbnail":"https://perenual.com/storage/species_image/2_abies_alba_pyramidalis/thumbnail/49255769768_df55596553_b.jpg"}},{"id":1045,"common_name":"michaelmas daisy","scientific_name":["Aster 'Celeste'"],"other_name":null,"cycle":"Perennial","watering":"Average","sunlight":["Full sun"],"default_image":{"image_id":9,"license":5,"license_name":"Attribution-ShareAlike License","license_url":"https://creativecommons.org/licenses/by-sa/2.0/","original_url":"https://perenual.com/storage/species_image/2_abies_alba_pyramidalis/og/49255769768_df55596553_b.jpg","regular_url":"https://perenual.com/storage/species_image/2_abies_alba_pyramidalis/regular/49255769768_df55596553_b.jpg","medium_url":"https://perenual.com/storage/species_image/2_abies_alba_pyramidalis/medium/49255769768_df55596553_b.jpg","small_url":"https://perenual.com/storage/species_image/2_abies_alba_pyramidalis/small/49255769768_df55596553_b.jpg","thumbnail":"https://perenual.com/storage/species_image/2_abies_alba_pyramidalis/thumbnail/49255769768_df55596553_b.jpg"}},{"id":1046,"common_name":"aster","scientific_name":["Aster frikartii 'Flora's Delight'"],"other_name":null,"cycle":"Perennial","watering":"Average","sunlight":["Full sun","part shade"],"default_image":{"image_id":9,"license":5,"license_name":"Attribution-ShareAlike License","license_url":"https://creativecommons.org/licenses/by-sa/2.0/","original_url":"https://perenual.com/storage/species_image/2_abies_alba_pyramidalis/og/49255769768_df55596553_b.jpg","regular_url":"https://perenual.com/storage/species_image/2_abies_alba_pyramidalis/regular/49255769768_df55596553_b.jpg","medium_url":"https://perenual.com/storage/species_image/2_abies_alba_pyramidalis/medium/49255769768_df55596553_b.jpg","small_url":"https://perenual.com/storage/species_image/2_abies_alba_pyramidalis/small/49255769768_df55596553_b.jpg","thumbnail":"https://perenual.com/storage/species_image/2_abies_alba_pyramidalis/thumbnail/49255769768_df55596553_b.jpg"}},{"id":1047,"common_name":"aster","scientific_name":["Aster frikartii 'Jungfrau'"],"other_name":null,"cycle":"Perennial","watering":"Average","sunlight":["Full sun","part shade"],"default_image":{"image_id":2527,"license":4,"license_name":"Attribution License","license_url":"https://creativecommons.org/licenses/by/2.0/","original_url":"https://perenual.com/storage/species_image/1047_aster_frikartii_jungfrau/og/52507829377_f521fff932_b.jpg","regular_url":"https://perenual.com/storage/species_image/1047_aster_frikartii_jungfrau/regular/52507829377_f521fff932_b.jpg","medium_url":"https://perenual.com/storage/species_image/1047_aster_frikartii_jungfrau/medium/52507829377_f521fff932_b.jpg","small_url":"https://perenual.com/storage/species_image/1047_aster_frikartii_jungfrau/small/52507829377_f521fff932_b.jpg","thumbnail":"https://perenual.com/storage/species_image/1047_aster_frikartii_jungfrau/thumbnail/52507829377_f521fff932_b.jpg"}},{"id":1048,"common_name":"aster","scientific_name":["Aster frikartii 'Monch'"],"other_name":null,"cycle":"Perennial","watering":"Average","sunlight":["Full sun","part shade"],"default_image":{"image_id":2529,"license":4,"license_name":"Attribution License","license_url":"https://creativecommons.org/licenses/by/2.0/","original_url":"https://perenual.com/storage/species_image/8500_aster_x_frikartii_monch/og/30640639764_7f78bbdce6_b.jpg","regular_url":"https://perenual.com/storage/species_image/8500_aster_x_frikartii_monch/regular/30640639764_7f78bbdce6_b.jpg","medium_url":"https://perenual.com/storage/species_image/8500_aster_x_frikartii_monch/medium/30640639764_7f78bbdce6_b.jpg","small_url":"https://perenual.com/storage/species_image/8500_aster_x_frikartii_monch/small/30640639764_7f78bbdce6_b.jpg","thumbnail":"https://perenual.com/storage/species_image/8500_aster_x_frikartii_monch/thumbnail/30640639764_7f78bbdce6_b.jpg"}},{"id":1049,"common_name":"aster","scientific_name":["Aster frikartii 'Wunder von Stafa'"],"other_name":null,"cycle":"Perennial","watering":"Average","sunlight":["Full sun","part shade"],"default_image":{"image_id":2535,"license":5,"license_name":"Attribution-ShareAlike License","license_url":"https://creativecommons.org/licenses/by-sa/2.0/","original_url":"https://perenual.com/storage/species_image/4562_kalimeris_mongolica/og/52607416463_b69975d63a_b.jpg","regular_url":"https://perenual.com/storage/species_image/4562_kalimeris_mongolica/regular/52607416463_b69975d63a_b.jpg","medium_url":"https://perenual.com/storage/species_image/4562_kalimeris_mongolica/medium/52607416463_b69975d63a_b.jpg","small_url":"https://perenual.com/storage/species_image/4562_kalimeris_mongolica/small/52607416463_b69975d63a_b.jpg","thumbnail":"https://perenual.com/storage/species_image/4562_kalimeris_mongolica/thumbnail/52607416463_b69975d63a_b.jpg"}},{"id":1050,"common_name":"aster","scientific_name":["Aster 'Little Carlow'"],"other_name":null,"cycle":"Perennial","watering":"Average","sunlight":["Full sun"],"default_image":{"image_id":2536,"license":4,"license_name":"Attribution License","license_url":"https://creativecommons.org/licenses/by/2.0/","original_url":"https://perenual.com/storage/species_image/1050_aster_little_carlow/og/49748669603_2bc9ccaa9c_b.jpg","regular_url":"https://perenual.com/storage/species_image/1050_aster_little_carlow/regular/49748669603_2bc9ccaa9c_b.jpg","medium_url":"https://perenual.com/storage/species_image/1050_aster_little_carlow/medium/49748669603_2bc9ccaa9c_b.jpg","small_url":"https://perenual.com/storage/species_image/1050_aster_little_carlow/small/49748669603_2bc9ccaa9c_b.jpg","thumbnail":"https://perenual.com/storage/species_image/1050_aster_little_carlow/thumbnail/49748669603_2bc9ccaa9c_b.jpg"}}],"to":1050,"per_page":30,"current_page":35,"from":1021,"last_page":200,"total":6000}