{"data":[{"id":661,"common_name":"northern water plantain","scientific_name":["Alisma triviale"],"other_name":["Water Plantain"],"cycle":"Perennial","watering":"Frequent","sunlight":["Full sun Partial sun"],"default_image":{"image_id":1437,"license":6,"license_name":"Attribution-NoDerivs License","license_url":"https://creativecommons.org/licenses/by-nd/2.0/","original_url":"https://perenual.com/storage/species_image/661_alisma_triviale/og/48516632562_3366929100_b.jpg"}},{"id":662,"common_name":"bush allamanda","scientific_name":["Allamanda schottii"],"other_name":null,"cycle":"Perennial","watering":"Average","sunlight":["Full sun"],"default_image":{"image_id":1441,"license":5,"license_name":"Attribution-ShareAlike License","license_url":"https://creativecommons.org/licenses/by-sa/2.0/","original_url":"https://perenual.com/storage/species_image/662_allamanda_schottii/og/46903965462_bb70dc339e_b.jpg","regular_url":"https://perenual.com/storage/species_image/662_allamanda_schottii/regular/46903965462_bb70dc339e_b.jpg","medium_url":"https://perenual.com/storage/species_image/662_allamanda_schottii/medium/46903965462_bb70dc339e_b.jpg","small_url":"https://perenual.com/storage/species_image/662_allamanda_schottii/small/46903965462_bb70dc339e_b.jpg","thumbnail":"https://perenual.com/storage/species_image/662_allamanda_schottii/thumbnail/46903965462_bb70dc339e_b.jpg"}},{"id":663,"common_name":"onion","scientific_name":["Allium altaicum"],"other_name":null,"cycle":"Perennial","watering":"Average","sunlight":["Full sun"],"default_image":{"image_id":9,"license":5,"license_name":"Attribution-ShareAlike License","license_url":"https://creativecommons.org/licenses/by-sa/2.0/","original_url":"https://perenual.com/storage/species_image/2_abies_alba_pyramidalis/og/49255769768_df55596553_b.jpg","regular_url":"https://perenual.com/storage/species_image/2_abies_alba_pyramidalis/regular/49255769768_df55596553_b.jpg","medium_url":"https://perenual.com/storage/species_image/2_abies_alba_pyramidalis/medium/49255769768_df55596553_b.jpg","small_url":"https://perenual.com/storage/species_image/2_abies_alba_pyramidalis/small/49255769768_df55596553_b.jpg","thumbnail":"https://perenual.com/storage/species_image/2_abies_alba_pyramidalis/thumbnail/49255769768_df55596553_b.jpg"}},{"id":664,"common_name":"ornamental onion","scientific_name":["Allium 'Ambassador'"],"other_name":null,"cycle":"Perennial","watering":"Minimum","sunlight":["Full sun"],"default_image":{"image_id":9,"license":5,"license_name":"Attribution-ShareAlike License","license_url":"https://creativecommons.org/licenses/by-sa/2.0/","original_url":"https://perenual.com/storage/species_image/2_abies_alba_pyramidalis/og/49255769768_df55596553_b.jpg","regular_url":"https://perenual.com/storage/species_image/2_abies_alba_pyramidalis/regular/49255769768_df55596553_b.jpg","medium_url":"https://perenual.com/storage/species_image/2_abies_alba_pyramidalis/medium/49255769768_df55596553_b.jpg","small_url":"https://perenual.com/storage/species_image/2_abies_alba_pyramidalis/small/49255769768_df55596553_b.jpg","thumbnail":"https://perenual.com/storage/species_image/2_abies_alba_pyramidalis/thumbnail/49255769768_df55596553_b.jpg"}},{"id":665,"common_name":"leek","scientific_name":["Allium ampeloprasum"],"other_name":null,"cycle":"Perennial","watering":"Average","sunlight":[],"default_image":{"image_id":9,"license":5,"license_name":"Attribution-ShareAlike License","license_url":"https://creativecommons.org/licenses/by-sa/2.0/","original_url":"https://perenual.com/storage/species_image/2_abies_alba_pyramidalis/og/49255769768_df55596553_b.jpg","regular_url":"https://perenual.com/storage/species_image/2_abies_alba_pyramidalis/regular/49255769768_df55596553_b.jpg","medium_url":"https://perenual.com/storage/species_image/2_abies_alba_pyramidalis/medium/49255769768_df55596553_b.jpg","small_url":"https://perenual.com/storage/species_image/2_abies_alba_pyramidalis/small/49255769768_df55596553_b.jpg","thumbnail":"https://perenual.com/storage/species_image/2_abies_alba_pyramidalis/thumbnail/49255769768_df55596553_b.jpg"}},{"id":666,"common_name":"wild leek","scientific_name":["Allium babingtonii"],"other_name":null,"cycle":"Perennial","watering":"Average","sunlight":["Full sun"],"default_image":{"image_id":9,"license":5,"license_name":"Attribution-ShareAlike License","license_url":"https://creativecommons.org/licenses/by-sa/2.0/","original_url":"https://perenual.com/storage/species_image/2_abies_alba_pyramidalis/og/49255769768_df55596553_b.jpg","regular_url":"https://perenual.com/storage/species_image/2_abies_alba_pyramidalis/regular/49255769768_df55596553_b.jpg","medium_url":"https://perenual.com/storage/species_image/2_abies_alba_pyramidalis/medium/49255769768_df55596553_b.jpg","small_url":"https://perenual.com/storage/species_image/2_abies_alba_pyramidalis/small/49255769768_df55596553_b.jpg","thumbnail":"https://perenual.com/storage/species_image/2_abies_alba_pyramidalis/thumbnail/49255769768_df55596553_b.jpg"}},{"id":667,"common_name":"onion","scientific_name":["Allium cepa"],"other_name":["spring onion","shallot"],"cycle":"Perennial","watering":"Minimum","sunlight":["Full sun"],"default_image":{"image_id":1458,"license":4,"license_name":"Attribution License","license_url":"https://creativecommons.org/licenses/by/2.0/","original_url":"https://perenual.com/storage/species_image/667_allium_cepa/og/24466615444_a161c175d3_b.jpg","regular_url":"https://perenual.com/storage/species_image/667_allium_cepa/regular/24466615444_a161c175d3_b.jpg","medium_url":"https://perenual.com/storage/species_image/667_allium_cepa/medium/24466615444_a161c175d3_b.jpg","small_url":"https://perenual.com/storage/species_image/667_allium_cepa/small/24466615444_a161c175d3_b.jpg","thumbnail":"https://perenual.com/storage/species_image/667_allium_cepa/thumbnail/24466615444_a161c175d3_b.jpg"}},{"id":668,"common_name":"nodding onion","scientific_name":["Allium cernuum"],"other_name":null,"cycle":"Perennial","watering":"Minimum","sunlight":["Sun"],"default_image":{"image_id":1461,"license":4,"license_name":"Attribution License","license_url":"https://creativecommons.org/licenses/by/2.0/","original_url":"https://perenual.com/storage/species_image/668_allium_cernuum/og/52520397273_a3366abb1a_b.jpg","regular_url":"https://perenual.com/storage/species_image/668_allium_cernuum/regular/52520397273_a3366abb1a_b.jpg","medium_url":"https://perenual.com/storage/species_image/668_allium_cernuum/medium/52520397273_a3366abb1a_b.jpg","small_url":"https://perenual.com/storage/species_image/668_allium_cernuum/small/52520397273_a3366abb1a_b.jpg","thumbnail":"https://perenual.com/storage/species_image/668_allium_cernuum/thumbnail/52520397273_a3366abb1a_b.jpg"}},{"id":669,"common_name":"chives","scientific_name":["Allium 'Chivette'"],"other_name":null,"cycle":"Perennial","watering":"Average","sunlight":["Full sun","part shade"],"default_image":{"image_id":21195,"license":451,"license_name":"CC0 1.0 Universal (CC0 1.0) Public Domain Dedication","license_url":"https://creativecommons.org/publicdomain/zero/1.0/","original_url":"https://perenual.com/storage/species_image/669_allium_chivette/og/pexels-photo-8332487.jpg","regular_url":"https://perenual.com/storage/species_image/669_allium_chivette/regular/pexels-photo-8332487.jpg","medium_url":"https://perenual.com/storage/species_image/669_allium_chivette/medium/pexels-photo-8332487.jpg","small_url":"https://perenual.com/storage/species_image/669_allium_chivette/small/pexels-photo-8332487.jpg","thumbnail":"https://perenual.com/storage/species_image/669_allium_chivette/thumbnail/pexels-photo-8332487.jpg"}},{"id":670,"common_name":"star of Persia","scientific_name":["Allium cristophii"],"other_name":null,"cycle":"Perennial","watering":"Minimum","sunlight":["Full sun"],"default_image":{"image_id":1466,"license":6,"license_name":"Attribution-NoDerivs License","license_url":"https://creativecommons.org/licenses/by-nd/2.0/","original_url":"https://perenual.com/storage/species_image/670_allium_cristophii/og/17713493889_de7ca1604d_b.jpg"}},{"id":671,"common_name":"scallion","scientific_name":["Allium fistulosum"],"other_name":["Welsh onion","Japanese bunching onion","Japanese bunching onion"],"cycle":"Perennial","watering":"Average","sunlight":[],"default_image":{"image_id":1474,"license":4,"license_name":"Attribution License","license_url":"https://creativecommons.org/licenses/by/2.0/","original_url":"https://perenual.com/storage/species_image/671_allium_fistulosum/og/25082567665_7c36a69c15_b.jpg","regular_url":"https://perenual.com/storage/species_image/671_allium_fistulosum/regular/25082567665_7c36a69c15_b.jpg","medium_url":"https://perenual.com/storage/species_image/671_allium_fistulosum/medium/25082567665_7c36a69c15_b.jpg","small_url":"https://perenual.com/storage/species_image/671_allium_fistulosum/small/25082567665_7c36a69c15_b.jpg","thumbnail":"https://perenual.com/storage/species_image/671_allium_fistulosum/thumbnail/25082567665_7c36a69c15_b.jpg"}},{"id":672,"common_name":"ornamental onion","scientific_name":["Allium 'Forelock'"],"other_name":null,"cycle":"Perennial","watering":"Minimum","sunlight":["Full sun"],"default_image":{"image_id":9,"license":5,"license_name":"Attribution-ShareAlike License","license_url":"https://creativecommons.org/licenses/by-sa/2.0/","original_url":"https://perenual.com/storage/species_image/2_abies_alba_pyramidalis/og/49255769768_df55596553_b.jpg","regular_url":"https://perenual.com/storage/species_image/2_abies_alba_pyramidalis/regular/49255769768_df55596553_b.jpg","medium_url":"https://perenual.com/storage/species_image/2_abies_alba_pyramidalis/medium/49255769768_df55596553_b.jpg","small_url":"https://perenual.com/storage/species_image/2_abies_alba_pyramidalis/small/49255769768_df55596553_b.jpg","thumbnail":"https://perenual.com/storage/species_image/2_abies_alba_pyramidalis/thumbnail/49255769768_df55596553_b.jpg"}},{"id":673,"common_name":"ornamental onion","scientific_name":["Allium 'Globemaster'"],"other_name":null,"cycle":"Perennial","watering":"Minimum","sunlight":["Full sun"],"default_image":{"image_id":1477,"license":5,"license_name":"Attribution-ShareAlike License","license_url":"https://creativecommons.org/licenses/by-sa/2.0/","original_url":"https://perenual.com/storage/species_image/673_allium_globemaster/og/52086870581_256c261e14_b.jpg","regular_url":"https://perenual.com/storage/species_image/673_allium_globemaster/regular/52086870581_256c261e14_b.jpg","medium_url":"https://perenual.com/storage/species_image/673_allium_globemaster/medium/52086870581_256c261e14_b.jpg","small_url":"https://perenual.com/storage/species_image/673_allium_globemaster/small/52086870581_256c261e14_b.jpg","thumbnail":"https://perenual.com/storage/species_image/673_allium_globemaster/thumbnail/52086870581_256c261e14_b.jpg"}},{"id":674,"common_name":"Hooker's onion","scientific_name":["Allium hookeri var. muliense"],"other_name":null,"cycle":"Perennial","watering":"Frequent","sunlight":["Full sun","part shade"],"default_image":{"image_id":21196,"license":45,"license_name":"Attribution-ShareAlike 3.0 Unported (CC BY-SA 3.0)","license_url":"https://creativecommons.org/licenses/by-sa/3.0/deed.en","original_url":"https://perenual.com/storage/species_image/674_allium_hookeri_var_muliense/og/Allium_hookeri_var._muliense.jpg","regular_url":"https://perenual.com/storage/species_image/674_allium_hookeri_var_muliense/regular/Allium_hookeri_var._muliense.jpg","medium_url":"https://perenual.com/storage/species_image/674_allium_hookeri_var_muliense/medium/Allium_hookeri_var._muliense.jpg","small_url":"https://perenual.com/storage/species_image/674_allium_hookeri_var_muliense/small/Allium_hookeri_var._muliense.jpg","thumbnail":"https://perenual.com/storage/species_image/674_allium_hookeri_var_muliense/thumbnail/Allium_hookeri_var._muliense.jpg"}},{"id":675,"common_name":"ornamental onion","scientific_name":["Allium karataviense"],"other_name":null,"cycle":"Perennial","watering":"Minimum","sunlight":["Full sun"],"default_image":{"image_id":1485,"license":5,"license_name":"Attribution-ShareAlike License","license_url":"https://creativecommons.org/licenses/by-sa/2.0/","original_url":"https://perenual.com/storage/species_image/675_allium_karataviense/og/27838217802_ea1b2fd173_b.jpg","regular_url":"https://perenual.com/storage/species_image/675_allium_karataviense/regular/27838217802_ea1b2fd173_b.jpg","medium_url":"https://perenual.com/storage/species_image/675_allium_karataviense/medium/27838217802_ea1b2fd173_b.jpg","small_url":"https://perenual.com/storage/species_image/675_allium_karataviense/small/27838217802_ea1b2fd173_b.jpg","thumbnail":"https://perenual.com/storage/species_image/675_allium_karataviense/thumbnail/27838217802_ea1b2fd173_b.jpg"}},{"id":676,"common_name":"allium","scientific_name":["Allium kunthianum"],"other_name":null,"cycle":"Perennial","watering":"Minimum","sunlight":["Full sun"],"default_image":{"image_id":9,"license":5,"license_name":"Attribution-ShareAlike License","license_url":"https://creativecommons.org/licenses/by-sa/2.0/","original_url":"https://perenual.com/storage/species_image/2_abies_alba_pyramidalis/og/49255769768_df55596553_b.jpg","regular_url":"https://perenual.com/storage/species_image/2_abies_alba_pyramidalis/regular/49255769768_df55596553_b.jpg","medium_url":"https://perenual.com/storage/species_image/2_abies_alba_pyramidalis/medium/49255769768_df55596553_b.jpg","small_url":"https://perenual.com/storage/species_image/2_abies_alba_pyramidalis/small/49255769768_df55596553_b.jpg","thumbnail":"https://perenual.com/storage/species_image/2_abies_alba_pyramidalis/thumbnail/49255769768_df55596553_b.jpg"}},{"id":677,"common_name":"ornamental onion","scientific_name":["Allium 'Lavender Bubbles'"],"other_name":null,"cycle":"Perennial","watering":"Minimum","sunlight":["Full sun","part shade"],"default_image":{"image_id":9,"license":5,"license_name":"Attribution-ShareAlike License","license_url":"https://creativecommons.org/licenses/by-sa/2.0/","original_url":"https://perenual.com/storage/species_image/2_abies_alba_pyramidalis/og/49255769768_df55596553_b.jpg","regular_url":"https://perenual.com/storage/species_image/2_abies_alba_pyramidalis/regular/49255769768_df55596553_b.jpg","medium_url":"https://perenual.com/storage/species_image/2_abies_alba_pyramidalis/medium/49255769768_df55596553_b.jpg","small_url":"https://perenual.com/storage/species_image/2_abies_alba_pyramidalis/small/49255769768_df55596553_b.jpg","thumbnail":"https://perenual.com/storage/species_image/2_abies_alba_pyramidalis/thumbnail/49255769768_df55596553_b.jpg"}},{"id":678,"common_name":"German garlic","scientific_name":["Allium lusitanicum"],"other_name":null,"cycle":"Perennial","watering":"Minimum","sunlight":["Full sun","part shade"],"default_image":{"image_id":1491,"license":5,"license_name":"Attribution-ShareAlike License","license_url":"https://creativecommons.org/licenses/by-sa/2.0/","original_url":"https://perenual.com/storage/species_image/678_allium_lusitanicum/og/52284274607_40b7c8241e_b.jpg","regular_url":"https://perenual.com/storage/species_image/678_allium_lusitanicum/regular/52284274607_40b7c8241e_b.jpg","medium_url":"https://perenual.com/storage/species_image/678_allium_lusitanicum/medium/52284274607_40b7c8241e_b.jpg","small_url":"https://perenual.com/storage/species_image/678_allium_lusitanicum/small/52284274607_40b7c8241e_b.jpg","thumbnail":"https://perenual.com/storage/species_image/678_allium_lusitanicum/thumbnail/52284274607_40b7c8241e_b.jpg"}},{"id":679,"common_name":"ornamental onion","scientific_name":["Allium 'Millenium'"],"other_name":null,"cycle":"Perennial","watering":"Minimum","sunlight":["Full sun","part shade"],"default_image":{"image_id":1495,"license":5,"license_name":"Attribution-ShareAlike License","license_url":"https://creativecommons.org/licenses/by-sa/2.0/","original_url":"https://perenual.com/storage/species_image/692_allium_serendipity/og/52265227333_7085ef5c9f_b.jpg","regular_url":"https://perenual.com/storage/species_image/692_allium_serendipity/regular/52265227333_7085ef5c9f_b.jpg","medium_url":"https://perenual.com/storage/species_image/692_allium_serendipity/medium/52265227333_7085ef5c9f_b.jpg","small_url":"https://perenual.com/storage/species_image/692_allium_serendipity/small/52265227333_7085ef5c9f_b.jpg","thumbnail":"https://perenual.com/storage/species_image/692_allium_serendipity/thumbnail/52265227333_7085ef5c9f_b.jpg"}},{"id":680,"common_name":"golden garlic","scientific_name":["Allium moly"],"other_name":null,"cycle":"Perennial","watering":"Average","sunlight":["Full sun"],"default_image":{"image_id":1500,"license":6,"license_name":"Attribution-NoDerivs License","license_url":"https://creativecommons.org/licenses/by-nd/2.0/","original_url":"https://perenual.com/storage/species_image/680_allium_moly/og/50075615478_d6f19a7e42_b.jpg"}},{"id":681,"common_name":"ornamental onion","scientific_name":["Allium 'Purple Sensation'"],"other_name":null,"cycle":"Perennial","watering":"Minimum","sunlight":["Full sun","part shade"],"default_image":{"image_id":1504,"license":5,"license_name":"Attribution-ShareAlike License","license_url":"https://creativecommons.org/licenses/by-sa/2.0/","original_url":"https://perenual.com/storage/species_image/681_allium_purple_sensation/og/52094660963_e58708ba0c_b.jpg","regular_url":"https://perenual.com/storage/species_image/681_allium_purple_sensation/regular/52094660963_e58708ba0c_b.jpg","medium_url":"https://perenual.com/storage/species_image/681_allium_purple_sensation/medium/52094660963_e58708ba0c_b.jpg","small_url":"https://perenual.com/storage/species_image/681_allium_purple_sensation/small/52094660963_e58708ba0c_b.jpg","thumbnail":"https://perenual.com/storage/species_image/681_allium_purple_sensation/thumbnail/52094660963_e58708ba0c_b.jpg"}},{"id":682,"common_name":"garlic","scientific_name":["Allium sativum 'Inchelium Red'"],"other_name":null,"cycle":"Perennial","watering":"Average","sunlight":[],"default_image":{"image_id":21198,"license":5,"license_name":"Attribution-ShareAlike License","license_url":"https://creativecommons.org/licenses/by-sa/2.0/","original_url":"https://perenual.com/storage/species_image/682_allium_sativum_inchelium_red/og/11301560876_8e5813f1a9_b.jpg","regular_url":"https://perenual.com/storage/species_image/682_allium_sativum_inchelium_red/regular/11301560876_8e5813f1a9_b.jpg","medium_url":"https://perenual.com/storage/species_image/682_allium_sativum_inchelium_red/medium/11301560876_8e5813f1a9_b.jpg","small_url":"https://perenual.com/storage/species_image/682_allium_sativum_inchelium_red/small/11301560876_8e5813f1a9_b.jpg","thumbnail":"https://perenual.com/storage/species_image/682_allium_sativum_inchelium_red/thumbnail/11301560876_8e5813f1a9_b.jpg"}},{"id":683,"common_name":"garlic","scientific_name":["Allium sativum 'Music'"],"other_name":null,"cycle":"Perennial","watering":"Average","sunlight":[],"default_image":{"image_id":1515,"license":4,"license_name":"Attribution License","license_url":"https://creativecommons.org/licenses/by/2.0/","original_url":"https://perenual.com/storage/species_image/683_allium_sativum_music/og/52585999934_4393704522_b.jpg","regular_url":"https://perenual.com/storage/species_image/683_allium_sativum_music/regular/52585999934_4393704522_b.jpg","medium_url":"https://perenual.com/storage/species_image/683_allium_sativum_music/medium/52585999934_4393704522_b.jpg","small_url":"https://perenual.com/storage/species_image/683_allium_sativum_music/small/52585999934_4393704522_b.jpg","thumbnail":"https://perenual.com/storage/species_image/683_allium_sativum_music/thumbnail/52585999934_4393704522_b.jpg"}},{"id":684,"common_name":"garlic","scientific_name":["Allium sativum 'Spanish Roja'"],"other_name":null,"cycle":"Perennial","watering":"Average","sunlight":[],"default_image":{"image_id":21199,"license":451,"license_name":"CC0 1.0 Universal (CC0 1.0) Public Domain Dedication","license_url":"https://creativecommons.org/publicdomain/zero/1.0/","original_url":"https://perenual.com/storage/species_image/684_allium_sativum_spanish_roja/og/garlic_tuber_frisch_spice_food_mediterranean_healthy_smell-528638.jpg","regular_url":"https://perenual.com/storage/species_image/684_allium_sativum_spanish_roja/regular/garlic_tuber_frisch_spice_food_mediterranean_healthy_smell-528638.jpg","medium_url":"https://perenual.com/storage/species_image/684_allium_sativum_spanish_roja/medium/garlic_tuber_frisch_spice_food_mediterranean_healthy_smell-528638.jpg","small_url":"https://perenual.com/storage/species_image/684_allium_sativum_spanish_roja/small/garlic_tuber_frisch_spice_food_mediterranean_healthy_smell-528638.jpg","thumbnail":"https://perenual.com/storage/species_image/684_allium_sativum_spanish_roja/thumbnail/garlic_tuber_frisch_spice_food_mediterranean_healthy_smell-528638.jpg"}},{"id":685,"common_name":"chives","scientific_name":["Allium schoenoprasum"],"other_name":null,"cycle":"Perennial","watering":"Average","sunlight":[],"default_image":{"image_id":1519,"license":5,"license_name":"Attribution-ShareAlike License","license_url":"https://creativecommons.org/licenses/by-sa/2.0/","original_url":"https://perenual.com/storage/species_image/685_allium_schoenoprasum/og/52051352635_47e6334d92_b.jpg","regular_url":"https://perenual.com/storage/species_image/685_allium_schoenoprasum/regular/52051352635_47e6334d92_b.jpg","medium_url":"https://perenual.com/storage/species_image/685_allium_schoenoprasum/medium/52051352635_47e6334d92_b.jpg","small_url":"https://perenual.com/storage/species_image/685_allium_schoenoprasum/small/52051352635_47e6334d92_b.jpg","thumbnail":"https://perenual.com/storage/species_image/685_allium_schoenoprasum/thumbnail/52051352635_47e6334d92_b.jpg"}},{"id":686,"common_name":"chives","scientific_name":["Allium schoenoprasum 'Snowcap'"],"other_name":null,"cycle":"Perennial","watering":"Average","sunlight":[],"default_image":{"image_id":9,"license":5,"license_name":"Attribution-ShareAlike License","license_url":"https://creativecommons.org/licenses/by-sa/2.0/","original_url":"https://perenual.com/storage/species_image/2_abies_alba_pyramidalis/og/49255769768_df55596553_b.jpg","regular_url":"https://perenual.com/storage/species_image/2_abies_alba_pyramidalis/regular/49255769768_df55596553_b.jpg","medium_url":"https://perenual.com/storage/species_image/2_abies_alba_pyramidalis/medium/49255769768_df55596553_b.jpg","small_url":"https://perenual.com/storage/species_image/2_abies_alba_pyramidalis/small/49255769768_df55596553_b.jpg","thumbnail":"https://perenual.com/storage/species_image/2_abies_alba_pyramidalis/thumbnail/49255769768_df55596553_b.jpg"}},{"id":687,"common_name":"ornamental onion","scientific_name":["Allium schubertii"],"other_name":null,"cycle":"Perennial","watering":"Minimum","sunlight":["Full sun"],"default_image":{"image_id":1524,"license":5,"license_name":"Attribution-ShareAlike License","license_url":"https://creativecommons.org/licenses/by-sa/2.0/","original_url":"https://perenual.com/storage/species_image/687_allium_schubertii/og/8818678410_bd98f28d7d_b.jpg","regular_url":"https://perenual.com/storage/species_image/687_allium_schubertii/regular/8818678410_bd98f28d7d_b.jpg","medium_url":"https://perenual.com/storage/species_image/687_allium_schubertii/medium/8818678410_bd98f28d7d_b.jpg","small_url":"https://perenual.com/storage/species_image/687_allium_schubertii/small/8818678410_bd98f28d7d_b.jpg","thumbnail":"https://perenual.com/storage/species_image/687_allium_schubertii/thumbnail/8818678410_bd98f28d7d_b.jpg"}},{"id":688,"common_name":"German garlic","scientific_name":["Allium senescens"],"other_name":null,"cycle":"Perennial","watering":"Minimum","sunlight":["Full sun","part shade"],"default_image":{"image_id":1530,"license":5,"license_name":"Attribution-ShareAlike License","license_url":"https://creativecommons.org/licenses/by-sa/2.0/","original_url":"https://perenual.com/storage/species_image/688_allium_senescens/og/49188833203_d33c16cbe0_b.jpg","regular_url":"https://perenual.com/storage/species_image/688_allium_senescens/regular/49188833203_d33c16cbe0_b.jpg","medium_url":"https://perenual.com/storage/species_image/688_allium_senescens/medium/49188833203_d33c16cbe0_b.jpg","small_url":"https://perenual.com/storage/species_image/688_allium_senescens/small/49188833203_d33c16cbe0_b.jpg","thumbnail":"https://perenual.com/storage/species_image/688_allium_senescens/thumbnail/49188833203_d33c16cbe0_b.jpg"}},{"id":689,"common_name":"German garlic","scientific_name":["Allium senescens 'Blue Eddy'"],"other_name":null,"cycle":"Perennial","watering":"Minimum","sunlight":["Full sun","part shade"],"default_image":{"image_id":1535,"license":5,"license_name":"Attribution-ShareAlike License","license_url":"https://creativecommons.org/licenses/by-sa/2.0/","original_url":"https://perenual.com/storage/species_image/689_allium_senescens_blue_eddy/og/51427651469_d70657fa4f_b.jpg","regular_url":"https://perenual.com/storage/species_image/689_allium_senescens_blue_eddy/regular/51427651469_d70657fa4f_b.jpg","medium_url":"https://perenual.com/storage/species_image/689_allium_senescens_blue_eddy/medium/51427651469_d70657fa4f_b.jpg","small_url":"https://perenual.com/storage/species_image/689_allium_senescens_blue_eddy/small/51427651469_d70657fa4f_b.jpg","thumbnail":"https://perenual.com/storage/species_image/689_allium_senescens_blue_eddy/thumbnail/51427651469_d70657fa4f_b.jpg"}},{"id":690,"common_name":"German garlic","scientific_name":["Allium senescens 'Blue Twister'"],"other_name":null,"cycle":"Perennial","watering":"Minimum","sunlight":["Full sun","part shade"],"default_image":{"image_id":1536,"license":4,"license_name":"Attribution License","license_url":"https://creativecommons.org/licenses/by/2.0/","original_url":"https://perenual.com/storage/species_image/690_allium_senescens_blue_twister/og/5298052391_062ee461c0_b.jpg","regular_url":"https://perenual.com/storage/species_image/690_allium_senescens_blue_twister/regular/5298052391_062ee461c0_b.jpg","medium_url":"https://perenual.com/storage/species_image/690_allium_senescens_blue_twister/medium/5298052391_062ee461c0_b.jpg","small_url":"https://perenual.com/storage/species_image/690_allium_senescens_blue_twister/small/5298052391_062ee461c0_b.jpg","thumbnail":"https://perenual.com/storage/species_image/690_allium_senescens_blue_twister/thumbnail/5298052391_062ee461c0_b.jpg"}}],"to":690,"per_page":30,"current_page":23,"from":661,"last_page":200,"total":6000}