{"data":[{"id":4681,"common_name":"bleeding heart","scientific_name":["Lamprocapnos spectabilis 'Hordival' VALENTINE"],"other_name":null,"cycle":"Perennial","watering":"Average","sunlight":["Part shade","full shade"],"default_image":{"image_id":9,"license":5,"license_name":"Attribution-ShareAlike License","license_url":"https://creativecommons.org/licenses/by-sa/2.0/","original_url":"https://perenual.com/storage/species_image/2_abies_alba_pyramidalis/og/49255769768_df55596553_b.jpg","regular_url":"https://perenual.com/storage/species_image/2_abies_alba_pyramidalis/regular/49255769768_df55596553_b.jpg","medium_url":"https://perenual.com/storage/species_image/2_abies_alba_pyramidalis/medium/49255769768_df55596553_b.jpg","small_url":"https://perenual.com/storage/species_image/2_abies_alba_pyramidalis/small/49255769768_df55596553_b.jpg","thumbnail":"https://perenual.com/storage/species_image/2_abies_alba_pyramidalis/thumbnail/49255769768_df55596553_b.jpg"}},{"id":4682,"common_name":"lantana","scientific_name":["Lantana camara"],"other_name":null,"cycle":"Perennial","watering":"Average","sunlight":["Full sun"],"default_image":{"image_id":9,"license":5,"license_name":"Attribution-ShareAlike License","license_url":"https://creativecommons.org/licenses/by-sa/2.0/","original_url":"https://perenual.com/storage/species_image/2_abies_alba_pyramidalis/og/49255769768_df55596553_b.jpg","regular_url":"https://perenual.com/storage/species_image/2_abies_alba_pyramidalis/regular/49255769768_df55596553_b.jpg","medium_url":"https://perenual.com/storage/species_image/2_abies_alba_pyramidalis/medium/49255769768_df55596553_b.jpg","small_url":"https://perenual.com/storage/species_image/2_abies_alba_pyramidalis/small/49255769768_df55596553_b.jpg","thumbnail":"https://perenual.com/storage/species_image/2_abies_alba_pyramidalis/thumbnail/49255769768_df55596553_b.jpg"}},{"id":4683,"common_name":"lantana","scientific_name":["Lantana camara 'Balluced' LITTLE LUCKY RED"],"other_name":null,"cycle":"Perennial","watering":"Average","sunlight":["Full sun"],"default_image":{"image_id":9,"license":5,"license_name":"Attribution-ShareAlike License","license_url":"https://creativecommons.org/licenses/by-sa/2.0/","original_url":"https://perenual.com/storage/species_image/2_abies_alba_pyramidalis/og/49255769768_df55596553_b.jpg","regular_url":"https://perenual.com/storage/species_image/2_abies_alba_pyramidalis/regular/49255769768_df55596553_b.jpg","medium_url":"https://perenual.com/storage/species_image/2_abies_alba_pyramidalis/medium/49255769768_df55596553_b.jpg","small_url":"https://perenual.com/storage/species_image/2_abies_alba_pyramidalis/small/49255769768_df55596553_b.jpg","thumbnail":"https://perenual.com/storage/species_image/2_abies_alba_pyramidalis/thumbnail/49255769768_df55596553_b.jpg"}},{"id":4684,"common_name":"lantana","scientific_name":["Lantana camara 'Ballucor' LITTLE LUCKY ORANGE"],"other_name":null,"cycle":"Perennial","watering":"Average","sunlight":["Full sun"],"default_image":{"image_id":9,"license":5,"license_name":"Attribution-ShareAlike License","license_url":"https://creativecommons.org/licenses/by-sa/2.0/","original_url":"https://perenual.com/storage/species_image/2_abies_alba_pyramidalis/og/49255769768_df55596553_b.jpg","regular_url":"https://perenual.com/storage/species_image/2_abies_alba_pyramidalis/regular/49255769768_df55596553_b.jpg","medium_url":"https://perenual.com/storage/species_image/2_abies_alba_pyramidalis/medium/49255769768_df55596553_b.jpg","small_url":"https://perenual.com/storage/species_image/2_abies_alba_pyramidalis/small/49255769768_df55596553_b.jpg","thumbnail":"https://perenual.com/storage/species_image/2_abies_alba_pyramidalis/thumbnail/49255769768_df55596553_b.jpg"}},{"id":4685,"common_name":"lantana","scientific_name":["Lantana camara 'Ballucream' LITTLE LUCKY LEMON CREAM"],"other_name":null,"cycle":"Perennial","watering":"Average","sunlight":["Full sun"],"default_image":{"image_id":9,"license":5,"license_name":"Attribution-ShareAlike License","license_url":"https://creativecommons.org/licenses/by-sa/2.0/","original_url":"https://perenual.com/storage/species_image/2_abies_alba_pyramidalis/og/49255769768_df55596553_b.jpg","regular_url":"https://perenual.com/storage/species_image/2_abies_alba_pyramidalis/regular/49255769768_df55596553_b.jpg","medium_url":"https://perenual.com/storage/species_image/2_abies_alba_pyramidalis/medium/49255769768_df55596553_b.jpg","small_url":"https://perenual.com/storage/species_image/2_abies_alba_pyramidalis/small/49255769768_df55596553_b.jpg","thumbnail":"https://perenual.com/storage/species_image/2_abies_alba_pyramidalis/thumbnail/49255769768_df55596553_b.jpg"}},{"id":4686,"common_name":"lantana","scientific_name":["Lantana camara 'Balucgold' LITTLE LUCKY POT OF GOLD"],"other_name":null,"cycle":"Perennial","watering":"Average","sunlight":["Full sun"],"default_image":{"image_id":9,"license":5,"license_name":"Attribution-ShareAlike License","license_url":"https://creativecommons.org/licenses/by-sa/2.0/","original_url":"https://perenual.com/storage/species_image/2_abies_alba_pyramidalis/og/49255769768_df55596553_b.jpg","regular_url":"https://perenual.com/storage/species_image/2_abies_alba_pyramidalis/regular/49255769768_df55596553_b.jpg","medium_url":"https://perenual.com/storage/species_image/2_abies_alba_pyramidalis/medium/49255769768_df55596553_b.jpg","small_url":"https://perenual.com/storage/species_image/2_abies_alba_pyramidalis/small/49255769768_df55596553_b.jpg","thumbnail":"https://perenual.com/storage/species_image/2_abies_alba_pyramidalis/thumbnail/49255769768_df55596553_b.jpg"}},{"id":4687,"common_name":"lantana","scientific_name":["Lantana camara 'Flortanapi' LITTLE LUCKY HOT PINK"],"other_name":null,"cycle":"Perennial","watering":"Average","sunlight":["Full sun"],"default_image":{"image_id":9,"license":5,"license_name":"Attribution-ShareAlike License","license_url":"https://creativecommons.org/licenses/by-sa/2.0/","original_url":"https://perenual.com/storage/species_image/2_abies_alba_pyramidalis/og/49255769768_df55596553_b.jpg","regular_url":"https://perenual.com/storage/species_image/2_abies_alba_pyramidalis/regular/49255769768_df55596553_b.jpg","medium_url":"https://perenual.com/storage/species_image/2_abies_alba_pyramidalis/medium/49255769768_df55596553_b.jpg","small_url":"https://perenual.com/storage/species_image/2_abies_alba_pyramidalis/small/49255769768_df55596553_b.jpg","thumbnail":"https://perenual.com/storage/species_image/2_abies_alba_pyramidalis/thumbnail/49255769768_df55596553_b.jpg"}},{"id":4688,"common_name":"lantana","scientific_name":["Lantana camara (Landmark Series)"],"other_name":null,"cycle":"Perennial","watering":"Average","sunlight":["Full sun"],"default_image":{"image_id":9787,"license":4,"license_name":"Attribution License","license_url":"https://creativecommons.org/licenses/by/2.0/","original_url":"https://perenual.com/storage/species_image/4688_lantana_camara_landmark_series/og/52529021338_34529702bf_b.jpg","regular_url":"https://perenual.com/storage/species_image/4688_lantana_camara_landmark_series/regular/52529021338_34529702bf_b.jpg","medium_url":"https://perenual.com/storage/species_image/4688_lantana_camara_landmark_series/medium/52529021338_34529702bf_b.jpg","small_url":"https://perenual.com/storage/species_image/4688_lantana_camara_landmark_series/small/52529021338_34529702bf_b.jpg","thumbnail":"https://perenual.com/storage/species_image/4688_lantana_camara_landmark_series/thumbnail/52529021338_34529702bf_b.jpg"}},{"id":4689,"common_name":"lantana","scientific_name":["Lantana camara 'Samantha'"],"other_name":null,"cycle":"Perennial","watering":"Average","sunlight":["Full sun"],"default_image":{"image_id":9,"license":5,"license_name":"Attribution-ShareAlike License","license_url":"https://creativecommons.org/licenses/by-sa/2.0/","original_url":"https://perenual.com/storage/species_image/2_abies_alba_pyramidalis/og/49255769768_df55596553_b.jpg","regular_url":"https://perenual.com/storage/species_image/2_abies_alba_pyramidalis/regular/49255769768_df55596553_b.jpg","medium_url":"https://perenual.com/storage/species_image/2_abies_alba_pyramidalis/medium/49255769768_df55596553_b.jpg","small_url":"https://perenual.com/storage/species_image/2_abies_alba_pyramidalis/small/49255769768_df55596553_b.jpg","thumbnail":"https://perenual.com/storage/species_image/2_abies_alba_pyramidalis/thumbnail/49255769768_df55596553_b.jpg"}},{"id":4690,"common_name":"shrub verbena","scientific_name":["Lantana trifolia"],"other_name":null,"cycle":"Perennial","watering":"Average","sunlight":["Full sun"],"default_image":{"image_id":9,"license":5,"license_name":"Attribution-ShareAlike License","license_url":"https://creativecommons.org/licenses/by-sa/2.0/","original_url":"https://perenual.com/storage/species_image/2_abies_alba_pyramidalis/og/49255769768_df55596553_b.jpg","regular_url":"https://perenual.com/storage/species_image/2_abies_alba_pyramidalis/regular/49255769768_df55596553_b.jpg","medium_url":"https://perenual.com/storage/species_image/2_abies_alba_pyramidalis/medium/49255769768_df55596553_b.jpg","small_url":"https://perenual.com/storage/species_image/2_abies_alba_pyramidalis/small/49255769768_df55596553_b.jpg","thumbnail":"https://perenual.com/storage/species_image/2_abies_alba_pyramidalis/thumbnail/49255769768_df55596553_b.jpg"}},{"id":4691,"common_name":"European larch","scientific_name":["Larix decidua"],"other_name":null,"cycle":"Perennial","watering":"Average","sunlight":["Full sun"],"default_image":{"image_id":9793,"license":5,"license_name":"Attribution-ShareAlike License","license_url":"https://creativecommons.org/licenses/by-sa/2.0/","original_url":"https://perenual.com/storage/species_image/4691_larix_decidua/og/51264189674_7918858f87_b.jpg","regular_url":"https://perenual.com/storage/species_image/4691_larix_decidua/regular/51264189674_7918858f87_b.jpg","medium_url":"https://perenual.com/storage/species_image/4691_larix_decidua/medium/51264189674_7918858f87_b.jpg","small_url":"https://perenual.com/storage/species_image/4691_larix_decidua/small/51264189674_7918858f87_b.jpg","thumbnail":"https://perenual.com/storage/species_image/4691_larix_decidua/thumbnail/51264189674_7918858f87_b.jpg"}},{"id":4692,"common_name":"dahurian larch","scientific_name":["Larix gmelinii"],"other_name":null,"cycle":"Perennial","watering":"Average","sunlight":["Full sun"],"default_image":{"image_id":9804,"license":5,"license_name":"Attribution-ShareAlike License","license_url":"https://creativecommons.org/licenses/by-sa/2.0/","original_url":"https://perenual.com/storage/species_image/4693_larix_gmelinii_var_olgensis/og/26470319579_9c7a41349a_b.jpg","regular_url":"https://perenual.com/storage/species_image/4693_larix_gmelinii_var_olgensis/regular/26470319579_9c7a41349a_b.jpg","medium_url":"https://perenual.com/storage/species_image/4693_larix_gmelinii_var_olgensis/medium/26470319579_9c7a41349a_b.jpg","small_url":"https://perenual.com/storage/species_image/4693_larix_gmelinii_var_olgensis/small/26470319579_9c7a41349a_b.jpg","thumbnail":"https://perenual.com/storage/species_image/4693_larix_gmelinii_var_olgensis/thumbnail/26470319579_9c7a41349a_b.jpg"}},{"id":4693,"common_name":"dahurian larch","scientific_name":["Larix gmelinii var. olgensis"],"other_name":null,"cycle":"Perennial","watering":"Average","sunlight":["Full sun"],"default_image":{"image_id":9804,"license":5,"license_name":"Attribution-ShareAlike License","license_url":"https://creativecommons.org/licenses/by-sa/2.0/","original_url":"https://perenual.com/storage/species_image/4693_larix_gmelinii_var_olgensis/og/26470319579_9c7a41349a_b.jpg","regular_url":"https://perenual.com/storage/species_image/4693_larix_gmelinii_var_olgensis/regular/26470319579_9c7a41349a_b.jpg","medium_url":"https://perenual.com/storage/species_image/4693_larix_gmelinii_var_olgensis/medium/26470319579_9c7a41349a_b.jpg","small_url":"https://perenual.com/storage/species_image/4693_larix_gmelinii_var_olgensis/small/26470319579_9c7a41349a_b.jpg","thumbnail":"https://perenual.com/storage/species_image/4693_larix_gmelinii_var_olgensis/thumbnail/26470319579_9c7a41349a_b.jpg"}},{"id":4694,"common_name":"dahurian larch","scientific_name":["Larix gmelinii var. principis-rupprechtii"],"other_name":null,"cycle":"Perennial","watering":"Average","sunlight":["Full sun"],"default_image":{"image_id":9,"license":5,"license_name":"Attribution-ShareAlike License","license_url":"https://creativecommons.org/licenses/by-sa/2.0/","original_url":"https://perenual.com/storage/species_image/2_abies_alba_pyramidalis/og/49255769768_df55596553_b.jpg","regular_url":"https://perenual.com/storage/species_image/2_abies_alba_pyramidalis/regular/49255769768_df55596553_b.jpg","medium_url":"https://perenual.com/storage/species_image/2_abies_alba_pyramidalis/medium/49255769768_df55596553_b.jpg","small_url":"https://perenual.com/storage/species_image/2_abies_alba_pyramidalis/small/49255769768_df55596553_b.jpg","thumbnail":"https://perenual.com/storage/species_image/2_abies_alba_pyramidalis/thumbnail/49255769768_df55596553_b.jpg"}},{"id":4695,"common_name":"Japanese larch","scientific_name":["Larix kaempferi"],"other_name":null,"cycle":"Perennial","watering":"Average","sunlight":[],"default_image":{"image_id":9811,"license":4,"license_name":"Attribution License","license_url":"https://creativecommons.org/licenses/by/2.0/","original_url":"https://perenual.com/storage/species_image/4695_larix_kaempferi/og/48858276803_807757ecbf_b.jpg","regular_url":"https://perenual.com/storage/species_image/4695_larix_kaempferi/regular/48858276803_807757ecbf_b.jpg","medium_url":"https://perenual.com/storage/species_image/4695_larix_kaempferi/medium/48858276803_807757ecbf_b.jpg","small_url":"https://perenual.com/storage/species_image/4695_larix_kaempferi/small/48858276803_807757ecbf_b.jpg","thumbnail":"https://perenual.com/storage/species_image/4695_larix_kaempferi/thumbnail/48858276803_807757ecbf_b.jpg"}},{"id":4696,"common_name":"Japanese larch","scientific_name":["Larix kaempferi 'Diana'"],"other_name":null,"cycle":"Perennial","watering":"Average","sunlight":[],"default_image":{"image_id":9815,"license":5,"license_name":"Attribution-ShareAlike License","license_url":"https://creativecommons.org/licenses/by-sa/2.0/","original_url":"https://perenual.com/storage/species_image/4696_larix_kaempferi_diana/og/49324149773_45ea12e084_b.jpg","regular_url":"https://perenual.com/storage/species_image/4696_larix_kaempferi_diana/regular/49324149773_45ea12e084_b.jpg","medium_url":"https://perenual.com/storage/species_image/4696_larix_kaempferi_diana/medium/49324149773_45ea12e084_b.jpg","small_url":"https://perenual.com/storage/species_image/4696_larix_kaempferi_diana/small/49324149773_45ea12e084_b.jpg","thumbnail":"https://perenual.com/storage/species_image/4696_larix_kaempferi_diana/thumbnail/49324149773_45ea12e084_b.jpg"}},{"id":4697,"common_name":"Japanese larch","scientific_name":["Larix kaempferi 'Stiff Weeping'"],"other_name":null,"cycle":"Perennial","watering":"Average","sunlight":[],"default_image":{"image_id":9,"license":5,"license_name":"Attribution-ShareAlike License","license_url":"https://creativecommons.org/licenses/by-sa/2.0/","original_url":"https://perenual.com/storage/species_image/2_abies_alba_pyramidalis/og/49255769768_df55596553_b.jpg","regular_url":"https://perenual.com/storage/species_image/2_abies_alba_pyramidalis/regular/49255769768_df55596553_b.jpg","medium_url":"https://perenual.com/storage/species_image/2_abies_alba_pyramidalis/medium/49255769768_df55596553_b.jpg","small_url":"https://perenual.com/storage/species_image/2_abies_alba_pyramidalis/small/49255769768_df55596553_b.jpg","thumbnail":"https://perenual.com/storage/species_image/2_abies_alba_pyramidalis/thumbnail/49255769768_df55596553_b.jpg"}},{"id":4698,"common_name":"tamarack","scientific_name":["Larix laricina"],"other_name":["eastern larch"],"cycle":"Perennial","watering":"Frequent","sunlight":["Full sun Partial sun"],"default_image":{"image_id":9819,"license":4,"license_name":"Attribution License","license_url":"https://creativecommons.org/licenses/by/2.0/","original_url":"https://perenual.com/storage/species_image/4698_larix_laricina/og/52441503149_8c53fd956a_b.jpg","regular_url":"https://perenual.com/storage/species_image/4698_larix_laricina/regular/52441503149_8c53fd956a_b.jpg","medium_url":"https://perenual.com/storage/species_image/4698_larix_laricina/medium/52441503149_8c53fd956a_b.jpg","small_url":"https://perenual.com/storage/species_image/4698_larix_laricina/small/52441503149_8c53fd956a_b.jpg","thumbnail":"https://perenual.com/storage/species_image/4698_larix_laricina/thumbnail/52441503149_8c53fd956a_b.jpg"}},{"id":4699,"common_name":"red latan","scientific_name":["Latania lontaroides"],"other_name":null,"cycle":"Perennial","watering":"Average","sunlight":["Full sun"],"default_image":{"image_id":9831,"license":5,"license_name":"Attribution-ShareAlike License","license_url":"https://creativecommons.org/licenses/by-sa/2.0/","original_url":"https://perenual.com/storage/species_image/4699_latania_lontaroides/og/24904883380_0e48fede59_b.jpg","regular_url":"https://perenual.com/storage/species_image/4699_latania_lontaroides/regular/24904883380_0e48fede59_b.jpg","medium_url":"https://perenual.com/storage/species_image/4699_latania_lontaroides/medium/24904883380_0e48fede59_b.jpg","small_url":"https://perenual.com/storage/species_image/4699_latania_lontaroides/small/24904883380_0e48fede59_b.jpg","thumbnail":"https://perenual.com/storage/species_image/4699_latania_lontaroides/thumbnail/24904883380_0e48fede59_b.jpg"}},{"id":4700,"common_name":"sweet pea","scientific_name":["Lathyrus odoratus"],"other_name":null,"cycle":"Perennial","watering":"Average","sunlight":[],"default_image":{"image_id":9836,"license":6,"license_name":"Attribution-NoDerivs License","license_url":"https://creativecommons.org/licenses/by-nd/2.0/","original_url":"https://perenual.com/storage/species_image/4700_lathyrus_odoratus/og/51305109115_99646207d4_b.jpg"}},{"id":4701,"common_name":"spring vetch","scientific_name":["Lathyrus vernus"],"other_name":null,"cycle":"Perennial","watering":"Average","sunlight":["Part shade","full shade"],"default_image":{"image_id":9840,"license":5,"license_name":"Attribution-ShareAlike License","license_url":"https://creativecommons.org/licenses/by-sa/2.0/","original_url":"https://perenual.com/storage/species_image/4701_lathyrus_vernus/og/13566062813_21b8e9a196_b.jpg","regular_url":"https://perenual.com/storage/species_image/4701_lathyrus_vernus/regular/13566062813_21b8e9a196_b.jpg","medium_url":"https://perenual.com/storage/species_image/4701_lathyrus_vernus/medium/13566062813_21b8e9a196_b.jpg","small_url":"https://perenual.com/storage/species_image/4701_lathyrus_vernus/small/13566062813_21b8e9a196_b.jpg","thumbnail":"https://perenual.com/storage/species_image/4701_lathyrus_vernus/thumbnail/13566062813_21b8e9a196_b.jpg"}},{"id":4702,"common_name":"English lavender","scientific_name":["Lavandula angustifolia"],"other_name":null,"cycle":"Perennial","watering":"Minimum","sunlight":["Full sun"],"default_image":{"image_id":9,"license":5,"license_name":"Attribution-ShareAlike License","license_url":"https://creativecommons.org/licenses/by-sa/2.0/","original_url":"https://perenual.com/storage/species_image/2_abies_alba_pyramidalis/og/49255769768_df55596553_b.jpg","regular_url":"https://perenual.com/storage/species_image/2_abies_alba_pyramidalis/regular/49255769768_df55596553_b.jpg","medium_url":"https://perenual.com/storage/species_image/2_abies_alba_pyramidalis/medium/49255769768_df55596553_b.jpg","small_url":"https://perenual.com/storage/species_image/2_abies_alba_pyramidalis/small/49255769768_df55596553_b.jpg","thumbnail":"https://perenual.com/storage/species_image/2_abies_alba_pyramidalis/thumbnail/49255769768_df55596553_b.jpg"}},{"id":4703,"common_name":"English lavender","scientific_name":["Lavandula angustifolia 'Buena Vista'"],"other_name":null,"cycle":"Perennial","watering":"Minimum","sunlight":["Full sun"],"default_image":{"image_id":9846,"license":4,"license_name":"Attribution License","license_url":"https://creativecommons.org/licenses/by/2.0/","original_url":"https://perenual.com/storage/species_image/4703_lavandula_angustifolia_buena_vista/og/28763759557_9e49547f1f_b.jpg","regular_url":"https://perenual.com/storage/species_image/4703_lavandula_angustifolia_buena_vista/regular/28763759557_9e49547f1f_b.jpg","medium_url":"https://perenual.com/storage/species_image/4703_lavandula_angustifolia_buena_vista/medium/28763759557_9e49547f1f_b.jpg","small_url":"https://perenual.com/storage/species_image/4703_lavandula_angustifolia_buena_vista/small/28763759557_9e49547f1f_b.jpg","thumbnail":"https://perenual.com/storage/species_image/4703_lavandula_angustifolia_buena_vista/thumbnail/28763759557_9e49547f1f_b.jpg"}},{"id":4704,"common_name":"English lavender","scientific_name":["Lavandula angustifolia 'Hidcote'"],"other_name":null,"cycle":"Perennial","watering":"Minimum","sunlight":["Full sun"],"default_image":{"image_id":9850,"license":5,"license_name":"Attribution-ShareAlike License","license_url":"https://creativecommons.org/licenses/by-sa/2.0/","original_url":"https://perenual.com/storage/species_image/4704_lavandula_angustifolia_hidcote/og/14271047508_f75a2a8a59_b.jpg","regular_url":"https://perenual.com/storage/species_image/4704_lavandula_angustifolia_hidcote/regular/14271047508_f75a2a8a59_b.jpg","medium_url":"https://perenual.com/storage/species_image/4704_lavandula_angustifolia_hidcote/medium/14271047508_f75a2a8a59_b.jpg","small_url":"https://perenual.com/storage/species_image/4704_lavandula_angustifolia_hidcote/small/14271047508_f75a2a8a59_b.jpg","thumbnail":"https://perenual.com/storage/species_image/4704_lavandula_angustifolia_hidcote/thumbnail/14271047508_f75a2a8a59_b.jpg"}},{"id":4705,"common_name":"English lavender","scientific_name":["Lavandula angustifolia 'Hidcote Superior'"],"other_name":null,"cycle":"Perennial","watering":"Minimum","sunlight":["Full sun"],"default_image":{"image_id":9851,"license":5,"license_name":"Attribution-ShareAlike License","license_url":"https://creativecommons.org/licenses/by-sa/2.0/","original_url":"https://perenual.com/storage/species_image/4711_lavandula_angustifolia_royal_velvet/og/51142985498_151d33c3a3_b.jpg","regular_url":"https://perenual.com/storage/species_image/4711_lavandula_angustifolia_royal_velvet/regular/51142985498_151d33c3a3_b.jpg","medium_url":"https://perenual.com/storage/species_image/4711_lavandula_angustifolia_royal_velvet/medium/51142985498_151d33c3a3_b.jpg","small_url":"https://perenual.com/storage/species_image/4711_lavandula_angustifolia_royal_velvet/small/51142985498_151d33c3a3_b.jpg","thumbnail":"https://perenual.com/storage/species_image/4711_lavandula_angustifolia_royal_velvet/thumbnail/51142985498_151d33c3a3_b.jpg"}},{"id":4706,"common_name":"English lavender","scientific_name":["Lavandula angustifolia 'KERLAVANGEM' SWEET ROMANCE"],"other_name":null,"cycle":"Perennial","watering":"Minimum","sunlight":["Full sun"],"default_image":{"image_id":9855,"license":4,"license_name":"Attribution License","license_url":"https://creativecommons.org/licenses/by/2.0/","original_url":"https://perenual.com/storage/species_image/4713_lavandula_angustifolia_superblue/og/31305743805_4a11cf7184_b.jpg","regular_url":"https://perenual.com/storage/species_image/4713_lavandula_angustifolia_superblue/regular/31305743805_4a11cf7184_b.jpg","medium_url":"https://perenual.com/storage/species_image/4713_lavandula_angustifolia_superblue/medium/31305743805_4a11cf7184_b.jpg","small_url":"https://perenual.com/storage/species_image/4713_lavandula_angustifolia_superblue/small/31305743805_4a11cf7184_b.jpg","thumbnail":"https://perenual.com/storage/species_image/4713_lavandula_angustifolia_superblue/thumbnail/31305743805_4a11cf7184_b.jpg"}},{"id":4707,"common_name":"English lavender","scientific_name":["Lavandula angustifolia 'Lavandula Schola' BLUE CUSHION"],"other_name":null,"cycle":"Perennial","watering":"Minimum","sunlight":["Full sun"],"default_image":{"image_id":9851,"license":5,"license_name":"Attribution-ShareAlike License","license_url":"https://creativecommons.org/licenses/by-sa/2.0/","original_url":"https://perenual.com/storage/species_image/4711_lavandula_angustifolia_royal_velvet/og/51142985498_151d33c3a3_b.jpg","regular_url":"https://perenual.com/storage/species_image/4711_lavandula_angustifolia_royal_velvet/regular/51142985498_151d33c3a3_b.jpg","medium_url":"https://perenual.com/storage/species_image/4711_lavandula_angustifolia_royal_velvet/medium/51142985498_151d33c3a3_b.jpg","small_url":"https://perenual.com/storage/species_image/4711_lavandula_angustifolia_royal_velvet/small/51142985498_151d33c3a3_b.jpg","thumbnail":"https://perenual.com/storage/species_image/4711_lavandula_angustifolia_royal_velvet/thumbnail/51142985498_151d33c3a3_b.jpg"}},{"id":4708,"common_name":"English lavender","scientific_name":["Lavandula angustifolia 'Lavang 21' VIOLET INTRIGUE"],"other_name":null,"cycle":"Perennial","watering":"Minimum","sunlight":["Full sun"],"default_image":{"image_id":9852,"license":5,"license_name":"Attribution-ShareAlike License","license_url":"https://creativecommons.org/licenses/by-sa/2.0/","original_url":"https://perenual.com/storage/species_image/4708_lavandula_angustifolia_lavang_21_violet_intrigue/og/51142985408_40fdf27cc9_b.jpg","regular_url":"https://perenual.com/storage/species_image/4708_lavandula_angustifolia_lavang_21_violet_intrigue/regular/51142985408_40fdf27cc9_b.jpg","medium_url":"https://perenual.com/storage/species_image/4708_lavandula_angustifolia_lavang_21_violet_intrigue/medium/51142985408_40fdf27cc9_b.jpg","small_url":"https://perenual.com/storage/species_image/4708_lavandula_angustifolia_lavang_21_violet_intrigue/small/51142985408_40fdf27cc9_b.jpg","thumbnail":"https://perenual.com/storage/species_image/4708_lavandula_angustifolia_lavang_21_violet_intrigue/thumbnail/51142985408_40fdf27cc9_b.jpg"}},{"id":4709,"common_name":"English lavender","scientific_name":["Lavandula angustifolia 'Potpourri Sky Blue'"],"other_name":null,"cycle":"Perennial","watering":"Minimum","sunlight":["Full sun"],"default_image":{"image_id":9855,"license":4,"license_name":"Attribution License","license_url":"https://creativecommons.org/licenses/by/2.0/","original_url":"https://perenual.com/storage/species_image/4713_lavandula_angustifolia_superblue/og/31305743805_4a11cf7184_b.jpg","regular_url":"https://perenual.com/storage/species_image/4713_lavandula_angustifolia_superblue/regular/31305743805_4a11cf7184_b.jpg","medium_url":"https://perenual.com/storage/species_image/4713_lavandula_angustifolia_superblue/medium/31305743805_4a11cf7184_b.jpg","small_url":"https://perenual.com/storage/species_image/4713_lavandula_angustifolia_superblue/small/31305743805_4a11cf7184_b.jpg","thumbnail":"https://perenual.com/storage/species_image/4713_lavandula_angustifolia_superblue/thumbnail/31305743805_4a11cf7184_b.jpg"}},{"id":4710,"common_name":"English lavender","scientific_name":["Lavandula angustifolia 'Rosea'"],"other_name":null,"cycle":"Perennial","watering":"Minimum","sunlight":["Full sun"],"default_image":{"image_id":9858,"license":4,"license_name":"Attribution License","license_url":"https://creativecommons.org/licenses/by/2.0/","original_url":"https://perenual.com/storage/species_image/4710_lavandula_angustifolia_rosea/og/51350286923_2f39b38e99_b.jpg","regular_url":"https://perenual.com/storage/species_image/4710_lavandula_angustifolia_rosea/regular/51350286923_2f39b38e99_b.jpg","medium_url":"https://perenual.com/storage/species_image/4710_lavandula_angustifolia_rosea/medium/51350286923_2f39b38e99_b.jpg","small_url":"https://perenual.com/storage/species_image/4710_lavandula_angustifolia_rosea/small/51350286923_2f39b38e99_b.jpg","thumbnail":"https://perenual.com/storage/species_image/4710_lavandula_angustifolia_rosea/thumbnail/51350286923_2f39b38e99_b.jpg"}}],"to":4710,"per_page":30,"current_page":157,"from":4681,"last_page":200,"total":6000}