{"data":[{"id":751,"common_name":"alyssum","scientific_name":["Alyssum propinquum"],"other_name":null,"cycle":"Perennial","watering":"Minimum","sunlight":["Full sun"],"default_image":{"image_id":21220,"license":451,"license_name":"CC0 1.0 Universal (CC0 1.0) Public Domain Dedication","license_url":"https://creativecommons.org/publicdomain/zero/1.0/","original_url":"https://perenual.com/storage/species_image/751_alyssum_propinquum/og/c804cd9a7f0774e1fb0b352be3a0-1424377.jpg","regular_url":"https://perenual.com/storage/species_image/751_alyssum_propinquum/regular/c804cd9a7f0774e1fb0b352be3a0-1424377.jpg","medium_url":"https://perenual.com/storage/species_image/751_alyssum_propinquum/medium/c804cd9a7f0774e1fb0b352be3a0-1424377.jpg","small_url":"https://perenual.com/storage/species_image/751_alyssum_propinquum/small/c804cd9a7f0774e1fb0b352be3a0-1424377.jpg","thumbnail":"https://perenual.com/storage/species_image/751_alyssum_propinquum/thumbnail/c804cd9a7f0774e1fb0b352be3a0-1424377.jpg"}},{"id":752,"common_name":"madwort","scientific_name":["Alyssum wulfenianum 'Golden Spring'"],"other_name":null,"cycle":"Perennial","watering":"Minimum","sunlight":["Full sun"],"default_image":{"image_id":1685,"license":4,"license_name":"Attribution License","license_url":"https://creativecommons.org/licenses/by/2.0/","original_url":"https://perenual.com/storage/species_image/752_alyssum_wulfenianum_golden_spring/og/16054232986_a2f186fe3e_b.jpg","regular_url":"https://perenual.com/storage/species_image/752_alyssum_wulfenianum_golden_spring/regular/16054232986_a2f186fe3e_b.jpg","medium_url":"https://perenual.com/storage/species_image/752_alyssum_wulfenianum_golden_spring/medium/16054232986_a2f186fe3e_b.jpg","small_url":"https://perenual.com/storage/species_image/752_alyssum_wulfenianum_golden_spring/small/16054232986_a2f186fe3e_b.jpg","thumbnail":"https://perenual.com/storage/species_image/752_alyssum_wulfenianum_golden_spring/thumbnail/16054232986_a2f186fe3e_b.jpg"}},{"id":753,"common_name":"love-lies-bleeding","scientific_name":["Amaranthus caudatus"],"other_name":null,"cycle":"Perennial","watering":"Average","sunlight":["Full sun","part shade"],"default_image":{"image_id":1689,"license":5,"license_name":"Attribution-ShareAlike License","license_url":"https://creativecommons.org/licenses/by-sa/2.0/","original_url":"https://perenual.com/storage/species_image/753_amaranthus_caudatus/og/14912743664_5b2ca6df71_b.jpg","regular_url":"https://perenual.com/storage/species_image/753_amaranthus_caudatus/regular/14912743664_5b2ca6df71_b.jpg","medium_url":"https://perenual.com/storage/species_image/753_amaranthus_caudatus/medium/14912743664_5b2ca6df71_b.jpg","small_url":"https://perenual.com/storage/species_image/753_amaranthus_caudatus/small/14912743664_5b2ca6df71_b.jpg","thumbnail":"https://perenual.com/storage/species_image/753_amaranthus_caudatus/thumbnail/14912743664_5b2ca6df71_b.jpg"}},{"id":754,"common_name":"Joseph's coat","scientific_name":["Amaranthus tricolor"],"other_name":null,"cycle":"Perennial","watering":"Average","sunlight":["Full sun","part shade"],"default_image":{"image_id":1694,"license":5,"license_name":"Attribution-ShareAlike License","license_url":"https://creativecommons.org/licenses/by-sa/2.0/","original_url":"https://perenual.com/storage/species_image/754_amaranthus_tricolor/og/4444686145_a159e16215_b.jpg","regular_url":"https://perenual.com/storage/species_image/754_amaranthus_tricolor/regular/4444686145_a159e16215_b.jpg","medium_url":"https://perenual.com/storage/species_image/754_amaranthus_tricolor/medium/4444686145_a159e16215_b.jpg","small_url":"https://perenual.com/storage/species_image/754_amaranthus_tricolor/small/4444686145_a159e16215_b.jpg","thumbnail":"https://perenual.com/storage/species_image/754_amaranthus_tricolor/thumbnail/4444686145_a159e16215_b.jpg"}},{"id":755,"common_name":"Joseph's coat","scientific_name":["Amaranthus tricolor (vegetable group)"],"other_name":null,"cycle":"Perennial","watering":"Average","sunlight":["Full sun"],"default_image":{"image_id":9,"license":5,"license_name":"Attribution-ShareAlike License","license_url":"https://creativecommons.org/licenses/by-sa/2.0/","original_url":"https://perenual.com/storage/species_image/2_abies_alba_pyramidalis/og/49255769768_df55596553_b.jpg","regular_url":"https://perenual.com/storage/species_image/2_abies_alba_pyramidalis/regular/49255769768_df55596553_b.jpg","medium_url":"https://perenual.com/storage/species_image/2_abies_alba_pyramidalis/medium/49255769768_df55596553_b.jpg","small_url":"https://perenual.com/storage/species_image/2_abies_alba_pyramidalis/small/49255769768_df55596553_b.jpg","thumbnail":"https://perenual.com/storage/species_image/2_abies_alba_pyramidalis/thumbnail/49255769768_df55596553_b.jpg"}},{"id":756,"common_name":"alder-leaved serviceberry","scientific_name":["Amelanchier alnifolia 'Regent'"],"other_name":null,"cycle":"Perennial","watering":"Average","sunlight":["Sun"," Partial Shade"],"default_image":{"image_id":1697,"license":5,"license_name":"Attribution-ShareAlike License","license_url":"https://creativecommons.org/licenses/by-sa/2.0/","original_url":"https://perenual.com/storage/species_image/756_amelanchier_alnifolia_regent/og/18193498233_7c9ff38ba7_b.jpg","regular_url":"https://perenual.com/storage/species_image/756_amelanchier_alnifolia_regent/regular/18193498233_7c9ff38ba7_b.jpg","medium_url":"https://perenual.com/storage/species_image/756_amelanchier_alnifolia_regent/medium/18193498233_7c9ff38ba7_b.jpg","small_url":"https://perenual.com/storage/species_image/756_amelanchier_alnifolia_regent/small/18193498233_7c9ff38ba7_b.jpg","thumbnail":"https://perenual.com/storage/species_image/756_amelanchier_alnifolia_regent/thumbnail/18193498233_7c9ff38ba7_b.jpg"}},{"id":757,"common_name":"dwarf serviceberry","scientific_name":["Amelanchier alnifolia var. pumila"],"other_name":null,"cycle":"Perennial","watering":"Average","sunlight":["Sun"," Partial Shade"],"default_image":{"image_id":9,"license":5,"license_name":"Attribution-ShareAlike License","license_url":"https://creativecommons.org/licenses/by-sa/2.0/","original_url":"https://perenual.com/storage/species_image/2_abies_alba_pyramidalis/og/49255769768_df55596553_b.jpg","regular_url":"https://perenual.com/storage/species_image/2_abies_alba_pyramidalis/regular/49255769768_df55596553_b.jpg","medium_url":"https://perenual.com/storage/species_image/2_abies_alba_pyramidalis/medium/49255769768_df55596553_b.jpg","small_url":"https://perenual.com/storage/species_image/2_abies_alba_pyramidalis/small/49255769768_df55596553_b.jpg","thumbnail":"https://perenual.com/storage/species_image/2_abies_alba_pyramidalis/thumbnail/49255769768_df55596553_b.jpg"}},{"id":758,"common_name":"serviceberry","scientific_name":["Amelanchier arborea"],"other_name":["Common Serviceberry","Shadblow","Shadbush","Juneberry","Sugarberry","Sarvis","Indian Cherry"],"cycle":"Perennial","watering":"Average","sunlight":["Full sun","part shade"],"default_image":{"image_id":1706,"license":5,"license_name":"Attribution-ShareAlike License","license_url":"https://creativecommons.org/licenses/by-sa/2.0/","original_url":"https://perenual.com/storage/species_image/758_amelanchier_arborea/og/25661208053_18c94f91c3_b.jpg","regular_url":"https://perenual.com/storage/species_image/758_amelanchier_arborea/regular/25661208053_18c94f91c3_b.jpg","medium_url":"https://perenual.com/storage/species_image/758_amelanchier_arborea/medium/25661208053_18c94f91c3_b.jpg","small_url":"https://perenual.com/storage/species_image/758_amelanchier_arborea/small/25661208053_18c94f91c3_b.jpg","thumbnail":"https://perenual.com/storage/species_image/758_amelanchier_arborea/thumbnail/25661208053_18c94f91c3_b.jpg"}},{"id":759,"common_name":"serviceberry","scientific_name":["Amelanchier canadensis"],"other_name":["Canadian Serviceberry","Chuckleberry","Chuckleberry"],"cycle":"Perennial","watering":"Frequent","sunlight":["Sun"," Partial Shade"],"default_image":{"image_id":1707,"license":4,"license_name":"Attribution License","license_url":"https://creativecommons.org/licenses/by/2.0/","original_url":"https://perenual.com/storage/species_image/759_amelanchier_canadensis/og/38538085322_565637d2e7_b.jpg","regular_url":"https://perenual.com/storage/species_image/759_amelanchier_canadensis/regular/38538085322_565637d2e7_b.jpg","medium_url":"https://perenual.com/storage/species_image/759_amelanchier_canadensis/medium/38538085322_565637d2e7_b.jpg","small_url":"https://perenual.com/storage/species_image/759_amelanchier_canadensis/small/38538085322_565637d2e7_b.jpg","thumbnail":"https://perenual.com/storage/species_image/759_amelanchier_canadensis/thumbnail/38538085322_565637d2e7_b.jpg"}},{"id":760,"common_name":"serviceberry","scientific_name":["Amelanchier canadensis 'Glenn Form' RAINBOW PILLAR"],"other_name":["Canadian Serviceberry","Chuckleberry","Chuckleberry"],"cycle":"Perennial","watering":"Frequent","sunlight":["Sun"," Partial Shade"],"default_image":{"image_id":9,"license":5,"license_name":"Attribution-ShareAlike License","license_url":"https://creativecommons.org/licenses/by-sa/2.0/","original_url":"https://perenual.com/storage/species_image/2_abies_alba_pyramidalis/og/49255769768_df55596553_b.jpg","regular_url":"https://perenual.com/storage/species_image/2_abies_alba_pyramidalis/regular/49255769768_df55596553_b.jpg","medium_url":"https://perenual.com/storage/species_image/2_abies_alba_pyramidalis/medium/49255769768_df55596553_b.jpg","small_url":"https://perenual.com/storage/species_image/2_abies_alba_pyramidalis/small/49255769768_df55596553_b.jpg","thumbnail":"https://perenual.com/storage/species_image/2_abies_alba_pyramidalis/thumbnail/49255769768_df55596553_b.jpg"}},{"id":761,"common_name":"apple serviceberry","scientific_name":["Amelanchier grandiflora 'Autumn Brilliance'"],"other_name":null,"cycle":"Perennial","watering":"Average","sunlight":["Full sun","part shade"],"default_image":{"image_id":253,"license":4,"license_name":"Attribution License","license_url":"https://creativecommons.org/licenses/by/2.0/","original_url":"https://perenual.com/storage/species_image/761_amelanchier_grandiflora_autumn_brilliance/og/10657964154_16369dcdcf_b.jpg","regular_url":"https://perenual.com/storage/species_image/761_amelanchier_grandiflora_autumn_brilliance/regular/10657964154_16369dcdcf_b.jpg","medium_url":"https://perenual.com/storage/species_image/761_amelanchier_grandiflora_autumn_brilliance/medium/10657964154_16369dcdcf_b.jpg","small_url":"https://perenual.com/storage/species_image/761_amelanchier_grandiflora_autumn_brilliance/small/10657964154_16369dcdcf_b.jpg","thumbnail":"https://perenual.com/storage/species_image/761_amelanchier_grandiflora_autumn_brilliance/thumbnail/10657964154_16369dcdcf_b.jpg"}},{"id":762,"common_name":"apple serviceberry","scientific_name":["Amelanchier grandiflora 'Princess Diana'"],"other_name":null,"cycle":"Perennial","watering":"Average","sunlight":["Full sun","part shade"],"default_image":{"image_id":1710,"license":5,"license_name":"Attribution-ShareAlike License","license_url":"https://creativecommons.org/licenses/by-sa/2.0/","original_url":"https://perenual.com/storage/species_image/762_amelanchier_grandiflora_princess_diana/og/17077289459_f6d42089f0_b.jpg","regular_url":"https://perenual.com/storage/species_image/762_amelanchier_grandiflora_princess_diana/regular/17077289459_f6d42089f0_b.jpg","medium_url":"https://perenual.com/storage/species_image/762_amelanchier_grandiflora_princess_diana/medium/17077289459_f6d42089f0_b.jpg","small_url":"https://perenual.com/storage/species_image/762_amelanchier_grandiflora_princess_diana/small/17077289459_f6d42089f0_b.jpg","thumbnail":"https://perenual.com/storage/species_image/762_amelanchier_grandiflora_princess_diana/thumbnail/17077289459_f6d42089f0_b.jpg"}},{"id":763,"common_name":"Allegheny serviceberry","scientific_name":["Amelanchier laevis"],"other_name":["Allegheny Serviceberry","Smooth Juneberry","Smooth Juneberry"],"cycle":"Perennial","watering":"Average","sunlight":["Sun"," Partial Shade"],"default_image":{"image_id":9,"license":5,"license_name":"Attribution-ShareAlike License","license_url":"https://creativecommons.org/licenses/by-sa/2.0/","original_url":"https://perenual.com/storage/species_image/2_abies_alba_pyramidalis/og/49255769768_df55596553_b.jpg","regular_url":"https://perenual.com/storage/species_image/2_abies_alba_pyramidalis/regular/49255769768_df55596553_b.jpg","medium_url":"https://perenual.com/storage/species_image/2_abies_alba_pyramidalis/medium/49255769768_df55596553_b.jpg","small_url":"https://perenual.com/storage/species_image/2_abies_alba_pyramidalis/small/49255769768_df55596553_b.jpg","thumbnail":"https://perenual.com/storage/species_image/2_abies_alba_pyramidalis/thumbnail/49255769768_df55596553_b.jpg"}},{"id":764,"common_name":"juneberry","scientific_name":["Amelanchier lamarckii"],"other_name":null,"cycle":"Perennial","watering":"Average","sunlight":[],"default_image":{"image_id":1714,"license":5,"license_name":"Attribution-ShareAlike License","license_url":"https://creativecommons.org/licenses/by-sa/2.0/","original_url":"https://perenual.com/storage/species_image/764_amelanchier_lamarckii/og/33791583306_f594902691_b.jpg","regular_url":"https://perenual.com/storage/species_image/764_amelanchier_lamarckii/regular/33791583306_f594902691_b.jpg","medium_url":"https://perenual.com/storage/species_image/764_amelanchier_lamarckii/medium/33791583306_f594902691_b.jpg","small_url":"https://perenual.com/storage/species_image/764_amelanchier_lamarckii/small/33791583306_f594902691_b.jpg","thumbnail":"https://perenual.com/storage/species_image/764_amelanchier_lamarckii/thumbnail/33791583306_f594902691_b.jpg"}},{"id":765,"common_name":"Nantucket serviceberry","scientific_name":["Amelanchier nantucketensis"],"other_name":null,"cycle":"Perennial","watering":"Minimum","sunlight":[],"default_image":{"image_id":1718,"license":5,"license_name":"Attribution-ShareAlike License","license_url":"https://creativecommons.org/licenses/by-sa/2.0/","original_url":"https://perenual.com/storage/species_image/765_amelanchier_nantucketensis/og/34321014605_093dcf6a34_b.jpg","regular_url":"https://perenual.com/storage/species_image/765_amelanchier_nantucketensis/regular/34321014605_093dcf6a34_b.jpg","medium_url":"https://perenual.com/storage/species_image/765_amelanchier_nantucketensis/medium/34321014605_093dcf6a34_b.jpg","small_url":"https://perenual.com/storage/species_image/765_amelanchier_nantucketensis/small/34321014605_093dcf6a34_b.jpg","thumbnail":"https://perenual.com/storage/species_image/765_amelanchier_nantucketensis/thumbnail/34321014605_093dcf6a34_b.jpg"}},{"id":766,"common_name":"coastal serviceberry","scientific_name":["Amelanchier obovalis"],"other_name":null,"cycle":"Perennial","watering":"Minimum","sunlight":["Full sun","part shade"],"default_image":{"image_id":9,"license":5,"license_name":"Attribution-ShareAlike License","license_url":"https://creativecommons.org/licenses/by-sa/2.0/","original_url":"https://perenual.com/storage/species_image/2_abies_alba_pyramidalis/og/49255769768_df55596553_b.jpg","regular_url":"https://perenual.com/storage/species_image/2_abies_alba_pyramidalis/regular/49255769768_df55596553_b.jpg","medium_url":"https://perenual.com/storage/species_image/2_abies_alba_pyramidalis/medium/49255769768_df55596553_b.jpg","small_url":"https://perenual.com/storage/species_image/2_abies_alba_pyramidalis/small/49255769768_df55596553_b.jpg","thumbnail":"https://perenual.com/storage/species_image/2_abies_alba_pyramidalis/thumbnail/49255769768_df55596553_b.jpg"}},{"id":767,"common_name":"running serviceberry","scientific_name":["Amelanchier stolonifera"],"other_name":null,"cycle":"Perennial","watering":"Average","sunlight":["Full sun","part shade"],"default_image":{"image_id":21223,"license":45,"license_name":"Attribution-ShareAlike 3.0 Unported (CC BY-SA 3.0)","license_url":"https://creativecommons.org/licenses/by-sa/3.0/deed.en","original_url":"https://perenual.com/storage/species_image/767_amelanchier_stolonifera/og/Amelanchier_ovalis._Moll%C3%A9ndanu_%28frutu%29.jpg","regular_url":"https://perenual.com/storage/species_image/767_amelanchier_stolonifera/regular/Amelanchier_ovalis._Moll%C3%A9ndanu_%28frutu%29.jpg","medium_url":"https://perenual.com/storage/species_image/767_amelanchier_stolonifera/medium/Amelanchier_ovalis._Moll%C3%A9ndanu_%28frutu%29.jpg","small_url":"https://perenual.com/storage/species_image/767_amelanchier_stolonifera/small/Amelanchier_ovalis._Moll%C3%A9ndanu_%28frutu%29.jpg","thumbnail":"https://perenual.com/storage/species_image/767_amelanchier_stolonifera/thumbnail/Amelanchier_ovalis._Moll%C3%A9ndanu_%28frutu%29.jpg"}},{"id":768,"common_name":"lead plant","scientific_name":["Amorpha canescens"],"other_name":["Downy Indigobush"],"cycle":"Perennial","watering":"Minimum","sunlight":["Sun"],"default_image":{"image_id":1727,"license":4,"license_name":"Attribution License","license_url":"https://creativecommons.org/licenses/by/2.0/","original_url":"https://perenual.com/storage/species_image/768_amorpha_canescens/og/27430390504_7b4975296f_b.jpg","regular_url":"https://perenual.com/storage/species_image/768_amorpha_canescens/regular/27430390504_7b4975296f_b.jpg","medium_url":"https://perenual.com/storage/species_image/768_amorpha_canescens/medium/27430390504_7b4975296f_b.jpg","small_url":"https://perenual.com/storage/species_image/768_amorpha_canescens/small/27430390504_7b4975296f_b.jpg","thumbnail":"https://perenual.com/storage/species_image/768_amorpha_canescens/thumbnail/27430390504_7b4975296f_b.jpg"}},{"id":769,"common_name":"false indigo","scientific_name":["Amorpha fruticosa"],"other_name":["Indigo Bush","False Indigo","Bastard Indigo"],"cycle":"Perennial","watering":"Frequent","sunlight":["Full sun"],"default_image":{"image_id":1729,"license":5,"license_name":"Attribution-ShareAlike License","license_url":"https://creativecommons.org/licenses/by-sa/2.0/","original_url":"https://perenual.com/storage/species_image/769_amorpha_fruticosa/og/49955857006_e8281a019e_b.jpg","regular_url":"https://perenual.com/storage/species_image/769_amorpha_fruticosa/regular/49955857006_e8281a019e_b.jpg","medium_url":"https://perenual.com/storage/species_image/769_amorpha_fruticosa/medium/49955857006_e8281a019e_b.jpg","small_url":"https://perenual.com/storage/species_image/769_amorpha_fruticosa/small/49955857006_e8281a019e_b.jpg","thumbnail":"https://perenual.com/storage/species_image/769_amorpha_fruticosa/thumbnail/49955857006_e8281a019e_b.jpg"}},{"id":770,"common_name":"Ouachita Mountain leadplant","scientific_name":["Amorpha ouachitensis"],"other_name":null,"cycle":"Perennial","watering":"Minimum","sunlight":["Full sun","part shade"],"default_image":{"image_id":9,"license":5,"license_name":"Attribution-ShareAlike License","license_url":"https://creativecommons.org/licenses/by-sa/2.0/","original_url":"https://perenual.com/storage/species_image/2_abies_alba_pyramidalis/og/49255769768_df55596553_b.jpg","regular_url":"https://perenual.com/storage/species_image/2_abies_alba_pyramidalis/regular/49255769768_df55596553_b.jpg","medium_url":"https://perenual.com/storage/species_image/2_abies_alba_pyramidalis/medium/49255769768_df55596553_b.jpg","small_url":"https://perenual.com/storage/species_image/2_abies_alba_pyramidalis/small/49255769768_df55596553_b.jpg","thumbnail":"https://perenual.com/storage/species_image/2_abies_alba_pyramidalis/thumbnail/49255769768_df55596553_b.jpg"}},{"id":771,"common_name":"Devil's tongue","scientific_name":["Amorphophallus konjac"],"other_name":null,"cycle":"Perennial","watering":"Average","sunlight":["Part shade"],"default_image":{"image_id":1740,"license":4,"license_name":"Attribution License","license_url":"https://creativecommons.org/licenses/by/2.0/","original_url":"https://perenual.com/storage/species_image/771_amorphophallus_konjac/og/7375633894_b44dbcd920_b.jpg","regular_url":"https://perenual.com/storage/species_image/771_amorphophallus_konjac/regular/7375633894_b44dbcd920_b.jpg","medium_url":"https://perenual.com/storage/species_image/771_amorphophallus_konjac/medium/7375633894_b44dbcd920_b.jpg","small_url":"https://perenual.com/storage/species_image/771_amorphophallus_konjac/small/7375633894_b44dbcd920_b.jpg","thumbnail":"https://perenual.com/storage/species_image/771_amorphophallus_konjac/thumbnail/7375633894_b44dbcd920_b.jpg"}},{"id":772,"common_name":"monkshood vine","scientific_name":["Ampelopsis aconitifolia var. glabra"],"other_name":null,"cycle":"Perennial","watering":"Average","sunlight":["Full sun","part shade"],"default_image":{"image_id":21224,"license":45,"license_name":"Attribution-ShareAlike 3.0 Unported (CC BY-SA 3.0)","license_url":"https://creativecommons.org/licenses/by-sa/3.0/deed.en","original_url":"https://perenual.com/storage/species_image/772_ampelopsis_aconitifolia_var_glabra/og/Ampelopsis_aconitifolia_2c.jpg","regular_url":"https://perenual.com/storage/species_image/772_ampelopsis_aconitifolia_var_glabra/regular/Ampelopsis_aconitifolia_2c.jpg","medium_url":"https://perenual.com/storage/species_image/772_ampelopsis_aconitifolia_var_glabra/medium/Ampelopsis_aconitifolia_2c.jpg","small_url":"https://perenual.com/storage/species_image/772_ampelopsis_aconitifolia_var_glabra/small/Ampelopsis_aconitifolia_2c.jpg","thumbnail":"https://perenual.com/storage/species_image/772_ampelopsis_aconitifolia_var_glabra/thumbnail/Ampelopsis_aconitifolia_2c.jpg"}},{"id":773,"common_name":"amur peppervine","scientific_name":["Ampelopsis brevipedunculata"],"other_name":null,"cycle":"Perennial","watering":"Average","sunlight":["Full sun","part shade"],"default_image":{"image_id":1742,"license":4,"license_name":"Attribution License","license_url":"https://creativecommons.org/licenses/by/2.0/","original_url":"https://perenual.com/storage/species_image/774_ampelopsis_brevipedunculata_var_maximowiczii_elegans/og/30639333801_f26c72e005_b.jpg","regular_url":"https://perenual.com/storage/species_image/774_ampelopsis_brevipedunculata_var_maximowiczii_elegans/regular/30639333801_f26c72e005_b.jpg","medium_url":"https://perenual.com/storage/species_image/774_ampelopsis_brevipedunculata_var_maximowiczii_elegans/medium/30639333801_f26c72e005_b.jpg","small_url":"https://perenual.com/storage/species_image/774_ampelopsis_brevipedunculata_var_maximowiczii_elegans/small/30639333801_f26c72e005_b.jpg","thumbnail":"https://perenual.com/storage/species_image/774_ampelopsis_brevipedunculata_var_maximowiczii_elegans/thumbnail/30639333801_f26c72e005_b.jpg"}},{"id":774,"common_name":"porcelain vine","scientific_name":["Ampelopsis brevipedunculata var. maximowiczii 'Elegans'"],"other_name":null,"cycle":"Perennial","watering":"Average","sunlight":["Full sun","part shade"],"default_image":{"image_id":1742,"license":4,"license_name":"Attribution License","license_url":"https://creativecommons.org/licenses/by/2.0/","original_url":"https://perenual.com/storage/species_image/774_ampelopsis_brevipedunculata_var_maximowiczii_elegans/og/30639333801_f26c72e005_b.jpg","regular_url":"https://perenual.com/storage/species_image/774_ampelopsis_brevipedunculata_var_maximowiczii_elegans/regular/30639333801_f26c72e005_b.jpg","medium_url":"https://perenual.com/storage/species_image/774_ampelopsis_brevipedunculata_var_maximowiczii_elegans/medium/30639333801_f26c72e005_b.jpg","small_url":"https://perenual.com/storage/species_image/774_ampelopsis_brevipedunculata_var_maximowiczii_elegans/small/30639333801_f26c72e005_b.jpg","thumbnail":"https://perenual.com/storage/species_image/774_ampelopsis_brevipedunculata_var_maximowiczii_elegans/thumbnail/30639333801_f26c72e005_b.jpg"}},{"id":775,"common_name":"blue star","scientific_name":["Amsonia 'Blue Ice'"],"other_name":null,"cycle":"Perennial","watering":"Average","sunlight":["Full sun","part shade"],"default_image":{"image_id":1750,"license":5,"license_name":"Attribution-ShareAlike License","license_url":"https://creativecommons.org/licenses/by-sa/2.0/","original_url":"https://perenual.com/storage/species_image/775_amsonia_blue_ice/og/50002551833_8f8d10c3ef_b.jpg","regular_url":"https://perenual.com/storage/species_image/775_amsonia_blue_ice/regular/50002551833_8f8d10c3ef_b.jpg","medium_url":"https://perenual.com/storage/species_image/775_amsonia_blue_ice/medium/50002551833_8f8d10c3ef_b.jpg","small_url":"https://perenual.com/storage/species_image/775_amsonia_blue_ice/small/50002551833_8f8d10c3ef_b.jpg","thumbnail":"https://perenual.com/storage/species_image/775_amsonia_blue_ice/thumbnail/50002551833_8f8d10c3ef_b.jpg"}},{"id":776,"common_name":"blue star","scientific_name":["Amsonia ciliata"],"other_name":null,"cycle":"Perennial","watering":"Average","sunlight":["Full sun","part shade"],"default_image":{"image_id":1758,"license":4,"license_name":"Attribution License","license_url":"https://creativecommons.org/licenses/by/2.0/","original_url":"https://perenual.com/storage/species_image/778_amsonia_ciliata_var_filifolia/og/7026022633_a59294d234_b.jpg","regular_url":"https://perenual.com/storage/species_image/778_amsonia_ciliata_var_filifolia/regular/7026022633_a59294d234_b.jpg","medium_url":"https://perenual.com/storage/species_image/778_amsonia_ciliata_var_filifolia/medium/7026022633_a59294d234_b.jpg","small_url":"https://perenual.com/storage/species_image/778_amsonia_ciliata_var_filifolia/small/7026022633_a59294d234_b.jpg","thumbnail":"https://perenual.com/storage/species_image/778_amsonia_ciliata_var_filifolia/thumbnail/7026022633_a59294d234_b.jpg"}},{"id":777,"common_name":"blue star","scientific_name":["Amsonia ciliata 'Halfway to Arkansas'"],"other_name":null,"cycle":"Perennial","watering":"Average","sunlight":["Full sun","part shade"],"default_image":{"image_id":1758,"license":4,"license_name":"Attribution License","license_url":"https://creativecommons.org/licenses/by/2.0/","original_url":"https://perenual.com/storage/species_image/778_amsonia_ciliata_var_filifolia/og/7026022633_a59294d234_b.jpg","regular_url":"https://perenual.com/storage/species_image/778_amsonia_ciliata_var_filifolia/regular/7026022633_a59294d234_b.jpg","medium_url":"https://perenual.com/storage/species_image/778_amsonia_ciliata_var_filifolia/medium/7026022633_a59294d234_b.jpg","small_url":"https://perenual.com/storage/species_image/778_amsonia_ciliata_var_filifolia/small/7026022633_a59294d234_b.jpg","thumbnail":"https://perenual.com/storage/species_image/778_amsonia_ciliata_var_filifolia/thumbnail/7026022633_a59294d234_b.jpg"}},{"id":778,"common_name":"blue star","scientific_name":["Amsonia ciliata var. filifolia"],"other_name":null,"cycle":"Perennial","watering":"Average","sunlight":["Full sun","part shade"],"default_image":{"image_id":1758,"license":4,"license_name":"Attribution License","license_url":"https://creativecommons.org/licenses/by/2.0/","original_url":"https://perenual.com/storage/species_image/778_amsonia_ciliata_var_filifolia/og/7026022633_a59294d234_b.jpg","regular_url":"https://perenual.com/storage/species_image/778_amsonia_ciliata_var_filifolia/regular/7026022633_a59294d234_b.jpg","medium_url":"https://perenual.com/storage/species_image/778_amsonia_ciliata_var_filifolia/medium/7026022633_a59294d234_b.jpg","small_url":"https://perenual.com/storage/species_image/778_amsonia_ciliata_var_filifolia/small/7026022633_a59294d234_b.jpg","thumbnail":"https://perenual.com/storage/species_image/778_amsonia_ciliata_var_filifolia/thumbnail/7026022633_a59294d234_b.jpg"}},{"id":779,"common_name":"blue star","scientific_name":["Amsonia ciliata var. filifolia 'Georgia Pancake'"],"other_name":null,"cycle":"Perennial","watering":"Average","sunlight":["Full sun","part shade"],"default_image":{"image_id":21225,"license":45,"license_name":"Attribution-ShareAlike 3.0 Unported (CC BY-SA 3.0)","license_url":"https://creativecommons.org/licenses/by-sa/3.0/deed.en","original_url":"https://perenual.com/storage/species_image/779_amsonia_ciliata_var_filifolia_georgia_pancake/og/Amsonia_ciliata_var._ciliata_Amzonia_2013-06-16_01.jpg","regular_url":"https://perenual.com/storage/species_image/779_amsonia_ciliata_var_filifolia_georgia_pancake/regular/Amsonia_ciliata_var._ciliata_Amzonia_2013-06-16_01.jpg","medium_url":"https://perenual.com/storage/species_image/779_amsonia_ciliata_var_filifolia_georgia_pancake/medium/Amsonia_ciliata_var._ciliata_Amzonia_2013-06-16_01.jpg","small_url":"https://perenual.com/storage/species_image/779_amsonia_ciliata_var_filifolia_georgia_pancake/small/Amsonia_ciliata_var._ciliata_Amzonia_2013-06-16_01.jpg","thumbnail":"https://perenual.com/storage/species_image/779_amsonia_ciliata_var_filifolia_georgia_pancake/thumbnail/Amsonia_ciliata_var._ciliata_Amzonia_2013-06-16_01.jpg"}},{"id":780,"common_name":"blue star","scientific_name":["Amsonia hubrichtii"],"other_name":null,"cycle":"Perennial","watering":"Average","sunlight":["Full sun","part shade"],"default_image":{"image_id":1762,"license":5,"license_name":"Attribution-ShareAlike License","license_url":"https://creativecommons.org/licenses/by-sa/2.0/","original_url":"https://perenual.com/storage/species_image/780_amsonia_hubrichtii/og/18869755835_94f3a0b291_b.jpg","regular_url":"https://perenual.com/storage/species_image/780_amsonia_hubrichtii/regular/18869755835_94f3a0b291_b.jpg","medium_url":"https://perenual.com/storage/species_image/780_amsonia_hubrichtii/medium/18869755835_94f3a0b291_b.jpg","small_url":"https://perenual.com/storage/species_image/780_amsonia_hubrichtii/small/18869755835_94f3a0b291_b.jpg","thumbnail":"https://perenual.com/storage/species_image/780_amsonia_hubrichtii/thumbnail/18869755835_94f3a0b291_b.jpg"}}],"to":780,"per_page":30,"current_page":26,"from":751,"last_page":200,"total":6000}