{"data":[{"id":4621,"common_name":"common laburnum","scientific_name":["Laburnum anagyroides"],"other_name":null,"cycle":"Perennial","watering":"Average","sunlight":["Full sun","part shade"],"default_image":{"image_id":9660,"license":4,"license_name":"Attribution License","license_url":"https://creativecommons.org/licenses/by/2.0/","original_url":"https://perenual.com/storage/species_image/4621_laburnum_anagyroides/og/51221298188_96e371a3cf_b.jpg","regular_url":"https://perenual.com/storage/species_image/4621_laburnum_anagyroides/regular/51221298188_96e371a3cf_b.jpg","medium_url":"https://perenual.com/storage/species_image/4621_laburnum_anagyroides/medium/51221298188_96e371a3cf_b.jpg","small_url":"https://perenual.com/storage/species_image/4621_laburnum_anagyroides/small/51221298188_96e371a3cf_b.jpg","thumbnail":"https://perenual.com/storage/species_image/4621_laburnum_anagyroides/thumbnail/51221298188_96e371a3cf_b.jpg"}},{"id":4622,"common_name":"bean tree","scientific_name":["Laburnum watereri"],"other_name":null,"cycle":"Perennial","watering":"Average","sunlight":["Full sun","part shade"],"default_image":{"image_id":9666,"license":5,"license_name":"Attribution-ShareAlike License","license_url":"https://creativecommons.org/licenses/by-sa/2.0/","original_url":"https://perenual.com/storage/species_image/4622_laburnum_watereri/og/27899508874_4a82fdb27b_b.jpg","regular_url":"https://perenual.com/storage/species_image/4622_laburnum_watereri/regular/27899508874_4a82fdb27b_b.jpg","medium_url":"https://perenual.com/storage/species_image/4622_laburnum_watereri/medium/27899508874_4a82fdb27b_b.jpg","small_url":"https://perenual.com/storage/species_image/4622_laburnum_watereri/small/27899508874_4a82fdb27b_b.jpg","thumbnail":"https://perenual.com/storage/species_image/4622_laburnum_watereri/thumbnail/27899508874_4a82fdb27b_b.jpg"}},{"id":4623,"common_name":"bean tree","scientific_name":["Laburnum watereri 'Vossii'"],"other_name":null,"cycle":"Perennial","watering":"Average","sunlight":["Full sun","part shade"],"default_image":{"image_id":623,"license":4,"license_name":"Attribution License","license_url":"https://creativecommons.org/licenses/by/2.0/","original_url":"https://perenual.com/storage/species_image/4623_laburnum_watereri_vossii/og/10793511476_7ccc3d5d99_b.jpg","regular_url":"https://perenual.com/storage/species_image/4623_laburnum_watereri_vossii/regular/10793511476_7ccc3d5d99_b.jpg","medium_url":"https://perenual.com/storage/species_image/4623_laburnum_watereri_vossii/medium/10793511476_7ccc3d5d99_b.jpg","small_url":"https://perenual.com/storage/species_image/4623_laburnum_watereri_vossii/small/10793511476_7ccc3d5d99_b.jpg","thumbnail":"https://perenual.com/storage/species_image/4623_laburnum_watereri_vossii/thumbnail/10793511476_7ccc3d5d99_b.jpg"}},{"id":4624,"common_name":"whitehead bogbutton","scientific_name":["Lachnocaulon anceps"],"other_name":null,"cycle":"Perennial","watering":"Frequent","sunlight":["Full sun"],"default_image":{"image_id":9671,"license":4,"license_name":"Attribution License","license_url":"https://creativecommons.org/licenses/by/2.0/","original_url":"https://perenual.com/storage/species_image/4624_lachnocaulon_anceps/og/51179052868_0c41a9ec25_b.jpg","regular_url":"https://perenual.com/storage/species_image/4624_lachnocaulon_anceps/regular/51179052868_0c41a9ec25_b.jpg","medium_url":"https://perenual.com/storage/species_image/4624_lachnocaulon_anceps/medium/51179052868_0c41a9ec25_b.jpg","small_url":"https://perenual.com/storage/species_image/4624_lachnocaulon_anceps/small/51179052868_0c41a9ec25_b.jpg","thumbnail":"https://perenual.com/storage/species_image/4624_lachnocaulon_anceps/thumbnail/51179052868_0c41a9ec25_b.jpg"}},{"id":4625,"common_name":"lettuce","scientific_name":["Lactuca floridana"],"other_name":null,"cycle":"Annual","watering":"Frequent","sunlight":["Part shade","full shade"],"default_image":{"image_id":9675,"license":5,"license_name":"Attribution-ShareAlike License","license_url":"https://creativecommons.org/licenses/by-sa/2.0/","original_url":"https://perenual.com/storage/species_image/4625_lactuca_floridana/og/14868833825_4b1b8d73cc_b.jpg","regular_url":"https://perenual.com/storage/species_image/4625_lactuca_floridana/regular/14868833825_4b1b8d73cc_b.jpg","medium_url":"https://perenual.com/storage/species_image/4625_lactuca_floridana/medium/14868833825_4b1b8d73cc_b.jpg","small_url":"https://perenual.com/storage/species_image/4625_lactuca_floridana/small/14868833825_4b1b8d73cc_b.jpg","thumbnail":"https://perenual.com/storage/species_image/4625_lactuca_floridana/thumbnail/14868833825_4b1b8d73cc_b.jpg"}},{"id":4626,"common_name":"lettuce","scientific_name":["Lactuca sativa"],"other_name":null,"cycle":"Annual","watering":"Average","sunlight":["Full sun"],"default_image":{"image_id":9680,"license":5,"license_name":"Attribution-ShareAlike License","license_url":"https://creativecommons.org/licenses/by-sa/2.0/","original_url":"https://perenual.com/storage/species_image/4626_lactuca_sativa/og/28344452270_de5c27709e_b.jpg","regular_url":"https://perenual.com/storage/species_image/4626_lactuca_sativa/regular/28344452270_de5c27709e_b.jpg","medium_url":"https://perenual.com/storage/species_image/4626_lactuca_sativa/medium/28344452270_de5c27709e_b.jpg","small_url":"https://perenual.com/storage/species_image/4626_lactuca_sativa/small/28344452270_de5c27709e_b.jpg","thumbnail":"https://perenual.com/storage/species_image/4626_lactuca_sativa/thumbnail/28344452270_de5c27709e_b.jpg"}},{"id":4627,"common_name":"lettuce","scientific_name":["Lactuca sativa 'Merlot'"],"other_name":null,"cycle":"Annual","watering":"Average","sunlight":["Full sun"],"default_image":{"image_id":9685,"license":4,"license_name":"Attribution License","license_url":"https://creativecommons.org/licenses/by/2.0/","original_url":"https://perenual.com/storage/species_image/4627_lactuca_sativa_merlot/og/52591617943_f131931cd7_b.jpg","regular_url":"https://perenual.com/storage/species_image/4627_lactuca_sativa_merlot/regular/52591617943_f131931cd7_b.jpg","medium_url":"https://perenual.com/storage/species_image/4627_lactuca_sativa_merlot/medium/52591617943_f131931cd7_b.jpg","small_url":"https://perenual.com/storage/species_image/4627_lactuca_sativa_merlot/small/52591617943_f131931cd7_b.jpg","thumbnail":"https://perenual.com/storage/species_image/4627_lactuca_sativa_merlot/thumbnail/52591617943_f131931cd7_b.jpg"}},{"id":4628,"common_name":"bottle gourd","scientific_name":["Lagenaria siceraria"],"other_name":null,"cycle":"Perennial","watering":"Average","sunlight":["Full sun"],"default_image":{"image_id":9687,"license":4,"license_name":"Attribution License","license_url":"https://creativecommons.org/licenses/by/2.0/","original_url":"https://perenual.com/storage/species_image/4628_lagenaria_siceraria/og/29992117242_8b3bc7ce44_b.jpg","regular_url":"https://perenual.com/storage/species_image/4628_lagenaria_siceraria/regular/29992117242_8b3bc7ce44_b.jpg","medium_url":"https://perenual.com/storage/species_image/4628_lagenaria_siceraria/medium/29992117242_8b3bc7ce44_b.jpg","small_url":"https://perenual.com/storage/species_image/4628_lagenaria_siceraria/small/29992117242_8b3bc7ce44_b.jpg","thumbnail":"https://perenual.com/storage/species_image/4628_lagenaria_siceraria/thumbnail/29992117242_8b3bc7ce44_b.jpg"}},{"id":4629,"common_name":"crape myrtle","scientific_name":["Lagerstroemia 'Acoma'"],"other_name":null,"cycle":"Perennial","watering":"Average","sunlight":["Full sun"],"default_image":{"image_id":9,"license":5,"license_name":"Attribution-ShareAlike License","license_url":"https://creativecommons.org/licenses/by-sa/2.0/","original_url":"https://perenual.com/storage/species_image/2_abies_alba_pyramidalis/og/49255769768_df55596553_b.jpg","regular_url":"https://perenual.com/storage/species_image/2_abies_alba_pyramidalis/regular/49255769768_df55596553_b.jpg","medium_url":"https://perenual.com/storage/species_image/2_abies_alba_pyramidalis/medium/49255769768_df55596553_b.jpg","small_url":"https://perenual.com/storage/species_image/2_abies_alba_pyramidalis/small/49255769768_df55596553_b.jpg","thumbnail":"https://perenual.com/storage/species_image/2_abies_alba_pyramidalis/thumbnail/49255769768_df55596553_b.jpg"}},{"id":4630,"common_name":"crape myrtle","scientific_name":["Lagerstroemia 'Apalachee'"],"other_name":null,"cycle":"Perennial","watering":"Average","sunlight":["Full sun"],"default_image":{"image_id":9,"license":5,"license_name":"Attribution-ShareAlike License","license_url":"https://creativecommons.org/licenses/by-sa/2.0/","original_url":"https://perenual.com/storage/species_image/2_abies_alba_pyramidalis/og/49255769768_df55596553_b.jpg","regular_url":"https://perenual.com/storage/species_image/2_abies_alba_pyramidalis/regular/49255769768_df55596553_b.jpg","medium_url":"https://perenual.com/storage/species_image/2_abies_alba_pyramidalis/medium/49255769768_df55596553_b.jpg","small_url":"https://perenual.com/storage/species_image/2_abies_alba_pyramidalis/small/49255769768_df55596553_b.jpg","thumbnail":"https://perenual.com/storage/species_image/2_abies_alba_pyramidalis/thumbnail/49255769768_df55596553_b.jpg"}},{"id":4631,"common_name":"crape myrtle","scientific_name":["Lagerstroemia 'Bicolor'"],"other_name":null,"cycle":"Perennial","watering":"Average","sunlight":["Full sun"],"default_image":{"image_id":9695,"license":4,"license_name":"Attribution License","license_url":"https://creativecommons.org/licenses/by/2.0/","original_url":"https://perenual.com/storage/species_image/4648_lagerstroemia_indica_velmas_royal_delight/og/52253428388_9f13c470f0_b.jpg","regular_url":"https://perenual.com/storage/species_image/4648_lagerstroemia_indica_velmas_royal_delight/regular/52253428388_9f13c470f0_b.jpg","medium_url":"https://perenual.com/storage/species_image/4648_lagerstroemia_indica_velmas_royal_delight/medium/52253428388_9f13c470f0_b.jpg","small_url":"https://perenual.com/storage/species_image/4648_lagerstroemia_indica_velmas_royal_delight/small/52253428388_9f13c470f0_b.jpg","thumbnail":"https://perenual.com/storage/species_image/4648_lagerstroemia_indica_velmas_royal_delight/thumbnail/52253428388_9f13c470f0_b.jpg"}},{"id":4632,"common_name":"crape myrtle","scientific_name":["Lagerstroemia 'Chickasaw'"],"other_name":null,"cycle":"Perennial","watering":"Average","sunlight":["Full sun"],"default_image":{"image_id":9,"license":5,"license_name":"Attribution-ShareAlike License","license_url":"https://creativecommons.org/licenses/by-sa/2.0/","original_url":"https://perenual.com/storage/species_image/2_abies_alba_pyramidalis/og/49255769768_df55596553_b.jpg","regular_url":"https://perenual.com/storage/species_image/2_abies_alba_pyramidalis/regular/49255769768_df55596553_b.jpg","medium_url":"https://perenual.com/storage/species_image/2_abies_alba_pyramidalis/medium/49255769768_df55596553_b.jpg","small_url":"https://perenual.com/storage/species_image/2_abies_alba_pyramidalis/small/49255769768_df55596553_b.jpg","thumbnail":"https://perenual.com/storage/species_image/2_abies_alba_pyramidalis/thumbnail/49255769768_df55596553_b.jpg"}},{"id":4633,"common_name":"crape myrtle","scientific_name":["Lagerstroemia 'Choctaw'"],"other_name":null,"cycle":"Perennial","watering":"Average","sunlight":["Full sun"],"default_image":{"image_id":9,"license":5,"license_name":"Attribution-ShareAlike License","license_url":"https://creativecommons.org/licenses/by-sa/2.0/","original_url":"https://perenual.com/storage/species_image/2_abies_alba_pyramidalis/og/49255769768_df55596553_b.jpg","regular_url":"https://perenual.com/storage/species_image/2_abies_alba_pyramidalis/regular/49255769768_df55596553_b.jpg","medium_url":"https://perenual.com/storage/species_image/2_abies_alba_pyramidalis/medium/49255769768_df55596553_b.jpg","small_url":"https://perenual.com/storage/species_image/2_abies_alba_pyramidalis/small/49255769768_df55596553_b.jpg","thumbnail":"https://perenual.com/storage/species_image/2_abies_alba_pyramidalis/thumbnail/49255769768_df55596553_b.jpg"}},{"id":4634,"common_name":"crape myrtle","scientific_name":["Lagerstroemia 'Comanche'"],"other_name":null,"cycle":"Perennial","watering":"Average","sunlight":["Full sun"],"default_image":{"image_id":9,"license":5,"license_name":"Attribution-ShareAlike License","license_url":"https://creativecommons.org/licenses/by-sa/2.0/","original_url":"https://perenual.com/storage/species_image/2_abies_alba_pyramidalis/og/49255769768_df55596553_b.jpg","regular_url":"https://perenual.com/storage/species_image/2_abies_alba_pyramidalis/regular/49255769768_df55596553_b.jpg","medium_url":"https://perenual.com/storage/species_image/2_abies_alba_pyramidalis/medium/49255769768_df55596553_b.jpg","small_url":"https://perenual.com/storage/species_image/2_abies_alba_pyramidalis/small/49255769768_df55596553_b.jpg","thumbnail":"https://perenual.com/storage/species_image/2_abies_alba_pyramidalis/thumbnail/49255769768_df55596553_b.jpg"}},{"id":4635,"common_name":"crape myrtle","scientific_name":["Lagerstroemia 'Country Red'"],"other_name":null,"cycle":"Perennial","watering":"Average","sunlight":["Full sun"],"default_image":{"image_id":9,"license":5,"license_name":"Attribution-ShareAlike License","license_url":"https://creativecommons.org/licenses/by-sa/2.0/","original_url":"https://perenual.com/storage/species_image/2_abies_alba_pyramidalis/og/49255769768_df55596553_b.jpg","regular_url":"https://perenual.com/storage/species_image/2_abies_alba_pyramidalis/regular/49255769768_df55596553_b.jpg","medium_url":"https://perenual.com/storage/species_image/2_abies_alba_pyramidalis/medium/49255769768_df55596553_b.jpg","small_url":"https://perenual.com/storage/species_image/2_abies_alba_pyramidalis/small/49255769768_df55596553_b.jpg","thumbnail":"https://perenual.com/storage/species_image/2_abies_alba_pyramidalis/thumbnail/49255769768_df55596553_b.jpg"}},{"id":4636,"common_name":"crape myrtle","scientific_name":["Lagerstroemia 'Gamad I' RAZZLE DAZZLE CHERRY"],"other_name":null,"cycle":"Perennial","watering":"Average","sunlight":["Full sun"],"default_image":{"image_id":22031,"license":1,"license_name":null,"license_url":null,"original_url":"https://perenual.com/storage/species_image/4667_lagerstroemia_tonto/og/52264126686_bb475f9d2c_b.jpg","regular_url":"https://perenual.com/storage/species_image/4667_lagerstroemia_tonto/regular/52264126686_bb475f9d2c_b.jpg","medium_url":"https://perenual.com/storage/species_image/4667_lagerstroemia_tonto/medium/52264126686_bb475f9d2c_b.jpg","small_url":"https://perenual.com/storage/species_image/4667_lagerstroemia_tonto/small/52264126686_bb475f9d2c_b.jpg","thumbnail":"https://perenual.com/storage/species_image/4667_lagerstroemia_tonto/thumbnail/52264126686_bb475f9d2c_b.jpg"}},{"id":4637,"common_name":"crape myrtle","scientific_name":["Lagerstroemia 'Gamad V' DAZZLE ME PINK"],"other_name":null,"cycle":"Perennial","watering":"Average","sunlight":["Full sun"],"default_image":{"image_id":9695,"license":4,"license_name":"Attribution License","license_url":"https://creativecommons.org/licenses/by/2.0/","original_url":"https://perenual.com/storage/species_image/4648_lagerstroemia_indica_velmas_royal_delight/og/52253428388_9f13c470f0_b.jpg","regular_url":"https://perenual.com/storage/species_image/4648_lagerstroemia_indica_velmas_royal_delight/regular/52253428388_9f13c470f0_b.jpg","medium_url":"https://perenual.com/storage/species_image/4648_lagerstroemia_indica_velmas_royal_delight/medium/52253428388_9f13c470f0_b.jpg","small_url":"https://perenual.com/storage/species_image/4648_lagerstroemia_indica_velmas_royal_delight/small/52253428388_9f13c470f0_b.jpg","thumbnail":"https://perenual.com/storage/species_image/4648_lagerstroemia_indica_velmas_royal_delight/thumbnail/52253428388_9f13c470f0_b.jpg"}},{"id":4638,"common_name":"crape myrtle","scientific_name":["Lagerstroemia indica 'Baton Rouge'"],"other_name":null,"cycle":"Perennial","watering":"Average","sunlight":["Full sun"],"default_image":{"image_id":9698,"license":4,"license_name":"Attribution License","license_url":"https://creativecommons.org/licenses/by/2.0/","original_url":"https://perenual.com/storage/species_image/4648_lagerstroemia_indica_velmas_royal_delight/og/52251141411_e687a57431_b.jpg","regular_url":"https://perenual.com/storage/species_image/4648_lagerstroemia_indica_velmas_royal_delight/regular/52251141411_e687a57431_b.jpg","medium_url":"https://perenual.com/storage/species_image/4648_lagerstroemia_indica_velmas_royal_delight/medium/52251141411_e687a57431_b.jpg","small_url":"https://perenual.com/storage/species_image/4648_lagerstroemia_indica_velmas_royal_delight/small/52251141411_e687a57431_b.jpg","thumbnail":"https://perenual.com/storage/species_image/4648_lagerstroemia_indica_velmas_royal_delight/thumbnail/52251141411_e687a57431_b.jpg"}},{"id":4639,"common_name":"crape myrtle","scientific_name":["Lagerstroemia indica 'Delta Blush'"],"other_name":null,"cycle":"Perennial","watering":"Average","sunlight":["Full sun"],"default_image":{"image_id":9695,"license":4,"license_name":"Attribution License","license_url":"https://creativecommons.org/licenses/by/2.0/","original_url":"https://perenual.com/storage/species_image/4648_lagerstroemia_indica_velmas_royal_delight/og/52253428388_9f13c470f0_b.jpg","regular_url":"https://perenual.com/storage/species_image/4648_lagerstroemia_indica_velmas_royal_delight/regular/52253428388_9f13c470f0_b.jpg","medium_url":"https://perenual.com/storage/species_image/4648_lagerstroemia_indica_velmas_royal_delight/medium/52253428388_9f13c470f0_b.jpg","small_url":"https://perenual.com/storage/species_image/4648_lagerstroemia_indica_velmas_royal_delight/small/52253428388_9f13c470f0_b.jpg","thumbnail":"https://perenual.com/storage/species_image/4648_lagerstroemia_indica_velmas_royal_delight/thumbnail/52253428388_9f13c470f0_b.jpg"}},{"id":4640,"common_name":"crape myrtle","scientific_name":["Lagerstroemia indica 'Hopi'"],"other_name":null,"cycle":"Perennial","watering":"Average","sunlight":["Full sun"],"default_image":{"image_id":9702,"license":4,"license_name":"Attribution License","license_url":"https://creativecommons.org/licenses/by/2.0/","original_url":"https://perenual.com/storage/species_image/4648_lagerstroemia_indica_velmas_royal_delight/og/52251156668_a3db768ed1_b.jpg","regular_url":"https://perenual.com/storage/species_image/4648_lagerstroemia_indica_velmas_royal_delight/regular/52251156668_a3db768ed1_b.jpg","medium_url":"https://perenual.com/storage/species_image/4648_lagerstroemia_indica_velmas_royal_delight/medium/52251156668_a3db768ed1_b.jpg","small_url":"https://perenual.com/storage/species_image/4648_lagerstroemia_indica_velmas_royal_delight/small/52251156668_a3db768ed1_b.jpg","thumbnail":"https://perenual.com/storage/species_image/4648_lagerstroemia_indica_velmas_royal_delight/thumbnail/52251156668_a3db768ed1_b.jpg"}},{"id":4641,"common_name":"crape myrtle","scientific_name":["Lagerstroemia indica 'Houston'"],"other_name":null,"cycle":"Perennial","watering":"Average","sunlight":["Full sun"],"default_image":{"image_id":9,"license":5,"license_name":"Attribution-ShareAlike License","license_url":"https://creativecommons.org/licenses/by-sa/2.0/","original_url":"https://perenual.com/storage/species_image/2_abies_alba_pyramidalis/og/49255769768_df55596553_b.jpg","regular_url":"https://perenual.com/storage/species_image/2_abies_alba_pyramidalis/regular/49255769768_df55596553_b.jpg","medium_url":"https://perenual.com/storage/species_image/2_abies_alba_pyramidalis/medium/49255769768_df55596553_b.jpg","small_url":"https://perenual.com/storage/species_image/2_abies_alba_pyramidalis/small/49255769768_df55596553_b.jpg","thumbnail":"https://perenual.com/storage/species_image/2_abies_alba_pyramidalis/thumbnail/49255769768_df55596553_b.jpg"}},{"id":4642,"common_name":"crape myrtle","scientific_name":["Lagerstroemia indica 'Monow' PETITE SNOW"],"other_name":null,"cycle":"Perennial","watering":"Average","sunlight":["Full sun"],"default_image":{"image_id":9,"license":5,"license_name":"Attribution-ShareAlike License","license_url":"https://creativecommons.org/licenses/by-sa/2.0/","original_url":"https://perenual.com/storage/species_image/2_abies_alba_pyramidalis/og/49255769768_df55596553_b.jpg","regular_url":"https://perenual.com/storage/species_image/2_abies_alba_pyramidalis/regular/49255769768_df55596553_b.jpg","medium_url":"https://perenual.com/storage/species_image/2_abies_alba_pyramidalis/medium/49255769768_df55596553_b.jpg","small_url":"https://perenual.com/storage/species_image/2_abies_alba_pyramidalis/small/49255769768_df55596553_b.jpg","thumbnail":"https://perenual.com/storage/species_image/2_abies_alba_pyramidalis/thumbnail/49255769768_df55596553_b.jpg"}},{"id":4643,"common_name":"crape myrtle","scientific_name":["Lagerstroemia indica 'Muskogee'"],"other_name":null,"cycle":"Perennial","watering":"Average","sunlight":["Full sun"],"default_image":{"image_id":9697,"license":4,"license_name":"Attribution License","license_url":"https://creativecommons.org/licenses/by/2.0/","original_url":"https://perenual.com/storage/species_image/4649_lagerstroemia_indica_victor/og/52251141431_3eb34a4196_b.jpg","regular_url":"https://perenual.com/storage/species_image/4649_lagerstroemia_indica_victor/regular/52251141431_3eb34a4196_b.jpg","medium_url":"https://perenual.com/storage/species_image/4649_lagerstroemia_indica_victor/medium/52251141431_3eb34a4196_b.jpg","small_url":"https://perenual.com/storage/species_image/4649_lagerstroemia_indica_victor/small/52251141431_3eb34a4196_b.jpg","thumbnail":"https://perenual.com/storage/species_image/4649_lagerstroemia_indica_victor/thumbnail/52251141431_3eb34a4196_b.jpg"}},{"id":4644,"common_name":"crape myrtle","scientific_name":["Lagerstroemia indica 'Potomac'"],"other_name":null,"cycle":"Perennial","watering":"Average","sunlight":["Full sun"],"default_image":{"image_id":22031,"license":1,"license_name":null,"license_url":null,"original_url":"https://perenual.com/storage/species_image/4667_lagerstroemia_tonto/og/52264126686_bb475f9d2c_b.jpg","regular_url":"https://perenual.com/storage/species_image/4667_lagerstroemia_tonto/regular/52264126686_bb475f9d2c_b.jpg","medium_url":"https://perenual.com/storage/species_image/4667_lagerstroemia_tonto/medium/52264126686_bb475f9d2c_b.jpg","small_url":"https://perenual.com/storage/species_image/4667_lagerstroemia_tonto/small/52264126686_bb475f9d2c_b.jpg","thumbnail":"https://perenual.com/storage/species_image/4667_lagerstroemia_tonto/thumbnail/52264126686_bb475f9d2c_b.jpg"}},{"id":4645,"common_name":"crape myrtle","scientific_name":["Lagerstroemia indica 'Seminole'"],"other_name":null,"cycle":"Perennial","watering":"Average","sunlight":["Full sun"],"default_image":{"image_id":22033,"license":1,"license_name":null,"license_url":null,"original_url":"https://perenual.com/storage/species_image/4648_lagerstroemia_indica_velmas_royal_delight/og/52258104623_990e4bc15b_b.jpg","regular_url":"https://perenual.com/storage/species_image/4648_lagerstroemia_indica_velmas_royal_delight/regular/52258104623_990e4bc15b_b.jpg","medium_url":"https://perenual.com/storage/species_image/4648_lagerstroemia_indica_velmas_royal_delight/medium/52258104623_990e4bc15b_b.jpg","small_url":"https://perenual.com/storage/species_image/4648_lagerstroemia_indica_velmas_royal_delight/small/52258104623_990e4bc15b_b.jpg","thumbnail":"https://perenual.com/storage/species_image/4648_lagerstroemia_indica_velmas_royal_delight/thumbnail/52258104623_990e4bc15b_b.jpg"}},{"id":4646,"common_name":"crape myrtle","scientific_name":["Lagerstroemia indica 'Splash of Pink'"],"other_name":null,"cycle":"Perennial","watering":"Average","sunlight":["Full sun"],"default_image":{"image_id":9695,"license":4,"license_name":"Attribution License","license_url":"https://creativecommons.org/licenses/by/2.0/","original_url":"https://perenual.com/storage/species_image/4648_lagerstroemia_indica_velmas_royal_delight/og/52253428388_9f13c470f0_b.jpg","regular_url":"https://perenual.com/storage/species_image/4648_lagerstroemia_indica_velmas_royal_delight/regular/52253428388_9f13c470f0_b.jpg","medium_url":"https://perenual.com/storage/species_image/4648_lagerstroemia_indica_velmas_royal_delight/medium/52253428388_9f13c470f0_b.jpg","small_url":"https://perenual.com/storage/species_image/4648_lagerstroemia_indica_velmas_royal_delight/small/52253428388_9f13c470f0_b.jpg","thumbnail":"https://perenual.com/storage/species_image/4648_lagerstroemia_indica_velmas_royal_delight/thumbnail/52253428388_9f13c470f0_b.jpg"}},{"id":4647,"common_name":"crape myrtle","scientific_name":["Lagerstroemia indica 'Tuscarora'"],"other_name":null,"cycle":"Perennial","watering":"Average","sunlight":["Full sun"],"default_image":{"image_id":22032,"license":1,"license_name":null,"license_url":null,"original_url":"https://perenual.com/storage/species_image/4667_lagerstroemia_tonto/og/52264396224_b3db8af5fd_b.jpg","regular_url":"https://perenual.com/storage/species_image/4667_lagerstroemia_tonto/regular/52264396224_b3db8af5fd_b.jpg","medium_url":"https://perenual.com/storage/species_image/4667_lagerstroemia_tonto/medium/52264396224_b3db8af5fd_b.jpg","small_url":"https://perenual.com/storage/species_image/4667_lagerstroemia_tonto/small/52264396224_b3db8af5fd_b.jpg","thumbnail":"https://perenual.com/storage/species_image/4667_lagerstroemia_tonto/thumbnail/52264396224_b3db8af5fd_b.jpg"}},{"id":4648,"common_name":"crape myrtle","scientific_name":["Lagerstroemia indica 'Velma's Royal Delight'"],"other_name":null,"cycle":"Perennial","watering":"Average","sunlight":["Full sun"],"default_image":{"image_id":22033,"license":1,"license_name":null,"license_url":null,"original_url":"https://perenual.com/storage/species_image/4648_lagerstroemia_indica_velmas_royal_delight/og/52258104623_990e4bc15b_b.jpg","regular_url":"https://perenual.com/storage/species_image/4648_lagerstroemia_indica_velmas_royal_delight/regular/52258104623_990e4bc15b_b.jpg","medium_url":"https://perenual.com/storage/species_image/4648_lagerstroemia_indica_velmas_royal_delight/medium/52258104623_990e4bc15b_b.jpg","small_url":"https://perenual.com/storage/species_image/4648_lagerstroemia_indica_velmas_royal_delight/small/52258104623_990e4bc15b_b.jpg","thumbnail":"https://perenual.com/storage/species_image/4648_lagerstroemia_indica_velmas_royal_delight/thumbnail/52258104623_990e4bc15b_b.jpg"}},{"id":4649,"common_name":"crape myrtle","scientific_name":["Lagerstroemia indica 'Victor'"],"other_name":null,"cycle":"Perennial","watering":"Average","sunlight":["Full sun"],"default_image":{"image_id":22032,"license":1,"license_name":null,"license_url":null,"original_url":"https://perenual.com/storage/species_image/4667_lagerstroemia_tonto/og/52264396224_b3db8af5fd_b.jpg","regular_url":"https://perenual.com/storage/species_image/4667_lagerstroemia_tonto/regular/52264396224_b3db8af5fd_b.jpg","medium_url":"https://perenual.com/storage/species_image/4667_lagerstroemia_tonto/medium/52264396224_b3db8af5fd_b.jpg","small_url":"https://perenual.com/storage/species_image/4667_lagerstroemia_tonto/small/52264396224_b3db8af5fd_b.jpg","thumbnail":"https://perenual.com/storage/species_image/4667_lagerstroemia_tonto/thumbnail/52264396224_b3db8af5fd_b.jpg"}},{"id":4650,"common_name":"crape myrtle","scientific_name":["Lagerstroemia indica 'Violet Filli'"],"other_name":null,"cycle":"Perennial","watering":"Average","sunlight":["Full sun"],"default_image":{"image_id":9698,"license":4,"license_name":"Attribution License","license_url":"https://creativecommons.org/licenses/by/2.0/","original_url":"https://perenual.com/storage/species_image/4648_lagerstroemia_indica_velmas_royal_delight/og/52251141411_e687a57431_b.jpg","regular_url":"https://perenual.com/storage/species_image/4648_lagerstroemia_indica_velmas_royal_delight/regular/52251141411_e687a57431_b.jpg","medium_url":"https://perenual.com/storage/species_image/4648_lagerstroemia_indica_velmas_royal_delight/medium/52251141411_e687a57431_b.jpg","small_url":"https://perenual.com/storage/species_image/4648_lagerstroemia_indica_velmas_royal_delight/small/52251141411_e687a57431_b.jpg","thumbnail":"https://perenual.com/storage/species_image/4648_lagerstroemia_indica_velmas_royal_delight/thumbnail/52251141411_e687a57431_b.jpg"}}],"to":4650,"per_page":30,"current_page":155,"from":4621,"last_page":200,"total":6000}