{"data":[{"id":691,"common_name":"German garlic","scientific_name":["Allium senescens subsp. glaucum"],"other_name":null,"cycle":"Perennial","watering":"Minimum","sunlight":["Full sun","part shade"],"default_image":{"image_id":9,"license":5,"license_name":"Attribution-ShareAlike License","license_url":"https://creativecommons.org/licenses/by-sa/2.0/","original_url":"https://perenual.com/storage/species_image/2_abies_alba_pyramidalis/og/49255769768_df55596553_b.jpg","regular_url":"https://perenual.com/storage/species_image/2_abies_alba_pyramidalis/regular/49255769768_df55596553_b.jpg","medium_url":"https://perenual.com/storage/species_image/2_abies_alba_pyramidalis/medium/49255769768_df55596553_b.jpg","small_url":"https://perenual.com/storage/species_image/2_abies_alba_pyramidalis/small/49255769768_df55596553_b.jpg","thumbnail":"https://perenual.com/storage/species_image/2_abies_alba_pyramidalis/thumbnail/49255769768_df55596553_b.jpg"}},{"id":692,"common_name":"ornamental onion","scientific_name":["Allium 'Serendipity'"],"other_name":null,"cycle":"Perennial","watering":"Minimum","sunlight":["Full sun","part shade"],"default_image":{"image_id":1495,"license":5,"license_name":"Attribution-ShareAlike License","license_url":"https://creativecommons.org/licenses/by-sa/2.0/","original_url":"https://perenual.com/storage/species_image/692_allium_serendipity/og/52265227333_7085ef5c9f_b.jpg","regular_url":"https://perenual.com/storage/species_image/692_allium_serendipity/regular/52265227333_7085ef5c9f_b.jpg","medium_url":"https://perenual.com/storage/species_image/692_allium_serendipity/medium/52265227333_7085ef5c9f_b.jpg","small_url":"https://perenual.com/storage/species_image/692_allium_serendipity/small/52265227333_7085ef5c9f_b.jpg","thumbnail":"https://perenual.com/storage/species_image/692_allium_serendipity/thumbnail/52265227333_7085ef5c9f_b.jpg"}},{"id":693,"common_name":"round-headed leek","scientific_name":["Allium sphaerocephalon"],"other_name":null,"cycle":"Perennial","watering":"Minimum","sunlight":["Full sun"],"default_image":{"image_id":1542,"license":4,"license_name":"Attribution License","license_url":"https://creativecommons.org/licenses/by/2.0/","original_url":"https://perenual.com/storage/species_image/693_allium_sphaerocephalon/og/51375216744_632d68de0a_b.jpg","regular_url":"https://perenual.com/storage/species_image/693_allium_sphaerocephalon/regular/51375216744_632d68de0a_b.jpg","medium_url":"https://perenual.com/storage/species_image/693_allium_sphaerocephalon/medium/51375216744_632d68de0a_b.jpg","small_url":"https://perenual.com/storage/species_image/693_allium_sphaerocephalon/small/51375216744_632d68de0a_b.jpg","thumbnail":"https://perenual.com/storage/species_image/693_allium_sphaerocephalon/thumbnail/51375216744_632d68de0a_b.jpg"}},{"id":694,"common_name":"prairie onion","scientific_name":["Allium stellatum"],"other_name":["Prairie Onion","Glade Onion","Glade Onion"],"cycle":"Perennial","watering":"Minimum","sunlight":["Partial Shade"],"default_image":{"image_id":9,"license":5,"license_name":"Attribution-ShareAlike License","license_url":"https://creativecommons.org/licenses/by-sa/2.0/","original_url":"https://perenual.com/storage/species_image/2_abies_alba_pyramidalis/og/49255769768_df55596553_b.jpg","regular_url":"https://perenual.com/storage/species_image/2_abies_alba_pyramidalis/regular/49255769768_df55596553_b.jpg","medium_url":"https://perenual.com/storage/species_image/2_abies_alba_pyramidalis/medium/49255769768_df55596553_b.jpg","small_url":"https://perenual.com/storage/species_image/2_abies_alba_pyramidalis/small/49255769768_df55596553_b.jpg","thumbnail":"https://perenual.com/storage/species_image/2_abies_alba_pyramidalis/thumbnail/49255769768_df55596553_b.jpg"}},{"id":695,"common_name":"ornamental onion","scientific_name":["Allium 'Sugar Melt'"],"other_name":null,"cycle":"Perennial","watering":"Minimum","sunlight":["Full sun","part shade"],"default_image":{"image_id":21202,"license":45,"license_name":"Attribution-ShareAlike 3.0 Unported (CC BY-SA 3.0)","license_url":"https://creativecommons.org/licenses/by-sa/3.0/deed.en","original_url":"https://perenual.com/storage/species_image/695_allium_sugar_melt/og/Zygaena_trifolii_-_Mt_Ventoux_6.jpg","regular_url":"https://perenual.com/storage/species_image/695_allium_sugar_melt/regular/Zygaena_trifolii_-_Mt_Ventoux_6.jpg","medium_url":"https://perenual.com/storage/species_image/695_allium_sugar_melt/medium/Zygaena_trifolii_-_Mt_Ventoux_6.jpg","small_url":"https://perenual.com/storage/species_image/695_allium_sugar_melt/small/Zygaena_trifolii_-_Mt_Ventoux_6.jpg","thumbnail":"https://perenual.com/storage/species_image/695_allium_sugar_melt/thumbnail/Zygaena_trifolii_-_Mt_Ventoux_6.jpg"}},{"id":696,"common_name":"ornamental onion","scientific_name":["Allium thunbergii 'Ozawa'"],"other_name":null,"cycle":"Perennial","watering":"Average","sunlight":["Full sun","part shade"],"default_image":{"image_id":9,"license":5,"license_name":"Attribution-ShareAlike License","license_url":"https://creativecommons.org/licenses/by-sa/2.0/","original_url":"https://perenual.com/storage/species_image/2_abies_alba_pyramidalis/og/49255769768_df55596553_b.jpg","regular_url":"https://perenual.com/storage/species_image/2_abies_alba_pyramidalis/regular/49255769768_df55596553_b.jpg","medium_url":"https://perenual.com/storage/species_image/2_abies_alba_pyramidalis/medium/49255769768_df55596553_b.jpg","small_url":"https://perenual.com/storage/species_image/2_abies_alba_pyramidalis/small/49255769768_df55596553_b.jpg","thumbnail":"https://perenual.com/storage/species_image/2_abies_alba_pyramidalis/thumbnail/49255769768_df55596553_b.jpg"}},{"id":697,"common_name":"garlic chives","scientific_name":["Allium tuberosum"],"other_name":["Chinese chives"],"cycle":"Perennial","watering":"Minimum","sunlight":["Full sun","part shade"],"default_image":{"image_id":1551,"license":4,"license_name":"Attribution License","license_url":"https://creativecommons.org/licenses/by/2.0/","original_url":"https://perenual.com/storage/species_image/697_allium_tuberosum/og/51949630538_39d542591d_b.jpg","regular_url":"https://perenual.com/storage/species_image/697_allium_tuberosum/regular/51949630538_39d542591d_b.jpg","medium_url":"https://perenual.com/storage/species_image/697_allium_tuberosum/medium/51949630538_39d542591d_b.jpg","small_url":"https://perenual.com/storage/species_image/697_allium_tuberosum/small/51949630538_39d542591d_b.jpg","thumbnail":"https://perenual.com/storage/species_image/697_allium_tuberosum/thumbnail/51949630538_39d542591d_b.jpg"}},{"id":698,"common_name":"wild garlic","scientific_name":["Allium ursinum"],"other_name":null,"cycle":"Perennial","watering":"Average","sunlight":["Full sun","part shade"],"default_image":{"image_id":1554,"license":4,"license_name":"Attribution License","license_url":"https://creativecommons.org/licenses/by/2.0/","original_url":"https://perenual.com/storage/species_image/698_allium_ursinum/og/52156804216_7dd5683e59_b.jpg","regular_url":"https://perenual.com/storage/species_image/698_allium_ursinum/regular/52156804216_7dd5683e59_b.jpg","medium_url":"https://perenual.com/storage/species_image/698_allium_ursinum/medium/52156804216_7dd5683e59_b.jpg","small_url":"https://perenual.com/storage/species_image/698_allium_ursinum/small/52156804216_7dd5683e59_b.jpg","thumbnail":"https://perenual.com/storage/species_image/698_allium_ursinum/thumbnail/52156804216_7dd5683e59_b.jpg"}},{"id":699,"common_name":"alluaudia","scientific_name":["Alluaudia dumosa"],"other_name":null,"cycle":"Perennial","watering":"Minimum","sunlight":["Full sun","part shade"],"default_image":{"image_id":1559,"license":4,"license_name":"Attribution License","license_url":"https://creativecommons.org/licenses/by/2.0/","original_url":"https://perenual.com/storage/species_image/699_alluaudia_dumosa/og/23916848941_6fb91e7c28_b.jpg","regular_url":"https://perenual.com/storage/species_image/699_alluaudia_dumosa/regular/23916848941_6fb91e7c28_b.jpg","medium_url":"https://perenual.com/storage/species_image/699_alluaudia_dumosa/medium/23916848941_6fb91e7c28_b.jpg","small_url":"https://perenual.com/storage/species_image/699_alluaudia_dumosa/small/23916848941_6fb91e7c28_b.jpg","thumbnail":"https://perenual.com/storage/species_image/699_alluaudia_dumosa/thumbnail/23916848941_6fb91e7c28_b.jpg"}},{"id":700,"common_name":"alluaudia","scientific_name":["Alluaudia humbertii"],"other_name":null,"cycle":"Perennial","watering":"Minimum","sunlight":["Full sun","part shade"],"default_image":{"image_id":1562,"license":4,"license_name":"Attribution License","license_url":"https://creativecommons.org/licenses/by/2.0/","original_url":"https://perenual.com/storage/species_image/700_alluaudia_humbertii/og/25143368735_88b820549a_b.jpg","regular_url":"https://perenual.com/storage/species_image/700_alluaudia_humbertii/regular/25143368735_88b820549a_b.jpg","medium_url":"https://perenual.com/storage/species_image/700_alluaudia_humbertii/medium/25143368735_88b820549a_b.jpg","small_url":"https://perenual.com/storage/species_image/700_alluaudia_humbertii/small/25143368735_88b820549a_b.jpg","thumbnail":"https://perenual.com/storage/species_image/700_alluaudia_humbertii/thumbnail/25143368735_88b820549a_b.jpg"}},{"id":701,"common_name":"Italian alder","scientific_name":["Alnus cordata"],"other_name":null,"cycle":"Perennial","watering":"Frequent","sunlight":["Full sun","part shade"],"default_image":{"image_id":9,"license":5,"license_name":"Attribution-ShareAlike License","license_url":"https://creativecommons.org/licenses/by-sa/2.0/","original_url":"https://perenual.com/storage/species_image/2_abies_alba_pyramidalis/og/49255769768_df55596553_b.jpg","regular_url":"https://perenual.com/storage/species_image/2_abies_alba_pyramidalis/regular/49255769768_df55596553_b.jpg","medium_url":"https://perenual.com/storage/species_image/2_abies_alba_pyramidalis/medium/49255769768_df55596553_b.jpg","small_url":"https://perenual.com/storage/species_image/2_abies_alba_pyramidalis/small/49255769768_df55596553_b.jpg","thumbnail":"https://perenual.com/storage/species_image/2_abies_alba_pyramidalis/thumbnail/49255769768_df55596553_b.jpg"}},{"id":702,"common_name":"European alder","scientific_name":["Alnus glutinosa"],"other_name":["Black Alder"],"cycle":"Perennial","watering":"Frequent","sunlight":["Full sun","part shade"],"default_image":{"image_id":1565,"license":4,"license_name":"Attribution License","license_url":"https://creativecommons.org/licenses/by/2.0/","original_url":"https://perenual.com/storage/species_image/702_alnus_glutinosa/og/51873517982_20fa4c6c22_b.jpg","regular_url":"https://perenual.com/storage/species_image/702_alnus_glutinosa/regular/51873517982_20fa4c6c22_b.jpg","medium_url":"https://perenual.com/storage/species_image/702_alnus_glutinosa/medium/51873517982_20fa4c6c22_b.jpg","small_url":"https://perenual.com/storage/species_image/702_alnus_glutinosa/small/51873517982_20fa4c6c22_b.jpg","thumbnail":"https://perenual.com/storage/species_image/702_alnus_glutinosa/thumbnail/51873517982_20fa4c6c22_b.jpg"}},{"id":703,"common_name":"grey alder","scientific_name":["Alnus incana"],"other_name":["Tag Alder","Grey Alder","Hoary Alder","Mountain Alder","White Alder","Grey Alder","Hoary Alder","Mountain Alder","White Alder"],"cycle":"Perennial","watering":"Frequent","sunlight":["Sun"," Partial Shade"],"default_image":{"image_id":1568,"license":5,"license_name":"Attribution-ShareAlike License","license_url":"https://creativecommons.org/licenses/by-sa/2.0/","original_url":"https://perenual.com/storage/species_image/703_alnus_incana/og/52399973491_ccfed31074_b.jpg","regular_url":"https://perenual.com/storage/species_image/703_alnus_incana/regular/52399973491_ccfed31074_b.jpg","medium_url":"https://perenual.com/storage/species_image/703_alnus_incana/medium/52399973491_ccfed31074_b.jpg","small_url":"https://perenual.com/storage/species_image/703_alnus_incana/small/52399973491_ccfed31074_b.jpg","thumbnail":"https://perenual.com/storage/species_image/703_alnus_incana/thumbnail/52399973491_ccfed31074_b.jpg"}},{"id":704,"common_name":"hazel alder","scientific_name":["Alnus incana subsp. rugosa"],"other_name":["Tag Alder","Grey Alder","Hoary Alder","Mountain Alder","White Alder","Grey Alder","Hoary Alder","Mountain Alder","White Alder","Grey Alder","Hoary Alder"],"cycle":"Perennial","watering":"Frequent","sunlight":["Sun"," Partial Shade"],"default_image":{"image_id":21203,"license":45,"license_name":"Attribution-ShareAlike 3.0 Unported (CC BY-SA 3.0)","license_url":"https://creativecommons.org/licenses/by-sa/3.0/deed.en","original_url":"https://perenual.com/storage/species_image/704_alnus_incana_subsp_rugosa/og/Alnus_incana_subsp._rugosa_kz02.jpg","regular_url":"https://perenual.com/storage/species_image/704_alnus_incana_subsp_rugosa/regular/Alnus_incana_subsp._rugosa_kz02.jpg","medium_url":"https://perenual.com/storage/species_image/704_alnus_incana_subsp_rugosa/medium/Alnus_incana_subsp._rugosa_kz02.jpg","small_url":"https://perenual.com/storage/species_image/704_alnus_incana_subsp_rugosa/small/Alnus_incana_subsp._rugosa_kz02.jpg","thumbnail":"https://perenual.com/storage/species_image/704_alnus_incana_subsp_rugosa/thumbnail/Alnus_incana_subsp._rugosa_kz02.jpg"}},{"id":705,"common_name":"Japanese alder","scientific_name":["Alnus japonica"],"other_name":null,"cycle":"Perennial","watering":"Frequent","sunlight":["Full sun","part shade"],"default_image":{"image_id":9,"license":5,"license_name":"Attribution-ShareAlike License","license_url":"https://creativecommons.org/licenses/by-sa/2.0/","original_url":"https://perenual.com/storage/species_image/2_abies_alba_pyramidalis/og/49255769768_df55596553_b.jpg","regular_url":"https://perenual.com/storage/species_image/2_abies_alba_pyramidalis/regular/49255769768_df55596553_b.jpg","medium_url":"https://perenual.com/storage/species_image/2_abies_alba_pyramidalis/medium/49255769768_df55596553_b.jpg","small_url":"https://perenual.com/storage/species_image/2_abies_alba_pyramidalis/small/49255769768_df55596553_b.jpg","thumbnail":"https://perenual.com/storage/species_image/2_abies_alba_pyramidalis/thumbnail/49255769768_df55596553_b.jpg"}},{"id":706,"common_name":"seaside alder","scientific_name":["Alnus maritima"],"other_name":null,"cycle":"Perennial","watering":"Frequent","sunlight":["Full sun","part shade"],"default_image":{"image_id":9,"license":5,"license_name":"Attribution-ShareAlike License","license_url":"https://creativecommons.org/licenses/by-sa/2.0/","original_url":"https://perenual.com/storage/species_image/2_abies_alba_pyramidalis/og/49255769768_df55596553_b.jpg","regular_url":"https://perenual.com/storage/species_image/2_abies_alba_pyramidalis/regular/49255769768_df55596553_b.jpg","medium_url":"https://perenual.com/storage/species_image/2_abies_alba_pyramidalis/medium/49255769768_df55596553_b.jpg","small_url":"https://perenual.com/storage/species_image/2_abies_alba_pyramidalis/small/49255769768_df55596553_b.jpg","thumbnail":"https://perenual.com/storage/species_image/2_abies_alba_pyramidalis/thumbnail/49255769768_df55596553_b.jpg"}},{"id":707,"common_name":"seaside alder","scientific_name":["Alnus maritima subsp. oklahomensis 'September Sun'"],"other_name":null,"cycle":"Perennial","watering":"Frequent","sunlight":["Full sun","part shade"],"default_image":{"image_id":21204,"license":45,"license_name":"Attribution-ShareAlike 3.0 Unported (CC BY-SA 3.0)","license_url":"https://creativecommons.org/licenses/by-sa/3.0/deed.en","original_url":"https://perenual.com/storage/species_image/707_alnus_maritima_subsp_oklahomensis_september_sun/og/Alnus_japonica2.jpg","regular_url":"https://perenual.com/storage/species_image/707_alnus_maritima_subsp_oklahomensis_september_sun/regular/Alnus_japonica2.jpg","medium_url":"https://perenual.com/storage/species_image/707_alnus_maritima_subsp_oklahomensis_september_sun/medium/Alnus_japonica2.jpg","small_url":"https://perenual.com/storage/species_image/707_alnus_maritima_subsp_oklahomensis_september_sun/small/Alnus_japonica2.jpg","thumbnail":"https://perenual.com/storage/species_image/707_alnus_maritima_subsp_oklahomensis_september_sun/thumbnail/Alnus_japonica2.jpg"}},{"id":708,"common_name":"alder","scientific_name":["Alnus mayrii"],"other_name":null,"cycle":"Perennial","watering":"Frequent","sunlight":["Full sun","part shade"],"default_image":{"image_id":21205,"license":451,"license_name":"CC0 1.0 Universal (CC0 1.0) Public Domain Dedication","license_url":"https://creativecommons.org/publicdomain/zero/1.0/","original_url":"https://perenual.com/storage/species_image/708_alnus_mayrii/og/alnus_glutinosa_alder_common_alder_black_alder_tree_flora_branch_plant-710760.jpg","regular_url":"https://perenual.com/storage/species_image/708_alnus_mayrii/regular/alnus_glutinosa_alder_common_alder_black_alder_tree_flora_branch_plant-710760.jpg","medium_url":"https://perenual.com/storage/species_image/708_alnus_mayrii/medium/alnus_glutinosa_alder_common_alder_black_alder_tree_flora_branch_plant-710760.jpg","small_url":"https://perenual.com/storage/species_image/708_alnus_mayrii/small/alnus_glutinosa_alder_common_alder_black_alder_tree_flora_branch_plant-710760.jpg","thumbnail":"https://perenual.com/storage/species_image/708_alnus_mayrii/thumbnail/alnus_glutinosa_alder_common_alder_black_alder_tree_flora_branch_plant-710760.jpg"}},{"id":709,"common_name":"hazel alder","scientific_name":["Alnus serrulata"],"other_name":["Hazel Alder","Smooth Alder","Common Alder","Smooth Alder","Common Alder"],"cycle":"Perennial","watering":"Frequent","sunlight":["Sun"," Partial Shade"],"default_image":{"image_id":1579,"license":4,"license_name":"Attribution License","license_url":"https://creativecommons.org/licenses/by/2.0/","original_url":"https://perenual.com/storage/species_image/709_alnus_serrulata/og/51309897085_3be26925a3_b.jpg","regular_url":"https://perenual.com/storage/species_image/709_alnus_serrulata/regular/51309897085_3be26925a3_b.jpg","medium_url":"https://perenual.com/storage/species_image/709_alnus_serrulata/medium/51309897085_3be26925a3_b.jpg","small_url":"https://perenual.com/storage/species_image/709_alnus_serrulata/small/51309897085_3be26925a3_b.jpg","thumbnail":"https://perenual.com/storage/species_image/709_alnus_serrulata/thumbnail/51309897085_3be26925a3_b.jpg"}},{"id":710,"common_name":"elephant's ear","scientific_name":["Alocasia amazonica"],"other_name":null,"cycle":"Perennial","watering":"Average","sunlight":["Part shade"],"default_image":{"image_id":9,"license":5,"license_name":"Attribution-ShareAlike License","license_url":"https://creativecommons.org/licenses/by-sa/2.0/","original_url":"https://perenual.com/storage/species_image/2_abies_alba_pyramidalis/og/49255769768_df55596553_b.jpg","regular_url":"https://perenual.com/storage/species_image/2_abies_alba_pyramidalis/regular/49255769768_df55596553_b.jpg","medium_url":"https://perenual.com/storage/species_image/2_abies_alba_pyramidalis/medium/49255769768_df55596553_b.jpg","small_url":"https://perenual.com/storage/species_image/2_abies_alba_pyramidalis/small/49255769768_df55596553_b.jpg","thumbnail":"https://perenual.com/storage/species_image/2_abies_alba_pyramidalis/thumbnail/49255769768_df55596553_b.jpg"}},{"id":711,"common_name":"Amazonian elephant's ear","scientific_name":["Alocasia amazonica 'Polly'"],"other_name":null,"cycle":"Perennial","watering":"Average","sunlight":["Part shade"],"default_image":{"image_id":9,"license":5,"license_name":"Attribution-ShareAlike License","license_url":"https://creativecommons.org/licenses/by-sa/2.0/","original_url":"https://perenual.com/storage/species_image/2_abies_alba_pyramidalis/og/49255769768_df55596553_b.jpg","regular_url":"https://perenual.com/storage/species_image/2_abies_alba_pyramidalis/regular/49255769768_df55596553_b.jpg","medium_url":"https://perenual.com/storage/species_image/2_abies_alba_pyramidalis/medium/49255769768_df55596553_b.jpg","small_url":"https://perenual.com/storage/species_image/2_abies_alba_pyramidalis/small/49255769768_df55596553_b.jpg","thumbnail":"https://perenual.com/storage/species_image/2_abies_alba_pyramidalis/thumbnail/49255769768_df55596553_b.jpg"}},{"id":712,"common_name":"elephant's ear","scientific_name":["Alocasia 'Frydek'"],"other_name":null,"cycle":"Perennial","watering":"Average","sunlight":["Part shade"],"default_image":{"image_id":9,"license":5,"license_name":"Attribution-ShareAlike License","license_url":"https://creativecommons.org/licenses/by-sa/2.0/","original_url":"https://perenual.com/storage/species_image/2_abies_alba_pyramidalis/og/49255769768_df55596553_b.jpg","regular_url":"https://perenual.com/storage/species_image/2_abies_alba_pyramidalis/regular/49255769768_df55596553_b.jpg","medium_url":"https://perenual.com/storage/species_image/2_abies_alba_pyramidalis/medium/49255769768_df55596553_b.jpg","small_url":"https://perenual.com/storage/species_image/2_abies_alba_pyramidalis/small/49255769768_df55596553_b.jpg","thumbnail":"https://perenual.com/storage/species_image/2_abies_alba_pyramidalis/thumbnail/49255769768_df55596553_b.jpg"}},{"id":713,"common_name":"elephant's ear","scientific_name":["Alocasia (group)"],"other_name":null,"cycle":"Perennial","watering":"Frequent","sunlight":["Full sun","part shade"],"default_image":{"image_id":1589,"license":4,"license_name":"Attribution License","license_url":"https://creativecommons.org/licenses/by/2.0/","original_url":"https://perenual.com/storage/species_image/713_alocasia_group/og/24444063964_a3054131aa_b.jpg","regular_url":"https://perenual.com/storage/species_image/713_alocasia_group/regular/24444063964_a3054131aa_b.jpg","medium_url":"https://perenual.com/storage/species_image/713_alocasia_group/medium/24444063964_a3054131aa_b.jpg","small_url":"https://perenual.com/storage/species_image/713_alocasia_group/small/24444063964_a3054131aa_b.jpg","thumbnail":"https://perenual.com/storage/species_image/713_alocasia_group/thumbnail/24444063964_a3054131aa_b.jpg"}},{"id":714,"common_name":"elephant's ear","scientific_name":["Alocasia LOW RIDER"],"other_name":null,"cycle":"Perennial","watering":"Average","sunlight":["Full sun","part shade"],"default_image":{"image_id":21207,"license":5,"license_name":"Attribution-ShareAlike License","license_url":"https://creativecommons.org/licenses/by-sa/2.0/","original_url":"https://perenual.com/storage/species_image/714_alocasia_low_rider/og/8415446715_799e70b503_b.jpg","regular_url":"https://perenual.com/storage/species_image/714_alocasia_low_rider/regular/8415446715_799e70b503_b.jpg","medium_url":"https://perenual.com/storage/species_image/714_alocasia_low_rider/medium/8415446715_799e70b503_b.jpg","small_url":"https://perenual.com/storage/species_image/714_alocasia_low_rider/small/8415446715_799e70b503_b.jpg","thumbnail":"https://perenual.com/storage/species_image/714_alocasia_low_rider/thumbnail/8415446715_799e70b503_b.jpg"}},{"id":715,"common_name":"giant elephant's ear","scientific_name":["Alocasia macrorrhizos"],"other_name":null,"cycle":"Perennial","watering":"Frequent","sunlight":["Part shade"],"default_image":{"image_id":1590,"license":5,"license_name":"Attribution-ShareAlike License","license_url":"https://creativecommons.org/licenses/by-sa/2.0/","original_url":"https://perenual.com/storage/species_image/715_alocasia_macrorrhizos/og/33234440338_8b31463973_b.jpg","regular_url":"https://perenual.com/storage/species_image/715_alocasia_macrorrhizos/regular/33234440338_8b31463973_b.jpg","medium_url":"https://perenual.com/storage/species_image/715_alocasia_macrorrhizos/medium/33234440338_8b31463973_b.jpg","small_url":"https://perenual.com/storage/species_image/715_alocasia_macrorrhizos/small/33234440338_8b31463973_b.jpg","thumbnail":"https://perenual.com/storage/species_image/715_alocasia_macrorrhizos/thumbnail/33234440338_8b31463973_b.jpg"}},{"id":716,"common_name":"elephant's ear","scientific_name":["Alocasia 'Metalhead'"],"other_name":null,"cycle":"Perennial","watering":"Average","sunlight":["Full sun","part shade"],"default_image":{"image_id":9,"license":5,"license_name":"Attribution-ShareAlike License","license_url":"https://creativecommons.org/licenses/by-sa/2.0/","original_url":"https://perenual.com/storage/species_image/2_abies_alba_pyramidalis/og/49255769768_df55596553_b.jpg","regular_url":"https://perenual.com/storage/species_image/2_abies_alba_pyramidalis/regular/49255769768_df55596553_b.jpg","medium_url":"https://perenual.com/storage/species_image/2_abies_alba_pyramidalis/medium/49255769768_df55596553_b.jpg","small_url":"https://perenual.com/storage/species_image/2_abies_alba_pyramidalis/small/49255769768_df55596553_b.jpg","thumbnail":"https://perenual.com/storage/species_image/2_abies_alba_pyramidalis/thumbnail/49255769768_df55596553_b.jpg"}},{"id":717,"common_name":"elephant's ear","scientific_name":["Alocasia 'Portora'"],"other_name":null,"cycle":"Perennial","watering":"Average","sunlight":["Full sun","part shade"],"default_image":{"image_id":1594,"license":4,"license_name":"Attribution License","license_url":"https://creativecommons.org/licenses/by/2.0/","original_url":"https://perenual.com/storage/species_image/717_alocasia_portora/og/50513640218_140cd83c95_b.jpg","regular_url":"https://perenual.com/storage/species_image/717_alocasia_portora/regular/50513640218_140cd83c95_b.jpg","medium_url":"https://perenual.com/storage/species_image/717_alocasia_portora/medium/50513640218_140cd83c95_b.jpg","small_url":"https://perenual.com/storage/species_image/717_alocasia_portora/small/50513640218_140cd83c95_b.jpg","thumbnail":"https://perenual.com/storage/species_image/717_alocasia_portora/thumbnail/50513640218_140cd83c95_b.jpg"}},{"id":718,"common_name":"elephant's ear","scientific_name":["Alocasia 'Sarian'"],"other_name":null,"cycle":"Perennial","watering":"Average","sunlight":["Full sun","part shade"],"default_image":{"image_id":21208,"license":6,"license_name":"Attribution-NoDerivs License","license_url":"https://creativecommons.org/licenses/by-nd/2.0/","original_url":"https://perenual.com/storage/species_image/718_alocasia_sarian/og/466458488_b9358efed2_z.jpg"}},{"id":719,"common_name":"torch plant","scientific_name":["Aloe aristata"],"other_name":null,"cycle":"Perennial","watering":"Minimum","sunlight":["Full sun","part shade"],"default_image":{"image_id":1597,"license":4,"license_name":"Attribution License","license_url":"https://creativecommons.org/licenses/by/2.0/","original_url":"https://perenual.com/storage/species_image/719_aloe_aristata/og/23962599232_fdc4070814_b.jpg","regular_url":"https://perenual.com/storage/species_image/719_aloe_aristata/regular/23962599232_fdc4070814_b.jpg","medium_url":"https://perenual.com/storage/species_image/719_aloe_aristata/medium/23962599232_fdc4070814_b.jpg","small_url":"https://perenual.com/storage/species_image/719_aloe_aristata/small/23962599232_fdc4070814_b.jpg","thumbnail":"https://perenual.com/storage/species_image/719_aloe_aristata/thumbnail/23962599232_fdc4070814_b.jpg"}},{"id":720,"common_name":"Cape aloe","scientific_name":["Aloe ferox"],"other_name":null,"cycle":"Perennial","watering":"Minimum","sunlight":["Full sun"],"default_image":{"image_id":1602,"license":5,"license_name":"Attribution-ShareAlike License","license_url":"https://creativecommons.org/licenses/by-sa/2.0/","original_url":"https://perenual.com/storage/species_image/720_aloe_ferox/og/52617385752_7902a3eda2_b.jpg","regular_url":"https://perenual.com/storage/species_image/720_aloe_ferox/regular/52617385752_7902a3eda2_b.jpg","medium_url":"https://perenual.com/storage/species_image/720_aloe_ferox/medium/52617385752_7902a3eda2_b.jpg","small_url":"https://perenual.com/storage/species_image/720_aloe_ferox/small/52617385752_7902a3eda2_b.jpg","thumbnail":"https://perenual.com/storage/species_image/720_aloe_ferox/thumbnail/52617385752_7902a3eda2_b.jpg"}}],"to":720,"per_page":30,"current_page":24,"from":691,"last_page":200,"total":6000}