{"data":[{"id":3331,"common_name":"Ozark witch hazel","scientific_name":["Hamamelis vernalis 'Christmas Cheer'"],"other_name":null,"cycle":"Perennial","watering":"Average","sunlight":["Full sun","part shade"],"default_image":{"image_id":9,"license":5,"license_name":"Attribution-ShareAlike License","license_url":"https://creativecommons.org/licenses/by-sa/2.0/","original_url":"https://perenual.com/storage/species_image/2_abies_alba_pyramidalis/og/49255769768_df55596553_b.jpg","regular_url":"https://perenual.com/storage/species_image/2_abies_alba_pyramidalis/regular/49255769768_df55596553_b.jpg","medium_url":"https://perenual.com/storage/species_image/2_abies_alba_pyramidalis/medium/49255769768_df55596553_b.jpg","small_url":"https://perenual.com/storage/species_image/2_abies_alba_pyramidalis/small/49255769768_df55596553_b.jpg","thumbnail":"https://perenual.com/storage/species_image/2_abies_alba_pyramidalis/thumbnail/49255769768_df55596553_b.jpg"}},{"id":3332,"common_name":"Ozark witch hazel","scientific_name":["Hamamelis vernalis 'Kohankie Red'"],"other_name":null,"cycle":"Perennial","watering":"Average","sunlight":["Full sun","part shade"],"default_image":{"image_id":9,"license":5,"license_name":"Attribution-ShareAlike License","license_url":"https://creativecommons.org/licenses/by-sa/2.0/","original_url":"https://perenual.com/storage/species_image/2_abies_alba_pyramidalis/og/49255769768_df55596553_b.jpg","regular_url":"https://perenual.com/storage/species_image/2_abies_alba_pyramidalis/regular/49255769768_df55596553_b.jpg","medium_url":"https://perenual.com/storage/species_image/2_abies_alba_pyramidalis/medium/49255769768_df55596553_b.jpg","small_url":"https://perenual.com/storage/species_image/2_abies_alba_pyramidalis/small/49255769768_df55596553_b.jpg","thumbnail":"https://perenual.com/storage/species_image/2_abies_alba_pyramidalis/thumbnail/49255769768_df55596553_b.jpg"}},{"id":3333,"common_name":"Ozark witch hazel","scientific_name":["Hamamelis vernalis 'Lombart's Weeping'"],"other_name":null,"cycle":"Perennial","watering":"Average","sunlight":["Full sun","part shade"],"default_image":{"image_id":7075,"license":4,"license_name":"Attribution License","license_url":"https://creativecommons.org/licenses/by/2.0/","original_url":"https://perenual.com/storage/species_image/3333_hamamelis_vernalis_lombarts_weeping/og/51821100194_ebfc0608d1_b.jpg","regular_url":"https://perenual.com/storage/species_image/3333_hamamelis_vernalis_lombarts_weeping/regular/51821100194_ebfc0608d1_b.jpg","medium_url":"https://perenual.com/storage/species_image/3333_hamamelis_vernalis_lombarts_weeping/medium/51821100194_ebfc0608d1_b.jpg","small_url":"https://perenual.com/storage/species_image/3333_hamamelis_vernalis_lombarts_weeping/small/51821100194_ebfc0608d1_b.jpg","thumbnail":"https://perenual.com/storage/species_image/3333_hamamelis_vernalis_lombarts_weeping/thumbnail/51821100194_ebfc0608d1_b.jpg"}},{"id":3334,"common_name":"Ozark witch hazel","scientific_name":["Hamamelis vernalis 'Purpurea'"],"other_name":null,"cycle":"Perennial","watering":"Average","sunlight":["Full sun","part shade"],"default_image":{"image_id":7084,"license":5,"license_name":"Attribution-ShareAlike License","license_url":"https://creativecommons.org/licenses/by-sa/2.0/","original_url":"https://perenual.com/storage/species_image/3334_hamamelis_vernalis_purpurea/og/27850480716_93d7422ddb_b.jpg","regular_url":"https://perenual.com/storage/species_image/3334_hamamelis_vernalis_purpurea/regular/27850480716_93d7422ddb_b.jpg","medium_url":"https://perenual.com/storage/species_image/3334_hamamelis_vernalis_purpurea/medium/27850480716_93d7422ddb_b.jpg","small_url":"https://perenual.com/storage/species_image/3334_hamamelis_vernalis_purpurea/small/27850480716_93d7422ddb_b.jpg","thumbnail":"https://perenual.com/storage/species_image/3334_hamamelis_vernalis_purpurea/thumbnail/27850480716_93d7422ddb_b.jpg"}},{"id":3335,"common_name":"Ozark witch hazel","scientific_name":["Hamamelis vernalis 'Sandra'"],"other_name":null,"cycle":"Perennial","watering":"Average","sunlight":["Full sun","part shade"],"default_image":{"image_id":7085,"license":5,"license_name":"Attribution-ShareAlike License","license_url":"https://creativecommons.org/licenses/by-sa/2.0/","original_url":"https://perenual.com/storage/species_image/3335_hamamelis_vernalis_sandra/og/50896466478_eb7102166d_b.jpg","regular_url":"https://perenual.com/storage/species_image/3335_hamamelis_vernalis_sandra/regular/50896466478_eb7102166d_b.jpg","medium_url":"https://perenual.com/storage/species_image/3335_hamamelis_vernalis_sandra/medium/50896466478_eb7102166d_b.jpg","small_url":"https://perenual.com/storage/species_image/3335_hamamelis_vernalis_sandra/small/50896466478_eb7102166d_b.jpg","thumbnail":"https://perenual.com/storage/species_image/3335_hamamelis_vernalis_sandra/thumbnail/50896466478_eb7102166d_b.jpg"}},{"id":3336,"common_name":"Ozark witch hazel","scientific_name":["Hamamelis vernalis 'Squib'"],"other_name":null,"cycle":"Perennial","watering":"Average","sunlight":["Full sun","part shade"],"default_image":{"image_id":9,"license":5,"license_name":"Attribution-ShareAlike License","license_url":"https://creativecommons.org/licenses/by-sa/2.0/","original_url":"https://perenual.com/storage/species_image/2_abies_alba_pyramidalis/og/49255769768_df55596553_b.jpg","regular_url":"https://perenual.com/storage/species_image/2_abies_alba_pyramidalis/regular/49255769768_df55596553_b.jpg","medium_url":"https://perenual.com/storage/species_image/2_abies_alba_pyramidalis/medium/49255769768_df55596553_b.jpg","small_url":"https://perenual.com/storage/species_image/2_abies_alba_pyramidalis/small/49255769768_df55596553_b.jpg","thumbnail":"https://perenual.com/storage/species_image/2_abies_alba_pyramidalis/thumbnail/49255769768_df55596553_b.jpg"}},{"id":3337,"common_name":"Ozark witch hazel","scientific_name":["Hamamelis vernalis 'Washington Park'"],"other_name":null,"cycle":"Perennial","watering":"Average","sunlight":["Full sun","part shade"],"default_image":{"image_id":7083,"license":5,"license_name":"Attribution-ShareAlike License","license_url":"https://creativecommons.org/licenses/by-sa/2.0/","original_url":"https://perenual.com/storage/species_image/3337_hamamelis_vernalis_washington_park/og/33019022912_5f7a49e34b_b.jpg","regular_url":"https://perenual.com/storage/species_image/3337_hamamelis_vernalis_washington_park/regular/33019022912_5f7a49e34b_b.jpg","medium_url":"https://perenual.com/storage/species_image/3337_hamamelis_vernalis_washington_park/medium/33019022912_5f7a49e34b_b.jpg","small_url":"https://perenual.com/storage/species_image/3337_hamamelis_vernalis_washington_park/small/33019022912_5f7a49e34b_b.jpg","thumbnail":"https://perenual.com/storage/species_image/3337_hamamelis_vernalis_washington_park/thumbnail/33019022912_5f7a49e34b_b.jpg"}},{"id":3338,"common_name":"common witch hazel","scientific_name":["Hamamelis virginiana"],"other_name":null,"cycle":"Perennial","watering":"Average","sunlight":["Full sun","part shade"],"default_image":{"image_id":7093,"license":4,"license_name":"Attribution License","license_url":"https://creativecommons.org/licenses/by/2.0/","original_url":"https://perenual.com/storage/species_image/3338_hamamelis_virginiana/og/51611884936_a01b2c1e3a_b.jpg","regular_url":"https://perenual.com/storage/species_image/3338_hamamelis_virginiana/regular/51611884936_a01b2c1e3a_b.jpg","medium_url":"https://perenual.com/storage/species_image/3338_hamamelis_virginiana/medium/51611884936_a01b2c1e3a_b.jpg","small_url":"https://perenual.com/storage/species_image/3338_hamamelis_virginiana/small/51611884936_a01b2c1e3a_b.jpg","thumbnail":"https://perenual.com/storage/species_image/3338_hamamelis_virginiana/thumbnail/51611884936_a01b2c1e3a_b.jpg"}},{"id":3339,"common_name":"common witch hazel","scientific_name":["Hamamelis virginiana 'Green Thumb'"],"other_name":null,"cycle":"Perennial","watering":"Average","sunlight":["Full sun","part shade"],"default_image":{"image_id":7096,"license":4,"license_name":"Attribution License","license_url":"https://creativecommons.org/licenses/by/2.0/","original_url":"https://perenual.com/storage/species_image/3339_hamamelis_virginiana_green_thumb/og/28419293770_491c5827d2_b.jpg","regular_url":"https://perenual.com/storage/species_image/3339_hamamelis_virginiana_green_thumb/regular/28419293770_491c5827d2_b.jpg","medium_url":"https://perenual.com/storage/species_image/3339_hamamelis_virginiana_green_thumb/medium/28419293770_491c5827d2_b.jpg","small_url":"https://perenual.com/storage/species_image/3339_hamamelis_virginiana_green_thumb/small/28419293770_491c5827d2_b.jpg","thumbnail":"https://perenual.com/storage/species_image/3339_hamamelis_virginiana_green_thumb/thumbnail/28419293770_491c5827d2_b.jpg"}},{"id":3340,"common_name":"common witch hazel","scientific_name":["Hamamelis virginiana 'Little Suzie'"],"other_name":null,"cycle":"Perennial","watering":"Average","sunlight":["Full sun","part shade"],"default_image":{"image_id":9,"license":5,"license_name":"Attribution-ShareAlike License","license_url":"https://creativecommons.org/licenses/by-sa/2.0/","original_url":"https://perenual.com/storage/species_image/2_abies_alba_pyramidalis/og/49255769768_df55596553_b.jpg","regular_url":"https://perenual.com/storage/species_image/2_abies_alba_pyramidalis/regular/49255769768_df55596553_b.jpg","medium_url":"https://perenual.com/storage/species_image/2_abies_alba_pyramidalis/medium/49255769768_df55596553_b.jpg","small_url":"https://perenual.com/storage/species_image/2_abies_alba_pyramidalis/small/49255769768_df55596553_b.jpg","thumbnail":"https://perenual.com/storage/species_image/2_abies_alba_pyramidalis/thumbnail/49255769768_df55596553_b.jpg"}},{"id":3341,"common_name":"common witch hazel","scientific_name":["Hamamelis virginiana 'Mohonk Red'"],"other_name":null,"cycle":"Perennial","watering":"Average","sunlight":["Full sun","part shade"],"default_image":{"image_id":9,"license":5,"license_name":"Attribution-ShareAlike License","license_url":"https://creativecommons.org/licenses/by-sa/2.0/","original_url":"https://perenual.com/storage/species_image/2_abies_alba_pyramidalis/og/49255769768_df55596553_b.jpg","regular_url":"https://perenual.com/storage/species_image/2_abies_alba_pyramidalis/regular/49255769768_df55596553_b.jpg","medium_url":"https://perenual.com/storage/species_image/2_abies_alba_pyramidalis/medium/49255769768_df55596553_b.jpg","small_url":"https://perenual.com/storage/species_image/2_abies_alba_pyramidalis/small/49255769768_df55596553_b.jpg","thumbnail":"https://perenual.com/storage/species_image/2_abies_alba_pyramidalis/thumbnail/49255769768_df55596553_b.jpg"}},{"id":3342,"common_name":"scarlet bush","scientific_name":["Hamelia patens"],"other_name":null,"cycle":"Perennial","watering":"Average","sunlight":["Full sun","part shade"],"default_image":{"image_id":7101,"license":4,"license_name":"Attribution License","license_url":"https://creativecommons.org/licenses/by/2.0/","original_url":"https://perenual.com/storage/species_image/3342_hamelia_patens/og/40561099854_c6581da4db_b.jpg","regular_url":"https://perenual.com/storage/species_image/3342_hamelia_patens/regular/40561099854_c6581da4db_b.jpg","medium_url":"https://perenual.com/storage/species_image/3342_hamelia_patens/medium/40561099854_c6581da4db_b.jpg","small_url":"https://perenual.com/storage/species_image/3342_hamelia_patens/small/40561099854_c6581da4db_b.jpg","thumbnail":"https://perenual.com/storage/species_image/3342_hamelia_patens/thumbnail/40561099854_c6581da4db_b.jpg"}},{"id":3343,"common_name":"scarlet bush","scientific_name":["Hamelia patens 'Grelmsiz' LIME SIZZLER"],"other_name":null,"cycle":"Perennial","watering":"Average","sunlight":["Full sun","part shade"],"default_image":{"image_id":9,"license":5,"license_name":"Attribution-ShareAlike License","license_url":"https://creativecommons.org/licenses/by-sa/2.0/","original_url":"https://perenual.com/storage/species_image/2_abies_alba_pyramidalis/og/49255769768_df55596553_b.jpg","regular_url":"https://perenual.com/storage/species_image/2_abies_alba_pyramidalis/regular/49255769768_df55596553_b.jpg","medium_url":"https://perenual.com/storage/species_image/2_abies_alba_pyramidalis/medium/49255769768_df55596553_b.jpg","small_url":"https://perenual.com/storage/species_image/2_abies_alba_pyramidalis/small/49255769768_df55596553_b.jpg","thumbnail":"https://perenual.com/storage/species_image/2_abies_alba_pyramidalis/thumbnail/49255769768_df55596553_b.jpg"}},{"id":3344,"common_name":"false Indian plantain","scientific_name":["Hasteola suaveolens"],"other_name":null,"cycle":"Perennial","watering":"Frequent","sunlight":["Full sun","part shade"],"default_image":{"image_id":9,"license":5,"license_name":"Attribution-ShareAlike License","license_url":"https://creativecommons.org/licenses/by-sa/2.0/","original_url":"https://perenual.com/storage/species_image/2_abies_alba_pyramidalis/og/49255769768_df55596553_b.jpg","regular_url":"https://perenual.com/storage/species_image/2_abies_alba_pyramidalis/regular/49255769768_df55596553_b.jpg","medium_url":"https://perenual.com/storage/species_image/2_abies_alba_pyramidalis/medium/49255769768_df55596553_b.jpg","small_url":"https://perenual.com/storage/species_image/2_abies_alba_pyramidalis/small/49255769768_df55596553_b.jpg","thumbnail":"https://perenual.com/storage/species_image/2_abies_alba_pyramidalis/thumbnail/49255769768_df55596553_b.jpg"}},{"id":3345,"common_name":"hebe","scientific_name":["Hebe 'Alicia Amherst'"],"other_name":null,"cycle":"Perennial","watering":"Average","sunlight":["Full sun","part shade"],"default_image":{"image_id":9,"license":5,"license_name":"Attribution-ShareAlike License","license_url":"https://creativecommons.org/licenses/by-sa/2.0/","original_url":"https://perenual.com/storage/species_image/2_abies_alba_pyramidalis/og/49255769768_df55596553_b.jpg","regular_url":"https://perenual.com/storage/species_image/2_abies_alba_pyramidalis/regular/49255769768_df55596553_b.jpg","medium_url":"https://perenual.com/storage/species_image/2_abies_alba_pyramidalis/medium/49255769768_df55596553_b.jpg","small_url":"https://perenual.com/storage/species_image/2_abies_alba_pyramidalis/small/49255769768_df55596553_b.jpg","thumbnail":"https://perenual.com/storage/species_image/2_abies_alba_pyramidalis/thumbnail/49255769768_df55596553_b.jpg"}},{"id":3346,"common_name":"hebe","scientific_name":["Hebe 'Caledonia'"],"other_name":null,"cycle":"Perennial","watering":"Average","sunlight":["Full sun","part shade"],"default_image":{"image_id":9,"license":5,"license_name":"Attribution-ShareAlike License","license_url":"https://creativecommons.org/licenses/by-sa/2.0/","original_url":"https://perenual.com/storage/species_image/2_abies_alba_pyramidalis/og/49255769768_df55596553_b.jpg","regular_url":"https://perenual.com/storage/species_image/2_abies_alba_pyramidalis/regular/49255769768_df55596553_b.jpg","medium_url":"https://perenual.com/storage/species_image/2_abies_alba_pyramidalis/medium/49255769768_df55596553_b.jpg","small_url":"https://perenual.com/storage/species_image/2_abies_alba_pyramidalis/small/49255769768_df55596553_b.jpg","thumbnail":"https://perenual.com/storage/species_image/2_abies_alba_pyramidalis/thumbnail/49255769768_df55596553_b.jpg"}},{"id":3347,"common_name":"Persian ivy","scientific_name":["Hedera colchica"],"other_name":null,"cycle":"Perennial","watering":"Average","sunlight":["Part shade","full shade"],"default_image":{"image_id":7107,"license":5,"license_name":"Attribution-ShareAlike License","license_url":"https://creativecommons.org/licenses/by-sa/2.0/","original_url":"https://perenual.com/storage/species_image/3347_hedera_colchica/og/17652537463_f29f484bae_b.jpg","regular_url":"https://perenual.com/storage/species_image/3347_hedera_colchica/regular/17652537463_f29f484bae_b.jpg","medium_url":"https://perenual.com/storage/species_image/3347_hedera_colchica/medium/17652537463_f29f484bae_b.jpg","small_url":"https://perenual.com/storage/species_image/3347_hedera_colchica/small/17652537463_f29f484bae_b.jpg","thumbnail":"https://perenual.com/storage/species_image/3347_hedera_colchica/thumbnail/17652537463_f29f484bae_b.jpg"}},{"id":3348,"common_name":"bullock's heart ivy","scientific_name":["Hedera colchica 'Dentata Variegata'"],"other_name":null,"cycle":"Perennial","watering":"Average","sunlight":["Part shade","full shade"],"default_image":{"image_id":9,"license":5,"license_name":"Attribution-ShareAlike License","license_url":"https://creativecommons.org/licenses/by-sa/2.0/","original_url":"https://perenual.com/storage/species_image/2_abies_alba_pyramidalis/og/49255769768_df55596553_b.jpg","regular_url":"https://perenual.com/storage/species_image/2_abies_alba_pyramidalis/regular/49255769768_df55596553_b.jpg","medium_url":"https://perenual.com/storage/species_image/2_abies_alba_pyramidalis/medium/49255769768_df55596553_b.jpg","small_url":"https://perenual.com/storage/species_image/2_abies_alba_pyramidalis/small/49255769768_df55596553_b.jpg","thumbnail":"https://perenual.com/storage/species_image/2_abies_alba_pyramidalis/thumbnail/49255769768_df55596553_b.jpg"}},{"id":3349,"common_name":"English ivy","scientific_name":["Hedera helix"],"other_name":null,"cycle":"Perennial","watering":"Average","sunlight":["Part shade","full shade"],"default_image":{"image_id":7108,"license":4,"license_name":"Attribution License","license_url":"https://creativecommons.org/licenses/by/2.0/","original_url":"https://perenual.com/storage/species_image/3354_hedera_helix_var_baltica/og/52589432410_a3fe429554_b.jpg","regular_url":"https://perenual.com/storage/species_image/3354_hedera_helix_var_baltica/regular/52589432410_a3fe429554_b.jpg","medium_url":"https://perenual.com/storage/species_image/3354_hedera_helix_var_baltica/medium/52589432410_a3fe429554_b.jpg","small_url":"https://perenual.com/storage/species_image/3354_hedera_helix_var_baltica/small/52589432410_a3fe429554_b.jpg","thumbnail":"https://perenual.com/storage/species_image/3354_hedera_helix_var_baltica/thumbnail/52589432410_a3fe429554_b.jpg"}},{"id":3350,"common_name":"English ivy","scientific_name":["Hedera helix 'Arborescens'"],"other_name":null,"cycle":"Perennial","watering":"Average","sunlight":["Part shade","full shade"],"default_image":{"image_id":7112,"license":4,"license_name":"Attribution License","license_url":"https://creativecommons.org/licenses/by/2.0/","original_url":"https://perenual.com/storage/species_image/3353_hedera_helix_tango/og/51874548523_3bef7de897_b.jpg","regular_url":"https://perenual.com/storage/species_image/3353_hedera_helix_tango/regular/51874548523_3bef7de897_b.jpg","medium_url":"https://perenual.com/storage/species_image/3353_hedera_helix_tango/medium/51874548523_3bef7de897_b.jpg","small_url":"https://perenual.com/storage/species_image/3353_hedera_helix_tango/small/51874548523_3bef7de897_b.jpg","thumbnail":"https://perenual.com/storage/species_image/3353_hedera_helix_tango/thumbnail/51874548523_3bef7de897_b.jpg"}},{"id":3351,"common_name":"English ivy","scientific_name":["Hedera helix 'Glacier'"],"other_name":null,"cycle":"Perennial","watering":"Average","sunlight":["Part shade","full shade"],"default_image":{"image_id":7114,"license":4,"license_name":"Attribution License","license_url":"https://creativecommons.org/licenses/by/2.0/","original_url":"https://perenual.com/storage/species_image/3351_hedera_helix_glacier/og/51246858181_abcb2117ed_b.jpg","regular_url":"https://perenual.com/storage/species_image/3351_hedera_helix_glacier/regular/51246858181_abcb2117ed_b.jpg","medium_url":"https://perenual.com/storage/species_image/3351_hedera_helix_glacier/medium/51246858181_abcb2117ed_b.jpg","small_url":"https://perenual.com/storage/species_image/3351_hedera_helix_glacier/small/51246858181_abcb2117ed_b.jpg","thumbnail":"https://perenual.com/storage/species_image/3351_hedera_helix_glacier/thumbnail/51246858181_abcb2117ed_b.jpg"}},{"id":3352,"common_name":"English ivy","scientific_name":["Hedera helix 'Midas Touch'"],"other_name":null,"cycle":"Perennial","watering":"Average","sunlight":["Part shade","full shade"],"default_image":{"image_id":9,"license":5,"license_name":"Attribution-ShareAlike License","license_url":"https://creativecommons.org/licenses/by-sa/2.0/","original_url":"https://perenual.com/storage/species_image/2_abies_alba_pyramidalis/og/49255769768_df55596553_b.jpg","regular_url":"https://perenual.com/storage/species_image/2_abies_alba_pyramidalis/regular/49255769768_df55596553_b.jpg","medium_url":"https://perenual.com/storage/species_image/2_abies_alba_pyramidalis/medium/49255769768_df55596553_b.jpg","small_url":"https://perenual.com/storage/species_image/2_abies_alba_pyramidalis/small/49255769768_df55596553_b.jpg","thumbnail":"https://perenual.com/storage/species_image/2_abies_alba_pyramidalis/thumbnail/49255769768_df55596553_b.jpg"}},{"id":3353,"common_name":"English ivy","scientific_name":["Hedera helix 'Tango'"],"other_name":null,"cycle":"Perennial","watering":"Average","sunlight":["Part shade","full shade"],"default_image":{"image_id":7117,"license":4,"license_name":"Attribution License","license_url":"https://creativecommons.org/licenses/by/2.0/","original_url":"https://perenual.com/storage/species_image/3353_hedera_helix_tango/og/52422982479_21dc923f53_b.jpg","regular_url":"https://perenual.com/storage/species_image/3353_hedera_helix_tango/regular/52422982479_21dc923f53_b.jpg","medium_url":"https://perenual.com/storage/species_image/3353_hedera_helix_tango/medium/52422982479_21dc923f53_b.jpg","small_url":"https://perenual.com/storage/species_image/3353_hedera_helix_tango/small/52422982479_21dc923f53_b.jpg","thumbnail":"https://perenual.com/storage/species_image/3353_hedera_helix_tango/thumbnail/52422982479_21dc923f53_b.jpg"}},{"id":3354,"common_name":"English ivy","scientific_name":["Hedera helix var. baltica"],"other_name":null,"cycle":"Perennial","watering":"Average","sunlight":["Part shade","full shade"],"default_image":{"image_id":7108,"license":4,"license_name":"Attribution License","license_url":"https://creativecommons.org/licenses/by/2.0/","original_url":"https://perenual.com/storage/species_image/3354_hedera_helix_var_baltica/og/52589432410_a3fe429554_b.jpg","regular_url":"https://perenual.com/storage/species_image/3354_hedera_helix_var_baltica/regular/52589432410_a3fe429554_b.jpg","medium_url":"https://perenual.com/storage/species_image/3354_hedera_helix_var_baltica/medium/52589432410_a3fe429554_b.jpg","small_url":"https://perenual.com/storage/species_image/3354_hedera_helix_var_baltica/small/52589432410_a3fe429554_b.jpg","thumbnail":"https://perenual.com/storage/species_image/3354_hedera_helix_var_baltica/thumbnail/52589432410_a3fe429554_b.jpg"}},{"id":3355,"common_name":"Nepal ivy","scientific_name":["Hedera nepalensis var. sinensis"],"other_name":null,"cycle":"Perennial","watering":"Average","sunlight":["Part shade","full shade"],"default_image":{"image_id":9,"license":5,"license_name":"Attribution-ShareAlike License","license_url":"https://creativecommons.org/licenses/by-sa/2.0/","original_url":"https://perenual.com/storage/species_image/2_abies_alba_pyramidalis/og/49255769768_df55596553_b.jpg","regular_url":"https://perenual.com/storage/species_image/2_abies_alba_pyramidalis/regular/49255769768_df55596553_b.jpg","medium_url":"https://perenual.com/storage/species_image/2_abies_alba_pyramidalis/medium/49255769768_df55596553_b.jpg","small_url":"https://perenual.com/storage/species_image/2_abies_alba_pyramidalis/small/49255769768_df55596553_b.jpg","thumbnail":"https://perenual.com/storage/species_image/2_abies_alba_pyramidalis/thumbnail/49255769768_df55596553_b.jpg"}},{"id":3356,"common_name":"white garland-lily","scientific_name":["Hedychium coronarium"],"other_name":null,"cycle":"Perennial","watering":"Frequent","sunlight":["Full sun","part shade"],"default_image":{"image_id":9,"license":5,"license_name":"Attribution-ShareAlike License","license_url":"https://creativecommons.org/licenses/by-sa/2.0/","original_url":"https://perenual.com/storage/species_image/2_abies_alba_pyramidalis/og/49255769768_df55596553_b.jpg","regular_url":"https://perenual.com/storage/species_image/2_abies_alba_pyramidalis/regular/49255769768_df55596553_b.jpg","medium_url":"https://perenual.com/storage/species_image/2_abies_alba_pyramidalis/medium/49255769768_df55596553_b.jpg","small_url":"https://perenual.com/storage/species_image/2_abies_alba_pyramidalis/small/49255769768_df55596553_b.jpg","thumbnail":"https://perenual.com/storage/species_image/2_abies_alba_pyramidalis/thumbnail/49255769768_df55596553_b.jpg"}},{"id":3357,"common_name":"ginger lily","scientific_name":["Hedychium 'Tahitian Flame'"],"other_name":null,"cycle":"Perennial","watering":"Frequent","sunlight":["Full sun","part shade"],"default_image":{"image_id":9,"license":5,"license_name":"Attribution-ShareAlike License","license_url":"https://creativecommons.org/licenses/by-sa/2.0/","original_url":"https://perenual.com/storage/species_image/2_abies_alba_pyramidalis/og/49255769768_df55596553_b.jpg","regular_url":"https://perenual.com/storage/species_image/2_abies_alba_pyramidalis/regular/49255769768_df55596553_b.jpg","medium_url":"https://perenual.com/storage/species_image/2_abies_alba_pyramidalis/medium/49255769768_df55596553_b.jpg","small_url":"https://perenual.com/storage/species_image/2_abies_alba_pyramidalis/small/49255769768_df55596553_b.jpg","thumbnail":"https://perenual.com/storage/species_image/2_abies_alba_pyramidalis/thumbnail/49255769768_df55596553_b.jpg"}},{"id":3358,"common_name":"French honeysuckle","scientific_name":["Hedysarum coronarium"],"other_name":null,"cycle":"Perennial","watering":"Average","sunlight":["Full sun"],"default_image":{"image_id":7125,"license":4,"license_name":"Attribution License","license_url":"https://creativecommons.org/licenses/by/2.0/","original_url":"https://perenual.com/storage/species_image/3358_hedysarum_coronarium/og/8738293180_05c1dfb2b0_b.jpg","regular_url":"https://perenual.com/storage/species_image/3358_hedysarum_coronarium/regular/8738293180_05c1dfb2b0_b.jpg","medium_url":"https://perenual.com/storage/species_image/3358_hedysarum_coronarium/medium/8738293180_05c1dfb2b0_b.jpg","small_url":"https://perenual.com/storage/species_image/3358_hedysarum_coronarium/small/8738293180_05c1dfb2b0_b.jpg","thumbnail":"https://perenual.com/storage/species_image/3358_hedysarum_coronarium/thumbnail/8738293180_05c1dfb2b0_b.jpg"}},{"id":3359,"common_name":"shrubby yellowcrest","scientific_name":["Heimia salicifolia"],"other_name":null,"cycle":"","watering":"Average","sunlight":["Full sun","part shade"],"default_image":{"image_id":9,"license":5,"license_name":"Attribution-ShareAlike License","license_url":"https://creativecommons.org/licenses/by-sa/2.0/","original_url":"https://perenual.com/storage/species_image/2_abies_alba_pyramidalis/og/49255769768_df55596553_b.jpg","regular_url":"https://perenual.com/storage/species_image/2_abies_alba_pyramidalis/regular/49255769768_df55596553_b.jpg","medium_url":"https://perenual.com/storage/species_image/2_abies_alba_pyramidalis/medium/49255769768_df55596553_b.jpg","small_url":"https://perenual.com/storage/species_image/2_abies_alba_pyramidalis/small/49255769768_df55596553_b.jpg","thumbnail":"https://perenual.com/storage/species_image/2_abies_alba_pyramidalis/thumbnail/49255769768_df55596553_b.jpg"}},{"id":3360,"common_name":"sneezeweed","scientific_name":["Helenium amarum"],"other_name":null,"cycle":"Perennial","watering":"Minimum","sunlight":["Full sun","part shade"],"default_image":{"image_id":7134,"license":6,"license_name":"Attribution-NoDerivs License","license_url":"https://creativecommons.org/licenses/by-nd/2.0/","original_url":"https://perenual.com/storage/species_image/3360_helenium_amarum/og/44936523134_349c7df7a7_b.jpg"}}],"to":3360,"per_page":30,"current_page":112,"from":3331,"last_page":200,"total":6000}