{"data":[{"id":2431,"common_name":"pink","scientific_name":["Dianthus 'Rubin'"],"other_name":null,"cycle":"Perennial","watering":"Average","sunlight":["Full sun"],"default_image":{"image_id":9,"license":5,"license_name":"Attribution-ShareAlike License","license_url":"https://creativecommons.org/licenses/by-sa/2.0/","original_url":"https://perenual.com/storage/species_image/2_abies_alba_pyramidalis/og/49255769768_df55596553_b.jpg","regular_url":"https://perenual.com/storage/species_image/2_abies_alba_pyramidalis/regular/49255769768_df55596553_b.jpg","medium_url":"https://perenual.com/storage/species_image/2_abies_alba_pyramidalis/medium/49255769768_df55596553_b.jpg","small_url":"https://perenual.com/storage/species_image/2_abies_alba_pyramidalis/small/49255769768_df55596553_b.jpg","thumbnail":"https://perenual.com/storage/species_image/2_abies_alba_pyramidalis/thumbnail/49255769768_df55596553_b.jpg"}},{"id":2432,"common_name":"pink","scientific_name":["Dianthus 'Siskin Clock'"],"other_name":null,"cycle":"Perennial","watering":"Average","sunlight":["Full sun"],"default_image":{"image_id":9,"license":5,"license_name":"Attribution-ShareAlike License","license_url":"https://creativecommons.org/licenses/by-sa/2.0/","original_url":"https://perenual.com/storage/species_image/2_abies_alba_pyramidalis/og/49255769768_df55596553_b.jpg","regular_url":"https://perenual.com/storage/species_image/2_abies_alba_pyramidalis/regular/49255769768_df55596553_b.jpg","medium_url":"https://perenual.com/storage/species_image/2_abies_alba_pyramidalis/medium/49255769768_df55596553_b.jpg","small_url":"https://perenual.com/storage/species_image/2_abies_alba_pyramidalis/small/49255769768_df55596553_b.jpg","thumbnail":"https://perenual.com/storage/species_image/2_abies_alba_pyramidalis/thumbnail/49255769768_df55596553_b.jpg"}},{"id":2433,"common_name":"carnation","scientific_name":["Dianthus 'Spangled Star'"],"other_name":null,"cycle":"Perennial","watering":"Average","sunlight":["Full sun"],"default_image":{"image_id":5531,"license":4,"license_name":"Attribution License","license_url":"https://creativecommons.org/licenses/by/2.0/","original_url":"https://perenual.com/storage/species_image/2433_dianthus_spangled_star/og/3492689891_bfd25e36f9_b.jpg","regular_url":"https://perenual.com/storage/species_image/2433_dianthus_spangled_star/regular/3492689891_bfd25e36f9_b.jpg","medium_url":"https://perenual.com/storage/species_image/2433_dianthus_spangled_star/medium/3492689891_bfd25e36f9_b.jpg","small_url":"https://perenual.com/storage/species_image/2433_dianthus_spangled_star/small/3492689891_bfd25e36f9_b.jpg","thumbnail":"https://perenual.com/storage/species_image/2433_dianthus_spangled_star/thumbnail/3492689891_bfd25e36f9_b.jpg"}},{"id":2434,"common_name":"sweet William","scientific_name":["Dianthus 'Stagirond' RONDO"],"other_name":null,"cycle":"Perennial","watering":"Average","sunlight":["Full sun","part shade"],"default_image":{"image_id":5503,"license":4,"license_name":"Attribution License","license_url":"https://creativecommons.org/licenses/by/2.0/","original_url":"https://perenual.com/storage/species_image/2434_dianthus_stagirond_rondo/og/52608863762_65e4a44d82_b.jpg","regular_url":"https://perenual.com/storage/species_image/2434_dianthus_stagirond_rondo/regular/52608863762_65e4a44d82_b.jpg","medium_url":"https://perenual.com/storage/species_image/2434_dianthus_stagirond_rondo/medium/52608863762_65e4a44d82_b.jpg","small_url":"https://perenual.com/storage/species_image/2434_dianthus_stagirond_rondo/small/52608863762_65e4a44d82_b.jpg","thumbnail":"https://perenual.com/storage/species_image/2434_dianthus_stagirond_rondo/thumbnail/52608863762_65e4a44d82_b.jpg"}},{"id":2435,"common_name":"pink","scientific_name":["Dianthus 'Sunflor Chocolate'"],"other_name":null,"cycle":"Perennial","watering":"Average","sunlight":["Full sun"],"default_image":{"image_id":9,"license":5,"license_name":"Attribution-ShareAlike License","license_url":"https://creativecommons.org/licenses/by-sa/2.0/","original_url":"https://perenual.com/storage/species_image/2_abies_alba_pyramidalis/og/49255769768_df55596553_b.jpg","regular_url":"https://perenual.com/storage/species_image/2_abies_alba_pyramidalis/regular/49255769768_df55596553_b.jpg","medium_url":"https://perenual.com/storage/species_image/2_abies_alba_pyramidalis/medium/49255769768_df55596553_b.jpg","small_url":"https://perenual.com/storage/species_image/2_abies_alba_pyramidalis/small/49255769768_df55596553_b.jpg","thumbnail":"https://perenual.com/storage/species_image/2_abies_alba_pyramidalis/thumbnail/49255769768_df55596553_b.jpg"}},{"id":2436,"common_name":"carnation","scientific_name":["Dianthus superbus"],"other_name":null,"cycle":"Perennial","watering":"Average","sunlight":["Full sun"],"default_image":{"image_id":9,"license":5,"license_name":"Attribution-ShareAlike License","license_url":"https://creativecommons.org/licenses/by-sa/2.0/","original_url":"https://perenual.com/storage/species_image/2_abies_alba_pyramidalis/og/49255769768_df55596553_b.jpg","regular_url":"https://perenual.com/storage/species_image/2_abies_alba_pyramidalis/regular/49255769768_df55596553_b.jpg","medium_url":"https://perenual.com/storage/species_image/2_abies_alba_pyramidalis/medium/49255769768_df55596553_b.jpg","small_url":"https://perenual.com/storage/species_image/2_abies_alba_pyramidalis/small/49255769768_df55596553_b.jpg","thumbnail":"https://perenual.com/storage/species_image/2_abies_alba_pyramidalis/thumbnail/49255769768_df55596553_b.jpg"}},{"id":2437,"common_name":"fringed pink","scientific_name":["Dianthus superbus 'Crimsonia'"],"other_name":null,"cycle":"Perennial","watering":"Average","sunlight":["Full sun"],"default_image":{"image_id":9,"license":5,"license_name":"Attribution-ShareAlike License","license_url":"https://creativecommons.org/licenses/by-sa/2.0/","original_url":"https://perenual.com/storage/species_image/2_abies_alba_pyramidalis/og/49255769768_df55596553_b.jpg","regular_url":"https://perenual.com/storage/species_image/2_abies_alba_pyramidalis/regular/49255769768_df55596553_b.jpg","medium_url":"https://perenual.com/storage/species_image/2_abies_alba_pyramidalis/medium/49255769768_df55596553_b.jpg","small_url":"https://perenual.com/storage/species_image/2_abies_alba_pyramidalis/small/49255769768_df55596553_b.jpg","thumbnail":"https://perenual.com/storage/species_image/2_abies_alba_pyramidalis/thumbnail/49255769768_df55596553_b.jpg"}},{"id":2438,"common_name":"carnation","scientific_name":["Dianthus 'Supra Purple'"],"other_name":null,"cycle":"Perennial","watering":"Average","sunlight":["Full sun"],"default_image":{"image_id":5534,"license":45,"license_name":"Attribution-ShareAlike 3.0 Unported (CC BY-SA 3.0)","license_url":"https://creativecommons.org/licenses/by-sa/3.0/deed.en","original_url":"https://perenual.com/storage/species_image/2438_dianthus_supra_purple/og/Dianthus_superbus_subsp_longicalycinus1.jpg","regular_url":"https://perenual.com/storage/species_image/2438_dianthus_supra_purple/regular/Dianthus_superbus_subsp_longicalycinus1.jpg","medium_url":"https://perenual.com/storage/species_image/2438_dianthus_supra_purple/medium/Dianthus_superbus_subsp_longicalycinus1.jpg","small_url":"https://perenual.com/storage/species_image/2438_dianthus_supra_purple/small/Dianthus_superbus_subsp_longicalycinus1.jpg","thumbnail":"https://perenual.com/storage/species_image/2438_dianthus_supra_purple/thumbnail/Dianthus_superbus_subsp_longicalycinus1.jpg"}},{"id":2439,"common_name":"carnation","scientific_name":["Dianthus 'Valda Kitty' DEVON COTTAGE RUBY'S TUESDAY"],"other_name":null,"cycle":"Perennial","watering":"Average","sunlight":["Full sun"],"default_image":{"image_id":5535,"license":5,"license_name":"Attribution-ShareAlike License","license_url":"https://creativecommons.org/licenses/by-sa/2.0/","original_url":"https://perenual.com/storage/species_image/2439_dianthus_valda_kitty_devon_cottage_rubys_tuesday/og/52581628239_500272a291_b.jpg","regular_url":"https://perenual.com/storage/species_image/2439_dianthus_valda_kitty_devon_cottage_rubys_tuesday/regular/52581628239_500272a291_b.jpg","medium_url":"https://perenual.com/storage/species_image/2439_dianthus_valda_kitty_devon_cottage_rubys_tuesday/medium/52581628239_500272a291_b.jpg","small_url":"https://perenual.com/storage/species_image/2439_dianthus_valda_kitty_devon_cottage_rubys_tuesday/small/52581628239_500272a291_b.jpg","thumbnail":"https://perenual.com/storage/species_image/2439_dianthus_valda_kitty_devon_cottage_rubys_tuesday/thumbnail/52581628239_500272a291_b.jpg"}},{"id":2440,"common_name":"carnation","scientific_name":["Dianthus 'Valda Louise' ROSIE CHEEKS"],"other_name":null,"cycle":"Perennial","watering":"Average","sunlight":["Full sun"],"default_image":{"image_id":9,"license":5,"license_name":"Attribution-ShareAlike License","license_url":"https://creativecommons.org/licenses/by-sa/2.0/","original_url":"https://perenual.com/storage/species_image/2_abies_alba_pyramidalis/og/49255769768_df55596553_b.jpg","regular_url":"https://perenual.com/storage/species_image/2_abies_alba_pyramidalis/regular/49255769768_df55596553_b.jpg","medium_url":"https://perenual.com/storage/species_image/2_abies_alba_pyramidalis/medium/49255769768_df55596553_b.jpg","small_url":"https://perenual.com/storage/species_image/2_abies_alba_pyramidalis/small/49255769768_df55596553_b.jpg","thumbnail":"https://perenual.com/storage/species_image/2_abies_alba_pyramidalis/thumbnail/49255769768_df55596553_b.jpg"}},{"id":2441,"common_name":"pink","scientific_name":["Dianthus 'Wicked Witch'"],"other_name":null,"cycle":"Perennial","watering":"Average","sunlight":["Full sun"],"default_image":{"image_id":9,"license":5,"license_name":"Attribution-ShareAlike License","license_url":"https://creativecommons.org/licenses/by-sa/2.0/","original_url":"https://perenual.com/storage/species_image/2_abies_alba_pyramidalis/og/49255769768_df55596553_b.jpg","regular_url":"https://perenual.com/storage/species_image/2_abies_alba_pyramidalis/regular/49255769768_df55596553_b.jpg","medium_url":"https://perenual.com/storage/species_image/2_abies_alba_pyramidalis/medium/49255769768_df55596553_b.jpg","small_url":"https://perenual.com/storage/species_image/2_abies_alba_pyramidalis/small/49255769768_df55596553_b.jpg","thumbnail":"https://perenual.com/storage/species_image/2_abies_alba_pyramidalis/thumbnail/49255769768_df55596553_b.jpg"}},{"id":2442,"common_name":"pink","scientific_name":["Dianthus 'WP Passion'"],"other_name":null,"cycle":"Perennial","watering":"Average","sunlight":["Full sun"],"default_image":{"image_id":5536,"license":45,"license_name":"Attribution-ShareAlike 3.0 Unported (CC BY-SA 3.0)","license_url":"https://creativecommons.org/licenses/by-sa/3.0/deed.en","original_url":"https://perenual.com/storage/species_image/2444_dianthus_wp10_sab06_early_bird_chili/og/Red_Carnation_Flower.jpg","regular_url":"https://perenual.com/storage/species_image/2444_dianthus_wp10_sab06_early_bird_chili/regular/Red_Carnation_Flower.jpg","medium_url":"https://perenual.com/storage/species_image/2444_dianthus_wp10_sab06_early_bird_chili/medium/Red_Carnation_Flower.jpg","small_url":"https://perenual.com/storage/species_image/2444_dianthus_wp10_sab06_early_bird_chili/small/Red_Carnation_Flower.jpg","thumbnail":"https://perenual.com/storage/species_image/2444_dianthus_wp10_sab06_early_bird_chili/thumbnail/Red_Carnation_Flower.jpg"}},{"id":2443,"common_name":"pink","scientific_name":["Dianthus 'WP05 Yves' SCENT FIRST COCONUT SURPRISE"],"other_name":null,"cycle":"Perennial","watering":"Average","sunlight":["Full sun"],"default_image":{"image_id":9,"license":5,"license_name":"Attribution-ShareAlike License","license_url":"https://creativecommons.org/licenses/by-sa/2.0/","original_url":"https://perenual.com/storage/species_image/2_abies_alba_pyramidalis/og/49255769768_df55596553_b.jpg","regular_url":"https://perenual.com/storage/species_image/2_abies_alba_pyramidalis/regular/49255769768_df55596553_b.jpg","medium_url":"https://perenual.com/storage/species_image/2_abies_alba_pyramidalis/medium/49255769768_df55596553_b.jpg","small_url":"https://perenual.com/storage/species_image/2_abies_alba_pyramidalis/small/49255769768_df55596553_b.jpg","thumbnail":"https://perenual.com/storage/species_image/2_abies_alba_pyramidalis/thumbnail/49255769768_df55596553_b.jpg"}},{"id":2444,"common_name":"pink","scientific_name":["Dianthus 'Wp10 Sab06' EARLY BIRD CHILI"],"other_name":null,"cycle":"Perennial","watering":"Average","sunlight":["Full sun"],"default_image":{"image_id":5536,"license":45,"license_name":"Attribution-ShareAlike 3.0 Unported (CC BY-SA 3.0)","license_url":"https://creativecommons.org/licenses/by-sa/3.0/deed.en","original_url":"https://perenual.com/storage/species_image/2444_dianthus_wp10_sab06_early_bird_chili/og/Red_Carnation_Flower.jpg","regular_url":"https://perenual.com/storage/species_image/2444_dianthus_wp10_sab06_early_bird_chili/regular/Red_Carnation_Flower.jpg","medium_url":"https://perenual.com/storage/species_image/2444_dianthus_wp10_sab06_early_bird_chili/medium/Red_Carnation_Flower.jpg","small_url":"https://perenual.com/storage/species_image/2444_dianthus_wp10_sab06_early_bird_chili/small/Red_Carnation_Flower.jpg","thumbnail":"https://perenual.com/storage/species_image/2444_dianthus_wp10_sab06_early_bird_chili/thumbnail/Red_Carnation_Flower.jpg"}},{"id":2445,"common_name":"American beakgrain","scientific_name":["Diarrhena americana"],"other_name":null,"cycle":"Perennial","watering":"Average","sunlight":["Part shade","full shade"],"default_image":{"image_id":5537,"license":5,"license_name":"Attribution-ShareAlike License","license_url":"https://creativecommons.org/licenses/by-sa/2.0/","original_url":"https://perenual.com/storage/species_image/2445_diarrhena_americana/og/2879506620_640ec99e33_b.jpg","regular_url":"https://perenual.com/storage/species_image/2445_diarrhena_americana/regular/2879506620_640ec99e33_b.jpg","medium_url":"https://perenual.com/storage/species_image/2445_diarrhena_americana/medium/2879506620_640ec99e33_b.jpg","small_url":"https://perenual.com/storage/species_image/2445_diarrhena_americana/small/2879506620_640ec99e33_b.jpg","thumbnail":"https://perenual.com/storage/species_image/2445_diarrhena_americana/thumbnail/2879506620_640ec99e33_b.jpg"}},{"id":2446,"common_name":"diarrhena","scientific_name":["Diarrhena mandshurica"],"other_name":null,"cycle":"Perennial","watering":"Average","sunlight":["Part shade","full shade"],"default_image":{"image_id":5538,"license":45,"license_name":"Attribution-ShareAlike 3.0 Unported (CC BY-SA 3.0)","license_url":"https://creativecommons.org/licenses/by-sa/3.0/deed.en","original_url":"https://perenual.com/storage/species_image/2446_diarrhena_mandshurica/og/Diarrhena_mandshurica_41602261.jpg","regular_url":"https://perenual.com/storage/species_image/2446_diarrhena_mandshurica/regular/Diarrhena_mandshurica_41602261.jpg","medium_url":"https://perenual.com/storage/species_image/2446_diarrhena_mandshurica/medium/Diarrhena_mandshurica_41602261.jpg","small_url":"https://perenual.com/storage/species_image/2446_diarrhena_mandshurica/small/Diarrhena_mandshurica_41602261.jpg","thumbnail":"https://perenual.com/storage/species_image/2446_diarrhena_mandshurica/thumbnail/Diarrhena_mandshurica_41602261.jpg"}},{"id":2447,"common_name":"American beakgrain","scientific_name":["Diarrhena obovata"],"other_name":null,"cycle":"Perennial","watering":"Frequent","sunlight":["Part shade","full shade"],"default_image":{"image_id":5539,"license":45,"license_name":"Attribution-ShareAlike 3.0 Unported (CC BY-SA 3.0)","license_url":"https://creativecommons.org/licenses/by-sa/3.0/deed.en","original_url":"https://perenual.com/storage/species_image/2447_diarrhena_obovata/og/Rostraria_cristata_leaf_%2803%29.jpg","regular_url":"https://perenual.com/storage/species_image/2447_diarrhena_obovata/regular/Rostraria_cristata_leaf_%2803%29.jpg","medium_url":"https://perenual.com/storage/species_image/2447_diarrhena_obovata/medium/Rostraria_cristata_leaf_%2803%29.jpg","small_url":"https://perenual.com/storage/species_image/2447_diarrhena_obovata/small/Rostraria_cristata_leaf_%2803%29.jpg","thumbnail":"https://perenual.com/storage/species_image/2447_diarrhena_obovata/thumbnail/Rostraria_cristata_leaf_%2803%29.jpg"}},{"id":2448,"common_name":"twinspur","scientific_name":["Diascia barberae"],"other_name":null,"cycle":"Perennial","watering":"Average","sunlight":["Full sun"],"default_image":{"image_id":5540,"license":5,"license_name":"Attribution-ShareAlike License","license_url":"https://creativecommons.org/licenses/by-sa/2.0/","original_url":"https://perenual.com/storage/species_image/2448_diascia_barberae/og/35866312631_7c0fe0a0d0_b.jpg","regular_url":"https://perenual.com/storage/species_image/2448_diascia_barberae/regular/35866312631_7c0fe0a0d0_b.jpg","medium_url":"https://perenual.com/storage/species_image/2448_diascia_barberae/medium/35866312631_7c0fe0a0d0_b.jpg","small_url":"https://perenual.com/storage/species_image/2448_diascia_barberae/small/35866312631_7c0fe0a0d0_b.jpg","thumbnail":"https://perenual.com/storage/species_image/2448_diascia_barberae/thumbnail/35866312631_7c0fe0a0d0_b.jpg"}},{"id":2449,"common_name":"diascia","scientific_name":["Diascia integerrima 'Coral Canyon'"],"other_name":null,"cycle":"Perennial","watering":"Average","sunlight":["Full sun","part shade"],"default_image":{"image_id":9,"license":5,"license_name":"Attribution-ShareAlike License","license_url":"https://creativecommons.org/licenses/by-sa/2.0/","original_url":"https://perenual.com/storage/species_image/2_abies_alba_pyramidalis/og/49255769768_df55596553_b.jpg","regular_url":"https://perenual.com/storage/species_image/2_abies_alba_pyramidalis/regular/49255769768_df55596553_b.jpg","medium_url":"https://perenual.com/storage/species_image/2_abies_alba_pyramidalis/medium/49255769768_df55596553_b.jpg","small_url":"https://perenual.com/storage/species_image/2_abies_alba_pyramidalis/small/49255769768_df55596553_b.jpg","thumbnail":"https://perenual.com/storage/species_image/2_abies_alba_pyramidalis/thumbnail/49255769768_df55596553_b.jpg"}},{"id":2450,"common_name":"bleeding heart","scientific_name":["Dicentra 'Adrian Bloom'"],"other_name":null,"cycle":"Perennial","watering":"Average","sunlight":["Part shade"],"default_image":{"image_id":9,"license":5,"license_name":"Attribution-ShareAlike License","license_url":"https://creativecommons.org/licenses/by-sa/2.0/","original_url":"https://perenual.com/storage/species_image/2_abies_alba_pyramidalis/og/49255769768_df55596553_b.jpg","regular_url":"https://perenual.com/storage/species_image/2_abies_alba_pyramidalis/regular/49255769768_df55596553_b.jpg","medium_url":"https://perenual.com/storage/species_image/2_abies_alba_pyramidalis/medium/49255769768_df55596553_b.jpg","small_url":"https://perenual.com/storage/species_image/2_abies_alba_pyramidalis/small/49255769768_df55596553_b.jpg","thumbnail":"https://perenual.com/storage/species_image/2_abies_alba_pyramidalis/thumbnail/49255769768_df55596553_b.jpg"}},{"id":2451,"common_name":"bleeding heart","scientific_name":["Dicentra 'Bacchanal'"],"other_name":null,"cycle":"Perennial","watering":"Average","sunlight":["Part shade"],"default_image":{"image_id":9,"license":5,"license_name":"Attribution-ShareAlike License","license_url":"https://creativecommons.org/licenses/by-sa/2.0/","original_url":"https://perenual.com/storage/species_image/2_abies_alba_pyramidalis/og/49255769768_df55596553_b.jpg","regular_url":"https://perenual.com/storage/species_image/2_abies_alba_pyramidalis/regular/49255769768_df55596553_b.jpg","medium_url":"https://perenual.com/storage/species_image/2_abies_alba_pyramidalis/medium/49255769768_df55596553_b.jpg","small_url":"https://perenual.com/storage/species_image/2_abies_alba_pyramidalis/small/49255769768_df55596553_b.jpg","thumbnail":"https://perenual.com/storage/species_image/2_abies_alba_pyramidalis/thumbnail/49255769768_df55596553_b.jpg"}},{"id":2452,"common_name":"bleeding heart","scientific_name":["Dicentra 'Burning Hearts'"],"other_name":null,"cycle":"Perennial","watering":"Average","sunlight":["Part shade"],"default_image":{"image_id":5545,"license":5,"license_name":"Attribution-ShareAlike License","license_url":"https://creativecommons.org/licenses/by-sa/2.0/","original_url":"https://perenual.com/storage/species_image/2452_dicentra_burning_hearts/og/52150194974_4f2f732555_b.jpg","regular_url":"https://perenual.com/storage/species_image/2452_dicentra_burning_hearts/regular/52150194974_4f2f732555_b.jpg","medium_url":"https://perenual.com/storage/species_image/2452_dicentra_burning_hearts/medium/52150194974_4f2f732555_b.jpg","small_url":"https://perenual.com/storage/species_image/2452_dicentra_burning_hearts/small/52150194974_4f2f732555_b.jpg","thumbnail":"https://perenual.com/storage/species_image/2452_dicentra_burning_hearts/thumbnail/52150194974_4f2f732555_b.jpg"}},{"id":2453,"common_name":"Dutchman's breeches","scientific_name":["Dicentra cucullaria"],"other_name":null,"cycle":"Perennial","watering":"Average","sunlight":["Part shade","full shade"],"default_image":{"image_id":9,"license":5,"license_name":"Attribution-ShareAlike License","license_url":"https://creativecommons.org/licenses/by-sa/2.0/","original_url":"https://perenual.com/storage/species_image/2_abies_alba_pyramidalis/og/49255769768_df55596553_b.jpg","regular_url":"https://perenual.com/storage/species_image/2_abies_alba_pyramidalis/regular/49255769768_df55596553_b.jpg","medium_url":"https://perenual.com/storage/species_image/2_abies_alba_pyramidalis/medium/49255769768_df55596553_b.jpg","small_url":"https://perenual.com/storage/species_image/2_abies_alba_pyramidalis/small/49255769768_df55596553_b.jpg","thumbnail":"https://perenual.com/storage/species_image/2_abies_alba_pyramidalis/thumbnail/49255769768_df55596553_b.jpg"}},{"id":2454,"common_name":"bleeding heart","scientific_name":["Dicentra eximia"],"other_name":null,"cycle":"Perennial","watering":"Average","sunlight":["Part shade"],"default_image":{"image_id":5549,"license":5,"license_name":"Attribution-ShareAlike License","license_url":"https://creativecommons.org/licenses/by-sa/2.0/","original_url":"https://perenual.com/storage/species_image/2454_dicentra_eximia/og/20094211512_98a4a47723_b.jpg","regular_url":"https://perenual.com/storage/species_image/2454_dicentra_eximia/regular/20094211512_98a4a47723_b.jpg","medium_url":"https://perenual.com/storage/species_image/2454_dicentra_eximia/medium/20094211512_98a4a47723_b.jpg","small_url":"https://perenual.com/storage/species_image/2454_dicentra_eximia/small/20094211512_98a4a47723_b.jpg","thumbnail":"https://perenual.com/storage/species_image/2454_dicentra_eximia/thumbnail/20094211512_98a4a47723_b.jpg"}},{"id":2455,"common_name":"bleeding heart","scientific_name":["Dicentra 'Ivory Hearts'"],"other_name":null,"cycle":"Perennial","watering":"Average","sunlight":["Part shade","full shade"],"default_image":{"image_id":5551,"license":5,"license_name":"Attribution-ShareAlike License","license_url":"https://creativecommons.org/licenses/by-sa/2.0/","original_url":"https://perenual.com/storage/species_image/2455_dicentra_ivory_hearts/og/3050058676_fbd1ddea57_b.jpg","regular_url":"https://perenual.com/storage/species_image/2455_dicentra_ivory_hearts/regular/3050058676_fbd1ddea57_b.jpg","medium_url":"https://perenual.com/storage/species_image/2455_dicentra_ivory_hearts/medium/3050058676_fbd1ddea57_b.jpg","small_url":"https://perenual.com/storage/species_image/2455_dicentra_ivory_hearts/small/3050058676_fbd1ddea57_b.jpg","thumbnail":"https://perenual.com/storage/species_image/2455_dicentra_ivory_hearts/thumbnail/3050058676_fbd1ddea57_b.jpg"}},{"id":2456,"common_name":"bleeding heart","scientific_name":["Dicentra 'King of Hearts'"],"other_name":null,"cycle":"Perennial","watering":"Average","sunlight":["Part shade"],"default_image":{"image_id":9,"license":5,"license_name":"Attribution-ShareAlike License","license_url":"https://creativecommons.org/licenses/by-sa/2.0/","original_url":"https://perenual.com/storage/species_image/2_abies_alba_pyramidalis/og/49255769768_df55596553_b.jpg","regular_url":"https://perenual.com/storage/species_image/2_abies_alba_pyramidalis/regular/49255769768_df55596553_b.jpg","medium_url":"https://perenual.com/storage/species_image/2_abies_alba_pyramidalis/medium/49255769768_df55596553_b.jpg","small_url":"https://perenual.com/storage/species_image/2_abies_alba_pyramidalis/small/49255769768_df55596553_b.jpg","thumbnail":"https://perenual.com/storage/species_image/2_abies_alba_pyramidalis/thumbnail/49255769768_df55596553_b.jpg"}},{"id":2457,"common_name":"bleeding heart","scientific_name":["Dicentra 'Love Hearts'"],"other_name":null,"cycle":"Perennial","watering":"Average","sunlight":["Part shade"],"default_image":{"image_id":5556,"license":6,"license_name":"Attribution-NoDerivs License","license_url":"https://creativecommons.org/licenses/by-nd/2.0/","original_url":"https://perenual.com/storage/species_image/2457_dicentra_love_hearts/og/4572873995_91087fe051_b.jpg"}},{"id":2458,"common_name":"bleeding heart","scientific_name":["Dicentra 'Luxuriant'"],"other_name":null,"cycle":"Perennial","watering":"Average","sunlight":["Part shade"],"default_image":{"image_id":9,"license":5,"license_name":"Attribution-ShareAlike License","license_url":"https://creativecommons.org/licenses/by-sa/2.0/","original_url":"https://perenual.com/storage/species_image/2_abies_alba_pyramidalis/og/49255769768_df55596553_b.jpg","regular_url":"https://perenual.com/storage/species_image/2_abies_alba_pyramidalis/regular/49255769768_df55596553_b.jpg","medium_url":"https://perenual.com/storage/species_image/2_abies_alba_pyramidalis/medium/49255769768_df55596553_b.jpg","small_url":"https://perenual.com/storage/species_image/2_abies_alba_pyramidalis/small/49255769768_df55596553_b.jpg","thumbnail":"https://perenual.com/storage/species_image/2_abies_alba_pyramidalis/thumbnail/49255769768_df55596553_b.jpg"}},{"id":2459,"common_name":"bleeding heart","scientific_name":["Dicentra 'Red Fountain'"],"other_name":null,"cycle":"Perennial","watering":"Average","sunlight":["Part shade"],"default_image":{"image_id":9,"license":5,"license_name":"Attribution-ShareAlike License","license_url":"https://creativecommons.org/licenses/by-sa/2.0/","original_url":"https://perenual.com/storage/species_image/2_abies_alba_pyramidalis/og/49255769768_df55596553_b.jpg","regular_url":"https://perenual.com/storage/species_image/2_abies_alba_pyramidalis/regular/49255769768_df55596553_b.jpg","medium_url":"https://perenual.com/storage/species_image/2_abies_alba_pyramidalis/medium/49255769768_df55596553_b.jpg","small_url":"https://perenual.com/storage/species_image/2_abies_alba_pyramidalis/small/49255769768_df55596553_b.jpg","thumbnail":"https://perenual.com/storage/species_image/2_abies_alba_pyramidalis/thumbnail/49255769768_df55596553_b.jpg"}},{"id":2460,"common_name":"dichondra","scientific_name":["Dichondra argentea 'Silver Falls'"],"other_name":null,"cycle":"Perennial","watering":"Minimum","sunlight":["Full sun"],"default_image":{"image_id":5560,"license":5,"license_name":"Attribution-ShareAlike License","license_url":"https://creativecommons.org/licenses/by-sa/2.0/","original_url":"https://perenual.com/storage/species_image/2460_dichondra_argentea_silver_falls/og/40202837181_86ba066273_b.jpg","regular_url":"https://perenual.com/storage/species_image/2460_dichondra_argentea_silver_falls/regular/40202837181_86ba066273_b.jpg","medium_url":"https://perenual.com/storage/species_image/2460_dichondra_argentea_silver_falls/medium/40202837181_86ba066273_b.jpg","small_url":"https://perenual.com/storage/species_image/2460_dichondra_argentea_silver_falls/small/40202837181_86ba066273_b.jpg","thumbnail":"https://perenual.com/storage/species_image/2460_dichondra_argentea_silver_falls/thumbnail/40202837181_86ba066273_b.jpg"}}],"to":2460,"per_page":30,"current_page":82,"from":2431,"last_page":200,"total":6000}