{"data":[{"id":5221,"common_name":"zebra grass","scientific_name":["Miscanthus sinensis 'Zebrinus'"],"other_name":null,"cycle":"Perennial","watering":"Average","sunlight":["Full sun","part shade"],"default_image":{"image_id":11067,"license":5,"license_name":"Attribution-ShareAlike License","license_url":"https://creativecommons.org/licenses/by-sa/2.0/","original_url":"https://perenual.com/storage/species_image/5221_miscanthus_sinensis_zebrinus/og/48630834416_72d316a966_b.jpg","regular_url":"https://perenual.com/storage/species_image/5221_miscanthus_sinensis_zebrinus/regular/48630834416_72d316a966_b.jpg","medium_url":"https://perenual.com/storage/species_image/5221_miscanthus_sinensis_zebrinus/medium/48630834416_72d316a966_b.jpg","small_url":"https://perenual.com/storage/species_image/5221_miscanthus_sinensis_zebrinus/small/48630834416_72d316a966_b.jpg","thumbnail":"https://perenual.com/storage/species_image/5221_miscanthus_sinensis_zebrinus/thumbnail/48630834416_72d316a966_b.jpg"}},{"id":5222,"common_name":"partridge berry","scientific_name":["Mitchella repens"],"other_name":null,"cycle":"Perennial","watering":"Average","sunlight":["Part shade","full shade"],"default_image":{"image_id":9,"license":5,"license_name":"Attribution-ShareAlike License","license_url":"https://creativecommons.org/licenses/by-sa/2.0/","original_url":"https://perenual.com/storage/species_image/2_abies_alba_pyramidalis/og/49255769768_df55596553_b.jpg","regular_url":"https://perenual.com/storage/species_image/2_abies_alba_pyramidalis/regular/49255769768_df55596553_b.jpg","medium_url":"https://perenual.com/storage/species_image/2_abies_alba_pyramidalis/medium/49255769768_df55596553_b.jpg","small_url":"https://perenual.com/storage/species_image/2_abies_alba_pyramidalis/small/49255769768_df55596553_b.jpg","thumbnail":"https://perenual.com/storage/species_image/2_abies_alba_pyramidalis/thumbnail/49255769768_df55596553_b.jpg"}},{"id":5223,"common_name":"brewer's-cap","scientific_name":["Mitella diphylla"],"other_name":null,"cycle":"Perennial","watering":"Average","sunlight":["Part shade"],"default_image":{"image_id":11072,"license":5,"license_name":"Attribution-ShareAlike License","license_url":"https://creativecommons.org/licenses/by-sa/2.0/","original_url":"https://perenual.com/storage/species_image/5223_mitella_diphylla/og/8698585939_232fede8ca_b.jpg","regular_url":"https://perenual.com/storage/species_image/5223_mitella_diphylla/regular/8698585939_232fede8ca_b.jpg","medium_url":"https://perenual.com/storage/species_image/5223_mitella_diphylla/medium/8698585939_232fede8ca_b.jpg","small_url":"https://perenual.com/storage/species_image/5223_mitella_diphylla/small/8698585939_232fede8ca_b.jpg","thumbnail":"https://perenual.com/storage/species_image/5223_mitella_diphylla/thumbnail/8698585939_232fede8ca_b.jpg"}},{"id":5224,"common_name":"purple moor grass","scientific_name":["Molinia caerulea"],"other_name":null,"cycle":"Perennial","watering":"Frequent","sunlight":["Full sun"],"default_image":{"image_id":9,"license":5,"license_name":"Attribution-ShareAlike License","license_url":"https://creativecommons.org/licenses/by-sa/2.0/","original_url":"https://perenual.com/storage/species_image/2_abies_alba_pyramidalis/og/49255769768_df55596553_b.jpg","regular_url":"https://perenual.com/storage/species_image/2_abies_alba_pyramidalis/regular/49255769768_df55596553_b.jpg","medium_url":"https://perenual.com/storage/species_image/2_abies_alba_pyramidalis/medium/49255769768_df55596553_b.jpg","small_url":"https://perenual.com/storage/species_image/2_abies_alba_pyramidalis/small/49255769768_df55596553_b.jpg","thumbnail":"https://perenual.com/storage/species_image/2_abies_alba_pyramidalis/thumbnail/49255769768_df55596553_b.jpg"}},{"id":5225,"common_name":"purple moor grass","scientific_name":["Molinia caerulea subsp. arundinacea 'Skyracer'"],"other_name":null,"cycle":"Perennial","watering":"Frequent","sunlight":["Full sun"],"default_image":{"image_id":9,"license":5,"license_name":"Attribution-ShareAlike License","license_url":"https://creativecommons.org/licenses/by-sa/2.0/","original_url":"https://perenual.com/storage/species_image/2_abies_alba_pyramidalis/og/49255769768_df55596553_b.jpg","regular_url":"https://perenual.com/storage/species_image/2_abies_alba_pyramidalis/regular/49255769768_df55596553_b.jpg","medium_url":"https://perenual.com/storage/species_image/2_abies_alba_pyramidalis/medium/49255769768_df55596553_b.jpg","small_url":"https://perenual.com/storage/species_image/2_abies_alba_pyramidalis/small/49255769768_df55596553_b.jpg","thumbnail":"https://perenual.com/storage/species_image/2_abies_alba_pyramidalis/thumbnail/49255769768_df55596553_b.jpg"}},{"id":5226,"common_name":"purple moor grass","scientific_name":["Molinia caerulea subsp. caerulea 'Variegata'"],"other_name":null,"cycle":"Perennial","watering":"Frequent","sunlight":["Full sun"],"default_image":{"image_id":9,"license":5,"license_name":"Attribution-ShareAlike License","license_url":"https://creativecommons.org/licenses/by-sa/2.0/","original_url":"https://perenual.com/storage/species_image/2_abies_alba_pyramidalis/og/49255769768_df55596553_b.jpg","regular_url":"https://perenual.com/storage/species_image/2_abies_alba_pyramidalis/regular/49255769768_df55596553_b.jpg","medium_url":"https://perenual.com/storage/species_image/2_abies_alba_pyramidalis/medium/49255769768_df55596553_b.jpg","small_url":"https://perenual.com/storage/species_image/2_abies_alba_pyramidalis/small/49255769768_df55596553_b.jpg","thumbnail":"https://perenual.com/storage/species_image/2_abies_alba_pyramidalis/thumbnail/49255769768_df55596553_b.jpg"}},{"id":5227,"common_name":"bells of Ireland","scientific_name":["Moluccella laevis"],"other_name":null,"cycle":"Perennial","watering":"Average","sunlight":["Full sun"],"default_image":{"image_id":9,"license":5,"license_name":"Attribution-ShareAlike License","license_url":"https://creativecommons.org/licenses/by-sa/2.0/","original_url":"https://perenual.com/storage/species_image/2_abies_alba_pyramidalis/og/49255769768_df55596553_b.jpg","regular_url":"https://perenual.com/storage/species_image/2_abies_alba_pyramidalis/regular/49255769768_df55596553_b.jpg","medium_url":"https://perenual.com/storage/species_image/2_abies_alba_pyramidalis/medium/49255769768_df55596553_b.jpg","small_url":"https://perenual.com/storage/species_image/2_abies_alba_pyramidalis/small/49255769768_df55596553_b.jpg","thumbnail":"https://perenual.com/storage/species_image/2_abies_alba_pyramidalis/thumbnail/49255769768_df55596553_b.jpg"}},{"id":5228,"common_name":"balsampear","scientific_name":["Momordica charantia"],"other_name":null,"cycle":"Perennial","watering":"Average","sunlight":["Full sun"],"default_image":{"image_id":11080,"license":5,"license_name":"Attribution-ShareAlike License","license_url":"https://creativecommons.org/licenses/by-sa/2.0/","original_url":"https://perenual.com/storage/species_image/5228_momordica_charantia/og/50501317402_e7b0fa3edb_b.jpg","regular_url":"https://perenual.com/storage/species_image/5228_momordica_charantia/regular/50501317402_e7b0fa3edb_b.jpg","medium_url":"https://perenual.com/storage/species_image/5228_momordica_charantia/medium/50501317402_e7b0fa3edb_b.jpg","small_url":"https://perenual.com/storage/species_image/5228_momordica_charantia/small/50501317402_e7b0fa3edb_b.jpg","thumbnail":"https://perenual.com/storage/species_image/5228_momordica_charantia/thumbnail/50501317402_e7b0fa3edb_b.jpg"}},{"id":5229,"common_name":"bee balm","scientific_name":["Monarda 'Blaustrumpf' BLUE STOCKING"],"other_name":null,"cycle":"Perennial","watering":"Frequent","sunlight":["Full sun","part shade"],"default_image":{"image_id":9,"license":5,"license_name":"Attribution-ShareAlike License","license_url":"https://creativecommons.org/licenses/by-sa/2.0/","original_url":"https://perenual.com/storage/species_image/2_abies_alba_pyramidalis/og/49255769768_df55596553_b.jpg","regular_url":"https://perenual.com/storage/species_image/2_abies_alba_pyramidalis/regular/49255769768_df55596553_b.jpg","medium_url":"https://perenual.com/storage/species_image/2_abies_alba_pyramidalis/medium/49255769768_df55596553_b.jpg","small_url":"https://perenual.com/storage/species_image/2_abies_alba_pyramidalis/small/49255769768_df55596553_b.jpg","thumbnail":"https://perenual.com/storage/species_image/2_abies_alba_pyramidalis/thumbnail/49255769768_df55596553_b.jpg"}},{"id":5230,"common_name":"eastern beebalm","scientific_name":["Monarda bradburiana"],"other_name":null,"cycle":"Perennial","watering":"Minimum","sunlight":["Full sun","part shade"],"default_image":{"image_id":11085,"license":5,"license_name":"Attribution-ShareAlike License","license_url":"https://creativecommons.org/licenses/by-sa/2.0/","original_url":"https://perenual.com/storage/species_image/5230_monarda_bradburiana/og/5719913230_254abeac29_b.jpg","regular_url":"https://perenual.com/storage/species_image/5230_monarda_bradburiana/regular/5719913230_254abeac29_b.jpg","medium_url":"https://perenual.com/storage/species_image/5230_monarda_bradburiana/medium/5719913230_254abeac29_b.jpg","small_url":"https://perenual.com/storage/species_image/5230_monarda_bradburiana/small/5719913230_254abeac29_b.jpg","thumbnail":"https://perenual.com/storage/species_image/5230_monarda_bradburiana/thumbnail/5719913230_254abeac29_b.jpg"}},{"id":5231,"common_name":"lemon mint","scientific_name":["Monarda citriodora"],"other_name":null,"cycle":"Perennial","watering":"Minimum","sunlight":["Full sun","part shade"],"default_image":{"image_id":9,"license":5,"license_name":"Attribution-ShareAlike License","license_url":"https://creativecommons.org/licenses/by-sa/2.0/","original_url":"https://perenual.com/storage/species_image/2_abies_alba_pyramidalis/og/49255769768_df55596553_b.jpg","regular_url":"https://perenual.com/storage/species_image/2_abies_alba_pyramidalis/regular/49255769768_df55596553_b.jpg","medium_url":"https://perenual.com/storage/species_image/2_abies_alba_pyramidalis/medium/49255769768_df55596553_b.jpg","small_url":"https://perenual.com/storage/species_image/2_abies_alba_pyramidalis/small/49255769768_df55596553_b.jpg","thumbnail":"https://perenual.com/storage/species_image/2_abies_alba_pyramidalis/thumbnail/49255769768_df55596553_b.jpg"}},{"id":5232,"common_name":"bee balm","scientific_name":["Monarda 'Croftway Pink'"],"other_name":null,"cycle":"Perennial","watering":"Frequent","sunlight":["Full sun","part shade"],"default_image":{"image_id":11088,"license":4,"license_name":"Attribution License","license_url":"https://creativecommons.org/licenses/by/2.0/","original_url":"https://perenual.com/storage/species_image/5232_monarda_croftway_pink/og/9241315163_d32931b51b_b.jpg","regular_url":"https://perenual.com/storage/species_image/5232_monarda_croftway_pink/regular/9241315163_d32931b51b_b.jpg","medium_url":"https://perenual.com/storage/species_image/5232_monarda_croftway_pink/medium/9241315163_d32931b51b_b.jpg","small_url":"https://perenual.com/storage/species_image/5232_monarda_croftway_pink/small/9241315163_d32931b51b_b.jpg","thumbnail":"https://perenual.com/storage/species_image/5232_monarda_croftway_pink/thumbnail/9241315163_d32931b51b_b.jpg"}},{"id":5233,"common_name":"bee balm","scientific_name":["Monarda didyma"],"other_name":null,"cycle":"Perennial","watering":"Frequent","sunlight":["Full sun","part shade"],"default_image":{"image_id":11089,"license":4,"license_name":"Attribution License","license_url":"https://creativecommons.org/licenses/by/2.0/","original_url":"https://perenual.com/storage/species_image/5233_monarda_didyma/og/51407625199_ee0d003f75_b.jpg","regular_url":"https://perenual.com/storage/species_image/5233_monarda_didyma/regular/51407625199_ee0d003f75_b.jpg","medium_url":"https://perenual.com/storage/species_image/5233_monarda_didyma/medium/51407625199_ee0d003f75_b.jpg","small_url":"https://perenual.com/storage/species_image/5233_monarda_didyma/small/51407625199_ee0d003f75_b.jpg","thumbnail":"https://perenual.com/storage/species_image/5233_monarda_didyma/thumbnail/51407625199_ee0d003f75_b.jpg"}},{"id":5234,"common_name":"bee balm","scientific_name":["Monarda didyma 'Balbalmose' BALMY ROSE"],"other_name":null,"cycle":"Perennial","watering":"Frequent","sunlight":["Full sun"],"default_image":{"image_id":9,"license":5,"license_name":"Attribution-ShareAlike License","license_url":"https://creativecommons.org/licenses/by-sa/2.0/","original_url":"https://perenual.com/storage/species_image/2_abies_alba_pyramidalis/og/49255769768_df55596553_b.jpg","regular_url":"https://perenual.com/storage/species_image/2_abies_alba_pyramidalis/regular/49255769768_df55596553_b.jpg","medium_url":"https://perenual.com/storage/species_image/2_abies_alba_pyramidalis/medium/49255769768_df55596553_b.jpg","small_url":"https://perenual.com/storage/species_image/2_abies_alba_pyramidalis/small/49255769768_df55596553_b.jpg","thumbnail":"https://perenual.com/storage/species_image/2_abies_alba_pyramidalis/thumbnail/49255769768_df55596553_b.jpg"}},{"id":5235,"common_name":"bee balm","scientific_name":["Monarda didyma 'Pardon My Lavender'"],"other_name":null,"cycle":"Perennial","watering":"Frequent","sunlight":["Full sun","part shade"],"default_image":{"image_id":11091,"license":4,"license_name":"Attribution License","license_url":"https://creativecommons.org/licenses/by/2.0/","original_url":"https://perenual.com/storage/species_image/5235_monarda_didyma_pardon_my_lavender/og/51403421131_287b76eafd_b.jpg","regular_url":"https://perenual.com/storage/species_image/5235_monarda_didyma_pardon_my_lavender/regular/51403421131_287b76eafd_b.jpg","medium_url":"https://perenual.com/storage/species_image/5235_monarda_didyma_pardon_my_lavender/medium/51403421131_287b76eafd_b.jpg","small_url":"https://perenual.com/storage/species_image/5235_monarda_didyma_pardon_my_lavender/small/51403421131_287b76eafd_b.jpg","thumbnail":"https://perenual.com/storage/species_image/5235_monarda_didyma_pardon_my_lavender/thumbnail/51403421131_287b76eafd_b.jpg"}},{"id":5236,"common_name":"bee balm","scientific_name":["Monarda didyma 'Pardon My Pink'"],"other_name":null,"cycle":"Perennial","watering":"Frequent","sunlight":["Full sun","part shade"],"default_image":{"image_id":9,"license":5,"license_name":"Attribution-ShareAlike License","license_url":"https://creativecommons.org/licenses/by-sa/2.0/","original_url":"https://perenual.com/storage/species_image/2_abies_alba_pyramidalis/og/49255769768_df55596553_b.jpg","regular_url":"https://perenual.com/storage/species_image/2_abies_alba_pyramidalis/regular/49255769768_df55596553_b.jpg","medium_url":"https://perenual.com/storage/species_image/2_abies_alba_pyramidalis/medium/49255769768_df55596553_b.jpg","small_url":"https://perenual.com/storage/species_image/2_abies_alba_pyramidalis/small/49255769768_df55596553_b.jpg","thumbnail":"https://perenual.com/storage/species_image/2_abies_alba_pyramidalis/thumbnail/49255769768_df55596553_b.jpg"}},{"id":5237,"common_name":"bee balm","scientific_name":["Monarda didyma 'Pardon My Purple'"],"other_name":null,"cycle":"Perennial","watering":"Frequent","sunlight":["Full sun","part shade"],"default_image":{"image_id":11093,"license":4,"license_name":"Attribution License","license_url":"https://creativecommons.org/licenses/by/2.0/","original_url":"https://perenual.com/storage/species_image/5237_monarda_didyma_pardon_my_purple/og/52611014910_3b58a4becb_b.jpg","regular_url":"https://perenual.com/storage/species_image/5237_monarda_didyma_pardon_my_purple/regular/52611014910_3b58a4becb_b.jpg","medium_url":"https://perenual.com/storage/species_image/5237_monarda_didyma_pardon_my_purple/medium/52611014910_3b58a4becb_b.jpg","small_url":"https://perenual.com/storage/species_image/5237_monarda_didyma_pardon_my_purple/small/52611014910_3b58a4becb_b.jpg","thumbnail":"https://perenual.com/storage/species_image/5237_monarda_didyma_pardon_my_purple/thumbnail/52611014910_3b58a4becb_b.jpg"}},{"id":5238,"common_name":"bee balm","scientific_name":["Monarda didyma 'Pink Frosting'"],"other_name":null,"cycle":"Perennial","watering":"Frequent","sunlight":["Full sun","part shade"],"default_image":{"image_id":9,"license":5,"license_name":"Attribution-ShareAlike License","license_url":"https://creativecommons.org/licenses/by-sa/2.0/","original_url":"https://perenual.com/storage/species_image/2_abies_alba_pyramidalis/og/49255769768_df55596553_b.jpg","regular_url":"https://perenual.com/storage/species_image/2_abies_alba_pyramidalis/regular/49255769768_df55596553_b.jpg","medium_url":"https://perenual.com/storage/species_image/2_abies_alba_pyramidalis/medium/49255769768_df55596553_b.jpg","small_url":"https://perenual.com/storage/species_image/2_abies_alba_pyramidalis/small/49255769768_df55596553_b.jpg","thumbnail":"https://perenual.com/storage/species_image/2_abies_alba_pyramidalis/thumbnail/49255769768_df55596553_b.jpg"}},{"id":5239,"common_name":"bee balm","scientific_name":["Monarda didyma 'Pink Lace'"],"other_name":null,"cycle":"Perennial","watering":"Frequent","sunlight":["Full sun","part shade"],"default_image":{"image_id":9,"license":5,"license_name":"Attribution-ShareAlike License","license_url":"https://creativecommons.org/licenses/by-sa/2.0/","original_url":"https://perenual.com/storage/species_image/2_abies_alba_pyramidalis/og/49255769768_df55596553_b.jpg","regular_url":"https://perenual.com/storage/species_image/2_abies_alba_pyramidalis/regular/49255769768_df55596553_b.jpg","medium_url":"https://perenual.com/storage/species_image/2_abies_alba_pyramidalis/medium/49255769768_df55596553_b.jpg","small_url":"https://perenual.com/storage/species_image/2_abies_alba_pyramidalis/small/49255769768_df55596553_b.jpg","thumbnail":"https://perenual.com/storage/species_image/2_abies_alba_pyramidalis/thumbnail/49255769768_df55596553_b.jpg"}},{"id":5240,"common_name":"bee balm","scientific_name":["Monarda didyma 'T & M Superb Mixed'"],"other_name":null,"cycle":"Perennial","watering":"Frequent","sunlight":["Full sun","part shade"],"default_image":{"image_id":9,"license":5,"license_name":"Attribution-ShareAlike License","license_url":"https://creativecommons.org/licenses/by-sa/2.0/","original_url":"https://perenual.com/storage/species_image/2_abies_alba_pyramidalis/og/49255769768_df55596553_b.jpg","regular_url":"https://perenual.com/storage/species_image/2_abies_alba_pyramidalis/regular/49255769768_df55596553_b.jpg","medium_url":"https://perenual.com/storage/species_image/2_abies_alba_pyramidalis/medium/49255769768_df55596553_b.jpg","small_url":"https://perenual.com/storage/species_image/2_abies_alba_pyramidalis/small/49255769768_df55596553_b.jpg","thumbnail":"https://perenual.com/storage/species_image/2_abies_alba_pyramidalis/thumbnail/49255769768_df55596553_b.jpg"}},{"id":5241,"common_name":"wild bergamot","scientific_name":["Monarda 'Fireball'"],"other_name":null,"cycle":"Perennial","watering":"Frequent","sunlight":["Full sun","part shade"],"default_image":{"image_id":11097,"license":5,"license_name":"Attribution-ShareAlike License","license_url":"https://creativecommons.org/licenses/by-sa/2.0/","original_url":"https://perenual.com/storage/species_image/5241_monarda_fireball/og/32891556073_296541e12e_b.jpg","regular_url":"https://perenual.com/storage/species_image/5241_monarda_fireball/regular/32891556073_296541e12e_b.jpg","medium_url":"https://perenual.com/storage/species_image/5241_monarda_fireball/medium/32891556073_296541e12e_b.jpg","small_url":"https://perenual.com/storage/species_image/5241_monarda_fireball/small/32891556073_296541e12e_b.jpg","thumbnail":"https://perenual.com/storage/species_image/5241_monarda_fireball/thumbnail/32891556073_296541e12e_b.jpg"}},{"id":5242,"common_name":"wild bergamot","scientific_name":["Monarda fistulosa"],"other_name":null,"cycle":"Perennial","watering":"Minimum","sunlight":["Full sun","part shade"],"default_image":{"image_id":11099,"license":5,"license_name":"Attribution-ShareAlike License","license_url":"https://creativecommons.org/licenses/by-sa/2.0/","original_url":"https://perenual.com/storage/species_image/5242_monarda_fistulosa/og/52232588250_bb9d806633_b.jpg","regular_url":"https://perenual.com/storage/species_image/5242_monarda_fistulosa/regular/52232588250_bb9d806633_b.jpg","medium_url":"https://perenual.com/storage/species_image/5242_monarda_fistulosa/medium/52232588250_bb9d806633_b.jpg","small_url":"https://perenual.com/storage/species_image/5242_monarda_fistulosa/small/52232588250_bb9d806633_b.jpg","thumbnail":"https://perenual.com/storage/species_image/5242_monarda_fistulosa/thumbnail/52232588250_bb9d806633_b.jpg"}},{"id":5243,"common_name":"bee balm","scientific_name":["Monarda 'Gardenview Scarlet'"],"other_name":null,"cycle":"Perennial","watering":"Frequent","sunlight":["Full sun","part shade"],"default_image":{"image_id":9,"license":5,"license_name":"Attribution-ShareAlike License","license_url":"https://creativecommons.org/licenses/by-sa/2.0/","original_url":"https://perenual.com/storage/species_image/2_abies_alba_pyramidalis/og/49255769768_df55596553_b.jpg","regular_url":"https://perenual.com/storage/species_image/2_abies_alba_pyramidalis/regular/49255769768_df55596553_b.jpg","medium_url":"https://perenual.com/storage/species_image/2_abies_alba_pyramidalis/medium/49255769768_df55596553_b.jpg","small_url":"https://perenual.com/storage/species_image/2_abies_alba_pyramidalis/small/49255769768_df55596553_b.jpg","thumbnail":"https://perenual.com/storage/species_image/2_abies_alba_pyramidalis/thumbnail/49255769768_df55596553_b.jpg"}},{"id":5244,"common_name":"bee balm","scientific_name":["Monarda 'Grape Gumball'"],"other_name":null,"cycle":"Perennial","watering":"Frequent","sunlight":["Full sun","part shade"],"default_image":{"image_id":11101,"license":4,"license_name":"Attribution License","license_url":"https://creativecommons.org/licenses/by/2.0/","original_url":"https://perenual.com/storage/species_image/5244_monarda_grape_gumball/og/52132642444_eef1ce4fdc_b.jpg","regular_url":"https://perenual.com/storage/species_image/5244_monarda_grape_gumball/regular/52132642444_eef1ce4fdc_b.jpg","medium_url":"https://perenual.com/storage/species_image/5244_monarda_grape_gumball/medium/52132642444_eef1ce4fdc_b.jpg","small_url":"https://perenual.com/storage/species_image/5244_monarda_grape_gumball/small/52132642444_eef1ce4fdc_b.jpg","thumbnail":"https://perenual.com/storage/species_image/5244_monarda_grape_gumball/thumbnail/52132642444_eef1ce4fdc_b.jpg"}},{"id":5245,"common_name":"bee balm","scientific_name":["Monarda 'Mahogany'"],"other_name":null,"cycle":"Perennial","watering":"Frequent","sunlight":["Full sun","part shade"],"default_image":{"image_id":9,"license":5,"license_name":"Attribution-ShareAlike License","license_url":"https://creativecommons.org/licenses/by-sa/2.0/","original_url":"https://perenual.com/storage/species_image/2_abies_alba_pyramidalis/og/49255769768_df55596553_b.jpg","regular_url":"https://perenual.com/storage/species_image/2_abies_alba_pyramidalis/regular/49255769768_df55596553_b.jpg","medium_url":"https://perenual.com/storage/species_image/2_abies_alba_pyramidalis/medium/49255769768_df55596553_b.jpg","small_url":"https://perenual.com/storage/species_image/2_abies_alba_pyramidalis/small/49255769768_df55596553_b.jpg","thumbnail":"https://perenual.com/storage/species_image/2_abies_alba_pyramidalis/thumbnail/49255769768_df55596553_b.jpg"}},{"id":5246,"common_name":"bee balm","scientific_name":["Monarda 'Mojo'"],"other_name":null,"cycle":"Perennial","watering":"Minimum","sunlight":["Full sun"],"default_image":{"image_id":9,"license":5,"license_name":"Attribution-ShareAlike License","license_url":"https://creativecommons.org/licenses/by-sa/2.0/","original_url":"https://perenual.com/storage/species_image/2_abies_alba_pyramidalis/og/49255769768_df55596553_b.jpg","regular_url":"https://perenual.com/storage/species_image/2_abies_alba_pyramidalis/regular/49255769768_df55596553_b.jpg","medium_url":"https://perenual.com/storage/species_image/2_abies_alba_pyramidalis/medium/49255769768_df55596553_b.jpg","small_url":"https://perenual.com/storage/species_image/2_abies_alba_pyramidalis/small/49255769768_df55596553_b.jpg","thumbnail":"https://perenual.com/storage/species_image/2_abies_alba_pyramidalis/thumbnail/49255769768_df55596553_b.jpg"}},{"id":5247,"common_name":"wild bergamot","scientific_name":["Monarda 'Peter's Purple'"],"other_name":null,"cycle":"Perennial","watering":"Frequent","sunlight":["Full sun","part shade"],"default_image":{"image_id":9,"license":5,"license_name":"Attribution-ShareAlike License","license_url":"https://creativecommons.org/licenses/by-sa/2.0/","original_url":"https://perenual.com/storage/species_image/2_abies_alba_pyramidalis/og/49255769768_df55596553_b.jpg","regular_url":"https://perenual.com/storage/species_image/2_abies_alba_pyramidalis/regular/49255769768_df55596553_b.jpg","medium_url":"https://perenual.com/storage/species_image/2_abies_alba_pyramidalis/medium/49255769768_df55596553_b.jpg","small_url":"https://perenual.com/storage/species_image/2_abies_alba_pyramidalis/small/49255769768_df55596553_b.jpg","thumbnail":"https://perenual.com/storage/species_image/2_abies_alba_pyramidalis/thumbnail/49255769768_df55596553_b.jpg"}},{"id":5248,"common_name":"wild bergamot","scientific_name":["Monarda 'Petite Delight'"],"other_name":null,"cycle":"Perennial","watering":"Frequent","sunlight":["Full sun","part shade"],"default_image":{"image_id":11104,"license":5,"license_name":"Attribution-ShareAlike License","license_url":"https://creativecommons.org/licenses/by-sa/2.0/","original_url":"https://perenual.com/storage/species_image/5248_monarda_petite_delight/og/9199683663_b19e267379_b.jpg","regular_url":"https://perenual.com/storage/species_image/5248_monarda_petite_delight/regular/9199683663_b19e267379_b.jpg","medium_url":"https://perenual.com/storage/species_image/5248_monarda_petite_delight/medium/9199683663_b19e267379_b.jpg","small_url":"https://perenual.com/storage/species_image/5248_monarda_petite_delight/small/9199683663_b19e267379_b.jpg","thumbnail":"https://perenual.com/storage/species_image/5248_monarda_petite_delight/thumbnail/9199683663_b19e267379_b.jpg"}},{"id":5249,"common_name":"wild bergamot","scientific_name":["Monarda 'Petite Red Supreme'"],"other_name":null,"cycle":"Perennial","watering":"Frequent","sunlight":["Full sun","part shade"],"default_image":{"image_id":9,"license":5,"license_name":"Attribution-ShareAlike License","license_url":"https://creativecommons.org/licenses/by-sa/2.0/","original_url":"https://perenual.com/storage/species_image/2_abies_alba_pyramidalis/og/49255769768_df55596553_b.jpg","regular_url":"https://perenual.com/storage/species_image/2_abies_alba_pyramidalis/regular/49255769768_df55596553_b.jpg","medium_url":"https://perenual.com/storage/species_image/2_abies_alba_pyramidalis/medium/49255769768_df55596553_b.jpg","small_url":"https://perenual.com/storage/species_image/2_abies_alba_pyramidalis/small/49255769768_df55596553_b.jpg","thumbnail":"https://perenual.com/storage/species_image/2_abies_alba_pyramidalis/thumbnail/49255769768_df55596553_b.jpg"}},{"id":5250,"common_name":"wild bergamot","scientific_name":["Monarda 'Petite Wonder'"],"other_name":null,"cycle":"Perennial","watering":"Frequent","sunlight":["Full sun","part shade"],"default_image":{"image_id":9,"license":5,"license_name":"Attribution-ShareAlike License","license_url":"https://creativecommons.org/licenses/by-sa/2.0/","original_url":"https://perenual.com/storage/species_image/2_abies_alba_pyramidalis/og/49255769768_df55596553_b.jpg","regular_url":"https://perenual.com/storage/species_image/2_abies_alba_pyramidalis/regular/49255769768_df55596553_b.jpg","medium_url":"https://perenual.com/storage/species_image/2_abies_alba_pyramidalis/medium/49255769768_df55596553_b.jpg","small_url":"https://perenual.com/storage/species_image/2_abies_alba_pyramidalis/small/49255769768_df55596553_b.jpg","thumbnail":"https://perenual.com/storage/species_image/2_abies_alba_pyramidalis/thumbnail/49255769768_df55596553_b.jpg"}}],"to":5250,"per_page":30,"current_page":175,"from":5221,"last_page":200,"total":6000}