{"data":[{"id":1501,"common_name":"stiff bottlebrush","scientific_name":["Callistemon rigidus"],"other_name":null,"cycle":"Perennial","watering":"Average","sunlight":["Full sun"],"default_image":{"image_id":3447,"license":5,"license_name":"Attribution-ShareAlike License","license_url":"https://creativecommons.org/licenses/by-sa/2.0/","original_url":"https://perenual.com/storage/species_image/1501_callistemon_rigidus/og/8452634702_69590c77b0_b.jpg","regular_url":"https://perenual.com/storage/species_image/1501_callistemon_rigidus/regular/8452634702_69590c77b0_b.jpg","medium_url":"https://perenual.com/storage/species_image/1501_callistemon_rigidus/medium/8452634702_69590c77b0_b.jpg","small_url":"https://perenual.com/storage/species_image/1501_callistemon_rigidus/small/8452634702_69590c77b0_b.jpg","thumbnail":"https://perenual.com/storage/species_image/1501_callistemon_rigidus/thumbnail/8452634702_69590c77b0_b.jpg"}},{"id":1502,"common_name":"bottlebrush bush","scientific_name":["Callistemon 'Woodlander's Hardy'"],"other_name":null,"cycle":"Perennial","watering":"Minimum","sunlight":["Full sun"],"default_image":{"image_id":3453,"license":5,"license_name":"Attribution-ShareAlike License","license_url":"https://creativecommons.org/licenses/by-sa/2.0/","original_url":"https://perenual.com/storage/species_image/1502_callistemon_woodlanders_hardy/og/51099405068_31a9920928_b.jpg","regular_url":"https://perenual.com/storage/species_image/1502_callistemon_woodlanders_hardy/regular/51099405068_31a9920928_b.jpg","medium_url":"https://perenual.com/storage/species_image/1502_callistemon_woodlanders_hardy/medium/51099405068_31a9920928_b.jpg","small_url":"https://perenual.com/storage/species_image/1502_callistemon_woodlanders_hardy/small/51099405068_31a9920928_b.jpg","thumbnail":"https://perenual.com/storage/species_image/1502_callistemon_woodlanders_hardy/thumbnail/51099405068_31a9920928_b.jpg"}},{"id":1503,"common_name":"China aster","scientific_name":["Callistephus chinensis"],"other_name":null,"cycle":"Perennial","watering":"Average","sunlight":["Full sun","part shade"],"default_image":{"image_id":9,"license":5,"license_name":"Attribution-ShareAlike License","license_url":"https://creativecommons.org/licenses/by-sa/2.0/","original_url":"https://perenual.com/storage/species_image/2_abies_alba_pyramidalis/og/49255769768_df55596553_b.jpg","regular_url":"https://perenual.com/storage/species_image/2_abies_alba_pyramidalis/regular/49255769768_df55596553_b.jpg","medium_url":"https://perenual.com/storage/species_image/2_abies_alba_pyramidalis/medium/49255769768_df55596553_b.jpg","small_url":"https://perenual.com/storage/species_image/2_abies_alba_pyramidalis/small/49255769768_df55596553_b.jpg","thumbnail":"https://perenual.com/storage/species_image/2_abies_alba_pyramidalis/thumbnail/49255769768_df55596553_b.jpg"}},{"id":1504,"common_name":"Scotch heather","scientific_name":["Calluna vulgaris"],"other_name":null,"cycle":"Perennial","watering":"Average","sunlight":[],"default_image":{"image_id":3457,"license":5,"license_name":"Attribution-ShareAlike License","license_url":"https://creativecommons.org/licenses/by-sa/2.0/","original_url":"https://perenual.com/storage/species_image/1504_calluna_vulgaris/og/51398449198_c113808573_b.jpg","regular_url":"https://perenual.com/storage/species_image/1504_calluna_vulgaris/regular/51398449198_c113808573_b.jpg","medium_url":"https://perenual.com/storage/species_image/1504_calluna_vulgaris/medium/51398449198_c113808573_b.jpg","small_url":"https://perenual.com/storage/species_image/1504_calluna_vulgaris/small/51398449198_c113808573_b.jpg","thumbnail":"https://perenual.com/storage/species_image/1504_calluna_vulgaris/thumbnail/51398449198_c113808573_b.jpg"}},{"id":1505,"common_name":"Scotch heather","scientific_name":["Calluna vulgaris 'Beoley Gold'"],"other_name":null,"cycle":"Perennial","watering":"Average","sunlight":[],"default_image":{"image_id":3463,"license":4,"license_name":"Attribution License","license_url":"https://creativecommons.org/licenses/by/2.0/","original_url":"https://perenual.com/storage/species_image/1505_calluna_vulgaris_beoley_gold/og/51944451736_d549d3cbf7_b.jpg","regular_url":"https://perenual.com/storage/species_image/1505_calluna_vulgaris_beoley_gold/regular/51944451736_d549d3cbf7_b.jpg","medium_url":"https://perenual.com/storage/species_image/1505_calluna_vulgaris_beoley_gold/medium/51944451736_d549d3cbf7_b.jpg","small_url":"https://perenual.com/storage/species_image/1505_calluna_vulgaris_beoley_gold/small/51944451736_d549d3cbf7_b.jpg","thumbnail":"https://perenual.com/storage/species_image/1505_calluna_vulgaris_beoley_gold/thumbnail/51944451736_d549d3cbf7_b.jpg"}},{"id":1506,"common_name":"Scotch heather","scientific_name":["Calluna vulgaris 'Gold Haze'"],"other_name":null,"cycle":"Perennial","watering":"Average","sunlight":[],"default_image":{"image_id":9,"license":5,"license_name":"Attribution-ShareAlike License","license_url":"https://creativecommons.org/licenses/by-sa/2.0/","original_url":"https://perenual.com/storage/species_image/2_abies_alba_pyramidalis/og/49255769768_df55596553_b.jpg","regular_url":"https://perenual.com/storage/species_image/2_abies_alba_pyramidalis/regular/49255769768_df55596553_b.jpg","medium_url":"https://perenual.com/storage/species_image/2_abies_alba_pyramidalis/medium/49255769768_df55596553_b.jpg","small_url":"https://perenual.com/storage/species_image/2_abies_alba_pyramidalis/small/49255769768_df55596553_b.jpg","thumbnail":"https://perenual.com/storage/species_image/2_abies_alba_pyramidalis/thumbnail/49255769768_df55596553_b.jpg"}},{"id":1507,"common_name":"Scotch heather","scientific_name":["Calluna vulgaris 'Spring Torch'"],"other_name":null,"cycle":"Perennial","watering":"Average","sunlight":[],"default_image":{"image_id":3464,"license":4,"license_name":"Attribution License","license_url":"https://creativecommons.org/licenses/by/2.0/","original_url":"https://perenual.com/storage/species_image/1507_calluna_vulgaris_spring_torch/og/51961847247_65e0c7b6e7_b.jpg","regular_url":"https://perenual.com/storage/species_image/1507_calluna_vulgaris_spring_torch/regular/51961847247_65e0c7b6e7_b.jpg","medium_url":"https://perenual.com/storage/species_image/1507_calluna_vulgaris_spring_torch/medium/51961847247_65e0c7b6e7_b.jpg","small_url":"https://perenual.com/storage/species_image/1507_calluna_vulgaris_spring_torch/small/51961847247_65e0c7b6e7_b.jpg","thumbnail":"https://perenual.com/storage/species_image/1507_calluna_vulgaris_spring_torch/thumbnail/51961847247_65e0c7b6e7_b.jpg"}},{"id":1508,"common_name":"grass pink orchid","scientific_name":["Calopogon tuberosus"],"other_name":null,"cycle":"Perennial","watering":"Frequent","sunlight":[],"default_image":{"image_id":3470,"license":4,"license_name":"Attribution License","license_url":"https://creativecommons.org/licenses/by/2.0/","original_url":"https://perenual.com/storage/species_image/1508_calopogon_tuberosus/og/52305878150_64123b8a74_b.jpg","regular_url":"https://perenual.com/storage/species_image/1508_calopogon_tuberosus/regular/52305878150_64123b8a74_b.jpg","medium_url":"https://perenual.com/storage/species_image/1508_calopogon_tuberosus/medium/52305878150_64123b8a74_b.jpg","small_url":"https://perenual.com/storage/species_image/1508_calopogon_tuberosus/small/52305878150_64123b8a74_b.jpg","thumbnail":"https://perenual.com/storage/species_image/1508_calopogon_tuberosus/thumbnail/52305878150_64123b8a74_b.jpg"}},{"id":1509,"common_name":"giant milkweed","scientific_name":["Calotropis gigantea"],"other_name":null,"cycle":"Perennial","watering":"Average","sunlight":["Full sun"],"default_image":{"image_id":3475,"license":4,"license_name":"Attribution License","license_url":"https://creativecommons.org/licenses/by/2.0/","original_url":"https://perenual.com/storage/species_image/1509_calotropis_gigantea/og/24847034070_f858b07333_b.jpg","regular_url":"https://perenual.com/storage/species_image/1509_calotropis_gigantea/regular/24847034070_f858b07333_b.jpg","medium_url":"https://perenual.com/storage/species_image/1509_calotropis_gigantea/medium/24847034070_f858b07333_b.jpg","small_url":"https://perenual.com/storage/species_image/1509_calotropis_gigantea/small/24847034070_f858b07333_b.jpg","thumbnail":"https://perenual.com/storage/species_image/1509_calotropis_gigantea/thumbnail/24847034070_f858b07333_b.jpg"}},{"id":1510,"common_name":"roostertree","scientific_name":["Calotropis procera"],"other_name":null,"cycle":"Perennial","watering":"Minimum","sunlight":["Full sun","part shade"],"default_image":{"image_id":3479,"license":5,"license_name":"Attribution-ShareAlike License","license_url":"https://creativecommons.org/licenses/by-sa/2.0/","original_url":"https://perenual.com/storage/species_image/1510_calotropis_procera/og/52510464700_bf08e6fbc5_b.jpg","regular_url":"https://perenual.com/storage/species_image/1510_calotropis_procera/regular/52510464700_bf08e6fbc5_b.jpg","medium_url":"https://perenual.com/storage/species_image/1510_calotropis_procera/medium/52510464700_bf08e6fbc5_b.jpg","small_url":"https://perenual.com/storage/species_image/1510_calotropis_procera/small/52510464700_bf08e6fbc5_b.jpg","thumbnail":"https://perenual.com/storage/species_image/1510_calotropis_procera/thumbnail/52510464700_bf08e6fbc5_b.jpg"}},{"id":1511,"common_name":"marsh marigold","scientific_name":["Caltha palustris"],"other_name":["Wild Calla Lily","Yellow Marsh Marigold","Yellow Marsh Marigold"],"cycle":"Perennial","watering":"Frequent","sunlight":["Sun"," Partial Shade"],"default_image":{"image_id":3487,"license":4,"license_name":"Attribution License","license_url":"https://creativecommons.org/licenses/by/2.0/","original_url":"https://perenual.com/storage/species_image/1511_caltha_palustris/og/51997588079_70c80507a9_b.jpg","regular_url":"https://perenual.com/storage/species_image/1511_caltha_palustris/regular/51997588079_70c80507a9_b.jpg","medium_url":"https://perenual.com/storage/species_image/1511_caltha_palustris/medium/51997588079_70c80507a9_b.jpg","small_url":"https://perenual.com/storage/species_image/1511_caltha_palustris/small/51997588079_70c80507a9_b.jpg","thumbnail":"https://perenual.com/storage/species_image/1511_caltha_palustris/thumbnail/51997588079_70c80507a9_b.jpg"}},{"id":1512,"common_name":"Chinese sweetshrub","scientific_name":["Calycanthus chinensis"],"other_name":null,"cycle":"Perennial","watering":"Average","sunlight":["Full sun","part shade"],"default_image":{"image_id":9,"license":5,"license_name":"Attribution-ShareAlike License","license_url":"https://creativecommons.org/licenses/by-sa/2.0/","original_url":"https://perenual.com/storage/species_image/2_abies_alba_pyramidalis/og/49255769768_df55596553_b.jpg","regular_url":"https://perenual.com/storage/species_image/2_abies_alba_pyramidalis/regular/49255769768_df55596553_b.jpg","medium_url":"https://perenual.com/storage/species_image/2_abies_alba_pyramidalis/medium/49255769768_df55596553_b.jpg","small_url":"https://perenual.com/storage/species_image/2_abies_alba_pyramidalis/small/49255769768_df55596553_b.jpg","thumbnail":"https://perenual.com/storage/species_image/2_abies_alba_pyramidalis/thumbnail/49255769768_df55596553_b.jpg"}},{"id":1513,"common_name":"Carolina allspice","scientific_name":["Calycanthus floridus"],"other_name":null,"cycle":"Perennial","watering":"Average","sunlight":["Full sun","part shade"],"default_image":{"image_id":3497,"license":4,"license_name":"Attribution License","license_url":"https://creativecommons.org/licenses/by/2.0/","original_url":"https://perenual.com/storage/species_image/1513_calycanthus_floridus/og/35182074141_aba9b266a9_b.jpg","regular_url":"https://perenual.com/storage/species_image/1513_calycanthus_floridus/regular/35182074141_aba9b266a9_b.jpg","medium_url":"https://perenual.com/storage/species_image/1513_calycanthus_floridus/medium/35182074141_aba9b266a9_b.jpg","small_url":"https://perenual.com/storage/species_image/1513_calycanthus_floridus/small/35182074141_aba9b266a9_b.jpg","thumbnail":"https://perenual.com/storage/species_image/1513_calycanthus_floridus/thumbnail/35182074141_aba9b266a9_b.jpg"}},{"id":1514,"common_name":"Carolina allspice","scientific_name":["Calycanthus floridus 'Athens'"],"other_name":null,"cycle":"Perennial","watering":"Average","sunlight":["Full sun","part shade"],"default_image":{"image_id":9,"license":5,"license_name":"Attribution-ShareAlike License","license_url":"https://creativecommons.org/licenses/by-sa/2.0/","original_url":"https://perenual.com/storage/species_image/2_abies_alba_pyramidalis/og/49255769768_df55596553_b.jpg","regular_url":"https://perenual.com/storage/species_image/2_abies_alba_pyramidalis/regular/49255769768_df55596553_b.jpg","medium_url":"https://perenual.com/storage/species_image/2_abies_alba_pyramidalis/medium/49255769768_df55596553_b.jpg","small_url":"https://perenual.com/storage/species_image/2_abies_alba_pyramidalis/small/49255769768_df55596553_b.jpg","thumbnail":"https://perenual.com/storage/species_image/2_abies_alba_pyramidalis/thumbnail/49255769768_df55596553_b.jpg"}},{"id":1515,"common_name":"Californian allspice","scientific_name":["Calycanthus occidentalis"],"other_name":null,"cycle":"Perennial","watering":"Average","sunlight":["Full sun","part shade"],"default_image":{"image_id":3506,"license":6,"license_name":"Attribution-NoDerivs License","license_url":"https://creativecommons.org/licenses/by-nd/2.0/","original_url":"https://perenual.com/storage/species_image/1515_calycanthus_occidentalis/og/52100008083_645b221a05_b.jpg"}},{"id":1516,"common_name":"Carolina allspice","scientific_name":["Calycanthus raulstonii 'Hartlage Wine'"],"other_name":null,"cycle":"Perennial","watering":"Average","sunlight":["Full sun","part shade"],"default_image":{"image_id":9,"license":5,"license_name":"Attribution-ShareAlike License","license_url":"https://creativecommons.org/licenses/by-sa/2.0/","original_url":"https://perenual.com/storage/species_image/2_abies_alba_pyramidalis/og/49255769768_df55596553_b.jpg","regular_url":"https://perenual.com/storage/species_image/2_abies_alba_pyramidalis/regular/49255769768_df55596553_b.jpg","medium_url":"https://perenual.com/storage/species_image/2_abies_alba_pyramidalis/medium/49255769768_df55596553_b.jpg","small_url":"https://perenual.com/storage/species_image/2_abies_alba_pyramidalis/small/49255769768_df55596553_b.jpg","thumbnail":"https://perenual.com/storage/species_image/2_abies_alba_pyramidalis/thumbnail/49255769768_df55596553_b.jpg"}},{"id":1517,"common_name":"Carolina allspice","scientific_name":["Calycanthus 'SMNCAF' SIMPLY SCENTSATIONAL"],"other_name":null,"cycle":"Perennial","watering":"Average","sunlight":["Full sun","part shade"],"default_image":{"image_id":9,"license":5,"license_name":"Attribution-ShareAlike License","license_url":"https://creativecommons.org/licenses/by-sa/2.0/","original_url":"https://perenual.com/storage/species_image/2_abies_alba_pyramidalis/og/49255769768_df55596553_b.jpg","regular_url":"https://perenual.com/storage/species_image/2_abies_alba_pyramidalis/regular/49255769768_df55596553_b.jpg","medium_url":"https://perenual.com/storage/species_image/2_abies_alba_pyramidalis/medium/49255769768_df55596553_b.jpg","small_url":"https://perenual.com/storage/species_image/2_abies_alba_pyramidalis/small/49255769768_df55596553_b.jpg","thumbnail":"https://perenual.com/storage/species_image/2_abies_alba_pyramidalis/thumbnail/49255769768_df55596553_b.jpg"}},{"id":1518,"common_name":"Carolina allspice","scientific_name":["Calycanthus 'Venus'"],"other_name":null,"cycle":"Perennial","watering":"Average","sunlight":["Full sun","part shade"],"default_image":{"image_id":9,"license":5,"license_name":"Attribution-ShareAlike License","license_url":"https://creativecommons.org/licenses/by-sa/2.0/","original_url":"https://perenual.com/storage/species_image/2_abies_alba_pyramidalis/og/49255769768_df55596553_b.jpg","regular_url":"https://perenual.com/storage/species_image/2_abies_alba_pyramidalis/regular/49255769768_df55596553_b.jpg","medium_url":"https://perenual.com/storage/species_image/2_abies_alba_pyramidalis/medium/49255769768_df55596553_b.jpg","small_url":"https://perenual.com/storage/species_image/2_abies_alba_pyramidalis/small/49255769768_df55596553_b.jpg","thumbnail":"https://perenual.com/storage/species_image/2_abies_alba_pyramidalis/thumbnail/49255769768_df55596553_b.jpg"}},{"id":1519,"common_name":"shrubby evening primrose","scientific_name":["Calylophus serrulatus"],"other_name":null,"cycle":"Perennial","watering":"Minimum","sunlight":["Full sun"],"default_image":{"image_id":9,"license":5,"license_name":"Attribution-ShareAlike License","license_url":"https://creativecommons.org/licenses/by-sa/2.0/","original_url":"https://perenual.com/storage/species_image/2_abies_alba_pyramidalis/og/49255769768_df55596553_b.jpg","regular_url":"https://perenual.com/storage/species_image/2_abies_alba_pyramidalis/regular/49255769768_df55596553_b.jpg","medium_url":"https://perenual.com/storage/species_image/2_abies_alba_pyramidalis/medium/49255769768_df55596553_b.jpg","small_url":"https://perenual.com/storage/species_image/2_abies_alba_pyramidalis/small/49255769768_df55596553_b.jpg","thumbnail":"https://perenual.com/storage/species_image/2_abies_alba_pyramidalis/thumbnail/49255769768_df55596553_b.jpg"}},{"id":1520,"common_name":"prairie camas","scientific_name":["Camassia angusta"],"other_name":null,"cycle":"Perennial","watering":"Average","sunlight":["Full sun","part shade"],"default_image":{"image_id":9,"license":5,"license_name":"Attribution-ShareAlike License","license_url":"https://creativecommons.org/licenses/by-sa/2.0/","original_url":"https://perenual.com/storage/species_image/2_abies_alba_pyramidalis/og/49255769768_df55596553_b.jpg","regular_url":"https://perenual.com/storage/species_image/2_abies_alba_pyramidalis/regular/49255769768_df55596553_b.jpg","medium_url":"https://perenual.com/storage/species_image/2_abies_alba_pyramidalis/medium/49255769768_df55596553_b.jpg","small_url":"https://perenual.com/storage/species_image/2_abies_alba_pyramidalis/small/49255769768_df55596553_b.jpg","thumbnail":"https://perenual.com/storage/species_image/2_abies_alba_pyramidalis/thumbnail/49255769768_df55596553_b.jpg"}},{"id":1521,"common_name":"Cusick's camass","scientific_name":["Camassia cusickii"],"other_name":null,"cycle":"Perennial","watering":"Frequent","sunlight":["Full sun","part shade"],"default_image":{"image_id":3531,"license":5,"license_name":"Attribution-ShareAlike License","license_url":"https://creativecommons.org/licenses/by-sa/2.0/","original_url":"https://perenual.com/storage/species_image/1521_camassia_cusickii/og/52085333725_69de6490e0_b.jpg","regular_url":"https://perenual.com/storage/species_image/1521_camassia_cusickii/regular/52085333725_69de6490e0_b.jpg","medium_url":"https://perenual.com/storage/species_image/1521_camassia_cusickii/medium/52085333725_69de6490e0_b.jpg","small_url":"https://perenual.com/storage/species_image/1521_camassia_cusickii/small/52085333725_69de6490e0_b.jpg","thumbnail":"https://perenual.com/storage/species_image/1521_camassia_cusickii/thumbnail/52085333725_69de6490e0_b.jpg"}},{"id":1522,"common_name":"large camas","scientific_name":["Camassia leichtlinii"],"other_name":null,"cycle":"Perennial","watering":"Average","sunlight":["Sun"],"default_image":{"image_id":3537,"license":6,"license_name":"Attribution-NoDerivs License","license_url":"https://creativecommons.org/licenses/by-nd/2.0/","original_url":"https://perenual.com/storage/species_image/1522_camassia_leichtlinii/og/51701416525_57a801e1f2_b.jpg"}},{"id":1523,"common_name":"camass","scientific_name":["Camassia leichtlinii subsp. suksdorfii 'Blauwe Donau' BLUE DANUBE"],"other_name":null,"cycle":"Perennial","watering":"Average","sunlight":[],"default_image":{"image_id":3543,"license":4,"license_name":"Attribution License","license_url":"https://creativecommons.org/licenses/by/2.0/","original_url":"https://perenual.com/storage/species_image/1523_camassia_leichtlinii_subsp_suksdorfii_blauwe_donau_blue_danube/og/52073363599_e8dd3e0eae_b.jpg","regular_url":"https://perenual.com/storage/species_image/1523_camassia_leichtlinii_subsp_suksdorfii_blauwe_donau_blue_danube/regular/52073363599_e8dd3e0eae_b.jpg","medium_url":"https://perenual.com/storage/species_image/1523_camassia_leichtlinii_subsp_suksdorfii_blauwe_donau_blue_danube/medium/52073363599_e8dd3e0eae_b.jpg","small_url":"https://perenual.com/storage/species_image/1523_camassia_leichtlinii_subsp_suksdorfii_blauwe_donau_blue_danube/small/52073363599_e8dd3e0eae_b.jpg","thumbnail":"https://perenual.com/storage/species_image/1523_camassia_leichtlinii_subsp_suksdorfii_blauwe_donau_blue_danube/thumbnail/52073363599_e8dd3e0eae_b.jpg"}},{"id":1536,"common_name":"camellia","scientific_name":["Camellia reticulata 'Dataohung' CRIMSON ROBE"],"other_name":null,"cycle":"Perennial","watering":"Average","sunlight":["Part shade"],"default_image":{"image_id":9,"license":5,"license_name":"Attribution-ShareAlike License","license_url":"https://creativecommons.org/licenses/by-sa/2.0/","original_url":"https://perenual.com/storage/species_image/2_abies_alba_pyramidalis/og/49255769768_df55596553_b.jpg","regular_url":"https://perenual.com/storage/species_image/2_abies_alba_pyramidalis/regular/49255769768_df55596553_b.jpg","medium_url":"https://perenual.com/storage/species_image/2_abies_alba_pyramidalis/medium/49255769768_df55596553_b.jpg","small_url":"https://perenual.com/storage/species_image/2_abies_alba_pyramidalis/small/49255769768_df55596553_b.jpg","thumbnail":"https://perenual.com/storage/species_image/2_abies_alba_pyramidalis/thumbnail/49255769768_df55596553_b.jpg"}},{"id":1537,"common_name":"camellia","scientific_name":["Camellia rosiflora"],"other_name":null,"cycle":"Perennial","watering":"Average","sunlight":["Part shade"],"default_image":{"image_id":3570,"license":5,"license_name":"Attribution-ShareAlike License","license_url":"https://creativecommons.org/licenses/by-sa/2.0/","original_url":"https://perenual.com/storage/species_image/1537_camellia_rosiflora/og/52456497537_0baf72eb64_b.jpg","regular_url":"https://perenual.com/storage/species_image/1537_camellia_rosiflora/regular/52456497537_0baf72eb64_b.jpg","medium_url":"https://perenual.com/storage/species_image/1537_camellia_rosiflora/medium/52456497537_0baf72eb64_b.jpg","small_url":"https://perenual.com/storage/species_image/1537_camellia_rosiflora/small/52456497537_0baf72eb64_b.jpg","thumbnail":"https://perenual.com/storage/species_image/1537_camellia_rosiflora/thumbnail/52456497537_0baf72eb64_b.jpg"}},{"id":1538,"common_name":"camellia","scientific_name":["Camellia sasanqua"],"other_name":null,"cycle":"Perennial","watering":"Average","sunlight":["Full sun"," Part sun/part shade"," Sheltered"],"default_image":{"image_id":3572,"license":4,"license_name":"Attribution License","license_url":"https://creativecommons.org/licenses/by/2.0/","original_url":"https://perenual.com/storage/species_image/1538_camellia_sasanqua/og/50783612473_142e1c9d26_b.jpg","regular_url":"https://perenual.com/storage/species_image/1538_camellia_sasanqua/regular/50783612473_142e1c9d26_b.jpg","medium_url":"https://perenual.com/storage/species_image/1538_camellia_sasanqua/medium/50783612473_142e1c9d26_b.jpg","small_url":"https://perenual.com/storage/species_image/1538_camellia_sasanqua/small/50783612473_142e1c9d26_b.jpg","thumbnail":"https://perenual.com/storage/species_image/1538_camellia_sasanqua/thumbnail/50783612473_142e1c9d26_b.jpg"}},{"id":1524,"common_name":"camass","scientific_name":["Camassia leichtlinii subsp. suksdorfii (Caerulea Group)"],"other_name":null,"cycle":"Perennial","watering":"Average","sunlight":[],"default_image":{"image_id":9,"license":5,"license_name":"Attribution-ShareAlike License","license_url":"https://creativecommons.org/licenses/by-sa/2.0/","original_url":"https://perenual.com/storage/species_image/2_abies_alba_pyramidalis/og/49255769768_df55596553_b.jpg","regular_url":"https://perenual.com/storage/species_image/2_abies_alba_pyramidalis/regular/49255769768_df55596553_b.jpg","medium_url":"https://perenual.com/storage/species_image/2_abies_alba_pyramidalis/medium/49255769768_df55596553_b.jpg","small_url":"https://perenual.com/storage/species_image/2_abies_alba_pyramidalis/small/49255769768_df55596553_b.jpg","thumbnail":"https://perenual.com/storage/species_image/2_abies_alba_pyramidalis/thumbnail/49255769768_df55596553_b.jpg"}},{"id":1525,"common_name":"wild hyacinth","scientific_name":["Camassia scilloides"],"other_name":["Atlantic Camas"],"cycle":"Perennial","watering":"Average","sunlight":["Partial Shade"," Shade"],"default_image":{"image_id":3546,"license":5,"license_name":"Attribution-ShareAlike License","license_url":"https://creativecommons.org/licenses/by-sa/2.0/","original_url":"https://perenual.com/storage/species_image/1525_camassia_scilloides/og/52018796365_365b605111_b.jpg","regular_url":"https://perenual.com/storage/species_image/1525_camassia_scilloides/regular/52018796365_365b605111_b.jpg","medium_url":"https://perenual.com/storage/species_image/1525_camassia_scilloides/medium/52018796365_365b605111_b.jpg","small_url":"https://perenual.com/storage/species_image/1525_camassia_scilloides/small/52018796365_365b605111_b.jpg","thumbnail":"https://perenual.com/storage/species_image/1525_camassia_scilloides/thumbnail/52018796365_365b605111_b.jpg"}},{"id":1526,"common_name":"camellia","scientific_name":["Camellia crapnelliana"],"other_name":null,"cycle":"Perennial","watering":"Average","sunlight":["Part shade"],"default_image":{"image_id":9,"license":5,"license_name":"Attribution-ShareAlike License","license_url":"https://creativecommons.org/licenses/by-sa/2.0/","original_url":"https://perenual.com/storage/species_image/2_abies_alba_pyramidalis/og/49255769768_df55596553_b.jpg","regular_url":"https://perenual.com/storage/species_image/2_abies_alba_pyramidalis/regular/49255769768_df55596553_b.jpg","medium_url":"https://perenual.com/storage/species_image/2_abies_alba_pyramidalis/medium/49255769768_df55596553_b.jpg","small_url":"https://perenual.com/storage/species_image/2_abies_alba_pyramidalis/small/49255769768_df55596553_b.jpg","thumbnail":"https://perenual.com/storage/species_image/2_abies_alba_pyramidalis/thumbnail/49255769768_df55596553_b.jpg"}},{"id":1527,"common_name":"camellia","scientific_name":["Camellia edithae"],"other_name":null,"cycle":"Perennial","watering":"Average","sunlight":["Part shade"],"default_image":{"image_id":9,"license":5,"license_name":"Attribution-ShareAlike License","license_url":"https://creativecommons.org/licenses/by-sa/2.0/","original_url":"https://perenual.com/storage/species_image/2_abies_alba_pyramidalis/og/49255769768_df55596553_b.jpg","regular_url":"https://perenual.com/storage/species_image/2_abies_alba_pyramidalis/regular/49255769768_df55596553_b.jpg","medium_url":"https://perenual.com/storage/species_image/2_abies_alba_pyramidalis/medium/49255769768_df55596553_b.jpg","small_url":"https://perenual.com/storage/species_image/2_abies_alba_pyramidalis/small/49255769768_df55596553_b.jpg","thumbnail":"https://perenual.com/storage/species_image/2_abies_alba_pyramidalis/thumbnail/49255769768_df55596553_b.jpg"}}],"to":1530,"per_page":30,"current_page":51,"from":1501,"last_page":200,"total":6000}