{"data":[{"id":1951,"common_name":"clematis","scientific_name":["Clematis 'Rouge Cardinal'"],"other_name":null,"cycle":"Perennial","watering":"Average","sunlight":["Full sun","part shade"],"default_image":{"image_id":4717,"license":5,"license_name":"Attribution-ShareAlike License","license_url":"https://creativecommons.org/licenses/by-sa/2.0/","original_url":"https://perenual.com/storage/species_image/1951_clematis_rouge_cardinal/og/52134673965_0f5aec4262_b.jpg","regular_url":"https://perenual.com/storage/species_image/1951_clematis_rouge_cardinal/regular/52134673965_0f5aec4262_b.jpg","medium_url":"https://perenual.com/storage/species_image/1951_clematis_rouge_cardinal/medium/52134673965_0f5aec4262_b.jpg","small_url":"https://perenual.com/storage/species_image/1951_clematis_rouge_cardinal/small/52134673965_0f5aec4262_b.jpg","thumbnail":"https://perenual.com/storage/species_image/1951_clematis_rouge_cardinal/thumbnail/52134673965_0f5aec4262_b.jpg"}},{"id":1952,"common_name":"Scott's clematis","scientific_name":["Clematis scottii"],"other_name":null,"cycle":"Perennial","watering":"Average","sunlight":["Full sun","part shade"],"default_image":{"image_id":4721,"license":4,"license_name":"Attribution License","license_url":"https://creativecommons.org/licenses/by/2.0/","original_url":"https://perenual.com/storage/species_image/1952_clematis_scottii/og/2453567646_e8689fbbb5_b.jpg","regular_url":"https://perenual.com/storage/species_image/1952_clematis_scottii/regular/2453567646_e8689fbbb5_b.jpg","medium_url":"https://perenual.com/storage/species_image/1952_clematis_scottii/medium/2453567646_e8689fbbb5_b.jpg","small_url":"https://perenual.com/storage/species_image/1952_clematis_scottii/small/2453567646_e8689fbbb5_b.jpg","thumbnail":"https://perenual.com/storage/species_image/1952_clematis_scottii/thumbnail/2453567646_e8689fbbb5_b.jpg"}},{"id":1953,"common_name":"clematis","scientific_name":["Clematis 'Silver Moon'"],"other_name":null,"cycle":"Perennial","watering":"Average","sunlight":["Full sun","part shade"],"default_image":{"image_id":4673,"license":5,"license_name":"Attribution-ShareAlike License","license_url":"https://creativecommons.org/licenses/by-sa/2.0/","original_url":"https://perenual.com/storage/species_image/1953_clematis_silver_moon/og/52609575523_98fc523349_b.jpg","regular_url":"https://perenual.com/storage/species_image/1953_clematis_silver_moon/regular/52609575523_98fc523349_b.jpg","medium_url":"https://perenual.com/storage/species_image/1953_clematis_silver_moon/medium/52609575523_98fc523349_b.jpg","small_url":"https://perenual.com/storage/species_image/1953_clematis_silver_moon/small/52609575523_98fc523349_b.jpg","thumbnail":"https://perenual.com/storage/species_image/1953_clematis_silver_moon/thumbnail/52609575523_98fc523349_b.jpg"}},{"id":1954,"common_name":"clematis","scientific_name":["Clematis 'Snow Queen'"],"other_name":null,"cycle":"Perennial","watering":"Average","sunlight":["Full sun","part shade"],"default_image":{"image_id":9,"license":5,"license_name":"Attribution-ShareAlike License","license_url":"https://creativecommons.org/licenses/by-sa/2.0/","original_url":"https://perenual.com/storage/species_image/2_abies_alba_pyramidalis/og/49255769768_df55596553_b.jpg","regular_url":"https://perenual.com/storage/species_image/2_abies_alba_pyramidalis/regular/49255769768_df55596553_b.jpg","medium_url":"https://perenual.com/storage/species_image/2_abies_alba_pyramidalis/medium/49255769768_df55596553_b.jpg","small_url":"https://perenual.com/storage/species_image/2_abies_alba_pyramidalis/small/49255769768_df55596553_b.jpg","thumbnail":"https://perenual.com/storage/species_image/2_abies_alba_pyramidalis/thumbnail/49255769768_df55596553_b.jpg"}},{"id":1955,"common_name":"clematis","scientific_name":["Clematis 'Sweet Summer Love'"],"other_name":null,"cycle":"Perennial","watering":"Average","sunlight":["Full sun","part shade"],"default_image":{"image_id":9,"license":5,"license_name":"Attribution-ShareAlike License","license_url":"https://creativecommons.org/licenses/by-sa/2.0/","original_url":"https://perenual.com/storage/species_image/2_abies_alba_pyramidalis/og/49255769768_df55596553_b.jpg","regular_url":"https://perenual.com/storage/species_image/2_abies_alba_pyramidalis/regular/49255769768_df55596553_b.jpg","medium_url":"https://perenual.com/storage/species_image/2_abies_alba_pyramidalis/medium/49255769768_df55596553_b.jpg","small_url":"https://perenual.com/storage/species_image/2_abies_alba_pyramidalis/small/49255769768_df55596553_b.jpg","thumbnail":"https://perenual.com/storage/species_image/2_abies_alba_pyramidalis/thumbnail/49255769768_df55596553_b.jpg"}},{"id":1956,"common_name":"golden-bell clematis","scientific_name":["Clematis tangutica"],"other_name":null,"cycle":"Perennial","watering":"Average","sunlight":["Full sun"," Part sun/part shade"],"default_image":{"image_id":4725,"license":5,"license_name":"Attribution-ShareAlike License","license_url":"https://creativecommons.org/licenses/by-sa/2.0/","original_url":"https://perenual.com/storage/species_image/1956_clematis_tangutica/og/9216114312_7a4906267c_b.jpg","regular_url":"https://perenual.com/storage/species_image/1956_clematis_tangutica/regular/9216114312_7a4906267c_b.jpg","medium_url":"https://perenual.com/storage/species_image/1956_clematis_tangutica/medium/9216114312_7a4906267c_b.jpg","small_url":"https://perenual.com/storage/species_image/1956_clematis_tangutica/small/9216114312_7a4906267c_b.jpg","thumbnail":"https://perenual.com/storage/species_image/1956_clematis_tangutica/thumbnail/9216114312_7a4906267c_b.jpg"}},{"id":1957,"common_name":"golden-bell clematis","scientific_name":["Clematis tangutica subsp. obtusiuscula 'Gravetye Variety'"],"other_name":null,"cycle":"Perennial","watering":"Average","sunlight":["Full sun"," Part sun/part shade"],"default_image":{"image_id":21015,"license":45,"license_name":"Attribution-ShareAlike 3.0 Unported (CC BY-SA 3.0)","license_url":"https://creativecommons.org/licenses/by-sa/3.0/deed.en","original_url":"https://perenual.com/storage/species_image/1957_clematis_tangutica_subsp_obtusiuscula_gravetye_variety/og/Clematis_tangutica_Golden_Tiara.jpg","regular_url":"https://perenual.com/storage/species_image/1957_clematis_tangutica_subsp_obtusiuscula_gravetye_variety/regular/Clematis_tangutica_Golden_Tiara.jpg","medium_url":"https://perenual.com/storage/species_image/1957_clematis_tangutica_subsp_obtusiuscula_gravetye_variety/medium/Clematis_tangutica_Golden_Tiara.jpg","small_url":"https://perenual.com/storage/species_image/1957_clematis_tangutica_subsp_obtusiuscula_gravetye_variety/small/Clematis_tangutica_Golden_Tiara.jpg","thumbnail":"https://perenual.com/storage/species_image/1957_clematis_tangutica_subsp_obtusiuscula_gravetye_variety/thumbnail/Clematis_tangutica_Golden_Tiara.jpg"}},{"id":1958,"common_name":"sweet autumn virginsbower","scientific_name":["Clematis terniflora"],"other_name":null,"cycle":"Perennial","watering":"Average","sunlight":["Full sun","part shade"],"default_image":{"image_id":4733,"license":5,"license_name":"Attribution-ShareAlike License","license_url":"https://creativecommons.org/licenses/by-sa/2.0/","original_url":"https://perenual.com/storage/species_image/1958_clematis_terniflora/og/52143972179_fe0c42c700_b.jpg","regular_url":"https://perenual.com/storage/species_image/1958_clematis_terniflora/regular/52143972179_fe0c42c700_b.jpg","medium_url":"https://perenual.com/storage/species_image/1958_clematis_terniflora/medium/52143972179_fe0c42c700_b.jpg","small_url":"https://perenual.com/storage/species_image/1958_clematis_terniflora/small/52143972179_fe0c42c700_b.jpg","thumbnail":"https://perenual.com/storage/species_image/1958_clematis_terniflora/thumbnail/52143972179_fe0c42c700_b.jpg"}},{"id":1959,"common_name":"clematis","scientific_name":["Clematis 'The President'"],"other_name":null,"cycle":"Perennial","watering":"Average","sunlight":["Full sun","part shade"],"default_image":{"image_id":4735,"license":5,"license_name":"Attribution-ShareAlike License","license_url":"https://creativecommons.org/licenses/by-sa/2.0/","original_url":"https://perenual.com/storage/species_image/1959_clematis_the_president/og/51210123029_44984ac3fd_b.jpg","regular_url":"https://perenual.com/storage/species_image/1959_clematis_the_president/regular/51210123029_44984ac3fd_b.jpg","medium_url":"https://perenual.com/storage/species_image/1959_clematis_the_president/medium/51210123029_44984ac3fd_b.jpg","small_url":"https://perenual.com/storage/species_image/1959_clematis_the_president/small/51210123029_44984ac3fd_b.jpg","thumbnail":"https://perenual.com/storage/species_image/1959_clematis_the_president/thumbnail/51210123029_44984ac3fd_b.jpg"}},{"id":1960,"common_name":"clematis","scientific_name":["Clematis triternata 'Rubromarginata'"],"other_name":null,"cycle":"Perennial","watering":"Average","sunlight":["Full sun","part shade"],"default_image":null},{"id":1961,"common_name":"clematis","scientific_name":["Clematis tubulosa"],"other_name":null,"cycle":"Perennial","watering":"Average","sunlight":["Full sun","part shade"],"default_image":{"image_id":4739,"license":5,"license_name":"Attribution-ShareAlike License","license_url":"https://creativecommons.org/licenses/by-sa/2.0/","original_url":"https://perenual.com/storage/species_image/1961_clematis_tubulosa/og/5957481260_5a8ae2e4fc_b.jpg","regular_url":"https://perenual.com/storage/species_image/1961_clematis_tubulosa/regular/5957481260_5a8ae2e4fc_b.jpg","medium_url":"https://perenual.com/storage/species_image/1961_clematis_tubulosa/medium/5957481260_5a8ae2e4fc_b.jpg","small_url":"https://perenual.com/storage/species_image/1961_clematis_tubulosa/small/5957481260_5a8ae2e4fc_b.jpg","thumbnail":"https://perenual.com/storage/species_image/1961_clematis_tubulosa/thumbnail/5957481260_5a8ae2e4fc_b.jpg"}},{"id":1962,"common_name":"clematis","scientific_name":["Clematis 'Vanso' BLUE LIGHT"],"other_name":null,"cycle":"Perennial","watering":"Average","sunlight":["Full sun","part shade"],"default_image":null},{"id":1963,"common_name":"pale leather flower","scientific_name":["Clematis versicolor"],"other_name":null,"cycle":"Perennial","watering":"Average","sunlight":["Full sun","part shade"],"default_image":{"image_id":4740,"license":5,"license_name":"Attribution-ShareAlike License","license_url":"https://creativecommons.org/licenses/by-sa/2.0/","original_url":"https://perenual.com/storage/species_image/1963_clematis_versicolor/og/5670956156_948b443fc2_b.jpg","regular_url":"https://perenual.com/storage/species_image/1963_clematis_versicolor/regular/5670956156_948b443fc2_b.jpg","medium_url":"https://perenual.com/storage/species_image/1963_clematis_versicolor/medium/5670956156_948b443fc2_b.jpg","small_url":"https://perenual.com/storage/species_image/1963_clematis_versicolor/small/5670956156_948b443fc2_b.jpg","thumbnail":"https://perenual.com/storage/species_image/1963_clematis_versicolor/thumbnail/5670956156_948b443fc2_b.jpg"}},{"id":1964,"common_name":"clematis","scientific_name":["Clematis 'Ville de Lyon'"],"other_name":null,"cycle":"Perennial","watering":"Average","sunlight":["Full sun","part shade"],"default_image":{"image_id":4742,"license":4,"license_name":"Attribution License","license_url":"https://creativecommons.org/licenses/by/2.0/","original_url":"https://perenual.com/storage/species_image/1964_clematis_ville_de_lyon/og/2517905646_956bed4ae3_b.jpg","regular_url":"https://perenual.com/storage/species_image/1964_clematis_ville_de_lyon/regular/2517905646_956bed4ae3_b.jpg","medium_url":"https://perenual.com/storage/species_image/1964_clematis_ville_de_lyon/medium/2517905646_956bed4ae3_b.jpg","small_url":"https://perenual.com/storage/species_image/1964_clematis_ville_de_lyon/small/2517905646_956bed4ae3_b.jpg","thumbnail":"https://perenual.com/storage/species_image/1964_clematis_ville_de_lyon/thumbnail/2517905646_956bed4ae3_b.jpg"}},{"id":1965,"common_name":"woodbine","scientific_name":["Clematis virginiana"],"other_name":null,"cycle":"Perennial","watering":"Frequent","sunlight":["Full sun","part shade"],"default_image":{"image_id":4746,"license":4,"license_name":"Attribution License","license_url":"https://creativecommons.org/licenses/by/2.0/","original_url":"https://perenual.com/storage/species_image/1965_clematis_virginiana/og/28603207183_ffcd2521a1_b.jpg","regular_url":"https://perenual.com/storage/species_image/1965_clematis_virginiana/regular/28603207183_ffcd2521a1_b.jpg","medium_url":"https://perenual.com/storage/species_image/1965_clematis_virginiana/medium/28603207183_ffcd2521a1_b.jpg","small_url":"https://perenual.com/storage/species_image/1965_clematis_virginiana/small/28603207183_ffcd2521a1_b.jpg","thumbnail":"https://perenual.com/storage/species_image/1965_clematis_virginiana/thumbnail/28603207183_ffcd2521a1_b.jpg"}},{"id":1966,"common_name":"clematis","scientific_name":["Clematis 'Will Goodwin'"],"other_name":null,"cycle":"Perennial","watering":"Average","sunlight":["Full sun","part shade"],"default_image":{"image_id":4749,"license":5,"license_name":"Attribution-ShareAlike License","license_url":"https://creativecommons.org/licenses/by-sa/2.0/","original_url":"https://perenual.com/storage/species_image/1966_clematis_will_goodwin/og/9232963760_fafaec58e2_b.jpg","regular_url":"https://perenual.com/storage/species_image/1966_clematis_will_goodwin/regular/9232963760_fafaec58e2_b.jpg","medium_url":"https://perenual.com/storage/species_image/1966_clematis_will_goodwin/medium/9232963760_fafaec58e2_b.jpg","small_url":"https://perenual.com/storage/species_image/1966_clematis_will_goodwin/small/9232963760_fafaec58e2_b.jpg","thumbnail":"https://perenual.com/storage/species_image/1966_clematis_will_goodwin/thumbnail/9232963760_fafaec58e2_b.jpg"}},{"id":1967,"common_name":"clematis","scientific_name":["Clematis 'Zocoro' SPARKY PINK"],"other_name":null,"cycle":"Perennial","watering":"Minimum","sunlight":["Full sun","part shade"],"default_image":null},{"id":1968,"common_name":"spider flower","scientific_name":["Cleome 'Inncleosr' SENORITA ROSALITA"],"other_name":null,"cycle":"Perennial","watering":"Minimum","sunlight":["Full sun","part shade"],"default_image":null},{"id":1969,"common_name":"rose glory bower","scientific_name":["Clerodendrum bungei"],"other_name":null,"cycle":"Perennial","watering":"Average","sunlight":["Full sun","part shade"],"default_image":{"image_id":4754,"license":4,"license_name":"Attribution License","license_url":"https://creativecommons.org/licenses/by/2.0/","original_url":"https://perenual.com/storage/species_image/1969_clerodendrum_bungei/og/22802737237_81ca01045e_b.jpg","regular_url":"https://perenual.com/storage/species_image/1969_clerodendrum_bungei/regular/22802737237_81ca01045e_b.jpg","medium_url":"https://perenual.com/storage/species_image/1969_clerodendrum_bungei/medium/22802737237_81ca01045e_b.jpg","small_url":"https://perenual.com/storage/species_image/1969_clerodendrum_bungei/small/22802737237_81ca01045e_b.jpg","thumbnail":"https://perenual.com/storage/species_image/1969_clerodendrum_bungei/thumbnail/22802737237_81ca01045e_b.jpg"}},{"id":1970,"common_name":"glory bower","scientific_name":["Clerodendrum splendens"],"other_name":null,"cycle":"Perennial","watering":"Average","sunlight":["Full sun","part shade"],"default_image":{"image_id":4759,"license":4,"license_name":"Attribution License","license_url":"https://creativecommons.org/licenses/by/2.0/","original_url":"https://perenual.com/storage/species_image/1970_clerodendrum_splendens/og/8316564197_398d2a7654_b.jpg","regular_url":"https://perenual.com/storage/species_image/1970_clerodendrum_splendens/regular/8316564197_398d2a7654_b.jpg","medium_url":"https://perenual.com/storage/species_image/1970_clerodendrum_splendens/medium/8316564197_398d2a7654_b.jpg","small_url":"https://perenual.com/storage/species_image/1970_clerodendrum_splendens/small/8316564197_398d2a7654_b.jpg","thumbnail":"https://perenual.com/storage/species_image/1970_clerodendrum_splendens/thumbnail/8316564197_398d2a7654_b.jpg"}},{"id":1971,"common_name":"bleeding heart","scientific_name":["Clerodendrum thomsoniae"],"other_name":null,"cycle":"Perennial","watering":"Average","sunlight":["Part shade"],"default_image":{"image_id":4764,"license":5,"license_name":"Attribution-ShareAlike License","license_url":"https://creativecommons.org/licenses/by-sa/2.0/","original_url":"https://perenual.com/storage/species_image/1971_clerodendrum_thomsoniae/og/52381329793_ec96f8918a_b.jpg","regular_url":"https://perenual.com/storage/species_image/1971_clerodendrum_thomsoniae/regular/52381329793_ec96f8918a_b.jpg","medium_url":"https://perenual.com/storage/species_image/1971_clerodendrum_thomsoniae/medium/52381329793_ec96f8918a_b.jpg","small_url":"https://perenual.com/storage/species_image/1971_clerodendrum_thomsoniae/small/52381329793_ec96f8918a_b.jpg","thumbnail":"https://perenual.com/storage/species_image/1971_clerodendrum_thomsoniae/thumbnail/52381329793_ec96f8918a_b.jpg"}},{"id":1972,"common_name":"glory-bower","scientific_name":["Clerodendrum wallichii"],"other_name":null,"cycle":"Perennial","watering":"Average","sunlight":["Part shade"],"default_image":{"image_id":9,"license":5,"license_name":"Attribution-ShareAlike License","license_url":"https://creativecommons.org/licenses/by-sa/2.0/","original_url":"https://perenual.com/storage/species_image/2_abies_alba_pyramidalis/og/49255769768_df55596553_b.jpg","regular_url":"https://perenual.com/storage/species_image/2_abies_alba_pyramidalis/regular/49255769768_df55596553_b.jpg","medium_url":"https://perenual.com/storage/species_image/2_abies_alba_pyramidalis/medium/49255769768_df55596553_b.jpg","small_url":"https://perenual.com/storage/species_image/2_abies_alba_pyramidalis/small/49255769768_df55596553_b.jpg","thumbnail":"https://perenual.com/storage/species_image/2_abies_alba_pyramidalis/thumbnail/49255769768_df55596553_b.jpg"}},{"id":1973,"common_name":"sweet pepperbush","scientific_name":["Clethra alnifolia"],"other_name":["sweet pepperbush"],"cycle":"Perennial","watering":"Frequent","sunlight":["Full sun","part shade"],"default_image":{"image_id":4773,"license":4,"license_name":"Attribution License","license_url":"https://creativecommons.org/licenses/by/2.0/","original_url":"https://perenual.com/storage/species_image/1973_clethra_alnifolia/og/35899356460_58a16cfb92_b.jpg","regular_url":"https://perenual.com/storage/species_image/1973_clethra_alnifolia/regular/35899356460_58a16cfb92_b.jpg","medium_url":"https://perenual.com/storage/species_image/1973_clethra_alnifolia/medium/35899356460_58a16cfb92_b.jpg","small_url":"https://perenual.com/storage/species_image/1973_clethra_alnifolia/small/35899356460_58a16cfb92_b.jpg","thumbnail":"https://perenual.com/storage/species_image/1973_clethra_alnifolia/thumbnail/35899356460_58a16cfb92_b.jpg"}},{"id":1974,"common_name":"sweet pepperbush","scientific_name":["Clethra alnifolia 'Batsto Blush'"],"other_name":null,"cycle":"Perennial","watering":"Frequent","sunlight":["Full sun","part shade"],"default_image":{"image_id":9,"license":5,"license_name":"Attribution-ShareAlike License","license_url":"https://creativecommons.org/licenses/by-sa/2.0/","original_url":"https://perenual.com/storage/species_image/2_abies_alba_pyramidalis/og/49255769768_df55596553_b.jpg","regular_url":"https://perenual.com/storage/species_image/2_abies_alba_pyramidalis/regular/49255769768_df55596553_b.jpg","medium_url":"https://perenual.com/storage/species_image/2_abies_alba_pyramidalis/medium/49255769768_df55596553_b.jpg","small_url":"https://perenual.com/storage/species_image/2_abies_alba_pyramidalis/small/49255769768_df55596553_b.jpg","thumbnail":"https://perenual.com/storage/species_image/2_abies_alba_pyramidalis/thumbnail/49255769768_df55596553_b.jpg"}},{"id":1975,"common_name":"sweet pepperbush","scientific_name":["Clethra alnifolia 'Caleb' VANILLA SPICE"],"other_name":null,"cycle":"Perennial","watering":"Frequent","sunlight":["Full sun","part shade"],"default_image":{"image_id":4781,"license":4,"license_name":"Attribution License","license_url":"https://creativecommons.org/licenses/by/2.0/","original_url":"https://perenual.com/storage/species_image/1975_clethra_alnifolia_caleb_vanilla_spice/og/51419832806_87fca3c718_b.jpg","regular_url":"https://perenual.com/storage/species_image/1975_clethra_alnifolia_caleb_vanilla_spice/regular/51419832806_87fca3c718_b.jpg","medium_url":"https://perenual.com/storage/species_image/1975_clethra_alnifolia_caleb_vanilla_spice/medium/51419832806_87fca3c718_b.jpg","small_url":"https://perenual.com/storage/species_image/1975_clethra_alnifolia_caleb_vanilla_spice/small/51419832806_87fca3c718_b.jpg","thumbnail":"https://perenual.com/storage/species_image/1975_clethra_alnifolia_caleb_vanilla_spice/thumbnail/51419832806_87fca3c718_b.jpg"}},{"id":1976,"common_name":"sweet pepperbush","scientific_name":["Clethra alnifolia 'Crystalina'"],"other_name":null,"cycle":"Perennial","watering":"Frequent","sunlight":["Full sun","part shade"],"default_image":{"image_id":4783,"license":4,"license_name":"Attribution License","license_url":"https://creativecommons.org/licenses/by/2.0/","original_url":"https://perenual.com/storage/species_image/1976_clethra_alnifolia_crystalina/og/31324620304_f19c10169b_b.jpg","regular_url":"https://perenual.com/storage/species_image/1976_clethra_alnifolia_crystalina/regular/31324620304_f19c10169b_b.jpg","medium_url":"https://perenual.com/storage/species_image/1976_clethra_alnifolia_crystalina/medium/31324620304_f19c10169b_b.jpg","small_url":"https://perenual.com/storage/species_image/1976_clethra_alnifolia_crystalina/small/31324620304_f19c10169b_b.jpg","thumbnail":"https://perenual.com/storage/species_image/1976_clethra_alnifolia_crystalina/thumbnail/31324620304_f19c10169b_b.jpg"}},{"id":1977,"common_name":"sweet pepperbush","scientific_name":["Clethra alnifolia 'Hummingbird'"],"other_name":null,"cycle":"Perennial","watering":"Frequent","sunlight":["Full sun","part shade"],"default_image":{"image_id":4784,"license":5,"license_name":"Attribution-ShareAlike License","license_url":"https://creativecommons.org/licenses/by-sa/2.0/","original_url":"https://perenual.com/storage/species_image/1977_clethra_alnifolia_hummingbird/og/36261307800_122acb252f_b.jpg","regular_url":"https://perenual.com/storage/species_image/1977_clethra_alnifolia_hummingbird/regular/36261307800_122acb252f_b.jpg","medium_url":"https://perenual.com/storage/species_image/1977_clethra_alnifolia_hummingbird/medium/36261307800_122acb252f_b.jpg","small_url":"https://perenual.com/storage/species_image/1977_clethra_alnifolia_hummingbird/small/36261307800_122acb252f_b.jpg","thumbnail":"https://perenual.com/storage/species_image/1977_clethra_alnifolia_hummingbird/thumbnail/36261307800_122acb252f_b.jpg"}},{"id":1978,"common_name":"sweet pepperbush","scientific_name":["Clethra alnifolia 'Pink Spire'"],"other_name":null,"cycle":"Perennial","watering":"Frequent","sunlight":["Full sun","part shade"],"default_image":{"image_id":4786,"license":5,"license_name":"Attribution-ShareAlike License","license_url":"https://creativecommons.org/licenses/by-sa/2.0/","original_url":"https://perenual.com/storage/species_image/1978_clethra_alnifolia_pink_spire/og/50195915651_3911bfc233_b.jpg","regular_url":"https://perenual.com/storage/species_image/1978_clethra_alnifolia_pink_spire/regular/50195915651_3911bfc233_b.jpg","medium_url":"https://perenual.com/storage/species_image/1978_clethra_alnifolia_pink_spire/medium/50195915651_3911bfc233_b.jpg","small_url":"https://perenual.com/storage/species_image/1978_clethra_alnifolia_pink_spire/small/50195915651_3911bfc233_b.jpg","thumbnail":"https://perenual.com/storage/species_image/1978_clethra_alnifolia_pink_spire/thumbnail/50195915651_3911bfc233_b.jpg"}},{"id":1979,"common_name":"sweet pepperbush","scientific_name":["Clethra alnifolia 'Rosea'"],"other_name":null,"cycle":"Perennial","watering":"Frequent","sunlight":["Full sun","part shade"],"default_image":{"image_id":4791,"license":5,"license_name":"Attribution-ShareAlike License","license_url":"https://creativecommons.org/licenses/by-sa/2.0/","original_url":"https://perenual.com/storage/species_image/1979_clethra_alnifolia_rosea/og/36657513825_073897e066_b.jpg","regular_url":"https://perenual.com/storage/species_image/1979_clethra_alnifolia_rosea/regular/36657513825_073897e066_b.jpg","medium_url":"https://perenual.com/storage/species_image/1979_clethra_alnifolia_rosea/medium/36657513825_073897e066_b.jpg","small_url":"https://perenual.com/storage/species_image/1979_clethra_alnifolia_rosea/small/36657513825_073897e066_b.jpg","thumbnail":"https://perenual.com/storage/species_image/1979_clethra_alnifolia_rosea/thumbnail/36657513825_073897e066_b.jpg"}},{"id":1980,"common_name":"sweet pepperbush","scientific_name":["Clethra alnifolia 'Ruby Spice'"],"other_name":null,"cycle":"Perennial","watering":"Frequent","sunlight":["Full sun","part shade"],"default_image":{"image_id":4794,"license":5,"license_name":"Attribution-ShareAlike License","license_url":"https://creativecommons.org/licenses/by-sa/2.0/","original_url":"https://perenual.com/storage/species_image/1980_clethra_alnifolia_ruby_spice/og/41940882370_f155443be8_b.jpg","regular_url":"https://perenual.com/storage/species_image/1980_clethra_alnifolia_ruby_spice/regular/41940882370_f155443be8_b.jpg","medium_url":"https://perenual.com/storage/species_image/1980_clethra_alnifolia_ruby_spice/medium/41940882370_f155443be8_b.jpg","small_url":"https://perenual.com/storage/species_image/1980_clethra_alnifolia_ruby_spice/small/41940882370_f155443be8_b.jpg","thumbnail":"https://perenual.com/storage/species_image/1980_clethra_alnifolia_ruby_spice/thumbnail/41940882370_f155443be8_b.jpg"}}],"to":1980,"per_page":30,"current_page":66,"from":1951,"last_page":200,"total":6000}