{"data":[{"id":1291,"common_name":"Japanese white birch","scientific_name":["Betula platyphylla 'Fargo' DAKOTA PINNACLE"],"other_name":null,"cycle":"Perennial","watering":"Average","sunlight":["Full sun","part shade"],"default_image":{"image_id":3008,"license":4,"license_name":"Attribution License","license_url":"https://creativecommons.org/licenses/by/2.0/","original_url":"https://perenual.com/storage/species_image/1291_betula_platyphylla_fargo_dakota_pinnacle/og/51331524326_dd8a397b17_b.jpg","regular_url":"https://perenual.com/storage/species_image/1291_betula_platyphylla_fargo_dakota_pinnacle/regular/51331524326_dd8a397b17_b.jpg","medium_url":"https://perenual.com/storage/species_image/1291_betula_platyphylla_fargo_dakota_pinnacle/medium/51331524326_dd8a397b17_b.jpg","small_url":"https://perenual.com/storage/species_image/1291_betula_platyphylla_fargo_dakota_pinnacle/small/51331524326_dd8a397b17_b.jpg","thumbnail":"https://perenual.com/storage/species_image/1291_betula_platyphylla_fargo_dakota_pinnacle/thumbnail/51331524326_dd8a397b17_b.jpg"}},{"id":1292,"common_name":"birch","scientific_name":["Betula 'Royal Frost'"],"other_name":null,"cycle":"Perennial","watering":"Frequent","sunlight":["Full sun","part shade"],"default_image":{"image_id":3009,"license":45,"license_name":"Attribution-ShareAlike 3.0 Unported (CC BY-SA 3.0)","license_url":"https://creativecommons.org/licenses/by-sa/3.0/deed.en","original_url":"https://perenual.com/storage/species_image/185_betula_crimson_frost/og/B._pubescens_f._rubra_2.jpg","regular_url":"https://perenual.com/storage/species_image/185_betula_crimson_frost/regular/B._pubescens_f._rubra_2.jpg","medium_url":"https://perenual.com/storage/species_image/185_betula_crimson_frost/medium/B._pubescens_f._rubra_2.jpg","small_url":"https://perenual.com/storage/species_image/185_betula_crimson_frost/small/B._pubescens_f._rubra_2.jpg","thumbnail":"https://perenual.com/storage/species_image/185_betula_crimson_frost/thumbnail/B._pubescens_f._rubra_2.jpg"}},{"id":1293,"common_name":"Himalayan birch","scientific_name":["Betula utilis var. jacquemontii"],"other_name":null,"cycle":"Perennial","watering":"Frequent","sunlight":["Full sun","part shade"],"default_image":{"image_id":310,"license":4,"license_name":"Attribution License","license_url":"https://creativecommons.org/licenses/by/2.0/","original_url":"https://perenual.com/storage/species_image/1293_betula_utilis_var_jacquemontii/og/9020914937_f8664866cf_b.jpg","regular_url":"https://perenual.com/storage/species_image/1293_betula_utilis_var_jacquemontii/regular/9020914937_f8664866cf_b.jpg","medium_url":"https://perenual.com/storage/species_image/1293_betula_utilis_var_jacquemontii/medium/9020914937_f8664866cf_b.jpg","small_url":"https://perenual.com/storage/species_image/1293_betula_utilis_var_jacquemontii/small/9020914937_f8664866cf_b.jpg","thumbnail":"https://perenual.com/storage/species_image/1293_betula_utilis_var_jacquemontii/thumbnail/9020914937_f8664866cf_b.jpg"}},{"id":1294,"common_name":"Arizona beggarstick","scientific_name":["Bidens aurea"],"other_name":null,"cycle":"Annual","watering":"Average","sunlight":["Full sun"],"default_image":{"image_id":3010,"license":4,"license_name":"Attribution License","license_url":"https://creativecommons.org/licenses/by/2.0/","original_url":"https://perenual.com/storage/species_image/1294_bidens_aurea/og/51602760037_8e24af0c9d_b.jpg","regular_url":"https://perenual.com/storage/species_image/1294_bidens_aurea/regular/51602760037_8e24af0c9d_b.jpg","medium_url":"https://perenual.com/storage/species_image/1294_bidens_aurea/medium/51602760037_8e24af0c9d_b.jpg","small_url":"https://perenual.com/storage/species_image/1294_bidens_aurea/small/51602760037_8e24af0c9d_b.jpg","thumbnail":"https://perenual.com/storage/species_image/1294_bidens_aurea/thumbnail/51602760037_8e24af0c9d_b.jpg"}},{"id":1295,"common_name":"cross vine","scientific_name":["Bignonia capreolata 'Atrosanguinea'"],"other_name":null,"cycle":"Perennial","watering":"Average","sunlight":["Full sun","part shade"],"default_image":{"image_id":3014,"license":45,"license_name":"Attribution-ShareAlike 3.0 Unported (CC BY-SA 3.0)","license_url":"https://creativecommons.org/licenses/by-sa/3.0/deed.en","original_url":"https://perenual.com/storage/species_image/1295_bignonia_capreolata_atrosanguinea/og/Bignonia_capreolata.jpg","regular_url":"https://perenual.com/storage/species_image/1295_bignonia_capreolata_atrosanguinea/regular/Bignonia_capreolata.jpg","medium_url":"https://perenual.com/storage/species_image/1295_bignonia_capreolata_atrosanguinea/medium/Bignonia_capreolata.jpg","small_url":"https://perenual.com/storage/species_image/1295_bignonia_capreolata_atrosanguinea/small/Bignonia_capreolata.jpg","thumbnail":"https://perenual.com/storage/species_image/1295_bignonia_capreolata_atrosanguinea/thumbnail/Bignonia_capreolata.jpg"}},{"id":1296,"common_name":"Bismarck palm","scientific_name":["Bismarckia nobilis"],"other_name":null,"cycle":"Perennial","watering":"Average","sunlight":["Full sun"],"default_image":{"image_id":3019,"license":4,"license_name":"Attribution License","license_url":"https://creativecommons.org/licenses/by/2.0/","original_url":"https://perenual.com/storage/species_image/1296_bismarckia_nobilis/og/25025773182_e4c2abce86_b.jpg","regular_url":"https://perenual.com/storage/species_image/1296_bismarckia_nobilis/regular/25025773182_e4c2abce86_b.jpg","medium_url":"https://perenual.com/storage/species_image/1296_bismarckia_nobilis/medium/25025773182_e4c2abce86_b.jpg","small_url":"https://perenual.com/storage/species_image/1296_bismarckia_nobilis/small/25025773182_e4c2abce86_b.jpg","thumbnail":"https://perenual.com/storage/species_image/1296_bismarckia_nobilis/thumbnail/25025773182_e4c2abce86_b.jpg"}},{"id":1297,"common_name":"meadow bistort","scientific_name":["Bistorta officinalis"],"other_name":null,"cycle":"Perennial","watering":"Average","sunlight":[],"default_image":{"image_id":3022,"license":5,"license_name":"Attribution-ShareAlike License","license_url":"https://creativecommons.org/licenses/by-sa/2.0/","original_url":"https://perenual.com/storage/species_image/1297_bistorta_officinalis/og/14275743484_796a6b64cf_b.jpg","regular_url":"https://perenual.com/storage/species_image/1297_bistorta_officinalis/regular/14275743484_796a6b64cf_b.jpg","medium_url":"https://perenual.com/storage/species_image/1297_bistorta_officinalis/medium/14275743484_796a6b64cf_b.jpg","small_url":"https://perenual.com/storage/species_image/1297_bistorta_officinalis/small/14275743484_796a6b64cf_b.jpg","thumbnail":"https://perenual.com/storage/species_image/1297_bistorta_officinalis/thumbnail/14275743484_796a6b64cf_b.jpg"}},{"id":1298,"common_name":"deer fern","scientific_name":["Blechnum spicant"],"other_name":null,"cycle":"Perennial","watering":"Average","sunlight":["Part shade","full shade"],"default_image":{"image_id":3027,"license":5,"license_name":"Attribution-ShareAlike License","license_url":"https://creativecommons.org/licenses/by-sa/2.0/","original_url":"https://perenual.com/storage/species_image/1298_blechnum_spicant/og/19037882166_f4147f7171_b.jpg","regular_url":"https://perenual.com/storage/species_image/1298_blechnum_spicant/regular/19037882166_f4147f7171_b.jpg","medium_url":"https://perenual.com/storage/species_image/1298_blechnum_spicant/medium/19037882166_f4147f7171_b.jpg","small_url":"https://perenual.com/storage/species_image/1298_blechnum_spicant/small/19037882166_f4147f7171_b.jpg","thumbnail":"https://perenual.com/storage/species_image/1298_blechnum_spicant/thumbnail/19037882166_f4147f7171_b.jpg"}},{"id":1299,"common_name":"Chinese ground orchid","scientific_name":["Bletilla striata"],"other_name":["Chinese ground orchid"],"cycle":"Perennial","watering":"Average","sunlight":["Part shade"],"default_image":{"image_id":3036,"license":4,"license_name":"Attribution License","license_url":"https://creativecommons.org/licenses/by/2.0/","original_url":"https://perenual.com/storage/species_image/1299_bletilla_striata/og/46779845065_57a4c9f61d_b.jpg","regular_url":"https://perenual.com/storage/species_image/1299_bletilla_striata/regular/46779845065_57a4c9f61d_b.jpg","medium_url":"https://perenual.com/storage/species_image/1299_bletilla_striata/medium/46779845065_57a4c9f61d_b.jpg","small_url":"https://perenual.com/storage/species_image/1299_bletilla_striata/small/46779845065_57a4c9f61d_b.jpg","thumbnail":"https://perenual.com/storage/species_image/1299_bletilla_striata/thumbnail/46779845065_57a4c9f61d_b.jpg"}},{"id":1300,"common_name":"Chinese ground orchid","scientific_name":["Bletilla striata 'Albostriata'"],"other_name":null,"cycle":"Perennial","watering":"Average","sunlight":["Part shade"],"default_image":{"image_id":9,"license":5,"license_name":"Attribution-ShareAlike License","license_url":"https://creativecommons.org/licenses/by-sa/2.0/","original_url":"https://perenual.com/storage/species_image/2_abies_alba_pyramidalis/og/49255769768_df55596553_b.jpg","regular_url":"https://perenual.com/storage/species_image/2_abies_alba_pyramidalis/regular/49255769768_df55596553_b.jpg","medium_url":"https://perenual.com/storage/species_image/2_abies_alba_pyramidalis/medium/49255769768_df55596553_b.jpg","small_url":"https://perenual.com/storage/species_image/2_abies_alba_pyramidalis/small/49255769768_df55596553_b.jpg","thumbnail":"https://perenual.com/storage/species_image/2_abies_alba_pyramidalis/thumbnail/49255769768_df55596553_b.jpg"}},{"id":1301,"common_name":"Chinese ground orchid","scientific_name":["Bletilla striata f. gebina"],"other_name":null,"cycle":"Perennial","watering":"Average","sunlight":["Part shade"],"default_image":{"image_id":3043,"license":4,"license_name":"Attribution License","license_url":"https://creativecommons.org/licenses/by/2.0/","original_url":"https://perenual.com/storage/species_image/1301_bletilla_striata_f_gebina/og/50068016736_541acf3459_b.jpg","regular_url":"https://perenual.com/storage/species_image/1301_bletilla_striata_f_gebina/regular/50068016736_541acf3459_b.jpg","medium_url":"https://perenual.com/storage/species_image/1301_bletilla_striata_f_gebina/medium/50068016736_541acf3459_b.jpg","small_url":"https://perenual.com/storage/species_image/1301_bletilla_striata_f_gebina/small/50068016736_541acf3459_b.jpg","thumbnail":"https://perenual.com/storage/species_image/1301_bletilla_striata_f_gebina/thumbnail/50068016736_541acf3459_b.jpg"}},{"id":1302,"common_name":"akee","scientific_name":["Blighia sapida"],"other_name":null,"cycle":"Perennial","watering":"Average","sunlight":["Full sun"],"default_image":{"image_id":9,"license":5,"license_name":"Attribution-ShareAlike License","license_url":"https://creativecommons.org/licenses/by-sa/2.0/","original_url":"https://perenual.com/storage/species_image/2_abies_alba_pyramidalis/og/49255769768_df55596553_b.jpg","regular_url":"https://perenual.com/storage/species_image/2_abies_alba_pyramidalis/regular/49255769768_df55596553_b.jpg","medium_url":"https://perenual.com/storage/species_image/2_abies_alba_pyramidalis/medium/49255769768_df55596553_b.jpg","small_url":"https://perenual.com/storage/species_image/2_abies_alba_pyramidalis/small/49255769768_df55596553_b.jpg","thumbnail":"https://perenual.com/storage/species_image/2_abies_alba_pyramidalis/thumbnail/49255769768_df55596553_b.jpg"}},{"id":1303,"common_name":"false aster","scientific_name":["Boltonia asteroides"],"other_name":["Snowbank aster","White Doll's Daisy"],"cycle":"Perennial","watering":"Average","sunlight":["Partial Shade"],"default_image":{"image_id":3051,"license":5,"license_name":"Attribution-ShareAlike License","license_url":"https://creativecommons.org/licenses/by-sa/2.0/","original_url":"https://perenual.com/storage/species_image/1303_boltonia_asteroides/og/36561669334_923d643fe2_b.jpg","regular_url":"https://perenual.com/storage/species_image/1303_boltonia_asteroides/regular/36561669334_923d643fe2_b.jpg","medium_url":"https://perenual.com/storage/species_image/1303_boltonia_asteroides/medium/36561669334_923d643fe2_b.jpg","small_url":"https://perenual.com/storage/species_image/1303_boltonia_asteroides/small/36561669334_923d643fe2_b.jpg","thumbnail":"https://perenual.com/storage/species_image/1303_boltonia_asteroides/thumbnail/36561669334_923d643fe2_b.jpg"}},{"id":1304,"common_name":"false aster","scientific_name":["Boltonia asteroides 'Pink Beauty'"],"other_name":["Snowbank aster","White Doll's Daisy"],"cycle":"Perennial","watering":"Average","sunlight":["Partial Shade"],"default_image":{"image_id":3053,"license":5,"license_name":"Attribution-ShareAlike License","license_url":"https://creativecommons.org/licenses/by-sa/2.0/","original_url":"https://perenual.com/storage/species_image/1306_boltonia_asteroides_var_latisquama_snowbank/og/52583401176_4dab1f4031_b.jpg","regular_url":"https://perenual.com/storage/species_image/1306_boltonia_asteroides_var_latisquama_snowbank/regular/52583401176_4dab1f4031_b.jpg","medium_url":"https://perenual.com/storage/species_image/1306_boltonia_asteroides_var_latisquama_snowbank/medium/52583401176_4dab1f4031_b.jpg","small_url":"https://perenual.com/storage/species_image/1306_boltonia_asteroides_var_latisquama_snowbank/small/52583401176_4dab1f4031_b.jpg","thumbnail":"https://perenual.com/storage/species_image/1306_boltonia_asteroides_var_latisquama_snowbank/thumbnail/52583401176_4dab1f4031_b.jpg"}},{"id":1305,"common_name":"false chamomile","scientific_name":["Boltonia asteroides var. latisquama"],"other_name":["Snowbank aster","White Doll's Daisy"],"cycle":"Perennial","watering":"Average","sunlight":["Partial Shade"],"default_image":{"image_id":3055,"license":5,"license_name":"Attribution-ShareAlike License","license_url":"https://creativecommons.org/licenses/by-sa/2.0/","original_url":"https://perenual.com/storage/species_image/1305_boltonia_asteroides_var_latisquama/og/19783967908_b7f81b2f69_b.jpg","regular_url":"https://perenual.com/storage/species_image/1305_boltonia_asteroides_var_latisquama/regular/19783967908_b7f81b2f69_b.jpg","medium_url":"https://perenual.com/storage/species_image/1305_boltonia_asteroides_var_latisquama/medium/19783967908_b7f81b2f69_b.jpg","small_url":"https://perenual.com/storage/species_image/1305_boltonia_asteroides_var_latisquama/small/19783967908_b7f81b2f69_b.jpg","thumbnail":"https://perenual.com/storage/species_image/1305_boltonia_asteroides_var_latisquama/thumbnail/19783967908_b7f81b2f69_b.jpg"}},{"id":1306,"common_name":"false aster","scientific_name":["Boltonia asteroides var. latisquama 'Snowbank'"],"other_name":["Snowbank aster","White Doll's Daisy"],"cycle":"Perennial","watering":"Average","sunlight":["Partial Shade"],"default_image":{"image_id":3053,"license":5,"license_name":"Attribution-ShareAlike License","license_url":"https://creativecommons.org/licenses/by-sa/2.0/","original_url":"https://perenual.com/storage/species_image/1306_boltonia_asteroides_var_latisquama_snowbank/og/52583401176_4dab1f4031_b.jpg","regular_url":"https://perenual.com/storage/species_image/1306_boltonia_asteroides_var_latisquama_snowbank/regular/52583401176_4dab1f4031_b.jpg","medium_url":"https://perenual.com/storage/species_image/1306_boltonia_asteroides_var_latisquama_snowbank/medium/52583401176_4dab1f4031_b.jpg","small_url":"https://perenual.com/storage/species_image/1306_boltonia_asteroides_var_latisquama_snowbank/small/52583401176_4dab1f4031_b.jpg","thumbnail":"https://perenual.com/storage/species_image/1306_boltonia_asteroides_var_latisquama_snowbank/thumbnail/52583401176_4dab1f4031_b.jpg"}},{"id":1307,"common_name":"red silk cottontree","scientific_name":["Bombax ceiba"],"other_name":null,"cycle":"Perennial","watering":"Average","sunlight":["Full sun"],"default_image":{"image_id":3057,"license":6,"license_name":"Attribution-NoDerivs License","license_url":"https://creativecommons.org/licenses/by-nd/2.0/","original_url":"https://perenual.com/storage/species_image/1307_bombax_ceiba/og/51043004606_f71bc2cde4_b.jpg"}},{"id":1308,"common_name":"borage","scientific_name":["Borago officinalis"],"other_name":null,"cycle":"Perennial","watering":"Minimum","sunlight":["Full sun","part shade"],"default_image":{"image_id":3065,"license":4,"license_name":"Attribution License","license_url":"https://creativecommons.org/licenses/by/2.0/","original_url":"https://perenual.com/storage/species_image/1308_borago_officinalis/og/51426550443_6ec1f1869d_b.jpg","regular_url":"https://perenual.com/storage/species_image/1308_borago_officinalis/regular/51426550443_6ec1f1869d_b.jpg","medium_url":"https://perenual.com/storage/species_image/1308_borago_officinalis/medium/51426550443_6ec1f1869d_b.jpg","small_url":"https://perenual.com/storage/species_image/1308_borago_officinalis/small/51426550443_6ec1f1869d_b.jpg","thumbnail":"https://perenual.com/storage/species_image/1308_borago_officinalis/thumbnail/51426550443_6ec1f1869d_b.jpg"}},{"id":1309,"common_name":"sideoats grass","scientific_name":["Bouteloua curtipendula"],"other_name":["Side Oats Grama"],"cycle":"Perennial","watering":"Minimum","sunlight":["Sun"," Partial Shade"],"default_image":{"image_id":3067,"license":5,"license_name":"Attribution-ShareAlike License","license_url":"https://creativecommons.org/licenses/by-sa/2.0/","original_url":"https://perenual.com/storage/species_image/1309_bouteloua_curtipendula/og/20481812753_c93285f109_b.jpg","regular_url":"https://perenual.com/storage/species_image/1309_bouteloua_curtipendula/regular/20481812753_c93285f109_b.jpg","medium_url":"https://perenual.com/storage/species_image/1309_bouteloua_curtipendula/medium/20481812753_c93285f109_b.jpg","small_url":"https://perenual.com/storage/species_image/1309_bouteloua_curtipendula/small/20481812753_c93285f109_b.jpg","thumbnail":"https://perenual.com/storage/species_image/1309_bouteloua_curtipendula/thumbnail/20481812753_c93285f109_b.jpg"}},{"id":1310,"common_name":"blue grama","scientific_name":["Bouteloua gracilis"],"other_name":["Blue Grama"],"cycle":"Perennial","watering":"Minimum","sunlight":["Full sun"],"default_image":{"image_id":3073,"license":5,"license_name":"Attribution-ShareAlike License","license_url":"https://creativecommons.org/licenses/by-sa/2.0/","original_url":"https://perenual.com/storage/species_image/1310_bouteloua_gracilis/og/36425390021_7acde0c75b_b.jpg","regular_url":"https://perenual.com/storage/species_image/1310_bouteloua_gracilis/regular/36425390021_7acde0c75b_b.jpg","medium_url":"https://perenual.com/storage/species_image/1310_bouteloua_gracilis/medium/36425390021_7acde0c75b_b.jpg","small_url":"https://perenual.com/storage/species_image/1310_bouteloua_gracilis/small/36425390021_7acde0c75b_b.jpg","thumbnail":"https://perenual.com/storage/species_image/1310_bouteloua_gracilis/thumbnail/36425390021_7acde0c75b_b.jpg"}},{"id":1311,"common_name":"blue grama","scientific_name":["Bouteloua gracilis 'Blonde Ambition'"],"other_name":null,"cycle":"Perennial","watering":"Minimum","sunlight":["Full sun"],"default_image":{"image_id":9,"license":5,"license_name":"Attribution-ShareAlike License","license_url":"https://creativecommons.org/licenses/by-sa/2.0/","original_url":"https://perenual.com/storage/species_image/2_abies_alba_pyramidalis/og/49255769768_df55596553_b.jpg","regular_url":"https://perenual.com/storage/species_image/2_abies_alba_pyramidalis/regular/49255769768_df55596553_b.jpg","medium_url":"https://perenual.com/storage/species_image/2_abies_alba_pyramidalis/medium/49255769768_df55596553_b.jpg","small_url":"https://perenual.com/storage/species_image/2_abies_alba_pyramidalis/small/49255769768_df55596553_b.jpg","thumbnail":"https://perenual.com/storage/species_image/2_abies_alba_pyramidalis/thumbnail/49255769768_df55596553_b.jpg"}},{"id":1312,"common_name":"blue grama","scientific_name":["Bouteloua gracilis 'Hachita'"],"other_name":null,"cycle":"Perennial","watering":"Minimum","sunlight":["Full sun"],"default_image":{"image_id":3076,"license":4,"license_name":"Attribution License","license_url":"https://creativecommons.org/licenses/by/2.0/","original_url":"https://perenual.com/storage/species_image/1312_bouteloua_gracilis_hachita/og/52322871030_b671173a7a_b.jpg","regular_url":"https://perenual.com/storage/species_image/1312_bouteloua_gracilis_hachita/regular/52322871030_b671173a7a_b.jpg","medium_url":"https://perenual.com/storage/species_image/1312_bouteloua_gracilis_hachita/medium/52322871030_b671173a7a_b.jpg","small_url":"https://perenual.com/storage/species_image/1312_bouteloua_gracilis_hachita/small/52322871030_b671173a7a_b.jpg","thumbnail":"https://perenual.com/storage/species_image/1312_bouteloua_gracilis_hachita/thumbnail/52322871030_b671173a7a_b.jpg"}},{"id":1313,"common_name":"Swan River daisy","scientific_name":["Brachyscome (group)"],"other_name":null,"cycle":"Perennial","watering":"Average","sunlight":["Full sun"],"default_image":{"image_id":9,"license":5,"license_name":"Attribution-ShareAlike License","license_url":"https://creativecommons.org/licenses/by-sa/2.0/","original_url":"https://perenual.com/storage/species_image/2_abies_alba_pyramidalis/og/49255769768_df55596553_b.jpg","regular_url":"https://perenual.com/storage/species_image/2_abies_alba_pyramidalis/regular/49255769768_df55596553_b.jpg","medium_url":"https://perenual.com/storage/species_image/2_abies_alba_pyramidalis/medium/49255769768_df55596553_b.jpg","small_url":"https://perenual.com/storage/species_image/2_abies_alba_pyramidalis/small/49255769768_df55596553_b.jpg","thumbnail":"https://perenual.com/storage/species_image/2_abies_alba_pyramidalis/thumbnail/49255769768_df55596553_b.jpg"}},{"id":1314,"common_name":"Swan River daisy","scientific_name":["Brachyscome iberidifolia"],"other_name":null,"cycle":"Perennial","watering":"Average","sunlight":["Full sun"],"default_image":{"image_id":3080,"license":451,"license_name":"CC0 1.0 Universal (CC0 1.0) Public Domain Dedication","license_url":"https://creativecommons.org/publicdomain/zero/1.0/","original_url":"https://perenual.com/storage/species_image/1314_brachyscome_iberidifolia/og/g57cd57847a0f2b6aa603740e0e3af5836b5fbfd0a9f90ec5bc48258f60b93c3662e6861876f8514088d24287c72829249381659c9c325e8e702c38312500d4d3_1280.jpg","regular_url":"https://perenual.com/storage/species_image/1314_brachyscome_iberidifolia/regular/g57cd57847a0f2b6aa603740e0e3af5836b5fbfd0a9f90ec5bc48258f60b93c3662e6861876f8514088d24287c72829249381659c9c325e8e702c38312500d4d3_1280.jpg","medium_url":"https://perenual.com/storage/species_image/1314_brachyscome_iberidifolia/medium/g57cd57847a0f2b6aa603740e0e3af5836b5fbfd0a9f90ec5bc48258f60b93c3662e6861876f8514088d24287c72829249381659c9c325e8e702c38312500d4d3_1280.jpg","small_url":"https://perenual.com/storage/species_image/1314_brachyscome_iberidifolia/small/g57cd57847a0f2b6aa603740e0e3af5836b5fbfd0a9f90ec5bc48258f60b93c3662e6861876f8514088d24287c72829249381659c9c325e8e702c38312500d4d3_1280.jpg","thumbnail":"https://perenual.com/storage/species_image/1314_brachyscome_iberidifolia/thumbnail/g57cd57847a0f2b6aa603740e0e3af5836b5fbfd0a9f90ec5bc48258f60b93c3662e6861876f8514088d24287c72829249381659c9c325e8e702c38312500d4d3_1280.jpg"}},{"id":1315,"common_name":"Chinese mustard","scientific_name":["Brassica juncea"],"other_name":null,"cycle":"Annual","watering":"Average","sunlight":[],"default_image":{"image_id":3084,"license":4,"license_name":"Attribution License","license_url":"https://creativecommons.org/licenses/by/2.0/","original_url":"https://perenual.com/storage/species_image/1315_brassica_juncea/og/48139869301_b604032873_b.jpg","regular_url":"https://perenual.com/storage/species_image/1315_brassica_juncea/regular/48139869301_b604032873_b.jpg","medium_url":"https://perenual.com/storage/species_image/1315_brassica_juncea/medium/48139869301_b604032873_b.jpg","small_url":"https://perenual.com/storage/species_image/1315_brassica_juncea/small/48139869301_b604032873_b.jpg","thumbnail":"https://perenual.com/storage/species_image/1315_brassica_juncea/thumbnail/48139869301_b604032873_b.jpg"}},{"id":1316,"common_name":"mustard greens","scientific_name":["Brassica juncea 'Japanese Giant Red'"],"other_name":null,"cycle":"Perennial","watering":"Average","sunlight":[],"default_image":{"image_id":9,"license":5,"license_name":"Attribution-ShareAlike License","license_url":"https://creativecommons.org/licenses/by-sa/2.0/","original_url":"https://perenual.com/storage/species_image/2_abies_alba_pyramidalis/og/49255769768_df55596553_b.jpg","regular_url":"https://perenual.com/storage/species_image/2_abies_alba_pyramidalis/regular/49255769768_df55596553_b.jpg","medium_url":"https://perenual.com/storage/species_image/2_abies_alba_pyramidalis/medium/49255769768_df55596553_b.jpg","small_url":"https://perenual.com/storage/species_image/2_abies_alba_pyramidalis/small/49255769768_df55596553_b.jpg","thumbnail":"https://perenual.com/storage/species_image/2_abies_alba_pyramidalis/thumbnail/49255769768_df55596553_b.jpg"}},{"id":1317,"common_name":"rutabaga","scientific_name":["Brassica napus (Napobrassica Group)"],"other_name":null,"cycle":"Perennial","watering":"Average","sunlight":[],"default_image":{"image_id":3088,"license":4,"license_name":"Attribution License","license_url":"https://creativecommons.org/licenses/by/2.0/","original_url":"https://perenual.com/storage/species_image/1317_brassica_napus_napobrassica_group/og/51997317516_789eafcc91_b.jpg","regular_url":"https://perenual.com/storage/species_image/1317_brassica_napus_napobrassica_group/regular/51997317516_789eafcc91_b.jpg","medium_url":"https://perenual.com/storage/species_image/1317_brassica_napus_napobrassica_group/medium/51997317516_789eafcc91_b.jpg","small_url":"https://perenual.com/storage/species_image/1317_brassica_napus_napobrassica_group/small/51997317516_789eafcc91_b.jpg","thumbnail":"https://perenual.com/storage/species_image/1317_brassica_napus_napobrassica_group/thumbnail/51997317516_789eafcc91_b.jpg"}},{"id":1318,"common_name":"rapeseed","scientific_name":["Brassica napus (Oleifera Group)"],"other_name":null,"cycle":"Perennial","watering":"Average","sunlight":[],"default_image":{"image_id":3089,"license":4,"license_name":"Attribution License","license_url":"https://creativecommons.org/licenses/by/2.0/","original_url":"https://perenual.com/storage/species_image/1318_brassica_napus_oleifera_group/og/52176476596_b973b8482f_b.jpg","regular_url":"https://perenual.com/storage/species_image/1318_brassica_napus_oleifera_group/regular/52176476596_b973b8482f_b.jpg","medium_url":"https://perenual.com/storage/species_image/1318_brassica_napus_oleifera_group/medium/52176476596_b973b8482f_b.jpg","small_url":"https://perenual.com/storage/species_image/1318_brassica_napus_oleifera_group/small/52176476596_b973b8482f_b.jpg","thumbnail":"https://perenual.com/storage/species_image/1318_brassica_napus_oleifera_group/thumbnail/52176476596_b973b8482f_b.jpg"}},{"id":1319,"common_name":"Siberian kale","scientific_name":["Brassica napus (Pabularia Group)"],"other_name":null,"cycle":"Perennial","watering":"Average","sunlight":[],"default_image":{"image_id":9,"license":5,"license_name":"Attribution-ShareAlike License","license_url":"https://creativecommons.org/licenses/by-sa/2.0/","original_url":"https://perenual.com/storage/species_image/2_abies_alba_pyramidalis/og/49255769768_df55596553_b.jpg","regular_url":"https://perenual.com/storage/species_image/2_abies_alba_pyramidalis/regular/49255769768_df55596553_b.jpg","medium_url":"https://perenual.com/storage/species_image/2_abies_alba_pyramidalis/medium/49255769768_df55596553_b.jpg","small_url":"https://perenual.com/storage/species_image/2_abies_alba_pyramidalis/small/49255769768_df55596553_b.jpg","thumbnail":"https://perenual.com/storage/species_image/2_abies_alba_pyramidalis/thumbnail/49255769768_df55596553_b.jpg"}},{"id":1320,"common_name":"kale","scientific_name":["Brassica oleracea (Acephala Group) 'Redbor'"],"other_name":null,"cycle":"Perennial","watering":"Average","sunlight":[],"default_image":{"image_id":9,"license":5,"license_name":"Attribution-ShareAlike License","license_url":"https://creativecommons.org/licenses/by-sa/2.0/","original_url":"https://perenual.com/storage/species_image/2_abies_alba_pyramidalis/og/49255769768_df55596553_b.jpg","regular_url":"https://perenual.com/storage/species_image/2_abies_alba_pyramidalis/regular/49255769768_df55596553_b.jpg","medium_url":"https://perenual.com/storage/species_image/2_abies_alba_pyramidalis/medium/49255769768_df55596553_b.jpg","small_url":"https://perenual.com/storage/species_image/2_abies_alba_pyramidalis/small/49255769768_df55596553_b.jpg","thumbnail":"https://perenual.com/storage/species_image/2_abies_alba_pyramidalis/thumbnail/49255769768_df55596553_b.jpg"}}],"to":1320,"per_page":30,"current_page":44,"from":1291,"last_page":200,"total":6000}