{"data":[{"id":1561,"common_name":"willow bell","scientific_name":["Campanula persicifolia 'Kelly's Gold'"],"other_name":["peach-leaved bellflower"],"cycle":"Perennial","watering":"Average","sunlight":[],"default_image":null},{"id":1562,"common_name":"willow bell","scientific_name":["Campanula persicifolia 'Telham Beauty'"],"other_name":["peach-leaved bellflower"],"cycle":"Perennial","watering":"Average","sunlight":[],"default_image":{"image_id":3644,"license":5,"license_name":"Attribution-ShareAlike License","license_url":"https://creativecommons.org/licenses/by-sa/2.0/","original_url":"https://perenual.com/storage/species_image/1562_campanula_persicifolia_telham_beauty/og/32892665073_38f29b391e_b.jpg","regular_url":"https://perenual.com/storage/species_image/1562_campanula_persicifolia_telham_beauty/regular/32892665073_38f29b391e_b.jpg","medium_url":"https://perenual.com/storage/species_image/1562_campanula_persicifolia_telham_beauty/medium/32892665073_38f29b391e_b.jpg","small_url":"https://perenual.com/storage/species_image/1562_campanula_persicifolia_telham_beauty/small/32892665073_38f29b391e_b.jpg","thumbnail":"https://perenual.com/storage/species_image/1562_campanula_persicifolia_telham_beauty/thumbnail/32892665073_38f29b391e_b.jpg"}},{"id":1563,"common_name":"Dalmation bellflower","scientific_name":["Campanula portenschlagiana 'Aurea'"],"other_name":null,"cycle":"Perennial","watering":"Average","sunlight":["Full sun","part shade"],"default_image":{"image_id":9,"license":5,"license_name":"Attribution-ShareAlike License","license_url":"https://creativecommons.org/licenses/by-sa/2.0/","original_url":"https://perenual.com/storage/species_image/2_abies_alba_pyramidalis/og/49255769768_df55596553_b.jpg","regular_url":"https://perenual.com/storage/species_image/2_abies_alba_pyramidalis/regular/49255769768_df55596553_b.jpg","medium_url":"https://perenual.com/storage/species_image/2_abies_alba_pyramidalis/medium/49255769768_df55596553_b.jpg","small_url":"https://perenual.com/storage/species_image/2_abies_alba_pyramidalis/small/49255769768_df55596553_b.jpg","thumbnail":"https://perenual.com/storage/species_image/2_abies_alba_pyramidalis/thumbnail/49255769768_df55596553_b.jpg"}},{"id":1564,"common_name":"Serbian bellflower","scientific_name":["Campanula poscharskyana"],"other_name":["Serbian bellflower"],"cycle":"Perennial","watering":"Average","sunlight":["Full sun","part shade"],"default_image":{"image_id":3647,"license":5,"license_name":"Attribution-ShareAlike License","license_url":"https://creativecommons.org/licenses/by-sa/2.0/","original_url":"https://perenual.com/storage/species_image/1564_campanula_poscharskyana/og/9200950810_01009796cd_b.jpg","regular_url":"https://perenual.com/storage/species_image/1564_campanula_poscharskyana/regular/9200950810_01009796cd_b.jpg","medium_url":"https://perenual.com/storage/species_image/1564_campanula_poscharskyana/medium/9200950810_01009796cd_b.jpg","small_url":"https://perenual.com/storage/species_image/1564_campanula_poscharskyana/small/9200950810_01009796cd_b.jpg","thumbnail":"https://perenual.com/storage/species_image/1564_campanula_poscharskyana/thumbnail/9200950810_01009796cd_b.jpg"}},{"id":1565,"common_name":"Serbian bellflower","scientific_name":["Campanula poscharskyana 'Stella'"],"other_name":null,"cycle":"Perennial","watering":"Average","sunlight":["Full sun","part shade"],"default_image":{"image_id":9,"license":5,"license_name":"Attribution-ShareAlike License","license_url":"https://creativecommons.org/licenses/by-sa/2.0/","original_url":"https://perenual.com/storage/species_image/2_abies_alba_pyramidalis/og/49255769768_df55596553_b.jpg","regular_url":"https://perenual.com/storage/species_image/2_abies_alba_pyramidalis/regular/49255769768_df55596553_b.jpg","medium_url":"https://perenual.com/storage/species_image/2_abies_alba_pyramidalis/medium/49255769768_df55596553_b.jpg","small_url":"https://perenual.com/storage/species_image/2_abies_alba_pyramidalis/small/49255769768_df55596553_b.jpg","thumbnail":"https://perenual.com/storage/species_image/2_abies_alba_pyramidalis/thumbnail/49255769768_df55596553_b.jpg"}},{"id":1566,"common_name":"spotted bellflower","scientific_name":["Campanula punctata"],"other_name":null,"cycle":"Perennial","watering":"Average","sunlight":["Full sun","part shade"],"default_image":{"image_id":3651,"license":5,"license_name":"Attribution-ShareAlike License","license_url":"https://creativecommons.org/licenses/by-sa/2.0/","original_url":"https://perenual.com/storage/species_image/1566_campanula_punctata/og/33665288036_15c10f4b8b_b.jpg","regular_url":"https://perenual.com/storage/species_image/1566_campanula_punctata/regular/33665288036_15c10f4b8b_b.jpg","medium_url":"https://perenual.com/storage/species_image/1566_campanula_punctata/medium/33665288036_15c10f4b8b_b.jpg","small_url":"https://perenual.com/storage/species_image/1566_campanula_punctata/small/33665288036_15c10f4b8b_b.jpg","thumbnail":"https://perenual.com/storage/species_image/1566_campanula_punctata/thumbnail/33665288036_15c10f4b8b_b.jpg"}},{"id":1567,"common_name":"spotted bellflower","scientific_name":["Campanula punctata 'Cherry Bells'"],"other_name":null,"cycle":"Perennial","watering":"Average","sunlight":["Full sun","part shade"],"default_image":{"image_id":9,"license":5,"license_name":"Attribution-ShareAlike License","license_url":"https://creativecommons.org/licenses/by-sa/2.0/","original_url":"https://perenual.com/storage/species_image/2_abies_alba_pyramidalis/og/49255769768_df55596553_b.jpg","regular_url":"https://perenual.com/storage/species_image/2_abies_alba_pyramidalis/regular/49255769768_df55596553_b.jpg","medium_url":"https://perenual.com/storage/species_image/2_abies_alba_pyramidalis/medium/49255769768_df55596553_b.jpg","small_url":"https://perenual.com/storage/species_image/2_abies_alba_pyramidalis/small/49255769768_df55596553_b.jpg","thumbnail":"https://perenual.com/storage/species_image/2_abies_alba_pyramidalis/thumbnail/49255769768_df55596553_b.jpg"}},{"id":1568,"common_name":"spotted bellflower","scientific_name":["Campanula punctata 'Pink Chimes'"],"other_name":null,"cycle":"Perennial","watering":"Average","sunlight":["Full sun","part shade"],"default_image":{"image_id":9,"license":5,"license_name":"Attribution-ShareAlike License","license_url":"https://creativecommons.org/licenses/by-sa/2.0/","original_url":"https://perenual.com/storage/species_image/2_abies_alba_pyramidalis/og/49255769768_df55596553_b.jpg","regular_url":"https://perenual.com/storage/species_image/2_abies_alba_pyramidalis/regular/49255769768_df55596553_b.jpg","medium_url":"https://perenual.com/storage/species_image/2_abies_alba_pyramidalis/medium/49255769768_df55596553_b.jpg","small_url":"https://perenual.com/storage/species_image/2_abies_alba_pyramidalis/small/49255769768_df55596553_b.jpg","thumbnail":"https://perenual.com/storage/species_image/2_abies_alba_pyramidalis/thumbnail/49255769768_df55596553_b.jpg"}},{"id":1569,"common_name":"rampion bellflower","scientific_name":["Campanula rapunculoides"],"other_name":["Rampion Bellflower"],"cycle":"Perennial","watering":"Average","sunlight":["Sun"," Partial Shade"],"default_image":{"image_id":3659,"license":4,"license_name":"Attribution License","license_url":"https://creativecommons.org/licenses/by/2.0/","original_url":"https://perenual.com/storage/species_image/1569_campanula_rapunculoides/og/51423217822_3779a56dc1_b.jpg","regular_url":"https://perenual.com/storage/species_image/1569_campanula_rapunculoides/regular/51423217822_3779a56dc1_b.jpg","medium_url":"https://perenual.com/storage/species_image/1569_campanula_rapunculoides/medium/51423217822_3779a56dc1_b.jpg","small_url":"https://perenual.com/storage/species_image/1569_campanula_rapunculoides/small/51423217822_3779a56dc1_b.jpg","thumbnail":"https://perenual.com/storage/species_image/1569_campanula_rapunculoides/thumbnail/51423217822_3779a56dc1_b.jpg"}},{"id":1570,"common_name":"rampion","scientific_name":["Campanula rapunculus"],"other_name":null,"cycle":"Perennial","watering":"Average","sunlight":["Full sun","part shade"],"default_image":{"image_id":3665,"license":5,"license_name":"Attribution-ShareAlike License","license_url":"https://creativecommons.org/licenses/by-sa/2.0/","original_url":"https://perenual.com/storage/species_image/1570_campanula_rapunculus/og/34343129703_3e180fc119_b.jpg","regular_url":"https://perenual.com/storage/species_image/1570_campanula_rapunculus/regular/34343129703_3e180fc119_b.jpg","medium_url":"https://perenual.com/storage/species_image/1570_campanula_rapunculus/medium/34343129703_3e180fc119_b.jpg","small_url":"https://perenual.com/storage/species_image/1570_campanula_rapunculus/small/34343129703_3e180fc119_b.jpg","thumbnail":"https://perenual.com/storage/species_image/1570_campanula_rapunculus/thumbnail/34343129703_3e180fc119_b.jpg"}},{"id":1571,"common_name":"bluebell","scientific_name":["Campanula rotundifolia"],"other_name":["Bluebell","Scotch Bellflower","Bluebell Of Scotland","Scotch Bellflower","Bluebell Of Scotland"],"cycle":"Perennial","watering":"Minimum","sunlight":["Sun"," Partial Shade"],"default_image":{"image_id":3670,"license":4,"license_name":"Attribution License","license_url":"https://creativecommons.org/licenses/by/2.0/","original_url":"https://perenual.com/storage/species_image/1571_campanula_rotundifolia/og/52225170051_f3ac817741_b.jpg","regular_url":"https://perenual.com/storage/species_image/1571_campanula_rotundifolia/regular/52225170051_f3ac817741_b.jpg","medium_url":"https://perenual.com/storage/species_image/1571_campanula_rotundifolia/medium/52225170051_f3ac817741_b.jpg","small_url":"https://perenual.com/storage/species_image/1571_campanula_rotundifolia/small/52225170051_f3ac817741_b.jpg","thumbnail":"https://perenual.com/storage/species_image/1571_campanula_rotundifolia/thumbnail/52225170051_f3ac817741_b.jpg"}},{"id":1572,"common_name":"bluebell","scientific_name":["Campanula rotundifolia 'Olympica'"],"other_name":["Bluebell","Scotch Bellflower","Bluebell Of Scotland","Scotch Bellflower","Bluebell Of Scotland"],"cycle":"Perennial","watering":"Minimum","sunlight":["Sun"," Partial Shade"],"default_image":null},{"id":1573,"common_name":"bellflower","scientific_name":["Campanula 'Sarastro'"],"other_name":null,"cycle":"Perennial","watering":"Average","sunlight":["Full sun","part shade"],"default_image":{"image_id":3672,"license":4,"license_name":"Attribution License","license_url":"https://creativecommons.org/licenses/by/2.0/","original_url":"https://perenual.com/storage/species_image/1573_campanula_sarastro/og/7448818318_3d876ec0f0_b.jpg","regular_url":"https://perenual.com/storage/species_image/1573_campanula_sarastro/regular/7448818318_3d876ec0f0_b.jpg","medium_url":"https://perenual.com/storage/species_image/1573_campanula_sarastro/medium/7448818318_3d876ec0f0_b.jpg","small_url":"https://perenual.com/storage/species_image/1573_campanula_sarastro/small/7448818318_3d876ec0f0_b.jpg","thumbnail":"https://perenual.com/storage/species_image/1573_campanula_sarastro/thumbnail/7448818318_3d876ec0f0_b.jpg"}},{"id":1574,"common_name":"bellflower","scientific_name":["Campanula sarmatica"],"other_name":null,"cycle":"Perennial","watering":"Average","sunlight":["Full sun","part shade"],"default_image":{"image_id":3677,"license":4,"license_name":"Attribution License","license_url":"https://creativecommons.org/licenses/by/2.0/","original_url":"https://perenual.com/storage/species_image/1574_campanula_sarmatica/og/52241837273_6e125a2a7d_b.jpg","regular_url":"https://perenual.com/storage/species_image/1574_campanula_sarmatica/regular/52241837273_6e125a2a7d_b.jpg","medium_url":"https://perenual.com/storage/species_image/1574_campanula_sarmatica/medium/52241837273_6e125a2a7d_b.jpg","small_url":"https://perenual.com/storage/species_image/1574_campanula_sarmatica/small/52241837273_6e125a2a7d_b.jpg","thumbnail":"https://perenual.com/storage/species_image/1574_campanula_sarmatica/thumbnail/52241837273_6e125a2a7d_b.jpg"}},{"id":1575,"common_name":"bellflower","scientific_name":["Campanula 'Summertime Blues'"],"other_name":null,"cycle":"Perennial","watering":"Average","sunlight":["Full sun","part shade"],"default_image":{"image_id":3618,"license":5,"license_name":"Attribution-ShareAlike License","license_url":"https://creativecommons.org/licenses/by-sa/2.0/","original_url":"https://perenual.com/storage/species_image/1575_campanula_summertime_blues/og/52524376869_6ed3cd8d33_b.jpg","regular_url":"https://perenual.com/storage/species_image/1575_campanula_summertime_blues/regular/52524376869_6ed3cd8d33_b.jpg","medium_url":"https://perenual.com/storage/species_image/1575_campanula_summertime_blues/medium/52524376869_6ed3cd8d33_b.jpg","small_url":"https://perenual.com/storage/species_image/1575_campanula_summertime_blues/small/52524376869_6ed3cd8d33_b.jpg","thumbnail":"https://perenual.com/storage/species_image/1575_campanula_summertime_blues/thumbnail/52524376869_6ed3cd8d33_b.jpg"}},{"id":1576,"common_name":"bellflower","scientific_name":["Campanula takesimana 'Beautiful Trust'"],"other_name":null,"cycle":"Perennial","watering":"Average","sunlight":["Full sun","part shade"],"default_image":{"image_id":9,"license":5,"license_name":"Attribution-ShareAlike License","license_url":"https://creativecommons.org/licenses/by-sa/2.0/","original_url":"https://perenual.com/storage/species_image/2_abies_alba_pyramidalis/og/49255769768_df55596553_b.jpg","regular_url":"https://perenual.com/storage/species_image/2_abies_alba_pyramidalis/regular/49255769768_df55596553_b.jpg","medium_url":"https://perenual.com/storage/species_image/2_abies_alba_pyramidalis/medium/49255769768_df55596553_b.jpg","small_url":"https://perenual.com/storage/species_image/2_abies_alba_pyramidalis/small/49255769768_df55596553_b.jpg","thumbnail":"https://perenual.com/storage/species_image/2_abies_alba_pyramidalis/thumbnail/49255769768_df55596553_b.jpg"}},{"id":1577,"common_name":"bellflower","scientific_name":["Campanula takesimana 'Elizabeth'"],"other_name":null,"cycle":"Perennial","watering":"Average","sunlight":["Full sun","part shade"],"default_image":{"image_id":9,"license":5,"license_name":"Attribution-ShareAlike License","license_url":"https://creativecommons.org/licenses/by-sa/2.0/","original_url":"https://perenual.com/storage/species_image/2_abies_alba_pyramidalis/og/49255769768_df55596553_b.jpg","regular_url":"https://perenual.com/storage/species_image/2_abies_alba_pyramidalis/regular/49255769768_df55596553_b.jpg","medium_url":"https://perenual.com/storage/species_image/2_abies_alba_pyramidalis/medium/49255769768_df55596553_b.jpg","small_url":"https://perenual.com/storage/species_image/2_abies_alba_pyramidalis/small/49255769768_df55596553_b.jpg","thumbnail":"https://perenual.com/storage/species_image/2_abies_alba_pyramidalis/thumbnail/49255769768_df55596553_b.jpg"}},{"id":1578,"common_name":"nettle-leaved bellflower","scientific_name":["Campanula trachelium"],"other_name":null,"cycle":"Perennial","watering":"Average","sunlight":[],"default_image":{"image_id":3682,"license":4,"license_name":"Attribution License","license_url":"https://creativecommons.org/licenses/by/2.0/","original_url":"https://perenual.com/storage/species_image/1578_campanula_trachelium/og/51866157544_557753af80_b.jpg","regular_url":"https://perenual.com/storage/species_image/1578_campanula_trachelium/regular/51866157544_557753af80_b.jpg","medium_url":"https://perenual.com/storage/species_image/1578_campanula_trachelium/medium/51866157544_557753af80_b.jpg","small_url":"https://perenual.com/storage/species_image/1578_campanula_trachelium/small/51866157544_557753af80_b.jpg","thumbnail":"https://perenual.com/storage/species_image/1578_campanula_trachelium/thumbnail/51866157544_557753af80_b.jpg"}},{"id":1579,"common_name":"Chinese trumpet creeper","scientific_name":["Campsis grandiflora"],"other_name":null,"cycle":"Perennial","watering":"Average","sunlight":["Full sun","part shade"],"default_image":{"image_id":3692,"license":5,"license_name":"Attribution-ShareAlike License","license_url":"https://creativecommons.org/licenses/by-sa/2.0/","original_url":"https://perenual.com/storage/species_image/1579_campsis_grandiflora/og/22502846170_841f07241b_b.jpg","regular_url":"https://perenual.com/storage/species_image/1579_campsis_grandiflora/regular/22502846170_841f07241b_b.jpg","medium_url":"https://perenual.com/storage/species_image/1579_campsis_grandiflora/medium/22502846170_841f07241b_b.jpg","small_url":"https://perenual.com/storage/species_image/1579_campsis_grandiflora/small/22502846170_841f07241b_b.jpg","thumbnail":"https://perenual.com/storage/species_image/1579_campsis_grandiflora/thumbnail/22502846170_841f07241b_b.jpg"}},{"id":1580,"common_name":"Chinese trumpet creeper","scientific_name":["Campsis grandiflora 'Morning Calm'"],"other_name":null,"cycle":"Perennial","watering":"Average","sunlight":["Full sun","part shade"],"default_image":{"image_id":9,"license":5,"license_name":"Attribution-ShareAlike License","license_url":"https://creativecommons.org/licenses/by-sa/2.0/","original_url":"https://perenual.com/storage/species_image/2_abies_alba_pyramidalis/og/49255769768_df55596553_b.jpg","regular_url":"https://perenual.com/storage/species_image/2_abies_alba_pyramidalis/regular/49255769768_df55596553_b.jpg","medium_url":"https://perenual.com/storage/species_image/2_abies_alba_pyramidalis/medium/49255769768_df55596553_b.jpg","small_url":"https://perenual.com/storage/species_image/2_abies_alba_pyramidalis/small/49255769768_df55596553_b.jpg","thumbnail":"https://perenual.com/storage/species_image/2_abies_alba_pyramidalis/thumbnail/49255769768_df55596553_b.jpg"}},{"id":1581,"common_name":"trumpetcreeper","scientific_name":["Campsis radicans"],"other_name":["common trumpet creeper","Trumpet Vine","Cow Vine","Cow Itch"],"cycle":"Perennial","watering":"Frequent","sunlight":["Sun"," Partial Shade"],"default_image":{"image_id":9,"license":5,"license_name":"Attribution-ShareAlike License","license_url":"https://creativecommons.org/licenses/by-sa/2.0/","original_url":"https://perenual.com/storage/species_image/2_abies_alba_pyramidalis/og/49255769768_df55596553_b.jpg","regular_url":"https://perenual.com/storage/species_image/2_abies_alba_pyramidalis/regular/49255769768_df55596553_b.jpg","medium_url":"https://perenual.com/storage/species_image/2_abies_alba_pyramidalis/medium/49255769768_df55596553_b.jpg","small_url":"https://perenual.com/storage/species_image/2_abies_alba_pyramidalis/small/49255769768_df55596553_b.jpg","thumbnail":"https://perenual.com/storage/species_image/2_abies_alba_pyramidalis/thumbnail/49255769768_df55596553_b.jpg"}},{"id":1582,"common_name":"trumpetcreeper","scientific_name":["Campsis radicans 'Apricot'"],"other_name":["common trumpet creeper","Trumpet Vine","Cow Vine","Cow Itch"],"cycle":"Perennial","watering":"Frequent","sunlight":["Sun"," Partial Shade"],"default_image":{"image_id":3697,"license":5,"license_name":"Attribution-ShareAlike License","license_url":"https://creativecommons.org/licenses/by-sa/2.0/","original_url":"https://perenual.com/storage/species_image/1582_campsis_radicans_apricot/og/36279095901_81f9d22f19_b.jpg","regular_url":"https://perenual.com/storage/species_image/1582_campsis_radicans_apricot/regular/36279095901_81f9d22f19_b.jpg","medium_url":"https://perenual.com/storage/species_image/1582_campsis_radicans_apricot/medium/36279095901_81f9d22f19_b.jpg","small_url":"https://perenual.com/storage/species_image/1582_campsis_radicans_apricot/small/36279095901_81f9d22f19_b.jpg","thumbnail":"https://perenual.com/storage/species_image/1582_campsis_radicans_apricot/thumbnail/36279095901_81f9d22f19_b.jpg"}},{"id":1583,"common_name":"trumpetcreeper","scientific_name":["Campsis radicans f. flava"],"other_name":["common trumpet creeper","Trumpet Vine","Cow Vine","Cow Itch"],"cycle":"Perennial","watering":"Frequent","sunlight":["Sun"," Partial Shade"],"default_image":{"image_id":9,"license":5,"license_name":"Attribution-ShareAlike License","license_url":"https://creativecommons.org/licenses/by-sa/2.0/","original_url":"https://perenual.com/storage/species_image/2_abies_alba_pyramidalis/og/49255769768_df55596553_b.jpg","regular_url":"https://perenual.com/storage/species_image/2_abies_alba_pyramidalis/regular/49255769768_df55596553_b.jpg","medium_url":"https://perenual.com/storage/species_image/2_abies_alba_pyramidalis/medium/49255769768_df55596553_b.jpg","small_url":"https://perenual.com/storage/species_image/2_abies_alba_pyramidalis/small/49255769768_df55596553_b.jpg","thumbnail":"https://perenual.com/storage/species_image/2_abies_alba_pyramidalis/thumbnail/49255769768_df55596553_b.jpg"}},{"id":1584,"common_name":"trumpetcreeper","scientific_name":["Campsis radicans 'Indian Summer'"],"other_name":["common trumpet creeper","Trumpet Vine","Cow Vine","Cow Itch"],"cycle":"Perennial","watering":"Frequent","sunlight":["Sun"," Partial Shade"],"default_image":{"image_id":21996,"license":1,"license_name":null,"license_url":null,"original_url":"https://perenual.com/storage/species_image/1584_campsis_radicans_indian_summer/og/47513031011_4f5d37bbd3_b.jpg","regular_url":"https://perenual.com/storage/species_image/1584_campsis_radicans_indian_summer/regular/47513031011_4f5d37bbd3_b.jpg","medium_url":"https://perenual.com/storage/species_image/1584_campsis_radicans_indian_summer/medium/47513031011_4f5d37bbd3_b.jpg","small_url":"https://perenual.com/storage/species_image/1584_campsis_radicans_indian_summer/small/47513031011_4f5d37bbd3_b.jpg","thumbnail":"https://perenual.com/storage/species_image/1584_campsis_radicans_indian_summer/thumbnail/47513031011_4f5d37bbd3_b.jpg"}},{"id":1585,"common_name":"trumpet creeper","scientific_name":["Campsis tagliabuana"],"other_name":null,"cycle":"Perennial","watering":"Average","sunlight":["Full sun","part shade"],"default_image":{"image_id":3703,"license":5,"license_name":"Attribution-ShareAlike License","license_url":"https://creativecommons.org/licenses/by-sa/2.0/","original_url":"https://perenual.com/storage/species_image/1585_campsis_tagliabuana/og/42294157255_2c3c771450_b.jpg","regular_url":"https://perenual.com/storage/species_image/1585_campsis_tagliabuana/regular/42294157255_2c3c771450_b.jpg","medium_url":"https://perenual.com/storage/species_image/1585_campsis_tagliabuana/medium/42294157255_2c3c771450_b.jpg","small_url":"https://perenual.com/storage/species_image/1585_campsis_tagliabuana/small/42294157255_2c3c771450_b.jpg","thumbnail":"https://perenual.com/storage/species_image/1585_campsis_tagliabuana/thumbnail/42294157255_2c3c771450_b.jpg"}},{"id":1586,"common_name":"trumpet creeper","scientific_name":["Campsis tagliabuana 'Madame Galen'"],"other_name":null,"cycle":"Perennial","watering":"Average","sunlight":["Full sun","part shade"],"default_image":{"image_id":3710,"license":5,"license_name":"Attribution-ShareAlike License","license_url":"https://creativecommons.org/licenses/by-sa/2.0/","original_url":"https://perenual.com/storage/species_image/1586_campsis_tagliabuana_madame_galen/og/35872419103_37f0a6585f_b.jpg","regular_url":"https://perenual.com/storage/species_image/1586_campsis_tagliabuana_madame_galen/regular/35872419103_37f0a6585f_b.jpg","medium_url":"https://perenual.com/storage/species_image/1586_campsis_tagliabuana_madame_galen/medium/35872419103_37f0a6585f_b.jpg","small_url":"https://perenual.com/storage/species_image/1586_campsis_tagliabuana_madame_galen/small/35872419103_37f0a6585f_b.jpg","thumbnail":"https://perenual.com/storage/species_image/1586_campsis_tagliabuana_madame_galen/thumbnail/35872419103_37f0a6585f_b.jpg"}},{"id":1587,"common_name":"camptosema","scientific_name":["Camptosema praeandinum"],"other_name":null,"cycle":"Perennial","watering":"Average","sunlight":["Full sun","part shade"],"default_image":{"image_id":9,"license":5,"license_name":"Attribution-ShareAlike License","license_url":"https://creativecommons.org/licenses/by-sa/2.0/","original_url":"https://perenual.com/storage/species_image/2_abies_alba_pyramidalis/og/49255769768_df55596553_b.jpg","regular_url":"https://perenual.com/storage/species_image/2_abies_alba_pyramidalis/regular/49255769768_df55596553_b.jpg","medium_url":"https://perenual.com/storage/species_image/2_abies_alba_pyramidalis/medium/49255769768_df55596553_b.jpg","small_url":"https://perenual.com/storage/species_image/2_abies_alba_pyramidalis/small/49255769768_df55596553_b.jpg","thumbnail":"https://perenual.com/storage/species_image/2_abies_alba_pyramidalis/thumbnail/49255769768_df55596553_b.jpg"}},{"id":1588,"common_name":"canna","scientific_name":["Canna (aquatic group)"],"other_name":null,"cycle":"Perennial","watering":"Frequent","sunlight":["Full sun","part shade"],"default_image":{"image_id":3714,"license":5,"license_name":"Attribution-ShareAlike License","license_url":"https://creativecommons.org/licenses/by-sa/2.0/","original_url":"https://perenual.com/storage/species_image/1588_canna_aquatic_group/og/52329644502_d62a513ae5_b.jpg","regular_url":"https://perenual.com/storage/species_image/1588_canna_aquatic_group/regular/52329644502_d62a513ae5_b.jpg","medium_url":"https://perenual.com/storage/species_image/1588_canna_aquatic_group/medium/52329644502_d62a513ae5_b.jpg","small_url":"https://perenual.com/storage/species_image/1588_canna_aquatic_group/small/52329644502_d62a513ae5_b.jpg","thumbnail":"https://perenual.com/storage/species_image/1588_canna_aquatic_group/thumbnail/52329644502_d62a513ae5_b.jpg"}},{"id":1589,"common_name":"canna","scientific_name":["Canna 'Australia'"],"other_name":null,"cycle":"Perennial","watering":"Average","sunlight":["Full sun"],"default_image":{"image_id":9,"license":5,"license_name":"Attribution-ShareAlike License","license_url":"https://creativecommons.org/licenses/by-sa/2.0/","original_url":"https://perenual.com/storage/species_image/2_abies_alba_pyramidalis/og/49255769768_df55596553_b.jpg","regular_url":"https://perenual.com/storage/species_image/2_abies_alba_pyramidalis/regular/49255769768_df55596553_b.jpg","medium_url":"https://perenual.com/storage/species_image/2_abies_alba_pyramidalis/medium/49255769768_df55596553_b.jpg","small_url":"https://perenual.com/storage/species_image/2_abies_alba_pyramidalis/small/49255769768_df55596553_b.jpg","thumbnail":"https://perenual.com/storage/species_image/2_abies_alba_pyramidalis/thumbnail/49255769768_df55596553_b.jpg"}},{"id":1590,"common_name":"canna","scientific_name":["Canna (group)"],"other_name":null,"cycle":"Perennial","watering":"Average","sunlight":["Full sun"],"default_image":{"image_id":3719,"license":5,"license_name":"Attribution-ShareAlike License","license_url":"https://creativecommons.org/licenses/by-sa/2.0/","original_url":"https://perenual.com/storage/species_image/1590_canna_group/og/4922031741_b0bf8b98ee_b.jpg","regular_url":"https://perenual.com/storage/species_image/1590_canna_group/regular/4922031741_b0bf8b98ee_b.jpg","medium_url":"https://perenual.com/storage/species_image/1590_canna_group/medium/4922031741_b0bf8b98ee_b.jpg","small_url":"https://perenual.com/storage/species_image/1590_canna_group/small/4922031741_b0bf8b98ee_b.jpg","thumbnail":"https://perenual.com/storage/species_image/1590_canna_group/thumbnail/4922031741_b0bf8b98ee_b.jpg"}}],"to":1590,"per_page":30,"current_page":53,"from":1561,"last_page":200,"total":6000}