{"data":[{"id":4741,"common_name":"bush clover","scientific_name":["Lespedeza bicolor 'Yakushima'"],"other_name":null,"cycle":"Perennial","watering":"Minimum","sunlight":["Full sun","part shade"],"default_image":{"image_id":9950,"license":5,"license_name":"Attribution-ShareAlike License","license_url":"https://creativecommons.org/licenses/by-sa/2.0/","original_url":"https://perenual.com/storage/species_image/4741_lespedeza_bicolor_yakushima/og/4939573886_3153375310_b.jpg","regular_url":"https://perenual.com/storage/species_image/4741_lespedeza_bicolor_yakushima/regular/4939573886_3153375310_b.jpg","medium_url":"https://perenual.com/storage/species_image/4741_lespedeza_bicolor_yakushima/medium/4939573886_3153375310_b.jpg","small_url":"https://perenual.com/storage/species_image/4741_lespedeza_bicolor_yakushima/small/4939573886_3153375310_b.jpg","thumbnail":"https://perenual.com/storage/species_image/4741_lespedeza_bicolor_yakushima/thumbnail/4939573886_3153375310_b.jpg"}},{"id":4742,"common_name":"bush clover","scientific_name":["Lespedeza capitata"],"other_name":null,"cycle":"Perennial","watering":"Minimum","sunlight":["Full sun","part shade"],"default_image":{"image_id":9,"license":5,"license_name":"Attribution-ShareAlike License","license_url":"https://creativecommons.org/licenses/by-sa/2.0/","original_url":"https://perenual.com/storage/species_image/2_abies_alba_pyramidalis/og/49255769768_df55596553_b.jpg","regular_url":"https://perenual.com/storage/species_image/2_abies_alba_pyramidalis/regular/49255769768_df55596553_b.jpg","medium_url":"https://perenual.com/storage/species_image/2_abies_alba_pyramidalis/medium/49255769768_df55596553_b.jpg","small_url":"https://perenual.com/storage/species_image/2_abies_alba_pyramidalis/small/49255769768_df55596553_b.jpg","thumbnail":"https://perenual.com/storage/species_image/2_abies_alba_pyramidalis/thumbnail/49255769768_df55596553_b.jpg"}},{"id":4743,"common_name":"bush clover","scientific_name":["Lespedeza japonica"],"other_name":null,"cycle":"Perennial","watering":"Average","sunlight":["Full sun","part shade"],"default_image":{"image_id":9,"license":5,"license_name":"Attribution-ShareAlike License","license_url":"https://creativecommons.org/licenses/by-sa/2.0/","original_url":"https://perenual.com/storage/species_image/2_abies_alba_pyramidalis/og/49255769768_df55596553_b.jpg","regular_url":"https://perenual.com/storage/species_image/2_abies_alba_pyramidalis/regular/49255769768_df55596553_b.jpg","medium_url":"https://perenual.com/storage/species_image/2_abies_alba_pyramidalis/medium/49255769768_df55596553_b.jpg","small_url":"https://perenual.com/storage/species_image/2_abies_alba_pyramidalis/small/49255769768_df55596553_b.jpg","thumbnail":"https://perenual.com/storage/species_image/2_abies_alba_pyramidalis/thumbnail/49255769768_df55596553_b.jpg"}},{"id":4744,"common_name":"bush clover","scientific_name":["Lespedeza thunbergii"],"other_name":null,"cycle":"Perennial","watering":"Average","sunlight":["Full sun","part shade"],"default_image":{"image_id":9,"license":5,"license_name":"Attribution-ShareAlike License","license_url":"https://creativecommons.org/licenses/by-sa/2.0/","original_url":"https://perenual.com/storage/species_image/2_abies_alba_pyramidalis/og/49255769768_df55596553_b.jpg","regular_url":"https://perenual.com/storage/species_image/2_abies_alba_pyramidalis/regular/49255769768_df55596553_b.jpg","medium_url":"https://perenual.com/storage/species_image/2_abies_alba_pyramidalis/medium/49255769768_df55596553_b.jpg","small_url":"https://perenual.com/storage/species_image/2_abies_alba_pyramidalis/small/49255769768_df55596553_b.jpg","thumbnail":"https://perenual.com/storage/species_image/2_abies_alba_pyramidalis/thumbnail/49255769768_df55596553_b.jpg"}},{"id":4745,"common_name":"bush clover","scientific_name":["Lespedeza thunbergii 'Gibraltar'"],"other_name":null,"cycle":"Perennial","watering":"Average","sunlight":["Full sun","part shade"],"default_image":{"image_id":9,"license":5,"license_name":"Attribution-ShareAlike License","license_url":"https://creativecommons.org/licenses/by-sa/2.0/","original_url":"https://perenual.com/storage/species_image/2_abies_alba_pyramidalis/og/49255769768_df55596553_b.jpg","regular_url":"https://perenual.com/storage/species_image/2_abies_alba_pyramidalis/regular/49255769768_df55596553_b.jpg","medium_url":"https://perenual.com/storage/species_image/2_abies_alba_pyramidalis/medium/49255769768_df55596553_b.jpg","small_url":"https://perenual.com/storage/species_image/2_abies_alba_pyramidalis/small/49255769768_df55596553_b.jpg","thumbnail":"https://perenual.com/storage/species_image/2_abies_alba_pyramidalis/thumbnail/49255769768_df55596553_b.jpg"}},{"id":4746,"common_name":"bush clover","scientific_name":["Lespedeza thunbergii 'Pink Cascade'"],"other_name":null,"cycle":"Perennial","watering":"Average","sunlight":["Full sun","part shade"],"default_image":{"image_id":22035,"license":1,"license_name":null,"license_url":null,"original_url":"https://perenual.com/storage/species_image/4746_lespedeza_thunbergii_pink_cascade/og/42971800990_9848a9bcec_b.jpg","regular_url":"https://perenual.com/storage/species_image/4746_lespedeza_thunbergii_pink_cascade/regular/42971800990_9848a9bcec_b.jpg","medium_url":"https://perenual.com/storage/species_image/4746_lespedeza_thunbergii_pink_cascade/medium/42971800990_9848a9bcec_b.jpg","small_url":"https://perenual.com/storage/species_image/4746_lespedeza_thunbergii_pink_cascade/small/42971800990_9848a9bcec_b.jpg","thumbnail":"https://perenual.com/storage/species_image/4746_lespedeza_thunbergii_pink_cascade/thumbnail/42971800990_9848a9bcec_b.jpg"}},{"id":4747,"common_name":"bush clover","scientific_name":["Lespedeza thunbergii 'Samidare'"],"other_name":null,"cycle":"Perennial","watering":"Average","sunlight":["Full sun","part shade"],"default_image":{"image_id":9966,"license":4,"license_name":"Attribution License","license_url":"https://creativecommons.org/licenses/by/2.0/","original_url":"https://perenual.com/storage/species_image/4747_lespedeza_thunbergii_samidare/og/49960494307_a34264b94b_b.jpg","regular_url":"https://perenual.com/storage/species_image/4747_lespedeza_thunbergii_samidare/regular/49960494307_a34264b94b_b.jpg","medium_url":"https://perenual.com/storage/species_image/4747_lespedeza_thunbergii_samidare/medium/49960494307_a34264b94b_b.jpg","small_url":"https://perenual.com/storage/species_image/4747_lespedeza_thunbergii_samidare/small/49960494307_a34264b94b_b.jpg","thumbnail":"https://perenual.com/storage/species_image/4747_lespedeza_thunbergii_samidare/thumbnail/49960494307_a34264b94b_b.jpg"}},{"id":4748,"common_name":"little volcano bush clover","scientific_name":["Lespedeza thunbergii subsp. thunbergii 'Little Volcano'"],"other_name":null,"cycle":"Perennial","watering":"Average","sunlight":["Full sun","part shade"],"default_image":{"image_id":9,"license":5,"license_name":"Attribution-ShareAlike License","license_url":"https://creativecommons.org/licenses/by-sa/2.0/","original_url":"https://perenual.com/storage/species_image/2_abies_alba_pyramidalis/og/49255769768_df55596553_b.jpg","regular_url":"https://perenual.com/storage/species_image/2_abies_alba_pyramidalis/regular/49255769768_df55596553_b.jpg","medium_url":"https://perenual.com/storage/species_image/2_abies_alba_pyramidalis/medium/49255769768_df55596553_b.jpg","small_url":"https://perenual.com/storage/species_image/2_abies_alba_pyramidalis/small/49255769768_df55596553_b.jpg","thumbnail":"https://perenual.com/storage/species_image/2_abies_alba_pyramidalis/thumbnail/49255769768_df55596553_b.jpg"}},{"id":4749,"common_name":"bush clover","scientific_name":["Lespedeza thunbergii 'White Fountain'"],"other_name":null,"cycle":"Perennial","watering":"Average","sunlight":["Full sun","part shade"],"default_image":{"image_id":9,"license":5,"license_name":"Attribution-ShareAlike License","license_url":"https://creativecommons.org/licenses/by-sa/2.0/","original_url":"https://perenual.com/storage/species_image/2_abies_alba_pyramidalis/og/49255769768_df55596553_b.jpg","regular_url":"https://perenual.com/storage/species_image/2_abies_alba_pyramidalis/regular/49255769768_df55596553_b.jpg","medium_url":"https://perenual.com/storage/species_image/2_abies_alba_pyramidalis/medium/49255769768_df55596553_b.jpg","small_url":"https://perenual.com/storage/species_image/2_abies_alba_pyramidalis/small/49255769768_df55596553_b.jpg","thumbnail":"https://perenual.com/storage/species_image/2_abies_alba_pyramidalis/thumbnail/49255769768_df55596553_b.jpg"}},{"id":4750,"common_name":"leucanthemella","scientific_name":["Leucanthemella serotina"],"other_name":null,"cycle":"Annual","watering":"Average","sunlight":["Full sun"],"default_image":{"image_id":9,"license":5,"license_name":"Attribution-ShareAlike License","license_url":"https://creativecommons.org/licenses/by-sa/2.0/","original_url":"https://perenual.com/storage/species_image/2_abies_alba_pyramidalis/og/49255769768_df55596553_b.jpg","regular_url":"https://perenual.com/storage/species_image/2_abies_alba_pyramidalis/regular/49255769768_df55596553_b.jpg","medium_url":"https://perenual.com/storage/species_image/2_abies_alba_pyramidalis/medium/49255769768_df55596553_b.jpg","small_url":"https://perenual.com/storage/species_image/2_abies_alba_pyramidalis/small/49255769768_df55596553_b.jpg","thumbnail":"https://perenual.com/storage/species_image/2_abies_alba_pyramidalis/thumbnail/49255769768_df55596553_b.jpg"}},{"id":4751,"common_name":"shasta daisy","scientific_name":["Leucanthemum 'Belgian Lace'"],"other_name":null,"cycle":"Perennial","watering":"Minimum","sunlight":["Full sun"],"default_image":{"image_id":9972,"license":4,"license_name":"Attribution License","license_url":"https://creativecommons.org/licenses/by/2.0/","original_url":"https://perenual.com/storage/species_image/4782_leucanthemum_superbum_wirral_pride/og/51504907598_bb4200cb83_b.jpg","regular_url":"https://perenual.com/storage/species_image/4782_leucanthemum_superbum_wirral_pride/regular/51504907598_bb4200cb83_b.jpg","medium_url":"https://perenual.com/storage/species_image/4782_leucanthemum_superbum_wirral_pride/medium/51504907598_bb4200cb83_b.jpg","small_url":"https://perenual.com/storage/species_image/4782_leucanthemum_superbum_wirral_pride/small/51504907598_bb4200cb83_b.jpg","thumbnail":"https://perenual.com/storage/species_image/4782_leucanthemum_superbum_wirral_pride/thumbnail/51504907598_bb4200cb83_b.jpg"}},{"id":4752,"common_name":"shasta daisy","scientific_name":["Leucanthemum 'Bridal Bouquet'"],"other_name":null,"cycle":"Perennial","watering":"Minimum","sunlight":["Full sun"],"default_image":{"image_id":9975,"license":5,"license_name":"Attribution-ShareAlike License","license_url":"https://creativecommons.org/licenses/by-sa/2.0/","original_url":"https://perenual.com/storage/species_image/4781_leucanthemum_superbum_whoops-a-daisy/og/51558230447_26058ded32_b.jpg","regular_url":"https://perenual.com/storage/species_image/4781_leucanthemum_superbum_whoops-a-daisy/regular/51558230447_26058ded32_b.jpg","medium_url":"https://perenual.com/storage/species_image/4781_leucanthemum_superbum_whoops-a-daisy/medium/51558230447_26058ded32_b.jpg","small_url":"https://perenual.com/storage/species_image/4781_leucanthemum_superbum_whoops-a-daisy/small/51558230447_26058ded32_b.jpg","thumbnail":"https://perenual.com/storage/species_image/4781_leucanthemum_superbum_whoops-a-daisy/thumbnail/51558230447_26058ded32_b.jpg"}},{"id":4753,"common_name":"shasta daisy","scientific_name":["Leucanthemum 'Daisy Duke' DAISY MAY"],"other_name":null,"cycle":"Perennial","watering":"Minimum","sunlight":["Full sun"],"default_image":{"image_id":9,"license":5,"license_name":"Attribution-ShareAlike License","license_url":"https://creativecommons.org/licenses/by-sa/2.0/","original_url":"https://perenual.com/storage/species_image/2_abies_alba_pyramidalis/og/49255769768_df55596553_b.jpg","regular_url":"https://perenual.com/storage/species_image/2_abies_alba_pyramidalis/regular/49255769768_df55596553_b.jpg","medium_url":"https://perenual.com/storage/species_image/2_abies_alba_pyramidalis/medium/49255769768_df55596553_b.jpg","small_url":"https://perenual.com/storage/species_image/2_abies_alba_pyramidalis/small/49255769768_df55596553_b.jpg","thumbnail":"https://perenual.com/storage/species_image/2_abies_alba_pyramidalis/thumbnail/49255769768_df55596553_b.jpg"}},{"id":4754,"common_name":"shasta daisy","scientific_name":["Leucanthemum 'Macaroon'"],"other_name":null,"cycle":"Perennial","watering":"Minimum","sunlight":["Full sun"],"default_image":{"image_id":9979,"license":4,"license_name":"Attribution License","license_url":"https://creativecommons.org/licenses/by/2.0/","original_url":"https://perenual.com/storage/species_image/4768_leucanthemum_superbum_leukal_01_goldrausch/og/49396829336_786d733f6d_b.jpg","regular_url":"https://perenual.com/storage/species_image/4768_leucanthemum_superbum_leukal_01_goldrausch/regular/49396829336_786d733f6d_b.jpg","medium_url":"https://perenual.com/storage/species_image/4768_leucanthemum_superbum_leukal_01_goldrausch/medium/49396829336_786d733f6d_b.jpg","small_url":"https://perenual.com/storage/species_image/4768_leucanthemum_superbum_leukal_01_goldrausch/small/49396829336_786d733f6d_b.jpg","thumbnail":"https://perenual.com/storage/species_image/4768_leucanthemum_superbum_leukal_01_goldrausch/thumbnail/49396829336_786d733f6d_b.jpg"}},{"id":4755,"common_name":"shasta daisy","scientific_name":["Leucanthemum maximum 'Leumayel' BROADWAY LIGHTS"],"other_name":null,"cycle":"Perennial","watering":"Minimum","sunlight":["Full sun"],"default_image":{"image_id":9,"license":5,"license_name":"Attribution-ShareAlike License","license_url":"https://creativecommons.org/licenses/by-sa/2.0/","original_url":"https://perenual.com/storage/species_image/2_abies_alba_pyramidalis/og/49255769768_df55596553_b.jpg","regular_url":"https://perenual.com/storage/species_image/2_abies_alba_pyramidalis/regular/49255769768_df55596553_b.jpg","medium_url":"https://perenual.com/storage/species_image/2_abies_alba_pyramidalis/medium/49255769768_df55596553_b.jpg","small_url":"https://perenual.com/storage/species_image/2_abies_alba_pyramidalis/small/49255769768_df55596553_b.jpg","thumbnail":"https://perenual.com/storage/species_image/2_abies_alba_pyramidalis/thumbnail/49255769768_df55596553_b.jpg"}},{"id":4756,"common_name":"shasta daisy","scientific_name":["Leucanthemum 'Real Charmer'"],"other_name":null,"cycle":"Perennial","watering":"Minimum","sunlight":["Full sun","part shade"],"default_image":{"image_id":9,"license":5,"license_name":"Attribution-ShareAlike License","license_url":"https://creativecommons.org/licenses/by-sa/2.0/","original_url":"https://perenual.com/storage/species_image/2_abies_alba_pyramidalis/og/49255769768_df55596553_b.jpg","regular_url":"https://perenual.com/storage/species_image/2_abies_alba_pyramidalis/regular/49255769768_df55596553_b.jpg","medium_url":"https://perenual.com/storage/species_image/2_abies_alba_pyramidalis/medium/49255769768_df55596553_b.jpg","small_url":"https://perenual.com/storage/species_image/2_abies_alba_pyramidalis/small/49255769768_df55596553_b.jpg","thumbnail":"https://perenual.com/storage/species_image/2_abies_alba_pyramidalis/thumbnail/49255769768_df55596553_b.jpg"}},{"id":4757,"common_name":"shasta daisy","scientific_name":["Leucanthemum superbum"],"other_name":null,"cycle":"Perennial","watering":"Minimum","sunlight":["Full sun"],"default_image":{"image_id":9986,"license":5,"license_name":"Attribution-ShareAlike License","license_url":"https://creativecommons.org/licenses/by-sa/2.0/","original_url":"https://perenual.com/storage/species_image/4769_leucanthemum_superbum_northern_lights/og/51281240716_4fffff4cb6_b.jpg","regular_url":"https://perenual.com/storage/species_image/4769_leucanthemum_superbum_northern_lights/regular/51281240716_4fffff4cb6_b.jpg","medium_url":"https://perenual.com/storage/species_image/4769_leucanthemum_superbum_northern_lights/medium/51281240716_4fffff4cb6_b.jpg","small_url":"https://perenual.com/storage/species_image/4769_leucanthemum_superbum_northern_lights/small/51281240716_4fffff4cb6_b.jpg","thumbnail":"https://perenual.com/storage/species_image/4769_leucanthemum_superbum_northern_lights/thumbnail/51281240716_4fffff4cb6_b.jpg"}},{"id":4758,"common_name":"shasta daisy","scientific_name":["Leucanthemum superbum 'Aglaia'"],"other_name":null,"cycle":"Perennial","watering":"Minimum","sunlight":["Full sun"],"default_image":{"image_id":9,"license":5,"license_name":"Attribution-ShareAlike License","license_url":"https://creativecommons.org/licenses/by-sa/2.0/","original_url":"https://perenual.com/storage/species_image/2_abies_alba_pyramidalis/og/49255769768_df55596553_b.jpg","regular_url":"https://perenual.com/storage/species_image/2_abies_alba_pyramidalis/regular/49255769768_df55596553_b.jpg","medium_url":"https://perenual.com/storage/species_image/2_abies_alba_pyramidalis/medium/49255769768_df55596553_b.jpg","small_url":"https://perenual.com/storage/species_image/2_abies_alba_pyramidalis/small/49255769768_df55596553_b.jpg","thumbnail":"https://perenual.com/storage/species_image/2_abies_alba_pyramidalis/thumbnail/49255769768_df55596553_b.jpg"}},{"id":4759,"common_name":"shasta daisy","scientific_name":["Leucanthemum superbum 'Alaska'"],"other_name":null,"cycle":"Perennial","watering":"Minimum","sunlight":["Full sun"],"default_image":{"image_id":9,"license":5,"license_name":"Attribution-ShareAlike License","license_url":"https://creativecommons.org/licenses/by-sa/2.0/","original_url":"https://perenual.com/storage/species_image/2_abies_alba_pyramidalis/og/49255769768_df55596553_b.jpg","regular_url":"https://perenual.com/storage/species_image/2_abies_alba_pyramidalis/regular/49255769768_df55596553_b.jpg","medium_url":"https://perenual.com/storage/species_image/2_abies_alba_pyramidalis/medium/49255769768_df55596553_b.jpg","small_url":"https://perenual.com/storage/species_image/2_abies_alba_pyramidalis/small/49255769768_df55596553_b.jpg","thumbnail":"https://perenual.com/storage/species_image/2_abies_alba_pyramidalis/thumbnail/49255769768_df55596553_b.jpg"}},{"id":4760,"common_name":"shasta daisy","scientific_name":["Leucanthemum superbum 'Amelia'"],"other_name":null,"cycle":"Perennial","watering":"Minimum","sunlight":["Full sun"],"default_image":{"image_id":9,"license":5,"license_name":"Attribution-ShareAlike License","license_url":"https://creativecommons.org/licenses/by-sa/2.0/","original_url":"https://perenual.com/storage/species_image/2_abies_alba_pyramidalis/og/49255769768_df55596553_b.jpg","regular_url":"https://perenual.com/storage/species_image/2_abies_alba_pyramidalis/regular/49255769768_df55596553_b.jpg","medium_url":"https://perenual.com/storage/species_image/2_abies_alba_pyramidalis/medium/49255769768_df55596553_b.jpg","small_url":"https://perenual.com/storage/species_image/2_abies_alba_pyramidalis/small/49255769768_df55596553_b.jpg","thumbnail":"https://perenual.com/storage/species_image/2_abies_alba_pyramidalis/thumbnail/49255769768_df55596553_b.jpg"}},{"id":4761,"common_name":"shasta daisy","scientific_name":["Leucanthemum superbum BANANA CREAM"],"other_name":null,"cycle":"Perennial","watering":"Minimum","sunlight":["Full sun"],"default_image":{"image_id":9,"license":5,"license_name":"Attribution-ShareAlike License","license_url":"https://creativecommons.org/licenses/by-sa/2.0/","original_url":"https://perenual.com/storage/species_image/2_abies_alba_pyramidalis/og/49255769768_df55596553_b.jpg","regular_url":"https://perenual.com/storage/species_image/2_abies_alba_pyramidalis/regular/49255769768_df55596553_b.jpg","medium_url":"https://perenual.com/storage/species_image/2_abies_alba_pyramidalis/medium/49255769768_df55596553_b.jpg","small_url":"https://perenual.com/storage/species_image/2_abies_alba_pyramidalis/small/49255769768_df55596553_b.jpg","thumbnail":"https://perenual.com/storage/species_image/2_abies_alba_pyramidalis/thumbnail/49255769768_df55596553_b.jpg"}},{"id":4762,"common_name":"shasta daisy","scientific_name":["Leucanthemum superbum 'Beaute Nivelloise'"],"other_name":null,"cycle":"Perennial","watering":"Minimum","sunlight":["Full sun"],"default_image":{"image_id":9972,"license":4,"license_name":"Attribution License","license_url":"https://creativecommons.org/licenses/by/2.0/","original_url":"https://perenual.com/storage/species_image/4782_leucanthemum_superbum_wirral_pride/og/51504907598_bb4200cb83_b.jpg","regular_url":"https://perenual.com/storage/species_image/4782_leucanthemum_superbum_wirral_pride/regular/51504907598_bb4200cb83_b.jpg","medium_url":"https://perenual.com/storage/species_image/4782_leucanthemum_superbum_wirral_pride/medium/51504907598_bb4200cb83_b.jpg","small_url":"https://perenual.com/storage/species_image/4782_leucanthemum_superbum_wirral_pride/small/51504907598_bb4200cb83_b.jpg","thumbnail":"https://perenual.com/storage/species_image/4782_leucanthemum_superbum_wirral_pride/thumbnail/51504907598_bb4200cb83_b.jpg"}},{"id":4763,"common_name":"shasta daisy","scientific_name":["Leucanthemum superbum 'Becky'"],"other_name":null,"cycle":"Perennial","watering":"Minimum","sunlight":["Full sun"],"default_image":{"image_id":9997,"license":5,"license_name":"Attribution-ShareAlike License","license_url":"https://creativecommons.org/licenses/by-sa/2.0/","original_url":"https://perenual.com/storage/species_image/4769_leucanthemum_superbum_northern_lights/og/51281417083_0c6d6cffb5_b.jpg","regular_url":"https://perenual.com/storage/species_image/4769_leucanthemum_superbum_northern_lights/regular/51281417083_0c6d6cffb5_b.jpg","medium_url":"https://perenual.com/storage/species_image/4769_leucanthemum_superbum_northern_lights/medium/51281417083_0c6d6cffb5_b.jpg","small_url":"https://perenual.com/storage/species_image/4769_leucanthemum_superbum_northern_lights/small/51281417083_0c6d6cffb5_b.jpg","thumbnail":"https://perenual.com/storage/species_image/4769_leucanthemum_superbum_northern_lights/thumbnail/51281417083_0c6d6cffb5_b.jpg"}},{"id":4764,"common_name":"shasta daisy","scientific_name":["Leucanthemum superbum 'Brightside'"],"other_name":null,"cycle":"Perennial","watering":"Minimum","sunlight":["Full sun"],"default_image":{"image_id":9975,"license":5,"license_name":"Attribution-ShareAlike License","license_url":"https://creativecommons.org/licenses/by-sa/2.0/","original_url":"https://perenual.com/storage/species_image/4781_leucanthemum_superbum_whoops-a-daisy/og/51558230447_26058ded32_b.jpg","regular_url":"https://perenual.com/storage/species_image/4781_leucanthemum_superbum_whoops-a-daisy/regular/51558230447_26058ded32_b.jpg","medium_url":"https://perenual.com/storage/species_image/4781_leucanthemum_superbum_whoops-a-daisy/medium/51558230447_26058ded32_b.jpg","small_url":"https://perenual.com/storage/species_image/4781_leucanthemum_superbum_whoops-a-daisy/small/51558230447_26058ded32_b.jpg","thumbnail":"https://perenual.com/storage/species_image/4781_leucanthemum_superbum_whoops-a-daisy/thumbnail/51558230447_26058ded32_b.jpg"}},{"id":4765,"common_name":"shasta daisy","scientific_name":["Leucanthemum superbum 'Crazy Daisy'"],"other_name":null,"cycle":"Perennial","watering":"Minimum","sunlight":["Full sun"],"default_image":{"image_id":9,"license":5,"license_name":"Attribution-ShareAlike License","license_url":"https://creativecommons.org/licenses/by-sa/2.0/","original_url":"https://perenual.com/storage/species_image/2_abies_alba_pyramidalis/og/49255769768_df55596553_b.jpg","regular_url":"https://perenual.com/storage/species_image/2_abies_alba_pyramidalis/regular/49255769768_df55596553_b.jpg","medium_url":"https://perenual.com/storage/species_image/2_abies_alba_pyramidalis/medium/49255769768_df55596553_b.jpg","small_url":"https://perenual.com/storage/species_image/2_abies_alba_pyramidalis/small/49255769768_df55596553_b.jpg","thumbnail":"https://perenual.com/storage/species_image/2_abies_alba_pyramidalis/thumbnail/49255769768_df55596553_b.jpg"}},{"id":4766,"common_name":"shasta daisy","scientific_name":["Leucanthemum superbum 'Fiona Coghill'"],"other_name":null,"cycle":"Perennial","watering":"Minimum","sunlight":["Full sun"],"default_image":{"image_id":9979,"license":4,"license_name":"Attribution License","license_url":"https://creativecommons.org/licenses/by/2.0/","original_url":"https://perenual.com/storage/species_image/4768_leucanthemum_superbum_leukal_01_goldrausch/og/49396829336_786d733f6d_b.jpg","regular_url":"https://perenual.com/storage/species_image/4768_leucanthemum_superbum_leukal_01_goldrausch/regular/49396829336_786d733f6d_b.jpg","medium_url":"https://perenual.com/storage/species_image/4768_leucanthemum_superbum_leukal_01_goldrausch/medium/49396829336_786d733f6d_b.jpg","small_url":"https://perenual.com/storage/species_image/4768_leucanthemum_superbum_leukal_01_goldrausch/small/49396829336_786d733f6d_b.jpg","thumbnail":"https://perenual.com/storage/species_image/4768_leucanthemum_superbum_leukal_01_goldrausch/thumbnail/49396829336_786d733f6d_b.jpg"}},{"id":4767,"common_name":"shasta daisy","scientific_name":["Leucanthemum superbum 'Highland White Dream'"],"other_name":null,"cycle":"Perennial","watering":"Minimum","sunlight":["Full sun"],"default_image":{"image_id":22036,"license":1,"license_name":null,"license_url":null,"original_url":"https://perenual.com/storage/species_image/4778_leucanthemum_superbum_switzerland/og/51330162695_8ce914e7e3_b.jpg","regular_url":"https://perenual.com/storage/species_image/4778_leucanthemum_superbum_switzerland/regular/51330162695_8ce914e7e3_b.jpg","medium_url":"https://perenual.com/storage/species_image/4778_leucanthemum_superbum_switzerland/medium/51330162695_8ce914e7e3_b.jpg","small_url":"https://perenual.com/storage/species_image/4778_leucanthemum_superbum_switzerland/small/51330162695_8ce914e7e3_b.jpg","thumbnail":"https://perenual.com/storage/species_image/4778_leucanthemum_superbum_switzerland/thumbnail/51330162695_8ce914e7e3_b.jpg"}},{"id":4768,"common_name":"shasta daisy","scientific_name":["Leucanthemum superbum 'Leukal 01' GOLDRAUSCH"],"other_name":null,"cycle":"Perennial","watering":"Minimum","sunlight":["Full sun"],"default_image":{"image_id":9979,"license":4,"license_name":"Attribution License","license_url":"https://creativecommons.org/licenses/by/2.0/","original_url":"https://perenual.com/storage/species_image/4768_leucanthemum_superbum_leukal_01_goldrausch/og/49396829336_786d733f6d_b.jpg","regular_url":"https://perenual.com/storage/species_image/4768_leucanthemum_superbum_leukal_01_goldrausch/regular/49396829336_786d733f6d_b.jpg","medium_url":"https://perenual.com/storage/species_image/4768_leucanthemum_superbum_leukal_01_goldrausch/medium/49396829336_786d733f6d_b.jpg","small_url":"https://perenual.com/storage/species_image/4768_leucanthemum_superbum_leukal_01_goldrausch/small/49396829336_786d733f6d_b.jpg","thumbnail":"https://perenual.com/storage/species_image/4768_leucanthemum_superbum_leukal_01_goldrausch/thumbnail/49396829336_786d733f6d_b.jpg"}},{"id":4769,"common_name":"shasta daisy","scientific_name":["Leucanthemum superbum 'Northern Lights'"],"other_name":null,"cycle":"Perennial","watering":"Minimum","sunlight":["Full sun"],"default_image":{"image_id":22037,"license":2,"license_name":null,"license_url":null,"original_url":"https://perenual.com/storage/species_image/4779_leucanthemum_superbum_tinkerbelle/og/51297398411_4a6f9fdcbf_b.jpg","regular_url":"https://perenual.com/storage/species_image/4779_leucanthemum_superbum_tinkerbelle/regular/51297398411_4a6f9fdcbf_b.jpg","medium_url":"https://perenual.com/storage/species_image/4779_leucanthemum_superbum_tinkerbelle/medium/51297398411_4a6f9fdcbf_b.jpg","small_url":"https://perenual.com/storage/species_image/4779_leucanthemum_superbum_tinkerbelle/small/51297398411_4a6f9fdcbf_b.jpg","thumbnail":"https://perenual.com/storage/species_image/4779_leucanthemum_superbum_tinkerbelle/thumbnail/51297398411_4a6f9fdcbf_b.jpg"}},{"id":4770,"common_name":"shasta daisy","scientific_name":["Leucanthemum superbum 'Polaris'"],"other_name":null,"cycle":"Perennial","watering":"Minimum","sunlight":["Full sun","part shade"],"default_image":{"image_id":22038,"license":1,"license_name":null,"license_url":null,"original_url":"https://perenual.com/storage/species_image/4781_leucanthemum_superbum_whoops-a-daisy/og/52217179565_7bc4bb59aa_b.jpg","regular_url":"https://perenual.com/storage/species_image/4781_leucanthemum_superbum_whoops-a-daisy/regular/52217179565_7bc4bb59aa_b.jpg","medium_url":"https://perenual.com/storage/species_image/4781_leucanthemum_superbum_whoops-a-daisy/medium/52217179565_7bc4bb59aa_b.jpg","small_url":"https://perenual.com/storage/species_image/4781_leucanthemum_superbum_whoops-a-daisy/small/52217179565_7bc4bb59aa_b.jpg","thumbnail":"https://perenual.com/storage/species_image/4781_leucanthemum_superbum_whoops-a-daisy/thumbnail/52217179565_7bc4bb59aa_b.jpg"}}],"to":4770,"per_page":30,"current_page":159,"from":4741,"last_page":200,"total":6000}