{"data":[{"id":1381,"common_name":"butterfly bush","scientific_name":["Buddleja davidii 'PIIBD-II' FIRST EDITIONS FUNKY FUCHSIA"],"other_name":null,"cycle":"Perennial","watering":"Average","sunlight":["Sun"," Partial Shade"],"default_image":{"image_id":3202,"license":4,"license_name":"Attribution License","license_url":"https://creativecommons.org/licenses/by/2.0/","original_url":"https://perenual.com/storage/species_image/1381_buddleja_davidii_piibd-ii_first_editions_funky_fuchsia/og/52242435527_78df8b0962_b.jpg","regular_url":"https://perenual.com/storage/species_image/1381_buddleja_davidii_piibd-ii_first_editions_funky_fuchsia/regular/52242435527_78df8b0962_b.jpg","medium_url":"https://perenual.com/storage/species_image/1381_buddleja_davidii_piibd-ii_first_editions_funky_fuchsia/medium/52242435527_78df8b0962_b.jpg","small_url":"https://perenual.com/storage/species_image/1381_buddleja_davidii_piibd-ii_first_editions_funky_fuchsia/small/52242435527_78df8b0962_b.jpg","thumbnail":"https://perenual.com/storage/species_image/1381_buddleja_davidii_piibd-ii_first_editions_funky_fuchsia/thumbnail/52242435527_78df8b0962_b.jpg"}},{"id":1382,"common_name":"butterfly bush","scientific_name":["Buddleja davidii 'PIIBD-III' FIRST EDITIONS PSYCHEDELIC SKY"],"other_name":null,"cycle":"Perennial","watering":"Average","sunlight":["Sun"," Partial Shade"],"default_image":{"image_id":3191,"license":6,"license_name":"Attribution-NoDerivs License","license_url":"https://creativecommons.org/licenses/by-nd/2.0/","original_url":"https://perenual.com/storage/species_image/1372_buddleja_davidii_ellens_blue/og/52266910616_ec95a8c4bb_b.jpg"}},{"id":1383,"common_name":"butterfly bush","scientific_name":["Buddleja davidii 'Pink Delight'"],"other_name":null,"cycle":"Perennial","watering":"Average","sunlight":["Sun"," Partial Shade"],"default_image":{"image_id":3203,"license":4,"license_name":"Attribution License","license_url":"https://creativecommons.org/licenses/by/2.0/","original_url":"https://perenual.com/storage/species_image/1394_buddleja_pink_micro_chip/og/52243906825_cf6f0a2bb7_b.jpg","regular_url":"https://perenual.com/storage/species_image/1394_buddleja_pink_micro_chip/regular/52243906825_cf6f0a2bb7_b.jpg","medium_url":"https://perenual.com/storage/species_image/1394_buddleja_pink_micro_chip/medium/52243906825_cf6f0a2bb7_b.jpg","small_url":"https://perenual.com/storage/species_image/1394_buddleja_pink_micro_chip/small/52243906825_cf6f0a2bb7_b.jpg","thumbnail":"https://perenual.com/storage/species_image/1394_buddleja_pink_micro_chip/thumbnail/52243906825_cf6f0a2bb7_b.jpg"}},{"id":1384,"common_name":"butterfly bush","scientific_name":["Buddleja davidii 'Pyrkeep' PURPLE EMPEROR"],"other_name":null,"cycle":"Perennial","watering":"Average","sunlight":["Sun"," Partial Shade"],"default_image":{"image_id":21994,"license":3,"license_name":null,"license_url":null,"original_url":"https://perenual.com/storage/species_image/1384_buddleja_davidii_pyrkeep_purple_emperor/og/52269313706_e8e478cf12_b.jpg","regular_url":"https://perenual.com/storage/species_image/1384_buddleja_davidii_pyrkeep_purple_emperor/regular/52269313706_e8e478cf12_b.jpg","medium_url":"https://perenual.com/storage/species_image/1384_buddleja_davidii_pyrkeep_purple_emperor/medium/52269313706_e8e478cf12_b.jpg","small_url":"https://perenual.com/storage/species_image/1384_buddleja_davidii_pyrkeep_purple_emperor/small/52269313706_e8e478cf12_b.jpg","thumbnail":"https://perenual.com/storage/species_image/1384_buddleja_davidii_pyrkeep_purple_emperor/thumbnail/52269313706_e8e478cf12_b.jpg"}},{"id":1385,"common_name":"butterfly bush","scientific_name":["Buddleja davidii 'Royal Red'"],"other_name":null,"cycle":"Perennial","watering":"Average","sunlight":["Sun"," Partial Shade"],"default_image":{"image_id":9,"license":5,"license_name":"Attribution-ShareAlike License","license_url":"https://creativecommons.org/licenses/by-sa/2.0/","original_url":"https://perenual.com/storage/species_image/2_abies_alba_pyramidalis/og/49255769768_df55596553_b.jpg","regular_url":"https://perenual.com/storage/species_image/2_abies_alba_pyramidalis/regular/49255769768_df55596553_b.jpg","medium_url":"https://perenual.com/storage/species_image/2_abies_alba_pyramidalis/medium/49255769768_df55596553_b.jpg","small_url":"https://perenual.com/storage/species_image/2_abies_alba_pyramidalis/small/49255769768_df55596553_b.jpg","thumbnail":"https://perenual.com/storage/species_image/2_abies_alba_pyramidalis/thumbnail/49255769768_df55596553_b.jpg"}},{"id":1386,"common_name":"butterfly bush","scientific_name":["Buddleja davidii 'White Ball'"],"other_name":null,"cycle":"Perennial","watering":"Average","sunlight":["Sun"," Partial Shade"],"default_image":{"image_id":9,"license":5,"license_name":"Attribution-ShareAlike License","license_url":"https://creativecommons.org/licenses/by-sa/2.0/","original_url":"https://perenual.com/storage/species_image/2_abies_alba_pyramidalis/og/49255769768_df55596553_b.jpg","regular_url":"https://perenual.com/storage/species_image/2_abies_alba_pyramidalis/regular/49255769768_df55596553_b.jpg","medium_url":"https://perenual.com/storage/species_image/2_abies_alba_pyramidalis/medium/49255769768_df55596553_b.jpg","small_url":"https://perenual.com/storage/species_image/2_abies_alba_pyramidalis/small/49255769768_df55596553_b.jpg","thumbnail":"https://perenual.com/storage/species_image/2_abies_alba_pyramidalis/thumbnail/49255769768_df55596553_b.jpg"}},{"id":1387,"common_name":"butterfly bush","scientific_name":["Buddleja davidii 'White Profusion'"],"other_name":null,"cycle":"Perennial","watering":"Average","sunlight":["Sun"," Partial Shade"],"default_image":{"image_id":9,"license":5,"license_name":"Attribution-ShareAlike License","license_url":"https://creativecommons.org/licenses/by-sa/2.0/","original_url":"https://perenual.com/storage/species_image/2_abies_alba_pyramidalis/og/49255769768_df55596553_b.jpg","regular_url":"https://perenual.com/storage/species_image/2_abies_alba_pyramidalis/regular/49255769768_df55596553_b.jpg","medium_url":"https://perenual.com/storage/species_image/2_abies_alba_pyramidalis/medium/49255769768_df55596553_b.jpg","small_url":"https://perenual.com/storage/species_image/2_abies_alba_pyramidalis/small/49255769768_df55596553_b.jpg","thumbnail":"https://perenual.com/storage/species_image/2_abies_alba_pyramidalis/thumbnail/49255769768_df55596553_b.jpg"}},{"id":1388,"common_name":"butterfly bush","scientific_name":["Buddleja 'Lochinch'"],"other_name":null,"cycle":"Perennial","watering":"Average","sunlight":["Full sun"],"default_image":{"image_id":3207,"license":5,"license_name":"Attribution-ShareAlike License","license_url":"https://creativecommons.org/licenses/by-sa/2.0/","original_url":"https://perenual.com/storage/species_image/1388_buddleja_lochinch/og/4846973026_230e4c7b46_b.jpg","regular_url":"https://perenual.com/storage/species_image/1388_buddleja_lochinch/regular/4846973026_230e4c7b46_b.jpg","medium_url":"https://perenual.com/storage/species_image/1388_buddleja_lochinch/medium/4846973026_230e4c7b46_b.jpg","small_url":"https://perenual.com/storage/species_image/1388_buddleja_lochinch/small/4846973026_230e4c7b46_b.jpg","thumbnail":"https://perenual.com/storage/species_image/1388_buddleja_lochinch/thumbnail/4846973026_230e4c7b46_b.jpg"}},{"id":1389,"common_name":"mountain sagewood","scientific_name":["Buddleja loricata"],"other_name":null,"cycle":"Perennial","watering":"Average","sunlight":["Full sun"],"default_image":{"image_id":9,"license":5,"license_name":"Attribution-ShareAlike License","license_url":"https://creativecommons.org/licenses/by-sa/2.0/","original_url":"https://perenual.com/storage/species_image/2_abies_alba_pyramidalis/og/49255769768_df55596553_b.jpg","regular_url":"https://perenual.com/storage/species_image/2_abies_alba_pyramidalis/regular/49255769768_df55596553_b.jpg","medium_url":"https://perenual.com/storage/species_image/2_abies_alba_pyramidalis/medium/49255769768_df55596553_b.jpg","small_url":"https://perenual.com/storage/species_image/2_abies_alba_pyramidalis/small/49255769768_df55596553_b.jpg","thumbnail":"https://perenual.com/storage/species_image/2_abies_alba_pyramidalis/thumbnail/49255769768_df55596553_b.jpg"}},{"id":1390,"common_name":"butterfly bush","scientific_name":["Buddleja 'Miss Molly'"],"other_name":null,"cycle":"Perennial","watering":"Average","sunlight":["Full sun"],"default_image":null},{"id":1391,"common_name":"butterfly bush","scientific_name":["Buddleja 'Miss Ruby'"],"other_name":null,"cycle":"Perennial","watering":"Average","sunlight":["Full sun"],"default_image":{"image_id":3213,"license":5,"license_name":"Attribution-ShareAlike License","license_url":"https://creativecommons.org/licenses/by-sa/2.0/","original_url":"https://perenual.com/storage/species_image/1391_buddleja_miss_ruby/og/15006284559_4be25847cd_b.jpg","regular_url":"https://perenual.com/storage/species_image/1391_buddleja_miss_ruby/regular/15006284559_4be25847cd_b.jpg","medium_url":"https://perenual.com/storage/species_image/1391_buddleja_miss_ruby/medium/15006284559_4be25847cd_b.jpg","small_url":"https://perenual.com/storage/species_image/1391_buddleja_miss_ruby/small/15006284559_4be25847cd_b.jpg","thumbnail":"https://perenual.com/storage/species_image/1391_buddleja_miss_ruby/thumbnail/15006284559_4be25847cd_b.jpg"}},{"id":1392,"common_name":"butterfly bush","scientific_name":["Buddleja 'Miss Violet'"],"other_name":null,"cycle":"Perennial","watering":"Average","sunlight":["Full sun"],"default_image":null},{"id":1393,"common_name":"butterfly bush","scientific_name":["Buddleja nivea"],"other_name":null,"cycle":"Perennial","watering":"Average","sunlight":["Full sun"],"default_image":{"image_id":3215,"license":5,"license_name":"Attribution-ShareAlike License","license_url":"https://creativecommons.org/licenses/by-sa/2.0/","original_url":"https://perenual.com/storage/species_image/1393_buddleja_nivea/og/48042421191_c678692bdf_b.jpg","regular_url":"https://perenual.com/storage/species_image/1393_buddleja_nivea/regular/48042421191_c678692bdf_b.jpg","medium_url":"https://perenual.com/storage/species_image/1393_buddleja_nivea/medium/48042421191_c678692bdf_b.jpg","small_url":"https://perenual.com/storage/species_image/1393_buddleja_nivea/small/48042421191_c678692bdf_b.jpg","thumbnail":"https://perenual.com/storage/species_image/1393_buddleja_nivea/thumbnail/48042421191_c678692bdf_b.jpg"}},{"id":1394,"common_name":"butterfly bush","scientific_name":["Buddleja 'Pink Micro Chip'"],"other_name":null,"cycle":"Perennial","watering":"Average","sunlight":["Full sun"],"default_image":{"image_id":3203,"license":4,"license_name":"Attribution License","license_url":"https://creativecommons.org/licenses/by/2.0/","original_url":"https://perenual.com/storage/species_image/1394_buddleja_pink_micro_chip/og/52243906825_cf6f0a2bb7_b.jpg","regular_url":"https://perenual.com/storage/species_image/1394_buddleja_pink_micro_chip/regular/52243906825_cf6f0a2bb7_b.jpg","medium_url":"https://perenual.com/storage/species_image/1394_buddleja_pink_micro_chip/medium/52243906825_cf6f0a2bb7_b.jpg","small_url":"https://perenual.com/storage/species_image/1394_buddleja_pink_micro_chip/small/52243906825_cf6f0a2bb7_b.jpg","thumbnail":"https://perenual.com/storage/species_image/1394_buddleja_pink_micro_chip/thumbnail/52243906825_cf6f0a2bb7_b.jpg"}},{"id":1395,"common_name":"South African sage wood","scientific_name":["Buddleja salviifolia"],"other_name":null,"cycle":"Perennial","watering":"Minimum","sunlight":["Full sun"],"default_image":{"image_id":3223,"license":5,"license_name":"Attribution-ShareAlike License","license_url":"https://creativecommons.org/licenses/by-sa/2.0/","original_url":"https://perenual.com/storage/species_image/1395_buddleja_salviifolia/og/17966565868_133ba6cf21_b.jpg","regular_url":"https://perenual.com/storage/species_image/1395_buddleja_salviifolia/regular/17966565868_133ba6cf21_b.jpg","medium_url":"https://perenual.com/storage/species_image/1395_buddleja_salviifolia/medium/17966565868_133ba6cf21_b.jpg","small_url":"https://perenual.com/storage/species_image/1395_buddleja_salviifolia/small/17966565868_133ba6cf21_b.jpg","thumbnail":"https://perenual.com/storage/species_image/1395_buddleja_salviifolia/thumbnail/17966565868_133ba6cf21_b.jpg"}},{"id":1396,"common_name":"butterfly bush","scientific_name":["Buddleja 'SMNBDL' PUGSTER AMETHYST"],"other_name":null,"cycle":"Perennial","watering":"Average","sunlight":["Full sun"],"default_image":{"image_id":9,"license":5,"license_name":"Attribution-ShareAlike License","license_url":"https://creativecommons.org/licenses/by-sa/2.0/","original_url":"https://perenual.com/storage/species_image/2_abies_alba_pyramidalis/og/49255769768_df55596553_b.jpg","regular_url":"https://perenual.com/storage/species_image/2_abies_alba_pyramidalis/regular/49255769768_df55596553_b.jpg","medium_url":"https://perenual.com/storage/species_image/2_abies_alba_pyramidalis/medium/49255769768_df55596553_b.jpg","small_url":"https://perenual.com/storage/species_image/2_abies_alba_pyramidalis/small/49255769768_df55596553_b.jpg","thumbnail":"https://perenual.com/storage/species_image/2_abies_alba_pyramidalis/thumbnail/49255769768_df55596553_b.jpg"}},{"id":1397,"common_name":"butterfly bush","scientific_name":["Buddleja weyeriana 'Golden Glow'"],"other_name":null,"cycle":"Perennial","watering":"Average","sunlight":["Full sun"],"default_image":{"image_id":3224,"license":45,"license_name":"Attribution-ShareAlike 3.0 Unported (CC BY-SA 3.0)","license_url":"https://creativecommons.org/licenses/by-sa/3.0/deed.en","original_url":"https://perenual.com/storage/species_image/1397_buddleja_weyeriana_golden_glow/og/Buddleja_x_weyeriana_%27Golden_Glow%27.jpg","regular_url":"https://perenual.com/storage/species_image/1397_buddleja_weyeriana_golden_glow/regular/Buddleja_x_weyeriana_%27Golden_Glow%27.jpg","medium_url":"https://perenual.com/storage/species_image/1397_buddleja_weyeriana_golden_glow/medium/Buddleja_x_weyeriana_%27Golden_Glow%27.jpg","small_url":"https://perenual.com/storage/species_image/1397_buddleja_weyeriana_golden_glow/small/Buddleja_x_weyeriana_%27Golden_Glow%27.jpg","thumbnail":"https://perenual.com/storage/species_image/1397_buddleja_weyeriana_golden_glow/thumbnail/Buddleja_x_weyeriana_%27Golden_Glow%27.jpg"}},{"id":1398,"common_name":"butterfly bush","scientific_name":["Buddleja weyeriana 'Honeycomb'"],"other_name":null,"cycle":"Perennial","watering":"Average","sunlight":["Full sun"],"default_image":{"image_id":3225,"license":4,"license_name":"Attribution License","license_url":"https://creativecommons.org/licenses/by/2.0/","original_url":"https://perenual.com/storage/species_image/1398_buddleja_weyeriana_honeycomb/og/6086586430_9f78ef1c92_b.jpg","regular_url":"https://perenual.com/storage/species_image/1398_buddleja_weyeriana_honeycomb/regular/6086586430_9f78ef1c92_b.jpg","medium_url":"https://perenual.com/storage/species_image/1398_buddleja_weyeriana_honeycomb/medium/6086586430_9f78ef1c92_b.jpg","small_url":"https://perenual.com/storage/species_image/1398_buddleja_weyeriana_honeycomb/small/6086586430_9f78ef1c92_b.jpg","thumbnail":"https://perenual.com/storage/species_image/1398_buddleja_weyeriana_honeycomb/thumbnail/6086586430_9f78ef1c92_b.jpg"}},{"id":1399,"common_name":"orange bulbine","scientific_name":["Bulbine frutescens"],"other_name":null,"cycle":"Perennial","watering":"Minimum","sunlight":["Full sun"],"default_image":{"image_id":3228,"license":4,"license_name":"Attribution License","license_url":"https://creativecommons.org/licenses/by/2.0/","original_url":"https://perenual.com/storage/species_image/1399_bulbine_frutescens/og/39135511090_970d4428c8_b.jpg","regular_url":"https://perenual.com/storage/species_image/1399_bulbine_frutescens/regular/39135511090_970d4428c8_b.jpg","medium_url":"https://perenual.com/storage/species_image/1399_bulbine_frutescens/medium/39135511090_970d4428c8_b.jpg","small_url":"https://perenual.com/storage/species_image/1399_bulbine_frutescens/small/39135511090_970d4428c8_b.jpg","thumbnail":"https://perenual.com/storage/species_image/1399_bulbine_frutescens/thumbnail/39135511090_970d4428c8_b.jpg"}},{"id":1400,"common_name":"gumbo-limbo","scientific_name":["Bursera simaruba"],"other_name":null,"cycle":"Perennial","watering":"Minimum","sunlight":["Full sun"],"default_image":{"image_id":9,"license":5,"license_name":"Attribution-ShareAlike License","license_url":"https://creativecommons.org/licenses/by-sa/2.0/","original_url":"https://perenual.com/storage/species_image/2_abies_alba_pyramidalis/og/49255769768_df55596553_b.jpg","regular_url":"https://perenual.com/storage/species_image/2_abies_alba_pyramidalis/regular/49255769768_df55596553_b.jpg","medium_url":"https://perenual.com/storage/species_image/2_abies_alba_pyramidalis/medium/49255769768_df55596553_b.jpg","small_url":"https://perenual.com/storage/species_image/2_abies_alba_pyramidalis/small/49255769768_df55596553_b.jpg","thumbnail":"https://perenual.com/storage/species_image/2_abies_alba_pyramidalis/thumbnail/49255769768_df55596553_b.jpg"}},{"id":1401,"common_name":"flame of the forest","scientific_name":["Butea monosperma"],"other_name":null,"cycle":"Perennial","watering":"Average","sunlight":["Full sun","part shade"],"default_image":{"image_id":9,"license":5,"license_name":"Attribution-ShareAlike License","license_url":"https://creativecommons.org/licenses/by-sa/2.0/","original_url":"https://perenual.com/storage/species_image/2_abies_alba_pyramidalis/og/49255769768_df55596553_b.jpg","regular_url":"https://perenual.com/storage/species_image/2_abies_alba_pyramidalis/regular/49255769768_df55596553_b.jpg","medium_url":"https://perenual.com/storage/species_image/2_abies_alba_pyramidalis/medium/49255769768_df55596553_b.jpg","small_url":"https://perenual.com/storage/species_image/2_abies_alba_pyramidalis/small/49255769768_df55596553_b.jpg","thumbnail":"https://perenual.com/storage/species_image/2_abies_alba_pyramidalis/thumbnail/49255769768_df55596553_b.jpg"}},{"id":1402,"common_name":"South American jelly palm","scientific_name":["Butia capitata"],"other_name":null,"cycle":"Perennial","watering":"Average","sunlight":["Full sun","part shade"],"default_image":{"image_id":3238,"license":5,"license_name":"Attribution-ShareAlike License","license_url":"https://creativecommons.org/licenses/by-sa/2.0/","original_url":"https://perenual.com/storage/species_image/1402_butia_capitata/og/5582656068_8138ef55c1_b.jpg","regular_url":"https://perenual.com/storage/species_image/1402_butia_capitata/regular/5582656068_8138ef55c1_b.jpg","medium_url":"https://perenual.com/storage/species_image/1402_butia_capitata/medium/5582656068_8138ef55c1_b.jpg","small_url":"https://perenual.com/storage/species_image/1402_butia_capitata/small/5582656068_8138ef55c1_b.jpg","thumbnail":"https://perenual.com/storage/species_image/1402_butia_capitata/thumbnail/5582656068_8138ef55c1_b.jpg"}},{"id":1403,"common_name":"Balearic boxwood","scientific_name":["Buxus balearica"],"other_name":null,"cycle":"Perennial","watering":"Average","sunlight":["Full sun","part shade"],"default_image":{"image_id":3253,"license":5,"license_name":"Attribution-ShareAlike License","license_url":"https://creativecommons.org/licenses/by-sa/2.0/","original_url":"https://perenual.com/storage/species_image/1403_buxus_balearica/og/5579804755_bbaf2dbdd9_b.jpg","regular_url":"https://perenual.com/storage/species_image/1403_buxus_balearica/regular/5579804755_bbaf2dbdd9_b.jpg","medium_url":"https://perenual.com/storage/species_image/1403_buxus_balearica/medium/5579804755_bbaf2dbdd9_b.jpg","small_url":"https://perenual.com/storage/species_image/1403_buxus_balearica/small/5579804755_bbaf2dbdd9_b.jpg","thumbnail":"https://perenual.com/storage/species_image/1403_buxus_balearica/thumbnail/5579804755_bbaf2dbdd9_b.jpg"}},{"id":1404,"common_name":"boxwood","scientific_name":["Buxus 'Cranberry Creek'"],"other_name":null,"cycle":"Perennial","watering":"Average","sunlight":["Full sun","part shade"],"default_image":{"image_id":9,"license":5,"license_name":"Attribution-ShareAlike License","license_url":"https://creativecommons.org/licenses/by-sa/2.0/","original_url":"https://perenual.com/storage/species_image/2_abies_alba_pyramidalis/og/49255769768_df55596553_b.jpg","regular_url":"https://perenual.com/storage/species_image/2_abies_alba_pyramidalis/regular/49255769768_df55596553_b.jpg","medium_url":"https://perenual.com/storage/species_image/2_abies_alba_pyramidalis/medium/49255769768_df55596553_b.jpg","small_url":"https://perenual.com/storage/species_image/2_abies_alba_pyramidalis/small/49255769768_df55596553_b.jpg","thumbnail":"https://perenual.com/storage/species_image/2_abies_alba_pyramidalis/thumbnail/49255769768_df55596553_b.jpg"}},{"id":1405,"common_name":"boxwood","scientific_name":["Buxus 'Green Gem'"],"other_name":null,"cycle":"Perennial","watering":"Average","sunlight":["Full sun","part shade"],"default_image":{"image_id":3254,"license":5,"license_name":"Attribution-ShareAlike License","license_url":"https://creativecommons.org/licenses/by-sa/2.0/","original_url":"https://perenual.com/storage/species_image/1405_buxus_green_gem/og/50050401928_d0612ba253_b.jpg","regular_url":"https://perenual.com/storage/species_image/1405_buxus_green_gem/regular/50050401928_d0612ba253_b.jpg","medium_url":"https://perenual.com/storage/species_image/1405_buxus_green_gem/medium/50050401928_d0612ba253_b.jpg","small_url":"https://perenual.com/storage/species_image/1405_buxus_green_gem/small/50050401928_d0612ba253_b.jpg","thumbnail":"https://perenual.com/storage/species_image/1405_buxus_green_gem/thumbnail/50050401928_d0612ba253_b.jpg"}},{"id":1406,"common_name":"boxwood","scientific_name":["Buxus 'Green Mound'"],"other_name":null,"cycle":"Perennial","watering":"Average","sunlight":["Full sun","part shade"],"default_image":{"image_id":3255,"license":5,"license_name":"Attribution-ShareAlike License","license_url":"https://creativecommons.org/licenses/by-sa/2.0/","original_url":"https://perenual.com/storage/species_image/1406_buxus_green_mound/og/50050971171_4a384df341_b.jpg","regular_url":"https://perenual.com/storage/species_image/1406_buxus_green_mound/regular/50050971171_4a384df341_b.jpg","medium_url":"https://perenual.com/storage/species_image/1406_buxus_green_mound/medium/50050971171_4a384df341_b.jpg","small_url":"https://perenual.com/storage/species_image/1406_buxus_green_mound/small/50050971171_4a384df341_b.jpg","thumbnail":"https://perenual.com/storage/species_image/1406_buxus_green_mound/thumbnail/50050971171_4a384df341_b.jpg"}},{"id":1407,"common_name":"boxwood","scientific_name":["Buxus 'Green Mountain'"],"other_name":null,"cycle":"Perennial","watering":"Average","sunlight":["Full sun","part shade"],"default_image":{"image_id":3257,"license":5,"license_name":"Attribution-ShareAlike License","license_url":"https://creativecommons.org/licenses/by-sa/2.0/","original_url":"https://perenual.com/storage/species_image/1407_buxus_green_mountain/og/17036451056_712efe5aa0_b.jpg","regular_url":"https://perenual.com/storage/species_image/1407_buxus_green_mountain/regular/17036451056_712efe5aa0_b.jpg","medium_url":"https://perenual.com/storage/species_image/1407_buxus_green_mountain/medium/17036451056_712efe5aa0_b.jpg","small_url":"https://perenual.com/storage/species_image/1407_buxus_green_mountain/small/17036451056_712efe5aa0_b.jpg","thumbnail":"https://perenual.com/storage/species_image/1407_buxus_green_mountain/thumbnail/17036451056_712efe5aa0_b.jpg"}},{"id":1408,"common_name":"boxwood","scientific_name":["Buxus 'Green Velvet'"],"other_name":null,"cycle":"Perennial","watering":"Average","sunlight":["Full sun","part shade"],"default_image":{"image_id":9,"license":5,"license_name":"Attribution-ShareAlike License","license_url":"https://creativecommons.org/licenses/by-sa/2.0/","original_url":"https://perenual.com/storage/species_image/2_abies_alba_pyramidalis/og/49255769768_df55596553_b.jpg","regular_url":"https://perenual.com/storage/species_image/2_abies_alba_pyramidalis/regular/49255769768_df55596553_b.jpg","medium_url":"https://perenual.com/storage/species_image/2_abies_alba_pyramidalis/medium/49255769768_df55596553_b.jpg","small_url":"https://perenual.com/storage/species_image/2_abies_alba_pyramidalis/small/49255769768_df55596553_b.jpg","thumbnail":"https://perenual.com/storage/species_image/2_abies_alba_pyramidalis/thumbnail/49255769768_df55596553_b.jpg"}},{"id":1409,"common_name":"Harland boxwood","scientific_name":["Buxus harlandii"],"other_name":null,"cycle":"Perennial","watering":"Average","sunlight":["Full sun","part shade"],"default_image":{"image_id":9,"license":5,"license_name":"Attribution-ShareAlike License","license_url":"https://creativecommons.org/licenses/by-sa/2.0/","original_url":"https://perenual.com/storage/species_image/2_abies_alba_pyramidalis/og/49255769768_df55596553_b.jpg","regular_url":"https://perenual.com/storage/species_image/2_abies_alba_pyramidalis/regular/49255769768_df55596553_b.jpg","medium_url":"https://perenual.com/storage/species_image/2_abies_alba_pyramidalis/medium/49255769768_df55596553_b.jpg","small_url":"https://perenual.com/storage/species_image/2_abies_alba_pyramidalis/small/49255769768_df55596553_b.jpg","thumbnail":"https://perenual.com/storage/species_image/2_abies_alba_pyramidalis/thumbnail/49255769768_df55596553_b.jpg"}},{"id":1410,"common_name":"boxwood","scientific_name":["Buxus microphylla"],"other_name":["Korean boxwood"],"cycle":"Perennial","watering":"Average","sunlight":["Filtered shade"," Full sun only if soil kept moist"," Part sun/part shade"],"default_image":{"image_id":3260,"license":5,"license_name":"Attribution-ShareAlike License","license_url":"https://creativecommons.org/licenses/by-sa/2.0/","original_url":"https://perenual.com/storage/species_image/1418_buxus_microphylla_var_japonica_green_beauty/og/51924140638_bbc40bb151_b.jpg","regular_url":"https://perenual.com/storage/species_image/1418_buxus_microphylla_var_japonica_green_beauty/regular/51924140638_bbc40bb151_b.jpg","medium_url":"https://perenual.com/storage/species_image/1418_buxus_microphylla_var_japonica_green_beauty/medium/51924140638_bbc40bb151_b.jpg","small_url":"https://perenual.com/storage/species_image/1418_buxus_microphylla_var_japonica_green_beauty/small/51924140638_bbc40bb151_b.jpg","thumbnail":"https://perenual.com/storage/species_image/1418_buxus_microphylla_var_japonica_green_beauty/thumbnail/51924140638_bbc40bb151_b.jpg"}}],"to":1410,"per_page":30,"current_page":47,"from":1381,"last_page":200,"total":6000}