{"data":[{"id":5821,"common_name":"avocado","scientific_name":["Persea americana"],"other_name":null,"cycle":"Perennial","watering":"Average","sunlight":["Full sun"],"default_image":{"image_id":11661,"license":4,"license_name":"Attribution License","license_url":"https://creativecommons.org/licenses/by/2.0/","original_url":"https://perenual.com/storage/species_image/5821_persea_americana/og/35061570052_2ff0cd2df4_b.jpg","regular_url":"https://perenual.com/storage/species_image/5821_persea_americana/regular/35061570052_2ff0cd2df4_b.jpg","medium_url":"https://perenual.com/storage/species_image/5821_persea_americana/medium/35061570052_2ff0cd2df4_b.jpg","small_url":"https://perenual.com/storage/species_image/5821_persea_americana/small/35061570052_2ff0cd2df4_b.jpg","thumbnail":"https://perenual.com/storage/species_image/5821_persea_americana/thumbnail/35061570052_2ff0cd2df4_b.jpg"}},{"id":5822,"common_name":"knotweed","scientific_name":["Persicaria affinis 'Superba'"],"other_name":null,"cycle":"Perennial","watering":"Average","sunlight":["Full sun"],"default_image":{"image_id":9,"license":5,"license_name":"Attribution-ShareAlike License","license_url":"https://creativecommons.org/licenses/by-sa/2.0/","original_url":"https://perenual.com/storage/species_image/2_abies_alba_pyramidalis/og/49255769768_df55596553_b.jpg","regular_url":"https://perenual.com/storage/species_image/2_abies_alba_pyramidalis/regular/49255769768_df55596553_b.jpg","medium_url":"https://perenual.com/storage/species_image/2_abies_alba_pyramidalis/medium/49255769768_df55596553_b.jpg","small_url":"https://perenual.com/storage/species_image/2_abies_alba_pyramidalis/small/49255769768_df55596553_b.jpg","thumbnail":"https://perenual.com/storage/species_image/2_abies_alba_pyramidalis/thumbnail/49255769768_df55596553_b.jpg"}},{"id":5823,"common_name":"mountain fleece","scientific_name":["Persicaria amplexicaulis 'Golden Arrow'"],"other_name":null,"cycle":"Perennial","watering":"Frequent","sunlight":["Filtered shade"," Full sun only if soil kept moist"," Part sun/part shade"],"default_image":{"image_id":11667,"license":4,"license_name":"Attribution License","license_url":"https://creativecommons.org/licenses/by/2.0/","original_url":"https://perenual.com/storage/species_image/5823_persicaria_amplexicaulis_golden_arrow/og/28769860315_73c324d29f_b.jpg","regular_url":"https://perenual.com/storage/species_image/5823_persicaria_amplexicaulis_golden_arrow/regular/28769860315_73c324d29f_b.jpg","medium_url":"https://perenual.com/storage/species_image/5823_persicaria_amplexicaulis_golden_arrow/medium/28769860315_73c324d29f_b.jpg","small_url":"https://perenual.com/storage/species_image/5823_persicaria_amplexicaulis_golden_arrow/small/28769860315_73c324d29f_b.jpg","thumbnail":"https://perenual.com/storage/species_image/5823_persicaria_amplexicaulis_golden_arrow/thumbnail/28769860315_73c324d29f_b.jpg"}},{"id":5824,"common_name":"knotweed","scientific_name":["Persicaria microcephala 'Red Dragon'"],"other_name":null,"cycle":"Perennial","watering":"Average","sunlight":["Deep shade"," Filtered shade"," Full sun"," Part sun/part shade"],"default_image":{"image_id":9,"license":5,"license_name":"Attribution-ShareAlike License","license_url":"https://creativecommons.org/licenses/by-sa/2.0/","original_url":"https://perenual.com/storage/species_image/2_abies_alba_pyramidalis/og/49255769768_df55596553_b.jpg","regular_url":"https://perenual.com/storage/species_image/2_abies_alba_pyramidalis/regular/49255769768_df55596553_b.jpg","medium_url":"https://perenual.com/storage/species_image/2_abies_alba_pyramidalis/medium/49255769768_df55596553_b.jpg","small_url":"https://perenual.com/storage/species_image/2_abies_alba_pyramidalis/small/49255769768_df55596553_b.jpg","thumbnail":"https://perenual.com/storage/species_image/2_abies_alba_pyramidalis/thumbnail/49255769768_df55596553_b.jpg"}},{"id":5825,"common_name":"Asian mint","scientific_name":["Persicaria odorata"],"other_name":null,"cycle":"Perennial","watering":"Frequent","sunlight":["Full sun","part shade"],"default_image":{"image_id":11669,"license":4,"license_name":"Attribution License","license_url":"https://creativecommons.org/licenses/by/2.0/","original_url":"https://perenual.com/storage/species_image/5825_persicaria_odorata/og/35547369433_d304b26baa_b.jpg","regular_url":"https://perenual.com/storage/species_image/5825_persicaria_odorata/regular/35547369433_d304b26baa_b.jpg","medium_url":"https://perenual.com/storage/species_image/5825_persicaria_odorata/medium/35547369433_d304b26baa_b.jpg","small_url":"https://perenual.com/storage/species_image/5825_persicaria_odorata/small/35547369433_d304b26baa_b.jpg","thumbnail":"https://perenual.com/storage/species_image/5825_persicaria_odorata/thumbnail/35547369433_d304b26baa_b.jpg"}},{"id":5826,"common_name":"knotweed","scientific_name":["Persicaria polymorpha"],"other_name":null,"cycle":"Perennial","watering":"Average","sunlight":["Full sun"],"default_image":{"image_id":9,"license":5,"license_name":"Attribution-ShareAlike License","license_url":"https://creativecommons.org/licenses/by-sa/2.0/","original_url":"https://perenual.com/storage/species_image/2_abies_alba_pyramidalis/og/49255769768_df55596553_b.jpg","regular_url":"https://perenual.com/storage/species_image/2_abies_alba_pyramidalis/regular/49255769768_df55596553_b.jpg","medium_url":"https://perenual.com/storage/species_image/2_abies_alba_pyramidalis/medium/49255769768_df55596553_b.jpg","small_url":"https://perenual.com/storage/species_image/2_abies_alba_pyramidalis/small/49255769768_df55596553_b.jpg","thumbnail":"https://perenual.com/storage/species_image/2_abies_alba_pyramidalis/thumbnail/49255769768_df55596553_b.jpg"}},{"id":5827,"common_name":"knotweed","scientific_name":["Persicaria virginiana"],"other_name":null,"cycle":"Perennial","watering":"Average","sunlight":["Full sun","part shade"],"default_image":{"image_id":9,"license":5,"license_name":"Attribution-ShareAlike License","license_url":"https://creativecommons.org/licenses/by-sa/2.0/","original_url":"https://perenual.com/storage/species_image/2_abies_alba_pyramidalis/og/49255769768_df55596553_b.jpg","regular_url":"https://perenual.com/storage/species_image/2_abies_alba_pyramidalis/regular/49255769768_df55596553_b.jpg","medium_url":"https://perenual.com/storage/species_image/2_abies_alba_pyramidalis/medium/49255769768_df55596553_b.jpg","small_url":"https://perenual.com/storage/species_image/2_abies_alba_pyramidalis/small/49255769768_df55596553_b.jpg","thumbnail":"https://perenual.com/storage/species_image/2_abies_alba_pyramidalis/thumbnail/49255769768_df55596553_b.jpg"}},{"id":5828,"common_name":"mountain fleece","scientific_name":["Persicaria virginiana (Compton's Form)"],"other_name":null,"cycle":"Perennial","watering":"Average","sunlight":["Part shade"],"default_image":{"image_id":11673,"license":5,"license_name":"Attribution-ShareAlike License","license_url":"https://creativecommons.org/licenses/by-sa/2.0/","original_url":"https://perenual.com/storage/species_image/5828_persicaria_virginiana_comptons_form/og/3086883185_2b767e6057_b.jpg","regular_url":"https://perenual.com/storage/species_image/5828_persicaria_virginiana_comptons_form/regular/3086883185_2b767e6057_b.jpg","medium_url":"https://perenual.com/storage/species_image/5828_persicaria_virginiana_comptons_form/medium/3086883185_2b767e6057_b.jpg","small_url":"https://perenual.com/storage/species_image/5828_persicaria_virginiana_comptons_form/small/3086883185_2b767e6057_b.jpg","thumbnail":"https://perenual.com/storage/species_image/5828_persicaria_virginiana_comptons_form/thumbnail/3086883185_2b767e6057_b.jpg"}},{"id":5829,"common_name":"knotweed","scientific_name":["Persicaria virginiana (Variegata Group) 'Painter's Palette'"],"other_name":null,"cycle":"Perennial","watering":"Average","sunlight":["Full sun","part shade"],"default_image":{"image_id":11675,"license":45,"license_name":"Attribution-ShareAlike 3.0 Unported (CC BY-SA 3.0)","license_url":"https://creativecommons.org/licenses/by-sa/3.0/deed.en","original_url":"https://perenual.com/storage/species_image/5829_persicaria_virginiana_variegata_group_painters_palette/og/Persicaria_virginiana_%27Painter%27s_Palette%27_kz1.jpg","regular_url":"https://perenual.com/storage/species_image/5829_persicaria_virginiana_variegata_group_painters_palette/regular/Persicaria_virginiana_%27Painter%27s_Palette%27_kz1.jpg","medium_url":"https://perenual.com/storage/species_image/5829_persicaria_virginiana_variegata_group_painters_palette/medium/Persicaria_virginiana_%27Painter%27s_Palette%27_kz1.jpg","small_url":"https://perenual.com/storage/species_image/5829_persicaria_virginiana_variegata_group_painters_palette/small/Persicaria_virginiana_%27Painter%27s_Palette%27_kz1.jpg","thumbnail":"https://perenual.com/storage/species_image/5829_persicaria_virginiana_variegata_group_painters_palette/thumbnail/Persicaria_virginiana_%27Painter%27s_Palette%27_kz1.jpg"}},{"id":5830,"common_name":"butterbur","scientific_name":["Petasites japonicus"],"other_name":null,"cycle":"Perennial","watering":"Frequent","sunlight":["Part shade","full shade"],"default_image":{"image_id":11676,"license":4,"license_name":"Attribution License","license_url":"https://creativecommons.org/licenses/by/2.0/","original_url":"https://perenual.com/storage/species_image/5830_petasites_japonicus/og/33502756488_89c0b67797_b.jpg","regular_url":"https://perenual.com/storage/species_image/5830_petasites_japonicus/regular/33502756488_89c0b67797_b.jpg","medium_url":"https://perenual.com/storage/species_image/5830_petasites_japonicus/medium/33502756488_89c0b67797_b.jpg","small_url":"https://perenual.com/storage/species_image/5830_petasites_japonicus/small/33502756488_89c0b67797_b.jpg","thumbnail":"https://perenual.com/storage/species_image/5830_petasites_japonicus/thumbnail/33502756488_89c0b67797_b.jpg"}},{"id":5831,"common_name":"queen's wreath","scientific_name":["Petrea volubilis"],"other_name":null,"cycle":"Perennial","watering":"Average","sunlight":["Full sun"],"default_image":{"image_id":11677,"license":5,"license_name":"Attribution-ShareAlike License","license_url":"https://creativecommons.org/licenses/by-sa/2.0/","original_url":"https://perenual.com/storage/species_image/5831_petrea_volubilis/og/49558296931_8d55eca040_b.jpg","regular_url":"https://perenual.com/storage/species_image/5831_petrea_volubilis/regular/49558296931_8d55eca040_b.jpg","medium_url":"https://perenual.com/storage/species_image/5831_petrea_volubilis/medium/49558296931_8d55eca040_b.jpg","small_url":"https://perenual.com/storage/species_image/5831_petrea_volubilis/small/49558296931_8d55eca040_b.jpg","thumbnail":"https://perenual.com/storage/species_image/5831_petrea_volubilis/thumbnail/49558296931_8d55eca040_b.jpg"}},{"id":5832,"common_name":"petrorhagia","scientific_name":["Petrorhagia saxifraga"],"other_name":null,"cycle":"Perennial","watering":"Average","sunlight":["Full sun"],"default_image":{"image_id":11680,"license":5,"license_name":"Attribution-ShareAlike License","license_url":"https://creativecommons.org/licenses/by-sa/2.0/","original_url":"https://perenual.com/storage/species_image/5832_petrorhagia_saxifraga/og/20679585478_da4d7bfb80_b.jpg","regular_url":"https://perenual.com/storage/species_image/5832_petrorhagia_saxifraga/regular/20679585478_da4d7bfb80_b.jpg","medium_url":"https://perenual.com/storage/species_image/5832_petrorhagia_saxifraga/medium/20679585478_da4d7bfb80_b.jpg","small_url":"https://perenual.com/storage/species_image/5832_petrorhagia_saxifraga/small/20679585478_da4d7bfb80_b.jpg","thumbnail":"https://perenual.com/storage/species_image/5832_petrorhagia_saxifraga/thumbnail/20679585478_da4d7bfb80_b.jpg"}},{"id":5833,"common_name":"parsley","scientific_name":["Petroselinum crispum"],"other_name":null,"cycle":"Perennial","watering":"Average","sunlight":["Full sun"," Part sun/part shade"],"default_image":{"image_id":11682,"license":4,"license_name":"Attribution License","license_url":"https://creativecommons.org/licenses/by/2.0/","original_url":"https://perenual.com/storage/species_image/5833_petroselinum_crispum/og/24890552915_bc32127f01_b.jpg","regular_url":"https://perenual.com/storage/species_image/5833_petroselinum_crispum/regular/24890552915_bc32127f01_b.jpg","medium_url":"https://perenual.com/storage/species_image/5833_petroselinum_crispum/medium/24890552915_bc32127f01_b.jpg","small_url":"https://perenual.com/storage/species_image/5833_petroselinum_crispum/small/24890552915_bc32127f01_b.jpg","thumbnail":"https://perenual.com/storage/species_image/5833_petroselinum_crispum/thumbnail/24890552915_bc32127f01_b.jpg"}},{"id":5834,"common_name":"Italian parsley","scientific_name":["Petroselinum crispum var. neapolitanum"],"other_name":null,"cycle":"Perennial","watering":"Average","sunlight":["Full sun"," Part sun/part shade"],"default_image":{"image_id":11684,"license":4,"license_name":"Attribution License","license_url":"https://creativecommons.org/licenses/by/2.0/","original_url":"https://perenual.com/storage/species_image/5834_petroselinum_crispum_var_neapolitanum/og/32927055054_449ab4c157_b.jpg","regular_url":"https://perenual.com/storage/species_image/5834_petroselinum_crispum_var_neapolitanum/regular/32927055054_449ab4c157_b.jpg","medium_url":"https://perenual.com/storage/species_image/5834_petroselinum_crispum_var_neapolitanum/medium/32927055054_449ab4c157_b.jpg","small_url":"https://perenual.com/storage/species_image/5834_petroselinum_crispum_var_neapolitanum/small/32927055054_449ab4c157_b.jpg","thumbnail":"https://perenual.com/storage/species_image/5834_petroselinum_crispum_var_neapolitanum/thumbnail/32927055054_449ab4c157_b.jpg"}},{"id":5835,"common_name":"petunia","scientific_name":["Petunia 'Ustuni6001' SUPERTUNIA VISTA BUBBLEGUM"],"other_name":null,"cycle":"Perennial","watering":"Average","sunlight":["Full sun"],"default_image":{"image_id":9,"license":5,"license_name":"Attribution-ShareAlike License","license_url":"https://creativecommons.org/licenses/by-sa/2.0/","original_url":"https://perenual.com/storage/species_image/2_abies_alba_pyramidalis/og/49255769768_df55596553_b.jpg","regular_url":"https://perenual.com/storage/species_image/2_abies_alba_pyramidalis/regular/49255769768_df55596553_b.jpg","medium_url":"https://perenual.com/storage/species_image/2_abies_alba_pyramidalis/medium/49255769768_df55596553_b.jpg","small_url":"https://perenual.com/storage/species_image/2_abies_alba_pyramidalis/small/49255769768_df55596553_b.jpg","thumbnail":"https://perenual.com/storage/species_image/2_abies_alba_pyramidalis/thumbnail/49255769768_df55596553_b.jpg"}},{"id":5836,"common_name":"orchid","scientific_name":["Phaius (group)"],"other_name":null,"cycle":"Perennial","watering":"Average","sunlight":["Part shade"],"default_image":{"image_id":11686,"license":4,"license_name":"Attribution License","license_url":"https://creativecommons.org/licenses/by/2.0/","original_url":"https://perenual.com/storage/species_image/5836_phaius_group/og/7182438174_911811fe52_b.jpg","regular_url":"https://perenual.com/storage/species_image/5836_phaius_group/regular/7182438174_911811fe52_b.jpg","medium_url":"https://perenual.com/storage/species_image/5836_phaius_group/medium/7182438174_911811fe52_b.jpg","small_url":"https://perenual.com/storage/species_image/5836_phaius_group/small/7182438174_911811fe52_b.jpg","thumbnail":"https://perenual.com/storage/species_image/5836_phaius_group/thumbnail/7182438174_911811fe52_b.jpg"}},{"id":5837,"common_name":"moth orchid","scientific_name":["Phalaenopsis (group)"],"other_name":null,"cycle":"Perennial","watering":"Average","sunlight":["Part shade","full shade"],"default_image":{"image_id":11687,"license":4,"license_name":"Attribution License","license_url":"https://creativecommons.org/licenses/by/2.0/","original_url":"https://perenual.com/storage/species_image/5837_phalaenopsis_group/og/21630008162_7660439696_b.jpg","regular_url":"https://perenual.com/storage/species_image/5837_phalaenopsis_group/regular/21630008162_7660439696_b.jpg","medium_url":"https://perenual.com/storage/species_image/5837_phalaenopsis_group/medium/21630008162_7660439696_b.jpg","small_url":"https://perenual.com/storage/species_image/5837_phalaenopsis_group/small/21630008162_7660439696_b.jpg","thumbnail":"https://perenual.com/storage/species_image/5837_phalaenopsis_group/thumbnail/21630008162_7660439696_b.jpg"}},{"id":5838,"common_name":"reed canary grass","scientific_name":["Phalaris arundinacea"],"other_name":["ribbon grass"],"cycle":"Perennial","watering":"Frequent","sunlight":["Full sun"," Part sun/part shade"],"default_image":{"image_id":11689,"license":5,"license_name":"Attribution-ShareAlike License","license_url":"https://creativecommons.org/licenses/by-sa/2.0/","original_url":"https://perenual.com/storage/species_image/5838_phalaris_arundinacea/og/52210675168_72f15225af_b.jpg","regular_url":"https://perenual.com/storage/species_image/5838_phalaris_arundinacea/regular/52210675168_72f15225af_b.jpg","medium_url":"https://perenual.com/storage/species_image/5838_phalaris_arundinacea/medium/52210675168_72f15225af_b.jpg","small_url":"https://perenual.com/storage/species_image/5838_phalaris_arundinacea/small/52210675168_72f15225af_b.jpg","thumbnail":"https://perenual.com/storage/species_image/5838_phalaris_arundinacea/thumbnail/52210675168_72f15225af_b.jpg"}},{"id":5839,"common_name":"reed canary grass","scientific_name":["Phalaris arundinacea var. picta 'Feesey'"],"other_name":["ribbon grass"],"cycle":"Perennial","watering":"Frequent","sunlight":["Full sun"," Part sun/part shade"],"default_image":{"image_id":11690,"license":4,"license_name":"Attribution License","license_url":"https://creativecommons.org/licenses/by/2.0/","original_url":"https://perenual.com/storage/species_image/5839_phalaris_arundinacea_var_picta_feesey/og/52273981190_57b56f2dc1_b.jpg","regular_url":"https://perenual.com/storage/species_image/5839_phalaris_arundinacea_var_picta_feesey/regular/52273981190_57b56f2dc1_b.jpg","medium_url":"https://perenual.com/storage/species_image/5839_phalaris_arundinacea_var_picta_feesey/medium/52273981190_57b56f2dc1_b.jpg","small_url":"https://perenual.com/storage/species_image/5839_phalaris_arundinacea_var_picta_feesey/small/52273981190_57b56f2dc1_b.jpg","thumbnail":"https://perenual.com/storage/species_image/5839_phalaris_arundinacea_var_picta_feesey/thumbnail/52273981190_57b56f2dc1_b.jpg"}},{"id":5840,"common_name":"reed canary grass","scientific_name":["Phalaris arundinacea var. picta 'Picta'"],"other_name":["ribbon grass"],"cycle":"Perennial","watering":"Frequent","sunlight":["Full sun"," Part sun/part shade"],"default_image":{"image_id":11691,"license":5,"license_name":"Attribution-ShareAlike License","license_url":"https://creativecommons.org/licenses/by-sa/2.0/","original_url":"https://perenual.com/storage/species_image/5840_phalaris_arundinacea_var_picta_picta/og/5988500964_ebf9b9b756_b.jpg","regular_url":"https://perenual.com/storage/species_image/5840_phalaris_arundinacea_var_picta_picta/regular/5988500964_ebf9b9b756_b.jpg","medium_url":"https://perenual.com/storage/species_image/5840_phalaris_arundinacea_var_picta_picta/medium/5988500964_ebf9b9b756_b.jpg","small_url":"https://perenual.com/storage/species_image/5840_phalaris_arundinacea_var_picta_picta/small/5988500964_ebf9b9b756_b.jpg","thumbnail":"https://perenual.com/storage/species_image/5840_phalaris_arundinacea_var_picta_picta/thumbnail/5988500964_ebf9b9b756_b.jpg"}},{"id":5841,"common_name":"snap bean","scientific_name":["Phaseolus coccineus"],"other_name":null,"cycle":"Annual","watering":"Average","sunlight":["Full sun"],"default_image":{"image_id":11692,"license":4,"license_name":"Attribution License","license_url":"https://creativecommons.org/licenses/by/2.0/","original_url":"https://perenual.com/storage/species_image/5841_phaseolus_coccineus/og/51871747748_2050873237_b.jpg","regular_url":"https://perenual.com/storage/species_image/5841_phaseolus_coccineus/regular/51871747748_2050873237_b.jpg","medium_url":"https://perenual.com/storage/species_image/5841_phaseolus_coccineus/medium/51871747748_2050873237_b.jpg","small_url":"https://perenual.com/storage/species_image/5841_phaseolus_coccineus/small/51871747748_2050873237_b.jpg","thumbnail":"https://perenual.com/storage/species_image/5841_phaseolus_coccineus/thumbnail/51871747748_2050873237_b.jpg"}},{"id":5842,"common_name":"bean","scientific_name":["Phaseolus vulgaris"],"other_name":["black bean","kidney bean","pinto bean","French bean"],"cycle":"Perennial","watering":"Average","sunlight":["Full sun"],"default_image":{"image_id":11697,"license":5,"license_name":"Attribution-ShareAlike License","license_url":"https://creativecommons.org/licenses/by-sa/2.0/","original_url":"https://perenual.com/storage/species_image/5842_phaseolus_vulgaris/og/6132751172_d0885c3543_b.jpg","regular_url":"https://perenual.com/storage/species_image/5842_phaseolus_vulgaris/regular/6132751172_d0885c3543_b.jpg","medium_url":"https://perenual.com/storage/species_image/5842_phaseolus_vulgaris/medium/6132751172_d0885c3543_b.jpg","small_url":"https://perenual.com/storage/species_image/5842_phaseolus_vulgaris/small/6132751172_d0885c3543_b.jpg","thumbnail":"https://perenual.com/storage/species_image/5842_phaseolus_vulgaris/thumbnail/6132751172_d0885c3543_b.jpg"}},{"id":5843,"common_name":"pole bean","scientific_name":["Phaseolus vulgaris 'Blauhilde'"],"other_name":null,"cycle":"Perennial","watering":"Average","sunlight":["Full sun"],"default_image":{"image_id":11700,"license":4,"license_name":"Attribution License","license_url":"https://creativecommons.org/licenses/by/2.0/","original_url":"https://perenual.com/storage/species_image/5843_phaseolus_vulgaris_blauhilde/og/1119791994_679b808283_b.jpg","regular_url":"https://perenual.com/storage/species_image/5843_phaseolus_vulgaris_blauhilde/regular/1119791994_679b808283_b.jpg","medium_url":"https://perenual.com/storage/species_image/5843_phaseolus_vulgaris_blauhilde/medium/1119791994_679b808283_b.jpg","small_url":"https://perenual.com/storage/species_image/5843_phaseolus_vulgaris_blauhilde/small/1119791994_679b808283_b.jpg","thumbnail":"https://perenual.com/storage/species_image/5843_phaseolus_vulgaris_blauhilde/thumbnail/1119791994_679b808283_b.jpg"}},{"id":5844,"common_name":"stonecrop","scientific_name":["Phedimus ellacombianus"],"other_name":null,"cycle":"Perennial","watering":"Minimum","sunlight":["Full sun","part shade"],"default_image":{"image_id":11701,"license":45,"license_name":"Attribution-ShareAlike 3.0 Unported (CC BY-SA 3.0)","license_url":"https://creativecommons.org/licenses/by-sa/3.0/deed.en","original_url":"https://perenual.com/storage/species_image/5844_phedimus_ellacombianus/og/Sedum_kamtschaticum_4zz.jpg","regular_url":"https://perenual.com/storage/species_image/5844_phedimus_ellacombianus/regular/Sedum_kamtschaticum_4zz.jpg","medium_url":"https://perenual.com/storage/species_image/5844_phedimus_ellacombianus/medium/Sedum_kamtschaticum_4zz.jpg","small_url":"https://perenual.com/storage/species_image/5844_phedimus_ellacombianus/small/Sedum_kamtschaticum_4zz.jpg","thumbnail":"https://perenual.com/storage/species_image/5844_phedimus_ellacombianus/thumbnail/Sedum_kamtschaticum_4zz.jpg"}},{"id":5845,"common_name":"Russian stonecrop","scientific_name":["Phedimus kamtschaticus"],"other_name":null,"cycle":"Perennial","watering":"Minimum","sunlight":["Full sun"],"default_image":{"image_id":11702,"license":5,"license_name":"Attribution-ShareAlike License","license_url":"https://creativecommons.org/licenses/by-sa/2.0/","original_url":"https://perenual.com/storage/species_image/5845_phedimus_kamtschaticus/og/28801713737_1c257f0a0d_b.jpg","regular_url":"https://perenual.com/storage/species_image/5845_phedimus_kamtschaticus/regular/28801713737_1c257f0a0d_b.jpg","medium_url":"https://perenual.com/storage/species_image/5845_phedimus_kamtschaticus/medium/28801713737_1c257f0a0d_b.jpg","small_url":"https://perenual.com/storage/species_image/5845_phedimus_kamtschaticus/small/28801713737_1c257f0a0d_b.jpg","thumbnail":"https://perenual.com/storage/species_image/5845_phedimus_kamtschaticus/thumbnail/28801713737_1c257f0a0d_b.jpg"}},{"id":5846,"common_name":"beech fern","scientific_name":["Phegopteris decursive-pinnata"],"other_name":null,"cycle":"Perennial","watering":"Frequent","sunlight":["Deep shade"," Filtered shade"," Part sun/part shade"],"default_image":{"image_id":9,"license":5,"license_name":"Attribution-ShareAlike License","license_url":"https://creativecommons.org/licenses/by-sa/2.0/","original_url":"https://perenual.com/storage/species_image/2_abies_alba_pyramidalis/og/49255769768_df55596553_b.jpg","regular_url":"https://perenual.com/storage/species_image/2_abies_alba_pyramidalis/regular/49255769768_df55596553_b.jpg","medium_url":"https://perenual.com/storage/species_image/2_abies_alba_pyramidalis/medium/49255769768_df55596553_b.jpg","small_url":"https://perenual.com/storage/species_image/2_abies_alba_pyramidalis/small/49255769768_df55596553_b.jpg","thumbnail":"https://perenual.com/storage/species_image/2_abies_alba_pyramidalis/thumbnail/49255769768_df55596553_b.jpg"}},{"id":5847,"common_name":"broad beech fern","scientific_name":["Phegopteris hexagonoptera"],"other_name":null,"cycle":"Perennial","watering":"Frequent","sunlight":["Part shade","full shade"],"default_image":{"image_id":11709,"license":4,"license_name":"Attribution License","license_url":"https://creativecommons.org/licenses/by/2.0/","original_url":"https://perenual.com/storage/species_image/5847_phegopteris_hexagonoptera/og/6223474158_075a475af6_b.jpg","regular_url":"https://perenual.com/storage/species_image/5847_phegopteris_hexagonoptera/regular/6223474158_075a475af6_b.jpg","medium_url":"https://perenual.com/storage/species_image/5847_phegopteris_hexagonoptera/medium/6223474158_075a475af6_b.jpg","small_url":"https://perenual.com/storage/species_image/5847_phegopteris_hexagonoptera/small/6223474158_075a475af6_b.jpg","thumbnail":"https://perenual.com/storage/species_image/5847_phegopteris_hexagonoptera/thumbnail/6223474158_075a475af6_b.jpg"}},{"id":5848,"common_name":"Amur cork tree","scientific_name":["Phellodendron amurense"],"other_name":null,"cycle":"Perennial","watering":"Average","sunlight":["Full sun"],"default_image":{"image_id":11712,"license":5,"license_name":"Attribution-ShareAlike License","license_url":"https://creativecommons.org/licenses/by-sa/2.0/","original_url":"https://perenual.com/storage/species_image/5848_phellodendron_amurense/og/50082939516_d186046a0f_b.jpg","regular_url":"https://perenual.com/storage/species_image/5848_phellodendron_amurense/regular/50082939516_d186046a0f_b.jpg","medium_url":"https://perenual.com/storage/species_image/5848_phellodendron_amurense/medium/50082939516_d186046a0f_b.jpg","small_url":"https://perenual.com/storage/species_image/5848_phellodendron_amurense/small/50082939516_d186046a0f_b.jpg","thumbnail":"https://perenual.com/storage/species_image/5848_phellodendron_amurense/thumbnail/50082939516_d186046a0f_b.jpg"}},{"id":5849,"common_name":"Amur cork tree","scientific_name":["Phellodendron amurense 'Macho'"],"other_name":null,"cycle":"Perennial","watering":"Average","sunlight":["Full sun"],"default_image":{"image_id":11713,"license":4,"license_name":"Attribution License","license_url":"https://creativecommons.org/licenses/by/2.0/","original_url":"https://perenual.com/storage/species_image/5849_phellodendron_amurense_macho/og/48858787362_dddf275625_b.jpg","regular_url":"https://perenual.com/storage/species_image/5849_phellodendron_amurense_macho/regular/48858787362_dddf275625_b.jpg","medium_url":"https://perenual.com/storage/species_image/5849_phellodendron_amurense_macho/medium/48858787362_dddf275625_b.jpg","small_url":"https://perenual.com/storage/species_image/5849_phellodendron_amurense_macho/small/48858787362_dddf275625_b.jpg","thumbnail":"https://perenual.com/storage/species_image/5849_phellodendron_amurense_macho/thumbnail/48858787362_dddf275625_b.jpg"}},{"id":5850,"common_name":"fameflower","scientific_name":["Phemeranthus calycinus"],"other_name":null,"cycle":"Annual","watering":"Minimum","sunlight":["Full sun"],"default_image":{"image_id":11714,"license":45,"license_name":"Attribution-ShareAlike 3.0 Unported (CC BY-SA 3.0)","license_url":"https://creativecommons.org/licenses/by-sa/3.0/deed.en","original_url":"https://perenual.com/storage/species_image/5850_phemeranthus_calycinus/og/Talinum_calycinum_2.jpg","regular_url":"https://perenual.com/storage/species_image/5850_phemeranthus_calycinus/regular/Talinum_calycinum_2.jpg","medium_url":"https://perenual.com/storage/species_image/5850_phemeranthus_calycinus/medium/Talinum_calycinum_2.jpg","small_url":"https://perenual.com/storage/species_image/5850_phemeranthus_calycinus/small/Talinum_calycinum_2.jpg","thumbnail":"https://perenual.com/storage/species_image/5850_phemeranthus_calycinus/thumbnail/Talinum_calycinum_2.jpg"}}],"to":5850,"per_page":30,"current_page":195,"from":5821,"last_page":200,"total":6000}