{"data":[{"id":3721,"common_name":"coral bells","scientific_name":["Heuchera 'Pwheu0102' DOLCE MOCHA MINT"],"other_name":null,"cycle":"Perennial","watering":"Average","sunlight":["Full sun","part shade"],"default_image":{"image_id":7583,"license":5,"license_name":"Attribution-ShareAlike License","license_url":"https://creativecommons.org/licenses/by-sa/2.0/","original_url":"https://perenual.com/storage/species_image/3741_heuchera_sparkling_burgundy/og/52334343166_a4176ab522_b.jpg","regular_url":"https://perenual.com/storage/species_image/3741_heuchera_sparkling_burgundy/regular/52334343166_a4176ab522_b.jpg","medium_url":"https://perenual.com/storage/species_image/3741_heuchera_sparkling_burgundy/medium/52334343166_a4176ab522_b.jpg","small_url":"https://perenual.com/storage/species_image/3741_heuchera_sparkling_burgundy/small/52334343166_a4176ab522_b.jpg","thumbnail":"https://perenual.com/storage/species_image/3741_heuchera_sparkling_burgundy/thumbnail/52334343166_a4176ab522_b.jpg"}},{"id":3722,"common_name":"coral bells","scientific_name":["Heuchera 'PWHEU0103' DOLCE CREME DE MENTHE"],"other_name":null,"cycle":"Perennial","watering":"Average","sunlight":["Full sun","part shade"],"default_image":{"image_id":9,"license":5,"license_name":"Attribution-ShareAlike License","license_url":"https://creativecommons.org/licenses/by-sa/2.0/","original_url":"https://perenual.com/storage/species_image/2_abies_alba_pyramidalis/og/49255769768_df55596553_b.jpg","regular_url":"https://perenual.com/storage/species_image/2_abies_alba_pyramidalis/regular/49255769768_df55596553_b.jpg","medium_url":"https://perenual.com/storage/species_image/2_abies_alba_pyramidalis/medium/49255769768_df55596553_b.jpg","small_url":"https://perenual.com/storage/species_image/2_abies_alba_pyramidalis/small/49255769768_df55596553_b.jpg","thumbnail":"https://perenual.com/storage/species_image/2_abies_alba_pyramidalis/thumbnail/49255769768_df55596553_b.jpg"}},{"id":3723,"common_name":"coral bells","scientific_name":["Heuchera 'PWHEU0109' DOLCE BLACKCURRANT"],"other_name":null,"cycle":"Perennial","watering":"Average","sunlight":["Full sun","part shade"],"default_image":{"image_id":7517,"license":5,"license_name":"Attribution-ShareAlike License","license_url":"https://creativecommons.org/licenses/by-sa/2.0/","original_url":"https://perenual.com/storage/species_image/8610_heuchera_cvs/og/52334638749_a5f46e7540_b.jpg","regular_url":"https://perenual.com/storage/species_image/8610_heuchera_cvs/regular/52334638749_a5f46e7540_b.jpg","medium_url":"https://perenual.com/storage/species_image/8610_heuchera_cvs/medium/52334638749_a5f46e7540_b.jpg","small_url":"https://perenual.com/storage/species_image/8610_heuchera_cvs/small/52334638749_a5f46e7540_b.jpg","thumbnail":"https://perenual.com/storage/species_image/8610_heuchera_cvs/thumbnail/52334638749_a5f46e7540_b.jpg"}},{"id":3724,"common_name":"coral bells","scientific_name":["Heuchera 'Rachel'"],"other_name":null,"cycle":"Perennial","watering":"Average","sunlight":["Full sun","part shade"],"default_image":{"image_id":9,"license":5,"license_name":"Attribution-ShareAlike License","license_url":"https://creativecommons.org/licenses/by-sa/2.0/","original_url":"https://perenual.com/storage/species_image/2_abies_alba_pyramidalis/og/49255769768_df55596553_b.jpg","regular_url":"https://perenual.com/storage/species_image/2_abies_alba_pyramidalis/regular/49255769768_df55596553_b.jpg","medium_url":"https://perenual.com/storage/species_image/2_abies_alba_pyramidalis/medium/49255769768_df55596553_b.jpg","small_url":"https://perenual.com/storage/species_image/2_abies_alba_pyramidalis/small/49255769768_df55596553_b.jpg","thumbnail":"https://perenual.com/storage/species_image/2_abies_alba_pyramidalis/thumbnail/49255769768_df55596553_b.jpg"}},{"id":3725,"common_name":"coral bells","scientific_name":["Heuchera 'Raspberry Ice'"],"other_name":null,"cycle":"Perennial","watering":"Average","sunlight":["Full sun","part shade"],"default_image":{"image_id":7598,"license":5,"license_name":"Attribution-ShareAlike License","license_url":"https://creativecommons.org/licenses/by-sa/2.0/","original_url":"https://perenual.com/storage/species_image/3716_heuchera_pinot_gris/og/52210062470_777b630a0d_b.jpg","regular_url":"https://perenual.com/storage/species_image/3716_heuchera_pinot_gris/regular/52210062470_777b630a0d_b.jpg","medium_url":"https://perenual.com/storage/species_image/3716_heuchera_pinot_gris/medium/52210062470_777b630a0d_b.jpg","small_url":"https://perenual.com/storage/species_image/3716_heuchera_pinot_gris/small/52210062470_777b630a0d_b.jpg","thumbnail":"https://perenual.com/storage/species_image/3716_heuchera_pinot_gris/thumbnail/52210062470_777b630a0d_b.jpg"}},{"id":3726,"common_name":"coral bells","scientific_name":["Heuchera 'Raspberry Regal'"],"other_name":null,"cycle":"Perennial","watering":"Average","sunlight":["Full sun","part shade"],"default_image":{"image_id":9,"license":5,"license_name":"Attribution-ShareAlike License","license_url":"https://creativecommons.org/licenses/by-sa/2.0/","original_url":"https://perenual.com/storage/species_image/2_abies_alba_pyramidalis/og/49255769768_df55596553_b.jpg","regular_url":"https://perenual.com/storage/species_image/2_abies_alba_pyramidalis/regular/49255769768_df55596553_b.jpg","medium_url":"https://perenual.com/storage/species_image/2_abies_alba_pyramidalis/medium/49255769768_df55596553_b.jpg","small_url":"https://perenual.com/storage/species_image/2_abies_alba_pyramidalis/small/49255769768_df55596553_b.jpg","thumbnail":"https://perenual.com/storage/species_image/2_abies_alba_pyramidalis/thumbnail/49255769768_df55596553_b.jpg"}},{"id":3727,"common_name":"coral bells","scientific_name":["Heuchera 'Rave On'"],"other_name":null,"cycle":"Perennial","watering":"Average","sunlight":["Full sun","part shade"],"default_image":{"image_id":9,"license":5,"license_name":"Attribution-ShareAlike License","license_url":"https://creativecommons.org/licenses/by-sa/2.0/","original_url":"https://perenual.com/storage/species_image/2_abies_alba_pyramidalis/og/49255769768_df55596553_b.jpg","regular_url":"https://perenual.com/storage/species_image/2_abies_alba_pyramidalis/regular/49255769768_df55596553_b.jpg","medium_url":"https://perenual.com/storage/species_image/2_abies_alba_pyramidalis/medium/49255769768_df55596553_b.jpg","small_url":"https://perenual.com/storage/species_image/2_abies_alba_pyramidalis/small/49255769768_df55596553_b.jpg","thumbnail":"https://perenual.com/storage/species_image/2_abies_alba_pyramidalis/thumbnail/49255769768_df55596553_b.jpg"}},{"id":3728,"common_name":"coral bells","scientific_name":["Heuchera 'Regina'"],"other_name":null,"cycle":"Perennial","watering":"Average","sunlight":["Full sun","part shade"],"default_image":{"image_id":7521,"license":5,"license_name":"Attribution-ShareAlike License","license_url":"https://creativecommons.org/licenses/by-sa/2.0/","original_url":"https://perenual.com/storage/species_image/3752_heuchera_vesuvius/og/52334767830_64b85b2d5e_b.jpg","regular_url":"https://perenual.com/storage/species_image/3752_heuchera_vesuvius/regular/52334767830_64b85b2d5e_b.jpg","medium_url":"https://perenual.com/storage/species_image/3752_heuchera_vesuvius/medium/52334767830_64b85b2d5e_b.jpg","small_url":"https://perenual.com/storage/species_image/3752_heuchera_vesuvius/small/52334767830_64b85b2d5e_b.jpg","thumbnail":"https://perenual.com/storage/species_image/3752_heuchera_vesuvius/thumbnail/52334767830_64b85b2d5e_b.jpg"}},{"id":3729,"common_name":"alum root","scientific_name":["Heuchera richardsonii"],"other_name":null,"cycle":"Perennial","watering":"Minimum","sunlight":["Full sun","part shade"],"default_image":{"image_id":7614,"license":5,"license_name":"Attribution-ShareAlike License","license_url":"https://creativecommons.org/licenses/by-sa/2.0/","original_url":"https://perenual.com/storage/species_image/3729_heuchera_richardsonii/og/3342375612_810e38bc83_b.jpg","regular_url":"https://perenual.com/storage/species_image/3729_heuchera_richardsonii/regular/3342375612_810e38bc83_b.jpg","medium_url":"https://perenual.com/storage/species_image/3729_heuchera_richardsonii/medium/3342375612_810e38bc83_b.jpg","small_url":"https://perenual.com/storage/species_image/3729_heuchera_richardsonii/small/3342375612_810e38bc83_b.jpg","thumbnail":"https://perenual.com/storage/species_image/3729_heuchera_richardsonii/thumbnail/3342375612_810e38bc83_b.jpg"}},{"id":3730,"common_name":"coral bells","scientific_name":["Heuchera 'Ruby Veil'"],"other_name":null,"cycle":"Perennial","watering":"Average","sunlight":["Full sun","part shade"],"default_image":{"image_id":7615,"license":5,"license_name":"Attribution-ShareAlike License","license_url":"https://creativecommons.org/licenses/by-sa/2.0/","original_url":"https://perenual.com/storage/species_image/3730_heuchera_ruby_veil/og/51181257963_8faeb9f4cc_b.jpg","regular_url":"https://perenual.com/storage/species_image/3730_heuchera_ruby_veil/regular/51181257963_8faeb9f4cc_b.jpg","medium_url":"https://perenual.com/storage/species_image/3730_heuchera_ruby_veil/medium/51181257963_8faeb9f4cc_b.jpg","small_url":"https://perenual.com/storage/species_image/3730_heuchera_ruby_veil/small/51181257963_8faeb9f4cc_b.jpg","thumbnail":"https://perenual.com/storage/species_image/3730_heuchera_ruby_veil/thumbnail/51181257963_8faeb9f4cc_b.jpg"}},{"id":3731,"common_name":"coral bells","scientific_name":["Heuchera sanguinea"],"other_name":["red coral bells"],"cycle":"Perennial","watering":"Average","sunlight":["Full sun","part shade"],"default_image":{"image_id":7618,"license":4,"license_name":"Attribution License","license_url":"https://creativecommons.org/licenses/by/2.0/","original_url":"https://perenual.com/storage/species_image/3731_heuchera_sanguinea/og/3601383507_07a0e8f504_b.jpg","regular_url":"https://perenual.com/storage/species_image/3731_heuchera_sanguinea/regular/3601383507_07a0e8f504_b.jpg","medium_url":"https://perenual.com/storage/species_image/3731_heuchera_sanguinea/medium/3601383507_07a0e8f504_b.jpg","small_url":"https://perenual.com/storage/species_image/3731_heuchera_sanguinea/small/3601383507_07a0e8f504_b.jpg","thumbnail":"https://perenual.com/storage/species_image/3731_heuchera_sanguinea/thumbnail/3601383507_07a0e8f504_b.jpg"}},{"id":3732,"common_name":"coral bells","scientific_name":["Heuchera sanguinea 'Frosty'"],"other_name":null,"cycle":"Perennial","watering":"Average","sunlight":["Full sun","part shade"],"default_image":{"image_id":9,"license":5,"license_name":"Attribution-ShareAlike License","license_url":"https://creativecommons.org/licenses/by-sa/2.0/","original_url":"https://perenual.com/storage/species_image/2_abies_alba_pyramidalis/og/49255769768_df55596553_b.jpg","regular_url":"https://perenual.com/storage/species_image/2_abies_alba_pyramidalis/regular/49255769768_df55596553_b.jpg","medium_url":"https://perenual.com/storage/species_image/2_abies_alba_pyramidalis/medium/49255769768_df55596553_b.jpg","small_url":"https://perenual.com/storage/species_image/2_abies_alba_pyramidalis/small/49255769768_df55596553_b.jpg","thumbnail":"https://perenual.com/storage/species_image/2_abies_alba_pyramidalis/thumbnail/49255769768_df55596553_b.jpg"}},{"id":3733,"common_name":"coral bells","scientific_name":["Heuchera sanguinea 'Monet'"],"other_name":null,"cycle":"Perennial","watering":"Average","sunlight":["Full sun","part shade"],"default_image":{"image_id":7583,"license":5,"license_name":"Attribution-ShareAlike License","license_url":"https://creativecommons.org/licenses/by-sa/2.0/","original_url":"https://perenual.com/storage/species_image/3741_heuchera_sparkling_burgundy/og/52334343166_a4176ab522_b.jpg","regular_url":"https://perenual.com/storage/species_image/3741_heuchera_sparkling_burgundy/regular/52334343166_a4176ab522_b.jpg","medium_url":"https://perenual.com/storage/species_image/3741_heuchera_sparkling_burgundy/medium/52334343166_a4176ab522_b.jpg","small_url":"https://perenual.com/storage/species_image/3741_heuchera_sparkling_burgundy/small/52334343166_a4176ab522_b.jpg","thumbnail":"https://perenual.com/storage/species_image/3741_heuchera_sparkling_burgundy/thumbnail/52334343166_a4176ab522_b.jpg"}},{"id":3734,"common_name":"coral bells","scientific_name":["Heuchera sanguinea 'Ruby Bells'"],"other_name":null,"cycle":"Perennial","watering":"Average","sunlight":["Full sun","part shade"],"default_image":{"image_id":7621,"license":5,"license_name":"Attribution-ShareAlike License","license_url":"https://creativecommons.org/licenses/by-sa/2.0/","original_url":"https://perenual.com/storage/species_image/3734_heuchera_sanguinea_ruby_bells/og/51624305515_2185242e38_b.jpg","regular_url":"https://perenual.com/storage/species_image/3734_heuchera_sanguinea_ruby_bells/regular/51624305515_2185242e38_b.jpg","medium_url":"https://perenual.com/storage/species_image/3734_heuchera_sanguinea_ruby_bells/medium/51624305515_2185242e38_b.jpg","small_url":"https://perenual.com/storage/species_image/3734_heuchera_sanguinea_ruby_bells/small/51624305515_2185242e38_b.jpg","thumbnail":"https://perenual.com/storage/species_image/3734_heuchera_sanguinea_ruby_bells/thumbnail/51624305515_2185242e38_b.jpg"}},{"id":3735,"common_name":"coral bells","scientific_name":["Heuchera sanguinea 'Snow Storm'"],"other_name":null,"cycle":"Perennial","watering":"Average","sunlight":["Full sun","part shade"],"default_image":{"image_id":7599,"license":5,"license_name":"Attribution-ShareAlike License","license_url":"https://creativecommons.org/licenses/by-sa/2.0/","original_url":"https://perenual.com/storage/species_image/3716_heuchera_pinot_gris/og/52210062465_c9bd386223_b.jpg","regular_url":"https://perenual.com/storage/species_image/3716_heuchera_pinot_gris/regular/52210062465_c9bd386223_b.jpg","medium_url":"https://perenual.com/storage/species_image/3716_heuchera_pinot_gris/medium/52210062465_c9bd386223_b.jpg","small_url":"https://perenual.com/storage/species_image/3716_heuchera_pinot_gris/small/52210062465_c9bd386223_b.jpg","thumbnail":"https://perenual.com/storage/species_image/3716_heuchera_pinot_gris/thumbnail/52210062465_c9bd386223_b.jpg"}},{"id":3736,"common_name":"coral bells","scientific_name":["Heuchera sanguinea 'Splendens'"],"other_name":null,"cycle":"Perennial","watering":"Average","sunlight":["Full sun","part shade"],"default_image":{"image_id":9,"license":5,"license_name":"Attribution-ShareAlike License","license_url":"https://creativecommons.org/licenses/by-sa/2.0/","original_url":"https://perenual.com/storage/species_image/2_abies_alba_pyramidalis/og/49255769768_df55596553_b.jpg","regular_url":"https://perenual.com/storage/species_image/2_abies_alba_pyramidalis/regular/49255769768_df55596553_b.jpg","medium_url":"https://perenual.com/storage/species_image/2_abies_alba_pyramidalis/medium/49255769768_df55596553_b.jpg","small_url":"https://perenual.com/storage/species_image/2_abies_alba_pyramidalis/small/49255769768_df55596553_b.jpg","thumbnail":"https://perenual.com/storage/species_image/2_abies_alba_pyramidalis/thumbnail/49255769768_df55596553_b.jpg"}},{"id":3737,"common_name":"coral bells","scientific_name":["Heuchera 'Silver Lode'"],"other_name":null,"cycle":"Perennial","watering":"Average","sunlight":["Full sun","part shade"],"default_image":{"image_id":7521,"license":5,"license_name":"Attribution-ShareAlike License","license_url":"https://creativecommons.org/licenses/by-sa/2.0/","original_url":"https://perenual.com/storage/species_image/3752_heuchera_vesuvius/og/52334767830_64b85b2d5e_b.jpg","regular_url":"https://perenual.com/storage/species_image/3752_heuchera_vesuvius/regular/52334767830_64b85b2d5e_b.jpg","medium_url":"https://perenual.com/storage/species_image/3752_heuchera_vesuvius/medium/52334767830_64b85b2d5e_b.jpg","small_url":"https://perenual.com/storage/species_image/3752_heuchera_vesuvius/small/52334767830_64b85b2d5e_b.jpg","thumbnail":"https://perenual.com/storage/species_image/3752_heuchera_vesuvius/thumbnail/52334767830_64b85b2d5e_b.jpg"}},{"id":3738,"common_name":"coral bells","scientific_name":["Heuchera 'Silver Scrolls'"],"other_name":null,"cycle":"Perennial","watering":"Average","sunlight":["Full sun","part shade"],"default_image":{"image_id":9,"license":5,"license_name":"Attribution-ShareAlike License","license_url":"https://creativecommons.org/licenses/by-sa/2.0/","original_url":"https://perenual.com/storage/species_image/2_abies_alba_pyramidalis/og/49255769768_df55596553_b.jpg","regular_url":"https://perenual.com/storage/species_image/2_abies_alba_pyramidalis/regular/49255769768_df55596553_b.jpg","medium_url":"https://perenual.com/storage/species_image/2_abies_alba_pyramidalis/medium/49255769768_df55596553_b.jpg","small_url":"https://perenual.com/storage/species_image/2_abies_alba_pyramidalis/small/49255769768_df55596553_b.jpg","thumbnail":"https://perenual.com/storage/species_image/2_abies_alba_pyramidalis/thumbnail/49255769768_df55596553_b.jpg"}},{"id":3739,"common_name":"coral bells","scientific_name":["Heuchera 'Snow Angel'"],"other_name":null,"cycle":"Perennial","watering":"Average","sunlight":["Full sun","part shade"],"default_image":{"image_id":9,"license":5,"license_name":"Attribution-ShareAlike License","license_url":"https://creativecommons.org/licenses/by-sa/2.0/","original_url":"https://perenual.com/storage/species_image/2_abies_alba_pyramidalis/og/49255769768_df55596553_b.jpg","regular_url":"https://perenual.com/storage/species_image/2_abies_alba_pyramidalis/regular/49255769768_df55596553_b.jpg","medium_url":"https://perenual.com/storage/species_image/2_abies_alba_pyramidalis/medium/49255769768_df55596553_b.jpg","small_url":"https://perenual.com/storage/species_image/2_abies_alba_pyramidalis/small/49255769768_df55596553_b.jpg","thumbnail":"https://perenual.com/storage/species_image/2_abies_alba_pyramidalis/thumbnail/49255769768_df55596553_b.jpg"}},{"id":3740,"common_name":"coral bells","scientific_name":["Heuchera 'Southern Comfort'"],"other_name":null,"cycle":"Perennial","watering":"Average","sunlight":["Full sun","part shade"],"default_image":{"image_id":9,"license":5,"license_name":"Attribution-ShareAlike License","license_url":"https://creativecommons.org/licenses/by-sa/2.0/","original_url":"https://perenual.com/storage/species_image/2_abies_alba_pyramidalis/og/49255769768_df55596553_b.jpg","regular_url":"https://perenual.com/storage/species_image/2_abies_alba_pyramidalis/regular/49255769768_df55596553_b.jpg","medium_url":"https://perenual.com/storage/species_image/2_abies_alba_pyramidalis/medium/49255769768_df55596553_b.jpg","small_url":"https://perenual.com/storage/species_image/2_abies_alba_pyramidalis/small/49255769768_df55596553_b.jpg","thumbnail":"https://perenual.com/storage/species_image/2_abies_alba_pyramidalis/thumbnail/49255769768_df55596553_b.jpg"}},{"id":3741,"common_name":"coral bells","scientific_name":["Heuchera 'Sparkling Burgundy'"],"other_name":null,"cycle":"Perennial","watering":"Average","sunlight":["Full sun","part shade"],"default_image":{"image_id":7583,"license":5,"license_name":"Attribution-ShareAlike License","license_url":"https://creativecommons.org/licenses/by-sa/2.0/","original_url":"https://perenual.com/storage/species_image/3741_heuchera_sparkling_burgundy/og/52334343166_a4176ab522_b.jpg","regular_url":"https://perenual.com/storage/species_image/3741_heuchera_sparkling_burgundy/regular/52334343166_a4176ab522_b.jpg","medium_url":"https://perenual.com/storage/species_image/3741_heuchera_sparkling_burgundy/medium/52334343166_a4176ab522_b.jpg","small_url":"https://perenual.com/storage/species_image/3741_heuchera_sparkling_burgundy/small/52334343166_a4176ab522_b.jpg","thumbnail":"https://perenual.com/storage/species_image/3741_heuchera_sparkling_burgundy/thumbnail/52334343166_a4176ab522_b.jpg"}},{"id":3742,"common_name":"coral bells","scientific_name":["Heuchera 'Spellbound'"],"other_name":null,"cycle":"Perennial","watering":"Average","sunlight":["Full sun","part shade"],"default_image":{"image_id":7563,"license":4,"license_name":"Attribution License","license_url":"https://creativecommons.org/licenses/by/2.0/","original_url":"https://perenual.com/storage/species_image/3742_heuchera_spellbound/og/52211844910_5b40e09428_b.jpg","regular_url":"https://perenual.com/storage/species_image/3742_heuchera_spellbound/regular/52211844910_5b40e09428_b.jpg","medium_url":"https://perenual.com/storage/species_image/3742_heuchera_spellbound/medium/52211844910_5b40e09428_b.jpg","small_url":"https://perenual.com/storage/species_image/3742_heuchera_spellbound/small/52211844910_5b40e09428_b.jpg","thumbnail":"https://perenual.com/storage/species_image/3742_heuchera_spellbound/thumbnail/52211844910_5b40e09428_b.jpg"}},{"id":3743,"common_name":"coral bells","scientific_name":["Heuchera 'Strawberry Candy'"],"other_name":null,"cycle":"Perennial","watering":"Average","sunlight":["Full sun","part shade"],"default_image":{"image_id":7630,"license":4,"license_name":"Attribution License","license_url":"https://creativecommons.org/licenses/by/2.0/","original_url":"https://perenual.com/storage/species_image/3743_heuchera_strawberry_candy/og/52204563980_05bb757192_b.jpg","regular_url":"https://perenual.com/storage/species_image/3743_heuchera_strawberry_candy/regular/52204563980_05bb757192_b.jpg","medium_url":"https://perenual.com/storage/species_image/3743_heuchera_strawberry_candy/medium/52204563980_05bb757192_b.jpg","small_url":"https://perenual.com/storage/species_image/3743_heuchera_strawberry_candy/small/52204563980_05bb757192_b.jpg","thumbnail":"https://perenual.com/storage/species_image/3743_heuchera_strawberry_candy/thumbnail/52204563980_05bb757192_b.jpg"}},{"id":3744,"common_name":"coral bells","scientific_name":["Heuchera 'Strawberry Swirl'"],"other_name":null,"cycle":"Perennial","watering":"Average","sunlight":["Full sun","part shade"],"default_image":{"image_id":7517,"license":5,"license_name":"Attribution-ShareAlike License","license_url":"https://creativecommons.org/licenses/by-sa/2.0/","original_url":"https://perenual.com/storage/species_image/8610_heuchera_cvs/og/52334638749_a5f46e7540_b.jpg","regular_url":"https://perenual.com/storage/species_image/8610_heuchera_cvs/regular/52334638749_a5f46e7540_b.jpg","medium_url":"https://perenual.com/storage/species_image/8610_heuchera_cvs/medium/52334638749_a5f46e7540_b.jpg","small_url":"https://perenual.com/storage/species_image/8610_heuchera_cvs/small/52334638749_a5f46e7540_b.jpg","thumbnail":"https://perenual.com/storage/species_image/8610_heuchera_cvs/thumbnail/52334638749_a5f46e7540_b.jpg"}},{"id":3745,"common_name":"coral bells","scientific_name":["Heuchera 'Tara'"],"other_name":null,"cycle":"Perennial","watering":"Average","sunlight":["Full sun","part shade"],"default_image":{"image_id":7632,"license":5,"license_name":"Attribution-ShareAlike License","license_url":"https://creativecommons.org/licenses/by-sa/2.0/","original_url":"https://perenual.com/storage/species_image/3745_heuchera_tara/og/51624307595_f38cbd77cf_b.jpg","regular_url":"https://perenual.com/storage/species_image/3745_heuchera_tara/regular/51624307595_f38cbd77cf_b.jpg","medium_url":"https://perenual.com/storage/species_image/3745_heuchera_tara/medium/51624307595_f38cbd77cf_b.jpg","small_url":"https://perenual.com/storage/species_image/3745_heuchera_tara/small/51624307595_f38cbd77cf_b.jpg","thumbnail":"https://perenual.com/storage/species_image/3745_heuchera_tara/thumbnail/51624307595_f38cbd77cf_b.jpg"}},{"id":3746,"common_name":"coral bells","scientific_name":["Heuchera 'Tiramisu'"],"other_name":null,"cycle":"Perennial","watering":"Average","sunlight":["Full sun","part shade"],"default_image":{"image_id":7633,"license":5,"license_name":"Attribution-ShareAlike License","license_url":"https://creativecommons.org/licenses/by-sa/2.0/","original_url":"https://perenual.com/storage/species_image/3746_heuchera_tiramisu/og/6240940417_2bc4d00eff_b.jpg","regular_url":"https://perenual.com/storage/species_image/3746_heuchera_tiramisu/regular/6240940417_2bc4d00eff_b.jpg","medium_url":"https://perenual.com/storage/species_image/3746_heuchera_tiramisu/medium/6240940417_2bc4d00eff_b.jpg","small_url":"https://perenual.com/storage/species_image/3746_heuchera_tiramisu/small/6240940417_2bc4d00eff_b.jpg","thumbnail":"https://perenual.com/storage/species_image/3746_heuchera_tiramisu/thumbnail/6240940417_2bc4d00eff_b.jpg"}},{"id":3747,"common_name":"coral bells","scientific_name":["Heuchera 'TNHEU041' DOLCE CREME BRULEE"],"other_name":null,"cycle":"Perennial","watering":"Average","sunlight":["Full sun","part shade"],"default_image":{"image_id":9,"license":5,"license_name":"Attribution-ShareAlike License","license_url":"https://creativecommons.org/licenses/by-sa/2.0/","original_url":"https://perenual.com/storage/species_image/2_abies_alba_pyramidalis/og/49255769768_df55596553_b.jpg","regular_url":"https://perenual.com/storage/species_image/2_abies_alba_pyramidalis/regular/49255769768_df55596553_b.jpg","medium_url":"https://perenual.com/storage/species_image/2_abies_alba_pyramidalis/medium/49255769768_df55596553_b.jpg","small_url":"https://perenual.com/storage/species_image/2_abies_alba_pyramidalis/small/49255769768_df55596553_b.jpg","thumbnail":"https://perenual.com/storage/species_image/2_abies_alba_pyramidalis/thumbnail/49255769768_df55596553_b.jpg"}},{"id":3748,"common_name":"coral bells","scientific_name":["Heuchera 'TNHEU042' DOLCE KEY LIME PIE"],"other_name":null,"cycle":"Perennial","watering":"Average","sunlight":["Full sun","part shade"],"default_image":{"image_id":7544,"license":4,"license_name":"Attribution License","license_url":"https://creativecommons.org/licenses/by/2.0/","original_url":"https://perenual.com/storage/species_image/3748_heuchera_tnheu042_dolce_key_lime_pie/og/52197786786_3d341d9b7c_b.jpg","regular_url":"https://perenual.com/storage/species_image/3748_heuchera_tnheu042_dolce_key_lime_pie/regular/52197786786_3d341d9b7c_b.jpg","medium_url":"https://perenual.com/storage/species_image/3748_heuchera_tnheu042_dolce_key_lime_pie/medium/52197786786_3d341d9b7c_b.jpg","small_url":"https://perenual.com/storage/species_image/3748_heuchera_tnheu042_dolce_key_lime_pie/small/52197786786_3d341d9b7c_b.jpg","thumbnail":"https://perenual.com/storage/species_image/3748_heuchera_tnheu042_dolce_key_lime_pie/thumbnail/52197786786_3d341d9b7c_b.jpg"}},{"id":3749,"common_name":"coral bells","scientific_name":["Heuchera 'TNHEU044' DOLCE LICORICE"],"other_name":null,"cycle":"Perennial","watering":"Average","sunlight":["Full sun","part shade"],"default_image":{"image_id":9,"license":5,"license_name":"Attribution-ShareAlike License","license_url":"https://creativecommons.org/licenses/by-sa/2.0/","original_url":"https://perenual.com/storage/species_image/2_abies_alba_pyramidalis/og/49255769768_df55596553_b.jpg","regular_url":"https://perenual.com/storage/species_image/2_abies_alba_pyramidalis/regular/49255769768_df55596553_b.jpg","medium_url":"https://perenual.com/storage/species_image/2_abies_alba_pyramidalis/medium/49255769768_df55596553_b.jpg","small_url":"https://perenual.com/storage/species_image/2_abies_alba_pyramidalis/small/49255769768_df55596553_b.jpg","thumbnail":"https://perenual.com/storage/species_image/2_abies_alba_pyramidalis/thumbnail/49255769768_df55596553_b.jpg"}},{"id":3750,"common_name":"coral bells","scientific_name":["Heuchera 'Veil of Passion'"],"other_name":null,"cycle":"Perennial","watering":"Average","sunlight":["Full sun","part shade"],"default_image":{"image_id":7521,"license":5,"license_name":"Attribution-ShareAlike License","license_url":"https://creativecommons.org/licenses/by-sa/2.0/","original_url":"https://perenual.com/storage/species_image/3752_heuchera_vesuvius/og/52334767830_64b85b2d5e_b.jpg","regular_url":"https://perenual.com/storage/species_image/3752_heuchera_vesuvius/regular/52334767830_64b85b2d5e_b.jpg","medium_url":"https://perenual.com/storage/species_image/3752_heuchera_vesuvius/medium/52334767830_64b85b2d5e_b.jpg","small_url":"https://perenual.com/storage/species_image/3752_heuchera_vesuvius/small/52334767830_64b85b2d5e_b.jpg","thumbnail":"https://perenual.com/storage/species_image/3752_heuchera_vesuvius/thumbnail/52334767830_64b85b2d5e_b.jpg"}}],"to":3750,"per_page":30,"current_page":125,"from":3721,"last_page":200,"total":6000}