{"data":[{"id":4411,"common_name":"Siberian iris","scientific_name":["Iris 'Sally Kerlin'"],"other_name":null,"cycle":"Perennial","watering":"Frequent","sunlight":["Full sun","part shade"],"default_image":{"image_id":8914,"license":5,"license_name":"Attribution-ShareAlike License","license_url":"https://creativecommons.org/licenses/by-sa/2.0/","original_url":"https://perenual.com/storage/species_image/4335_iris_chilled_wine/og/52134438854_bbcdb0dd96_b.jpg","regular_url":"https://perenual.com/storage/species_image/4335_iris_chilled_wine/regular/52134438854_bbcdb0dd96_b.jpg","medium_url":"https://perenual.com/storage/species_image/4335_iris_chilled_wine/medium/52134438854_bbcdb0dd96_b.jpg","small_url":"https://perenual.com/storage/species_image/4335_iris_chilled_wine/small/52134438854_bbcdb0dd96_b.jpg","thumbnail":"https://perenual.com/storage/species_image/4335_iris_chilled_wine/thumbnail/52134438854_bbcdb0dd96_b.jpg"}},{"id":4412,"common_name":"bearded iris","scientific_name":["Iris 'September Replay'"],"other_name":null,"cycle":"Perennial","watering":"Average","sunlight":["Full sun"],"default_image":{"image_id":9168,"license":6,"license_name":"Attribution-NoDerivs License","license_url":"https://creativecommons.org/licenses/by-nd/2.0/","original_url":"https://perenual.com/storage/species_image/4412_iris_september_replay/og/51639907167_5bf95d44c1_b.jpg"}},{"id":4413,"common_name":"Siberian iris","scientific_name":["Iris 'Sky Wings'"],"other_name":null,"cycle":"Perennial","watering":"Frequent","sunlight":["Full sun","part shade"],"default_image":{"image_id":8914,"license":5,"license_name":"Attribution-ShareAlike License","license_url":"https://creativecommons.org/licenses/by-sa/2.0/","original_url":"https://perenual.com/storage/species_image/4335_iris_chilled_wine/og/52134438854_bbcdb0dd96_b.jpg","regular_url":"https://perenual.com/storage/species_image/4335_iris_chilled_wine/regular/52134438854_bbcdb0dd96_b.jpg","medium_url":"https://perenual.com/storage/species_image/4335_iris_chilled_wine/medium/52134438854_bbcdb0dd96_b.jpg","small_url":"https://perenual.com/storage/species_image/4335_iris_chilled_wine/small/52134438854_bbcdb0dd96_b.jpg","thumbnail":"https://perenual.com/storage/species_image/4335_iris_chilled_wine/thumbnail/52134438854_bbcdb0dd96_b.jpg"}},{"id":4414,"common_name":"Siberian iris","scientific_name":["Iris 'Sparkle'"],"other_name":null,"cycle":"Perennial","watering":"Frequent","sunlight":["Full sun","part shade"],"default_image":{"image_id":22018,"license":3,"license_name":null,"license_url":null,"original_url":"https://perenual.com/storage/species_image/4414_iris_sparkle/og/52151218854_a7e9c66938_b.jpg","regular_url":"https://perenual.com/storage/species_image/4414_iris_sparkle/regular/52151218854_a7e9c66938_b.jpg","medium_url":"https://perenual.com/storage/species_image/4414_iris_sparkle/medium/52151218854_a7e9c66938_b.jpg","small_url":"https://perenual.com/storage/species_image/4414_iris_sparkle/small/52151218854_a7e9c66938_b.jpg","thumbnail":"https://perenual.com/storage/species_image/4414_iris_sparkle/thumbnail/52151218854_a7e9c66938_b.jpg"}},{"id":4415,"common_name":"tall bearded reblooming iris","scientific_name":["Iris 'Spirit of Memphis'"],"other_name":null,"cycle":"Perennial","watering":"Average","sunlight":["Full sun"],"default_image":{"image_id":9,"license":5,"license_name":"Attribution-ShareAlike License","license_url":"https://creativecommons.org/licenses/by-sa/2.0/","original_url":"https://perenual.com/storage/species_image/2_abies_alba_pyramidalis/og/49255769768_df55596553_b.jpg","regular_url":"https://perenual.com/storage/species_image/2_abies_alba_pyramidalis/regular/49255769768_df55596553_b.jpg","medium_url":"https://perenual.com/storage/species_image/2_abies_alba_pyramidalis/medium/49255769768_df55596553_b.jpg","small_url":"https://perenual.com/storage/species_image/2_abies_alba_pyramidalis/small/49255769768_df55596553_b.jpg","thumbnail":"https://perenual.com/storage/species_image/2_abies_alba_pyramidalis/thumbnail/49255769768_df55596553_b.jpg"}},{"id":4416,"common_name":"blue iris","scientific_name":["Iris spuria"],"other_name":null,"cycle":"Perennial","watering":"Average","sunlight":["Full sun"],"default_image":{"image_id":9171,"license":5,"license_name":"Attribution-ShareAlike License","license_url":"https://creativecommons.org/licenses/by-sa/2.0/","original_url":"https://perenual.com/storage/species_image/4416_iris_spuria/og/41089091170_f713773c26_b.jpg","regular_url":"https://perenual.com/storage/species_image/4416_iris_spuria/regular/41089091170_f713773c26_b.jpg","medium_url":"https://perenual.com/storage/species_image/4416_iris_spuria/medium/41089091170_f713773c26_b.jpg","small_url":"https://perenual.com/storage/species_image/4416_iris_spuria/small/41089091170_f713773c26_b.jpg","thumbnail":"https://perenual.com/storage/species_image/4416_iris_spuria/thumbnail/41089091170_f713773c26_b.jpg"}},{"id":4417,"common_name":"species iris","scientific_name":["Iris spuria subsp. carthaliniae"],"other_name":null,"cycle":"Perennial","watering":"Average","sunlight":["Full sun"],"default_image":{"image_id":9176,"license":4,"license_name":"Attribution License","license_url":"https://creativecommons.org/licenses/by/2.0/","original_url":"https://perenual.com/storage/species_image/4430_iris_virginica_purple_fan/og/52093631367_1f49a7e52f_b.jpg","regular_url":"https://perenual.com/storage/species_image/4430_iris_virginica_purple_fan/regular/52093631367_1f49a7e52f_b.jpg","medium_url":"https://perenual.com/storage/species_image/4430_iris_virginica_purple_fan/medium/52093631367_1f49a7e52f_b.jpg","small_url":"https://perenual.com/storage/species_image/4430_iris_virginica_purple_fan/small/52093631367_1f49a7e52f_b.jpg","thumbnail":"https://perenual.com/storage/species_image/4430_iris_virginica_purple_fan/thumbnail/52093631367_1f49a7e52f_b.jpg"}},{"id":4418,"common_name":"species iris","scientific_name":["Iris spuria subsp. halophila"],"other_name":null,"cycle":"Perennial","watering":"Average","sunlight":["Full sun"],"default_image":{"image_id":9180,"license":4,"license_name":"Attribution License","license_url":"https://creativecommons.org/licenses/by/2.0/","original_url":"https://perenual.com/storage/species_image/4418_iris_spuria_subsp_halophila/og/51238060510_acdbedec80_b.jpg","regular_url":"https://perenual.com/storage/species_image/4418_iris_spuria_subsp_halophila/regular/51238060510_acdbedec80_b.jpg","medium_url":"https://perenual.com/storage/species_image/4418_iris_spuria_subsp_halophila/medium/51238060510_acdbedec80_b.jpg","small_url":"https://perenual.com/storage/species_image/4418_iris_spuria_subsp_halophila/small/51238060510_acdbedec80_b.jpg","thumbnail":"https://perenual.com/storage/species_image/4418_iris_spuria_subsp_halophila/thumbnail/51238060510_acdbedec80_b.jpg"}},{"id":4419,"common_name":"tall bearded reblooming iris","scientific_name":["Iris 'St. Petersburg'"],"other_name":null,"cycle":"Perennial","watering":"Average","sunlight":["Full sun"],"default_image":{"image_id":9,"license":5,"license_name":"Attribution-ShareAlike License","license_url":"https://creativecommons.org/licenses/by-sa/2.0/","original_url":"https://perenual.com/storage/species_image/2_abies_alba_pyramidalis/og/49255769768_df55596553_b.jpg","regular_url":"https://perenual.com/storage/species_image/2_abies_alba_pyramidalis/regular/49255769768_df55596553_b.jpg","medium_url":"https://perenual.com/storage/species_image/2_abies_alba_pyramidalis/medium/49255769768_df55596553_b.jpg","small_url":"https://perenual.com/storage/species_image/2_abies_alba_pyramidalis/small/49255769768_df55596553_b.jpg","thumbnail":"https://perenual.com/storage/species_image/2_abies_alba_pyramidalis/thumbnail/49255769768_df55596553_b.jpg"}},{"id":4420,"common_name":"standard dwarf bearded iris","scientific_name":["Iris 'Stealing Home'"],"other_name":null,"cycle":"Perennial","watering":"Average","sunlight":["Full sun"],"default_image":{"image_id":9,"license":5,"license_name":"Attribution-ShareAlike License","license_url":"https://creativecommons.org/licenses/by-sa/2.0/","original_url":"https://perenual.com/storage/species_image/2_abies_alba_pyramidalis/og/49255769768_df55596553_b.jpg","regular_url":"https://perenual.com/storage/species_image/2_abies_alba_pyramidalis/regular/49255769768_df55596553_b.jpg","medium_url":"https://perenual.com/storage/species_image/2_abies_alba_pyramidalis/medium/49255769768_df55596553_b.jpg","small_url":"https://perenual.com/storage/species_image/2_abies_alba_pyramidalis/small/49255769768_df55596553_b.jpg","thumbnail":"https://perenual.com/storage/species_image/2_abies_alba_pyramidalis/thumbnail/49255769768_df55596553_b.jpg"}},{"id":4421,"common_name":"Siberian iris","scientific_name":["Iris 'Steve Varner'"],"other_name":null,"cycle":"Perennial","watering":"Frequent","sunlight":["Full sun","part shade"],"default_image":{"image_id":9183,"license":5,"license_name":"Attribution-ShareAlike License","license_url":"https://creativecommons.org/licenses/by-sa/2.0/","original_url":"https://perenual.com/storage/species_image/4421_iris_steve_varner/og/49968651162_cf05179b55_b.jpg","regular_url":"https://perenual.com/storage/species_image/4421_iris_steve_varner/regular/49968651162_cf05179b55_b.jpg","medium_url":"https://perenual.com/storage/species_image/4421_iris_steve_varner/medium/49968651162_cf05179b55_b.jpg","small_url":"https://perenual.com/storage/species_image/4421_iris_steve_varner/small/49968651162_cf05179b55_b.jpg","thumbnail":"https://perenual.com/storage/species_image/4421_iris_steve_varner/thumbnail/49968651162_cf05179b55_b.jpg"}},{"id":4422,"common_name":"standard dwarf bearded iris","scientific_name":["Iris 'Sun Doll'"],"other_name":null,"cycle":"Perennial","watering":"Average","sunlight":["Full sun"],"default_image":{"image_id":21874,"license":45,"license_name":"Attribution-ShareAlike 3.0 Unported (CC BY-SA 3.0)","license_url":"https://creativecommons.org/licenses/by-sa/3.0/deed.en","original_url":"https://perenual.com/storage/species_image/4422_iris_sun_doll/og/Iris_%27Tuts_Gold%27_01.jpg","regular_url":"https://perenual.com/storage/species_image/4422_iris_sun_doll/regular/Iris_%27Tuts_Gold%27_01.jpg","medium_url":"https://perenual.com/storage/species_image/4422_iris_sun_doll/medium/Iris_%27Tuts_Gold%27_01.jpg","small_url":"https://perenual.com/storage/species_image/4422_iris_sun_doll/small/Iris_%27Tuts_Gold%27_01.jpg","thumbnail":"https://perenual.com/storage/species_image/4422_iris_sun_doll/thumbnail/Iris_%27Tuts_Gold%27_01.jpg"}},{"id":4423,"common_name":"roof iris","scientific_name":["Iris tectorum"],"other_name":null,"cycle":"Perennial","watering":"Average","sunlight":["Full sun","part shade"],"default_image":{"image_id":9188,"license":5,"license_name":"Attribution-ShareAlike License","license_url":"https://creativecommons.org/licenses/by-sa/2.0/","original_url":"https://perenual.com/storage/species_image/4423_iris_tectorum/og/9200963464_d6ab911ecf_b.jpg","regular_url":"https://perenual.com/storage/species_image/4423_iris_tectorum/regular/9200963464_d6ab911ecf_b.jpg","medium_url":"https://perenual.com/storage/species_image/4423_iris_tectorum/medium/9200963464_d6ab911ecf_b.jpg","small_url":"https://perenual.com/storage/species_image/4423_iris_tectorum/small/9200963464_d6ab911ecf_b.jpg","thumbnail":"https://perenual.com/storage/species_image/4423_iris_tectorum/thumbnail/9200963464_d6ab911ecf_b.jpg"}},{"id":4424,"common_name":"Siberian iris","scientific_name":["Iris 'Turn a Phrase'"],"other_name":null,"cycle":"Perennial","watering":"Frequent","sunlight":["Full sun","part shade"],"default_image":{"image_id":8987,"license":4,"license_name":"Attribution License","license_url":"https://creativecommons.org/licenses/by/2.0/","original_url":"https://perenual.com/storage/species_image/4353_iris_eric_the_red/og/52175152380_6fe8194843_b.jpg","regular_url":"https://perenual.com/storage/species_image/4353_iris_eric_the_red/regular/52175152380_6fe8194843_b.jpg","medium_url":"https://perenual.com/storage/species_image/4353_iris_eric_the_red/medium/52175152380_6fe8194843_b.jpg","small_url":"https://perenual.com/storage/species_image/4353_iris_eric_the_red/small/52175152380_6fe8194843_b.jpg","thumbnail":"https://perenual.com/storage/species_image/4353_iris_eric_the_red/thumbnail/52175152380_6fe8194843_b.jpg"}},{"id":4425,"common_name":"blue flag","scientific_name":["Iris versicolor"],"other_name":null,"cycle":"Perennial","watering":"Frequent","sunlight":["Full sun Partial sun"],"default_image":{"image_id":9,"license":5,"license_name":"Attribution-ShareAlike License","license_url":"https://creativecommons.org/licenses/by-sa/2.0/","original_url":"https://perenual.com/storage/species_image/2_abies_alba_pyramidalis/og/49255769768_df55596553_b.jpg","regular_url":"https://perenual.com/storage/species_image/2_abies_alba_pyramidalis/regular/49255769768_df55596553_b.jpg","medium_url":"https://perenual.com/storage/species_image/2_abies_alba_pyramidalis/medium/49255769768_df55596553_b.jpg","small_url":"https://perenual.com/storage/species_image/2_abies_alba_pyramidalis/small/49255769768_df55596553_b.jpg","thumbnail":"https://perenual.com/storage/species_image/2_abies_alba_pyramidalis/thumbnail/49255769768_df55596553_b.jpg"}},{"id":4426,"common_name":"blue flag","scientific_name":["Iris versicolor 'Bridesmaid'"],"other_name":null,"cycle":"Perennial","watering":"Frequent","sunlight":["Full sun Partial sun"],"default_image":{"image_id":21875,"license":45,"license_name":"Attribution-ShareAlike 3.0 Unported (CC BY-SA 3.0)","license_url":"https://creativecommons.org/licenses/by-sa/3.0/deed.en","original_url":"https://perenual.com/storage/species_image/4426_iris_versicolor_bridesmaid/og/Iris_versicolor_3.jpg","regular_url":"https://perenual.com/storage/species_image/4426_iris_versicolor_bridesmaid/regular/Iris_versicolor_3.jpg","medium_url":"https://perenual.com/storage/species_image/4426_iris_versicolor_bridesmaid/medium/Iris_versicolor_3.jpg","small_url":"https://perenual.com/storage/species_image/4426_iris_versicolor_bridesmaid/small/Iris_versicolor_3.jpg","thumbnail":"https://perenual.com/storage/species_image/4426_iris_versicolor_bridesmaid/thumbnail/Iris_versicolor_3.jpg"}},{"id":4427,"common_name":"blue flag","scientific_name":["Iris versicolor 'Whodunit'"],"other_name":null,"cycle":"Perennial","watering":"Frequent","sunlight":["Full sun Partial sun"],"default_image":{"image_id":21879,"license":45,"license_name":"Attribution-ShareAlike 3.0 Unported (CC BY-SA 3.0)","license_url":"https://creativecommons.org/licenses/by-sa/3.0/deed.en","original_url":"https://perenual.com/storage/species_image/4427_iris_versicolor_whodunit/og/Iris_versicolor_1.jpg","regular_url":"https://perenual.com/storage/species_image/4427_iris_versicolor_whodunit/regular/Iris_versicolor_1.jpg","medium_url":"https://perenual.com/storage/species_image/4427_iris_versicolor_whodunit/medium/Iris_versicolor_1.jpg","small_url":"https://perenual.com/storage/species_image/4427_iris_versicolor_whodunit/small/Iris_versicolor_1.jpg","thumbnail":"https://perenual.com/storage/species_image/4427_iris_versicolor_whodunit/thumbnail/Iris_versicolor_1.jpg"}},{"id":4428,"common_name":"southern blue flag","scientific_name":["Iris virginica"],"other_name":null,"cycle":"Perennial","watering":"Frequent","sunlight":["Full sun"],"default_image":{"image_id":9176,"license":4,"license_name":"Attribution License","license_url":"https://creativecommons.org/licenses/by/2.0/","original_url":"https://perenual.com/storage/species_image/4430_iris_virginica_purple_fan/og/52093631367_1f49a7e52f_b.jpg","regular_url":"https://perenual.com/storage/species_image/4430_iris_virginica_purple_fan/regular/52093631367_1f49a7e52f_b.jpg","medium_url":"https://perenual.com/storage/species_image/4430_iris_virginica_purple_fan/medium/52093631367_1f49a7e52f_b.jpg","small_url":"https://perenual.com/storage/species_image/4430_iris_virginica_purple_fan/small/52093631367_1f49a7e52f_b.jpg","thumbnail":"https://perenual.com/storage/species_image/4430_iris_virginica_purple_fan/thumbnail/52093631367_1f49a7e52f_b.jpg"}},{"id":4429,"common_name":"southern blue flag","scientific_name":["Iris virginica 'Contraband Girl'"],"other_name":null,"cycle":"Perennial","watering":"Frequent","sunlight":["Full sun"],"default_image":{"image_id":9176,"license":4,"license_name":"Attribution License","license_url":"https://creativecommons.org/licenses/by/2.0/","original_url":"https://perenual.com/storage/species_image/4430_iris_virginica_purple_fan/og/52093631367_1f49a7e52f_b.jpg","regular_url":"https://perenual.com/storage/species_image/4430_iris_virginica_purple_fan/regular/52093631367_1f49a7e52f_b.jpg","medium_url":"https://perenual.com/storage/species_image/4430_iris_virginica_purple_fan/medium/52093631367_1f49a7e52f_b.jpg","small_url":"https://perenual.com/storage/species_image/4430_iris_virginica_purple_fan/small/52093631367_1f49a7e52f_b.jpg","thumbnail":"https://perenual.com/storage/species_image/4430_iris_virginica_purple_fan/thumbnail/52093631367_1f49a7e52f_b.jpg"}},{"id":4430,"common_name":"southern blue flag","scientific_name":["Iris virginica 'Purple Fan'"],"other_name":null,"cycle":"Perennial","watering":"Frequent","sunlight":["Full sun"],"default_image":{"image_id":9176,"license":4,"license_name":"Attribution License","license_url":"https://creativecommons.org/licenses/by/2.0/","original_url":"https://perenual.com/storage/species_image/4430_iris_virginica_purple_fan/og/52093631367_1f49a7e52f_b.jpg","regular_url":"https://perenual.com/storage/species_image/4430_iris_virginica_purple_fan/regular/52093631367_1f49a7e52f_b.jpg","medium_url":"https://perenual.com/storage/species_image/4430_iris_virginica_purple_fan/medium/52093631367_1f49a7e52f_b.jpg","small_url":"https://perenual.com/storage/species_image/4430_iris_virginica_purple_fan/small/52093631367_1f49a7e52f_b.jpg","thumbnail":"https://perenual.com/storage/species_image/4430_iris_virginica_purple_fan/thumbnail/52093631367_1f49a7e52f_b.jpg"}},{"id":4431,"common_name":"southern blue flag","scientific_name":["Iris virginica var. shrevei"],"other_name":null,"cycle":"Perennial","watering":"Frequent","sunlight":["Full sun"],"default_image":{"image_id":9,"license":5,"license_name":"Attribution-ShareAlike License","license_url":"https://creativecommons.org/licenses/by-sa/2.0/","original_url":"https://perenual.com/storage/species_image/2_abies_alba_pyramidalis/og/49255769768_df55596553_b.jpg","regular_url":"https://perenual.com/storage/species_image/2_abies_alba_pyramidalis/regular/49255769768_df55596553_b.jpg","medium_url":"https://perenual.com/storage/species_image/2_abies_alba_pyramidalis/medium/49255769768_df55596553_b.jpg","small_url":"https://perenual.com/storage/species_image/2_abies_alba_pyramidalis/small/49255769768_df55596553_b.jpg","thumbnail":"https://perenual.com/storage/species_image/2_abies_alba_pyramidalis/thumbnail/49255769768_df55596553_b.jpg"}},{"id":4432,"common_name":"bamboo iris","scientific_name":["Iris wattii"],"other_name":null,"cycle":"Perennial","watering":"Average","sunlight":["Full sun","part shade"],"default_image":{"image_id":9,"license":5,"license_name":"Attribution-ShareAlike License","license_url":"https://creativecommons.org/licenses/by-sa/2.0/","original_url":"https://perenual.com/storage/species_image/2_abies_alba_pyramidalis/og/49255769768_df55596553_b.jpg","regular_url":"https://perenual.com/storage/species_image/2_abies_alba_pyramidalis/regular/49255769768_df55596553_b.jpg","medium_url":"https://perenual.com/storage/species_image/2_abies_alba_pyramidalis/medium/49255769768_df55596553_b.jpg","small_url":"https://perenual.com/storage/species_image/2_abies_alba_pyramidalis/small/49255769768_df55596553_b.jpg","thumbnail":"https://perenual.com/storage/species_image/2_abies_alba_pyramidalis/thumbnail/49255769768_df55596553_b.jpg"}},{"id":4433,"common_name":"standard dwarf bearded iris","scientific_name":["Iris 'Wavelength'"],"other_name":null,"cycle":"Perennial","watering":"Average","sunlight":["Full sun"],"default_image":{"image_id":9,"license":5,"license_name":"Attribution-ShareAlike License","license_url":"https://creativecommons.org/licenses/by-sa/2.0/","original_url":"https://perenual.com/storage/species_image/2_abies_alba_pyramidalis/og/49255769768_df55596553_b.jpg","regular_url":"https://perenual.com/storage/species_image/2_abies_alba_pyramidalis/regular/49255769768_df55596553_b.jpg","medium_url":"https://perenual.com/storage/species_image/2_abies_alba_pyramidalis/medium/49255769768_df55596553_b.jpg","small_url":"https://perenual.com/storage/species_image/2_abies_alba_pyramidalis/small/49255769768_df55596553_b.jpg","thumbnail":"https://perenual.com/storage/species_image/2_abies_alba_pyramidalis/thumbnail/49255769768_df55596553_b.jpg"}},{"id":4434,"common_name":"tall bearded iris","scientific_name":["Iris 'Whispering Spirits'"],"other_name":null,"cycle":"Perennial","watering":"Average","sunlight":["Full sun"],"default_image":{"image_id":8959,"license":5,"license_name":"Attribution-ShareAlike License","license_url":"https://creativecommons.org/licenses/by-sa/2.0/","original_url":"https://perenual.com/storage/species_image/4434_iris_whispering_spirits/og/51233946616_1af7d2f773_b.jpg","regular_url":"https://perenual.com/storage/species_image/4434_iris_whispering_spirits/regular/51233946616_1af7d2f773_b.jpg","medium_url":"https://perenual.com/storage/species_image/4434_iris_whispering_spirits/medium/51233946616_1af7d2f773_b.jpg","small_url":"https://perenual.com/storage/species_image/4434_iris_whispering_spirits/small/51233946616_1af7d2f773_b.jpg","thumbnail":"https://perenual.com/storage/species_image/4434_iris_whispering_spirits/thumbnail/51233946616_1af7d2f773_b.jpg"}},{"id":4435,"common_name":"Siberian iris","scientific_name":["Iris 'White Swirl'"],"other_name":null,"cycle":"Perennial","watering":"Frequent","sunlight":["Full sun","part shade"],"default_image":{"image_id":9205,"license":4,"license_name":"Attribution License","license_url":"https://creativecommons.org/licenses/by/2.0/","original_url":"https://perenual.com/storage/species_image/4435_iris_white_swirl/og/9821949883_8cf8163280_b.jpg","regular_url":"https://perenual.com/storage/species_image/4435_iris_white_swirl/regular/9821949883_8cf8163280_b.jpg","medium_url":"https://perenual.com/storage/species_image/4435_iris_white_swirl/medium/9821949883_8cf8163280_b.jpg","small_url":"https://perenual.com/storage/species_image/4435_iris_white_swirl/small/9821949883_8cf8163280_b.jpg","thumbnail":"https://perenual.com/storage/species_image/4435_iris_white_swirl/thumbnail/9821949883_8cf8163280_b.jpg"}},{"id":4436,"common_name":"tall bearded iris","scientific_name":["Iris 'Wild West Wind'"],"other_name":null,"cycle":"Perennial","watering":"Average","sunlight":["Full sun"],"default_image":{"image_id":8972,"license":5,"license_name":"Attribution-ShareAlike License","license_url":"https://creativecommons.org/licenses/by-sa/2.0/","original_url":"https://perenual.com/storage/species_image/4436_iris_wild_west_wind/og/48013093547_7e988ba7f6_b.jpg","regular_url":"https://perenual.com/storage/species_image/4436_iris_wild_west_wind/regular/48013093547_7e988ba7f6_b.jpg","medium_url":"https://perenual.com/storage/species_image/4436_iris_wild_west_wind/medium/48013093547_7e988ba7f6_b.jpg","small_url":"https://perenual.com/storage/species_image/4436_iris_wild_west_wind/small/48013093547_7e988ba7f6_b.jpg","thumbnail":"https://perenual.com/storage/species_image/4436_iris_wild_west_wind/thumbnail/48013093547_7e988ba7f6_b.jpg"}},{"id":4437,"common_name":"tall bearded reblooming iris","scientific_name":["Iris 'Winesap'"],"other_name":null,"cycle":"Perennial","watering":"Average","sunlight":["Full sun"],"default_image":{"image_id":22019,"license":3,"license_name":null,"license_url":null,"original_url":"https://perenual.com/storage/species_image/4437_iris_winesap/og/3499146512_2f2806f2ac_b.jpg","regular_url":"https://perenual.com/storage/species_image/4437_iris_winesap/regular/3499146512_2f2806f2ac_b.jpg","medium_url":"https://perenual.com/storage/species_image/4437_iris_winesap/medium/3499146512_2f2806f2ac_b.jpg","small_url":"https://perenual.com/storage/species_image/4437_iris_winesap/small/3499146512_2f2806f2ac_b.jpg","thumbnail":"https://perenual.com/storage/species_image/4437_iris_winesap/thumbnail/3499146512_2f2806f2ac_b.jpg"}},{"id":4438,"common_name":"tall bearded reblooming iris","scientific_name":["Iris 'Winterland'"],"other_name":null,"cycle":"Perennial","watering":"Average","sunlight":["Full sun"],"default_image":{"image_id":9,"license":5,"license_name":"Attribution-ShareAlike License","license_url":"https://creativecommons.org/licenses/by-sa/2.0/","original_url":"https://perenual.com/storage/species_image/2_abies_alba_pyramidalis/og/49255769768_df55596553_b.jpg","regular_url":"https://perenual.com/storage/species_image/2_abies_alba_pyramidalis/regular/49255769768_df55596553_b.jpg","medium_url":"https://perenual.com/storage/species_image/2_abies_alba_pyramidalis/medium/49255769768_df55596553_b.jpg","small_url":"https://perenual.com/storage/species_image/2_abies_alba_pyramidalis/small/49255769768_df55596553_b.jpg","thumbnail":"https://perenual.com/storage/species_image/2_abies_alba_pyramidalis/thumbnail/49255769768_df55596553_b.jpg"}},{"id":4439,"common_name":"Dyer's woad","scientific_name":["Isatis tinctoria"],"other_name":null,"cycle":"Perennial","watering":"Average","sunlight":["Full sun"],"default_image":{"image_id":9211,"license":5,"license_name":"Attribution-ShareAlike License","license_url":"https://creativecommons.org/licenses/by-sa/2.0/","original_url":"https://perenual.com/storage/species_image/4439_isatis_tinctoria/og/49983327487_b9691bc496_b.jpg","regular_url":"https://perenual.com/storage/species_image/4439_isatis_tinctoria/regular/49983327487_b9691bc496_b.jpg","medium_url":"https://perenual.com/storage/species_image/4439_isatis_tinctoria/medium/49983327487_b9691bc496_b.jpg","small_url":"https://perenual.com/storage/species_image/4439_isatis_tinctoria/small/49983327487_b9691bc496_b.jpg","thumbnail":"https://perenual.com/storage/species_image/4439_isatis_tinctoria/thumbnail/49983327487_b9691bc496_b.jpg"}},{"id":4440,"common_name":"laurentia","scientific_name":["Isotoma axillaris"],"other_name":null,"cycle":"Perennial","watering":"Average","sunlight":["Full sun"],"default_image":{"image_id":9215,"license":5,"license_name":"Attribution-ShareAlike License","license_url":"https://creativecommons.org/licenses/by-sa/2.0/","original_url":"https://perenual.com/storage/species_image/4440_isotoma_axillaris/og/51685472845_93b194930a_b.jpg","regular_url":"https://perenual.com/storage/species_image/4440_isotoma_axillaris/regular/51685472845_93b194930a_b.jpg","medium_url":"https://perenual.com/storage/species_image/4440_isotoma_axillaris/medium/51685472845_93b194930a_b.jpg","small_url":"https://perenual.com/storage/species_image/4440_isotoma_axillaris/small/51685472845_93b194930a_b.jpg","thumbnail":"https://perenual.com/storage/species_image/4440_isotoma_axillaris/thumbnail/51685472845_93b194930a_b.jpg"}}],"to":4440,"per_page":30,"current_page":148,"from":4411,"last_page":200,"total":6000}