{"data":[{"id":4771,"common_name":"shasta daisy","scientific_name":["Leucanthemum superbum 'Real Dream'"],"other_name":null,"cycle":"Perennial","watering":"Minimum","sunlight":["Full sun"],"default_image":{"image_id":22040,"license":1,"license_name":null,"license_url":null,"original_url":"https://perenual.com/storage/species_image/4772_leucanthemum_superbum_silberprinzesschen_little_princess/og/51328434042_66c395dbf2_b.jpg","regular_url":"https://perenual.com/storage/species_image/4772_leucanthemum_superbum_silberprinzesschen_little_princess/regular/51328434042_66c395dbf2_b.jpg","medium_url":"https://perenual.com/storage/species_image/4772_leucanthemum_superbum_silberprinzesschen_little_princess/medium/51328434042_66c395dbf2_b.jpg","small_url":"https://perenual.com/storage/species_image/4772_leucanthemum_superbum_silberprinzesschen_little_princess/small/51328434042_66c395dbf2_b.jpg","thumbnail":"https://perenual.com/storage/species_image/4772_leucanthemum_superbum_silberprinzesschen_little_princess/thumbnail/51328434042_66c395dbf2_b.jpg"}},{"id":4772,"common_name":"shasta daisy","scientific_name":["Leucanthemum superbum 'Silberprinzesschen' LITTLE PRINCESS"],"other_name":null,"cycle":"Perennial","watering":"Minimum","sunlight":["Full sun"],"default_image":{"image_id":22039,"license":1,"license_name":null,"license_url":null,"original_url":"https://perenual.com/storage/species_image/4781_leucanthemum_superbum_whoops-a-daisy/og/52163455188_e47eea10e7_b.jpg","regular_url":"https://perenual.com/storage/species_image/4781_leucanthemum_superbum_whoops-a-daisy/regular/52163455188_e47eea10e7_b.jpg","medium_url":"https://perenual.com/storage/species_image/4781_leucanthemum_superbum_whoops-a-daisy/medium/52163455188_e47eea10e7_b.jpg","small_url":"https://perenual.com/storage/species_image/4781_leucanthemum_superbum_whoops-a-daisy/small/52163455188_e47eea10e7_b.jpg","thumbnail":"https://perenual.com/storage/species_image/4781_leucanthemum_superbum_whoops-a-daisy/thumbnail/52163455188_e47eea10e7_b.jpg"}},{"id":4773,"common_name":"shasta daisy","scientific_name":["Leucanthemum superbum 'Snow Lady'"],"other_name":null,"cycle":"Perennial","watering":"Minimum","sunlight":["Full sun"],"default_image":{"image_id":9,"license":5,"license_name":"Attribution-ShareAlike License","license_url":"https://creativecommons.org/licenses/by-sa/2.0/","original_url":"https://perenual.com/storage/species_image/2_abies_alba_pyramidalis/og/49255769768_df55596553_b.jpg","regular_url":"https://perenual.com/storage/species_image/2_abies_alba_pyramidalis/regular/49255769768_df55596553_b.jpg","medium_url":"https://perenual.com/storage/species_image/2_abies_alba_pyramidalis/medium/49255769768_df55596553_b.jpg","small_url":"https://perenual.com/storage/species_image/2_abies_alba_pyramidalis/small/49255769768_df55596553_b.jpg","thumbnail":"https://perenual.com/storage/species_image/2_abies_alba_pyramidalis/thumbnail/49255769768_df55596553_b.jpg"}},{"id":4774,"common_name":"shasta daisy","scientific_name":["Leucanthemum superbum 'Sonnenschein'"],"other_name":null,"cycle":"Perennial","watering":"Minimum","sunlight":["Full sun"],"default_image":{"image_id":9,"license":5,"license_name":"Attribution-ShareAlike License","license_url":"https://creativecommons.org/licenses/by-sa/2.0/","original_url":"https://perenual.com/storage/species_image/2_abies_alba_pyramidalis/og/49255769768_df55596553_b.jpg","regular_url":"https://perenual.com/storage/species_image/2_abies_alba_pyramidalis/regular/49255769768_df55596553_b.jpg","medium_url":"https://perenual.com/storage/species_image/2_abies_alba_pyramidalis/medium/49255769768_df55596553_b.jpg","small_url":"https://perenual.com/storage/species_image/2_abies_alba_pyramidalis/small/49255769768_df55596553_b.jpg","thumbnail":"https://perenual.com/storage/species_image/2_abies_alba_pyramidalis/thumbnail/49255769768_df55596553_b.jpg"}},{"id":4775,"common_name":"shasta daisy","scientific_name":["Leucanthemum superbum 'Starburst'"],"other_name":null,"cycle":"Perennial","watering":"Minimum","sunlight":["Full sun"],"default_image":{"image_id":22041,"license":2,"license_name":null,"license_url":null,"original_url":"https://perenual.com/storage/species_image/4779_leucanthemum_superbum_tinkerbelle/og/51296653227_e44ab1146a_b.jpg","regular_url":"https://perenual.com/storage/species_image/4779_leucanthemum_superbum_tinkerbelle/regular/51296653227_e44ab1146a_b.jpg","medium_url":"https://perenual.com/storage/species_image/4779_leucanthemum_superbum_tinkerbelle/medium/51296653227_e44ab1146a_b.jpg","small_url":"https://perenual.com/storage/species_image/4779_leucanthemum_superbum_tinkerbelle/small/51296653227_e44ab1146a_b.jpg","thumbnail":"https://perenual.com/storage/species_image/4779_leucanthemum_superbum_tinkerbelle/thumbnail/51296653227_e44ab1146a_b.jpg"}},{"id":4776,"common_name":"shasta daisy","scientific_name":["Leucanthemum superbum 'Summer Snowball'"],"other_name":null,"cycle":"Perennial","watering":"Minimum","sunlight":["Full sun"],"default_image":{"image_id":9,"license":5,"license_name":"Attribution-ShareAlike License","license_url":"https://creativecommons.org/licenses/by-sa/2.0/","original_url":"https://perenual.com/storage/species_image/2_abies_alba_pyramidalis/og/49255769768_df55596553_b.jpg","regular_url":"https://perenual.com/storage/species_image/2_abies_alba_pyramidalis/regular/49255769768_df55596553_b.jpg","medium_url":"https://perenual.com/storage/species_image/2_abies_alba_pyramidalis/medium/49255769768_df55596553_b.jpg","small_url":"https://perenual.com/storage/species_image/2_abies_alba_pyramidalis/small/49255769768_df55596553_b.jpg","thumbnail":"https://perenual.com/storage/species_image/2_abies_alba_pyramidalis/thumbnail/49255769768_df55596553_b.jpg"}},{"id":4777,"common_name":"shasta daisy","scientific_name":["Leucanthemum superbum 'Sunny Side Up'"],"other_name":null,"cycle":"Perennial","watering":"Minimum","sunlight":["Full sun"],"default_image":{"image_id":9975,"license":5,"license_name":"Attribution-ShareAlike License","license_url":"https://creativecommons.org/licenses/by-sa/2.0/","original_url":"https://perenual.com/storage/species_image/4781_leucanthemum_superbum_whoops-a-daisy/og/51558230447_26058ded32_b.jpg","regular_url":"https://perenual.com/storage/species_image/4781_leucanthemum_superbum_whoops-a-daisy/regular/51558230447_26058ded32_b.jpg","medium_url":"https://perenual.com/storage/species_image/4781_leucanthemum_superbum_whoops-a-daisy/medium/51558230447_26058ded32_b.jpg","small_url":"https://perenual.com/storage/species_image/4781_leucanthemum_superbum_whoops-a-daisy/small/51558230447_26058ded32_b.jpg","thumbnail":"https://perenual.com/storage/species_image/4781_leucanthemum_superbum_whoops-a-daisy/thumbnail/51558230447_26058ded32_b.jpg"}},{"id":4778,"common_name":"shasta daisy","scientific_name":["Leucanthemum superbum 'Switzerland'"],"other_name":null,"cycle":"Perennial","watering":"Minimum","sunlight":["Full sun"],"default_image":{"image_id":22037,"license":2,"license_name":null,"license_url":null,"original_url":"https://perenual.com/storage/species_image/4779_leucanthemum_superbum_tinkerbelle/og/51297398411_4a6f9fdcbf_b.jpg","regular_url":"https://perenual.com/storage/species_image/4779_leucanthemum_superbum_tinkerbelle/regular/51297398411_4a6f9fdcbf_b.jpg","medium_url":"https://perenual.com/storage/species_image/4779_leucanthemum_superbum_tinkerbelle/medium/51297398411_4a6f9fdcbf_b.jpg","small_url":"https://perenual.com/storage/species_image/4779_leucanthemum_superbum_tinkerbelle/small/51297398411_4a6f9fdcbf_b.jpg","thumbnail":"https://perenual.com/storage/species_image/4779_leucanthemum_superbum_tinkerbelle/thumbnail/51297398411_4a6f9fdcbf_b.jpg"}},{"id":4779,"common_name":"shasta daisy","scientific_name":["Leucanthemum superbum 'Tinkerbelle'"],"other_name":null,"cycle":"Perennial","watering":"Minimum","sunlight":["Full sun"],"default_image":{"image_id":22039,"license":1,"license_name":null,"license_url":null,"original_url":"https://perenual.com/storage/species_image/4781_leucanthemum_superbum_whoops-a-daisy/og/52163455188_e47eea10e7_b.jpg","regular_url":"https://perenual.com/storage/species_image/4781_leucanthemum_superbum_whoops-a-daisy/regular/52163455188_e47eea10e7_b.jpg","medium_url":"https://perenual.com/storage/species_image/4781_leucanthemum_superbum_whoops-a-daisy/medium/52163455188_e47eea10e7_b.jpg","small_url":"https://perenual.com/storage/species_image/4781_leucanthemum_superbum_whoops-a-daisy/small/52163455188_e47eea10e7_b.jpg","thumbnail":"https://perenual.com/storage/species_image/4781_leucanthemum_superbum_whoops-a-daisy/thumbnail/52163455188_e47eea10e7_b.jpg"}},{"id":4780,"common_name":"shasta daisy","scientific_name":["Leucanthemum superbum 'White Knight'"],"other_name":null,"cycle":"Perennial","watering":"Minimum","sunlight":["Full sun"],"default_image":{"image_id":9,"license":5,"license_name":"Attribution-ShareAlike License","license_url":"https://creativecommons.org/licenses/by-sa/2.0/","original_url":"https://perenual.com/storage/species_image/2_abies_alba_pyramidalis/og/49255769768_df55596553_b.jpg","regular_url":"https://perenual.com/storage/species_image/2_abies_alba_pyramidalis/regular/49255769768_df55596553_b.jpg","medium_url":"https://perenual.com/storage/species_image/2_abies_alba_pyramidalis/medium/49255769768_df55596553_b.jpg","small_url":"https://perenual.com/storage/species_image/2_abies_alba_pyramidalis/small/49255769768_df55596553_b.jpg","thumbnail":"https://perenual.com/storage/species_image/2_abies_alba_pyramidalis/thumbnail/49255769768_df55596553_b.jpg"}},{"id":4781,"common_name":"shasta daisy","scientific_name":["Leucanthemum superbum 'Whoops-a-Daisy'"],"other_name":null,"cycle":"Perennial","watering":"Minimum","sunlight":["Full sun"],"default_image":{"image_id":22038,"license":1,"license_name":null,"license_url":null,"original_url":"https://perenual.com/storage/species_image/4781_leucanthemum_superbum_whoops-a-daisy/og/52217179565_7bc4bb59aa_b.jpg","regular_url":"https://perenual.com/storage/species_image/4781_leucanthemum_superbum_whoops-a-daisy/regular/52217179565_7bc4bb59aa_b.jpg","medium_url":"https://perenual.com/storage/species_image/4781_leucanthemum_superbum_whoops-a-daisy/medium/52217179565_7bc4bb59aa_b.jpg","small_url":"https://perenual.com/storage/species_image/4781_leucanthemum_superbum_whoops-a-daisy/small/52217179565_7bc4bb59aa_b.jpg","thumbnail":"https://perenual.com/storage/species_image/4781_leucanthemum_superbum_whoops-a-daisy/thumbnail/52217179565_7bc4bb59aa_b.jpg"}},{"id":4782,"common_name":"shasta daisy","scientific_name":["Leucanthemum superbum 'Wirral Pride'"],"other_name":null,"cycle":"Perennial","watering":"Minimum","sunlight":["Full sun"],"default_image":{"image_id":9972,"license":4,"license_name":"Attribution License","license_url":"https://creativecommons.org/licenses/by/2.0/","original_url":"https://perenual.com/storage/species_image/4782_leucanthemum_superbum_wirral_pride/og/51504907598_bb4200cb83_b.jpg","regular_url":"https://perenual.com/storage/species_image/4782_leucanthemum_superbum_wirral_pride/regular/51504907598_bb4200cb83_b.jpg","medium_url":"https://perenual.com/storage/species_image/4782_leucanthemum_superbum_wirral_pride/medium/51504907598_bb4200cb83_b.jpg","small_url":"https://perenual.com/storage/species_image/4782_leucanthemum_superbum_wirral_pride/small/51504907598_bb4200cb83_b.jpg","thumbnail":"https://perenual.com/storage/species_image/4782_leucanthemum_superbum_wirral_pride/thumbnail/51504907598_bb4200cb83_b.jpg"}},{"id":4783,"common_name":"ox-eye daisy","scientific_name":["Leucanthemum vulgare 'Maikonigin' MAY QUEEN"],"other_name":null,"cycle":"Perennial","watering":"Minimum","sunlight":["Full sun"],"default_image":{"image_id":10014,"license":6,"license_name":"Attribution-NoDerivs License","license_url":"https://creativecommons.org/licenses/by-nd/2.0/","original_url":"https://perenual.com/storage/species_image/4783_leucanthemum_vulgare_maikonigin_may_queen/og/52157624198_b1ec70565c_b.jpg"}},{"id":4784,"common_name":"summer snowflake","scientific_name":["Leucojum aestivum"],"other_name":null,"cycle":"Perennial","watering":"Average","sunlight":["Full sun","part shade"],"default_image":{"image_id":10015,"license":4,"license_name":"Attribution License","license_url":"https://creativecommons.org/licenses/by/2.0/","original_url":"https://perenual.com/storage/species_image/4784_leucojum_aestivum/og/51947979483_07af0abe67_b.jpg","regular_url":"https://perenual.com/storage/species_image/4784_leucojum_aestivum/regular/51947979483_07af0abe67_b.jpg","medium_url":"https://perenual.com/storage/species_image/4784_leucojum_aestivum/medium/51947979483_07af0abe67_b.jpg","small_url":"https://perenual.com/storage/species_image/4784_leucojum_aestivum/small/51947979483_07af0abe67_b.jpg","thumbnail":"https://perenual.com/storage/species_image/4784_leucojum_aestivum/thumbnail/51947979483_07af0abe67_b.jpg"}},{"id":4785,"common_name":"summer snowflake","scientific_name":["Leucojum aestivum 'Gravetye Giant'"],"other_name":null,"cycle":"Perennial","watering":"Average","sunlight":["Full sun","part shade"],"default_image":{"image_id":9,"license":5,"license_name":"Attribution-ShareAlike License","license_url":"https://creativecommons.org/licenses/by-sa/2.0/","original_url":"https://perenual.com/storage/species_image/2_abies_alba_pyramidalis/og/49255769768_df55596553_b.jpg","regular_url":"https://perenual.com/storage/species_image/2_abies_alba_pyramidalis/regular/49255769768_df55596553_b.jpg","medium_url":"https://perenual.com/storage/species_image/2_abies_alba_pyramidalis/medium/49255769768_df55596553_b.jpg","small_url":"https://perenual.com/storage/species_image/2_abies_alba_pyramidalis/small/49255769768_df55596553_b.jpg","thumbnail":"https://perenual.com/storage/species_image/2_abies_alba_pyramidalis/thumbnail/49255769768_df55596553_b.jpg"}},{"id":4786,"common_name":"Texas barometer bush","scientific_name":["Leucophyllum frutescens"],"other_name":null,"cycle":"Perennial","watering":"Minimum","sunlight":["Full sun"],"default_image":{"image_id":9,"license":5,"license_name":"Attribution-ShareAlike License","license_url":"https://creativecommons.org/licenses/by-sa/2.0/","original_url":"https://perenual.com/storage/species_image/2_abies_alba_pyramidalis/og/49255769768_df55596553_b.jpg","regular_url":"https://perenual.com/storage/species_image/2_abies_alba_pyramidalis/regular/49255769768_df55596553_b.jpg","medium_url":"https://perenual.com/storage/species_image/2_abies_alba_pyramidalis/medium/49255769768_df55596553_b.jpg","small_url":"https://perenual.com/storage/species_image/2_abies_alba_pyramidalis/small/49255769768_df55596553_b.jpg","thumbnail":"https://perenual.com/storage/species_image/2_abies_alba_pyramidalis/thumbnail/49255769768_df55596553_b.jpg"}},{"id":4787,"common_name":"Japanese shrub mint","scientific_name":["Leucosceptrum japonicum 'Golden Angel'"],"other_name":null,"cycle":"Perennial","watering":"Average","sunlight":["Part shade","full shade"],"default_image":{"image_id":9,"license":5,"license_name":"Attribution-ShareAlike License","license_url":"https://creativecommons.org/licenses/by-sa/2.0/","original_url":"https://perenual.com/storage/species_image/2_abies_alba_pyramidalis/og/49255769768_df55596553_b.jpg","regular_url":"https://perenual.com/storage/species_image/2_abies_alba_pyramidalis/regular/49255769768_df55596553_b.jpg","medium_url":"https://perenual.com/storage/species_image/2_abies_alba_pyramidalis/medium/49255769768_df55596553_b.jpg","small_url":"https://perenual.com/storage/species_image/2_abies_alba_pyramidalis/small/49255769768_df55596553_b.jpg","thumbnail":"https://perenual.com/storage/species_image/2_abies_alba_pyramidalis/thumbnail/49255769768_df55596553_b.jpg"}},{"id":4788,"common_name":"coastal doghobble","scientific_name":["Leucothoe axillaris"],"other_name":null,"cycle":"Perennial","watering":"Average","sunlight":["Part shade"],"default_image":{"image_id":9,"license":5,"license_name":"Attribution-ShareAlike License","license_url":"https://creativecommons.org/licenses/by-sa/2.0/","original_url":"https://perenual.com/storage/species_image/2_abies_alba_pyramidalis/og/49255769768_df55596553_b.jpg","regular_url":"https://perenual.com/storage/species_image/2_abies_alba_pyramidalis/regular/49255769768_df55596553_b.jpg","medium_url":"https://perenual.com/storage/species_image/2_abies_alba_pyramidalis/medium/49255769768_df55596553_b.jpg","small_url":"https://perenual.com/storage/species_image/2_abies_alba_pyramidalis/small/49255769768_df55596553_b.jpg","thumbnail":"https://perenual.com/storage/species_image/2_abies_alba_pyramidalis/thumbnail/49255769768_df55596553_b.jpg"}},{"id":4789,"common_name":"drooping laurel","scientific_name":["Leucothoe fontanesiana 'Zeblid' SCARLETTA"],"other_name":null,"cycle":"Perennial","watering":"Average","sunlight":["Part shade","full shade"],"default_image":{"image_id":10037,"license":5,"license_name":"Attribution-ShareAlike License","license_url":"https://creativecommons.org/licenses/by-sa/2.0/","original_url":"https://perenual.com/storage/species_image/4789_leucothoe_fontanesiana_zeblid_scarletta/og/818706679_bcd72feea7_b.jpg","regular_url":"https://perenual.com/storage/species_image/4789_leucothoe_fontanesiana_zeblid_scarletta/regular/818706679_bcd72feea7_b.jpg","medium_url":"https://perenual.com/storage/species_image/4789_leucothoe_fontanesiana_zeblid_scarletta/medium/818706679_bcd72feea7_b.jpg","small_url":"https://perenual.com/storage/species_image/4789_leucothoe_fontanesiana_zeblid_scarletta/small/818706679_bcd72feea7_b.jpg","thumbnail":"https://perenual.com/storage/species_image/4789_leucothoe_fontanesiana_zeblid_scarletta/thumbnail/818706679_bcd72feea7_b.jpg"}},{"id":4790,"common_name":"leucothoe","scientific_name":["Leucothoe keiskei 'Opstal 50' BURNING LOVE"],"other_name":null,"cycle":"Perennial","watering":"Average","sunlight":["Part shade"],"default_image":{"image_id":9,"license":5,"license_name":"Attribution-ShareAlike License","license_url":"https://creativecommons.org/licenses/by-sa/2.0/","original_url":"https://perenual.com/storage/species_image/2_abies_alba_pyramidalis/og/49255769768_df55596553_b.jpg","regular_url":"https://perenual.com/storage/species_image/2_abies_alba_pyramidalis/regular/49255769768_df55596553_b.jpg","medium_url":"https://perenual.com/storage/species_image/2_abies_alba_pyramidalis/medium/49255769768_df55596553_b.jpg","small_url":"https://perenual.com/storage/species_image/2_abies_alba_pyramidalis/small/49255769768_df55596553_b.jpg","thumbnail":"https://perenual.com/storage/species_image/2_abies_alba_pyramidalis/thumbnail/49255769768_df55596553_b.jpg"}},{"id":4791,"common_name":"leucothoe","scientific_name":["Leucothoe 'Little Flames' LEAFSCAPE"],"other_name":null,"cycle":"Perennial","watering":"Average","sunlight":["Part shade"],"default_image":{"image_id":9,"license":5,"license_name":"Attribution-ShareAlike License","license_url":"https://creativecommons.org/licenses/by-sa/2.0/","original_url":"https://perenual.com/storage/species_image/2_abies_alba_pyramidalis/og/49255769768_df55596553_b.jpg","regular_url":"https://perenual.com/storage/species_image/2_abies_alba_pyramidalis/regular/49255769768_df55596553_b.jpg","medium_url":"https://perenual.com/storage/species_image/2_abies_alba_pyramidalis/medium/49255769768_df55596553_b.jpg","small_url":"https://perenual.com/storage/species_image/2_abies_alba_pyramidalis/small/49255769768_df55596553_b.jpg","thumbnail":"https://perenual.com/storage/species_image/2_abies_alba_pyramidalis/thumbnail/49255769768_df55596553_b.jpg"}},{"id":4792,"common_name":"lovage","scientific_name":["Levisticum officinale"],"other_name":["garden lovage"],"cycle":"Perennial","watering":"Average","sunlight":["Full sun","part shade"],"default_image":{"image_id":9,"license":5,"license_name":"Attribution-ShareAlike License","license_url":"https://creativecommons.org/licenses/by-sa/2.0/","original_url":"https://perenual.com/storage/species_image/2_abies_alba_pyramidalis/og/49255769768_df55596553_b.jpg","regular_url":"https://perenual.com/storage/species_image/2_abies_alba_pyramidalis/regular/49255769768_df55596553_b.jpg","medium_url":"https://perenual.com/storage/species_image/2_abies_alba_pyramidalis/medium/49255769768_df55596553_b.jpg","small_url":"https://perenual.com/storage/species_image/2_abies_alba_pyramidalis/small/49255769768_df55596553_b.jpg","thumbnail":"https://perenual.com/storage/species_image/2_abies_alba_pyramidalis/thumbnail/49255769768_df55596553_b.jpg"}},{"id":4793,"common_name":"lewisia","scientific_name":["Lewisia 'TNLEWCC' CONSTANT CORAL"],"other_name":null,"cycle":"Perennial","watering":"Minimum","sunlight":["Full sun"],"default_image":{"image_id":10043,"license":4,"license_name":"Attribution License","license_url":"https://creativecommons.org/licenses/by/2.0/","original_url":"https://perenual.com/storage/species_image/4793_lewisia_tnlewcc_constant_coral/og/52189116788_c4a28d59f5_b.jpg","regular_url":"https://perenual.com/storage/species_image/4793_lewisia_tnlewcc_constant_coral/regular/52189116788_c4a28d59f5_b.jpg","medium_url":"https://perenual.com/storage/species_image/4793_lewisia_tnlewcc_constant_coral/medium/52189116788_c4a28d59f5_b.jpg","small_url":"https://perenual.com/storage/species_image/4793_lewisia_tnlewcc_constant_coral/small/52189116788_c4a28d59f5_b.jpg","thumbnail":"https://perenual.com/storage/species_image/4793_lewisia_tnlewcc_constant_coral/thumbnail/52189116788_c4a28d59f5_b.jpg"}},{"id":4794,"common_name":"Himalayan honeysuckle","scientific_name":["Leycesteria formosa"],"other_name":null,"cycle":"Perennial","watering":"Average","sunlight":["Full sun"," Part sun/part shade"],"default_image":{"image_id":10046,"license":5,"license_name":"Attribution-ShareAlike License","license_url":"https://creativecommons.org/licenses/by-sa/2.0/","original_url":"https://perenual.com/storage/species_image/4794_leycesteria_formosa/og/30357675058_7d282fba0f_b.jpg","regular_url":"https://perenual.com/storage/species_image/4794_leycesteria_formosa/regular/30357675058_7d282fba0f_b.jpg","medium_url":"https://perenual.com/storage/species_image/4794_leycesteria_formosa/medium/30357675058_7d282fba0f_b.jpg","small_url":"https://perenual.com/storage/species_image/4794_leycesteria_formosa/small/30357675058_7d282fba0f_b.jpg","thumbnail":"https://perenual.com/storage/species_image/4794_leycesteria_formosa/thumbnail/30357675058_7d282fba0f_b.jpg"}},{"id":4795,"common_name":"giant rye grass","scientific_name":["Leymus condensatus 'Canyon Prince'"],"other_name":null,"cycle":"Perennial","watering":"Minimum","sunlight":["Full sun"],"default_image":{"image_id":10051,"license":4,"license_name":"Attribution License","license_url":"https://creativecommons.org/licenses/by/2.0/","original_url":"https://perenual.com/storage/species_image/4795_leymus_condensatus_canyon_prince/og/32401441397_1b8de8edab_b.jpg","regular_url":"https://perenual.com/storage/species_image/4795_leymus_condensatus_canyon_prince/regular/32401441397_1b8de8edab_b.jpg","medium_url":"https://perenual.com/storage/species_image/4795_leymus_condensatus_canyon_prince/medium/32401441397_1b8de8edab_b.jpg","small_url":"https://perenual.com/storage/species_image/4795_leymus_condensatus_canyon_prince/small/32401441397_1b8de8edab_b.jpg","thumbnail":"https://perenual.com/storage/species_image/4795_leymus_condensatus_canyon_prince/thumbnail/32401441397_1b8de8edab_b.jpg"}},{"id":4796,"common_name":"blazing star","scientific_name":["Liatris aspera"],"other_name":null,"cycle":"Perennial","watering":"Minimum","sunlight":["Full sun"],"default_image":{"image_id":10055,"license":4,"license_name":"Attribution License","license_url":"https://creativecommons.org/licenses/by/2.0/","original_url":"https://perenual.com/storage/species_image/4796_liatris_aspera/og/51418420435_0dc06b7693_b.jpg","regular_url":"https://perenual.com/storage/species_image/4796_liatris_aspera/regular/51418420435_0dc06b7693_b.jpg","medium_url":"https://perenual.com/storage/species_image/4796_liatris_aspera/medium/51418420435_0dc06b7693_b.jpg","small_url":"https://perenual.com/storage/species_image/4796_liatris_aspera/small/51418420435_0dc06b7693_b.jpg","thumbnail":"https://perenual.com/storage/species_image/4796_liatris_aspera/thumbnail/51418420435_0dc06b7693_b.jpg"}},{"id":4797,"common_name":"slender blazing star","scientific_name":["Liatris cylindracea"],"other_name":null,"cycle":"Perennial","watering":"Minimum","sunlight":["Full sun"],"default_image":{"image_id":10059,"license":5,"license_name":"Attribution-ShareAlike License","license_url":"https://creativecommons.org/licenses/by-sa/2.0/","original_url":"https://perenual.com/storage/species_image/4797_liatris_cylindracea/og/29376954260_3e43e04873_b.jpg","regular_url":"https://perenual.com/storage/species_image/4797_liatris_cylindracea/regular/29376954260_3e43e04873_b.jpg","medium_url":"https://perenual.com/storage/species_image/4797_liatris_cylindracea/medium/29376954260_3e43e04873_b.jpg","small_url":"https://perenual.com/storage/species_image/4797_liatris_cylindracea/small/29376954260_3e43e04873_b.jpg","thumbnail":"https://perenual.com/storage/species_image/4797_liatris_cylindracea/thumbnail/29376954260_3e43e04873_b.jpg"}},{"id":4798,"common_name":"blazing star","scientific_name":["Liatris graminifolia"],"other_name":null,"cycle":"Perennial","watering":"Minimum","sunlight":["Full sun","part shade"],"default_image":{"image_id":10065,"license":4,"license_name":"Attribution License","license_url":"https://creativecommons.org/licenses/by/2.0/","original_url":"https://perenual.com/storage/species_image/4798_liatris_graminifolia/og/51690165909_0006bbfdc8_b.jpg","regular_url":"https://perenual.com/storage/species_image/4798_liatris_graminifolia/regular/51690165909_0006bbfdc8_b.jpg","medium_url":"https://perenual.com/storage/species_image/4798_liatris_graminifolia/medium/51690165909_0006bbfdc8_b.jpg","small_url":"https://perenual.com/storage/species_image/4798_liatris_graminifolia/small/51690165909_0006bbfdc8_b.jpg","thumbnail":"https://perenual.com/storage/species_image/4798_liatris_graminifolia/thumbnail/51690165909_0006bbfdc8_b.jpg"}},{"id":4799,"common_name":"blazing star","scientific_name":["Liatris ligulistylis"],"other_name":null,"cycle":"Perennial","watering":"Minimum","sunlight":["Full sun"],"default_image":{"image_id":10069,"license":4,"license_name":"Attribution License","license_url":"https://creativecommons.org/licenses/by/2.0/","original_url":"https://perenual.com/storage/species_image/4799_liatris_ligulistylis/og/35580234803_d2b6d00ebb_b.jpg","regular_url":"https://perenual.com/storage/species_image/4799_liatris_ligulistylis/regular/35580234803_d2b6d00ebb_b.jpg","medium_url":"https://perenual.com/storage/species_image/4799_liatris_ligulistylis/medium/35580234803_d2b6d00ebb_b.jpg","small_url":"https://perenual.com/storage/species_image/4799_liatris_ligulistylis/small/35580234803_d2b6d00ebb_b.jpg","thumbnail":"https://perenual.com/storage/species_image/4799_liatris_ligulistylis/thumbnail/35580234803_d2b6d00ebb_b.jpg"}},{"id":4800,"common_name":"button snake root","scientific_name":["Liatris ligulistylis 'Monarch'"],"other_name":null,"cycle":"Perennial","watering":"Minimum","sunlight":["Full sun"],"default_image":{"image_id":9,"license":5,"license_name":"Attribution-ShareAlike License","license_url":"https://creativecommons.org/licenses/by-sa/2.0/","original_url":"https://perenual.com/storage/species_image/2_abies_alba_pyramidalis/og/49255769768_df55596553_b.jpg","regular_url":"https://perenual.com/storage/species_image/2_abies_alba_pyramidalis/regular/49255769768_df55596553_b.jpg","medium_url":"https://perenual.com/storage/species_image/2_abies_alba_pyramidalis/medium/49255769768_df55596553_b.jpg","small_url":"https://perenual.com/storage/species_image/2_abies_alba_pyramidalis/small/49255769768_df55596553_b.jpg","thumbnail":"https://perenual.com/storage/species_image/2_abies_alba_pyramidalis/thumbnail/49255769768_df55596553_b.jpg"}}],"to":4800,"per_page":30,"current_page":160,"from":4771,"last_page":200,"total":6000}