{"data":[{"id":1681,"common_name":"common hornbeam","scientific_name":["Carpinus betulus 'Columnaris Nana'"],"other_name":null,"cycle":"Perennial","watering":"Average","sunlight":["Full sun","part shade"],"default_image":{"image_id":3939,"license":4,"license_name":"Attribution License","license_url":"https://creativecommons.org/licenses/by/2.0/","original_url":"https://perenual.com/storage/species_image/1681_carpinus_betulus_columnaris_nana/og/51874473616_ed686d6be8_b.jpg","regular_url":"https://perenual.com/storage/species_image/1681_carpinus_betulus_columnaris_nana/regular/51874473616_ed686d6be8_b.jpg","medium_url":"https://perenual.com/storage/species_image/1681_carpinus_betulus_columnaris_nana/medium/51874473616_ed686d6be8_b.jpg","small_url":"https://perenual.com/storage/species_image/1681_carpinus_betulus_columnaris_nana/small/51874473616_ed686d6be8_b.jpg","thumbnail":"https://perenual.com/storage/species_image/1681_carpinus_betulus_columnaris_nana/thumbnail/51874473616_ed686d6be8_b.jpg"}},{"id":1682,"common_name":"American hornbeam","scientific_name":["Carpinus caroliniana"],"other_name":["Blue Beech","Water Beech","Ironwood","Musclewood","Water Beech","Ironwood","Musclewood"],"cycle":"Perennial","watering":"Average","sunlight":["Partial Shade"," Shade"],"default_image":{"image_id":9,"license":5,"license_name":"Attribution-ShareAlike License","license_url":"https://creativecommons.org/licenses/by-sa/2.0/","original_url":"https://perenual.com/storage/species_image/2_abies_alba_pyramidalis/og/49255769768_df55596553_b.jpg","regular_url":"https://perenual.com/storage/species_image/2_abies_alba_pyramidalis/regular/49255769768_df55596553_b.jpg","medium_url":"https://perenual.com/storage/species_image/2_abies_alba_pyramidalis/medium/49255769768_df55596553_b.jpg","small_url":"https://perenual.com/storage/species_image/2_abies_alba_pyramidalis/small/49255769768_df55596553_b.jpg","thumbnail":"https://perenual.com/storage/species_image/2_abies_alba_pyramidalis/thumbnail/49255769768_df55596553_b.jpg"}},{"id":1683,"common_name":"hornbeam","scientific_name":["Carpinus cordata"],"other_name":null,"cycle":"Perennial","watering":"Average","sunlight":["Part shade","full shade"],"default_image":{"image_id":9,"license":5,"license_name":"Attribution-ShareAlike License","license_url":"https://creativecommons.org/licenses/by-sa/2.0/","original_url":"https://perenual.com/storage/species_image/2_abies_alba_pyramidalis/og/49255769768_df55596553_b.jpg","regular_url":"https://perenual.com/storage/species_image/2_abies_alba_pyramidalis/regular/49255769768_df55596553_b.jpg","medium_url":"https://perenual.com/storage/species_image/2_abies_alba_pyramidalis/medium/49255769768_df55596553_b.jpg","small_url":"https://perenual.com/storage/species_image/2_abies_alba_pyramidalis/small/49255769768_df55596553_b.jpg","thumbnail":"https://perenual.com/storage/species_image/2_abies_alba_pyramidalis/thumbnail/49255769768_df55596553_b.jpg"}},{"id":1684,"common_name":"oriental hornbeam","scientific_name":["Carpinus orientalis"],"other_name":null,"cycle":"Perennial","watering":"Average","sunlight":["Part shade","full shade"],"default_image":{"image_id":9,"license":5,"license_name":"Attribution-ShareAlike License","license_url":"https://creativecommons.org/licenses/by-sa/2.0/","original_url":"https://perenual.com/storage/species_image/2_abies_alba_pyramidalis/og/49255769768_df55596553_b.jpg","regular_url":"https://perenual.com/storage/species_image/2_abies_alba_pyramidalis/regular/49255769768_df55596553_b.jpg","medium_url":"https://perenual.com/storage/species_image/2_abies_alba_pyramidalis/medium/49255769768_df55596553_b.jpg","small_url":"https://perenual.com/storage/species_image/2_abies_alba_pyramidalis/small/49255769768_df55596553_b.jpg","thumbnail":"https://perenual.com/storage/species_image/2_abies_alba_pyramidalis/thumbnail/49255769768_df55596553_b.jpg"}},{"id":1685,"common_name":"bitternut hickory","scientific_name":["Carya cordiformis"],"other_name":["Swamp Hickory","Pignut","Pignut"],"cycle":"Perennial","watering":"Frequent","sunlight":["Sun"," Partial Shade"],"default_image":{"image_id":3953,"license":5,"license_name":"Attribution-ShareAlike License","license_url":"https://creativecommons.org/licenses/by-sa/2.0/","original_url":"https://perenual.com/storage/species_image/1685_carya_cordiformis/og/35706708956_7827e0db18_b.jpg","regular_url":"https://perenual.com/storage/species_image/1685_carya_cordiformis/regular/35706708956_7827e0db18_b.jpg","medium_url":"https://perenual.com/storage/species_image/1685_carya_cordiformis/medium/35706708956_7827e0db18_b.jpg","small_url":"https://perenual.com/storage/species_image/1685_carya_cordiformis/small/35706708956_7827e0db18_b.jpg","thumbnail":"https://perenual.com/storage/species_image/1685_carya_cordiformis/thumbnail/35706708956_7827e0db18_b.jpg"}},{"id":1686,"common_name":"pignut","scientific_name":["Carya glabra"],"other_name":["Black Hickory","Broom Hickory","Smoothbark Hickory","Sweet Pignut Hickory","False Shagbark Hickory"],"cycle":"Perennial","watering":"Average","sunlight":["Full sun","part shade"],"default_image":{"image_id":3957,"license":4,"license_name":"Attribution License","license_url":"https://creativecommons.org/licenses/by/2.0/","original_url":"https://perenual.com/storage/species_image/1686_carya_glabra/og/52367535256_a4a2c600a3_b.jpg","regular_url":"https://perenual.com/storage/species_image/1686_carya_glabra/regular/52367535256_a4a2c600a3_b.jpg","medium_url":"https://perenual.com/storage/species_image/1686_carya_glabra/medium/52367535256_a4a2c600a3_b.jpg","small_url":"https://perenual.com/storage/species_image/1686_carya_glabra/small/52367535256_a4a2c600a3_b.jpg","thumbnail":"https://perenual.com/storage/species_image/1686_carya_glabra/thumbnail/52367535256_a4a2c600a3_b.jpg"}},{"id":1687,"common_name":"hardy pecan","scientific_name":["Carya illinoinensis"],"other_name":null,"cycle":"Perennial","watering":"Average","sunlight":["Full sun"],"default_image":{"image_id":3964,"license":4,"license_name":"Attribution License","license_url":"https://creativecommons.org/licenses/by/2.0/","original_url":"https://perenual.com/storage/species_image/1687_carya_illinoinensis/og/51708881782_0c05c83815_b.jpg","regular_url":"https://perenual.com/storage/species_image/1687_carya_illinoinensis/regular/51708881782_0c05c83815_b.jpg","medium_url":"https://perenual.com/storage/species_image/1687_carya_illinoinensis/medium/51708881782_0c05c83815_b.jpg","small_url":"https://perenual.com/storage/species_image/1687_carya_illinoinensis/small/51708881782_0c05c83815_b.jpg","thumbnail":"https://perenual.com/storage/species_image/1687_carya_illinoinensis/thumbnail/51708881782_0c05c83815_b.jpg"}},{"id":1688,"common_name":"hardy pecan","scientific_name":["Carya illinoinensis 'Montgomery'"],"other_name":null,"cycle":"Perennial","watering":"Average","sunlight":["Full sun"],"default_image":{"image_id":3965,"license":45,"license_name":"Attribution-ShareAlike 3.0 Unported (CC BY-SA 3.0)","license_url":"https://creativecommons.org/licenses/by-sa/3.0/deed.en","original_url":"https://perenual.com/storage/species_image/1688_carya_illinoinensis_montgomery/og/Carya_illinoinensis_foliagenuts1.jpg","regular_url":"https://perenual.com/storage/species_image/1688_carya_illinoinensis_montgomery/regular/Carya_illinoinensis_foliagenuts1.jpg","medium_url":"https://perenual.com/storage/species_image/1688_carya_illinoinensis_montgomery/medium/Carya_illinoinensis_foliagenuts1.jpg","small_url":"https://perenual.com/storage/species_image/1688_carya_illinoinensis_montgomery/small/Carya_illinoinensis_foliagenuts1.jpg","thumbnail":"https://perenual.com/storage/species_image/1688_carya_illinoinensis_montgomery/thumbnail/Carya_illinoinensis_foliagenuts1.jpg"}},{"id":1689,"common_name":"shellbark hickory","scientific_name":["Carya laciniosa"],"other_name":["Kingnut Hickory","Bigleaf","Bottom Shellbark","Big Shagbark Hickory","Big Shellbark Hickory"],"cycle":"Perennial","watering":"Frequent","sunlight":["Full sun","part shade"],"default_image":{"image_id":3969,"license":5,"license_name":"Attribution-ShareAlike License","license_url":"https://creativecommons.org/licenses/by-sa/2.0/","original_url":"https://perenual.com/storage/species_image/1689_carya_laciniosa/og/35359612770_43b6e0bd1e_b.jpg","regular_url":"https://perenual.com/storage/species_image/1689_carya_laciniosa/regular/35359612770_43b6e0bd1e_b.jpg","medium_url":"https://perenual.com/storage/species_image/1689_carya_laciniosa/medium/35359612770_43b6e0bd1e_b.jpg","small_url":"https://perenual.com/storage/species_image/1689_carya_laciniosa/small/35359612770_43b6e0bd1e_b.jpg","thumbnail":"https://perenual.com/storage/species_image/1689_carya_laciniosa/thumbnail/35359612770_43b6e0bd1e_b.jpg"}},{"id":1690,"common_name":"hickory","scientific_name":["Carya laneyi"],"other_name":null,"cycle":"Perennial","watering":"Average","sunlight":["Full sun","part shade"],"default_image":{"image_id":3970,"license":4,"license_name":"Attribution License","license_url":"https://creativecommons.org/licenses/by/2.0/","original_url":"https://perenual.com/storage/species_image/1690_carya_laneyi/og/52637828200_ab9d23d9a5_b.jpg","regular_url":"https://perenual.com/storage/species_image/1690_carya_laneyi/regular/52637828200_ab9d23d9a5_b.jpg","medium_url":"https://perenual.com/storage/species_image/1690_carya_laneyi/medium/52637828200_ab9d23d9a5_b.jpg","small_url":"https://perenual.com/storage/species_image/1690_carya_laneyi/small/52637828200_ab9d23d9a5_b.jpg","thumbnail":"https://perenual.com/storage/species_image/1690_carya_laneyi/thumbnail/52637828200_ab9d23d9a5_b.jpg"}},{"id":1691,"common_name":"shagbark hickory","scientific_name":["Carya ovata"],"other_name":["Upland Hickory","Scalybark Hickory","Scalybark Hickory"],"cycle":"Perennial","watering":"Average","sunlight":["Sun"," Partial Shade"," Shade"],"default_image":{"image_id":9,"license":5,"license_name":"Attribution-ShareAlike License","license_url":"https://creativecommons.org/licenses/by-sa/2.0/","original_url":"https://perenual.com/storage/species_image/2_abies_alba_pyramidalis/og/49255769768_df55596553_b.jpg","regular_url":"https://perenual.com/storage/species_image/2_abies_alba_pyramidalis/regular/49255769768_df55596553_b.jpg","medium_url":"https://perenual.com/storage/species_image/2_abies_alba_pyramidalis/medium/49255769768_df55596553_b.jpg","small_url":"https://perenual.com/storage/species_image/2_abies_alba_pyramidalis/small/49255769768_df55596553_b.jpg","thumbnail":"https://perenual.com/storage/species_image/2_abies_alba_pyramidalis/thumbnail/49255769768_df55596553_b.jpg"}},{"id":1692,"common_name":"mockernut","scientific_name":["Carya tomentosa"],"other_name":null,"cycle":"Perennial","watering":"Average","sunlight":["Sun"],"default_image":{"image_id":3977,"license":4,"license_name":"Attribution License","license_url":"https://creativecommons.org/licenses/by/2.0/","original_url":"https://perenual.com/storage/species_image/1692_carya_tomentosa/og/52487088885_5bec97cef5_b.jpg","regular_url":"https://perenual.com/storage/species_image/1692_carya_tomentosa/regular/52487088885_5bec97cef5_b.jpg","medium_url":"https://perenual.com/storage/species_image/1692_carya_tomentosa/medium/52487088885_5bec97cef5_b.jpg","small_url":"https://perenual.com/storage/species_image/1692_carya_tomentosa/small/52487088885_5bec97cef5_b.jpg","thumbnail":"https://perenual.com/storage/species_image/1692_carya_tomentosa/thumbnail/52487088885_5bec97cef5_b.jpg"}},{"id":1693,"common_name":"bluebeard","scientific_name":["Caryopteris clandonensis 'Arthur Simmonds'"],"other_name":null,"cycle":"Perennial","watering":"Average","sunlight":["Full sun"],"default_image":{"image_id":9,"license":5,"license_name":"Attribution-ShareAlike License","license_url":"https://creativecommons.org/licenses/by-sa/2.0/","original_url":"https://perenual.com/storage/species_image/2_abies_alba_pyramidalis/og/49255769768_df55596553_b.jpg","regular_url":"https://perenual.com/storage/species_image/2_abies_alba_pyramidalis/regular/49255769768_df55596553_b.jpg","medium_url":"https://perenual.com/storage/species_image/2_abies_alba_pyramidalis/medium/49255769768_df55596553_b.jpg","small_url":"https://perenual.com/storage/species_image/2_abies_alba_pyramidalis/small/49255769768_df55596553_b.jpg","thumbnail":"https://perenual.com/storage/species_image/2_abies_alba_pyramidalis/thumbnail/49255769768_df55596553_b.jpg"}},{"id":1694,"common_name":"bluebeard","scientific_name":["Caryopteris clandonensis 'Blauer Splatz' SAPPHIRE SURF"],"other_name":null,"cycle":"Perennial","watering":"Average","sunlight":["Full sun"],"default_image":{"image_id":3983,"license":6,"license_name":"Attribution-NoDerivs License","license_url":"https://creativecommons.org/licenses/by-nd/2.0/","original_url":"https://perenual.com/storage/species_image/1697_caryopteris_clandonensis_heavenly_blue/og/52320192489_00b1a18ea3_b.jpg"}},{"id":1695,"common_name":"bluebeard","scientific_name":["Caryopteris clandonensis 'Blue Mist'"],"other_name":null,"cycle":"Perennial","watering":"Average","sunlight":["Full sun"],"default_image":{"image_id":3985,"license":4,"license_name":"Attribution License","license_url":"https://creativecommons.org/licenses/by/2.0/","original_url":"https://perenual.com/storage/species_image/1695_caryopteris_clandonensis_blue_mist/og/1556566827_717e744688_b.jpg","regular_url":"https://perenual.com/storage/species_image/1695_caryopteris_clandonensis_blue_mist/regular/1556566827_717e744688_b.jpg","medium_url":"https://perenual.com/storage/species_image/1695_caryopteris_clandonensis_blue_mist/medium/1556566827_717e744688_b.jpg","small_url":"https://perenual.com/storage/species_image/1695_caryopteris_clandonensis_blue_mist/small/1556566827_717e744688_b.jpg","thumbnail":"https://perenual.com/storage/species_image/1695_caryopteris_clandonensis_blue_mist/thumbnail/1556566827_717e744688_b.jpg"}},{"id":1696,"common_name":"bluebeard","scientific_name":["Caryopteris clandonensis 'Dark Knight'"],"other_name":null,"cycle":"Perennial","watering":"Average","sunlight":["Full sun"],"default_image":{"image_id":3989,"license":4,"license_name":"Attribution License","license_url":"https://creativecommons.org/licenses/by/2.0/","original_url":"https://perenual.com/storage/species_image/1696_caryopteris_clandonensis_dark_knight/og/9731211607_aa918c69a7_b.jpg","regular_url":"https://perenual.com/storage/species_image/1696_caryopteris_clandonensis_dark_knight/regular/9731211607_aa918c69a7_b.jpg","medium_url":"https://perenual.com/storage/species_image/1696_caryopteris_clandonensis_dark_knight/medium/9731211607_aa918c69a7_b.jpg","small_url":"https://perenual.com/storage/species_image/1696_caryopteris_clandonensis_dark_knight/small/9731211607_aa918c69a7_b.jpg","thumbnail":"https://perenual.com/storage/species_image/1696_caryopteris_clandonensis_dark_knight/thumbnail/9731211607_aa918c69a7_b.jpg"}},{"id":1697,"common_name":"bluebeard","scientific_name":["Caryopteris clandonensis 'Heavenly Blue'"],"other_name":null,"cycle":"Perennial","watering":"Average","sunlight":["Full sun"],"default_image":{"image_id":3984,"license":6,"license_name":"Attribution-NoDerivs License","license_url":"https://creativecommons.org/licenses/by-nd/2.0/","original_url":"https://perenual.com/storage/species_image/1703_caryopteris_incana_blue_myth/og/52347781641_41591bf851_b.jpg"}},{"id":1698,"common_name":"bluebeard","scientific_name":["Caryopteris clandonensis 'Inoveris' GRAND BLEU"],"other_name":null,"cycle":"Perennial","watering":"Average","sunlight":["Full sun"],"default_image":{"image_id":3992,"license":6,"license_name":"Attribution-NoDerivs License","license_url":"https://creativecommons.org/licenses/by-nd/2.0/","original_url":"https://perenual.com/storage/species_image/1698_caryopteris_clandonensis_inoveris_grand_bleu/og/26447159909_53dfb81c04_b.jpg"}},{"id":1699,"common_name":"bluebeard","scientific_name":["Caryopteris clandonensis 'Lissilv' STERLING SILVER"],"other_name":null,"cycle":"Perennial","watering":"Average","sunlight":["Full sun"],"default_image":null},{"id":1700,"common_name":"bluebeard","scientific_name":["Caryopteris clandonensis 'Longwood Blue'"],"other_name":null,"cycle":"Perennial","watering":"Average","sunlight":["Full sun"],"default_image":{"image_id":9,"license":5,"license_name":"Attribution-ShareAlike License","license_url":"https://creativecommons.org/licenses/by-sa/2.0/","original_url":"https://perenual.com/storage/species_image/2_abies_alba_pyramidalis/og/49255769768_df55596553_b.jpg","regular_url":"https://perenual.com/storage/species_image/2_abies_alba_pyramidalis/regular/49255769768_df55596553_b.jpg","medium_url":"https://perenual.com/storage/species_image/2_abies_alba_pyramidalis/medium/49255769768_df55596553_b.jpg","small_url":"https://perenual.com/storage/species_image/2_abies_alba_pyramidalis/small/49255769768_df55596553_b.jpg","thumbnail":"https://perenual.com/storage/species_image/2_abies_alba_pyramidalis/thumbnail/49255769768_df55596553_b.jpg"}},{"id":1701,"common_name":"bluebeard","scientific_name":["Caryopteris clandonensis 'Summer Sorbet'"],"other_name":null,"cycle":"Perennial","watering":"Average","sunlight":["Full sun"],"default_image":{"image_id":9,"license":5,"license_name":"Attribution-ShareAlike License","license_url":"https://creativecommons.org/licenses/by-sa/2.0/","original_url":"https://perenual.com/storage/species_image/2_abies_alba_pyramidalis/og/49255769768_df55596553_b.jpg","regular_url":"https://perenual.com/storage/species_image/2_abies_alba_pyramidalis/regular/49255769768_df55596553_b.jpg","medium_url":"https://perenual.com/storage/species_image/2_abies_alba_pyramidalis/medium/49255769768_df55596553_b.jpg","small_url":"https://perenual.com/storage/species_image/2_abies_alba_pyramidalis/small/49255769768_df55596553_b.jpg","thumbnail":"https://perenual.com/storage/species_image/2_abies_alba_pyramidalis/thumbnail/49255769768_df55596553_b.jpg"}},{"id":1702,"common_name":"bluebeard","scientific_name":["Caryopteris clandonensis 'Worcester Gold'"],"other_name":null,"cycle":"Perennial","watering":"Average","sunlight":["Full sun"],"default_image":{"image_id":9,"license":5,"license_name":"Attribution-ShareAlike License","license_url":"https://creativecommons.org/licenses/by-sa/2.0/","original_url":"https://perenual.com/storage/species_image/2_abies_alba_pyramidalis/og/49255769768_df55596553_b.jpg","regular_url":"https://perenual.com/storage/species_image/2_abies_alba_pyramidalis/regular/49255769768_df55596553_b.jpg","medium_url":"https://perenual.com/storage/species_image/2_abies_alba_pyramidalis/medium/49255769768_df55596553_b.jpg","small_url":"https://perenual.com/storage/species_image/2_abies_alba_pyramidalis/small/49255769768_df55596553_b.jpg","thumbnail":"https://perenual.com/storage/species_image/2_abies_alba_pyramidalis/thumbnail/49255769768_df55596553_b.jpg"}},{"id":1703,"common_name":"bluebeard","scientific_name":["Caryopteris incana 'Blue Myth'"],"other_name":null,"cycle":"Perennial","watering":"Average","sunlight":["Full sun"],"default_image":{"image_id":3984,"license":6,"license_name":"Attribution-NoDerivs License","license_url":"https://creativecommons.org/licenses/by-nd/2.0/","original_url":"https://perenual.com/storage/species_image/1703_caryopteris_incana_blue_myth/og/52347781641_41591bf851_b.jpg"}},{"id":1704,"common_name":"bluebeard","scientific_name":["Caryopteris incana 'DCARBEYBAR' BEYOND PINK'D"],"other_name":null,"cycle":"Perennial","watering":"Average","sunlight":["Full sun"],"default_image":{"image_id":9,"license":5,"license_name":"Attribution-ShareAlike License","license_url":"https://creativecommons.org/licenses/by-sa/2.0/","original_url":"https://perenual.com/storage/species_image/2_abies_alba_pyramidalis/og/49255769768_df55596553_b.jpg","regular_url":"https://perenual.com/storage/species_image/2_abies_alba_pyramidalis/regular/49255769768_df55596553_b.jpg","medium_url":"https://perenual.com/storage/species_image/2_abies_alba_pyramidalis/medium/49255769768_df55596553_b.jpg","small_url":"https://perenual.com/storage/species_image/2_abies_alba_pyramidalis/small/49255769768_df55596553_b.jpg","thumbnail":"https://perenual.com/storage/species_image/2_abies_alba_pyramidalis/thumbnail/49255769768_df55596553_b.jpg"}},{"id":1705,"common_name":"wishing tree","scientific_name":["Cassia bakeriana"],"other_name":null,"cycle":"Perennial","watering":"Average","sunlight":["Full sun"],"default_image":{"image_id":4006,"license":4,"license_name":"Attribution License","license_url":"https://creativecommons.org/licenses/by/2.0/","original_url":"https://perenual.com/storage/species_image/1705_cassia_bakeriana/og/50013535496_091986a639_b.jpg","regular_url":"https://perenual.com/storage/species_image/1705_cassia_bakeriana/regular/50013535496_091986a639_b.jpg","medium_url":"https://perenual.com/storage/species_image/1705_cassia_bakeriana/medium/50013535496_091986a639_b.jpg","small_url":"https://perenual.com/storage/species_image/1705_cassia_bakeriana/small/50013535496_091986a639_b.jpg","thumbnail":"https://perenual.com/storage/species_image/1705_cassia_bakeriana/thumbnail/50013535496_091986a639_b.jpg"}},{"id":1706,"common_name":"pink shower","scientific_name":["Cassia grandis"],"other_name":null,"cycle":"Perennial","watering":"Average","sunlight":["Full sun"],"default_image":{"image_id":4014,"license":4,"license_name":"Attribution License","license_url":"https://creativecommons.org/licenses/by/2.0/","original_url":"https://perenual.com/storage/species_image/1706_cassia_grandis/og/40347833374_d5e4e8c241_b.jpg","regular_url":"https://perenual.com/storage/species_image/1706_cassia_grandis/regular/40347833374_d5e4e8c241_b.jpg","medium_url":"https://perenual.com/storage/species_image/1706_cassia_grandis/medium/40347833374_d5e4e8c241_b.jpg","small_url":"https://perenual.com/storage/species_image/1706_cassia_grandis/small/40347833374_d5e4e8c241_b.jpg","thumbnail":"https://perenual.com/storage/species_image/1706_cassia_grandis/thumbnail/40347833374_d5e4e8c241_b.jpg"}},{"id":1707,"common_name":"pink shower","scientific_name":["Cassia nealiae 'Queen's Hospital White'"],"other_name":null,"cycle":"Perennial","watering":"Average","sunlight":["Full sun"],"default_image":{"image_id":9,"license":5,"license_name":"Attribution-ShareAlike License","license_url":"https://creativecommons.org/licenses/by-sa/2.0/","original_url":"https://perenual.com/storage/species_image/2_abies_alba_pyramidalis/og/49255769768_df55596553_b.jpg","regular_url":"https://perenual.com/storage/species_image/2_abies_alba_pyramidalis/regular/49255769768_df55596553_b.jpg","medium_url":"https://perenual.com/storage/species_image/2_abies_alba_pyramidalis/medium/49255769768_df55596553_b.jpg","small_url":"https://perenual.com/storage/species_image/2_abies_alba_pyramidalis/small/49255769768_df55596553_b.jpg","thumbnail":"https://perenual.com/storage/species_image/2_abies_alba_pyramidalis/thumbnail/49255769768_df55596553_b.jpg"}},{"id":1708,"common_name":"cassiope","scientific_name":["Cassiope 'Randle Cooke'"],"other_name":null,"cycle":"Perennial","watering":"Frequent","sunlight":["Full sun","part shade"],"default_image":{"image_id":4022,"license":4,"license_name":"Attribution License","license_url":"https://creativecommons.org/licenses/by/2.0/","original_url":"https://perenual.com/storage/species_image/1708_cassiope_randle_cooke/og/51653085164_3d9d2cbe8a_b.jpg","regular_url":"https://perenual.com/storage/species_image/1708_cassiope_randle_cooke/regular/51653085164_3d9d2cbe8a_b.jpg","medium_url":"https://perenual.com/storage/species_image/1708_cassiope_randle_cooke/medium/51653085164_3d9d2cbe8a_b.jpg","small_url":"https://perenual.com/storage/species_image/1708_cassiope_randle_cooke/small/51653085164_3d9d2cbe8a_b.jpg","thumbnail":"https://perenual.com/storage/species_image/1708_cassiope_randle_cooke/thumbnail/51653085164_3d9d2cbe8a_b.jpg"}},{"id":1709,"common_name":"Japanese chestnut","scientific_name":["Castanea crenata"],"other_name":null,"cycle":"Perennial","watering":"Average","sunlight":["Full sun"],"default_image":{"image_id":4025,"license":5,"license_name":"Attribution-ShareAlike License","license_url":"https://creativecommons.org/licenses/by-sa/2.0/","original_url":"https://perenual.com/storage/species_image/1709_castanea_crenata/og/23010217995_178aa8aabc_b.jpg","regular_url":"https://perenual.com/storage/species_image/1709_castanea_crenata/regular/23010217995_178aa8aabc_b.jpg","medium_url":"https://perenual.com/storage/species_image/1709_castanea_crenata/medium/23010217995_178aa8aabc_b.jpg","small_url":"https://perenual.com/storage/species_image/1709_castanea_crenata/small/23010217995_178aa8aabc_b.jpg","thumbnail":"https://perenual.com/storage/species_image/1709_castanea_crenata/thumbnail/23010217995_178aa8aabc_b.jpg"}},{"id":1710,"common_name":"American chestnut","scientific_name":["Castanea dentata"],"other_name":["Sweet Chestnut"],"cycle":"Perennial","watering":"Average","sunlight":["Full sun"],"default_image":{"image_id":4032,"license":4,"license_name":"Attribution License","license_url":"https://creativecommons.org/licenses/by/2.0/","original_url":"https://perenual.com/storage/species_image/1710_castanea_dentata/og/50331266137_77acd7616d_b.jpg","regular_url":"https://perenual.com/storage/species_image/1710_castanea_dentata/regular/50331266137_77acd7616d_b.jpg","medium_url":"https://perenual.com/storage/species_image/1710_castanea_dentata/medium/50331266137_77acd7616d_b.jpg","small_url":"https://perenual.com/storage/species_image/1710_castanea_dentata/small/50331266137_77acd7616d_b.jpg","thumbnail":"https://perenual.com/storage/species_image/1710_castanea_dentata/thumbnail/50331266137_77acd7616d_b.jpg"}}],"to":1710,"per_page":30,"current_page":57,"from":1681,"last_page":200,"total":6000}