{"data":[{"id":5341,"common_name":"large-cupped daffodil","scientific_name":["Narcissus 'Easter Morn'"],"other_name":null,"cycle":"Perennial","watering":"Average","sunlight":["Full sun","part shade"],"default_image":{"image_id":9,"license":5,"license_name":"Attribution-ShareAlike License","license_url":"https://creativecommons.org/licenses/by-sa/2.0/","original_url":"https://perenual.com/storage/species_image/2_abies_alba_pyramidalis/og/49255769768_df55596553_b.jpg","regular_url":"https://perenual.com/storage/species_image/2_abies_alba_pyramidalis/regular/49255769768_df55596553_b.jpg","medium_url":"https://perenual.com/storage/species_image/2_abies_alba_pyramidalis/medium/49255769768_df55596553_b.jpg","small_url":"https://perenual.com/storage/species_image/2_abies_alba_pyramidalis/small/49255769768_df55596553_b.jpg","thumbnail":"https://perenual.com/storage/species_image/2_abies_alba_pyramidalis/thumbnail/49255769768_df55596553_b.jpg"}},{"id":5342,"common_name":"cyclamineus daffodil","scientific_name":["Narcissus 'Elizabeth Ann'"],"other_name":null,"cycle":"Perennial","watering":"Average","sunlight":["Full sun","part shade"],"default_image":{"image_id":9,"license":5,"license_name":"Attribution-ShareAlike License","license_url":"https://creativecommons.org/licenses/by-sa/2.0/","original_url":"https://perenual.com/storage/species_image/2_abies_alba_pyramidalis/og/49255769768_df55596553_b.jpg","regular_url":"https://perenual.com/storage/species_image/2_abies_alba_pyramidalis/regular/49255769768_df55596553_b.jpg","medium_url":"https://perenual.com/storage/species_image/2_abies_alba_pyramidalis/medium/49255769768_df55596553_b.jpg","small_url":"https://perenual.com/storage/species_image/2_abies_alba_pyramidalis/small/49255769768_df55596553_b.jpg","thumbnail":"https://perenual.com/storage/species_image/2_abies_alba_pyramidalis/thumbnail/49255769768_df55596553_b.jpg"}},{"id":5343,"common_name":"double daffodil","scientific_name":["Narcissus 'Erlicheer'"],"other_name":null,"cycle":"Perennial","watering":"Average","sunlight":["Full sun","part shade"],"default_image":{"image_id":11220,"license":6,"license_name":"Attribution-NoDerivs License","license_url":"https://creativecommons.org/licenses/by-nd/2.0/","original_url":"https://perenual.com/storage/species_image/5343_narcissus_erlicheer/og/39847845942_2198c1154d_b.jpg"}},{"id":5344,"common_name":"large-cupped daffodil","scientific_name":["Narcissus 'Euphonic Grace'"],"other_name":null,"cycle":"Perennial","watering":"Average","sunlight":["Full sun","part shade"],"default_image":{"image_id":9,"license":5,"license_name":"Attribution-ShareAlike License","license_url":"https://creativecommons.org/licenses/by-sa/2.0/","original_url":"https://perenual.com/storage/species_image/2_abies_alba_pyramidalis/og/49255769768_df55596553_b.jpg","regular_url":"https://perenual.com/storage/species_image/2_abies_alba_pyramidalis/regular/49255769768_df55596553_b.jpg","medium_url":"https://perenual.com/storage/species_image/2_abies_alba_pyramidalis/medium/49255769768_df55596553_b.jpg","small_url":"https://perenual.com/storage/species_image/2_abies_alba_pyramidalis/small/49255769768_df55596553_b.jpg","thumbnail":"https://perenual.com/storage/species_image/2_abies_alba_pyramidalis/thumbnail/49255769768_df55596553_b.jpg"}},{"id":5345,"common_name":"cyclamineus daffodil","scientific_name":["Narcissus 'February Gold'"],"other_name":null,"cycle":"Perennial","watering":"Average","sunlight":["Full sun","part shade"],"default_image":{"image_id":11221,"license":4,"license_name":"Attribution License","license_url":"https://creativecommons.org/licenses/by/2.0/","original_url":"https://perenual.com/storage/species_image/5345_narcissus_february_gold/og/5506200464_249b325071_b.jpg","regular_url":"https://perenual.com/storage/species_image/5345_narcissus_february_gold/regular/5506200464_249b325071_b.jpg","medium_url":"https://perenual.com/storage/species_image/5345_narcissus_february_gold/medium/5506200464_249b325071_b.jpg","small_url":"https://perenual.com/storage/species_image/5345_narcissus_february_gold/small/5506200464_249b325071_b.jpg","thumbnail":"https://perenual.com/storage/species_image/5345_narcissus_february_gold/thumbnail/5506200464_249b325071_b.jpg"}},{"id":5346,"common_name":"split-corona daffodil","scientific_name":["Narcissus 'Flyer'"],"other_name":null,"cycle":"Perennial","watering":"Average","sunlight":["Full sun","part shade"],"default_image":{"image_id":9,"license":5,"license_name":"Attribution-ShareAlike License","license_url":"https://creativecommons.org/licenses/by-sa/2.0/","original_url":"https://perenual.com/storage/species_image/2_abies_alba_pyramidalis/og/49255769768_df55596553_b.jpg","regular_url":"https://perenual.com/storage/species_image/2_abies_alba_pyramidalis/regular/49255769768_df55596553_b.jpg","medium_url":"https://perenual.com/storage/species_image/2_abies_alba_pyramidalis/medium/49255769768_df55596553_b.jpg","small_url":"https://perenual.com/storage/species_image/2_abies_alba_pyramidalis/small/49255769768_df55596553_b.jpg","thumbnail":"https://perenual.com/storage/species_image/2_abies_alba_pyramidalis/thumbnail/49255769768_df55596553_b.jpg"}},{"id":5347,"common_name":"large-cupped daffodil","scientific_name":["Narcissus 'Fortissimo'"],"other_name":null,"cycle":"Perennial","watering":"Average","sunlight":["Full sun","part shade"],"default_image":{"image_id":9,"license":5,"license_name":"Attribution-ShareAlike License","license_url":"https://creativecommons.org/licenses/by-sa/2.0/","original_url":"https://perenual.com/storage/species_image/2_abies_alba_pyramidalis/og/49255769768_df55596553_b.jpg","regular_url":"https://perenual.com/storage/species_image/2_abies_alba_pyramidalis/regular/49255769768_df55596553_b.jpg","medium_url":"https://perenual.com/storage/species_image/2_abies_alba_pyramidalis/medium/49255769768_df55596553_b.jpg","small_url":"https://perenual.com/storage/species_image/2_abies_alba_pyramidalis/small/49255769768_df55596553_b.jpg","thumbnail":"https://perenual.com/storage/species_image/2_abies_alba_pyramidalis/thumbnail/49255769768_df55596553_b.jpg"}},{"id":5348,"common_name":"jonquilla daffodil","scientific_name":["Narcissus 'Fruit Cup'"],"other_name":null,"cycle":"Perennial","watering":"Average","sunlight":["Full sun","part shade"],"default_image":{"image_id":9,"license":5,"license_name":"Attribution-ShareAlike License","license_url":"https://creativecommons.org/licenses/by-sa/2.0/","original_url":"https://perenual.com/storage/species_image/2_abies_alba_pyramidalis/og/49255769768_df55596553_b.jpg","regular_url":"https://perenual.com/storage/species_image/2_abies_alba_pyramidalis/regular/49255769768_df55596553_b.jpg","medium_url":"https://perenual.com/storage/species_image/2_abies_alba_pyramidalis/medium/49255769768_df55596553_b.jpg","small_url":"https://perenual.com/storage/species_image/2_abies_alba_pyramidalis/small/49255769768_df55596553_b.jpg","thumbnail":"https://perenual.com/storage/species_image/2_abies_alba_pyramidalis/thumbnail/49255769768_df55596553_b.jpg"}},{"id":5349,"common_name":"double daffodil","scientific_name":["Narcissus 'Gay Song'"],"other_name":null,"cycle":"Perennial","watering":"Average","sunlight":["Full sun","part shade"],"default_image":{"image_id":9,"license":5,"license_name":"Attribution-ShareAlike License","license_url":"https://creativecommons.org/licenses/by-sa/2.0/","original_url":"https://perenual.com/storage/species_image/2_abies_alba_pyramidalis/og/49255769768_df55596553_b.jpg","regular_url":"https://perenual.com/storage/species_image/2_abies_alba_pyramidalis/regular/49255769768_df55596553_b.jpg","medium_url":"https://perenual.com/storage/species_image/2_abies_alba_pyramidalis/medium/49255769768_df55596553_b.jpg","small_url":"https://perenual.com/storage/species_image/2_abies_alba_pyramidalis/small/49255769768_df55596553_b.jpg","thumbnail":"https://perenual.com/storage/species_image/2_abies_alba_pyramidalis/thumbnail/49255769768_df55596553_b.jpg"}},{"id":5350,"common_name":"trumpet daffodil","scientific_name":["Narcissus 'General Patton'"],"other_name":null,"cycle":"Perennial","watering":"Average","sunlight":["Full sun","part shade"],"default_image":{"image_id":9,"license":5,"license_name":"Attribution-ShareAlike License","license_url":"https://creativecommons.org/licenses/by-sa/2.0/","original_url":"https://perenual.com/storage/species_image/2_abies_alba_pyramidalis/og/49255769768_df55596553_b.jpg","regular_url":"https://perenual.com/storage/species_image/2_abies_alba_pyramidalis/regular/49255769768_df55596553_b.jpg","medium_url":"https://perenual.com/storage/species_image/2_abies_alba_pyramidalis/medium/49255769768_df55596553_b.jpg","small_url":"https://perenual.com/storage/species_image/2_abies_alba_pyramidalis/small/49255769768_df55596553_b.jpg","thumbnail":"https://perenual.com/storage/species_image/2_abies_alba_pyramidalis/thumbnail/49255769768_df55596553_b.jpg"}},{"id":5351,"common_name":"tazetta daffodil","scientific_name":["Narcissus 'Geranium'"],"other_name":null,"cycle":"Perennial","watering":"Frequent","sunlight":[],"default_image":{"image_id":9,"license":5,"license_name":"Attribution-ShareAlike License","license_url":"https://creativecommons.org/licenses/by-sa/2.0/","original_url":"https://perenual.com/storage/species_image/2_abies_alba_pyramidalis/og/49255769768_df55596553_b.jpg","regular_url":"https://perenual.com/storage/species_image/2_abies_alba_pyramidalis/regular/49255769768_df55596553_b.jpg","medium_url":"https://perenual.com/storage/species_image/2_abies_alba_pyramidalis/medium/49255769768_df55596553_b.jpg","small_url":"https://perenual.com/storage/species_image/2_abies_alba_pyramidalis/small/49255769768_df55596553_b.jpg","thumbnail":"https://perenual.com/storage/species_image/2_abies_alba_pyramidalis/thumbnail/49255769768_df55596553_b.jpg"}},{"id":5352,"common_name":"trumpet daffodil","scientific_name":["Narcissus 'Gin and Lime'"],"other_name":null,"cycle":"Perennial","watering":"Average","sunlight":["Full sun","part shade"],"default_image":{"image_id":9,"license":5,"license_name":"Attribution-ShareAlike License","license_url":"https://creativecommons.org/licenses/by-sa/2.0/","original_url":"https://perenual.com/storage/species_image/2_abies_alba_pyramidalis/og/49255769768_df55596553_b.jpg","regular_url":"https://perenual.com/storage/species_image/2_abies_alba_pyramidalis/regular/49255769768_df55596553_b.jpg","medium_url":"https://perenual.com/storage/species_image/2_abies_alba_pyramidalis/medium/49255769768_df55596553_b.jpg","small_url":"https://perenual.com/storage/species_image/2_abies_alba_pyramidalis/small/49255769768_df55596553_b.jpg","thumbnail":"https://perenual.com/storage/species_image/2_abies_alba_pyramidalis/thumbnail/49255769768_df55596553_b.jpg"}},{"id":5353,"common_name":"tazetta daffodil","scientific_name":["Narcissus 'Golden Dawn'"],"other_name":null,"cycle":"Perennial","watering":"Average","sunlight":["Full sun","part shade"],"default_image":{"image_id":9,"license":5,"license_name":"Attribution-ShareAlike License","license_url":"https://creativecommons.org/licenses/by-sa/2.0/","original_url":"https://perenual.com/storage/species_image/2_abies_alba_pyramidalis/og/49255769768_df55596553_b.jpg","regular_url":"https://perenual.com/storage/species_image/2_abies_alba_pyramidalis/regular/49255769768_df55596553_b.jpg","medium_url":"https://perenual.com/storage/species_image/2_abies_alba_pyramidalis/medium/49255769768_df55596553_b.jpg","small_url":"https://perenual.com/storage/species_image/2_abies_alba_pyramidalis/small/49255769768_df55596553_b.jpg","thumbnail":"https://perenual.com/storage/species_image/2_abies_alba_pyramidalis/thumbnail/49255769768_df55596553_b.jpg"}},{"id":5354,"common_name":"miscellaneous daffodil","scientific_name":["Narcissus 'Golden Quince'"],"other_name":null,"cycle":"Perennial","watering":"Average","sunlight":["Full sun","part shade"],"default_image":{"image_id":9,"license":5,"license_name":"Attribution-ShareAlike License","license_url":"https://creativecommons.org/licenses/by-sa/2.0/","original_url":"https://perenual.com/storage/species_image/2_abies_alba_pyramidalis/og/49255769768_df55596553_b.jpg","regular_url":"https://perenual.com/storage/species_image/2_abies_alba_pyramidalis/regular/49255769768_df55596553_b.jpg","medium_url":"https://perenual.com/storage/species_image/2_abies_alba_pyramidalis/medium/49255769768_df55596553_b.jpg","small_url":"https://perenual.com/storage/species_image/2_abies_alba_pyramidalis/small/49255769768_df55596553_b.jpg","thumbnail":"https://perenual.com/storage/species_image/2_abies_alba_pyramidalis/thumbnail/49255769768_df55596553_b.jpg"}},{"id":5355,"common_name":"small-cupped daffodil","scientific_name":["Narcissus 'Green Pearl'"],"other_name":null,"cycle":"Perennial","watering":"Average","sunlight":["Full sun","part shade"],"default_image":{"image_id":9,"license":5,"license_name":"Attribution-ShareAlike License","license_url":"https://creativecommons.org/licenses/by-sa/2.0/","original_url":"https://perenual.com/storage/species_image/2_abies_alba_pyramidalis/og/49255769768_df55596553_b.jpg","regular_url":"https://perenual.com/storage/species_image/2_abies_alba_pyramidalis/regular/49255769768_df55596553_b.jpg","medium_url":"https://perenual.com/storage/species_image/2_abies_alba_pyramidalis/medium/49255769768_df55596553_b.jpg","small_url":"https://perenual.com/storage/species_image/2_abies_alba_pyramidalis/small/49255769768_df55596553_b.jpg","thumbnail":"https://perenual.com/storage/species_image/2_abies_alba_pyramidalis/thumbnail/49255769768_df55596553_b.jpg"}},{"id":5356,"common_name":"daffodil","scientific_name":["Narcissus (group)"],"other_name":null,"cycle":"Perennial","watering":"Average","sunlight":["Full sun","part shade"],"default_image":{"image_id":11231,"license":4,"license_name":"Attribution License","license_url":"https://creativecommons.org/licenses/by/2.0/","original_url":"https://perenual.com/storage/species_image/5356_narcissus_group/og/17156135737_e1c72a7cb2_b.jpg","regular_url":"https://perenual.com/storage/species_image/5356_narcissus_group/regular/17156135737_e1c72a7cb2_b.jpg","medium_url":"https://perenual.com/storage/species_image/5356_narcissus_group/medium/17156135737_e1c72a7cb2_b.jpg","small_url":"https://perenual.com/storage/species_image/5356_narcissus_group/small/17156135737_e1c72a7cb2_b.jpg","thumbnail":"https://perenual.com/storage/species_image/5356_narcissus_group/thumbnail/17156135737_e1c72a7cb2_b.jpg"}},{"id":5357,"common_name":"triandrus daffodil","scientific_name":["Narcissus 'Hawera'"],"other_name":null,"cycle":"Perennial","watering":"Average","sunlight":["Full sun","part shade"],"default_image":{"image_id":11232,"license":4,"license_name":"Attribution License","license_url":"https://creativecommons.org/licenses/by/2.0/","original_url":"https://perenual.com/storage/species_image/5357_narcissus_hawera/og/3462585207_5b55ec3dde_b.jpg","regular_url":"https://perenual.com/storage/species_image/5357_narcissus_hawera/regular/3462585207_5b55ec3dde_b.jpg","medium_url":"https://perenual.com/storage/species_image/5357_narcissus_hawera/medium/3462585207_5b55ec3dde_b.jpg","small_url":"https://perenual.com/storage/species_image/5357_narcissus_hawera/small/3462585207_5b55ec3dde_b.jpg","thumbnail":"https://perenual.com/storage/species_image/5357_narcissus_hawera/thumbnail/3462585207_5b55ec3dde_b.jpg"}},{"id":5358,"common_name":"large-cupped daffodil","scientific_name":["Narcissus 'Ice Follies'"],"other_name":null,"cycle":"Perennial","watering":"Average","sunlight":["Full sun","part shade"],"default_image":{"image_id":9,"license":5,"license_name":"Attribution-ShareAlike License","license_url":"https://creativecommons.org/licenses/by-sa/2.0/","original_url":"https://perenual.com/storage/species_image/2_abies_alba_pyramidalis/og/49255769768_df55596553_b.jpg","regular_url":"https://perenual.com/storage/species_image/2_abies_alba_pyramidalis/regular/49255769768_df55596553_b.jpg","medium_url":"https://perenual.com/storage/species_image/2_abies_alba_pyramidalis/medium/49255769768_df55596553_b.jpg","small_url":"https://perenual.com/storage/species_image/2_abies_alba_pyramidalis/small/49255769768_df55596553_b.jpg","thumbnail":"https://perenual.com/storage/species_image/2_abies_alba_pyramidalis/thumbnail/49255769768_df55596553_b.jpg"}},{"id":5359,"common_name":"triandrus daffodil","scientific_name":["Narcissus 'Ice Wings'"],"other_name":null,"cycle":"Perennial","watering":"Average","sunlight":["Full sun","part shade"],"default_image":{"image_id":9,"license":5,"license_name":"Attribution-ShareAlike License","license_url":"https://creativecommons.org/licenses/by-sa/2.0/","original_url":"https://perenual.com/storage/species_image/2_abies_alba_pyramidalis/og/49255769768_df55596553_b.jpg","regular_url":"https://perenual.com/storage/species_image/2_abies_alba_pyramidalis/regular/49255769768_df55596553_b.jpg","medium_url":"https://perenual.com/storage/species_image/2_abies_alba_pyramidalis/medium/49255769768_df55596553_b.jpg","small_url":"https://perenual.com/storage/species_image/2_abies_alba_pyramidalis/small/49255769768_df55596553_b.jpg","thumbnail":"https://perenual.com/storage/species_image/2_abies_alba_pyramidalis/thumbnail/49255769768_df55596553_b.jpg"}},{"id":5360,"common_name":"large-cupped daffodil","scientific_name":["Narcissus 'Icelandic Pink'"],"other_name":null,"cycle":"Perennial","watering":"Average","sunlight":["Full sun","part shade"],"default_image":{"image_id":9,"license":5,"license_name":"Attribution-ShareAlike License","license_url":"https://creativecommons.org/licenses/by-sa/2.0/","original_url":"https://perenual.com/storage/species_image/2_abies_alba_pyramidalis/og/49255769768_df55596553_b.jpg","regular_url":"https://perenual.com/storage/species_image/2_abies_alba_pyramidalis/regular/49255769768_df55596553_b.jpg","medium_url":"https://perenual.com/storage/species_image/2_abies_alba_pyramidalis/medium/49255769768_df55596553_b.jpg","small_url":"https://perenual.com/storage/species_image/2_abies_alba_pyramidalis/small/49255769768_df55596553_b.jpg","thumbnail":"https://perenual.com/storage/species_image/2_abies_alba_pyramidalis/thumbnail/49255769768_df55596553_b.jpg"}},{"id":5361,"common_name":"jonquilla daffodil","scientific_name":["Narcissus 'Intrigue'"],"other_name":null,"cycle":"Perennial","watering":"Average","sunlight":["Full sun","part shade"],"default_image":{"image_id":9,"license":5,"license_name":"Attribution-ShareAlike License","license_url":"https://creativecommons.org/licenses/by-sa/2.0/","original_url":"https://perenual.com/storage/species_image/2_abies_alba_pyramidalis/og/49255769768_df55596553_b.jpg","regular_url":"https://perenual.com/storage/species_image/2_abies_alba_pyramidalis/regular/49255769768_df55596553_b.jpg","medium_url":"https://perenual.com/storage/species_image/2_abies_alba_pyramidalis/medium/49255769768_df55596553_b.jpg","small_url":"https://perenual.com/storage/species_image/2_abies_alba_pyramidalis/small/49255769768_df55596553_b.jpg","thumbnail":"https://perenual.com/storage/species_image/2_abies_alba_pyramidalis/thumbnail/49255769768_df55596553_b.jpg"}},{"id":5362,"common_name":"cyclamineus daffodil","scientific_name":["Narcissus 'Itzim'"],"other_name":null,"cycle":"Perennial","watering":"Average","sunlight":["Full sun","part shade"],"default_image":{"image_id":9,"license":5,"license_name":"Attribution-ShareAlike License","license_url":"https://creativecommons.org/licenses/by-sa/2.0/","original_url":"https://perenual.com/storage/species_image/2_abies_alba_pyramidalis/og/49255769768_df55596553_b.jpg","regular_url":"https://perenual.com/storage/species_image/2_abies_alba_pyramidalis/regular/49255769768_df55596553_b.jpg","medium_url":"https://perenual.com/storage/species_image/2_abies_alba_pyramidalis/medium/49255769768_df55596553_b.jpg","small_url":"https://perenual.com/storage/species_image/2_abies_alba_pyramidalis/small/49255769768_df55596553_b.jpg","thumbnail":"https://perenual.com/storage/species_image/2_abies_alba_pyramidalis/thumbnail/49255769768_df55596553_b.jpg"}},{"id":5363,"common_name":"cyclamineus daffodil","scientific_name":["Narcissus 'Jack Snipe'"],"other_name":null,"cycle":"Perennial","watering":"Average","sunlight":["Full sun","part shade"],"default_image":{"image_id":9,"license":5,"license_name":"Attribution-ShareAlike License","license_url":"https://creativecommons.org/licenses/by-sa/2.0/","original_url":"https://perenual.com/storage/species_image/2_abies_alba_pyramidalis/og/49255769768_df55596553_b.jpg","regular_url":"https://perenual.com/storage/species_image/2_abies_alba_pyramidalis/regular/49255769768_df55596553_b.jpg","medium_url":"https://perenual.com/storage/species_image/2_abies_alba_pyramidalis/medium/49255769768_df55596553_b.jpg","small_url":"https://perenual.com/storage/species_image/2_abies_alba_pyramidalis/small/49255769768_df55596553_b.jpg","thumbnail":"https://perenual.com/storage/species_image/2_abies_alba_pyramidalis/thumbnail/49255769768_df55596553_b.jpg"}},{"id":5364,"common_name":"cyclamineus daffodil","scientific_name":["Narcissus 'Jenny'"],"other_name":null,"cycle":"Perennial","watering":"Average","sunlight":["Full sun","part shade"],"default_image":{"image_id":9,"license":5,"license_name":"Attribution-ShareAlike License","license_url":"https://creativecommons.org/licenses/by-sa/2.0/","original_url":"https://perenual.com/storage/species_image/2_abies_alba_pyramidalis/og/49255769768_df55596553_b.jpg","regular_url":"https://perenual.com/storage/species_image/2_abies_alba_pyramidalis/regular/49255769768_df55596553_b.jpg","medium_url":"https://perenual.com/storage/species_image/2_abies_alba_pyramidalis/medium/49255769768_df55596553_b.jpg","small_url":"https://perenual.com/storage/species_image/2_abies_alba_pyramidalis/small/49255769768_df55596553_b.jpg","thumbnail":"https://perenual.com/storage/species_image/2_abies_alba_pyramidalis/thumbnail/49255769768_df55596553_b.jpg"}},{"id":5365,"common_name":"cyclamineus daffodil","scientific_name":["Narcissus 'Jetfire'"],"other_name":null,"cycle":"Perennial","watering":"Average","sunlight":["Full sun","part shade"],"default_image":{"image_id":11241,"license":6,"license_name":"Attribution-NoDerivs License","license_url":"https://creativecommons.org/licenses/by-nd/2.0/","original_url":"https://perenual.com/storage/species_image/5365_narcissus_jetfire/og/49596463071_1d74c1afcd_b.jpg"}},{"id":5366,"common_name":"species daffodil","scientific_name":["Narcissus jonquilla"],"other_name":null,"cycle":"Perennial","watering":"Average","sunlight":["Full sun","part shade"],"default_image":{"image_id":11243,"license":5,"license_name":"Attribution-ShareAlike License","license_url":"https://creativecommons.org/licenses/by-sa/2.0/","original_url":"https://perenual.com/storage/species_image/5366_narcissus_jonquilla/og/51858797093_fcc494b29c_b.jpg","regular_url":"https://perenual.com/storage/species_image/5366_narcissus_jonquilla/regular/51858797093_fcc494b29c_b.jpg","medium_url":"https://perenual.com/storage/species_image/5366_narcissus_jonquilla/medium/51858797093_fcc494b29c_b.jpg","small_url":"https://perenual.com/storage/species_image/5366_narcissus_jonquilla/small/51858797093_fcc494b29c_b.jpg","thumbnail":"https://perenual.com/storage/species_image/5366_narcissus_jonquilla/thumbnail/51858797093_fcc494b29c_b.jpg"}},{"id":5367,"common_name":"large-cupped daffodil","scientific_name":["Narcissus 'Juanita'"],"other_name":null,"cycle":"Perennial","watering":"Average","sunlight":["Full sun","part shade"],"default_image":{"image_id":9,"license":5,"license_name":"Attribution-ShareAlike License","license_url":"https://creativecommons.org/licenses/by-sa/2.0/","original_url":"https://perenual.com/storage/species_image/2_abies_alba_pyramidalis/og/49255769768_df55596553_b.jpg","regular_url":"https://perenual.com/storage/species_image/2_abies_alba_pyramidalis/regular/49255769768_df55596553_b.jpg","medium_url":"https://perenual.com/storage/species_image/2_abies_alba_pyramidalis/medium/49255769768_df55596553_b.jpg","small_url":"https://perenual.com/storage/species_image/2_abies_alba_pyramidalis/small/49255769768_df55596553_b.jpg","thumbnail":"https://perenual.com/storage/species_image/2_abies_alba_pyramidalis/thumbnail/49255769768_df55596553_b.jpg"}},{"id":5368,"common_name":"triandrus daffodil","scientific_name":["Narcissus 'Katie Heath'"],"other_name":null,"cycle":"Perennial","watering":"Average","sunlight":["Full sun","part shade"],"default_image":{"image_id":11244,"license":5,"license_name":"Attribution-ShareAlike License","license_url":"https://creativecommons.org/licenses/by-sa/2.0/","original_url":"https://perenual.com/storage/species_image/5368_narcissus_katie_heath/og/9252395885_d38b426c19_b.jpg","regular_url":"https://perenual.com/storage/species_image/5368_narcissus_katie_heath/regular/9252395885_d38b426c19_b.jpg","medium_url":"https://perenual.com/storage/species_image/5368_narcissus_katie_heath/medium/9252395885_d38b426c19_b.jpg","small_url":"https://perenual.com/storage/species_image/5368_narcissus_katie_heath/small/9252395885_d38b426c19_b.jpg","thumbnail":"https://perenual.com/storage/species_image/5368_narcissus_katie_heath/thumbnail/9252395885_d38b426c19_b.jpg"}},{"id":5369,"common_name":"cyclamineus daffodil","scientific_name":["Narcissus 'Kaydee'"],"other_name":null,"cycle":"Perennial","watering":"Average","sunlight":["Full sun","part shade"],"default_image":{"image_id":11245,"license":4,"license_name":"Attribution License","license_url":"https://creativecommons.org/licenses/by/2.0/","original_url":"https://perenual.com/storage/species_image/5369_narcissus_kaydee/og/21988692000_2bf666d2ec_b.jpg","regular_url":"https://perenual.com/storage/species_image/5369_narcissus_kaydee/regular/21988692000_2bf666d2ec_b.jpg","medium_url":"https://perenual.com/storage/species_image/5369_narcissus_kaydee/medium/21988692000_2bf666d2ec_b.jpg","small_url":"https://perenual.com/storage/species_image/5369_narcissus_kaydee/small/21988692000_2bf666d2ec_b.jpg","thumbnail":"https://perenual.com/storage/species_image/5369_narcissus_kaydee/thumbnail/21988692000_2bf666d2ec_b.jpg"}},{"id":5370,"common_name":"trumpet daffodil","scientific_name":["Narcissus 'King Alfred'"],"other_name":null,"cycle":"Perennial","watering":"Average","sunlight":["Full sun","part shade"],"default_image":{"image_id":11246,"license":5,"license_name":"Attribution-ShareAlike License","license_url":"https://creativecommons.org/licenses/by-sa/2.0/","original_url":"https://perenual.com/storage/species_image/5370_narcissus_king_alfred/og/21862993690_700ce1b282_b.jpg","regular_url":"https://perenual.com/storage/species_image/5370_narcissus_king_alfred/regular/21862993690_700ce1b282_b.jpg","medium_url":"https://perenual.com/storage/species_image/5370_narcissus_king_alfred/medium/21862993690_700ce1b282_b.jpg","small_url":"https://perenual.com/storage/species_image/5370_narcissus_king_alfred/small/21862993690_700ce1b282_b.jpg","thumbnail":"https://perenual.com/storage/species_image/5370_narcissus_king_alfred/thumbnail/21862993690_700ce1b282_b.jpg"}}],"to":5370,"per_page":30,"current_page":179,"from":5341,"last_page":200,"total":6000}