{"data":[{"id":1771,"common_name":"eastern redbud","scientific_name":["Cercis canadensis 'Covey'"],"other_name":["Redbud","Judas Tree","Love Tree","Eastern Redbud","Judas Tree"],"cycle":"Perennial","watering":"Average","sunlight":["Partial Shade"," Shade"," Deciduous Shade (Spring Sun)"],"default_image":{"image_id":9,"license":5,"license_name":"Attribution-ShareAlike License","license_url":"https://creativecommons.org/licenses/by-sa/2.0/","original_url":"https://perenual.com/storage/species_image/2_abies_alba_pyramidalis/og/49255769768_df55596553_b.jpg","regular_url":"https://perenual.com/storage/species_image/2_abies_alba_pyramidalis/regular/49255769768_df55596553_b.jpg","medium_url":"https://perenual.com/storage/species_image/2_abies_alba_pyramidalis/medium/49255769768_df55596553_b.jpg","small_url":"https://perenual.com/storage/species_image/2_abies_alba_pyramidalis/small/49255769768_df55596553_b.jpg","thumbnail":"https://perenual.com/storage/species_image/2_abies_alba_pyramidalis/thumbnail/49255769768_df55596553_b.jpg"}},{"id":1772,"common_name":"eastern redbud","scientific_name":["Cercis canadensis f. alba 'Royal White'"],"other_name":["Redbud","Judas Tree","Love Tree","Eastern Redbud","Judas Tree"],"cycle":"Perennial","watering":"Average","sunlight":["Partial Shade"," Shade"," Deciduous Shade (Spring Sun)"],"default_image":{"image_id":4247,"license":5,"license_name":"Attribution-ShareAlike License","license_url":"https://creativecommons.org/licenses/by-sa/2.0/","original_url":"https://perenual.com/storage/species_image/1772_cercis_canadensis_f_alba_royal_white/og/52077427839_10f1e28a0d_b.jpg","regular_url":"https://perenual.com/storage/species_image/1772_cercis_canadensis_f_alba_royal_white/regular/52077427839_10f1e28a0d_b.jpg","medium_url":"https://perenual.com/storage/species_image/1772_cercis_canadensis_f_alba_royal_white/medium/52077427839_10f1e28a0d_b.jpg","small_url":"https://perenual.com/storage/species_image/1772_cercis_canadensis_f_alba_royal_white/small/52077427839_10f1e28a0d_b.jpg","thumbnail":"https://perenual.com/storage/species_image/1772_cercis_canadensis_f_alba_royal_white/thumbnail/52077427839_10f1e28a0d_b.jpg"}},{"id":1773,"common_name":"eastern redbud","scientific_name":["Cercis canadensis 'JN16' BLACK PEARL"],"other_name":["Redbud","Judas Tree","Love Tree","Eastern Redbud","Judas Tree"],"cycle":"Perennial","watering":"Average","sunlight":["Partial Shade"," Shade"," Deciduous Shade (Spring Sun)"],"default_image":{"image_id":9,"license":5,"license_name":"Attribution-ShareAlike License","license_url":"https://creativecommons.org/licenses/by-sa/2.0/","original_url":"https://perenual.com/storage/species_image/2_abies_alba_pyramidalis/og/49255769768_df55596553_b.jpg","regular_url":"https://perenual.com/storage/species_image/2_abies_alba_pyramidalis/regular/49255769768_df55596553_b.jpg","medium_url":"https://perenual.com/storage/species_image/2_abies_alba_pyramidalis/medium/49255769768_df55596553_b.jpg","small_url":"https://perenual.com/storage/species_image/2_abies_alba_pyramidalis/small/49255769768_df55596553_b.jpg","thumbnail":"https://perenual.com/storage/species_image/2_abies_alba_pyramidalis/thumbnail/49255769768_df55596553_b.jpg"}},{"id":1774,"common_name":"eastern redbud","scientific_name":["Cercis canadensis 'JN2' THE RISING SUN"],"other_name":["Redbud","Judas Tree","Love Tree","Eastern Redbud","Judas Tree"],"cycle":"Perennial","watering":"Average","sunlight":["Partial Shade"," Shade"," Deciduous Shade (Spring Sun)"],"default_image":{"image_id":4253,"license":4,"license_name":"Attribution License","license_url":"https://creativecommons.org/licenses/by/2.0/","original_url":"https://perenual.com/storage/species_image/1774_cercis_canadensis_jn2_the_rising_sun/og/51435552519_ce3d767849_b.jpg","regular_url":"https://perenual.com/storage/species_image/1774_cercis_canadensis_jn2_the_rising_sun/regular/51435552519_ce3d767849_b.jpg","medium_url":"https://perenual.com/storage/species_image/1774_cercis_canadensis_jn2_the_rising_sun/medium/51435552519_ce3d767849_b.jpg","small_url":"https://perenual.com/storage/species_image/1774_cercis_canadensis_jn2_the_rising_sun/small/51435552519_ce3d767849_b.jpg","thumbnail":"https://perenual.com/storage/species_image/1774_cercis_canadensis_jn2_the_rising_sun/thumbnail/51435552519_ce3d767849_b.jpg"}},{"id":1775,"common_name":"eastern redbud","scientific_name":["Cercis canadensis 'NC2016-2' FLAME THROWER"],"other_name":["Redbud","Judas Tree","Love Tree","Eastern Redbud","Judas Tree"],"cycle":"Perennial","watering":"Average","sunlight":["Partial Shade"," Shade"," Deciduous Shade (Spring Sun)"],"default_image":{"image_id":21012,"license":45,"license_name":"Attribution-ShareAlike 3.0 Unported (CC BY-SA 3.0)","license_url":"https://creativecommons.org/licenses/by-sa/3.0/deed.en","original_url":"https://perenual.com/storage/species_image/1775_cercis_canadensis_nc2016-2_flame_thrower/og/Cercis_canadensis_%27Forest_Pansy%27_JPG1Fe.jpg","regular_url":"https://perenual.com/storage/species_image/1775_cercis_canadensis_nc2016-2_flame_thrower/regular/Cercis_canadensis_%27Forest_Pansy%27_JPG1Fe.jpg","medium_url":"https://perenual.com/storage/species_image/1775_cercis_canadensis_nc2016-2_flame_thrower/medium/Cercis_canadensis_%27Forest_Pansy%27_JPG1Fe.jpg","small_url":"https://perenual.com/storage/species_image/1775_cercis_canadensis_nc2016-2_flame_thrower/small/Cercis_canadensis_%27Forest_Pansy%27_JPG1Fe.jpg","thumbnail":"https://perenual.com/storage/species_image/1775_cercis_canadensis_nc2016-2_flame_thrower/thumbnail/Cercis_canadensis_%27Forest_Pansy%27_JPG1Fe.jpg"}},{"id":1776,"common_name":"eastern redbud","scientific_name":["Cercis canadensis 'Pauline Lily'"],"other_name":["Redbud","Judas Tree","Love Tree","Eastern Redbud","Judas Tree"],"cycle":"Perennial","watering":"Average","sunlight":["Partial Shade"," Shade"," Deciduous Shade (Spring Sun)"],"default_image":{"image_id":9,"license":5,"license_name":"Attribution-ShareAlike License","license_url":"https://creativecommons.org/licenses/by-sa/2.0/","original_url":"https://perenual.com/storage/species_image/2_abies_alba_pyramidalis/og/49255769768_df55596553_b.jpg","regular_url":"https://perenual.com/storage/species_image/2_abies_alba_pyramidalis/regular/49255769768_df55596553_b.jpg","medium_url":"https://perenual.com/storage/species_image/2_abies_alba_pyramidalis/medium/49255769768_df55596553_b.jpg","small_url":"https://perenual.com/storage/species_image/2_abies_alba_pyramidalis/small/49255769768_df55596553_b.jpg","thumbnail":"https://perenual.com/storage/species_image/2_abies_alba_pyramidalis/thumbnail/49255769768_df55596553_b.jpg"}},{"id":1777,"common_name":"eastern redbud","scientific_name":["Cercis canadensis 'Pink Trim' NORTHERN HERALD"],"other_name":["Redbud","Judas Tree","Love Tree","Eastern Redbud","Judas Tree"],"cycle":"Perennial","watering":"Average","sunlight":["Partial Shade"," Shade"," Deciduous Shade (Spring Sun)"],"default_image":{"image_id":4257,"license":4,"license_name":"Attribution License","license_url":"https://creativecommons.org/licenses/by/2.0/","original_url":"https://perenual.com/storage/species_image/1777_cercis_canadensis_pink_trim_northern_herald/og/52049857881_2a5d16846b_b.jpg","regular_url":"https://perenual.com/storage/species_image/1777_cercis_canadensis_pink_trim_northern_herald/regular/52049857881_2a5d16846b_b.jpg","medium_url":"https://perenual.com/storage/species_image/1777_cercis_canadensis_pink_trim_northern_herald/medium/52049857881_2a5d16846b_b.jpg","small_url":"https://perenual.com/storage/species_image/1777_cercis_canadensis_pink_trim_northern_herald/small/52049857881_2a5d16846b_b.jpg","thumbnail":"https://perenual.com/storage/species_image/1777_cercis_canadensis_pink_trim_northern_herald/thumbnail/52049857881_2a5d16846b_b.jpg"}},{"id":1778,"common_name":"eastern redbud","scientific_name":["Cercis canadensis 'Silver Cloud'"],"other_name":["Redbud","Judas Tree","Love Tree","Eastern Redbud","Judas Tree"],"cycle":"Perennial","watering":"Average","sunlight":["Partial Shade"," Shade"," Deciduous Shade (Spring Sun)"],"default_image":{"image_id":9,"license":5,"license_name":"Attribution-ShareAlike License","license_url":"https://creativecommons.org/licenses/by-sa/2.0/","original_url":"https://perenual.com/storage/species_image/2_abies_alba_pyramidalis/og/49255769768_df55596553_b.jpg","regular_url":"https://perenual.com/storage/species_image/2_abies_alba_pyramidalis/regular/49255769768_df55596553_b.jpg","medium_url":"https://perenual.com/storage/species_image/2_abies_alba_pyramidalis/medium/49255769768_df55596553_b.jpg","small_url":"https://perenual.com/storage/species_image/2_abies_alba_pyramidalis/small/49255769768_df55596553_b.jpg","thumbnail":"https://perenual.com/storage/species_image/2_abies_alba_pyramidalis/thumbnail/49255769768_df55596553_b.jpg"}},{"id":1779,"common_name":"eastern redbud","scientific_name":["Cercis canadensis 'Tennessee Pink'"],"other_name":["Redbud","Judas Tree","Love Tree","Eastern Redbud","Judas Tree"],"cycle":"Perennial","watering":"Average","sunlight":["Partial Shade"," Shade"," Deciduous Shade (Spring Sun)"],"default_image":{"image_id":9,"license":5,"license_name":"Attribution-ShareAlike License","license_url":"https://creativecommons.org/licenses/by-sa/2.0/","original_url":"https://perenual.com/storage/species_image/2_abies_alba_pyramidalis/og/49255769768_df55596553_b.jpg","regular_url":"https://perenual.com/storage/species_image/2_abies_alba_pyramidalis/regular/49255769768_df55596553_b.jpg","medium_url":"https://perenual.com/storage/species_image/2_abies_alba_pyramidalis/medium/49255769768_df55596553_b.jpg","small_url":"https://perenual.com/storage/species_image/2_abies_alba_pyramidalis/small/49255769768_df55596553_b.jpg","thumbnail":"https://perenual.com/storage/species_image/2_abies_alba_pyramidalis/thumbnail/49255769768_df55596553_b.jpg"}},{"id":1780,"common_name":"Texas redbud","scientific_name":["Cercis canadensis var. texensis"],"other_name":["Redbud","Judas Tree","Love Tree","Eastern Redbud","Judas Tree"],"cycle":"Perennial","watering":"Average","sunlight":["Partial Shade"," Shade"," Deciduous Shade (Spring Sun)"],"default_image":{"image_id":4263,"license":5,"license_name":"Attribution-ShareAlike License","license_url":"https://creativecommons.org/licenses/by-sa/2.0/","original_url":"https://perenual.com/storage/species_image/1780_cercis_canadensis_var_texensis/og/2328250369_126279c898_b.jpg","regular_url":"https://perenual.com/storage/species_image/1780_cercis_canadensis_var_texensis/regular/2328250369_126279c898_b.jpg","medium_url":"https://perenual.com/storage/species_image/1780_cercis_canadensis_var_texensis/medium/2328250369_126279c898_b.jpg","small_url":"https://perenual.com/storage/species_image/1780_cercis_canadensis_var_texensis/small/2328250369_126279c898_b.jpg","thumbnail":"https://perenual.com/storage/species_image/1780_cercis_canadensis_var_texensis/thumbnail/2328250369_126279c898_b.jpg"}},{"id":1781,"common_name":"Texas redbud","scientific_name":["Cercis canadensis var. texensis 'Oklahoma'"],"other_name":["Redbud","Judas Tree","Love Tree","Eastern Redbud","Judas Tree"],"cycle":"Perennial","watering":"Average","sunlight":["Partial Shade"," Shade"," Deciduous Shade (Spring Sun)"],"default_image":{"image_id":9,"license":5,"license_name":"Attribution-ShareAlike License","license_url":"https://creativecommons.org/licenses/by-sa/2.0/","original_url":"https://perenual.com/storage/species_image/2_abies_alba_pyramidalis/og/49255769768_df55596553_b.jpg","regular_url":"https://perenual.com/storage/species_image/2_abies_alba_pyramidalis/regular/49255769768_df55596553_b.jpg","medium_url":"https://perenual.com/storage/species_image/2_abies_alba_pyramidalis/medium/49255769768_df55596553_b.jpg","small_url":"https://perenual.com/storage/species_image/2_abies_alba_pyramidalis/small/49255769768_df55596553_b.jpg","thumbnail":"https://perenual.com/storage/species_image/2_abies_alba_pyramidalis/thumbnail/49255769768_df55596553_b.jpg"}},{"id":1782,"common_name":"Chinese redbud","scientific_name":["Cercis chinensis"],"other_name":null,"cycle":"Perennial","watering":"Average","sunlight":["Full sun","part shade"],"default_image":{"image_id":4270,"license":5,"license_name":"Attribution-ShareAlike License","license_url":"https://creativecommons.org/licenses/by-sa/2.0/","original_url":"https://perenual.com/storage/species_image/1782_cercis_chinensis/og/50163830661_cf09837322_b.jpg","regular_url":"https://perenual.com/storage/species_image/1782_cercis_chinensis/regular/50163830661_cf09837322_b.jpg","medium_url":"https://perenual.com/storage/species_image/1782_cercis_chinensis/medium/50163830661_cf09837322_b.jpg","small_url":"https://perenual.com/storage/species_image/1782_cercis_chinensis/small/50163830661_cf09837322_b.jpg","thumbnail":"https://perenual.com/storage/species_image/1782_cercis_chinensis/thumbnail/50163830661_cf09837322_b.jpg"}},{"id":1783,"common_name":"Chinese redbud","scientific_name":["Cercis chinensis 'Avondale'"],"other_name":null,"cycle":"Perennial","watering":"Average","sunlight":["Full sun","part shade"],"default_image":{"image_id":4274,"license":5,"license_name":"Attribution-ShareAlike License","license_url":"https://creativecommons.org/licenses/by-sa/2.0/","original_url":"https://perenual.com/storage/species_image/1783_cercis_chinensis_avondale/og/26698181557_4856e86176_b.jpg","regular_url":"https://perenual.com/storage/species_image/1783_cercis_chinensis_avondale/regular/26698181557_4856e86176_b.jpg","medium_url":"https://perenual.com/storage/species_image/1783_cercis_chinensis_avondale/medium/26698181557_4856e86176_b.jpg","small_url":"https://perenual.com/storage/species_image/1783_cercis_chinensis_avondale/small/26698181557_4856e86176_b.jpg","thumbnail":"https://perenual.com/storage/species_image/1783_cercis_chinensis_avondale/thumbnail/26698181557_4856e86176_b.jpg"}},{"id":1784,"common_name":"Chinese redbud","scientific_name":["Cercis chinensis 'Don Egolf'"],"other_name":null,"cycle":"Perennial","watering":"Average","sunlight":["Full sun","part shade"],"default_image":{"image_id":4276,"license":5,"license_name":"Attribution-ShareAlike License","license_url":"https://creativecommons.org/licenses/by-sa/2.0/","original_url":"https://perenual.com/storage/species_image/1784_cercis_chinensis_don_egolf/og/4849409589_3d210aacf7_b.jpg","regular_url":"https://perenual.com/storage/species_image/1784_cercis_chinensis_don_egolf/regular/4849409589_3d210aacf7_b.jpg","medium_url":"https://perenual.com/storage/species_image/1784_cercis_chinensis_don_egolf/medium/4849409589_3d210aacf7_b.jpg","small_url":"https://perenual.com/storage/species_image/1784_cercis_chinensis_don_egolf/small/4849409589_3d210aacf7_b.jpg","thumbnail":"https://perenual.com/storage/species_image/1784_cercis_chinensis_don_egolf/thumbnail/4849409589_3d210aacf7_b.jpg"}},{"id":1785,"common_name":"redbud","scientific_name":["Cercis 'Merlot'"],"other_name":null,"cycle":"Perennial","watering":"Average","sunlight":["Full sun","part shade"],"default_image":null},{"id":1786,"common_name":"Judas tree","scientific_name":["Cercis siliquastrum"],"other_name":null,"cycle":"Perennial","watering":"Average","sunlight":["Full sun","part shade"],"default_image":{"image_id":4279,"license":5,"license_name":"Attribution-ShareAlike License","license_url":"https://creativecommons.org/licenses/by-sa/2.0/","original_url":"https://perenual.com/storage/species_image/1786_cercis_siliquastrum/og/52023115307_dd766b26a7_b.jpg","regular_url":"https://perenual.com/storage/species_image/1786_cercis_siliquastrum/regular/52023115307_dd766b26a7_b.jpg","medium_url":"https://perenual.com/storage/species_image/1786_cercis_siliquastrum/medium/52023115307_dd766b26a7_b.jpg","small_url":"https://perenual.com/storage/species_image/1786_cercis_siliquastrum/small/52023115307_dd766b26a7_b.jpg","thumbnail":"https://perenual.com/storage/species_image/1786_cercis_siliquastrum/thumbnail/52023115307_dd766b26a7_b.jpg"}},{"id":1787,"common_name":"mountain mahogany","scientific_name":["Cercocarpus montanus"],"other_name":null,"cycle":"Perennial","watering":"Minimum","sunlight":["Full sun"],"default_image":{"image_id":9,"license":5,"license_name":"Attribution-ShareAlike License","license_url":"https://creativecommons.org/licenses/by-sa/2.0/","original_url":"https://perenual.com/storage/species_image/2_abies_alba_pyramidalis/og/49255769768_df55596553_b.jpg","regular_url":"https://perenual.com/storage/species_image/2_abies_alba_pyramidalis/regular/49255769768_df55596553_b.jpg","medium_url":"https://perenual.com/storage/species_image/2_abies_alba_pyramidalis/medium/49255769768_df55596553_b.jpg","small_url":"https://perenual.com/storage/species_image/2_abies_alba_pyramidalis/small/49255769768_df55596553_b.jpg","thumbnail":"https://perenual.com/storage/species_image/2_abies_alba_pyramidalis/thumbnail/49255769768_df55596553_b.jpg"}},{"id":1792,"common_name":"flowering quince","scientific_name":["Chaenomeles 'Orange Storm'"],"other_name":null,"cycle":"Perennial","watering":"Average","sunlight":["Full sun","part shade"],"default_image":{"image_id":9,"license":5,"license_name":"Attribution-ShareAlike License","license_url":"https://creativecommons.org/licenses/by-sa/2.0/","original_url":"https://perenual.com/storage/species_image/2_abies_alba_pyramidalis/og/49255769768_df55596553_b.jpg","regular_url":"https://perenual.com/storage/species_image/2_abies_alba_pyramidalis/regular/49255769768_df55596553_b.jpg","medium_url":"https://perenual.com/storage/species_image/2_abies_alba_pyramidalis/medium/49255769768_df55596553_b.jpg","small_url":"https://perenual.com/storage/species_image/2_abies_alba_pyramidalis/small/49255769768_df55596553_b.jpg","thumbnail":"https://perenual.com/storage/species_image/2_abies_alba_pyramidalis/thumbnail/49255769768_df55596553_b.jpg"}},{"id":1793,"common_name":"flowering quince","scientific_name":["Chaenomeles 'Pink Storm'"],"other_name":null,"cycle":"Perennial","watering":"Average","sunlight":["Full sun","part shade"],"default_image":{"image_id":4310,"license":4,"license_name":"Attribution License","license_url":"https://creativecommons.org/licenses/by/2.0/","original_url":"https://perenual.com/storage/species_image/1793_chaenomeles_pink_storm/og/50812068337_17523cca79_b.jpg","regular_url":"https://perenual.com/storage/species_image/1793_chaenomeles_pink_storm/regular/50812068337_17523cca79_b.jpg","medium_url":"https://perenual.com/storage/species_image/1793_chaenomeles_pink_storm/medium/50812068337_17523cca79_b.jpg","small_url":"https://perenual.com/storage/species_image/1793_chaenomeles_pink_storm/small/50812068337_17523cca79_b.jpg","thumbnail":"https://perenual.com/storage/species_image/1793_chaenomeles_pink_storm/thumbnail/50812068337_17523cca79_b.jpg"}},{"id":1794,"common_name":"flowering quince","scientific_name":["Chaenomeles speciosa 'Contorta'"],"other_name":null,"cycle":"Perennial","watering":"Average","sunlight":["Full sun","part shade"],"default_image":{"image_id":9,"license":5,"license_name":"Attribution-ShareAlike License","license_url":"https://creativecommons.org/licenses/by-sa/2.0/","original_url":"https://perenual.com/storage/species_image/2_abies_alba_pyramidalis/og/49255769768_df55596553_b.jpg","regular_url":"https://perenual.com/storage/species_image/2_abies_alba_pyramidalis/regular/49255769768_df55596553_b.jpg","medium_url":"https://perenual.com/storage/species_image/2_abies_alba_pyramidalis/medium/49255769768_df55596553_b.jpg","small_url":"https://perenual.com/storage/species_image/2_abies_alba_pyramidalis/small/49255769768_df55596553_b.jpg","thumbnail":"https://perenual.com/storage/species_image/2_abies_alba_pyramidalis/thumbnail/49255769768_df55596553_b.jpg"}},{"id":1795,"common_name":"flowering quince","scientific_name":["Chaenomeles superba 'Cameo'"],"other_name":null,"cycle":"Perennial","watering":"Average","sunlight":["Full sun","part shade"],"default_image":{"image_id":9,"license":5,"license_name":"Attribution-ShareAlike License","license_url":"https://creativecommons.org/licenses/by-sa/2.0/","original_url":"https://perenual.com/storage/species_image/2_abies_alba_pyramidalis/og/49255769768_df55596553_b.jpg","regular_url":"https://perenual.com/storage/species_image/2_abies_alba_pyramidalis/regular/49255769768_df55596553_b.jpg","medium_url":"https://perenual.com/storage/species_image/2_abies_alba_pyramidalis/medium/49255769768_df55596553_b.jpg","small_url":"https://perenual.com/storage/species_image/2_abies_alba_pyramidalis/small/49255769768_df55596553_b.jpg","thumbnail":"https://perenual.com/storage/species_image/2_abies_alba_pyramidalis/thumbnail/49255769768_df55596553_b.jpg"}},{"id":1796,"common_name":"flowering quince","scientific_name":["Chaenomeles superba 'Jet Trail'"],"other_name":null,"cycle":"Perennial","watering":"Average","sunlight":["Full sun","part shade"],"default_image":{"image_id":9,"license":5,"license_name":"Attribution-ShareAlike License","license_url":"https://creativecommons.org/licenses/by-sa/2.0/","original_url":"https://perenual.com/storage/species_image/2_abies_alba_pyramidalis/og/49255769768_df55596553_b.jpg","regular_url":"https://perenual.com/storage/species_image/2_abies_alba_pyramidalis/regular/49255769768_df55596553_b.jpg","medium_url":"https://perenual.com/storage/species_image/2_abies_alba_pyramidalis/medium/49255769768_df55596553_b.jpg","small_url":"https://perenual.com/storage/species_image/2_abies_alba_pyramidalis/small/49255769768_df55596553_b.jpg","thumbnail":"https://perenual.com/storage/species_image/2_abies_alba_pyramidalis/thumbnail/49255769768_df55596553_b.jpg"}},{"id":1797,"common_name":"flowering quince","scientific_name":["Chaenomeles superba 'Texas Scarlet'"],"other_name":null,"cycle":"Perennial","watering":"Average","sunlight":["Full sun","part shade"],"default_image":{"image_id":9,"license":5,"license_name":"Attribution-ShareAlike License","license_url":"https://creativecommons.org/licenses/by-sa/2.0/","original_url":"https://perenual.com/storage/species_image/2_abies_alba_pyramidalis/og/49255769768_df55596553_b.jpg","regular_url":"https://perenual.com/storage/species_image/2_abies_alba_pyramidalis/regular/49255769768_df55596553_b.jpg","medium_url":"https://perenual.com/storage/species_image/2_abies_alba_pyramidalis/medium/49255769768_df55596553_b.jpg","small_url":"https://perenual.com/storage/species_image/2_abies_alba_pyramidalis/small/49255769768_df55596553_b.jpg","thumbnail":"https://perenual.com/storage/species_image/2_abies_alba_pyramidalis/thumbnail/49255769768_df55596553_b.jpg"}},{"id":1798,"common_name":"hinoki cypress","scientific_name":["Chamaecyparis obtusa 'Golden Whorl'"],"other_name":null,"cycle":"Perennial","watering":"Average","sunlight":["Full sun","part shade"],"default_image":{"image_id":4317,"license":5,"license_name":"Attribution-ShareAlike License","license_url":"https://creativecommons.org/licenses/by-sa/2.0/","original_url":"https://perenual.com/storage/species_image/1798_chamaecyparis_obtusa_golden_whorl/og/47310854651_8ea75a5316_b.jpg","regular_url":"https://perenual.com/storage/species_image/1798_chamaecyparis_obtusa_golden_whorl/regular/47310854651_8ea75a5316_b.jpg","medium_url":"https://perenual.com/storage/species_image/1798_chamaecyparis_obtusa_golden_whorl/medium/47310854651_8ea75a5316_b.jpg","small_url":"https://perenual.com/storage/species_image/1798_chamaecyparis_obtusa_golden_whorl/small/47310854651_8ea75a5316_b.jpg","thumbnail":"https://perenual.com/storage/species_image/1798_chamaecyparis_obtusa_golden_whorl/thumbnail/47310854651_8ea75a5316_b.jpg"}},{"id":1788,"common_name":"orange jessamine","scientific_name":["Cestrum aurantiacum"],"other_name":null,"cycle":"Perennial","watering":"Average","sunlight":["Full sun","part shade"],"default_image":{"image_id":4290,"license":5,"license_name":"Attribution-ShareAlike License","license_url":"https://creativecommons.org/licenses/by-sa/2.0/","original_url":"https://perenual.com/storage/species_image/1788_cestrum_aurantiacum/og/30999301361_53c2b6f922_b.jpg","regular_url":"https://perenual.com/storage/species_image/1788_cestrum_aurantiacum/regular/30999301361_53c2b6f922_b.jpg","medium_url":"https://perenual.com/storage/species_image/1788_cestrum_aurantiacum/medium/30999301361_53c2b6f922_b.jpg","small_url":"https://perenual.com/storage/species_image/1788_cestrum_aurantiacum/small/30999301361_53c2b6f922_b.jpg","thumbnail":"https://perenual.com/storage/species_image/1788_cestrum_aurantiacum/thumbnail/30999301361_53c2b6f922_b.jpg"}},{"id":1789,"common_name":"purple cestrum","scientific_name":["Cestrum elegans"],"other_name":null,"cycle":"Perennial","watering":"Minimum","sunlight":["Full sun","part shade"],"default_image":{"image_id":4294,"license":4,"license_name":"Attribution License","license_url":"https://creativecommons.org/licenses/by/2.0/","original_url":"https://perenual.com/storage/species_image/1789_cestrum_elegans/og/4773903444_eafd97c924_b.jpg","regular_url":"https://perenual.com/storage/species_image/1789_cestrum_elegans/regular/4773903444_eafd97c924_b.jpg","medium_url":"https://perenual.com/storage/species_image/1789_cestrum_elegans/medium/4773903444_eafd97c924_b.jpg","small_url":"https://perenual.com/storage/species_image/1789_cestrum_elegans/small/4773903444_eafd97c924_b.jpg","thumbnail":"https://perenual.com/storage/species_image/1789_cestrum_elegans/thumbnail/4773903444_eafd97c924_b.jpg"}},{"id":1790,"common_name":"Japanese quince","scientific_name":["Chaenomeles japonica"],"other_name":null,"cycle":"Perennial","watering":"Average","sunlight":[],"default_image":{"image_id":4305,"license":4,"license_name":"Attribution License","license_url":"https://creativecommons.org/licenses/by/2.0/","original_url":"https://perenual.com/storage/species_image/1790_chaenomeles_japonica/og/52032947631_30e24e4c82_b.jpg","regular_url":"https://perenual.com/storage/species_image/1790_chaenomeles_japonica/regular/52032947631_30e24e4c82_b.jpg","medium_url":"https://perenual.com/storage/species_image/1790_chaenomeles_japonica/medium/52032947631_30e24e4c82_b.jpg","small_url":"https://perenual.com/storage/species_image/1790_chaenomeles_japonica/small/52032947631_30e24e4c82_b.jpg","thumbnail":"https://perenual.com/storage/species_image/1790_chaenomeles_japonica/thumbnail/52032947631_30e24e4c82_b.jpg"}},{"id":1791,"common_name":"Japanese quince","scientific_name":["Chaenomeles japonica var. alpina"],"other_name":null,"cycle":"Perennial","watering":"Average","sunlight":[],"default_image":{"image_id":9,"license":5,"license_name":"Attribution-ShareAlike License","license_url":"https://creativecommons.org/licenses/by-sa/2.0/","original_url":"https://perenual.com/storage/species_image/2_abies_alba_pyramidalis/og/49255769768_df55596553_b.jpg","regular_url":"https://perenual.com/storage/species_image/2_abies_alba_pyramidalis/regular/49255769768_df55596553_b.jpg","medium_url":"https://perenual.com/storage/species_image/2_abies_alba_pyramidalis/medium/49255769768_df55596553_b.jpg","small_url":"https://perenual.com/storage/species_image/2_abies_alba_pyramidalis/small/49255769768_df55596553_b.jpg","thumbnail":"https://perenual.com/storage/species_image/2_abies_alba_pyramidalis/thumbnail/49255769768_df55596553_b.jpg"}},{"id":1799,"common_name":"hinoki cypress","scientific_name":["Chamaecyparis obtusa 'Kosteri'"],"other_name":null,"cycle":"Perennial","watering":"Average","sunlight":["Full sun","part shade"],"default_image":{"image_id":4319,"license":5,"license_name":"Attribution-ShareAlike License","license_url":"https://creativecommons.org/licenses/by-sa/2.0/","original_url":"https://perenual.com/storage/species_image/1799_chamaecyparis_obtusa_kosteri/og/15272286528_d1506b07ba_b.jpg","regular_url":"https://perenual.com/storage/species_image/1799_chamaecyparis_obtusa_kosteri/regular/15272286528_d1506b07ba_b.jpg","medium_url":"https://perenual.com/storage/species_image/1799_chamaecyparis_obtusa_kosteri/medium/15272286528_d1506b07ba_b.jpg","small_url":"https://perenual.com/storage/species_image/1799_chamaecyparis_obtusa_kosteri/small/15272286528_d1506b07ba_b.jpg","thumbnail":"https://perenual.com/storage/species_image/1799_chamaecyparis_obtusa_kosteri/thumbnail/15272286528_d1506b07ba_b.jpg"}},{"id":1800,"common_name":"hinoki cypress","scientific_name":["Chamaecyparis obtusa 'Nana'"],"other_name":null,"cycle":"Perennial","watering":"Average","sunlight":["Full sun","part shade"],"default_image":{"image_id":4323,"license":5,"license_name":"Attribution-ShareAlike License","license_url":"https://creativecommons.org/licenses/by-sa/2.0/","original_url":"https://perenual.com/storage/species_image/1800_chamaecyparis_obtusa_nana/og/46707478654_59f1a61e38_b.jpg","regular_url":"https://perenual.com/storage/species_image/1800_chamaecyparis_obtusa_nana/regular/46707478654_59f1a61e38_b.jpg","medium_url":"https://perenual.com/storage/species_image/1800_chamaecyparis_obtusa_nana/medium/46707478654_59f1a61e38_b.jpg","small_url":"https://perenual.com/storage/species_image/1800_chamaecyparis_obtusa_nana/small/46707478654_59f1a61e38_b.jpg","thumbnail":"https://perenual.com/storage/species_image/1800_chamaecyparis_obtusa_nana/thumbnail/46707478654_59f1a61e38_b.jpg"}}],"to":1800,"per_page":30,"current_page":60,"from":1771,"last_page":200,"total":6000}