{"data":[{"id":1231,"common_name":"Oregon grape-holly","scientific_name":["Berberis aquifolium 'Apollo'"],"other_name":null,"cycle":"Perennial","watering":"Average","sunlight":["Part shade","full shade"],"default_image":{"image_id":9,"license":5,"license_name":"Attribution-ShareAlike License","license_url":"https://creativecommons.org/licenses/by-sa/2.0/","original_url":"https://perenual.com/storage/species_image/2_abies_alba_pyramidalis/og/49255769768_df55596553_b.jpg","regular_url":"https://perenual.com/storage/species_image/2_abies_alba_pyramidalis/regular/49255769768_df55596553_b.jpg","medium_url":"https://perenual.com/storage/species_image/2_abies_alba_pyramidalis/medium/49255769768_df55596553_b.jpg","small_url":"https://perenual.com/storage/species_image/2_abies_alba_pyramidalis/small/49255769768_df55596553_b.jpg","thumbnail":"https://perenual.com/storage/species_image/2_abies_alba_pyramidalis/thumbnail/49255769768_df55596553_b.jpg"}},{"id":1232,"common_name":"Oregon grape-holly","scientific_name":["Berberis aquifolium 'Compacta'"],"other_name":null,"cycle":"Perennial","watering":"Average","sunlight":["Part shade","full shade"],"default_image":{"image_id":2890,"license":5,"license_name":"Attribution-ShareAlike License","license_url":"https://creativecommons.org/licenses/by-sa/2.0/","original_url":"https://perenual.com/storage/species_image/1232_berberis_aquifolium_compacta/og/46446962585_ec2d49706a_b.jpg","regular_url":"https://perenual.com/storage/species_image/1232_berberis_aquifolium_compacta/regular/46446962585_ec2d49706a_b.jpg","medium_url":"https://perenual.com/storage/species_image/1232_berberis_aquifolium_compacta/medium/46446962585_ec2d49706a_b.jpg","small_url":"https://perenual.com/storage/species_image/1232_berberis_aquifolium_compacta/small/46446962585_ec2d49706a_b.jpg","thumbnail":"https://perenual.com/storage/species_image/1232_berberis_aquifolium_compacta/thumbnail/46446962585_ec2d49706a_b.jpg"}},{"id":1233,"common_name":"Oregon grape-holly","scientific_name":["Berberis aquifolium 'Orange Flame'"],"other_name":null,"cycle":"Perennial","watering":"Average","sunlight":["Part shade","full shade"],"default_image":{"image_id":9,"license":5,"license_name":"Attribution-ShareAlike License","license_url":"https://creativecommons.org/licenses/by-sa/2.0/","original_url":"https://perenual.com/storage/species_image/2_abies_alba_pyramidalis/og/49255769768_df55596553_b.jpg","regular_url":"https://perenual.com/storage/species_image/2_abies_alba_pyramidalis/regular/49255769768_df55596553_b.jpg","medium_url":"https://perenual.com/storage/species_image/2_abies_alba_pyramidalis/medium/49255769768_df55596553_b.jpg","small_url":"https://perenual.com/storage/species_image/2_abies_alba_pyramidalis/small/49255769768_df55596553_b.jpg","thumbnail":"https://perenual.com/storage/species_image/2_abies_alba_pyramidalis/thumbnail/49255769768_df55596553_b.jpg"}},{"id":1234,"common_name":"barberry","scientific_name":["Berberis 'Cally Rose'"],"other_name":null,"cycle":"Perennial","watering":"Average","sunlight":["Full sun","part shade"],"default_image":{"image_id":2893,"license":4,"license_name":"Attribution License","license_url":"https://creativecommons.org/licenses/by/2.0/","original_url":"https://perenual.com/storage/species_image/1234_berberis_cally_rose/og/28742921498_35f288d6e2_b.jpg","regular_url":"https://perenual.com/storage/species_image/1234_berberis_cally_rose/regular/28742921498_35f288d6e2_b.jpg","medium_url":"https://perenual.com/storage/species_image/1234_berberis_cally_rose/medium/28742921498_35f288d6e2_b.jpg","small_url":"https://perenual.com/storage/species_image/1234_berberis_cally_rose/small/28742921498_35f288d6e2_b.jpg","thumbnail":"https://perenual.com/storage/species_image/1234_berberis_cally_rose/thumbnail/28742921498_35f288d6e2_b.jpg"}},{"id":1235,"common_name":"Jepson's Oregon-grape","scientific_name":["Berberis dictyota"],"other_name":null,"cycle":"Perennial","watering":"Minimum","sunlight":["Full sun","part shade"],"default_image":{"image_id":2895,"license":4,"license_name":"Attribution License","license_url":"https://creativecommons.org/licenses/by/2.0/","original_url":"https://perenual.com/storage/species_image/1235_berberis_dictyota/og/25798467545_4609c916be_b.jpg","regular_url":"https://perenual.com/storage/species_image/1235_berberis_dictyota/regular/25798467545_4609c916be_b.jpg","medium_url":"https://perenual.com/storage/species_image/1235_berberis_dictyota/medium/25798467545_4609c916be_b.jpg","small_url":"https://perenual.com/storage/species_image/1235_berberis_dictyota/small/25798467545_4609c916be_b.jpg","thumbnail":"https://perenual.com/storage/species_image/1235_berberis_dictyota/thumbnail/25798467545_4609c916be_b.jpg"}},{"id":1236,"common_name":"barberry","scientific_name":["Berberis mentorensis"],"other_name":null,"cycle":"Perennial","watering":"Minimum","sunlight":["Full sun","part shade"],"default_image":{"image_id":2899,"license":4,"license_name":"Attribution License","license_url":"https://creativecommons.org/licenses/by/2.0/","original_url":"https://perenual.com/storage/species_image/1236_berberis_mentorensis/og/52376978258_9f1dea2d55_b.jpg","regular_url":"https://perenual.com/storage/species_image/1236_berberis_mentorensis/regular/52376978258_9f1dea2d55_b.jpg","medium_url":"https://perenual.com/storage/species_image/1236_berberis_mentorensis/medium/52376978258_9f1dea2d55_b.jpg","small_url":"https://perenual.com/storage/species_image/1236_berberis_mentorensis/small/52376978258_9f1dea2d55_b.jpg","thumbnail":"https://perenual.com/storage/species_image/1236_berberis_mentorensis/thumbnail/52376978258_9f1dea2d55_b.jpg"}},{"id":1237,"common_name":"barberry","scientific_name":["Berberis replicata"],"other_name":null,"cycle":"Perennial","watering":"Minimum","sunlight":["Full sun","part shade"],"default_image":{"image_id":9,"license":5,"license_name":"Attribution-ShareAlike License","license_url":"https://creativecommons.org/licenses/by-sa/2.0/","original_url":"https://perenual.com/storage/species_image/2_abies_alba_pyramidalis/og/49255769768_df55596553_b.jpg","regular_url":"https://perenual.com/storage/species_image/2_abies_alba_pyramidalis/regular/49255769768_df55596553_b.jpg","medium_url":"https://perenual.com/storage/species_image/2_abies_alba_pyramidalis/medium/49255769768_df55596553_b.jpg","small_url":"https://perenual.com/storage/species_image/2_abies_alba_pyramidalis/small/49255769768_df55596553_b.jpg","thumbnail":"https://perenual.com/storage/species_image/2_abies_alba_pyramidalis/thumbnail/49255769768_df55596553_b.jpg"}},{"id":1238,"common_name":"barberry","scientific_name":["Berberis 'Soft Caress'"],"other_name":null,"cycle":"Perennial","watering":"Minimum","sunlight":["Part shade"],"default_image":{"image_id":21809,"license":45,"license_name":"Attribution-ShareAlike 3.0 Unported (CC BY-SA 3.0)","license_url":"https://creativecommons.org/licenses/by-sa/3.0/deed.en","original_url":"https://perenual.com/storage/species_image/1238_berberis_soft_caress/og/Berberis_nevinii_2.jpg","regular_url":"https://perenual.com/storage/species_image/1238_berberis_soft_caress/regular/Berberis_nevinii_2.jpg","medium_url":"https://perenual.com/storage/species_image/1238_berberis_soft_caress/medium/Berberis_nevinii_2.jpg","small_url":"https://perenual.com/storage/species_image/1238_berberis_soft_caress/small/Berberis_nevinii_2.jpg","thumbnail":"https://perenual.com/storage/species_image/1238_berberis_soft_caress/thumbnail/Berberis_nevinii_2.jpg"}},{"id":1239,"common_name":"barberry","scientific_name":["Berberis stenophylla 'Corallina Compacta'"],"other_name":null,"cycle":"Perennial","watering":"Minimum","sunlight":["Full sun"],"default_image":{"image_id":2902,"license":5,"license_name":"Attribution-ShareAlike License","license_url":"https://creativecommons.org/licenses/by-sa/2.0/","original_url":"https://perenual.com/storage/species_image/1239_berberis_stenophylla_corallina_compacta/og/16739632743_4c4107798c_b.jpg","regular_url":"https://perenual.com/storage/species_image/1239_berberis_stenophylla_corallina_compacta/regular/16739632743_4c4107798c_b.jpg","medium_url":"https://perenual.com/storage/species_image/1239_berberis_stenophylla_corallina_compacta/medium/16739632743_4c4107798c_b.jpg","small_url":"https://perenual.com/storage/species_image/1239_berberis_stenophylla_corallina_compacta/small/16739632743_4c4107798c_b.jpg","thumbnail":"https://perenual.com/storage/species_image/1239_berberis_stenophylla_corallina_compacta/thumbnail/16739632743_4c4107798c_b.jpg"}},{"id":1240,"common_name":"Japanese barberry","scientific_name":["Berberis 'Tara' EMERALD CAROUSEL"],"other_name":null,"cycle":"Perennial","watering":"Minimum","sunlight":["Full sun"],"default_image":{"image_id":2905,"license":5,"license_name":"Attribution-ShareAlike License","license_url":"https://creativecommons.org/licenses/by-sa/2.0/","original_url":"https://perenual.com/storage/species_image/1240_berberis_tara_emerald_carousel/og/17782339794_aa88a436e4_b.jpg","regular_url":"https://perenual.com/storage/species_image/1240_berberis_tara_emerald_carousel/regular/17782339794_aa88a436e4_b.jpg","medium_url":"https://perenual.com/storage/species_image/1240_berberis_tara_emerald_carousel/medium/17782339794_aa88a436e4_b.jpg","small_url":"https://perenual.com/storage/species_image/1240_berberis_tara_emerald_carousel/small/17782339794_aa88a436e4_b.jpg","thumbnail":"https://perenual.com/storage/species_image/1240_berberis_tara_emerald_carousel/thumbnail/17782339794_aa88a436e4_b.jpg"}},{"id":1241,"common_name":"Japanese barberry","scientific_name":["Berberis thunbergii"],"other_name":null,"cycle":"Perennial","watering":"Minimum","sunlight":["Full sun"],"default_image":{"image_id":2907,"license":5,"license_name":"Attribution-ShareAlike License","license_url":"https://creativecommons.org/licenses/by-sa/2.0/","original_url":"https://perenual.com/storage/species_image/1241_berberis_thunbergii/og/51145246054_eee61a68e7_b.jpg","regular_url":"https://perenual.com/storage/species_image/1241_berberis_thunbergii/regular/51145246054_eee61a68e7_b.jpg","medium_url":"https://perenual.com/storage/species_image/1241_berberis_thunbergii/medium/51145246054_eee61a68e7_b.jpg","small_url":"https://perenual.com/storage/species_image/1241_berberis_thunbergii/small/51145246054_eee61a68e7_b.jpg","thumbnail":"https://perenual.com/storage/species_image/1241_berberis_thunbergii/thumbnail/51145246054_eee61a68e7_b.jpg"}},{"id":1242,"common_name":"Japanese barberry","scientific_name":["Berberis thunbergii 'Aurea'"],"other_name":null,"cycle":"Perennial","watering":"Minimum","sunlight":["Full sun"],"default_image":{"image_id":2908,"license":5,"license_name":"Attribution-ShareAlike License","license_url":"https://creativecommons.org/licenses/by-sa/2.0/","original_url":"https://perenual.com/storage/species_image/1242_berberis_thunbergii_aurea/og/4532852304_81263a1268_b.jpg","regular_url":"https://perenual.com/storage/species_image/1242_berberis_thunbergii_aurea/regular/4532852304_81263a1268_b.jpg","medium_url":"https://perenual.com/storage/species_image/1242_berberis_thunbergii_aurea/medium/4532852304_81263a1268_b.jpg","small_url":"https://perenual.com/storage/species_image/1242_berberis_thunbergii_aurea/small/4532852304_81263a1268_b.jpg","thumbnail":"https://perenual.com/storage/species_image/1242_berberis_thunbergii_aurea/thumbnail/4532852304_81263a1268_b.jpg"}},{"id":1243,"common_name":"Japanese barberry","scientific_name":["Berberis thunbergii f. atropurpurea"],"other_name":null,"cycle":"Perennial","watering":"Minimum","sunlight":["Full sun"],"default_image":{"image_id":2909,"license":5,"license_name":"Attribution-ShareAlike License","license_url":"https://creativecommons.org/licenses/by-sa/2.0/","original_url":"https://perenual.com/storage/species_image/1243_berberis_thunbergii_f_atropurpurea/og/48473179446_4d4dcfc6f2_b.jpg","regular_url":"https://perenual.com/storage/species_image/1243_berberis_thunbergii_f_atropurpurea/regular/48473179446_4d4dcfc6f2_b.jpg","medium_url":"https://perenual.com/storage/species_image/1243_berberis_thunbergii_f_atropurpurea/medium/48473179446_4d4dcfc6f2_b.jpg","small_url":"https://perenual.com/storage/species_image/1243_berberis_thunbergii_f_atropurpurea/small/48473179446_4d4dcfc6f2_b.jpg","thumbnail":"https://perenual.com/storage/species_image/1243_berberis_thunbergii_f_atropurpurea/thumbnail/48473179446_4d4dcfc6f2_b.jpg"}},{"id":1244,"common_name":"Japanese barberry","scientific_name":["Berberis thunbergii f. atropurpurea 'Atropurpurea Nana'"],"other_name":null,"cycle":"Perennial","watering":"Minimum","sunlight":["Full sun"],"default_image":{"image_id":9,"license":5,"license_name":"Attribution-ShareAlike License","license_url":"https://creativecommons.org/licenses/by-sa/2.0/","original_url":"https://perenual.com/storage/species_image/2_abies_alba_pyramidalis/og/49255769768_df55596553_b.jpg","regular_url":"https://perenual.com/storage/species_image/2_abies_alba_pyramidalis/regular/49255769768_df55596553_b.jpg","medium_url":"https://perenual.com/storage/species_image/2_abies_alba_pyramidalis/medium/49255769768_df55596553_b.jpg","small_url":"https://perenual.com/storage/species_image/2_abies_alba_pyramidalis/small/49255769768_df55596553_b.jpg","thumbnail":"https://perenual.com/storage/species_image/2_abies_alba_pyramidalis/thumbnail/49255769768_df55596553_b.jpg"}},{"id":1245,"common_name":"Japanese barberry","scientific_name":["Berberis thunbergii f. atropurpurea 'Bagatelle'"],"other_name":null,"cycle":"Perennial","watering":"Minimum","sunlight":["Full sun"],"default_image":{"image_id":2907,"license":5,"license_name":"Attribution-ShareAlike License","license_url":"https://creativecommons.org/licenses/by-sa/2.0/","original_url":"https://perenual.com/storage/species_image/1241_berberis_thunbergii/og/51145246054_eee61a68e7_b.jpg","regular_url":"https://perenual.com/storage/species_image/1241_berberis_thunbergii/regular/51145246054_eee61a68e7_b.jpg","medium_url":"https://perenual.com/storage/species_image/1241_berberis_thunbergii/medium/51145246054_eee61a68e7_b.jpg","small_url":"https://perenual.com/storage/species_image/1241_berberis_thunbergii/small/51145246054_eee61a68e7_b.jpg","thumbnail":"https://perenual.com/storage/species_image/1241_berberis_thunbergii/thumbnail/51145246054_eee61a68e7_b.jpg"}},{"id":1246,"common_name":"Japanese barberry","scientific_name":["Berberis thunbergii f. atropurpurea 'Gentry' ROYAL BURGUNDY"],"other_name":null,"cycle":"Perennial","watering":"Minimum","sunlight":["Full sun"],"default_image":{"image_id":9,"license":5,"license_name":"Attribution-ShareAlike License","license_url":"https://creativecommons.org/licenses/by-sa/2.0/","original_url":"https://perenual.com/storage/species_image/2_abies_alba_pyramidalis/og/49255769768_df55596553_b.jpg","regular_url":"https://perenual.com/storage/species_image/2_abies_alba_pyramidalis/regular/49255769768_df55596553_b.jpg","medium_url":"https://perenual.com/storage/species_image/2_abies_alba_pyramidalis/medium/49255769768_df55596553_b.jpg","small_url":"https://perenual.com/storage/species_image/2_abies_alba_pyramidalis/small/49255769768_df55596553_b.jpg","thumbnail":"https://perenual.com/storage/species_image/2_abies_alba_pyramidalis/thumbnail/49255769768_df55596553_b.jpg"}},{"id":1247,"common_name":"Japanese barberry","scientific_name":["Berberis thunbergii f. atropurpurea 'Golden Ring'"],"other_name":null,"cycle":"Perennial","watering":"Minimum","sunlight":["Full sun"],"default_image":{"image_id":9,"license":5,"license_name":"Attribution-ShareAlike License","license_url":"https://creativecommons.org/licenses/by-sa/2.0/","original_url":"https://perenual.com/storage/species_image/2_abies_alba_pyramidalis/og/49255769768_df55596553_b.jpg","regular_url":"https://perenual.com/storage/species_image/2_abies_alba_pyramidalis/regular/49255769768_df55596553_b.jpg","medium_url":"https://perenual.com/storage/species_image/2_abies_alba_pyramidalis/medium/49255769768_df55596553_b.jpg","small_url":"https://perenual.com/storage/species_image/2_abies_alba_pyramidalis/small/49255769768_df55596553_b.jpg","thumbnail":"https://perenual.com/storage/species_image/2_abies_alba_pyramidalis/thumbnail/49255769768_df55596553_b.jpg"}},{"id":1248,"common_name":"Japanese barberry","scientific_name":["Berberis thunbergii f. atropurpurea 'Harlequin'"],"other_name":null,"cycle":"Perennial","watering":"Minimum","sunlight":["Full sun"],"default_image":{"image_id":2915,"license":5,"license_name":"Attribution-ShareAlike License","license_url":"https://creativecommons.org/licenses/by-sa/2.0/","original_url":"https://perenual.com/storage/species_image/1249_berberis_thunbergii_f_atropurpurea_helmond_pillar/og/51123282264_d35c257ccd_b.jpg","regular_url":"https://perenual.com/storage/species_image/1249_berberis_thunbergii_f_atropurpurea_helmond_pillar/regular/51123282264_d35c257ccd_b.jpg","medium_url":"https://perenual.com/storage/species_image/1249_berberis_thunbergii_f_atropurpurea_helmond_pillar/medium/51123282264_d35c257ccd_b.jpg","small_url":"https://perenual.com/storage/species_image/1249_berberis_thunbergii_f_atropurpurea_helmond_pillar/small/51123282264_d35c257ccd_b.jpg","thumbnail":"https://perenual.com/storage/species_image/1249_berberis_thunbergii_f_atropurpurea_helmond_pillar/thumbnail/51123282264_d35c257ccd_b.jpg"}},{"id":1249,"common_name":"Japanese barberry","scientific_name":["Berberis thunbergii f. atropurpurea 'Helmond Pillar'"],"other_name":null,"cycle":"Perennial","watering":"Minimum","sunlight":["Full sun"],"default_image":{"image_id":2913,"license":5,"license_name":"Attribution-ShareAlike License","license_url":"https://creativecommons.org/licenses/by-sa/2.0/","original_url":"https://perenual.com/storage/species_image/1249_berberis_thunbergii_f_atropurpurea_helmond_pillar/og/51143791217_ac4868d281_b.jpg","regular_url":"https://perenual.com/storage/species_image/1249_berberis_thunbergii_f_atropurpurea_helmond_pillar/regular/51143791217_ac4868d281_b.jpg","medium_url":"https://perenual.com/storage/species_image/1249_berberis_thunbergii_f_atropurpurea_helmond_pillar/medium/51143791217_ac4868d281_b.jpg","small_url":"https://perenual.com/storage/species_image/1249_berberis_thunbergii_f_atropurpurea_helmond_pillar/small/51143791217_ac4868d281_b.jpg","thumbnail":"https://perenual.com/storage/species_image/1249_berberis_thunbergii_f_atropurpurea_helmond_pillar/thumbnail/51143791217_ac4868d281_b.jpg"}},{"id":1250,"common_name":"Japanese barberry","scientific_name":["Berberis thunbergii f. atropurpurea 'Rose Glow'"],"other_name":null,"cycle":"Perennial","watering":"Minimum","sunlight":["Full sun"],"default_image":{"image_id":2907,"license":5,"license_name":"Attribution-ShareAlike License","license_url":"https://creativecommons.org/licenses/by-sa/2.0/","original_url":"https://perenual.com/storage/species_image/1241_berberis_thunbergii/og/51145246054_eee61a68e7_b.jpg","regular_url":"https://perenual.com/storage/species_image/1241_berberis_thunbergii/regular/51145246054_eee61a68e7_b.jpg","medium_url":"https://perenual.com/storage/species_image/1241_berberis_thunbergii/medium/51145246054_eee61a68e7_b.jpg","small_url":"https://perenual.com/storage/species_image/1241_berberis_thunbergii/small/51145246054_eee61a68e7_b.jpg","thumbnail":"https://perenual.com/storage/species_image/1241_berberis_thunbergii/thumbnail/51145246054_eee61a68e7_b.jpg"}},{"id":1251,"common_name":"Japanese barberry","scientific_name":["Berberis thunbergii 'Kobold'"],"other_name":null,"cycle":"Perennial","watering":"Minimum","sunlight":["Full sun"],"default_image":{"image_id":2919,"license":5,"license_name":"Attribution-ShareAlike License","license_url":"https://creativecommons.org/licenses/by-sa/2.0/","original_url":"https://perenual.com/storage/species_image/1251_berberis_thunbergii_kobold/og/4558642364_26927094e2_b.jpg","regular_url":"https://perenual.com/storage/species_image/1251_berberis_thunbergii_kobold/regular/4558642364_26927094e2_b.jpg","medium_url":"https://perenual.com/storage/species_image/1251_berberis_thunbergii_kobold/medium/4558642364_26927094e2_b.jpg","small_url":"https://perenual.com/storage/species_image/1251_berberis_thunbergii_kobold/small/4558642364_26927094e2_b.jpg","thumbnail":"https://perenual.com/storage/species_image/1251_berberis_thunbergii_kobold/thumbnail/4558642364_26927094e2_b.jpg"}},{"id":1252,"common_name":"Japanese barberry","scientific_name":["Berberis thunbergii 'Maria' SUNJOY GOLD PILLAR"],"other_name":null,"cycle":"Perennial","watering":"Minimum","sunlight":["Full sun"],"default_image":{"image_id":2921,"license":5,"license_name":"Attribution-ShareAlike License","license_url":"https://creativecommons.org/licenses/by-sa/2.0/","original_url":"https://perenual.com/storage/species_image/1255_berberis_thunbergii_talago_sunjoy_gold_beret/og/51181262633_a762a91f38_b.jpg","regular_url":"https://perenual.com/storage/species_image/1255_berberis_thunbergii_talago_sunjoy_gold_beret/regular/51181262633_a762a91f38_b.jpg","medium_url":"https://perenual.com/storage/species_image/1255_berberis_thunbergii_talago_sunjoy_gold_beret/medium/51181262633_a762a91f38_b.jpg","small_url":"https://perenual.com/storage/species_image/1255_berberis_thunbergii_talago_sunjoy_gold_beret/small/51181262633_a762a91f38_b.jpg","thumbnail":"https://perenual.com/storage/species_image/1255_berberis_thunbergii_talago_sunjoy_gold_beret/thumbnail/51181262633_a762a91f38_b.jpg"}},{"id":1253,"common_name":"Japanese barberry","scientific_name":["Berberis thunbergii 'Pygruzam' PYGMY RUBY"],"other_name":null,"cycle":"Perennial","watering":"Minimum","sunlight":["Full sun"],"default_image":{"image_id":2922,"license":5,"license_name":"Attribution-ShareAlike License","license_url":"https://creativecommons.org/licenses/by-sa/2.0/","original_url":"https://perenual.com/storage/species_image/1253_berberis_thunbergii_pygruzam_pygmy_ruby/og/27872348317_88bee1b31e_b.jpg","regular_url":"https://perenual.com/storage/species_image/1253_berberis_thunbergii_pygruzam_pygmy_ruby/regular/27872348317_88bee1b31e_b.jpg","medium_url":"https://perenual.com/storage/species_image/1253_berberis_thunbergii_pygruzam_pygmy_ruby/medium/27872348317_88bee1b31e_b.jpg","small_url":"https://perenual.com/storage/species_image/1253_berberis_thunbergii_pygruzam_pygmy_ruby/small/27872348317_88bee1b31e_b.jpg","thumbnail":"https://perenual.com/storage/species_image/1253_berberis_thunbergii_pygruzam_pygmy_ruby/thumbnail/27872348317_88bee1b31e_b.jpg"}},{"id":1254,"common_name":"Japanese barberry","scientific_name":["Berberis thunbergii 'Royal Cloak'"],"other_name":null,"cycle":"Perennial","watering":"Minimum","sunlight":["Full sun"],"default_image":{"image_id":2923,"license":5,"license_name":"Attribution-ShareAlike License","license_url":"https://creativecommons.org/licenses/by-sa/2.0/","original_url":"https://perenual.com/storage/species_image/1254_berberis_thunbergii_royal_cloak/og/50572787943_0c749d8fc1_b.jpg","regular_url":"https://perenual.com/storage/species_image/1254_berberis_thunbergii_royal_cloak/regular/50572787943_0c749d8fc1_b.jpg","medium_url":"https://perenual.com/storage/species_image/1254_berberis_thunbergii_royal_cloak/medium/50572787943_0c749d8fc1_b.jpg","small_url":"https://perenual.com/storage/species_image/1254_berberis_thunbergii_royal_cloak/small/50572787943_0c749d8fc1_b.jpg","thumbnail":"https://perenual.com/storage/species_image/1254_berberis_thunbergii_royal_cloak/thumbnail/50572787943_0c749d8fc1_b.jpg"}},{"id":1255,"common_name":"Japanese barberry","scientific_name":["Berberis thunbergii 'Talago' SUNJOY GOLD BERET"],"other_name":null,"cycle":"Perennial","watering":"Minimum","sunlight":["Full sun"],"default_image":{"image_id":2921,"license":5,"license_name":"Attribution-ShareAlike License","license_url":"https://creativecommons.org/licenses/by-sa/2.0/","original_url":"https://perenual.com/storage/species_image/1255_berberis_thunbergii_talago_sunjoy_gold_beret/og/51181262633_a762a91f38_b.jpg","regular_url":"https://perenual.com/storage/species_image/1255_berberis_thunbergii_talago_sunjoy_gold_beret/regular/51181262633_a762a91f38_b.jpg","medium_url":"https://perenual.com/storage/species_image/1255_berberis_thunbergii_talago_sunjoy_gold_beret/medium/51181262633_a762a91f38_b.jpg","small_url":"https://perenual.com/storage/species_image/1255_berberis_thunbergii_talago_sunjoy_gold_beret/small/51181262633_a762a91f38_b.jpg","thumbnail":"https://perenual.com/storage/species_image/1255_berberis_thunbergii_talago_sunjoy_gold_beret/thumbnail/51181262633_a762a91f38_b.jpg"}},{"id":1256,"common_name":"supple-Jack","scientific_name":["Berchemia scandens"],"other_name":null,"cycle":"Perennial","watering":"Average","sunlight":["Full sun","part shade"],"default_image":{"image_id":9,"license":5,"license_name":"Attribution-ShareAlike License","license_url":"https://creativecommons.org/licenses/by-sa/2.0/","original_url":"https://perenual.com/storage/species_image/2_abies_alba_pyramidalis/og/49255769768_df55596553_b.jpg","regular_url":"https://perenual.com/storage/species_image/2_abies_alba_pyramidalis/regular/49255769768_df55596553_b.jpg","medium_url":"https://perenual.com/storage/species_image/2_abies_alba_pyramidalis/medium/49255769768_df55596553_b.jpg","small_url":"https://perenual.com/storage/species_image/2_abies_alba_pyramidalis/small/49255769768_df55596553_b.jpg","thumbnail":"https://perenual.com/storage/species_image/2_abies_alba_pyramidalis/thumbnail/49255769768_df55596553_b.jpg"}},{"id":1257,"common_name":"bergenia","scientific_name":["Bergenia 'Abendglocken'"],"other_name":null,"cycle":"Perennial","watering":"Average","sunlight":["Part shade","full shade"],"default_image":{"image_id":2925,"license":4,"license_name":"Attribution License","license_url":"https://creativecommons.org/licenses/by/2.0/","original_url":"https://perenual.com/storage/species_image/1264_bergenia_dragonfly_sakura/og/52067502227_fbb372d737_b.jpg","regular_url":"https://perenual.com/storage/species_image/1264_bergenia_dragonfly_sakura/regular/52067502227_fbb372d737_b.jpg","medium_url":"https://perenual.com/storage/species_image/1264_bergenia_dragonfly_sakura/medium/52067502227_fbb372d737_b.jpg","small_url":"https://perenual.com/storage/species_image/1264_bergenia_dragonfly_sakura/small/52067502227_fbb372d737_b.jpg","thumbnail":"https://perenual.com/storage/species_image/1264_bergenia_dragonfly_sakura/thumbnail/52067502227_fbb372d737_b.jpg"}},{"id":1258,"common_name":"winter begonia","scientific_name":["Bergenia ciliata"],"other_name":null,"cycle":"Perennial","watering":"Average","sunlight":["Part shade","full shade"],"default_image":{"image_id":2931,"license":4,"license_name":"Attribution License","license_url":"https://creativecommons.org/licenses/by/2.0/","original_url":"https://perenual.com/storage/species_image/1258_bergenia_ciliata/og/13527657053_626a3bbf93_b.jpg","regular_url":"https://perenual.com/storage/species_image/1258_bergenia_ciliata/regular/13527657053_626a3bbf93_b.jpg","medium_url":"https://perenual.com/storage/species_image/1258_bergenia_ciliata/medium/13527657053_626a3bbf93_b.jpg","small_url":"https://perenual.com/storage/species_image/1258_bergenia_ciliata/small/13527657053_626a3bbf93_b.jpg","thumbnail":"https://perenual.com/storage/species_image/1258_bergenia_ciliata/thumbnail/13527657053_626a3bbf93_b.jpg"}},{"id":1259,"common_name":"pigsqueak","scientific_name":["Bergenia cordifolia"],"other_name":null,"cycle":"Perennial","watering":"Average","sunlight":["Part shade","full shade"],"default_image":{"image_id":2934,"license":4,"license_name":"Attribution License","license_url":"https://creativecommons.org/licenses/by/2.0/","original_url":"https://perenual.com/storage/species_image/1259_bergenia_cordifolia/og/15401481825_f296996885_b.jpg","regular_url":"https://perenual.com/storage/species_image/1259_bergenia_cordifolia/regular/15401481825_f296996885_b.jpg","medium_url":"https://perenual.com/storage/species_image/1259_bergenia_cordifolia/medium/15401481825_f296996885_b.jpg","small_url":"https://perenual.com/storage/species_image/1259_bergenia_cordifolia/small/15401481825_f296996885_b.jpg","thumbnail":"https://perenual.com/storage/species_image/1259_bergenia_cordifolia/thumbnail/15401481825_f296996885_b.jpg"}},{"id":1260,"common_name":"pigsqueak","scientific_name":["Bergenia cordifolia 'Miss Piggy'"],"other_name":null,"cycle":"Perennial","watering":"Average","sunlight":["Part shade","full shade"],"default_image":{"image_id":9,"license":5,"license_name":"Attribution-ShareAlike License","license_url":"https://creativecommons.org/licenses/by-sa/2.0/","original_url":"https://perenual.com/storage/species_image/2_abies_alba_pyramidalis/og/49255769768_df55596553_b.jpg","regular_url":"https://perenual.com/storage/species_image/2_abies_alba_pyramidalis/regular/49255769768_df55596553_b.jpg","medium_url":"https://perenual.com/storage/species_image/2_abies_alba_pyramidalis/medium/49255769768_df55596553_b.jpg","small_url":"https://perenual.com/storage/species_image/2_abies_alba_pyramidalis/small/49255769768_df55596553_b.jpg","thumbnail":"https://perenual.com/storage/species_image/2_abies_alba_pyramidalis/thumbnail/49255769768_df55596553_b.jpg"}}],"to":1260,"per_page":30,"current_page":42,"from":1231,"last_page":200,"total":6000}