{"data":[{"id":5251,"common_name":"wild bergamot","scientific_name":["Monarda 'Pink Supreme'"],"other_name":null,"cycle":"Perennial","watering":"Frequent","sunlight":["Full sun","part shade"],"default_image":{"image_id":9,"license":5,"license_name":"Attribution-ShareAlike License","license_url":"https://creativecommons.org/licenses/by-sa/2.0/","original_url":"https://perenual.com/storage/species_image/2_abies_alba_pyramidalis/og/49255769768_df55596553_b.jpg","regular_url":"https://perenual.com/storage/species_image/2_abies_alba_pyramidalis/regular/49255769768_df55596553_b.jpg","medium_url":"https://perenual.com/storage/species_image/2_abies_alba_pyramidalis/medium/49255769768_df55596553_b.jpg","small_url":"https://perenual.com/storage/species_image/2_abies_alba_pyramidalis/small/49255769768_df55596553_b.jpg","thumbnail":"https://perenual.com/storage/species_image/2_abies_alba_pyramidalis/thumbnail/49255769768_df55596553_b.jpg"}},{"id":5252,"common_name":"dotted beebalm","scientific_name":["Monarda punctata"],"other_name":null,"cycle":"Perennial","watering":"Minimum","sunlight":["Full sun","part shade"],"default_image":{"image_id":11108,"license":4,"license_name":"Attribution License","license_url":"https://creativecommons.org/licenses/by/2.0/","original_url":"https://perenual.com/storage/species_image/5252_monarda_punctata/og/51714271848_82c3325559_b.jpg","regular_url":"https://perenual.com/storage/species_image/5252_monarda_punctata/regular/51714271848_82c3325559_b.jpg","medium_url":"https://perenual.com/storage/species_image/5252_monarda_punctata/medium/51714271848_82c3325559_b.jpg","small_url":"https://perenual.com/storage/species_image/5252_monarda_punctata/small/51714271848_82c3325559_b.jpg","thumbnail":"https://perenual.com/storage/species_image/5252_monarda_punctata/thumbnail/51714271848_82c3325559_b.jpg"}},{"id":5253,"common_name":"dotted beebalm","scientific_name":["Monarda punctata 'BeeBop'"],"other_name":null,"cycle":"Perennial","watering":"Minimum","sunlight":["Full sun","part shade"],"default_image":{"image_id":9,"license":5,"license_name":"Attribution-ShareAlike License","license_url":"https://creativecommons.org/licenses/by-sa/2.0/","original_url":"https://perenual.com/storage/species_image/2_abies_alba_pyramidalis/og/49255769768_df55596553_b.jpg","regular_url":"https://perenual.com/storage/species_image/2_abies_alba_pyramidalis/regular/49255769768_df55596553_b.jpg","medium_url":"https://perenual.com/storage/species_image/2_abies_alba_pyramidalis/medium/49255769768_df55596553_b.jpg","small_url":"https://perenual.com/storage/species_image/2_abies_alba_pyramidalis/small/49255769768_df55596553_b.jpg","thumbnail":"https://perenual.com/storage/species_image/2_abies_alba_pyramidalis/thumbnail/49255769768_df55596553_b.jpg"}},{"id":5254,"common_name":"dotted beebalm","scientific_name":["Monarda punctata 'Fantasy'"],"other_name":null,"cycle":"Perennial","watering":"Minimum","sunlight":["Full sun","part shade"],"default_image":{"image_id":9,"license":5,"license_name":"Attribution-ShareAlike License","license_url":"https://creativecommons.org/licenses/by-sa/2.0/","original_url":"https://perenual.com/storage/species_image/2_abies_alba_pyramidalis/og/49255769768_df55596553_b.jpg","regular_url":"https://perenual.com/storage/species_image/2_abies_alba_pyramidalis/regular/49255769768_df55596553_b.jpg","medium_url":"https://perenual.com/storage/species_image/2_abies_alba_pyramidalis/medium/49255769768_df55596553_b.jpg","small_url":"https://perenual.com/storage/species_image/2_abies_alba_pyramidalis/small/49255769768_df55596553_b.jpg","thumbnail":"https://perenual.com/storage/species_image/2_abies_alba_pyramidalis/thumbnail/49255769768_df55596553_b.jpg"}},{"id":5255,"common_name":"bee balm","scientific_name":["Monarda 'Raspberry Wine'"],"other_name":null,"cycle":"Perennial","watering":"Frequent","sunlight":["Full sun","part shade"],"default_image":{"image_id":9,"license":5,"license_name":"Attribution-ShareAlike License","license_url":"https://creativecommons.org/licenses/by-sa/2.0/","original_url":"https://perenual.com/storage/species_image/2_abies_alba_pyramidalis/og/49255769768_df55596553_b.jpg","regular_url":"https://perenual.com/storage/species_image/2_abies_alba_pyramidalis/regular/49255769768_df55596553_b.jpg","medium_url":"https://perenual.com/storage/species_image/2_abies_alba_pyramidalis/medium/49255769768_df55596553_b.jpg","small_url":"https://perenual.com/storage/species_image/2_abies_alba_pyramidalis/small/49255769768_df55596553_b.jpg","thumbnail":"https://perenual.com/storage/species_image/2_abies_alba_pyramidalis/thumbnail/49255769768_df55596553_b.jpg"}},{"id":5256,"common_name":"scarlet monardella","scientific_name":["Monardella macrantha 'Marian Sampson'"],"other_name":null,"cycle":"Perennial","watering":"Minimum","sunlight":["Full sun","part shade"],"default_image":{"image_id":11112,"license":4,"license_name":"Attribution License","license_url":"https://creativecommons.org/licenses/by/2.0/","original_url":"https://perenual.com/storage/species_image/5256_monardella_macrantha_marian_sampson/og/29215724903_2bb84abfd6_b.jpg","regular_url":"https://perenual.com/storage/species_image/5256_monardella_macrantha_marian_sampson/regular/29215724903_2bb84abfd6_b.jpg","medium_url":"https://perenual.com/storage/species_image/5256_monardella_macrantha_marian_sampson/medium/29215724903_2bb84abfd6_b.jpg","small_url":"https://perenual.com/storage/species_image/5256_monardella_macrantha_marian_sampson/small/29215724903_2bb84abfd6_b.jpg","thumbnail":"https://perenual.com/storage/species_image/5256_monardella_macrantha_marian_sampson/thumbnail/29215724903_2bb84abfd6_b.jpg"}},{"id":5257,"common_name":"Swiss cheese plant","scientific_name":["Monstera deliciosa"],"other_name":null,"cycle":"Perennial","watering":"Average","sunlight":["Full sun only if soil kept moist"," Part sun/part shade"],"default_image":{"image_id":11116,"license":4,"license_name":"Attribution License","license_url":"https://creativecommons.org/licenses/by/2.0/","original_url":"https://perenual.com/storage/species_image/5257_monstera_deliciosa/og/4630938853_623dc33137_b.jpg","regular_url":"https://perenual.com/storage/species_image/5257_monstera_deliciosa/regular/4630938853_623dc33137_b.jpg","medium_url":"https://perenual.com/storage/species_image/5257_monstera_deliciosa/medium/4630938853_623dc33137_b.jpg","small_url":"https://perenual.com/storage/species_image/5257_monstera_deliciosa/small/4630938853_623dc33137_b.jpg","thumbnail":"https://perenual.com/storage/species_image/5257_monstera_deliciosa/thumbnail/4630938853_623dc33137_b.jpg"}},{"id":5258,"common_name":"variegated Swiss cheese plant","scientific_name":["Monstera deliciosa 'Variegata'"],"other_name":null,"cycle":"Perennial","watering":"Average","sunlight":["Full sun only if soil kept moist"," Part sun/part shade"],"default_image":{"image_id":11122,"license":4,"license_name":"Attribution License","license_url":"https://creativecommons.org/licenses/by/2.0/","original_url":"https://perenual.com/storage/species_image/5258_monstera_deliciosa_variegata/og/37675350645_e8fe163e21_b.jpg","regular_url":"https://perenual.com/storage/species_image/5258_monstera_deliciosa_variegata/regular/37675350645_e8fe163e21_b.jpg","medium_url":"https://perenual.com/storage/species_image/5258_monstera_deliciosa_variegata/medium/37675350645_e8fe163e21_b.jpg","small_url":"https://perenual.com/storage/species_image/5258_monstera_deliciosa_variegata/small/37675350645_e8fe163e21_b.jpg","thumbnail":"https://perenual.com/storage/species_image/5258_monstera_deliciosa_variegata/thumbnail/37675350645_e8fe163e21_b.jpg"}},{"id":5259,"common_name":"wax myrtle","scientific_name":["Morella cerifera"],"other_name":null,"cycle":"Perennial","watering":"Frequent","sunlight":["Full sun","part shade"],"default_image":{"image_id":11123,"license":4,"license_name":"Attribution License","license_url":"https://creativecommons.org/licenses/by/2.0/","original_url":"https://perenual.com/storage/species_image/5259_morella_cerifera/og/24679931050_5bdec17b9a_b.jpg","regular_url":"https://perenual.com/storage/species_image/5259_morella_cerifera/regular/24679931050_5bdec17b9a_b.jpg","medium_url":"https://perenual.com/storage/species_image/5259_morella_cerifera/medium/24679931050_5bdec17b9a_b.jpg","small_url":"https://perenual.com/storage/species_image/5259_morella_cerifera/small/24679931050_5bdec17b9a_b.jpg","thumbnail":"https://perenual.com/storage/species_image/5259_morella_cerifera/thumbnail/24679931050_5bdec17b9a_b.jpg"}},{"id":5260,"common_name":"wax myrtle","scientific_name":["Morella cerifera 'Luray'"],"other_name":null,"cycle":"Perennial","watering":"Frequent","sunlight":["Full sun","part shade"],"default_image":{"image_id":9,"license":5,"license_name":"Attribution-ShareAlike License","license_url":"https://creativecommons.org/licenses/by-sa/2.0/","original_url":"https://perenual.com/storage/species_image/2_abies_alba_pyramidalis/og/49255769768_df55596553_b.jpg","regular_url":"https://perenual.com/storage/species_image/2_abies_alba_pyramidalis/regular/49255769768_df55596553_b.jpg","medium_url":"https://perenual.com/storage/species_image/2_abies_alba_pyramidalis/medium/49255769768_df55596553_b.jpg","small_url":"https://perenual.com/storage/species_image/2_abies_alba_pyramidalis/small/49255769768_df55596553_b.jpg","thumbnail":"https://perenual.com/storage/species_image/2_abies_alba_pyramidalis/thumbnail/49255769768_df55596553_b.jpg"}},{"id":5261,"common_name":"Indian mulberry","scientific_name":["Morinda citrifolia"],"other_name":null,"cycle":"Perennial","watering":"Average","sunlight":["Full sun","part shade"],"default_image":{"image_id":11125,"license":5,"license_name":"Attribution-ShareAlike License","license_url":"https://creativecommons.org/licenses/by-sa/2.0/","original_url":"https://perenual.com/storage/species_image/5261_morinda_citrifolia/og/40089086653_04074099f2_b.jpg","regular_url":"https://perenual.com/storage/species_image/5261_morinda_citrifolia/regular/40089086653_04074099f2_b.jpg","medium_url":"https://perenual.com/storage/species_image/5261_morinda_citrifolia/medium/40089086653_04074099f2_b.jpg","small_url":"https://perenual.com/storage/species_image/5261_morinda_citrifolia/small/40089086653_04074099f2_b.jpg","thumbnail":"https://perenual.com/storage/species_image/5261_morinda_citrifolia/thumbnail/40089086653_04074099f2_b.jpg"}},{"id":5262,"common_name":"white mulberry","scientific_name":["Morus alba"],"other_name":null,"cycle":"Perennial","watering":"Average","sunlight":["Full sun","part shade"],"default_image":{"image_id":9,"license":5,"license_name":"Attribution-ShareAlike License","license_url":"https://creativecommons.org/licenses/by-sa/2.0/","original_url":"https://perenual.com/storage/species_image/2_abies_alba_pyramidalis/og/49255769768_df55596553_b.jpg","regular_url":"https://perenual.com/storage/species_image/2_abies_alba_pyramidalis/regular/49255769768_df55596553_b.jpg","medium_url":"https://perenual.com/storage/species_image/2_abies_alba_pyramidalis/medium/49255769768_df55596553_b.jpg","small_url":"https://perenual.com/storage/species_image/2_abies_alba_pyramidalis/small/49255769768_df55596553_b.jpg","thumbnail":"https://perenual.com/storage/species_image/2_abies_alba_pyramidalis/thumbnail/49255769768_df55596553_b.jpg"}},{"id":5263,"common_name":"white mulberry","scientific_name":["Morus alba 'Chaparral'"],"other_name":null,"cycle":"Perennial","watering":"Average","sunlight":["Full sun","part shade"],"default_image":{"image_id":9,"license":5,"license_name":"Attribution-ShareAlike License","license_url":"https://creativecommons.org/licenses/by-sa/2.0/","original_url":"https://perenual.com/storage/species_image/2_abies_alba_pyramidalis/og/49255769768_df55596553_b.jpg","regular_url":"https://perenual.com/storage/species_image/2_abies_alba_pyramidalis/regular/49255769768_df55596553_b.jpg","medium_url":"https://perenual.com/storage/species_image/2_abies_alba_pyramidalis/medium/49255769768_df55596553_b.jpg","small_url":"https://perenual.com/storage/species_image/2_abies_alba_pyramidalis/small/49255769768_df55596553_b.jpg","thumbnail":"https://perenual.com/storage/species_image/2_abies_alba_pyramidalis/thumbnail/49255769768_df55596553_b.jpg"}},{"id":5264,"common_name":"white mulberry","scientific_name":["Morus alba 'Itoguwa' NUCLEAR BLAST"],"other_name":null,"cycle":"Perennial","watering":"Average","sunlight":["Full sun","part shade"],"default_image":{"image_id":9,"license":5,"license_name":"Attribution-ShareAlike License","license_url":"https://creativecommons.org/licenses/by-sa/2.0/","original_url":"https://perenual.com/storage/species_image/2_abies_alba_pyramidalis/og/49255769768_df55596553_b.jpg","regular_url":"https://perenual.com/storage/species_image/2_abies_alba_pyramidalis/regular/49255769768_df55596553_b.jpg","medium_url":"https://perenual.com/storage/species_image/2_abies_alba_pyramidalis/medium/49255769768_df55596553_b.jpg","small_url":"https://perenual.com/storage/species_image/2_abies_alba_pyramidalis/small/49255769768_df55596553_b.jpg","thumbnail":"https://perenual.com/storage/species_image/2_abies_alba_pyramidalis/thumbnail/49255769768_df55596553_b.jpg"}},{"id":5265,"common_name":"white mulberry","scientific_name":["Morus alba 'Pendula'"],"other_name":null,"cycle":"Perennial","watering":"Average","sunlight":["Full sun","part shade"],"default_image":{"image_id":9,"license":5,"license_name":"Attribution-ShareAlike License","license_url":"https://creativecommons.org/licenses/by-sa/2.0/","original_url":"https://perenual.com/storage/species_image/2_abies_alba_pyramidalis/og/49255769768_df55596553_b.jpg","regular_url":"https://perenual.com/storage/species_image/2_abies_alba_pyramidalis/regular/49255769768_df55596553_b.jpg","medium_url":"https://perenual.com/storage/species_image/2_abies_alba_pyramidalis/medium/49255769768_df55596553_b.jpg","small_url":"https://perenual.com/storage/species_image/2_abies_alba_pyramidalis/small/49255769768_df55596553_b.jpg","thumbnail":"https://perenual.com/storage/species_image/2_abies_alba_pyramidalis/thumbnail/49255769768_df55596553_b.jpg"}},{"id":5266,"common_name":"white mulberry","scientific_name":["Morus alba 'Unryu'"],"other_name":null,"cycle":"Perennial","watering":"Average","sunlight":["Full sun","part shade"],"default_image":{"image_id":9,"license":5,"license_name":"Attribution-ShareAlike License","license_url":"https://creativecommons.org/licenses/by-sa/2.0/","original_url":"https://perenual.com/storage/species_image/2_abies_alba_pyramidalis/og/49255769768_df55596553_b.jpg","regular_url":"https://perenual.com/storage/species_image/2_abies_alba_pyramidalis/regular/49255769768_df55596553_b.jpg","medium_url":"https://perenual.com/storage/species_image/2_abies_alba_pyramidalis/medium/49255769768_df55596553_b.jpg","small_url":"https://perenual.com/storage/species_image/2_abies_alba_pyramidalis/small/49255769768_df55596553_b.jpg","thumbnail":"https://perenual.com/storage/species_image/2_abies_alba_pyramidalis/thumbnail/49255769768_df55596553_b.jpg"}},{"id":5267,"common_name":"red mulberry","scientific_name":["Morus rubra"],"other_name":null,"cycle":"Perennial","watering":"Average","sunlight":["Full sun","part shade"],"default_image":{"image_id":11132,"license":4,"license_name":"Attribution License","license_url":"https://creativecommons.org/licenses/by/2.0/","original_url":"https://perenual.com/storage/species_image/5267_morus_rubra/og/51180271836_c0f3d163d7_b.jpg","regular_url":"https://perenual.com/storage/species_image/5267_morus_rubra/regular/51180271836_c0f3d163d7_b.jpg","medium_url":"https://perenual.com/storage/species_image/5267_morus_rubra/medium/51180271836_c0f3d163d7_b.jpg","small_url":"https://perenual.com/storage/species_image/5267_morus_rubra/small/51180271836_c0f3d163d7_b.jpg","thumbnail":"https://perenual.com/storage/species_image/5267_morus_rubra/thumbnail/51180271836_c0f3d163d7_b.jpg"}},{"id":5268,"common_name":"red mulberry","scientific_name":["Morus rubra 'Super Dwarf'"],"other_name":null,"cycle":"Perennial","watering":"Average","sunlight":["Full sun","part shade"],"default_image":{"image_id":11136,"license":4,"license_name":"Attribution License","license_url":"https://creativecommons.org/licenses/by/2.0/","original_url":"https://perenual.com/storage/species_image/5268_morus_rubra_super_dwarf/og/52041854331_fe10f0e4e4_b.jpg","regular_url":"https://perenual.com/storage/species_image/5268_morus_rubra_super_dwarf/regular/52041854331_fe10f0e4e4_b.jpg","medium_url":"https://perenual.com/storage/species_image/5268_morus_rubra_super_dwarf/medium/52041854331_fe10f0e4e4_b.jpg","small_url":"https://perenual.com/storage/species_image/5268_morus_rubra_super_dwarf/small/52041854331_fe10f0e4e4_b.jpg","thumbnail":"https://perenual.com/storage/species_image/5268_morus_rubra_super_dwarf/thumbnail/52041854331_fe10f0e4e4_b.jpg"}},{"id":5269,"common_name":"centipede plant","scientific_name":["Muehlenbeckia platyclada"],"other_name":null,"cycle":"Perennial","watering":"Average","sunlight":["Full sun","part shade"],"default_image":{"image_id":9,"license":5,"license_name":"Attribution-ShareAlike License","license_url":"https://creativecommons.org/licenses/by-sa/2.0/","original_url":"https://perenual.com/storage/species_image/2_abies_alba_pyramidalis/og/49255769768_df55596553_b.jpg","regular_url":"https://perenual.com/storage/species_image/2_abies_alba_pyramidalis/regular/49255769768_df55596553_b.jpg","medium_url":"https://perenual.com/storage/species_image/2_abies_alba_pyramidalis/medium/49255769768_df55596553_b.jpg","small_url":"https://perenual.com/storage/species_image/2_abies_alba_pyramidalis/small/49255769768_df55596553_b.jpg","thumbnail":"https://perenual.com/storage/species_image/2_abies_alba_pyramidalis/thumbnail/49255769768_df55596553_b.jpg"}},{"id":5270,"common_name":"pink muhlygrass","scientific_name":["Muhlenbergia capillaris"],"other_name":null,"cycle":"Perennial","watering":"Minimum","sunlight":["Full sun","part shade"],"default_image":{"image_id":11141,"license":4,"license_name":"Attribution License","license_url":"https://creativecommons.org/licenses/by/2.0/","original_url":"https://perenual.com/storage/species_image/5270_muhlenbergia_capillaris/og/15386476937_aecffb273d_b.jpg","regular_url":"https://perenual.com/storage/species_image/5270_muhlenbergia_capillaris/regular/15386476937_aecffb273d_b.jpg","medium_url":"https://perenual.com/storage/species_image/5270_muhlenbergia_capillaris/medium/15386476937_aecffb273d_b.jpg","small_url":"https://perenual.com/storage/species_image/5270_muhlenbergia_capillaris/small/15386476937_aecffb273d_b.jpg","thumbnail":"https://perenual.com/storage/species_image/5270_muhlenbergia_capillaris/thumbnail/15386476937_aecffb273d_b.jpg"}},{"id":5271,"common_name":"pink muhlygrass","scientific_name":["Muhlenbergia capillaris 'Fast Forward'"],"other_name":null,"cycle":"Perennial","watering":"Minimum","sunlight":["Full sun","part shade"],"default_image":{"image_id":9,"license":5,"license_name":"Attribution-ShareAlike License","license_url":"https://creativecommons.org/licenses/by-sa/2.0/","original_url":"https://perenual.com/storage/species_image/2_abies_alba_pyramidalis/og/49255769768_df55596553_b.jpg","regular_url":"https://perenual.com/storage/species_image/2_abies_alba_pyramidalis/regular/49255769768_df55596553_b.jpg","medium_url":"https://perenual.com/storage/species_image/2_abies_alba_pyramidalis/medium/49255769768_df55596553_b.jpg","small_url":"https://perenual.com/storage/species_image/2_abies_alba_pyramidalis/small/49255769768_df55596553_b.jpg","thumbnail":"https://perenual.com/storage/species_image/2_abies_alba_pyramidalis/thumbnail/49255769768_df55596553_b.jpg"}},{"id":5272,"common_name":"muhly grass","scientific_name":["Muhlenbergia capillaris 'White Cloud'"],"other_name":null,"cycle":"Perennial","watering":"Minimum","sunlight":["Full sun","part shade"],"default_image":{"image_id":9,"license":5,"license_name":"Attribution-ShareAlike License","license_url":"https://creativecommons.org/licenses/by-sa/2.0/","original_url":"https://perenual.com/storage/species_image/2_abies_alba_pyramidalis/og/49255769768_df55596553_b.jpg","regular_url":"https://perenual.com/storage/species_image/2_abies_alba_pyramidalis/regular/49255769768_df55596553_b.jpg","medium_url":"https://perenual.com/storage/species_image/2_abies_alba_pyramidalis/medium/49255769768_df55596553_b.jpg","small_url":"https://perenual.com/storage/species_image/2_abies_alba_pyramidalis/small/49255769768_df55596553_b.jpg","thumbnail":"https://perenual.com/storage/species_image/2_abies_alba_pyramidalis/thumbnail/49255769768_df55596553_b.jpg"}},{"id":5273,"common_name":"muhly grass","scientific_name":["Muhlenbergia reverchonii 'Autumn Embers'"],"other_name":null,"cycle":"Perennial","watering":"Minimum","sunlight":["Full sun"],"default_image":{"image_id":9,"license":5,"license_name":"Attribution-ShareAlike License","license_url":"https://creativecommons.org/licenses/by-sa/2.0/","original_url":"https://perenual.com/storage/species_image/2_abies_alba_pyramidalis/og/49255769768_df55596553_b.jpg","regular_url":"https://perenual.com/storage/species_image/2_abies_alba_pyramidalis/regular/49255769768_df55596553_b.jpg","medium_url":"https://perenual.com/storage/species_image/2_abies_alba_pyramidalis/medium/49255769768_df55596553_b.jpg","small_url":"https://perenual.com/storage/species_image/2_abies_alba_pyramidalis/small/49255769768_df55596553_b.jpg","thumbnail":"https://perenual.com/storage/species_image/2_abies_alba_pyramidalis/thumbnail/49255769768_df55596553_b.jpg"}},{"id":5274,"common_name":"muhly grass","scientific_name":["Muhlenbergia reverchonii UNDAUNTED"],"other_name":null,"cycle":"Perennial","watering":"Minimum","sunlight":["Full sun"],"default_image":{"image_id":11145,"license":5,"license_name":"Attribution-ShareAlike License","license_url":"https://creativecommons.org/licenses/by-sa/2.0/","original_url":"https://perenual.com/storage/species_image/5274_muhlenbergia_reverchonii_undaunted/og/29606407098_8feb209900_b.jpg","regular_url":"https://perenual.com/storage/species_image/5274_muhlenbergia_reverchonii_undaunted/regular/29606407098_8feb209900_b.jpg","medium_url":"https://perenual.com/storage/species_image/5274_muhlenbergia_reverchonii_undaunted/medium/29606407098_8feb209900_b.jpg","small_url":"https://perenual.com/storage/species_image/5274_muhlenbergia_reverchonii_undaunted/small/29606407098_8feb209900_b.jpg","thumbnail":"https://perenual.com/storage/species_image/5274_muhlenbergia_reverchonii_undaunted/thumbnail/29606407098_8feb209900_b.jpg"}},{"id":5275,"common_name":"deergrass","scientific_name":["Muhlenbergia rigens"],"other_name":null,"cycle":"Perennial","watering":"Minimum","sunlight":["Full sun"],"default_image":{"image_id":9,"license":5,"license_name":"Attribution-ShareAlike License","license_url":"https://creativecommons.org/licenses/by-sa/2.0/","original_url":"https://perenual.com/storage/species_image/2_abies_alba_pyramidalis/og/49255769768_df55596553_b.jpg","regular_url":"https://perenual.com/storage/species_image/2_abies_alba_pyramidalis/regular/49255769768_df55596553_b.jpg","medium_url":"https://perenual.com/storage/species_image/2_abies_alba_pyramidalis/medium/49255769768_df55596553_b.jpg","small_url":"https://perenual.com/storage/species_image/2_abies_alba_pyramidalis/small/49255769768_df55596553_b.jpg","thumbnail":"https://perenual.com/storage/species_image/2_abies_alba_pyramidalis/thumbnail/49255769768_df55596553_b.jpg"}},{"id":5276,"common_name":"mukdenia","scientific_name":["Mukdenia rossii"],"other_name":null,"cycle":"Perennial","watering":"Average","sunlight":["Part shade"],"default_image":{"image_id":11146,"license":5,"license_name":"Attribution-ShareAlike License","license_url":"https://creativecommons.org/licenses/by-sa/2.0/","original_url":"https://perenual.com/storage/species_image/5276_mukdenia_rossii/og/33955376545_e350e91818_b.jpg","regular_url":"https://perenual.com/storage/species_image/5276_mukdenia_rossii/regular/33955376545_e350e91818_b.jpg","medium_url":"https://perenual.com/storage/species_image/5276_mukdenia_rossii/medium/33955376545_e350e91818_b.jpg","small_url":"https://perenual.com/storage/species_image/5276_mukdenia_rossii/small/33955376545_e350e91818_b.jpg","thumbnail":"https://perenual.com/storage/species_image/5276_mukdenia_rossii/thumbnail/33955376545_e350e91818_b.jpg"}},{"id":5277,"common_name":"mukdenia","scientific_name":["Mukdenia rossii 'Karasuba' CRIMSON FANS"],"other_name":null,"cycle":"Perennial","watering":"Average","sunlight":["Part shade"],"default_image":{"image_id":11148,"license":5,"license_name":"Attribution-ShareAlike License","license_url":"https://creativecommons.org/licenses/by-sa/2.0/","original_url":"https://perenual.com/storage/species_image/5277_mukdenia_rossii_karasuba_crimson_fans/og/26486442130_e7eb4bac35_b.jpg","regular_url":"https://perenual.com/storage/species_image/5277_mukdenia_rossii_karasuba_crimson_fans/regular/26486442130_e7eb4bac35_b.jpg","medium_url":"https://perenual.com/storage/species_image/5277_mukdenia_rossii_karasuba_crimson_fans/medium/26486442130_e7eb4bac35_b.jpg","small_url":"https://perenual.com/storage/species_image/5277_mukdenia_rossii_karasuba_crimson_fans/small/26486442130_e7eb4bac35_b.jpg","thumbnail":"https://perenual.com/storage/species_image/5277_mukdenia_rossii_karasuba_crimson_fans/thumbnail/26486442130_e7eb4bac35_b.jpg"}},{"id":5278,"common_name":"curry leaf","scientific_name":["Murraya koenigii"],"other_name":null,"cycle":"Perennial","watering":"Average","sunlight":["Full sun","part shade"],"default_image":{"image_id":11149,"license":4,"license_name":"Attribution License","license_url":"https://creativecommons.org/licenses/by/2.0/","original_url":"https://perenual.com/storage/species_image/5278_murraya_koenigii/og/25169597336_3e87c5689a_b.jpg","regular_url":"https://perenual.com/storage/species_image/5278_murraya_koenigii/regular/25169597336_3e87c5689a_b.jpg","medium_url":"https://perenual.com/storage/species_image/5278_murraya_koenigii/medium/25169597336_3e87c5689a_b.jpg","small_url":"https://perenual.com/storage/species_image/5278_murraya_koenigii/small/25169597336_3e87c5689a_b.jpg","thumbnail":"https://perenual.com/storage/species_image/5278_murraya_koenigii/thumbnail/25169597336_3e87c5689a_b.jpg"}},{"id":5279,"common_name":"orange jessamine","scientific_name":["Murraya paniculata"],"other_name":null,"cycle":"Perennial","watering":"Average","sunlight":["Full sun","part shade"],"default_image":{"image_id":11150,"license":5,"license_name":"Attribution-ShareAlike License","license_url":"https://creativecommons.org/licenses/by-sa/2.0/","original_url":"https://perenual.com/storage/species_image/5279_murraya_paniculata/og/30309293968_ab8404814c_b.jpg","regular_url":"https://perenual.com/storage/species_image/5279_murraya_paniculata/regular/30309293968_ab8404814c_b.jpg","medium_url":"https://perenual.com/storage/species_image/5279_murraya_paniculata/medium/30309293968_ab8404814c_b.jpg","small_url":"https://perenual.com/storage/species_image/5279_murraya_paniculata/small/30309293968_ab8404814c_b.jpg","thumbnail":"https://perenual.com/storage/species_image/5279_murraya_paniculata/thumbnail/30309293968_ab8404814c_b.jpg"}},{"id":5280,"common_name":"banana","scientific_name":["Musa acuminata"],"other_name":null,"cycle":"Perennial","watering":"Average","sunlight":["Full sun"],"default_image":{"image_id":11151,"license":5,"license_name":"Attribution-ShareAlike License","license_url":"https://creativecommons.org/licenses/by-sa/2.0/","original_url":"https://perenual.com/storage/species_image/5280_musa_acuminata/og/29067235735_a8e1b42d04_b.jpg","regular_url":"https://perenual.com/storage/species_image/5280_musa_acuminata/regular/29067235735_a8e1b42d04_b.jpg","medium_url":"https://perenual.com/storage/species_image/5280_musa_acuminata/medium/29067235735_a8e1b42d04_b.jpg","small_url":"https://perenual.com/storage/species_image/5280_musa_acuminata/small/29067235735_a8e1b42d04_b.jpg","thumbnail":"https://perenual.com/storage/species_image/5280_musa_acuminata/thumbnail/29067235735_a8e1b42d04_b.jpg"}}],"to":5280,"per_page":30,"current_page":176,"from":5251,"last_page":200,"total":6000}