{"data":[{"id":2881,"common_name":"mountain spurge","scientific_name":["Euphorbia marginata 'Kilimanjaro'"],"other_name":null,"cycle":"Perennial","watering":"Minimum","sunlight":["Full sun"],"default_image":{"image_id":6261,"license":6,"license_name":"Attribution-NoDerivs License","license_url":"https://creativecommons.org/licenses/by-nd/2.0/","original_url":"https://perenual.com/storage/species_image/2881_euphorbia_marginata_kilimanjaro/og/51319412481_107042df71_b.jpg"}},{"id":2882,"common_name":"Martin’s spurge","scientific_name":["Euphorbia martini 'Inneuphhel' HELENA'S BLUSH"],"other_name":null,"cycle":"Perennial","watering":"Minimum","sunlight":["Full sun","part shade"],"default_image":{"image_id":9,"license":5,"license_name":"Attribution-ShareAlike License","license_url":"https://creativecommons.org/licenses/by-sa/2.0/","original_url":"https://perenual.com/storage/species_image/2_abies_alba_pyramidalis/og/49255769768_df55596553_b.jpg","regular_url":"https://perenual.com/storage/species_image/2_abies_alba_pyramidalis/regular/49255769768_df55596553_b.jpg","medium_url":"https://perenual.com/storage/species_image/2_abies_alba_pyramidalis/medium/49255769768_df55596553_b.jpg","small_url":"https://perenual.com/storage/species_image/2_abies_alba_pyramidalis/small/49255769768_df55596553_b.jpg","thumbnail":"https://perenual.com/storage/species_image/2_abies_alba_pyramidalis/thumbnail/49255769768_df55596553_b.jpg"}},{"id":2883,"common_name":"Martin’s spurge","scientific_name":["Euphorbia martini 'Waleutiny' TINY TIM"],"other_name":null,"cycle":"Perennial","watering":"Minimum","sunlight":["Full sun","part shade"],"default_image":{"image_id":9,"license":5,"license_name":"Attribution-ShareAlike License","license_url":"https://creativecommons.org/licenses/by-sa/2.0/","original_url":"https://perenual.com/storage/species_image/2_abies_alba_pyramidalis/og/49255769768_df55596553_b.jpg","regular_url":"https://perenual.com/storage/species_image/2_abies_alba_pyramidalis/regular/49255769768_df55596553_b.jpg","medium_url":"https://perenual.com/storage/species_image/2_abies_alba_pyramidalis/medium/49255769768_df55596553_b.jpg","small_url":"https://perenual.com/storage/species_image/2_abies_alba_pyramidalis/small/49255769768_df55596553_b.jpg","thumbnail":"https://perenual.com/storage/species_image/2_abies_alba_pyramidalis/thumbnail/49255769768_df55596553_b.jpg"}},{"id":2884,"common_name":"spurge","scientific_name":["Euphorbia martinii 'Ascot Rainbow'"],"other_name":null,"cycle":"Perennial","watering":"Minimum","sunlight":["Full sun","part shade"],"default_image":{"image_id":9,"license":5,"license_name":"Attribution-ShareAlike License","license_url":"https://creativecommons.org/licenses/by-sa/2.0/","original_url":"https://perenual.com/storage/species_image/2_abies_alba_pyramidalis/og/49255769768_df55596553_b.jpg","regular_url":"https://perenual.com/storage/species_image/2_abies_alba_pyramidalis/regular/49255769768_df55596553_b.jpg","medium_url":"https://perenual.com/storage/species_image/2_abies_alba_pyramidalis/medium/49255769768_df55596553_b.jpg","small_url":"https://perenual.com/storage/species_image/2_abies_alba_pyramidalis/small/49255769768_df55596553_b.jpg","thumbnail":"https://perenual.com/storage/species_image/2_abies_alba_pyramidalis/thumbnail/49255769768_df55596553_b.jpg"}},{"id":2885,"common_name":"christplant","scientific_name":["Euphorbia milii"],"other_name":null,"cycle":"Perennial","watering":"Minimum","sunlight":["Full sun"],"default_image":{"image_id":9,"license":5,"license_name":"Attribution-ShareAlike License","license_url":"https://creativecommons.org/licenses/by-sa/2.0/","original_url":"https://perenual.com/storage/species_image/2_abies_alba_pyramidalis/og/49255769768_df55596553_b.jpg","regular_url":"https://perenual.com/storage/species_image/2_abies_alba_pyramidalis/regular/49255769768_df55596553_b.jpg","medium_url":"https://perenual.com/storage/species_image/2_abies_alba_pyramidalis/medium/49255769768_df55596553_b.jpg","small_url":"https://perenual.com/storage/species_image/2_abies_alba_pyramidalis/small/49255769768_df55596553_b.jpg","thumbnail":"https://perenual.com/storage/species_image/2_abies_alba_pyramidalis/thumbnail/49255769768_df55596553_b.jpg"}},{"id":2886,"common_name":"myrtle spurge","scientific_name":["Euphorbia myrsinites"],"other_name":["donkey-tail spurge"],"cycle":"Perennial","watering":"Minimum","sunlight":["Full sun"],"default_image":{"image_id":6270,"license":4,"license_name":"Attribution License","license_url":"https://creativecommons.org/licenses/by/2.0/","original_url":"https://perenual.com/storage/species_image/2886_euphorbia_myrsinites/og/51572962469_a4d7d90045_b.jpg","regular_url":"https://perenual.com/storage/species_image/2886_euphorbia_myrsinites/regular/51572962469_a4d7d90045_b.jpg","medium_url":"https://perenual.com/storage/species_image/2886_euphorbia_myrsinites/medium/51572962469_a4d7d90045_b.jpg","small_url":"https://perenual.com/storage/species_image/2886_euphorbia_myrsinites/small/51572962469_a4d7d90045_b.jpg","thumbnail":"https://perenual.com/storage/species_image/2886_euphorbia_myrsinites/thumbnail/51572962469_a4d7d90045_b.jpg"}},{"id":2887,"common_name":"spurge","scientific_name":["Euphorbia 'Nothowlee' BLACKBIRD"],"other_name":null,"cycle":"Perennial","watering":"Minimum","sunlight":["Full sun"],"default_image":{"image_id":9,"license":5,"license_name":"Attribution-ShareAlike License","license_url":"https://creativecommons.org/licenses/by-sa/2.0/","original_url":"https://perenual.com/storage/species_image/2_abies_alba_pyramidalis/og/49255769768_df55596553_b.jpg","regular_url":"https://perenual.com/storage/species_image/2_abies_alba_pyramidalis/regular/49255769768_df55596553_b.jpg","medium_url":"https://perenual.com/storage/species_image/2_abies_alba_pyramidalis/medium/49255769768_df55596553_b.jpg","small_url":"https://perenual.com/storage/species_image/2_abies_alba_pyramidalis/small/49255769768_df55596553_b.jpg","thumbnail":"https://perenual.com/storage/species_image/2_abies_alba_pyramidalis/thumbnail/49255769768_df55596553_b.jpg"}},{"id":2888,"common_name":"bog spurge","scientific_name":["Euphorbia palustris"],"other_name":null,"cycle":"Perennial","watering":"Frequent","sunlight":["Full sun","part shade"],"default_image":{"image_id":9,"license":5,"license_name":"Attribution-ShareAlike License","license_url":"https://creativecommons.org/licenses/by-sa/2.0/","original_url":"https://perenual.com/storage/species_image/2_abies_alba_pyramidalis/og/49255769768_df55596553_b.jpg","regular_url":"https://perenual.com/storage/species_image/2_abies_alba_pyramidalis/regular/49255769768_df55596553_b.jpg","medium_url":"https://perenual.com/storage/species_image/2_abies_alba_pyramidalis/medium/49255769768_df55596553_b.jpg","small_url":"https://perenual.com/storage/species_image/2_abies_alba_pyramidalis/small/49255769768_df55596553_b.jpg","thumbnail":"https://perenual.com/storage/species_image/2_abies_alba_pyramidalis/thumbnail/49255769768_df55596553_b.jpg"}},{"id":2889,"common_name":"cushion spurge","scientific_name":["Euphorbia polychroma"],"other_name":["cushion spurge"],"cycle":"Perennial","watering":"Minimum","sunlight":["Full sun"],"default_image":{"image_id":9,"license":5,"license_name":"Attribution-ShareAlike License","license_url":"https://creativecommons.org/licenses/by-sa/2.0/","original_url":"https://perenual.com/storage/species_image/2_abies_alba_pyramidalis/og/49255769768_df55596553_b.jpg","regular_url":"https://perenual.com/storage/species_image/2_abies_alba_pyramidalis/regular/49255769768_df55596553_b.jpg","medium_url":"https://perenual.com/storage/species_image/2_abies_alba_pyramidalis/medium/49255769768_df55596553_b.jpg","small_url":"https://perenual.com/storage/species_image/2_abies_alba_pyramidalis/small/49255769768_df55596553_b.jpg","thumbnail":"https://perenual.com/storage/species_image/2_abies_alba_pyramidalis/thumbnail/49255769768_df55596553_b.jpg"}},{"id":2890,"common_name":"cushion spurge","scientific_name":["Euphorbia polychroma 'Candy'"],"other_name":null,"cycle":"Perennial","watering":"Minimum","sunlight":["Full sun"],"default_image":{"image_id":9,"license":5,"license_name":"Attribution-ShareAlike License","license_url":"https://creativecommons.org/licenses/by-sa/2.0/","original_url":"https://perenual.com/storage/species_image/2_abies_alba_pyramidalis/og/49255769768_df55596553_b.jpg","regular_url":"https://perenual.com/storage/species_image/2_abies_alba_pyramidalis/regular/49255769768_df55596553_b.jpg","medium_url":"https://perenual.com/storage/species_image/2_abies_alba_pyramidalis/medium/49255769768_df55596553_b.jpg","small_url":"https://perenual.com/storage/species_image/2_abies_alba_pyramidalis/small/49255769768_df55596553_b.jpg","thumbnail":"https://perenual.com/storage/species_image/2_abies_alba_pyramidalis/thumbnail/49255769768_df55596553_b.jpg"}},{"id":2891,"common_name":"poinsettia","scientific_name":["Euphorbia pulcherrima"],"other_name":null,"cycle":"Perennial","watering":"Average","sunlight":["Part shade"],"default_image":{"image_id":9,"license":5,"license_name":"Attribution-ShareAlike License","license_url":"https://creativecommons.org/licenses/by-sa/2.0/","original_url":"https://perenual.com/storage/species_image/2_abies_alba_pyramidalis/og/49255769768_df55596553_b.jpg","regular_url":"https://perenual.com/storage/species_image/2_abies_alba_pyramidalis/regular/49255769768_df55596553_b.jpg","medium_url":"https://perenual.com/storage/species_image/2_abies_alba_pyramidalis/medium/49255769768_df55596553_b.jpg","small_url":"https://perenual.com/storage/species_image/2_abies_alba_pyramidalis/small/49255769768_df55596553_b.jpg","thumbnail":"https://perenual.com/storage/species_image/2_abies_alba_pyramidalis/thumbnail/49255769768_df55596553_b.jpg"}},{"id":2892,"common_name":"spurge","scientific_name":["Euphorbia rigida"],"other_name":null,"cycle":"Perennial","watering":"Minimum","sunlight":["Full sun"],"default_image":{"image_id":6279,"license":5,"license_name":"Attribution-ShareAlike License","license_url":"https://creativecommons.org/licenses/by-sa/2.0/","original_url":"https://perenual.com/storage/species_image/2892_euphorbia_rigida/og/51170834705_868a11a019_b.jpg","regular_url":"https://perenual.com/storage/species_image/2892_euphorbia_rigida/regular/51170834705_868a11a019_b.jpg","medium_url":"https://perenual.com/storage/species_image/2892_euphorbia_rigida/medium/51170834705_868a11a019_b.jpg","small_url":"https://perenual.com/storage/species_image/2892_euphorbia_rigida/small/51170834705_868a11a019_b.jpg","thumbnail":"https://perenual.com/storage/species_image/2892_euphorbia_rigida/thumbnail/51170834705_868a11a019_b.jpg"}},{"id":2893,"common_name":"Indian tree spurge","scientific_name":["Euphorbia tirucalli"],"other_name":null,"cycle":"Perennial","watering":"Minimum","sunlight":["Full sun"],"default_image":{"image_id":6280,"license":4,"license_name":"Attribution License","license_url":"https://creativecommons.org/licenses/by/2.0/","original_url":"https://perenual.com/storage/species_image/2893_euphorbia_tirucalli/og/50565162811_35a80a030a_b.jpg","regular_url":"https://perenual.com/storage/species_image/2893_euphorbia_tirucalli/regular/50565162811_35a80a030a_b.jpg","medium_url":"https://perenual.com/storage/species_image/2893_euphorbia_tirucalli/medium/50565162811_35a80a030a_b.jpg","small_url":"https://perenual.com/storage/species_image/2893_euphorbia_tirucalli/small/50565162811_35a80a030a_b.jpg","thumbnail":"https://perenual.com/storage/species_image/2893_euphorbia_tirucalli/thumbnail/50565162811_35a80a030a_b.jpg"}},{"id":2894,"common_name":"eurya","scientific_name":["Eurya japonica 'Moutiers'"],"other_name":null,"cycle":"Perennial","watering":"Average","sunlight":["Full sun","part shade"],"default_image":{"image_id":6287,"license":5,"license_name":"Attribution-ShareAlike License","license_url":"https://creativecommons.org/licenses/by-sa/2.0/","original_url":"https://perenual.com/storage/species_image/2894_eurya_japonica_moutiers/og/16017861533_8924c5d0d9_b.jpg","regular_url":"https://perenual.com/storage/species_image/2894_eurya_japonica_moutiers/regular/16017861533_8924c5d0d9_b.jpg","medium_url":"https://perenual.com/storage/species_image/2894_eurya_japonica_moutiers/medium/16017861533_8924c5d0d9_b.jpg","small_url":"https://perenual.com/storage/species_image/2894_eurya_japonica_moutiers/small/16017861533_8924c5d0d9_b.jpg","thumbnail":"https://perenual.com/storage/species_image/2894_eurya_japonica_moutiers/thumbnail/16017861533_8924c5d0d9_b.jpg"}},{"id":2895,"common_name":"white wood aster","scientific_name":["Eurybia divaricata"],"other_name":null,"cycle":"Perennial","watering":"Minimum","sunlight":["Part shade","full shade"],"default_image":{"image_id":9,"license":5,"license_name":"Attribution-ShareAlike License","license_url":"https://creativecommons.org/licenses/by-sa/2.0/","original_url":"https://perenual.com/storage/species_image/2_abies_alba_pyramidalis/og/49255769768_df55596553_b.jpg","regular_url":"https://perenual.com/storage/species_image/2_abies_alba_pyramidalis/regular/49255769768_df55596553_b.jpg","medium_url":"https://perenual.com/storage/species_image/2_abies_alba_pyramidalis/medium/49255769768_df55596553_b.jpg","small_url":"https://perenual.com/storage/species_image/2_abies_alba_pyramidalis/small/49255769768_df55596553_b.jpg","thumbnail":"https://perenual.com/storage/species_image/2_abies_alba_pyramidalis/thumbnail/49255769768_df55596553_b.jpg"}},{"id":2896,"common_name":"white wood aster","scientific_name":["Eurybia divaricata 'Eastern Star'"],"other_name":null,"cycle":"Perennial","watering":"Minimum","sunlight":["Part shade","full shade"],"default_image":{"image_id":6289,"license":4,"license_name":"Attribution License","license_url":"https://creativecommons.org/licenses/by/2.0/","original_url":"https://perenual.com/storage/species_image/2896_eurybia_divaricata_eastern_star/og/52351628209_7976c847a9_b.jpg","regular_url":"https://perenual.com/storage/species_image/2896_eurybia_divaricata_eastern_star/regular/52351628209_7976c847a9_b.jpg","medium_url":"https://perenual.com/storage/species_image/2896_eurybia_divaricata_eastern_star/medium/52351628209_7976c847a9_b.jpg","small_url":"https://perenual.com/storage/species_image/2896_eurybia_divaricata_eastern_star/small/52351628209_7976c847a9_b.jpg","thumbnail":"https://perenual.com/storage/species_image/2896_eurybia_divaricata_eastern_star/thumbnail/52351628209_7976c847a9_b.jpg"}},{"id":2897,"common_name":"white wood aster","scientific_name":["Eurybia divaricata 'Tiney Hiney'"],"other_name":null,"cycle":"Perennial","watering":"Minimum","sunlight":["Part shade","full shade"],"default_image":{"image_id":9,"license":5,"license_name":"Attribution-ShareAlike License","license_url":"https://creativecommons.org/licenses/by-sa/2.0/","original_url":"https://perenual.com/storage/species_image/2_abies_alba_pyramidalis/og/49255769768_df55596553_b.jpg","regular_url":"https://perenual.com/storage/species_image/2_abies_alba_pyramidalis/regular/49255769768_df55596553_b.jpg","medium_url":"https://perenual.com/storage/species_image/2_abies_alba_pyramidalis/medium/49255769768_df55596553_b.jpg","small_url":"https://perenual.com/storage/species_image/2_abies_alba_pyramidalis/small/49255769768_df55596553_b.jpg","thumbnail":"https://perenual.com/storage/species_image/2_abies_alba_pyramidalis/thumbnail/49255769768_df55596553_b.jpg"}},{"id":2898,"common_name":"southern prairie aster","scientific_name":["Eurybia hemispherica"],"other_name":null,"cycle":"Perennial","watering":"Minimum","sunlight":["Full sun"],"default_image":{"image_id":6290,"license":5,"license_name":"Attribution-ShareAlike License","license_url":"https://creativecommons.org/licenses/by-sa/2.0/","original_url":"https://perenual.com/storage/species_image/2898_eurybia_hemispherica/og/25171841361_5a64e7c3a8_b.jpg","regular_url":"https://perenual.com/storage/species_image/2898_eurybia_hemispherica/regular/25171841361_5a64e7c3a8_b.jpg","medium_url":"https://perenual.com/storage/species_image/2898_eurybia_hemispherica/medium/25171841361_5a64e7c3a8_b.jpg","small_url":"https://perenual.com/storage/species_image/2898_eurybia_hemispherica/small/25171841361_5a64e7c3a8_b.jpg","thumbnail":"https://perenual.com/storage/species_image/2898_eurybia_hemispherica/thumbnail/25171841361_5a64e7c3a8_b.jpg"}},{"id":2899,"common_name":"large-leaved aster","scientific_name":["Eurybia macrophylla"],"other_name":null,"cycle":"Perennial","watering":"Average","sunlight":["Part shade","full shade"],"default_image":{"image_id":6293,"license":5,"license_name":"Attribution-ShareAlike License","license_url":"https://creativecommons.org/licenses/by-sa/2.0/","original_url":"https://perenual.com/storage/species_image/2899_eurybia_macrophylla/og/7972801728_7c22f11990_b.jpg","regular_url":"https://perenual.com/storage/species_image/2899_eurybia_macrophylla/regular/7972801728_7c22f11990_b.jpg","medium_url":"https://perenual.com/storage/species_image/2899_eurybia_macrophylla/medium/7972801728_7c22f11990_b.jpg","small_url":"https://perenual.com/storage/species_image/2899_eurybia_macrophylla/small/7972801728_7c22f11990_b.jpg","thumbnail":"https://perenual.com/storage/species_image/2899_eurybia_macrophylla/thumbnail/7972801728_7c22f11990_b.jpg"}},{"id":2900,"common_name":"aster","scientific_name":["Eurybia paludosa"],"other_name":null,"cycle":"Perennial","watering":"Frequent","sunlight":["Part shade"],"default_image":{"image_id":9,"license":5,"license_name":"Attribution-ShareAlike License","license_url":"https://creativecommons.org/licenses/by-sa/2.0/","original_url":"https://perenual.com/storage/species_image/2_abies_alba_pyramidalis/og/49255769768_df55596553_b.jpg","regular_url":"https://perenual.com/storage/species_image/2_abies_alba_pyramidalis/regular/49255769768_df55596553_b.jpg","medium_url":"https://perenual.com/storage/species_image/2_abies_alba_pyramidalis/medium/49255769768_df55596553_b.jpg","small_url":"https://perenual.com/storage/species_image/2_abies_alba_pyramidalis/small/49255769768_df55596553_b.jpg","thumbnail":"https://perenual.com/storage/species_image/2_abies_alba_pyramidalis/thumbnail/49255769768_df55596553_b.jpg"}},{"id":2901,"common_name":"euscaphis","scientific_name":["Euscaphis japonica"],"other_name":null,"cycle":"Perennial","watering":"Average","sunlight":["Full sun","part shade"],"default_image":{"image_id":6299,"license":4,"license_name":"Attribution License","license_url":"https://creativecommons.org/licenses/by/2.0/","original_url":"https://perenual.com/storage/species_image/2901_euscaphis_japonica/og/15319643905_b5c94b4e4b_b.jpg","regular_url":"https://perenual.com/storage/species_image/2901_euscaphis_japonica/regular/15319643905_b5c94b4e4b_b.jpg","medium_url":"https://perenual.com/storage/species_image/2901_euscaphis_japonica/medium/15319643905_b5c94b4e4b_b.jpg","small_url":"https://perenual.com/storage/species_image/2901_euscaphis_japonica/small/15319643905_b5c94b4e4b_b.jpg","thumbnail":"https://perenual.com/storage/species_image/2901_euscaphis_japonica/thumbnail/15319643905_b5c94b4e4b_b.jpg"}},{"id":2902,"common_name":"lisianthus","scientific_name":["Eustoma grandiflorum"],"other_name":["prairie gentian","Texas bluebell","prairie gentian","Texas bluebell"],"cycle":"Perennial","watering":"Average","sunlight":[],"default_image":{"image_id":9,"license":5,"license_name":"Attribution-ShareAlike License","license_url":"https://creativecommons.org/licenses/by-sa/2.0/","original_url":"https://perenual.com/storage/species_image/2_abies_alba_pyramidalis/og/49255769768_df55596553_b.jpg","regular_url":"https://perenual.com/storage/species_image/2_abies_alba_pyramidalis/regular/49255769768_df55596553_b.jpg","medium_url":"https://perenual.com/storage/species_image/2_abies_alba_pyramidalis/medium/49255769768_df55596553_b.jpg","small_url":"https://perenual.com/storage/species_image/2_abies_alba_pyramidalis/small/49255769768_df55596553_b.jpg","thumbnail":"https://perenual.com/storage/species_image/2_abies_alba_pyramidalis/thumbnail/49255769768_df55596553_b.jpg"}},{"id":2903,"common_name":"Joe Pye weed","scientific_name":["Eutrochium dubium 'Baby Joe'"],"other_name":null,"cycle":"Perennial","watering":"Frequent","sunlight":["Full sun","part shade"],"default_image":{"image_id":9,"license":5,"license_name":"Attribution-ShareAlike License","license_url":"https://creativecommons.org/licenses/by-sa/2.0/","original_url":"https://perenual.com/storage/species_image/2_abies_alba_pyramidalis/og/49255769768_df55596553_b.jpg","regular_url":"https://perenual.com/storage/species_image/2_abies_alba_pyramidalis/regular/49255769768_df55596553_b.jpg","medium_url":"https://perenual.com/storage/species_image/2_abies_alba_pyramidalis/medium/49255769768_df55596553_b.jpg","small_url":"https://perenual.com/storage/species_image/2_abies_alba_pyramidalis/small/49255769768_df55596553_b.jpg","thumbnail":"https://perenual.com/storage/species_image/2_abies_alba_pyramidalis/thumbnail/49255769768_df55596553_b.jpg"}},{"id":2904,"common_name":"Joe Pye weed","scientific_name":["Eutrochium dubium 'Little Joe'"],"other_name":null,"cycle":"Perennial","watering":"Frequent","sunlight":["Full sun","part shade"],"default_image":{"image_id":6306,"license":4,"license_name":"Attribution License","license_url":"https://creativecommons.org/licenses/by/2.0/","original_url":"https://perenual.com/storage/species_image/2910_eutrochium_purpureum_floreupre1_euphoria_ruby/og/52553184506_252e1e572f_b.jpg","regular_url":"https://perenual.com/storage/species_image/2910_eutrochium_purpureum_floreupre1_euphoria_ruby/regular/52553184506_252e1e572f_b.jpg","medium_url":"https://perenual.com/storage/species_image/2910_eutrochium_purpureum_floreupre1_euphoria_ruby/medium/52553184506_252e1e572f_b.jpg","small_url":"https://perenual.com/storage/species_image/2910_eutrochium_purpureum_floreupre1_euphoria_ruby/small/52553184506_252e1e572f_b.jpg","thumbnail":"https://perenual.com/storage/species_image/2910_eutrochium_purpureum_floreupre1_euphoria_ruby/thumbnail/52553184506_252e1e572f_b.jpg"}},{"id":2905,"common_name":"Joe-pyeweed","scientific_name":["Eutrochium fistulosum"],"other_name":null,"cycle":"Perennial","watering":"Frequent","sunlight":["Full sun","part shade"],"default_image":{"image_id":6308,"license":4,"license_name":"Attribution License","license_url":"https://creativecommons.org/licenses/by/2.0/","original_url":"https://perenual.com/storage/species_image/2905_eutrochium_fistulosum/og/51378831029_4978175742_b.jpg","regular_url":"https://perenual.com/storage/species_image/2905_eutrochium_fistulosum/regular/51378831029_4978175742_b.jpg","medium_url":"https://perenual.com/storage/species_image/2905_eutrochium_fistulosum/medium/51378831029_4978175742_b.jpg","small_url":"https://perenual.com/storage/species_image/2905_eutrochium_fistulosum/small/51378831029_4978175742_b.jpg","thumbnail":"https://perenual.com/storage/species_image/2905_eutrochium_fistulosum/thumbnail/51378831029_4978175742_b.jpg"}},{"id":2906,"common_name":"Joe Pye weed","scientific_name":["Eutrochium fistulosum 'Atropurpurea'"],"other_name":null,"cycle":"Perennial","watering":"Frequent","sunlight":["Full sun","part shade"],"default_image":{"image_id":9,"license":5,"license_name":"Attribution-ShareAlike License","license_url":"https://creativecommons.org/licenses/by-sa/2.0/","original_url":"https://perenual.com/storage/species_image/2_abies_alba_pyramidalis/og/49255769768_df55596553_b.jpg","regular_url":"https://perenual.com/storage/species_image/2_abies_alba_pyramidalis/regular/49255769768_df55596553_b.jpg","medium_url":"https://perenual.com/storage/species_image/2_abies_alba_pyramidalis/medium/49255769768_df55596553_b.jpg","small_url":"https://perenual.com/storage/species_image/2_abies_alba_pyramidalis/small/49255769768_df55596553_b.jpg","thumbnail":"https://perenual.com/storage/species_image/2_abies_alba_pyramidalis/thumbnail/49255769768_df55596553_b.jpg"}},{"id":2907,"common_name":"Joe Pye weed","scientific_name":["Eutrochium maculatum"],"other_name":null,"cycle":"Perennial","watering":"Frequent","sunlight":["Full sun"],"default_image":{"image_id":6315,"license":4,"license_name":"Attribution License","license_url":"https://creativecommons.org/licenses/by/2.0/","original_url":"https://perenual.com/storage/species_image/2907_eutrochium_maculatum/og/52553719948_2cefc90094_b.jpg","regular_url":"https://perenual.com/storage/species_image/2907_eutrochium_maculatum/regular/52553719948_2cefc90094_b.jpg","medium_url":"https://perenual.com/storage/species_image/2907_eutrochium_maculatum/medium/52553719948_2cefc90094_b.jpg","small_url":"https://perenual.com/storage/species_image/2907_eutrochium_maculatum/small/52553719948_2cefc90094_b.jpg","thumbnail":"https://perenual.com/storage/species_image/2907_eutrochium_maculatum/thumbnail/52553719948_2cefc90094_b.jpg"}},{"id":2908,"common_name":"Joe Pye weed","scientific_name":["Eutrochium maculatum 'Gateway'"],"other_name":null,"cycle":"Perennial","watering":"Frequent","sunlight":["Full sun"],"default_image":{"image_id":9,"license":5,"license_name":"Attribution-ShareAlike License","license_url":"https://creativecommons.org/licenses/by-sa/2.0/","original_url":"https://perenual.com/storage/species_image/2_abies_alba_pyramidalis/og/49255769768_df55596553_b.jpg","regular_url":"https://perenual.com/storage/species_image/2_abies_alba_pyramidalis/regular/49255769768_df55596553_b.jpg","medium_url":"https://perenual.com/storage/species_image/2_abies_alba_pyramidalis/medium/49255769768_df55596553_b.jpg","small_url":"https://perenual.com/storage/species_image/2_abies_alba_pyramidalis/small/49255769768_df55596553_b.jpg","thumbnail":"https://perenual.com/storage/species_image/2_abies_alba_pyramidalis/thumbnail/49255769768_df55596553_b.jpg"}},{"id":2909,"common_name":"Joe Pye weed","scientific_name":["Eutrochium purpureum"],"other_name":null,"cycle":"Perennial","watering":"Average","sunlight":["Full sun","part shade"],"default_image":{"image_id":6319,"license":5,"license_name":"Attribution-ShareAlike License","license_url":"https://creativecommons.org/licenses/by-sa/2.0/","original_url":"https://perenual.com/storage/species_image/2909_eutrochium_purpureum/og/20510873228_aefd132807_b.jpg","regular_url":"https://perenual.com/storage/species_image/2909_eutrochium_purpureum/regular/20510873228_aefd132807_b.jpg","medium_url":"https://perenual.com/storage/species_image/2909_eutrochium_purpureum/medium/20510873228_aefd132807_b.jpg","small_url":"https://perenual.com/storage/species_image/2909_eutrochium_purpureum/small/20510873228_aefd132807_b.jpg","thumbnail":"https://perenual.com/storage/species_image/2909_eutrochium_purpureum/thumbnail/20510873228_aefd132807_b.jpg"}},{"id":2910,"common_name":"Joe Pye weed","scientific_name":["Eutrochium purpureum 'FLOREUPRE1' EUPHORIA RUBY"],"other_name":null,"cycle":"Perennial","watering":"Average","sunlight":["Full sun","part shade"],"default_image":{"image_id":6306,"license":4,"license_name":"Attribution License","license_url":"https://creativecommons.org/licenses/by/2.0/","original_url":"https://perenual.com/storage/species_image/2910_eutrochium_purpureum_floreupre1_euphoria_ruby/og/52553184506_252e1e572f_b.jpg","regular_url":"https://perenual.com/storage/species_image/2910_eutrochium_purpureum_floreupre1_euphoria_ruby/regular/52553184506_252e1e572f_b.jpg","medium_url":"https://perenual.com/storage/species_image/2910_eutrochium_purpureum_floreupre1_euphoria_ruby/medium/52553184506_252e1e572f_b.jpg","small_url":"https://perenual.com/storage/species_image/2910_eutrochium_purpureum_floreupre1_euphoria_ruby/small/52553184506_252e1e572f_b.jpg","thumbnail":"https://perenual.com/storage/species_image/2910_eutrochium_purpureum_floreupre1_euphoria_ruby/thumbnail/52553184506_252e1e572f_b.jpg"}}],"to":2910,"per_page":30,"current_page":97,"from":2881,"last_page":200,"total":6000}