{"data":[{"id":5731,"common_name":"patrinia","scientific_name":["Patrinia villosa"],"other_name":null,"cycle":"Perennial","watering":"Average","sunlight":["Full sun"],"default_image":{"image_id":11577,"license":5,"license_name":"Attribution-ShareAlike License","license_url":"https://creativecommons.org/licenses/by-sa/2.0/","original_url":"https://perenual.com/storage/species_image/5731_patrinia_villosa/og/9240149158_9ca3e5dae6_b.jpg","regular_url":"https://perenual.com/storage/species_image/5731_patrinia_villosa/regular/9240149158_9ca3e5dae6_b.jpg","medium_url":"https://perenual.com/storage/species_image/5731_patrinia_villosa/medium/9240149158_9ca3e5dae6_b.jpg","small_url":"https://perenual.com/storage/species_image/5731_patrinia_villosa/small/9240149158_9ca3e5dae6_b.jpg","thumbnail":"https://perenual.com/storage/species_image/5731_patrinia_villosa/thumbnail/9240149158_9ca3e5dae6_b.jpg"}},{"id":5732,"common_name":"pavonia","scientific_name":["Pavonia cymbalaria"],"other_name":null,"cycle":"Perennial","watering":"Average","sunlight":["Full sun"],"default_image":{"image_id":9,"license":5,"license_name":"Attribution-ShareAlike License","license_url":"https://creativecommons.org/licenses/by-sa/2.0/","original_url":"https://perenual.com/storage/species_image/2_abies_alba_pyramidalis/og/49255769768_df55596553_b.jpg","regular_url":"https://perenual.com/storage/species_image/2_abies_alba_pyramidalis/regular/49255769768_df55596553_b.jpg","medium_url":"https://perenual.com/storage/species_image/2_abies_alba_pyramidalis/medium/49255769768_df55596553_b.jpg","small_url":"https://perenual.com/storage/species_image/2_abies_alba_pyramidalis/small/49255769768_df55596553_b.jpg","thumbnail":"https://perenual.com/storage/species_image/2_abies_alba_pyramidalis/thumbnail/49255769768_df55596553_b.jpg"}},{"id":5733,"common_name":"cliff green","scientific_name":["Paxistima canbyi"],"other_name":null,"cycle":"Perennial","watering":"Average","sunlight":["Full sun","part shade"],"default_image":{"image_id":11580,"license":4,"license_name":"Attribution License","license_url":"https://creativecommons.org/licenses/by/2.0/","original_url":"https://perenual.com/storage/species_image/5733_paxistima_canbyi/og/20909439423_a836305c81_b.jpg","regular_url":"https://perenual.com/storage/species_image/5733_paxistima_canbyi/regular/20909439423_a836305c81_b.jpg","medium_url":"https://perenual.com/storage/species_image/5733_paxistima_canbyi/medium/20909439423_a836305c81_b.jpg","small_url":"https://perenual.com/storage/species_image/5733_paxistima_canbyi/small/20909439423_a836305c81_b.jpg","thumbnail":"https://perenual.com/storage/species_image/5733_paxistima_canbyi/thumbnail/20909439423_a836305c81_b.jpg"}},{"id":5734,"common_name":"common lousewort","scientific_name":["Pedicularis canadensis"],"other_name":null,"cycle":"Perennial","watering":"Average","sunlight":["Full sun","part shade"],"default_image":{"image_id":11582,"license":4,"license_name":"Attribution License","license_url":"https://creativecommons.org/licenses/by/2.0/","original_url":"https://perenual.com/storage/species_image/5734_pedicularis_canadensis/og/42246296035_f7fa8ff649_b.jpg","regular_url":"https://perenual.com/storage/species_image/5734_pedicularis_canadensis/regular/42246296035_f7fa8ff649_b.jpg","medium_url":"https://perenual.com/storage/species_image/5734_pedicularis_canadensis/medium/42246296035_f7fa8ff649_b.jpg","small_url":"https://perenual.com/storage/species_image/5734_pedicularis_canadensis/small/42246296035_f7fa8ff649_b.jpg","thumbnail":"https://perenual.com/storage/species_image/5734_pedicularis_canadensis/thumbnail/42246296035_f7fa8ff649_b.jpg"}},{"id":5735,"common_name":"redbird flower","scientific_name":["Pedilanthus tithymaloides"],"other_name":null,"cycle":"Perennial","watering":"Average","sunlight":["Full sun","part shade"],"default_image":{"image_id":11584,"license":4,"license_name":"Attribution License","license_url":"https://creativecommons.org/licenses/by/2.0/","original_url":"https://perenual.com/storage/species_image/5735_pedilanthus_tithymaloides/og/24516097649_6ac02c22b2_b.jpg","regular_url":"https://perenual.com/storage/species_image/5735_pedilanthus_tithymaloides/regular/24516097649_6ac02c22b2_b.jpg","medium_url":"https://perenual.com/storage/species_image/5735_pedilanthus_tithymaloides/medium/24516097649_6ac02c22b2_b.jpg","small_url":"https://perenual.com/storage/species_image/5735_pedilanthus_tithymaloides/small/24516097649_6ac02c22b2_b.jpg","thumbnail":"https://perenual.com/storage/species_image/5735_pedilanthus_tithymaloides/thumbnail/24516097649_6ac02c22b2_b.jpg"}},{"id":5736,"common_name":"regal geranium","scientific_name":["Pelargonium domesticum"],"other_name":null,"cycle":"Perennial","watering":"Average","sunlight":["Full sun","part shade"],"default_image":{"image_id":9,"license":5,"license_name":"Attribution-ShareAlike License","license_url":"https://creativecommons.org/licenses/by-sa/2.0/","original_url":"https://perenual.com/storage/species_image/2_abies_alba_pyramidalis/og/49255769768_df55596553_b.jpg","regular_url":"https://perenual.com/storage/species_image/2_abies_alba_pyramidalis/regular/49255769768_df55596553_b.jpg","medium_url":"https://perenual.com/storage/species_image/2_abies_alba_pyramidalis/medium/49255769768_df55596553_b.jpg","small_url":"https://perenual.com/storage/species_image/2_abies_alba_pyramidalis/small/49255769768_df55596553_b.jpg","thumbnail":"https://perenual.com/storage/species_image/2_abies_alba_pyramidalis/thumbnail/49255769768_df55596553_b.jpg"}},{"id":5737,"common_name":"zonal geranium","scientific_name":["Pelargonium hortorum"],"other_name":null,"cycle":"Perennial","watering":"Average","sunlight":["Full sun","part shade"],"default_image":{"image_id":9,"license":5,"license_name":"Attribution-ShareAlike License","license_url":"https://creativecommons.org/licenses/by-sa/2.0/","original_url":"https://perenual.com/storage/species_image/2_abies_alba_pyramidalis/og/49255769768_df55596553_b.jpg","regular_url":"https://perenual.com/storage/species_image/2_abies_alba_pyramidalis/regular/49255769768_df55596553_b.jpg","medium_url":"https://perenual.com/storage/species_image/2_abies_alba_pyramidalis/medium/49255769768_df55596553_b.jpg","small_url":"https://perenual.com/storage/species_image/2_abies_alba_pyramidalis/small/49255769768_df55596553_b.jpg","thumbnail":"https://perenual.com/storage/species_image/2_abies_alba_pyramidalis/thumbnail/49255769768_df55596553_b.jpg"}},{"id":5738,"common_name":"ivyleaf geranium","scientific_name":["Pelargonium peltatum"],"other_name":null,"cycle":"Perennial","watering":"Average","sunlight":["Full sun"," Part sun/part shade"],"default_image":{"image_id":11591,"license":4,"license_name":"Attribution License","license_url":"https://creativecommons.org/licenses/by/2.0/","original_url":"https://perenual.com/storage/species_image/5738_pelargonium_peltatum/og/35672246085_623e1d8f2b_b.jpg","regular_url":"https://perenual.com/storage/species_image/5738_pelargonium_peltatum/regular/35672246085_623e1d8f2b_b.jpg","medium_url":"https://perenual.com/storage/species_image/5738_pelargonium_peltatum/medium/35672246085_623e1d8f2b_b.jpg","small_url":"https://perenual.com/storage/species_image/5738_pelargonium_peltatum/small/35672246085_623e1d8f2b_b.jpg","thumbnail":"https://perenual.com/storage/species_image/5738_pelargonium_peltatum/thumbnail/35672246085_623e1d8f2b_b.jpg"}},{"id":5739,"common_name":"scented-leaved geranium","scientific_name":["Pelargonium (scented-leaved group)"],"other_name":null,"cycle":"Perennial","watering":"Average","sunlight":["Full sun","part shade"],"default_image":{"image_id":9,"license":5,"license_name":"Attribution-ShareAlike License","license_url":"https://creativecommons.org/licenses/by-sa/2.0/","original_url":"https://perenual.com/storage/species_image/2_abies_alba_pyramidalis/og/49255769768_df55596553_b.jpg","regular_url":"https://perenual.com/storage/species_image/2_abies_alba_pyramidalis/regular/49255769768_df55596553_b.jpg","medium_url":"https://perenual.com/storage/species_image/2_abies_alba_pyramidalis/medium/49255769768_df55596553_b.jpg","small_url":"https://perenual.com/storage/species_image/2_abies_alba_pyramidalis/small/49255769768_df55596553_b.jpg","thumbnail":"https://perenual.com/storage/species_image/2_abies_alba_pyramidalis/thumbnail/49255769768_df55596553_b.jpg"}},{"id":5740,"common_name":"button fern","scientific_name":["Pellaea rotundifolia"],"other_name":null,"cycle":"Perennial","watering":"Average","sunlight":["Part shade"],"default_image":{"image_id":9,"license":5,"license_name":"Attribution-ShareAlike License","license_url":"https://creativecommons.org/licenses/by-sa/2.0/","original_url":"https://perenual.com/storage/species_image/2_abies_alba_pyramidalis/og/49255769768_df55596553_b.jpg","regular_url":"https://perenual.com/storage/species_image/2_abies_alba_pyramidalis/regular/49255769768_df55596553_b.jpg","medium_url":"https://perenual.com/storage/species_image/2_abies_alba_pyramidalis/medium/49255769768_df55596553_b.jpg","small_url":"https://perenual.com/storage/species_image/2_abies_alba_pyramidalis/small/49255769768_df55596553_b.jpg","thumbnail":"https://perenual.com/storage/species_image/2_abies_alba_pyramidalis/thumbnail/49255769768_df55596553_b.jpg"}},{"id":5741,"common_name":"trailing watermelon begonia","scientific_name":["Pellionia repens"],"other_name":null,"cycle":"Perennial","watering":"Average","sunlight":["Part shade"],"default_image":{"image_id":9,"license":5,"license_name":"Attribution-ShareAlike License","license_url":"https://creativecommons.org/licenses/by-sa/2.0/","original_url":"https://perenual.com/storage/species_image/2_abies_alba_pyramidalis/og/49255769768_df55596553_b.jpg","regular_url":"https://perenual.com/storage/species_image/2_abies_alba_pyramidalis/regular/49255769768_df55596553_b.jpg","medium_url":"https://perenual.com/storage/species_image/2_abies_alba_pyramidalis/medium/49255769768_df55596553_b.jpg","small_url":"https://perenual.com/storage/species_image/2_abies_alba_pyramidalis/small/49255769768_df55596553_b.jpg","thumbnail":"https://perenual.com/storage/species_image/2_abies_alba_pyramidalis/thumbnail/49255769768_df55596553_b.jpg"}},{"id":5742,"common_name":"green arrow arum","scientific_name":["Peltandra virginica"],"other_name":null,"cycle":"Perennial","watering":"Frequent","sunlight":["Full sun","part shade"],"default_image":{"image_id":9,"license":5,"license_name":"Attribution-ShareAlike License","license_url":"https://creativecommons.org/licenses/by-sa/2.0/","original_url":"https://perenual.com/storage/species_image/2_abies_alba_pyramidalis/og/49255769768_df55596553_b.jpg","regular_url":"https://perenual.com/storage/species_image/2_abies_alba_pyramidalis/regular/49255769768_df55596553_b.jpg","medium_url":"https://perenual.com/storage/species_image/2_abies_alba_pyramidalis/medium/49255769768_df55596553_b.jpg","small_url":"https://perenual.com/storage/species_image/2_abies_alba_pyramidalis/small/49255769768_df55596553_b.jpg","thumbnail":"https://perenual.com/storage/species_image/2_abies_alba_pyramidalis/thumbnail/49255769768_df55596553_b.jpg"}},{"id":5743,"common_name":"peltoboykinia","scientific_name":["Peltoboykinia watanabei"],"other_name":null,"cycle":"Perennial","watering":"Average","sunlight":["Part shade","full shade"],"default_image":{"image_id":9,"license":5,"license_name":"Attribution-ShareAlike License","license_url":"https://creativecommons.org/licenses/by-sa/2.0/","original_url":"https://perenual.com/storage/species_image/2_abies_alba_pyramidalis/og/49255769768_df55596553_b.jpg","regular_url":"https://perenual.com/storage/species_image/2_abies_alba_pyramidalis/regular/49255769768_df55596553_b.jpg","medium_url":"https://perenual.com/storage/species_image/2_abies_alba_pyramidalis/medium/49255769768_df55596553_b.jpg","small_url":"https://perenual.com/storage/species_image/2_abies_alba_pyramidalis/small/49255769768_df55596553_b.jpg","thumbnail":"https://perenual.com/storage/species_image/2_abies_alba_pyramidalis/thumbnail/49255769768_df55596553_b.jpg"}},{"id":5744,"common_name":"fountain grass","scientific_name":["Pennisetum alopecuroides"],"other_name":null,"cycle":"Perennial","watering":"Frequent","sunlight":["Full sun"," Part sun/part shade"],"default_image":{"image_id":11596,"license":5,"license_name":"Attribution-ShareAlike License","license_url":"https://creativecommons.org/licenses/by-sa/2.0/","original_url":"https://perenual.com/storage/species_image/5744_pennisetum_alopecuroides/og/52497036736_fe87dedf26_b.jpg","regular_url":"https://perenual.com/storage/species_image/5744_pennisetum_alopecuroides/regular/52497036736_fe87dedf26_b.jpg","medium_url":"https://perenual.com/storage/species_image/5744_pennisetum_alopecuroides/medium/52497036736_fe87dedf26_b.jpg","small_url":"https://perenual.com/storage/species_image/5744_pennisetum_alopecuroides/small/52497036736_fe87dedf26_b.jpg","thumbnail":"https://perenual.com/storage/species_image/5744_pennisetum_alopecuroides/thumbnail/52497036736_fe87dedf26_b.jpg"}},{"id":5745,"common_name":"fountain grass","scientific_name":["Pennisetum alopecuroides 'Burgundy Bunny'"],"other_name":null,"cycle":"Perennial","watering":"Frequent","sunlight":["Full sun"," Part sun/part shade"],"default_image":{"image_id":11597,"license":5,"license_name":"Attribution-ShareAlike License","license_url":"https://creativecommons.org/licenses/by-sa/2.0/","original_url":"https://perenual.com/storage/species_image/5750_pennisetum_alopecuroides_little_bunny/og/52203463032_b1777ef41d_b.jpg","regular_url":"https://perenual.com/storage/species_image/5750_pennisetum_alopecuroides_little_bunny/regular/52203463032_b1777ef41d_b.jpg","medium_url":"https://perenual.com/storage/species_image/5750_pennisetum_alopecuroides_little_bunny/medium/52203463032_b1777ef41d_b.jpg","small_url":"https://perenual.com/storage/species_image/5750_pennisetum_alopecuroides_little_bunny/small/52203463032_b1777ef41d_b.jpg","thumbnail":"https://perenual.com/storage/species_image/5750_pennisetum_alopecuroides_little_bunny/thumbnail/52203463032_b1777ef41d_b.jpg"}},{"id":5746,"common_name":"fountain grass","scientific_name":["Pennisetum alopecuroides 'Cassian's Choice'"],"other_name":null,"cycle":"Perennial","watering":"Frequent","sunlight":["Full sun"," Part sun/part shade"],"default_image":{"image_id":9,"license":5,"license_name":"Attribution-ShareAlike License","license_url":"https://creativecommons.org/licenses/by-sa/2.0/","original_url":"https://perenual.com/storage/species_image/2_abies_alba_pyramidalis/og/49255769768_df55596553_b.jpg","regular_url":"https://perenual.com/storage/species_image/2_abies_alba_pyramidalis/regular/49255769768_df55596553_b.jpg","medium_url":"https://perenual.com/storage/species_image/2_abies_alba_pyramidalis/medium/49255769768_df55596553_b.jpg","small_url":"https://perenual.com/storage/species_image/2_abies_alba_pyramidalis/small/49255769768_df55596553_b.jpg","thumbnail":"https://perenual.com/storage/species_image/2_abies_alba_pyramidalis/thumbnail/49255769768_df55596553_b.jpg"}},{"id":5747,"common_name":"fountain grass","scientific_name":["Pennisetum alopecuroides 'Ginger Love'"],"other_name":null,"cycle":"Perennial","watering":"Frequent","sunlight":["Full sun"," Part sun/part shade"],"default_image":{"image_id":9,"license":5,"license_name":"Attribution-ShareAlike License","license_url":"https://creativecommons.org/licenses/by-sa/2.0/","original_url":"https://perenual.com/storage/species_image/2_abies_alba_pyramidalis/og/49255769768_df55596553_b.jpg","regular_url":"https://perenual.com/storage/species_image/2_abies_alba_pyramidalis/regular/49255769768_df55596553_b.jpg","medium_url":"https://perenual.com/storage/species_image/2_abies_alba_pyramidalis/medium/49255769768_df55596553_b.jpg","small_url":"https://perenual.com/storage/species_image/2_abies_alba_pyramidalis/small/49255769768_df55596553_b.jpg","thumbnail":"https://perenual.com/storage/species_image/2_abies_alba_pyramidalis/thumbnail/49255769768_df55596553_b.jpg"}},{"id":5748,"common_name":"fountain grass","scientific_name":["Pennisetum alopecuroides 'Hameln'"],"other_name":null,"cycle":"Perennial","watering":"Frequent","sunlight":["Full sun"," Part sun/part shade"],"default_image":{"image_id":9,"license":5,"license_name":"Attribution-ShareAlike License","license_url":"https://creativecommons.org/licenses/by-sa/2.0/","original_url":"https://perenual.com/storage/species_image/2_abies_alba_pyramidalis/og/49255769768_df55596553_b.jpg","regular_url":"https://perenual.com/storage/species_image/2_abies_alba_pyramidalis/regular/49255769768_df55596553_b.jpg","medium_url":"https://perenual.com/storage/species_image/2_abies_alba_pyramidalis/medium/49255769768_df55596553_b.jpg","small_url":"https://perenual.com/storage/species_image/2_abies_alba_pyramidalis/small/49255769768_df55596553_b.jpg","thumbnail":"https://perenual.com/storage/species_image/2_abies_alba_pyramidalis/thumbnail/49255769768_df55596553_b.jpg"}},{"id":5749,"common_name":"fountain grass","scientific_name":["Pennisetum alopecuroides HUSH PUPPY"],"other_name":null,"cycle":"Perennial","watering":"Frequent","sunlight":["Full sun"," Part sun/part shade"],"default_image":{"image_id":9,"license":5,"license_name":"Attribution-ShareAlike License","license_url":"https://creativecommons.org/licenses/by-sa/2.0/","original_url":"https://perenual.com/storage/species_image/2_abies_alba_pyramidalis/og/49255769768_df55596553_b.jpg","regular_url":"https://perenual.com/storage/species_image/2_abies_alba_pyramidalis/regular/49255769768_df55596553_b.jpg","medium_url":"https://perenual.com/storage/species_image/2_abies_alba_pyramidalis/medium/49255769768_df55596553_b.jpg","small_url":"https://perenual.com/storage/species_image/2_abies_alba_pyramidalis/small/49255769768_df55596553_b.jpg","thumbnail":"https://perenual.com/storage/species_image/2_abies_alba_pyramidalis/thumbnail/49255769768_df55596553_b.jpg"}},{"id":5750,"common_name":"fountain grass","scientific_name":["Pennisetum alopecuroides 'Little Bunny'"],"other_name":null,"cycle":"Perennial","watering":"Frequent","sunlight":["Full sun"," Part sun/part shade"],"default_image":{"image_id":11597,"license":5,"license_name":"Attribution-ShareAlike License","license_url":"https://creativecommons.org/licenses/by-sa/2.0/","original_url":"https://perenual.com/storage/species_image/5750_pennisetum_alopecuroides_little_bunny/og/52203463032_b1777ef41d_b.jpg","regular_url":"https://perenual.com/storage/species_image/5750_pennisetum_alopecuroides_little_bunny/regular/52203463032_b1777ef41d_b.jpg","medium_url":"https://perenual.com/storage/species_image/5750_pennisetum_alopecuroides_little_bunny/medium/52203463032_b1777ef41d_b.jpg","small_url":"https://perenual.com/storage/species_image/5750_pennisetum_alopecuroides_little_bunny/small/52203463032_b1777ef41d_b.jpg","thumbnail":"https://perenual.com/storage/species_image/5750_pennisetum_alopecuroides_little_bunny/thumbnail/52203463032_b1777ef41d_b.jpg"}},{"id":5751,"common_name":"fountain grass","scientific_name":["Pennisetum alopecuroides 'Little Honey'"],"other_name":null,"cycle":"Perennial","watering":"Frequent","sunlight":["Full sun"," Part sun/part shade"],"default_image":{"image_id":9,"license":5,"license_name":"Attribution-ShareAlike License","license_url":"https://creativecommons.org/licenses/by-sa/2.0/","original_url":"https://perenual.com/storage/species_image/2_abies_alba_pyramidalis/og/49255769768_df55596553_b.jpg","regular_url":"https://perenual.com/storage/species_image/2_abies_alba_pyramidalis/regular/49255769768_df55596553_b.jpg","medium_url":"https://perenual.com/storage/species_image/2_abies_alba_pyramidalis/medium/49255769768_df55596553_b.jpg","small_url":"https://perenual.com/storage/species_image/2_abies_alba_pyramidalis/small/49255769768_df55596553_b.jpg","thumbnail":"https://perenual.com/storage/species_image/2_abies_alba_pyramidalis/thumbnail/49255769768_df55596553_b.jpg"}},{"id":5752,"common_name":"fountain grass","scientific_name":["Pennisetum alopecuroides 'Moudry'"],"other_name":null,"cycle":"Perennial","watering":"Frequent","sunlight":["Full sun"," Part sun/part shade"],"default_image":{"image_id":9,"license":5,"license_name":"Attribution-ShareAlike License","license_url":"https://creativecommons.org/licenses/by-sa/2.0/","original_url":"https://perenual.com/storage/species_image/2_abies_alba_pyramidalis/og/49255769768_df55596553_b.jpg","regular_url":"https://perenual.com/storage/species_image/2_abies_alba_pyramidalis/regular/49255769768_df55596553_b.jpg","medium_url":"https://perenual.com/storage/species_image/2_abies_alba_pyramidalis/medium/49255769768_df55596553_b.jpg","small_url":"https://perenual.com/storage/species_image/2_abies_alba_pyramidalis/small/49255769768_df55596553_b.jpg","thumbnail":"https://perenual.com/storage/species_image/2_abies_alba_pyramidalis/thumbnail/49255769768_df55596553_b.jpg"}},{"id":5753,"common_name":"fountain grass","scientific_name":["Pennisetum alopecuroides 'National Arboretum'"],"other_name":null,"cycle":"Perennial","watering":"Frequent","sunlight":["Full sun"," Part sun/part shade"],"default_image":{"image_id":9,"license":5,"license_name":"Attribution-ShareAlike License","license_url":"https://creativecommons.org/licenses/by-sa/2.0/","original_url":"https://perenual.com/storage/species_image/2_abies_alba_pyramidalis/og/49255769768_df55596553_b.jpg","regular_url":"https://perenual.com/storage/species_image/2_abies_alba_pyramidalis/regular/49255769768_df55596553_b.jpg","medium_url":"https://perenual.com/storage/species_image/2_abies_alba_pyramidalis/medium/49255769768_df55596553_b.jpg","small_url":"https://perenual.com/storage/species_image/2_abies_alba_pyramidalis/small/49255769768_df55596553_b.jpg","thumbnail":"https://perenual.com/storage/species_image/2_abies_alba_pyramidalis/thumbnail/49255769768_df55596553_b.jpg"}},{"id":5754,"common_name":"fountain grass","scientific_name":["Pennisetum alopecuroides 'Piglet'"],"other_name":null,"cycle":"Perennial","watering":"Frequent","sunlight":["Full sun"," Part sun/part shade"],"default_image":{"image_id":9,"license":5,"license_name":"Attribution-ShareAlike License","license_url":"https://creativecommons.org/licenses/by-sa/2.0/","original_url":"https://perenual.com/storage/species_image/2_abies_alba_pyramidalis/og/49255769768_df55596553_b.jpg","regular_url":"https://perenual.com/storage/species_image/2_abies_alba_pyramidalis/regular/49255769768_df55596553_b.jpg","medium_url":"https://perenual.com/storage/species_image/2_abies_alba_pyramidalis/medium/49255769768_df55596553_b.jpg","small_url":"https://perenual.com/storage/species_image/2_abies_alba_pyramidalis/small/49255769768_df55596553_b.jpg","thumbnail":"https://perenual.com/storage/species_image/2_abies_alba_pyramidalis/thumbnail/49255769768_df55596553_b.jpg"}},{"id":5755,"common_name":"fountain grass","scientific_name":["Pennisetum alopecuroides 'Red Head'"],"other_name":null,"cycle":"Perennial","watering":"Frequent","sunlight":["Full sun"," Part sun/part shade"],"default_image":{"image_id":11599,"license":5,"license_name":"Attribution-ShareAlike License","license_url":"https://creativecommons.org/licenses/by-sa/2.0/","original_url":"https://perenual.com/storage/species_image/5755_pennisetum_alopecuroides_red_head/og/30225446220_13d16c2eca_b.jpg","regular_url":"https://perenual.com/storage/species_image/5755_pennisetum_alopecuroides_red_head/regular/30225446220_13d16c2eca_b.jpg","medium_url":"https://perenual.com/storage/species_image/5755_pennisetum_alopecuroides_red_head/medium/30225446220_13d16c2eca_b.jpg","small_url":"https://perenual.com/storage/species_image/5755_pennisetum_alopecuroides_red_head/small/30225446220_13d16c2eca_b.jpg","thumbnail":"https://perenual.com/storage/species_image/5755_pennisetum_alopecuroides_red_head/thumbnail/30225446220_13d16c2eca_b.jpg"}},{"id":5756,"common_name":"fountain grass","scientific_name":["Pennisetum alopecuroides 'Red Rocket'"],"other_name":null,"cycle":"Perennial","watering":"Frequent","sunlight":["Full sun"," Part sun/part shade"],"default_image":{"image_id":9,"license":5,"license_name":"Attribution-ShareAlike License","license_url":"https://creativecommons.org/licenses/by-sa/2.0/","original_url":"https://perenual.com/storage/species_image/2_abies_alba_pyramidalis/og/49255769768_df55596553_b.jpg","regular_url":"https://perenual.com/storage/species_image/2_abies_alba_pyramidalis/regular/49255769768_df55596553_b.jpg","medium_url":"https://perenual.com/storage/species_image/2_abies_alba_pyramidalis/medium/49255769768_df55596553_b.jpg","small_url":"https://perenual.com/storage/species_image/2_abies_alba_pyramidalis/small/49255769768_df55596553_b.jpg","thumbnail":"https://perenual.com/storage/species_image/2_abies_alba_pyramidalis/thumbnail/49255769768_df55596553_b.jpg"}},{"id":5757,"common_name":"fountain grass","scientific_name":["Pennisetum alopecuroides 'Weserbergland'"],"other_name":null,"cycle":"Perennial","watering":"Frequent","sunlight":["Full sun"," Part sun/part shade"],"default_image":{"image_id":9,"license":5,"license_name":"Attribution-ShareAlike License","license_url":"https://creativecommons.org/licenses/by-sa/2.0/","original_url":"https://perenual.com/storage/species_image/2_abies_alba_pyramidalis/og/49255769768_df55596553_b.jpg","regular_url":"https://perenual.com/storage/species_image/2_abies_alba_pyramidalis/regular/49255769768_df55596553_b.jpg","medium_url":"https://perenual.com/storage/species_image/2_abies_alba_pyramidalis/medium/49255769768_df55596553_b.jpg","small_url":"https://perenual.com/storage/species_image/2_abies_alba_pyramidalis/small/49255769768_df55596553_b.jpg","thumbnail":"https://perenual.com/storage/species_image/2_abies_alba_pyramidalis/thumbnail/49255769768_df55596553_b.jpg"}},{"id":5758,"common_name":"fountain grass","scientific_name":["Pennisetum 'First Knight'"],"other_name":null,"cycle":"Perennial","watering":"Average","sunlight":["Full sun","part shade"],"default_image":{"image_id":9,"license":5,"license_name":"Attribution-ShareAlike License","license_url":"https://creativecommons.org/licenses/by-sa/2.0/","original_url":"https://perenual.com/storage/species_image/2_abies_alba_pyramidalis/og/49255769768_df55596553_b.jpg","regular_url":"https://perenual.com/storage/species_image/2_abies_alba_pyramidalis/regular/49255769768_df55596553_b.jpg","medium_url":"https://perenual.com/storage/species_image/2_abies_alba_pyramidalis/medium/49255769768_df55596553_b.jpg","small_url":"https://perenual.com/storage/species_image/2_abies_alba_pyramidalis/small/49255769768_df55596553_b.jpg","thumbnail":"https://perenual.com/storage/species_image/2_abies_alba_pyramidalis/thumbnail/49255769768_df55596553_b.jpg"}},{"id":5759,"common_name":"pearl millet","scientific_name":["Pennisetum glaucum 'Purple Baron'"],"other_name":null,"cycle":"Perennial","watering":"Average","sunlight":["Full sun"],"default_image":{"image_id":9,"license":5,"license_name":"Attribution-ShareAlike License","license_url":"https://creativecommons.org/licenses/by-sa/2.0/","original_url":"https://perenual.com/storage/species_image/2_abies_alba_pyramidalis/og/49255769768_df55596553_b.jpg","regular_url":"https://perenual.com/storage/species_image/2_abies_alba_pyramidalis/regular/49255769768_df55596553_b.jpg","medium_url":"https://perenual.com/storage/species_image/2_abies_alba_pyramidalis/medium/49255769768_df55596553_b.jpg","small_url":"https://perenual.com/storage/species_image/2_abies_alba_pyramidalis/small/49255769768_df55596553_b.jpg","thumbnail":"https://perenual.com/storage/species_image/2_abies_alba_pyramidalis/thumbnail/49255769768_df55596553_b.jpg"}},{"id":5760,"common_name":"pearl millet","scientific_name":["Pennisetum glaucum 'Purple Majesty'"],"other_name":null,"cycle":"Perennial","watering":"Average","sunlight":["Full sun"," Part sun/part shade"],"default_image":{"image_id":9,"license":5,"license_name":"Attribution-ShareAlike License","license_url":"https://creativecommons.org/licenses/by-sa/2.0/","original_url":"https://perenual.com/storage/species_image/2_abies_alba_pyramidalis/og/49255769768_df55596553_b.jpg","regular_url":"https://perenual.com/storage/species_image/2_abies_alba_pyramidalis/regular/49255769768_df55596553_b.jpg","medium_url":"https://perenual.com/storage/species_image/2_abies_alba_pyramidalis/medium/49255769768_df55596553_b.jpg","small_url":"https://perenual.com/storage/species_image/2_abies_alba_pyramidalis/small/49255769768_df55596553_b.jpg","thumbnail":"https://perenual.com/storage/species_image/2_abies_alba_pyramidalis/thumbnail/49255769768_df55596553_b.jpg"}}],"to":5760,"per_page":30,"current_page":192,"from":5731,"last_page":200,"total":6000}