{"data":[{"id":2941,"common_name":"tall fescue","scientific_name":["Festuca arundinacea (mix)"],"other_name":null,"cycle":"Perennial","watering":"Average","sunlight":["Full sun"],"default_image":{"image_id":9,"license":5,"license_name":"Attribution-ShareAlike License","license_url":"https://creativecommons.org/licenses/by-sa/2.0/","original_url":"https://perenual.com/storage/species_image/2_abies_alba_pyramidalis/og/49255769768_df55596553_b.jpg","regular_url":"https://perenual.com/storage/species_image/2_abies_alba_pyramidalis/regular/49255769768_df55596553_b.jpg","medium_url":"https://perenual.com/storage/species_image/2_abies_alba_pyramidalis/medium/49255769768_df55596553_b.jpg","small_url":"https://perenual.com/storage/species_image/2_abies_alba_pyramidalis/small/49255769768_df55596553_b.jpg","thumbnail":"https://perenual.com/storage/species_image/2_abies_alba_pyramidalis/thumbnail/49255769768_df55596553_b.jpg"}},{"id":2942,"common_name":"tall fescue","scientific_name":["Festuca arundinacea PROSCAPE WINNING COLORS"],"other_name":null,"cycle":"Perennial","watering":"Average","sunlight":["Full sun"],"default_image":{"image_id":6375,"license":5,"license_name":"Attribution-ShareAlike License","license_url":"https://creativecommons.org/licenses/by-sa/2.0/","original_url":"https://perenual.com/storage/species_image/2942_festuca_arundinacea_proscape_winning_colors/og/28615142442_1f3599a742_b.jpg","regular_url":"https://perenual.com/storage/species_image/2942_festuca_arundinacea_proscape_winning_colors/regular/28615142442_1f3599a742_b.jpg","medium_url":"https://perenual.com/storage/species_image/2942_festuca_arundinacea_proscape_winning_colors/medium/28615142442_1f3599a742_b.jpg","small_url":"https://perenual.com/storage/species_image/2942_festuca_arundinacea_proscape_winning_colors/small/28615142442_1f3599a742_b.jpg","thumbnail":"https://perenual.com/storage/species_image/2942_festuca_arundinacea_proscape_winning_colors/thumbnail/28615142442_1f3599a742_b.jpg"}},{"id":2943,"common_name":"fescue","scientific_name":["Festuca arundinacea WATER SAVER"],"other_name":null,"cycle":"Perennial","watering":"Average","sunlight":["Full sun"],"default_image":{"image_id":9,"license":5,"license_name":"Attribution-ShareAlike License","license_url":"https://creativecommons.org/licenses/by-sa/2.0/","original_url":"https://perenual.com/storage/species_image/2_abies_alba_pyramidalis/og/49255769768_df55596553_b.jpg","regular_url":"https://perenual.com/storage/species_image/2_abies_alba_pyramidalis/regular/49255769768_df55596553_b.jpg","medium_url":"https://perenual.com/storage/species_image/2_abies_alba_pyramidalis/medium/49255769768_df55596553_b.jpg","small_url":"https://perenual.com/storage/species_image/2_abies_alba_pyramidalis/small/49255769768_df55596553_b.jpg","thumbnail":"https://perenual.com/storage/species_image/2_abies_alba_pyramidalis/thumbnail/49255769768_df55596553_b.jpg"}},{"id":2944,"common_name":"tall fescue","scientific_name":["Festuca 'Cool as Ice'"],"other_name":null,"cycle":"Perennial","watering":"Minimum","sunlight":["Full sun","part shade"],"default_image":{"image_id":9,"license":5,"license_name":"Attribution-ShareAlike License","license_url":"https://creativecommons.org/licenses/by-sa/2.0/","original_url":"https://perenual.com/storage/species_image/2_abies_alba_pyramidalis/og/49255769768_df55596553_b.jpg","regular_url":"https://perenual.com/storage/species_image/2_abies_alba_pyramidalis/regular/49255769768_df55596553_b.jpg","medium_url":"https://perenual.com/storage/species_image/2_abies_alba_pyramidalis/medium/49255769768_df55596553_b.jpg","small_url":"https://perenual.com/storage/species_image/2_abies_alba_pyramidalis/small/49255769768_df55596553_b.jpg","thumbnail":"https://perenual.com/storage/species_image/2_abies_alba_pyramidalis/thumbnail/49255769768_df55596553_b.jpg"}},{"id":2945,"common_name":"blue fescue","scientific_name":["Festuca glauca"],"other_name":null,"cycle":"Perennial","watering":"Minimum","sunlight":["Full sun"],"default_image":{"image_id":9,"license":5,"license_name":"Attribution-ShareAlike License","license_url":"https://creativecommons.org/licenses/by-sa/2.0/","original_url":"https://perenual.com/storage/species_image/2_abies_alba_pyramidalis/og/49255769768_df55596553_b.jpg","regular_url":"https://perenual.com/storage/species_image/2_abies_alba_pyramidalis/regular/49255769768_df55596553_b.jpg","medium_url":"https://perenual.com/storage/species_image/2_abies_alba_pyramidalis/medium/49255769768_df55596553_b.jpg","small_url":"https://perenual.com/storage/species_image/2_abies_alba_pyramidalis/small/49255769768_df55596553_b.jpg","thumbnail":"https://perenual.com/storage/species_image/2_abies_alba_pyramidalis/thumbnail/49255769768_df55596553_b.jpg"}},{"id":2946,"common_name":"blue fescue","scientific_name":["Festuca glauca 'Boulder Blue'"],"other_name":null,"cycle":"Perennial","watering":"Minimum","sunlight":["Full sun"],"default_image":{"image_id":9,"license":5,"license_name":"Attribution-ShareAlike License","license_url":"https://creativecommons.org/licenses/by-sa/2.0/","original_url":"https://perenual.com/storage/species_image/2_abies_alba_pyramidalis/og/49255769768_df55596553_b.jpg","regular_url":"https://perenual.com/storage/species_image/2_abies_alba_pyramidalis/regular/49255769768_df55596553_b.jpg","medium_url":"https://perenual.com/storage/species_image/2_abies_alba_pyramidalis/medium/49255769768_df55596553_b.jpg","small_url":"https://perenual.com/storage/species_image/2_abies_alba_pyramidalis/small/49255769768_df55596553_b.jpg","thumbnail":"https://perenual.com/storage/species_image/2_abies_alba_pyramidalis/thumbnail/49255769768_df55596553_b.jpg"}},{"id":2947,"common_name":"blue fescue","scientific_name":["Festuca glauca 'Casca11' BEYOND BLUE"],"other_name":null,"cycle":"Perennial","watering":"Minimum","sunlight":["Full sun"],"default_image":{"image_id":9,"license":5,"license_name":"Attribution-ShareAlike License","license_url":"https://creativecommons.org/licenses/by-sa/2.0/","original_url":"https://perenual.com/storage/species_image/2_abies_alba_pyramidalis/og/49255769768_df55596553_b.jpg","regular_url":"https://perenual.com/storage/species_image/2_abies_alba_pyramidalis/regular/49255769768_df55596553_b.jpg","medium_url":"https://perenual.com/storage/species_image/2_abies_alba_pyramidalis/medium/49255769768_df55596553_b.jpg","small_url":"https://perenual.com/storage/species_image/2_abies_alba_pyramidalis/small/49255769768_df55596553_b.jpg","thumbnail":"https://perenual.com/storage/species_image/2_abies_alba_pyramidalis/thumbnail/49255769768_df55596553_b.jpg"}},{"id":2948,"common_name":"blue fescue","scientific_name":["Festuca glauca 'Elijah Blue'"],"other_name":null,"cycle":"Perennial","watering":"Minimum","sunlight":["Full sun"],"default_image":{"image_id":6379,"license":5,"license_name":"Attribution-ShareAlike License","license_url":"https://creativecommons.org/licenses/by-sa/2.0/","original_url":"https://perenual.com/storage/species_image/2948_festuca_glauca_elijah_blue/og/3712203176_fa9a9a15af_b.jpg","regular_url":"https://perenual.com/storage/species_image/2948_festuca_glauca_elijah_blue/regular/3712203176_fa9a9a15af_b.jpg","medium_url":"https://perenual.com/storage/species_image/2948_festuca_glauca_elijah_blue/medium/3712203176_fa9a9a15af_b.jpg","small_url":"https://perenual.com/storage/species_image/2948_festuca_glauca_elijah_blue/small/3712203176_fa9a9a15af_b.jpg","thumbnail":"https://perenual.com/storage/species_image/2948_festuca_glauca_elijah_blue/thumbnail/3712203176_fa9a9a15af_b.jpg"}},{"id":2949,"common_name":"blue fescue","scientific_name":["Festuca glauca 'Golden Toupee'"],"other_name":null,"cycle":"Perennial","watering":"Minimum","sunlight":["Full sun"],"default_image":{"image_id":9,"license":5,"license_name":"Attribution-ShareAlike License","license_url":"https://creativecommons.org/licenses/by-sa/2.0/","original_url":"https://perenual.com/storage/species_image/2_abies_alba_pyramidalis/og/49255769768_df55596553_b.jpg","regular_url":"https://perenual.com/storage/species_image/2_abies_alba_pyramidalis/regular/49255769768_df55596553_b.jpg","medium_url":"https://perenual.com/storage/species_image/2_abies_alba_pyramidalis/medium/49255769768_df55596553_b.jpg","small_url":"https://perenual.com/storage/species_image/2_abies_alba_pyramidalis/small/49255769768_df55596553_b.jpg","thumbnail":"https://perenual.com/storage/species_image/2_abies_alba_pyramidalis/thumbnail/49255769768_df55596553_b.jpg"}},{"id":2950,"common_name":"blue fescue","scientific_name":["Festuca glauca 'Seeigel' SEA URCHIN"],"other_name":null,"cycle":"Perennial","watering":"Minimum","sunlight":["Full sun"],"default_image":{"image_id":9,"license":5,"license_name":"Attribution-ShareAlike License","license_url":"https://creativecommons.org/licenses/by-sa/2.0/","original_url":"https://perenual.com/storage/species_image/2_abies_alba_pyramidalis/og/49255769768_df55596553_b.jpg","regular_url":"https://perenual.com/storage/species_image/2_abies_alba_pyramidalis/regular/49255769768_df55596553_b.jpg","medium_url":"https://perenual.com/storage/species_image/2_abies_alba_pyramidalis/medium/49255769768_df55596553_b.jpg","small_url":"https://perenual.com/storage/species_image/2_abies_alba_pyramidalis/small/49255769768_df55596553_b.jpg","thumbnail":"https://perenual.com/storage/species_image/2_abies_alba_pyramidalis/thumbnail/49255769768_df55596553_b.jpg"}},{"id":2951,"common_name":"hard fescue","scientific_name":["Festuca longifolia"],"other_name":["fine fescue"],"cycle":"Perennial","watering":"Minimum","sunlight":[],"default_image":{"image_id":6381,"license":45,"license_name":"Attribution-ShareAlike 3.0 Unported (CC BY-SA 3.0)","license_url":"https://creativecommons.org/licenses/by-sa/3.0/deed.en","original_url":"https://perenual.com/storage/species_image/2951_festuca_longifolia/og/Festuca_polesica.jpg","regular_url":"https://perenual.com/storage/species_image/2951_festuca_longifolia/regular/Festuca_polesica.jpg","medium_url":"https://perenual.com/storage/species_image/2951_festuca_longifolia/medium/Festuca_polesica.jpg","small_url":"https://perenual.com/storage/species_image/2951_festuca_longifolia/small/Festuca_polesica.jpg","thumbnail":"https://perenual.com/storage/species_image/2951_festuca_longifolia/thumbnail/Festuca_polesica.jpg"}},{"id":2952,"common_name":"red fescue","scientific_name":["Festuca rubra 'Pennlawn'"],"other_name":null,"cycle":"Perennial","watering":"Average","sunlight":["Part shade"],"default_image":{"image_id":9,"license":5,"license_name":"Attribution-ShareAlike License","license_url":"https://creativecommons.org/licenses/by-sa/2.0/","original_url":"https://perenual.com/storage/species_image/2_abies_alba_pyramidalis/og/49255769768_df55596553_b.jpg","regular_url":"https://perenual.com/storage/species_image/2_abies_alba_pyramidalis/regular/49255769768_df55596553_b.jpg","medium_url":"https://perenual.com/storage/species_image/2_abies_alba_pyramidalis/medium/49255769768_df55596553_b.jpg","small_url":"https://perenual.com/storage/species_image/2_abies_alba_pyramidalis/small/49255769768_df55596553_b.jpg","thumbnail":"https://perenual.com/storage/species_image/2_abies_alba_pyramidalis/thumbnail/49255769768_df55596553_b.jpg"}},{"id":2953,"common_name":"fig buttercup","scientific_name":["Ficaria verna"],"other_name":null,"cycle":"Perennial","watering":"Frequent","sunlight":["Full sun","part shade"],"default_image":{"image_id":9,"license":5,"license_name":"Attribution-ShareAlike License","license_url":"https://creativecommons.org/licenses/by-sa/2.0/","original_url":"https://perenual.com/storage/species_image/2_abies_alba_pyramidalis/og/49255769768_df55596553_b.jpg","regular_url":"https://perenual.com/storage/species_image/2_abies_alba_pyramidalis/regular/49255769768_df55596553_b.jpg","medium_url":"https://perenual.com/storage/species_image/2_abies_alba_pyramidalis/medium/49255769768_df55596553_b.jpg","small_url":"https://perenual.com/storage/species_image/2_abies_alba_pyramidalis/small/49255769768_df55596553_b.jpg","thumbnail":"https://perenual.com/storage/species_image/2_abies_alba_pyramidalis/thumbnail/49255769768_df55596553_b.jpg"}},{"id":2954,"common_name":"weeping fig","scientific_name":["Ficus benjamina"],"other_name":["weeping fig"],"cycle":"Perennial","watering":"Average","sunlight":["Part sun/part shade"],"default_image":{"image_id":6384,"license":5,"license_name":"Attribution-ShareAlike License","license_url":"https://creativecommons.org/licenses/by-sa/2.0/","original_url":"https://perenual.com/storage/species_image/2954_ficus_benjamina/og/48923602057_6c919e42f1_b.jpg","regular_url":"https://perenual.com/storage/species_image/2954_ficus_benjamina/regular/48923602057_6c919e42f1_b.jpg","medium_url":"https://perenual.com/storage/species_image/2954_ficus_benjamina/medium/48923602057_6c919e42f1_b.jpg","small_url":"https://perenual.com/storage/species_image/2954_ficus_benjamina/small/48923602057_6c919e42f1_b.jpg","thumbnail":"https://perenual.com/storage/species_image/2954_ficus_benjamina/thumbnail/48923602057_6c919e42f1_b.jpg"}},{"id":2955,"common_name":"weeping fig","scientific_name":["Ficus benjamina 'Variegata'"],"other_name":["weeping fig"],"cycle":"Perennial","watering":"Average","sunlight":["Part sun/part shade"],"default_image":{"image_id":9,"license":5,"license_name":"Attribution-ShareAlike License","license_url":"https://creativecommons.org/licenses/by-sa/2.0/","original_url":"https://perenual.com/storage/species_image/2_abies_alba_pyramidalis/og/49255769768_df55596553_b.jpg","regular_url":"https://perenual.com/storage/species_image/2_abies_alba_pyramidalis/regular/49255769768_df55596553_b.jpg","medium_url":"https://perenual.com/storage/species_image/2_abies_alba_pyramidalis/medium/49255769768_df55596553_b.jpg","small_url":"https://perenual.com/storage/species_image/2_abies_alba_pyramidalis/small/49255769768_df55596553_b.jpg","thumbnail":"https://perenual.com/storage/species_image/2_abies_alba_pyramidalis/thumbnail/49255769768_df55596553_b.jpg"}},{"id":2956,"common_name":"fig","scientific_name":["Ficus carica 'Brown Turkey'"],"other_name":["garden fig"],"cycle":"Perennial","watering":"Average","sunlight":["Full sun"],"default_image":{"image_id":6390,"license":4,"license_name":"Attribution License","license_url":"https://creativecommons.org/licenses/by/2.0/","original_url":"https://perenual.com/storage/species_image/2956_ficus_carica_brown_turkey/og/24950994930_238a64dd6b_b.jpg","regular_url":"https://perenual.com/storage/species_image/2956_ficus_carica_brown_turkey/regular/24950994930_238a64dd6b_b.jpg","medium_url":"https://perenual.com/storage/species_image/2956_ficus_carica_brown_turkey/medium/24950994930_238a64dd6b_b.jpg","small_url":"https://perenual.com/storage/species_image/2956_ficus_carica_brown_turkey/small/24950994930_238a64dd6b_b.jpg","thumbnail":"https://perenual.com/storage/species_image/2956_ficus_carica_brown_turkey/thumbnail/24950994930_238a64dd6b_b.jpg"}},{"id":2957,"common_name":"fig","scientific_name":["Ficus carica 'Celeste'"],"other_name":["garden fig"],"cycle":"Perennial","watering":"Average","sunlight":["Full sun"],"default_image":{"image_id":9,"license":5,"license_name":"Attribution-ShareAlike License","license_url":"https://creativecommons.org/licenses/by-sa/2.0/","original_url":"https://perenual.com/storage/species_image/2_abies_alba_pyramidalis/og/49255769768_df55596553_b.jpg","regular_url":"https://perenual.com/storage/species_image/2_abies_alba_pyramidalis/regular/49255769768_df55596553_b.jpg","medium_url":"https://perenual.com/storage/species_image/2_abies_alba_pyramidalis/medium/49255769768_df55596553_b.jpg","small_url":"https://perenual.com/storage/species_image/2_abies_alba_pyramidalis/small/49255769768_df55596553_b.jpg","thumbnail":"https://perenual.com/storage/species_image/2_abies_alba_pyramidalis/thumbnail/49255769768_df55596553_b.jpg"}},{"id":2958,"common_name":"fig","scientific_name":["Ficus carica 'Chicago Hardy'"],"other_name":["garden fig"],"cycle":"Perennial","watering":"Average","sunlight":["Full sun"],"default_image":{"image_id":9,"license":5,"license_name":"Attribution-ShareAlike License","license_url":"https://creativecommons.org/licenses/by-sa/2.0/","original_url":"https://perenual.com/storage/species_image/2_abies_alba_pyramidalis/og/49255769768_df55596553_b.jpg","regular_url":"https://perenual.com/storage/species_image/2_abies_alba_pyramidalis/regular/49255769768_df55596553_b.jpg","medium_url":"https://perenual.com/storage/species_image/2_abies_alba_pyramidalis/medium/49255769768_df55596553_b.jpg","small_url":"https://perenual.com/storage/species_image/2_abies_alba_pyramidalis/small/49255769768_df55596553_b.jpg","thumbnail":"https://perenual.com/storage/species_image/2_abies_alba_pyramidalis/thumbnail/49255769768_df55596553_b.jpg"}},{"id":2959,"common_name":"fig","scientific_name":["Ficus carica 'MAJOAM' LITTLE MISS FIGGY"],"other_name":["garden fig"],"cycle":"Perennial","watering":"Average","sunlight":["Full sun"],"default_image":{"image_id":9,"license":5,"license_name":"Attribution-ShareAlike License","license_url":"https://creativecommons.org/licenses/by-sa/2.0/","original_url":"https://perenual.com/storage/species_image/2_abies_alba_pyramidalis/og/49255769768_df55596553_b.jpg","regular_url":"https://perenual.com/storage/species_image/2_abies_alba_pyramidalis/regular/49255769768_df55596553_b.jpg","medium_url":"https://perenual.com/storage/species_image/2_abies_alba_pyramidalis/medium/49255769768_df55596553_b.jpg","small_url":"https://perenual.com/storage/species_image/2_abies_alba_pyramidalis/small/49255769768_df55596553_b.jpg","thumbnail":"https://perenual.com/storage/species_image/2_abies_alba_pyramidalis/thumbnail/49255769768_df55596553_b.jpg"}},{"id":2960,"common_name":"common fig","scientific_name":["Ficus carica 'Petite Negra'"],"other_name":["garden fig"],"cycle":"Perennial","watering":"Average","sunlight":["Full sun"],"default_image":{"image_id":9,"license":5,"license_name":"Attribution-ShareAlike License","license_url":"https://creativecommons.org/licenses/by-sa/2.0/","original_url":"https://perenual.com/storage/species_image/2_abies_alba_pyramidalis/og/49255769768_df55596553_b.jpg","regular_url":"https://perenual.com/storage/species_image/2_abies_alba_pyramidalis/regular/49255769768_df55596553_b.jpg","medium_url":"https://perenual.com/storage/species_image/2_abies_alba_pyramidalis/medium/49255769768_df55596553_b.jpg","small_url":"https://perenual.com/storage/species_image/2_abies_alba_pyramidalis/small/49255769768_df55596553_b.jpg","thumbnail":"https://perenual.com/storage/species_image/2_abies_alba_pyramidalis/thumbnail/49255769768_df55596553_b.jpg"}},{"id":2961,"common_name":"Indian rubberplant","scientific_name":["Ficus elastica"],"other_name":["India rubber plant","rubber tree"],"cycle":"Perennial","watering":"Average","sunlight":["Part shade"],"default_image":{"image_id":9,"license":5,"license_name":"Attribution-ShareAlike License","license_url":"https://creativecommons.org/licenses/by-sa/2.0/","original_url":"https://perenual.com/storage/species_image/2_abies_alba_pyramidalis/og/49255769768_df55596553_b.jpg","regular_url":"https://perenual.com/storage/species_image/2_abies_alba_pyramidalis/regular/49255769768_df55596553_b.jpg","medium_url":"https://perenual.com/storage/species_image/2_abies_alba_pyramidalis/medium/49255769768_df55596553_b.jpg","small_url":"https://perenual.com/storage/species_image/2_abies_alba_pyramidalis/small/49255769768_df55596553_b.jpg","thumbnail":"https://perenual.com/storage/species_image/2_abies_alba_pyramidalis/thumbnail/49255769768_df55596553_b.jpg"}},{"id":2962,"common_name":"India rubber plant","scientific_name":["Ficus elastica 'Burgundy'"],"other_name":null,"cycle":"Perennial","watering":"Average","sunlight":["Part shade"],"default_image":{"image_id":9,"license":5,"license_name":"Attribution-ShareAlike License","license_url":"https://creativecommons.org/licenses/by-sa/2.0/","original_url":"https://perenual.com/storage/species_image/2_abies_alba_pyramidalis/og/49255769768_df55596553_b.jpg","regular_url":"https://perenual.com/storage/species_image/2_abies_alba_pyramidalis/regular/49255769768_df55596553_b.jpg","medium_url":"https://perenual.com/storage/species_image/2_abies_alba_pyramidalis/medium/49255769768_df55596553_b.jpg","small_url":"https://perenual.com/storage/species_image/2_abies_alba_pyramidalis/small/49255769768_df55596553_b.jpg","thumbnail":"https://perenual.com/storage/species_image/2_abies_alba_pyramidalis/thumbnail/49255769768_df55596553_b.jpg"}},{"id":2963,"common_name":"fiddle-leaf fig","scientific_name":["Ficus lyrata"],"other_name":null,"cycle":"Perennial","watering":"Average","sunlight":["Part shade"],"default_image":{"image_id":6400,"license":4,"license_name":"Attribution License","license_url":"https://creativecommons.org/licenses/by/2.0/","original_url":"https://perenual.com/storage/species_image/2963_ficus_lyrata/og/48139747872_36fa010c48_b.jpg","regular_url":"https://perenual.com/storage/species_image/2963_ficus_lyrata/regular/48139747872_36fa010c48_b.jpg","medium_url":"https://perenual.com/storage/species_image/2963_ficus_lyrata/medium/48139747872_36fa010c48_b.jpg","small_url":"https://perenual.com/storage/species_image/2963_ficus_lyrata/small/48139747872_36fa010c48_b.jpg","thumbnail":"https://perenual.com/storage/species_image/2963_ficus_lyrata/thumbnail/48139747872_36fa010c48_b.jpg"}},{"id":2964,"common_name":"rock fig","scientific_name":["Ficus petiolaris"],"other_name":null,"cycle":"Perennial","watering":"Average","sunlight":["Full sun","part shade"],"default_image":{"image_id":9,"license":5,"license_name":"Attribution-ShareAlike License","license_url":"https://creativecommons.org/licenses/by-sa/2.0/","original_url":"https://perenual.com/storage/species_image/2_abies_alba_pyramidalis/og/49255769768_df55596553_b.jpg","regular_url":"https://perenual.com/storage/species_image/2_abies_alba_pyramidalis/regular/49255769768_df55596553_b.jpg","medium_url":"https://perenual.com/storage/species_image/2_abies_alba_pyramidalis/medium/49255769768_df55596553_b.jpg","small_url":"https://perenual.com/storage/species_image/2_abies_alba_pyramidalis/small/49255769768_df55596553_b.jpg","thumbnail":"https://perenual.com/storage/species_image/2_abies_alba_pyramidalis/thumbnail/49255769768_df55596553_b.jpg"}},{"id":2965,"common_name":"climbing fig","scientific_name":["Ficus pumila"],"other_name":null,"cycle":"Perennial","watering":"Average","sunlight":["Full sun only if soil kept moist"," Part sun/part shade"],"default_image":{"image_id":6412,"license":5,"license_name":"Attribution-ShareAlike License","license_url":"https://creativecommons.org/licenses/by-sa/2.0/","original_url":"https://perenual.com/storage/species_image/2965_ficus_pumila/og/49109063727_f18da1075f_b.jpg","regular_url":"https://perenual.com/storage/species_image/2965_ficus_pumila/regular/49109063727_f18da1075f_b.jpg","medium_url":"https://perenual.com/storage/species_image/2965_ficus_pumila/medium/49109063727_f18da1075f_b.jpg","small_url":"https://perenual.com/storage/species_image/2965_ficus_pumila/small/49109063727_f18da1075f_b.jpg","thumbnail":"https://perenual.com/storage/species_image/2965_ficus_pumila/thumbnail/49109063727_f18da1075f_b.jpg"}},{"id":2966,"common_name":"sacred bo tree","scientific_name":["Ficus religiosa"],"other_name":null,"cycle":"Perennial","watering":"Average","sunlight":["Full sun"],"default_image":{"image_id":6418,"license":5,"license_name":"Attribution-ShareAlike License","license_url":"https://creativecommons.org/licenses/by-sa/2.0/","original_url":"https://perenual.com/storage/species_image/2966_ficus_religiosa/og/4592316774_63b8b635ca_b.jpg","regular_url":"https://perenual.com/storage/species_image/2966_ficus_religiosa/regular/4592316774_63b8b635ca_b.jpg","medium_url":"https://perenual.com/storage/species_image/2966_ficus_religiosa/medium/4592316774_63b8b635ca_b.jpg","small_url":"https://perenual.com/storage/species_image/2966_ficus_religiosa/small/4592316774_63b8b635ca_b.jpg","thumbnail":"https://perenual.com/storage/species_image/2966_ficus_religiosa/thumbnail/4592316774_63b8b635ca_b.jpg"}},{"id":2967,"common_name":"meadowsweet","scientific_name":["Filipendula denudata"],"other_name":null,"cycle":"Perennial","watering":"Frequent","sunlight":["Full sun","part shade"],"default_image":{"image_id":6422,"license":5,"license_name":"Attribution-ShareAlike License","license_url":"https://creativecommons.org/licenses/by-sa/2.0/","original_url":"https://perenual.com/storage/species_image/2967_filipendula_denudata/og/51447248268_14dd0f2562_b.jpg","regular_url":"https://perenual.com/storage/species_image/2967_filipendula_denudata/regular/51447248268_14dd0f2562_b.jpg","medium_url":"https://perenual.com/storage/species_image/2967_filipendula_denudata/medium/51447248268_14dd0f2562_b.jpg","small_url":"https://perenual.com/storage/species_image/2967_filipendula_denudata/small/51447248268_14dd0f2562_b.jpg","thumbnail":"https://perenual.com/storage/species_image/2967_filipendula_denudata/thumbnail/51447248268_14dd0f2562_b.jpg"}},{"id":2968,"common_name":"meadowsweet","scientific_name":["Filipendula 'Kahome'"],"other_name":null,"cycle":"Perennial","watering":"Frequent","sunlight":["Full sun","part shade"],"default_image":{"image_id":6423,"license":4,"license_name":"Attribution License","license_url":"https://creativecommons.org/licenses/by/2.0/","original_url":"https://perenual.com/storage/species_image/2968_filipendula_kahome/og/52166801915_8c8077e3a6_b.jpg","regular_url":"https://perenual.com/storage/species_image/2968_filipendula_kahome/regular/52166801915_8c8077e3a6_b.jpg","medium_url":"https://perenual.com/storage/species_image/2968_filipendula_kahome/medium/52166801915_8c8077e3a6_b.jpg","small_url":"https://perenual.com/storage/species_image/2968_filipendula_kahome/small/52166801915_8c8077e3a6_b.jpg","thumbnail":"https://perenual.com/storage/species_image/2968_filipendula_kahome/thumbnail/52166801915_8c8077e3a6_b.jpg"}},{"id":2969,"common_name":"meadowsweet","scientific_name":["Filipendula purpurea 'Elegans'"],"other_name":null,"cycle":"Perennial","watering":"Frequent","sunlight":["Full sun"],"default_image":{"image_id":6424,"license":4,"license_name":"Attribution License","license_url":"https://creativecommons.org/licenses/by/2.0/","original_url":"https://perenual.com/storage/species_image/2969_filipendula_purpurea_elegans/og/29330162977_8ec6c8e73b_b.jpg","regular_url":"https://perenual.com/storage/species_image/2969_filipendula_purpurea_elegans/regular/29330162977_8ec6c8e73b_b.jpg","medium_url":"https://perenual.com/storage/species_image/2969_filipendula_purpurea_elegans/medium/29330162977_8ec6c8e73b_b.jpg","small_url":"https://perenual.com/storage/species_image/2969_filipendula_purpurea_elegans/small/29330162977_8ec6c8e73b_b.jpg","thumbnail":"https://perenual.com/storage/species_image/2969_filipendula_purpurea_elegans/thumbnail/29330162977_8ec6c8e73b_b.jpg"}},{"id":2970,"common_name":"queen of the prairie","scientific_name":["Filipendula rubra"],"other_name":null,"cycle":"Perennial","watering":"Frequent","sunlight":["Full sun","part shade"],"default_image":{"image_id":6425,"license":5,"license_name":"Attribution-ShareAlike License","license_url":"https://creativecommons.org/licenses/by-sa/2.0/","original_url":"https://perenual.com/storage/species_image/2970_filipendula_rubra/og/51294407118_8de128012a_b.jpg","regular_url":"https://perenual.com/storage/species_image/2970_filipendula_rubra/regular/51294407118_8de128012a_b.jpg","medium_url":"https://perenual.com/storage/species_image/2970_filipendula_rubra/medium/51294407118_8de128012a_b.jpg","small_url":"https://perenual.com/storage/species_image/2970_filipendula_rubra/small/51294407118_8de128012a_b.jpg","thumbnail":"https://perenual.com/storage/species_image/2970_filipendula_rubra/thumbnail/51294407118_8de128012a_b.jpg"}}],"to":2970,"per_page":30,"current_page":99,"from":2941,"last_page":200,"total":6000}