{"data":[{"id":2851,"common_name":"euonymus","scientific_name":["Euonymus japonicus"],"other_name":null,"cycle":"Perennial","watering":"Average","sunlight":["Full sun","part shade"],"default_image":{"image_id":6219,"license":5,"license_name":"Attribution-ShareAlike License","license_url":"https://creativecommons.org/licenses/by-sa/2.0/","original_url":"https://perenual.com/storage/species_image/2851_euonymus_japonicus/og/51566429035_41a33ca94a_b.jpg","regular_url":"https://perenual.com/storage/species_image/2851_euonymus_japonicus/regular/51566429035_41a33ca94a_b.jpg","medium_url":"https://perenual.com/storage/species_image/2851_euonymus_japonicus/medium/51566429035_41a33ca94a_b.jpg","small_url":"https://perenual.com/storage/species_image/2851_euonymus_japonicus/small/51566429035_41a33ca94a_b.jpg","thumbnail":"https://perenual.com/storage/species_image/2851_euonymus_japonicus/thumbnail/51566429035_41a33ca94a_b.jpg"}},{"id":2852,"common_name":"euonymus","scientific_name":["Euonymus japonicus 'Green Spire'"],"other_name":null,"cycle":"Perennial","watering":"Average","sunlight":["Full sun","part shade"],"default_image":{"image_id":6223,"license":5,"license_name":"Attribution-ShareAlike License","license_url":"https://creativecommons.org/licenses/by-sa/2.0/","original_url":"https://perenual.com/storage/species_image/2852_euonymus_japonicus_green_spire/og/7161607935_296f9a7fc6_b.jpg","regular_url":"https://perenual.com/storage/species_image/2852_euonymus_japonicus_green_spire/regular/7161607935_296f9a7fc6_b.jpg","medium_url":"https://perenual.com/storage/species_image/2852_euonymus_japonicus_green_spire/medium/7161607935_296f9a7fc6_b.jpg","small_url":"https://perenual.com/storage/species_image/2852_euonymus_japonicus_green_spire/small/7161607935_296f9a7fc6_b.jpg","thumbnail":"https://perenual.com/storage/species_image/2852_euonymus_japonicus_green_spire/thumbnail/7161607935_296f9a7fc6_b.jpg"}},{"id":2853,"common_name":"euonymus","scientific_name":["Euonymus japonicus 'Rykujo'"],"other_name":null,"cycle":"Perennial","watering":"Average","sunlight":["Full sun","part shade"],"default_image":{"image_id":9,"license":5,"license_name":"Attribution-ShareAlike License","license_url":"https://creativecommons.org/licenses/by-sa/2.0/","original_url":"https://perenual.com/storage/species_image/2_abies_alba_pyramidalis/og/49255769768_df55596553_b.jpg","regular_url":"https://perenual.com/storage/species_image/2_abies_alba_pyramidalis/regular/49255769768_df55596553_b.jpg","medium_url":"https://perenual.com/storage/species_image/2_abies_alba_pyramidalis/medium/49255769768_df55596553_b.jpg","small_url":"https://perenual.com/storage/species_image/2_abies_alba_pyramidalis/small/49255769768_df55596553_b.jpg","thumbnail":"https://perenual.com/storage/species_image/2_abies_alba_pyramidalis/thumbnail/49255769768_df55596553_b.jpg"}},{"id":2854,"common_name":"euonymus","scientific_name":["Euonymus kiautschovicus 'Manhattan'"],"other_name":null,"cycle":"Perennial","watering":"Average","sunlight":["Full sun","part shade"],"default_image":{"image_id":9,"license":5,"license_name":"Attribution-ShareAlike License","license_url":"https://creativecommons.org/licenses/by-sa/2.0/","original_url":"https://perenual.com/storage/species_image/2_abies_alba_pyramidalis/og/49255769768_df55596553_b.jpg","regular_url":"https://perenual.com/storage/species_image/2_abies_alba_pyramidalis/regular/49255769768_df55596553_b.jpg","medium_url":"https://perenual.com/storage/species_image/2_abies_alba_pyramidalis/medium/49255769768_df55596553_b.jpg","small_url":"https://perenual.com/storage/species_image/2_abies_alba_pyramidalis/small/49255769768_df55596553_b.jpg","thumbnail":"https://perenual.com/storage/species_image/2_abies_alba_pyramidalis/thumbnail/49255769768_df55596553_b.jpg"}},{"id":2855,"common_name":"tall thoroughwort","scientific_name":["Eupatorium altissimum"],"other_name":null,"cycle":"Perennial","watering":"Minimum","sunlight":["Full sun","part shade"],"default_image":{"image_id":6226,"license":5,"license_name":"Attribution-ShareAlike License","license_url":"https://creativecommons.org/licenses/by-sa/2.0/","original_url":"https://perenual.com/storage/species_image/2855_eupatorium_altissimum/og/3293238908_5c6107429d_b.jpg","regular_url":"https://perenual.com/storage/species_image/2855_eupatorium_altissimum/regular/3293238908_5c6107429d_b.jpg","medium_url":"https://perenual.com/storage/species_image/2855_eupatorium_altissimum/medium/3293238908_5c6107429d_b.jpg","small_url":"https://perenual.com/storage/species_image/2855_eupatorium_altissimum/small/3293238908_5c6107429d_b.jpg","thumbnail":"https://perenual.com/storage/species_image/2855_eupatorium_altissimum/thumbnail/3293238908_5c6107429d_b.jpg"}},{"id":2856,"common_name":"dogfennel","scientific_name":["Eupatorium capillifolium"],"other_name":null,"cycle":"Perennial","watering":"Average","sunlight":["Full sun","part shade"],"default_image":{"image_id":6229,"license":5,"license_name":"Attribution-ShareAlike License","license_url":"https://creativecommons.org/licenses/by-sa/2.0/","original_url":"https://perenual.com/storage/species_image/2856_eupatorium_capillifolium/og/8291910742_9dc76b9963_b.jpg","regular_url":"https://perenual.com/storage/species_image/2856_eupatorium_capillifolium/regular/8291910742_9dc76b9963_b.jpg","medium_url":"https://perenual.com/storage/species_image/2856_eupatorium_capillifolium/medium/8291910742_9dc76b9963_b.jpg","small_url":"https://perenual.com/storage/species_image/2856_eupatorium_capillifolium/small/8291910742_9dc76b9963_b.jpg","thumbnail":"https://perenual.com/storage/species_image/2856_eupatorium_capillifolium/thumbnail/8291910742_9dc76b9963_b.jpg"}},{"id":2857,"common_name":"sneeze weed","scientific_name":["Eupatorium capillifolium 'Elegant Feather'"],"other_name":null,"cycle":"Perennial","watering":"Average","sunlight":["Full sun","part shade"],"default_image":{"image_id":6232,"license":45,"license_name":"Attribution-ShareAlike 3.0 Unported (CC BY-SA 3.0)","license_url":"https://creativecommons.org/licenses/by-sa/3.0/deed.en","original_url":"https://perenual.com/storage/species_image/2857_eupatorium_capillifolium_elegant_feather/og/401px-Eupatorium_capillifolium_%27Elegant_Feather%27_IMG_2660.jpg","regular_url":"https://perenual.com/storage/species_image/2857_eupatorium_capillifolium_elegant_feather/regular/401px-Eupatorium_capillifolium_%27Elegant_Feather%27_IMG_2660.jpg","medium_url":"https://perenual.com/storage/species_image/2857_eupatorium_capillifolium_elegant_feather/medium/401px-Eupatorium_capillifolium_%27Elegant_Feather%27_IMG_2660.jpg","small_url":"https://perenual.com/storage/species_image/2857_eupatorium_capillifolium_elegant_feather/small/401px-Eupatorium_capillifolium_%27Elegant_Feather%27_IMG_2660.jpg","thumbnail":"https://perenual.com/storage/species_image/2857_eupatorium_capillifolium_elegant_feather/thumbnail/401px-Eupatorium_capillifolium_%27Elegant_Feather%27_IMG_2660.jpg"}},{"id":2858,"common_name":"hemp agrimony","scientific_name":["Eupatorium chinense"],"other_name":null,"cycle":"Perennial","watering":"Frequent","sunlight":["Full sun"],"default_image":{"image_id":6233,"license":5,"license_name":"Attribution-ShareAlike License","license_url":"https://creativecommons.org/licenses/by-sa/2.0/","original_url":"https://perenual.com/storage/species_image/2858_eupatorium_chinense/og/9240253574_eccc26667d_b.jpg","regular_url":"https://perenual.com/storage/species_image/2858_eupatorium_chinense/regular/9240253574_eccc26667d_b.jpg","medium_url":"https://perenual.com/storage/species_image/2858_eupatorium_chinense/medium/9240253574_eccc26667d_b.jpg","small_url":"https://perenual.com/storage/species_image/2858_eupatorium_chinense/small/9240253574_eccc26667d_b.jpg","thumbnail":"https://perenual.com/storage/species_image/2858_eupatorium_chinense/thumbnail/9240253574_eccc26667d_b.jpg"}},{"id":2859,"common_name":"American boneset","scientific_name":["Eupatorium perfoliatum 'Milk and Cookies'"],"other_name":null,"cycle":"Perennial","watering":"Frequent","sunlight":["Full sun Partial sun"],"default_image":{"image_id":9,"license":5,"license_name":"Attribution-ShareAlike License","license_url":"https://creativecommons.org/licenses/by-sa/2.0/","original_url":"https://perenual.com/storage/species_image/2_abies_alba_pyramidalis/og/49255769768_df55596553_b.jpg","regular_url":"https://perenual.com/storage/species_image/2_abies_alba_pyramidalis/regular/49255769768_df55596553_b.jpg","medium_url":"https://perenual.com/storage/species_image/2_abies_alba_pyramidalis/medium/49255769768_df55596553_b.jpg","small_url":"https://perenual.com/storage/species_image/2_abies_alba_pyramidalis/small/49255769768_df55596553_b.jpg","thumbnail":"https://perenual.com/storage/species_image/2_abies_alba_pyramidalis/thumbnail/49255769768_df55596553_b.jpg"}},{"id":2860,"common_name":"Joe Pye weed","scientific_name":["Eupatorium 'Phantom'"],"other_name":null,"cycle":"Perennial","watering":"Frequent","sunlight":["Full sun","part shade"],"default_image":{"image_id":9,"license":5,"license_name":"Attribution-ShareAlike License","license_url":"https://creativecommons.org/licenses/by-sa/2.0/","original_url":"https://perenual.com/storage/species_image/2_abies_alba_pyramidalis/og/49255769768_df55596553_b.jpg","regular_url":"https://perenual.com/storage/species_image/2_abies_alba_pyramidalis/regular/49255769768_df55596553_b.jpg","medium_url":"https://perenual.com/storage/species_image/2_abies_alba_pyramidalis/medium/49255769768_df55596553_b.jpg","small_url":"https://perenual.com/storage/species_image/2_abies_alba_pyramidalis/small/49255769768_df55596553_b.jpg","thumbnail":"https://perenual.com/storage/species_image/2_abies_alba_pyramidalis/thumbnail/49255769768_df55596553_b.jpg"}},{"id":2861,"common_name":"spurge","scientific_name":["Euphorbia amygdaloides"],"other_name":["Mrs. Robb's bonnet","purple wood spurge"],"cycle":"Perennial","watering":"Minimum","sunlight":["Full sun","part shade"],"default_image":{"image_id":6237,"license":6,"license_name":"Attribution-NoDerivs License","license_url":"https://creativecommons.org/licenses/by-nd/2.0/","original_url":"https://perenual.com/storage/species_image/2861_euphorbia_amygdaloides/og/51183886789_b9745e93c4_b.jpg"}},{"id":2862,"common_name":"spurge","scientific_name":["Euphorbia amygdaloides subsp. robbiae"],"other_name":null,"cycle":"Perennial","watering":"Minimum","sunlight":["Full sun","part shade"],"default_image":{"image_id":9,"license":5,"license_name":"Attribution-ShareAlike License","license_url":"https://creativecommons.org/licenses/by-sa/2.0/","original_url":"https://perenual.com/storage/species_image/2_abies_alba_pyramidalis/og/49255769768_df55596553_b.jpg","regular_url":"https://perenual.com/storage/species_image/2_abies_alba_pyramidalis/regular/49255769768_df55596553_b.jpg","medium_url":"https://perenual.com/storage/species_image/2_abies_alba_pyramidalis/medium/49255769768_df55596553_b.jpg","small_url":"https://perenual.com/storage/species_image/2_abies_alba_pyramidalis/small/49255769768_df55596553_b.jpg","thumbnail":"https://perenual.com/storage/species_image/2_abies_alba_pyramidalis/thumbnail/49255769768_df55596553_b.jpg"}},{"id":2863,"common_name":"spurge","scientific_name":["Euphorbia amygdaloides 'Waleuphglo' RUBY GLOW"],"other_name":null,"cycle":"Perennial","watering":"Minimum","sunlight":["Full sun","part shade"],"default_image":{"image_id":9,"license":5,"license_name":"Attribution-ShareAlike License","license_url":"https://creativecommons.org/licenses/by-sa/2.0/","original_url":"https://perenual.com/storage/species_image/2_abies_alba_pyramidalis/og/49255769768_df55596553_b.jpg","regular_url":"https://perenual.com/storage/species_image/2_abies_alba_pyramidalis/regular/49255769768_df55596553_b.jpg","medium_url":"https://perenual.com/storage/species_image/2_abies_alba_pyramidalis/medium/49255769768_df55596553_b.jpg","small_url":"https://perenual.com/storage/species_image/2_abies_alba_pyramidalis/small/49255769768_df55596553_b.jpg","thumbnail":"https://perenual.com/storage/species_image/2_abies_alba_pyramidalis/thumbnail/49255769768_df55596553_b.jpg"}},{"id":2864,"common_name":"spurge","scientific_name":["Euphorbia 'Autumn Sunset'"],"other_name":null,"cycle":"Perennial","watering":"Minimum","sunlight":["Full sun"],"default_image":{"image_id":9,"license":5,"license_name":"Attribution-ShareAlike License","license_url":"https://creativecommons.org/licenses/by-sa/2.0/","original_url":"https://perenual.com/storage/species_image/2_abies_alba_pyramidalis/og/49255769768_df55596553_b.jpg","regular_url":"https://perenual.com/storage/species_image/2_abies_alba_pyramidalis/regular/49255769768_df55596553_b.jpg","medium_url":"https://perenual.com/storage/species_image/2_abies_alba_pyramidalis/medium/49255769768_df55596553_b.jpg","small_url":"https://perenual.com/storage/species_image/2_abies_alba_pyramidalis/small/49255769768_df55596553_b.jpg","thumbnail":"https://perenual.com/storage/species_image/2_abies_alba_pyramidalis/thumbnail/49255769768_df55596553_b.jpg"}},{"id":2865,"common_name":"spurge","scientific_name":["Euphorbia 'Blue Haze'"],"other_name":null,"cycle":"Perennial","watering":"Minimum","sunlight":["Full sun"],"default_image":{"image_id":6242,"license":4,"license_name":"Attribution License","license_url":"https://creativecommons.org/licenses/by/2.0/","original_url":"https://perenual.com/storage/species_image/2865_euphorbia_blue_haze/og/19440487571_9f25d53e11_b.jpg","regular_url":"https://perenual.com/storage/species_image/2865_euphorbia_blue_haze/regular/19440487571_9f25d53e11_b.jpg","medium_url":"https://perenual.com/storage/species_image/2865_euphorbia_blue_haze/medium/19440487571_9f25d53e11_b.jpg","small_url":"https://perenual.com/storage/species_image/2865_euphorbia_blue_haze/small/19440487571_9f25d53e11_b.jpg","thumbnail":"https://perenual.com/storage/species_image/2865_euphorbia_blue_haze/thumbnail/19440487571_9f25d53e11_b.jpg"}},{"id":2866,"common_name":"spurge","scientific_name":["Euphorbia characias subsp. wulfenii"],"other_name":null,"cycle":"Perennial","watering":"Minimum","sunlight":["Full sun","part shade"],"default_image":{"image_id":9,"license":5,"license_name":"Attribution-ShareAlike License","license_url":"https://creativecommons.org/licenses/by-sa/2.0/","original_url":"https://perenual.com/storage/species_image/2_abies_alba_pyramidalis/og/49255769768_df55596553_b.jpg","regular_url":"https://perenual.com/storage/species_image/2_abies_alba_pyramidalis/regular/49255769768_df55596553_b.jpg","medium_url":"https://perenual.com/storage/species_image/2_abies_alba_pyramidalis/medium/49255769768_df55596553_b.jpg","small_url":"https://perenual.com/storage/species_image/2_abies_alba_pyramidalis/small/49255769768_df55596553_b.jpg","thumbnail":"https://perenual.com/storage/species_image/2_abies_alba_pyramidalis/thumbnail/49255769768_df55596553_b.jpg"}},{"id":2867,"common_name":"spurge","scientific_name":["Euphorbia characias 'Tasmanian Tiger'"],"other_name":null,"cycle":"Perennial","watering":"Minimum","sunlight":["Full sun","part shade"],"default_image":{"image_id":6244,"license":4,"license_name":"Attribution License","license_url":"https://creativecommons.org/licenses/by/2.0/","original_url":"https://perenual.com/storage/species_image/2867_euphorbia_characias_tasmanian_tiger/og/25977518077_dabbb0a978_b.jpg","regular_url":"https://perenual.com/storage/species_image/2867_euphorbia_characias_tasmanian_tiger/regular/25977518077_dabbb0a978_b.jpg","medium_url":"https://perenual.com/storage/species_image/2867_euphorbia_characias_tasmanian_tiger/medium/25977518077_dabbb0a978_b.jpg","small_url":"https://perenual.com/storage/species_image/2867_euphorbia_characias_tasmanian_tiger/small/25977518077_dabbb0a978_b.jpg","thumbnail":"https://perenual.com/storage/species_image/2867_euphorbia_characias_tasmanian_tiger/thumbnail/25977518077_dabbb0a978_b.jpg"}},{"id":2868,"common_name":"Mexican shrubby spurge","scientific_name":["Euphorbia cotinifolia"],"other_name":null,"cycle":"Perennial","watering":"Average","sunlight":["Full sun"],"default_image":{"image_id":6245,"license":5,"license_name":"Attribution-ShareAlike License","license_url":"https://creativecommons.org/licenses/by-sa/2.0/","original_url":"https://perenual.com/storage/species_image/2868_euphorbia_cotinifolia/og/51952243235_061102bd05_b.jpg","regular_url":"https://perenual.com/storage/species_image/2868_euphorbia_cotinifolia/regular/51952243235_061102bd05_b.jpg","medium_url":"https://perenual.com/storage/species_image/2868_euphorbia_cotinifolia/medium/51952243235_061102bd05_b.jpg","small_url":"https://perenual.com/storage/species_image/2868_euphorbia_cotinifolia/small/51952243235_061102bd05_b.jpg","thumbnail":"https://perenual.com/storage/species_image/2868_euphorbia_cotinifolia/thumbnail/51952243235_061102bd05_b.jpg"}},{"id":2869,"common_name":"sweet spurge","scientific_name":["Euphorbia dulcis"],"other_name":null,"cycle":"Perennial","watering":"Minimum","sunlight":["Filtered shade"," Full sun"],"default_image":{"image_id":9,"license":5,"license_name":"Attribution-ShareAlike License","license_url":"https://creativecommons.org/licenses/by-sa/2.0/","original_url":"https://perenual.com/storage/species_image/2_abies_alba_pyramidalis/og/49255769768_df55596553_b.jpg","regular_url":"https://perenual.com/storage/species_image/2_abies_alba_pyramidalis/regular/49255769768_df55596553_b.jpg","medium_url":"https://perenual.com/storage/species_image/2_abies_alba_pyramidalis/medium/49255769768_df55596553_b.jpg","small_url":"https://perenual.com/storage/species_image/2_abies_alba_pyramidalis/small/49255769768_df55596553_b.jpg","thumbnail":"https://perenual.com/storage/species_image/2_abies_alba_pyramidalis/thumbnail/49255769768_df55596553_b.jpg"}},{"id":2870,"common_name":"spurge","scientific_name":["Euphorbia dulcis 'Chameleon'"],"other_name":null,"cycle":"Perennial","watering":"Minimum","sunlight":["Filtered shade"," Full sun"],"default_image":{"image_id":6248,"license":5,"license_name":"Attribution-ShareAlike License","license_url":"https://creativecommons.org/licenses/by-sa/2.0/","original_url":"https://perenual.com/storage/species_image/2870_euphorbia_dulcis_chameleon/og/3434453984_de79c2bc01_b.jpg","regular_url":"https://perenual.com/storage/species_image/2870_euphorbia_dulcis_chameleon/regular/3434453984_de79c2bc01_b.jpg","medium_url":"https://perenual.com/storage/species_image/2870_euphorbia_dulcis_chameleon/medium/3434453984_de79c2bc01_b.jpg","small_url":"https://perenual.com/storage/species_image/2870_euphorbia_dulcis_chameleon/small/3434453984_de79c2bc01_b.jpg","thumbnail":"https://perenual.com/storage/species_image/2870_euphorbia_dulcis_chameleon/thumbnail/3434453984_de79c2bc01_b.jpg"}},{"id":2871,"common_name":"cushion spurge","scientific_name":["Euphorbia epithymoides 'Bonfire'"],"other_name":null,"cycle":"Perennial","watering":"Minimum","sunlight":["Full sun"],"default_image":{"image_id":6249,"license":4,"license_name":"Attribution License","license_url":"https://creativecommons.org/licenses/by/2.0/","original_url":"https://perenual.com/storage/species_image/2871_euphorbia_epithymoides_bonfire/og/52040581606_c5e7f6ccbb_b.jpg","regular_url":"https://perenual.com/storage/species_image/2871_euphorbia_epithymoides_bonfire/regular/52040581606_c5e7f6ccbb_b.jpg","medium_url":"https://perenual.com/storage/species_image/2871_euphorbia_epithymoides_bonfire/medium/52040581606_c5e7f6ccbb_b.jpg","small_url":"https://perenual.com/storage/species_image/2871_euphorbia_epithymoides_bonfire/small/52040581606_c5e7f6ccbb_b.jpg","thumbnail":"https://perenual.com/storage/species_image/2871_euphorbia_epithymoides_bonfire/thumbnail/52040581606_c5e7f6ccbb_b.jpg"}},{"id":2872,"common_name":"spurge","scientific_name":["Euphorbia 'Froeup' EXCALIBUR"],"other_name":null,"cycle":"Perennial","watering":"Minimum","sunlight":["Full sun"],"default_image":{"image_id":9,"license":5,"license_name":"Attribution-ShareAlike License","license_url":"https://creativecommons.org/licenses/by-sa/2.0/","original_url":"https://perenual.com/storage/species_image/2_abies_alba_pyramidalis/og/49255769768_df55596553_b.jpg","regular_url":"https://perenual.com/storage/species_image/2_abies_alba_pyramidalis/regular/49255769768_df55596553_b.jpg","medium_url":"https://perenual.com/storage/species_image/2_abies_alba_pyramidalis/medium/49255769768_df55596553_b.jpg","small_url":"https://perenual.com/storage/species_image/2_abies_alba_pyramidalis/small/49255769768_df55596553_b.jpg","thumbnail":"https://perenual.com/storage/species_image/2_abies_alba_pyramidalis/thumbnail/49255769768_df55596553_b.jpg"}},{"id":2873,"common_name":"spurge","scientific_name":["Euphorbia 'Helena'"],"other_name":null,"cycle":"Perennial","watering":"Minimum","sunlight":["Full sun"],"default_image":{"image_id":9,"license":5,"license_name":"Attribution-ShareAlike License","license_url":"https://creativecommons.org/licenses/by-sa/2.0/","original_url":"https://perenual.com/storage/species_image/2_abies_alba_pyramidalis/og/49255769768_df55596553_b.jpg","regular_url":"https://perenual.com/storage/species_image/2_abies_alba_pyramidalis/regular/49255769768_df55596553_b.jpg","medium_url":"https://perenual.com/storage/species_image/2_abies_alba_pyramidalis/medium/49255769768_df55596553_b.jpg","small_url":"https://perenual.com/storage/species_image/2_abies_alba_pyramidalis/small/49255769768_df55596553_b.jpg","thumbnail":"https://perenual.com/storage/species_image/2_abies_alba_pyramidalis/thumbnail/49255769768_df55596553_b.jpg"}},{"id":2874,"common_name":"spurge","scientific_name":["Euphorbia hypericifolia 'Inneuphe' DIAMOND FROST"],"other_name":null,"cycle":"Perennial","watering":"Minimum","sunlight":["Full sun","part shade"],"default_image":{"image_id":6252,"license":4,"license_name":"Attribution License","license_url":"https://creativecommons.org/licenses/by/2.0/","original_url":"https://perenual.com/storage/species_image/2874_euphorbia_hypericifolia_inneuphe_diamond_frost/og/10459209395_031bb3481d_b.jpg","regular_url":"https://perenual.com/storage/species_image/2874_euphorbia_hypericifolia_inneuphe_diamond_frost/regular/10459209395_031bb3481d_b.jpg","medium_url":"https://perenual.com/storage/species_image/2874_euphorbia_hypericifolia_inneuphe_diamond_frost/medium/10459209395_031bb3481d_b.jpg","small_url":"https://perenual.com/storage/species_image/2874_euphorbia_hypericifolia_inneuphe_diamond_frost/small/10459209395_031bb3481d_b.jpg","thumbnail":"https://perenual.com/storage/species_image/2874_euphorbia_hypericifolia_inneuphe_diamond_frost/thumbnail/10459209395_031bb3481d_b.jpg"}},{"id":2875,"common_name":"spurge","scientific_name":["Euphorbia 'Imprefant' EFANTHIA"],"other_name":null,"cycle":"Perennial","watering":"Minimum","sunlight":["Full sun","part shade"],"default_image":{"image_id":6253,"license":4,"license_name":"Attribution License","license_url":"https://creativecommons.org/licenses/by/2.0/","original_url":"https://perenual.com/storage/species_image/2875_euphorbia_imprefant_efanthia/og/52457215491_c3efc21575_b.jpg","regular_url":"https://perenual.com/storage/species_image/2875_euphorbia_imprefant_efanthia/regular/52457215491_c3efc21575_b.jpg","medium_url":"https://perenual.com/storage/species_image/2875_euphorbia_imprefant_efanthia/medium/52457215491_c3efc21575_b.jpg","small_url":"https://perenual.com/storage/species_image/2875_euphorbia_imprefant_efanthia/small/52457215491_c3efc21575_b.jpg","thumbnail":"https://perenual.com/storage/species_image/2875_euphorbia_imprefant_efanthia/thumbnail/52457215491_c3efc21575_b.jpg"}},{"id":2876,"common_name":"spurge","scientific_name":["Euphorbia 'Imprkalip' KALIPSO"],"other_name":null,"cycle":"Perennial","watering":"Minimum","sunlight":["Full sun","part shade"],"default_image":{"image_id":9,"license":5,"license_name":"Attribution-ShareAlike License","license_url":"https://creativecommons.org/licenses/by-sa/2.0/","original_url":"https://perenual.com/storage/species_image/2_abies_alba_pyramidalis/og/49255769768_df55596553_b.jpg","regular_url":"https://perenual.com/storage/species_image/2_abies_alba_pyramidalis/regular/49255769768_df55596553_b.jpg","medium_url":"https://perenual.com/storage/species_image/2_abies_alba_pyramidalis/medium/49255769768_df55596553_b.jpg","small_url":"https://perenual.com/storage/species_image/2_abies_alba_pyramidalis/small/49255769768_df55596553_b.jpg","thumbnail":"https://perenual.com/storage/species_image/2_abies_alba_pyramidalis/thumbnail/49255769768_df55596553_b.jpg"}},{"id":2877,"common_name":"spurge","scientific_name":["Euphorbia 'Jessie'"],"other_name":null,"cycle":"Perennial","watering":"Minimum","sunlight":["Full sun"],"default_image":{"image_id":6255,"license":4,"license_name":"Attribution License","license_url":"https://creativecommons.org/licenses/by/2.0/","original_url":"https://perenual.com/storage/species_image/2877_euphorbia_jessie/og/52175184179_89a4b8dfc8_b.jpg","regular_url":"https://perenual.com/storage/species_image/2877_euphorbia_jessie/regular/52175184179_89a4b8dfc8_b.jpg","medium_url":"https://perenual.com/storage/species_image/2877_euphorbia_jessie/medium/52175184179_89a4b8dfc8_b.jpg","small_url":"https://perenual.com/storage/species_image/2877_euphorbia_jessie/small/52175184179_89a4b8dfc8_b.jpg","thumbnail":"https://perenual.com/storage/species_image/2877_euphorbia_jessie/thumbnail/52175184179_89a4b8dfc8_b.jpg"}},{"id":2878,"common_name":"mottled spurge","scientific_name":["Euphorbia lactea"],"other_name":null,"cycle":"Perennial","watering":"Average","sunlight":["Full sun","part shade"],"default_image":{"image_id":9,"license":5,"license_name":"Attribution-ShareAlike License","license_url":"https://creativecommons.org/licenses/by-sa/2.0/","original_url":"https://perenual.com/storage/species_image/2_abies_alba_pyramidalis/og/49255769768_df55596553_b.jpg","regular_url":"https://perenual.com/storage/species_image/2_abies_alba_pyramidalis/regular/49255769768_df55596553_b.jpg","medium_url":"https://perenual.com/storage/species_image/2_abies_alba_pyramidalis/medium/49255769768_df55596553_b.jpg","small_url":"https://perenual.com/storage/species_image/2_abies_alba_pyramidalis/small/49255769768_df55596553_b.jpg","thumbnail":"https://perenual.com/storage/species_image/2_abies_alba_pyramidalis/thumbnail/49255769768_df55596553_b.jpg"}},{"id":2879,"common_name":"mottled spurge","scientific_name":["Euphorbia lactea 'White Ghost'"],"other_name":null,"cycle":"Perennial","watering":"Average","sunlight":["Full sun","part shade"],"default_image":{"image_id":6258,"license":6,"license_name":"Attribution-NoDerivs License","license_url":"https://creativecommons.org/licenses/by-nd/2.0/","original_url":"https://perenual.com/storage/species_image/2879_euphorbia_lactea_white_ghost/og/428626874_e844eed715_b.jpg"}},{"id":2880,"common_name":"snow on the mountain","scientific_name":["Euphorbia marginata"],"other_name":null,"cycle":"Perennial","watering":"Minimum","sunlight":["Full sun"],"default_image":{"image_id":6260,"license":6,"license_name":"Attribution-NoDerivs License","license_url":"https://creativecommons.org/licenses/by-nd/2.0/","original_url":"https://perenual.com/storage/species_image/2880_euphorbia_marginata/og/50259867587_6bfd69638e_b.jpg"}}],"to":2880,"per_page":30,"current_page":96,"from":2851,"last_page":200,"total":6000}