{"data":[{"id":4591,"common_name":"red-hot poker","scientific_name":["Kniphofia 'Bressingham Comet'"],"other_name":null,"cycle":"Perennial","watering":"Minimum","sunlight":["Full sun"],"default_image":{"image_id":9584,"license":6,"license_name":"Attribution-NoDerivs License","license_url":"https://creativecommons.org/licenses/by-nd/2.0/","original_url":"https://perenual.com/storage/species_image/4591_kniphofia_bressingham_comet/og/52419297038_4efbbaef4c_b.jpg"}},{"id":4592,"common_name":"red hot poker","scientific_name":["Kniphofia caulescens"],"other_name":null,"cycle":"Perennial","watering":"Average","sunlight":["Full sun"],"default_image":{"image_id":9598,"license":4,"license_name":"Attribution License","license_url":"https://creativecommons.org/licenses/by/2.0/","original_url":"https://perenual.com/storage/species_image/4592_kniphofia_caulescens/og/51391660945_b3452c41a8_b.jpg","regular_url":"https://perenual.com/storage/species_image/4592_kniphofia_caulescens/regular/51391660945_b3452c41a8_b.jpg","medium_url":"https://perenual.com/storage/species_image/4592_kniphofia_caulescens/medium/51391660945_b3452c41a8_b.jpg","small_url":"https://perenual.com/storage/species_image/4592_kniphofia_caulescens/small/51391660945_b3452c41a8_b.jpg","thumbnail":"https://perenual.com/storage/species_image/4592_kniphofia_caulescens/thumbnail/51391660945_b3452c41a8_b.jpg"}},{"id":4593,"common_name":"red-hot poker","scientific_name":["Kniphofia 'Cobra'"],"other_name":null,"cycle":"Perennial","watering":"Minimum","sunlight":["Full sun"],"default_image":{"image_id":22028,"license":1,"license_name":null,"license_url":null,"original_url":"https://perenual.com/storage/species_image/4605_kniphofia_redhot_popsicle/og/52293697424_6546414b77_b.jpg","regular_url":"https://perenual.com/storage/species_image/4605_kniphofia_redhot_popsicle/regular/52293697424_6546414b77_b.jpg","medium_url":"https://perenual.com/storage/species_image/4605_kniphofia_redhot_popsicle/medium/52293697424_6546414b77_b.jpg","small_url":"https://perenual.com/storage/species_image/4605_kniphofia_redhot_popsicle/small/52293697424_6546414b77_b.jpg","thumbnail":"https://perenual.com/storage/species_image/4605_kniphofia_redhot_popsicle/thumbnail/52293697424_6546414b77_b.jpg"}},{"id":4594,"common_name":"red hot poker","scientific_name":["Kniphofia 'Elvira'"],"other_name":null,"cycle":"Perennial","watering":"Minimum","sunlight":["Full sun"],"default_image":{"image_id":22028,"license":1,"license_name":null,"license_url":null,"original_url":"https://perenual.com/storage/species_image/4605_kniphofia_redhot_popsicle/og/52293697424_6546414b77_b.jpg","regular_url":"https://perenual.com/storage/species_image/4605_kniphofia_redhot_popsicle/regular/52293697424_6546414b77_b.jpg","medium_url":"https://perenual.com/storage/species_image/4605_kniphofia_redhot_popsicle/medium/52293697424_6546414b77_b.jpg","small_url":"https://perenual.com/storage/species_image/4605_kniphofia_redhot_popsicle/small/52293697424_6546414b77_b.jpg","thumbnail":"https://perenual.com/storage/species_image/4605_kniphofia_redhot_popsicle/thumbnail/52293697424_6546414b77_b.jpg"}},{"id":4595,"common_name":"red-hot poker","scientific_name":["Kniphofia 'High Roller'"],"other_name":null,"cycle":"Perennial","watering":"Average","sunlight":["Full sun"],"default_image":{"image_id":9584,"license":6,"license_name":"Attribution-NoDerivs License","license_url":"https://creativecommons.org/licenses/by-nd/2.0/","original_url":"https://perenual.com/storage/species_image/4591_kniphofia_bressingham_comet/og/52419297038_4efbbaef4c_b.jpg"}},{"id":4596,"common_name":"red-hot poker","scientific_name":["Kniphofia hirsuta 'Fire Dance'"],"other_name":null,"cycle":"Perennial","watering":"Minimum","sunlight":["Full sun"],"default_image":{"image_id":9584,"license":6,"license_name":"Attribution-NoDerivs License","license_url":"https://creativecommons.org/licenses/by-nd/2.0/","original_url":"https://perenual.com/storage/species_image/4591_kniphofia_bressingham_comet/og/52419297038_4efbbaef4c_b.jpg"}},{"id":4597,"common_name":"red-hot poker","scientific_name":["Kniphofia 'Joker's Wild'"],"other_name":null,"cycle":"Perennial","watering":"Minimum","sunlight":["Full sun"],"default_image":{"image_id":22028,"license":1,"license_name":null,"license_url":null,"original_url":"https://perenual.com/storage/species_image/4605_kniphofia_redhot_popsicle/og/52293697424_6546414b77_b.jpg","regular_url":"https://perenual.com/storage/species_image/4605_kniphofia_redhot_popsicle/regular/52293697424_6546414b77_b.jpg","medium_url":"https://perenual.com/storage/species_image/4605_kniphofia_redhot_popsicle/medium/52293697424_6546414b77_b.jpg","small_url":"https://perenual.com/storage/species_image/4605_kniphofia_redhot_popsicle/small/52293697424_6546414b77_b.jpg","thumbnail":"https://perenual.com/storage/species_image/4605_kniphofia_redhot_popsicle/thumbnail/52293697424_6546414b77_b.jpg"}},{"id":4598,"common_name":"red-hot poker","scientific_name":["Kniphofia 'Lemon Popsicle'"],"other_name":null,"cycle":"Perennial","watering":"Minimum","sunlight":["Full sun"],"default_image":{"image_id":9603,"license":5,"license_name":"Attribution-ShareAlike License","license_url":"https://creativecommons.org/licenses/by-sa/2.0/","original_url":"https://perenual.com/storage/species_image/4603_kniphofia_pineapple_popsicle/og/9826360293_834f43368f_b.jpg","regular_url":"https://perenual.com/storage/species_image/4603_kniphofia_pineapple_popsicle/regular/9826360293_834f43368f_b.jpg","medium_url":"https://perenual.com/storage/species_image/4603_kniphofia_pineapple_popsicle/medium/9826360293_834f43368f_b.jpg","small_url":"https://perenual.com/storage/species_image/4603_kniphofia_pineapple_popsicle/small/9826360293_834f43368f_b.jpg","thumbnail":"https://perenual.com/storage/species_image/4603_kniphofia_pineapple_popsicle/thumbnail/9826360293_834f43368f_b.jpg"}},{"id":4599,"common_name":"red-hot poker","scientific_name":["Kniphofia 'Mango Popsicle'"],"other_name":null,"cycle":"Perennial","watering":"Minimum","sunlight":["Full sun"],"default_image":{"image_id":9606,"license":5,"license_name":"Attribution-ShareAlike License","license_url":"https://creativecommons.org/licenses/by-sa/2.0/","original_url":"https://perenual.com/storage/species_image/4599_kniphofia_mango_popsicle/og/9826274234_f279b95947_b.jpg","regular_url":"https://perenual.com/storage/species_image/4599_kniphofia_mango_popsicle/regular/9826274234_f279b95947_b.jpg","medium_url":"https://perenual.com/storage/species_image/4599_kniphofia_mango_popsicle/medium/9826274234_f279b95947_b.jpg","small_url":"https://perenual.com/storage/species_image/4599_kniphofia_mango_popsicle/small/9826274234_f279b95947_b.jpg","thumbnail":"https://perenual.com/storage/species_image/4599_kniphofia_mango_popsicle/thumbnail/9826274234_f279b95947_b.jpg"}},{"id":4600,"common_name":"red-hot poker","scientific_name":["Kniphofia 'Nancy's Red'"],"other_name":null,"cycle":"Perennial","watering":"Minimum","sunlight":["Full sun"],"default_image":{"image_id":22028,"license":1,"license_name":null,"license_url":null,"original_url":"https://perenual.com/storage/species_image/4605_kniphofia_redhot_popsicle/og/52293697424_6546414b77_b.jpg","regular_url":"https://perenual.com/storage/species_image/4605_kniphofia_redhot_popsicle/regular/52293697424_6546414b77_b.jpg","medium_url":"https://perenual.com/storage/species_image/4605_kniphofia_redhot_popsicle/medium/52293697424_6546414b77_b.jpg","small_url":"https://perenual.com/storage/species_image/4605_kniphofia_redhot_popsicle/small/52293697424_6546414b77_b.jpg","thumbnail":"https://perenual.com/storage/species_image/4605_kniphofia_redhot_popsicle/thumbnail/52293697424_6546414b77_b.jpg"}},{"id":4601,"common_name":"red-hot poker","scientific_name":["Kniphofia 'Orange Blaze'"],"other_name":null,"cycle":"Perennial","watering":"Minimum","sunlight":["Full sun"],"default_image":{"image_id":9584,"license":6,"license_name":"Attribution-NoDerivs License","license_url":"https://creativecommons.org/licenses/by-nd/2.0/","original_url":"https://perenual.com/storage/species_image/4591_kniphofia_bressingham_comet/og/52419297038_4efbbaef4c_b.jpg"}},{"id":4602,"common_name":"red-hot poker","scientific_name":["Kniphofia 'Peachy Cheeks'"],"other_name":null,"cycle":"Perennial","watering":"Minimum","sunlight":["Full sun"],"default_image":{"image_id":9584,"license":6,"license_name":"Attribution-NoDerivs License","license_url":"https://creativecommons.org/licenses/by-nd/2.0/","original_url":"https://perenual.com/storage/species_image/4591_kniphofia_bressingham_comet/og/52419297038_4efbbaef4c_b.jpg"}},{"id":4603,"common_name":"red-hot poker","scientific_name":["Kniphofia 'Pineapple Popsicle'"],"other_name":null,"cycle":"Perennial","watering":"Minimum","sunlight":["Full sun"],"default_image":{"image_id":22030,"license":1,"license_name":null,"license_url":null,"original_url":"https://perenual.com/storage/species_image/4609_kniphofia_uvaria_echo_mango/og/52250256870_cb3f5ea22b_b.jpg","regular_url":"https://perenual.com/storage/species_image/4609_kniphofia_uvaria_echo_mango/regular/52250256870_cb3f5ea22b_b.jpg","medium_url":"https://perenual.com/storage/species_image/4609_kniphofia_uvaria_echo_mango/medium/52250256870_cb3f5ea22b_b.jpg","small_url":"https://perenual.com/storage/species_image/4609_kniphofia_uvaria_echo_mango/small/52250256870_cb3f5ea22b_b.jpg","thumbnail":"https://perenual.com/storage/species_image/4609_kniphofia_uvaria_echo_mango/thumbnail/52250256870_cb3f5ea22b_b.jpg"}},{"id":4604,"common_name":"red-hot poker","scientific_name":["Kniphofia 'Primrose Beauty'"],"other_name":null,"cycle":"Perennial","watering":"Minimum","sunlight":["Full sun"],"default_image":{"image_id":22030,"license":1,"license_name":null,"license_url":null,"original_url":"https://perenual.com/storage/species_image/4609_kniphofia_uvaria_echo_mango/og/52250256870_cb3f5ea22b_b.jpg","regular_url":"https://perenual.com/storage/species_image/4609_kniphofia_uvaria_echo_mango/regular/52250256870_cb3f5ea22b_b.jpg","medium_url":"https://perenual.com/storage/species_image/4609_kniphofia_uvaria_echo_mango/medium/52250256870_cb3f5ea22b_b.jpg","small_url":"https://perenual.com/storage/species_image/4609_kniphofia_uvaria_echo_mango/small/52250256870_cb3f5ea22b_b.jpg","thumbnail":"https://perenual.com/storage/species_image/4609_kniphofia_uvaria_echo_mango/thumbnail/52250256870_cb3f5ea22b_b.jpg"}},{"id":4605,"common_name":"red-hot poker","scientific_name":["Kniphofia 'Redhot Popsicle'"],"other_name":null,"cycle":"Perennial","watering":"Minimum","sunlight":["Full sun"],"default_image":{"image_id":22028,"license":1,"license_name":null,"license_url":null,"original_url":"https://perenual.com/storage/species_image/4605_kniphofia_redhot_popsicle/og/52293697424_6546414b77_b.jpg","regular_url":"https://perenual.com/storage/species_image/4605_kniphofia_redhot_popsicle/regular/52293697424_6546414b77_b.jpg","medium_url":"https://perenual.com/storage/species_image/4605_kniphofia_redhot_popsicle/medium/52293697424_6546414b77_b.jpg","small_url":"https://perenual.com/storage/species_image/4605_kniphofia_redhot_popsicle/small/52293697424_6546414b77_b.jpg","thumbnail":"https://perenual.com/storage/species_image/4605_kniphofia_redhot_popsicle/thumbnail/52293697424_6546414b77_b.jpg"}},{"id":4606,"common_name":"red-hot poker","scientific_name":["Kniphofia 'Royal Standard'"],"other_name":null,"cycle":"Perennial","watering":"Minimum","sunlight":["Full sun"],"default_image":{"image_id":9611,"license":5,"license_name":"Attribution-ShareAlike License","license_url":"https://creativecommons.org/licenses/by-sa/2.0/","original_url":"https://perenual.com/storage/species_image/4606_kniphofia_royal_standard/og/4799773539_33d2283d78_b.jpg","regular_url":"https://perenual.com/storage/species_image/4606_kniphofia_royal_standard/regular/4799773539_33d2283d78_b.jpg","medium_url":"https://perenual.com/storage/species_image/4606_kniphofia_royal_standard/medium/4799773539_33d2283d78_b.jpg","small_url":"https://perenual.com/storage/species_image/4606_kniphofia_royal_standard/small/4799773539_33d2283d78_b.jpg","thumbnail":"https://perenual.com/storage/species_image/4606_kniphofia_royal_standard/thumbnail/4799773539_33d2283d78_b.jpg"}},{"id":4608,"common_name":"red-hot poker","scientific_name":["Kniphofia uvaria"],"other_name":null,"cycle":"Perennial","watering":"Average","sunlight":["Full sun"],"default_image":{"image_id":9590,"license":4,"license_name":"Attribution License","license_url":"https://creativecommons.org/licenses/by/2.0/","original_url":"https://perenual.com/storage/species_image/4597_kniphofia_jokers_wild/og/52163689464_a94f24918b_b.jpg","regular_url":"https://perenual.com/storage/species_image/4597_kniphofia_jokers_wild/regular/52163689464_a94f24918b_b.jpg","medium_url":"https://perenual.com/storage/species_image/4597_kniphofia_jokers_wild/medium/52163689464_a94f24918b_b.jpg","small_url":"https://perenual.com/storage/species_image/4597_kniphofia_jokers_wild/small/52163689464_a94f24918b_b.jpg","thumbnail":"https://perenual.com/storage/species_image/4597_kniphofia_jokers_wild/thumbnail/52163689464_a94f24918b_b.jpg"}},{"id":4609,"common_name":"red-hot poker","scientific_name":["Kniphofia uvaria 'Echo Mango'"],"other_name":null,"cycle":"Perennial","watering":"Average","sunlight":["Full sun"],"default_image":{"image_id":22030,"license":1,"license_name":null,"license_url":null,"original_url":"https://perenual.com/storage/species_image/4609_kniphofia_uvaria_echo_mango/og/52250256870_cb3f5ea22b_b.jpg","regular_url":"https://perenual.com/storage/species_image/4609_kniphofia_uvaria_echo_mango/regular/52250256870_cb3f5ea22b_b.jpg","medium_url":"https://perenual.com/storage/species_image/4609_kniphofia_uvaria_echo_mango/medium/52250256870_cb3f5ea22b_b.jpg","small_url":"https://perenual.com/storage/species_image/4609_kniphofia_uvaria_echo_mango/small/52250256870_cb3f5ea22b_b.jpg","thumbnail":"https://perenual.com/storage/species_image/4609_kniphofia_uvaria_echo_mango/thumbnail/52250256870_cb3f5ea22b_b.jpg"}},{"id":4610,"common_name":"silver hairgrass","scientific_name":["Koeleria argentea"],"other_name":null,"cycle":"Perennial","watering":"Minimum","sunlight":["Full sun"],"default_image":{"image_id":9615,"license":5,"license_name":"Attribution-ShareAlike License","license_url":"https://creativecommons.org/licenses/by-sa/2.0/","original_url":"https://perenual.com/storage/species_image/4610_koeleria_argentea/og/27916502782_2d198506fa_b.jpg","regular_url":"https://perenual.com/storage/species_image/4610_koeleria_argentea/regular/27916502782_2d198506fa_b.jpg","medium_url":"https://perenual.com/storage/species_image/4610_koeleria_argentea/medium/27916502782_2d198506fa_b.jpg","small_url":"https://perenual.com/storage/species_image/4610_koeleria_argentea/small/27916502782_2d198506fa_b.jpg","thumbnail":"https://perenual.com/storage/species_image/4610_koeleria_argentea/thumbnail/27916502782_2d198506fa_b.jpg"}},{"id":4611,"common_name":"grey-blue koeleria","scientific_name":["Koeleria glauca"],"other_name":null,"cycle":"Perennial","watering":"Minimum","sunlight":["Full sun"],"default_image":{"image_id":9616,"license":5,"license_name":"Attribution-ShareAlike License","license_url":"https://creativecommons.org/licenses/by-sa/2.0/","original_url":"https://perenual.com/storage/species_image/4611_koeleria_glauca/og/29673766412_f60d55010c_b.jpg","regular_url":"https://perenual.com/storage/species_image/4611_koeleria_glauca/regular/29673766412_f60d55010c_b.jpg","medium_url":"https://perenual.com/storage/species_image/4611_koeleria_glauca/medium/29673766412_f60d55010c_b.jpg","small_url":"https://perenual.com/storage/species_image/4611_koeleria_glauca/small/29673766412_f60d55010c_b.jpg","thumbnail":"https://perenual.com/storage/species_image/4611_koeleria_glauca/thumbnail/29673766412_f60d55010c_b.jpg"}},{"id":4612,"common_name":"Prairie junegrass","scientific_name":["Koeleria macrantha"],"other_name":null,"cycle":"Perennial","watering":"Minimum","sunlight":["Full sun"],"default_image":{"image_id":9617,"license":5,"license_name":"Attribution-ShareAlike License","license_url":"https://creativecommons.org/licenses/by-sa/2.0/","original_url":"https://perenual.com/storage/species_image/4612_koeleria_macrantha/og/52160259656_db972102ed_b.jpg","regular_url":"https://perenual.com/storage/species_image/4612_koeleria_macrantha/regular/52160259656_db972102ed_b.jpg","medium_url":"https://perenual.com/storage/species_image/4612_koeleria_macrantha/medium/52160259656_db972102ed_b.jpg","small_url":"https://perenual.com/storage/species_image/4612_koeleria_macrantha/small/52160259656_db972102ed_b.jpg","thumbnail":"https://perenual.com/storage/species_image/4612_koeleria_macrantha/thumbnail/52160259656_db972102ed_b.jpg"}},{"id":4607,"common_name":"red-hot poker","scientific_name":["Kniphofia 'Shining Sceptre'"],"other_name":null,"cycle":"Perennial","watering":"Minimum","sunlight":["Full sun"],"default_image":{"image_id":22030,"license":1,"license_name":null,"license_url":null,"original_url":"https://perenual.com/storage/species_image/4609_kniphofia_uvaria_echo_mango/og/52250256870_cb3f5ea22b_b.jpg","regular_url":"https://perenual.com/storage/species_image/4609_kniphofia_uvaria_echo_mango/regular/52250256870_cb3f5ea22b_b.jpg","medium_url":"https://perenual.com/storage/species_image/4609_kniphofia_uvaria_echo_mango/medium/52250256870_cb3f5ea22b_b.jpg","small_url":"https://perenual.com/storage/species_image/4609_kniphofia_uvaria_echo_mango/small/52250256870_cb3f5ea22b_b.jpg","thumbnail":"https://perenual.com/storage/species_image/4609_kniphofia_uvaria_echo_mango/thumbnail/52250256870_cb3f5ea22b_b.jpg"}},{"id":4613,"common_name":"golden rain tree","scientific_name":["Koelreuteria paniculata 'September'"],"other_name":["Varnish Tree","Pride of India"],"cycle":"Perennial","watering":"Minimum","sunlight":["Full sun"],"default_image":{"image_id":9,"license":5,"license_name":"Attribution-ShareAlike License","license_url":"https://creativecommons.org/licenses/by-sa/2.0/","original_url":"https://perenual.com/storage/species_image/2_abies_alba_pyramidalis/og/49255769768_df55596553_b.jpg","regular_url":"https://perenual.com/storage/species_image/2_abies_alba_pyramidalis/regular/49255769768_df55596553_b.jpg","medium_url":"https://perenual.com/storage/species_image/2_abies_alba_pyramidalis/medium/49255769768_df55596553_b.jpg","small_url":"https://perenual.com/storage/species_image/2_abies_alba_pyramidalis/small/49255769768_df55596553_b.jpg","thumbnail":"https://perenual.com/storage/species_image/2_abies_alba_pyramidalis/thumbnail/49255769768_df55596553_b.jpg"}},{"id":4614,"common_name":"golden rain tree","scientific_name":["Koelreuteria paniculata 'Woodlanders Low Form'"],"other_name":["Varnish Tree","Pride of India"],"cycle":"Perennial","watering":"Minimum","sunlight":["Full sun"],"default_image":{"image_id":9,"license":5,"license_name":"Attribution-ShareAlike License","license_url":"https://creativecommons.org/licenses/by-sa/2.0/","original_url":"https://perenual.com/storage/species_image/2_abies_alba_pyramidalis/og/49255769768_df55596553_b.jpg","regular_url":"https://perenual.com/storage/species_image/2_abies_alba_pyramidalis/regular/49255769768_df55596553_b.jpg","medium_url":"https://perenual.com/storage/species_image/2_abies_alba_pyramidalis/medium/49255769768_df55596553_b.jpg","small_url":"https://perenual.com/storage/species_image/2_abies_alba_pyramidalis/small/49255769768_df55596553_b.jpg","thumbnail":"https://perenual.com/storage/species_image/2_abies_alba_pyramidalis/thumbnail/49255769768_df55596553_b.jpg"}},{"id":4615,"common_name":"beauty bush","scientific_name":["Kolkwitzia amabilis"],"other_name":null,"cycle":"Perennial","watering":"Average","sunlight":["Full sun"," Part sun/part shade"],"default_image":{"image_id":9626,"license":4,"license_name":"Attribution License","license_url":"https://creativecommons.org/licenses/by/2.0/","original_url":"https://perenual.com/storage/species_image/4615_kolkwitzia_amabilis/og/51308813767_1b39ef5eee_b.jpg","regular_url":"https://perenual.com/storage/species_image/4615_kolkwitzia_amabilis/regular/51308813767_1b39ef5eee_b.jpg","medium_url":"https://perenual.com/storage/species_image/4615_kolkwitzia_amabilis/medium/51308813767_1b39ef5eee_b.jpg","small_url":"https://perenual.com/storage/species_image/4615_kolkwitzia_amabilis/small/51308813767_1b39ef5eee_b.jpg","thumbnail":"https://perenual.com/storage/species_image/4615_kolkwitzia_amabilis/thumbnail/51308813767_1b39ef5eee_b.jpg"}},{"id":4616,"common_name":"beauty bush","scientific_name":["Kolkwitzia amabilis 'Maradco' DREAM CATCHER"],"other_name":null,"cycle":"Perennial","watering":"Average","sunlight":["Full sun"," Part sun/part shade"],"default_image":{"image_id":9627,"license":5,"license_name":"Attribution-ShareAlike License","license_url":"https://creativecommons.org/licenses/by-sa/2.0/","original_url":"https://perenual.com/storage/species_image/4615_kolkwitzia_amabilis/og/49968389501_60a564d81f_b.jpg","regular_url":"https://perenual.com/storage/species_image/4615_kolkwitzia_amabilis/regular/49968389501_60a564d81f_b.jpg","medium_url":"https://perenual.com/storage/species_image/4615_kolkwitzia_amabilis/medium/49968389501_60a564d81f_b.jpg","small_url":"https://perenual.com/storage/species_image/4615_kolkwitzia_amabilis/small/49968389501_60a564d81f_b.jpg","thumbnail":"https://perenual.com/storage/species_image/4615_kolkwitzia_amabilis/thumbnail/49968389501_60a564d81f_b.jpg"}},{"id":4617,"common_name":"beautybush","scientific_name":["Kolkwitzia amabilis 'Pink Cloud'"],"other_name":null,"cycle":"Perennial","watering":"Average","sunlight":["Full sun"," Part sun/part shade"],"default_image":{"image_id":9633,"license":5,"license_name":"Attribution-ShareAlike License","license_url":"https://creativecommons.org/licenses/by-sa/2.0/","original_url":"https://perenual.com/storage/species_image/4617_kolkwitzia_amabilis_pink_cloud/og/9940381896_6438c11176_b.jpg","regular_url":"https://perenual.com/storage/species_image/4617_kolkwitzia_amabilis_pink_cloud/regular/9940381896_6438c11176_b.jpg","medium_url":"https://perenual.com/storage/species_image/4617_kolkwitzia_amabilis_pink_cloud/medium/9940381896_6438c11176_b.jpg","small_url":"https://perenual.com/storage/species_image/4617_kolkwitzia_amabilis_pink_cloud/small/9940381896_6438c11176_b.jpg","thumbnail":"https://perenual.com/storage/species_image/4617_kolkwitzia_amabilis_pink_cloud/thumbnail/9940381896_6438c11176_b.jpg"}},{"id":4618,"common_name":"seashore mallow","scientific_name":["Kosteletzkya virginica"],"other_name":null,"cycle":"Perennial","watering":"Frequent","sunlight":["Full sun"],"default_image":{"image_id":9638,"license":4,"license_name":"Attribution License","license_url":"https://creativecommons.org/licenses/by/2.0/","original_url":"https://perenual.com/storage/species_image/4618_kosteletzkya_virginica/og/52092218305_bc6d01beeb_b.jpg","regular_url":"https://perenual.com/storage/species_image/4618_kosteletzkya_virginica/regular/52092218305_bc6d01beeb_b.jpg","medium_url":"https://perenual.com/storage/species_image/4618_kosteletzkya_virginica/medium/52092218305_bc6d01beeb_b.jpg","small_url":"https://perenual.com/storage/species_image/4618_kosteletzkya_virginica/small/52092218305_bc6d01beeb_b.jpg","thumbnail":"https://perenual.com/storage/species_image/4618_kosteletzkya_virginica/thumbnail/52092218305_bc6d01beeb_b.jpg"}},{"id":4619,"common_name":"hyacinth bean","scientific_name":["Lablab purpureus"],"other_name":null,"cycle":"Perennial","watering":"Average","sunlight":["Full sun","part shade"],"default_image":{"image_id":9646,"license":4,"license_name":"Attribution License","license_url":"https://creativecommons.org/licenses/by/2.0/","original_url":"https://perenual.com/storage/species_image/4619_lablab_purpureus/og/42412631060_9431d0cf38_b.jpg","regular_url":"https://perenual.com/storage/species_image/4619_lablab_purpureus/regular/42412631060_9431d0cf38_b.jpg","medium_url":"https://perenual.com/storage/species_image/4619_lablab_purpureus/medium/42412631060_9431d0cf38_b.jpg","small_url":"https://perenual.com/storage/species_image/4619_lablab_purpureus/small/42412631060_9431d0cf38_b.jpg","thumbnail":"https://perenual.com/storage/species_image/4619_lablab_purpureus/thumbnail/42412631060_9431d0cf38_b.jpg"}},{"id":4620,"common_name":"Scotch laburnum","scientific_name":["Laburnum alpinum"],"other_name":null,"cycle":"Perennial","watering":"Average","sunlight":["Full sun","part shade"],"default_image":{"image_id":9655,"license":5,"license_name":"Attribution-ShareAlike License","license_url":"https://creativecommons.org/licenses/by-sa/2.0/","original_url":"https://perenual.com/storage/species_image/4620_laburnum_alpinum/og/34740053765_b157af03c3_b.jpg","regular_url":"https://perenual.com/storage/species_image/4620_laburnum_alpinum/regular/34740053765_b157af03c3_b.jpg","medium_url":"https://perenual.com/storage/species_image/4620_laburnum_alpinum/medium/34740053765_b157af03c3_b.jpg","small_url":"https://perenual.com/storage/species_image/4620_laburnum_alpinum/small/34740053765_b157af03c3_b.jpg","thumbnail":"https://perenual.com/storage/species_image/4620_laburnum_alpinum/thumbnail/34740053765_b157af03c3_b.jpg"}}],"to":4620,"per_page":30,"current_page":154,"from":4591,"last_page":200,"total":6000}