{"data":[{"id":1411,"common_name":"boxwood","scientific_name":["Buxus microphylla 'Apple Green'"],"other_name":["Korean boxwood"],"cycle":"Perennial","watering":"Average","sunlight":["Filtered shade"," Full sun only if soil kept moist"," Part sun/part shade"],"default_image":null},{"id":1412,"common_name":"boxwood","scientific_name":["Buxus microphylla 'Compacta'"],"other_name":["Korean boxwood"],"cycle":"Perennial","watering":"Average","sunlight":["Filtered shade"," Full sun only if soil kept moist"," Part sun/part shade"],"default_image":null},{"id":1413,"common_name":"boxwood","scientific_name":["Buxus microphylla 'Curly Locks'"],"other_name":["Korean boxwood"],"cycle":"Perennial","watering":"Average","sunlight":["Filtered shade"," Full sun only if soil kept moist"," Part sun/part shade"],"default_image":{"image_id":3265,"license":5,"license_name":"Attribution-ShareAlike License","license_url":"https://creativecommons.org/licenses/by-sa/2.0/","original_url":"https://perenual.com/storage/species_image/1413_buxus_microphylla_curly_locks/og/37946702376_456d65b6c5_b.jpg","regular_url":"https://perenual.com/storage/species_image/1413_buxus_microphylla_curly_locks/regular/37946702376_456d65b6c5_b.jpg","medium_url":"https://perenual.com/storage/species_image/1413_buxus_microphylla_curly_locks/medium/37946702376_456d65b6c5_b.jpg","small_url":"https://perenual.com/storage/species_image/1413_buxus_microphylla_curly_locks/small/37946702376_456d65b6c5_b.jpg","thumbnail":"https://perenual.com/storage/species_image/1413_buxus_microphylla_curly_locks/thumbnail/37946702376_456d65b6c5_b.jpg"}},{"id":1414,"common_name":"boxwood","scientific_name":["Buxus microphylla 'Green Pillow'"],"other_name":["Korean boxwood"],"cycle":"Perennial","watering":"Average","sunlight":["Filtered shade"," Full sun only if soil kept moist"," Part sun/part shade"],"default_image":{"image_id":3262,"license":5,"license_name":"Attribution-ShareAlike License","license_url":"https://creativecommons.org/licenses/by-sa/2.0/","original_url":"https://perenual.com/storage/species_image/1414_buxus_microphylla_green_pillow/og/30482829286_2ccd5afb81_b.jpg","regular_url":"https://perenual.com/storage/species_image/1414_buxus_microphylla_green_pillow/regular/30482829286_2ccd5afb81_b.jpg","medium_url":"https://perenual.com/storage/species_image/1414_buxus_microphylla_green_pillow/medium/30482829286_2ccd5afb81_b.jpg","small_url":"https://perenual.com/storage/species_image/1414_buxus_microphylla_green_pillow/small/30482829286_2ccd5afb81_b.jpg","thumbnail":"https://perenual.com/storage/species_image/1414_buxus_microphylla_green_pillow/thumbnail/30482829286_2ccd5afb81_b.jpg"}},{"id":1415,"common_name":"boxwood","scientific_name":["Buxus microphylla 'John Baldwin'"],"other_name":["Korean boxwood"],"cycle":"Perennial","watering":"Average","sunlight":["Filtered shade"," Full sun only if soil kept moist"," Part sun/part shade"],"default_image":null},{"id":1416,"common_name":"boxwood","scientific_name":["Buxus microphylla 'Peergold' GOLDEN DREAM"],"other_name":["Korean boxwood"],"cycle":"Perennial","watering":"Average","sunlight":["Filtered shade"," Full sun only if soil kept moist"," Part sun/part shade"],"default_image":null},{"id":1417,"common_name":"Japanese boxwood","scientific_name":["Buxus microphylla var. japonica"],"other_name":["Korean boxwood"],"cycle":"Perennial","watering":"Average","sunlight":["Filtered shade"," Full sun only if soil kept moist"," Part sun/part shade"],"default_image":{"image_id":3263,"license":4,"license_name":"Attribution License","license_url":"https://creativecommons.org/licenses/by/2.0/","original_url":"https://perenual.com/storage/species_image/1421_buxus_microphylla_var_japonica_winter_gem/og/24808513161_a90519f40d_b.jpg","regular_url":"https://perenual.com/storage/species_image/1421_buxus_microphylla_var_japonica_winter_gem/regular/24808513161_a90519f40d_b.jpg","medium_url":"https://perenual.com/storage/species_image/1421_buxus_microphylla_var_japonica_winter_gem/medium/24808513161_a90519f40d_b.jpg","small_url":"https://perenual.com/storage/species_image/1421_buxus_microphylla_var_japonica_winter_gem/small/24808513161_a90519f40d_b.jpg","thumbnail":"https://perenual.com/storage/species_image/1421_buxus_microphylla_var_japonica_winter_gem/thumbnail/24808513161_a90519f40d_b.jpg"}},{"id":1418,"common_name":"Japanese boxwood","scientific_name":["Buxus microphylla var. japonica 'Green Beauty'"],"other_name":["Korean boxwood"],"cycle":"Perennial","watering":"Average","sunlight":["Filtered shade"," Full sun only if soil kept moist"," Part sun/part shade"],"default_image":{"image_id":3260,"license":5,"license_name":"Attribution-ShareAlike License","license_url":"https://creativecommons.org/licenses/by-sa/2.0/","original_url":"https://perenual.com/storage/species_image/1418_buxus_microphylla_var_japonica_green_beauty/og/51924140638_bbc40bb151_b.jpg","regular_url":"https://perenual.com/storage/species_image/1418_buxus_microphylla_var_japonica_green_beauty/regular/51924140638_bbc40bb151_b.jpg","medium_url":"https://perenual.com/storage/species_image/1418_buxus_microphylla_var_japonica_green_beauty/medium/51924140638_bbc40bb151_b.jpg","small_url":"https://perenual.com/storage/species_image/1418_buxus_microphylla_var_japonica_green_beauty/small/51924140638_bbc40bb151_b.jpg","thumbnail":"https://perenual.com/storage/species_image/1418_buxus_microphylla_var_japonica_green_beauty/thumbnail/51924140638_bbc40bb151_b.jpg"}},{"id":1419,"common_name":"Japanese boxwood","scientific_name":["Buxus microphylla var. japonica 'Morris Midget'"],"other_name":["Korean boxwood"],"cycle":"Perennial","watering":"Average","sunlight":["Filtered shade"," Full sun only if soil kept moist"," Part sun/part shade"],"default_image":{"image_id":3263,"license":4,"license_name":"Attribution License","license_url":"https://creativecommons.org/licenses/by/2.0/","original_url":"https://perenual.com/storage/species_image/1421_buxus_microphylla_var_japonica_winter_gem/og/24808513161_a90519f40d_b.jpg","regular_url":"https://perenual.com/storage/species_image/1421_buxus_microphylla_var_japonica_winter_gem/regular/24808513161_a90519f40d_b.jpg","medium_url":"https://perenual.com/storage/species_image/1421_buxus_microphylla_var_japonica_winter_gem/medium/24808513161_a90519f40d_b.jpg","small_url":"https://perenual.com/storage/species_image/1421_buxus_microphylla_var_japonica_winter_gem/small/24808513161_a90519f40d_b.jpg","thumbnail":"https://perenual.com/storage/species_image/1421_buxus_microphylla_var_japonica_winter_gem/thumbnail/24808513161_a90519f40d_b.jpg"}},{"id":1420,"common_name":"Japanese boxwood","scientific_name":["Buxus microphylla var. japonica 'National'"],"other_name":["Korean boxwood"],"cycle":"Perennial","watering":"Average","sunlight":["Filtered shade"," Full sun only if soil kept moist"," Part sun/part shade"],"default_image":{"image_id":3267,"license":4,"license_name":"Attribution License","license_url":"https://creativecommons.org/licenses/by/2.0/","original_url":"https://perenual.com/storage/species_image/1420_buxus_microphylla_var_japonica_national/og/24534276389_6c64bdee08_b.jpg","regular_url":"https://perenual.com/storage/species_image/1420_buxus_microphylla_var_japonica_national/regular/24534276389_6c64bdee08_b.jpg","medium_url":"https://perenual.com/storage/species_image/1420_buxus_microphylla_var_japonica_national/medium/24534276389_6c64bdee08_b.jpg","small_url":"https://perenual.com/storage/species_image/1420_buxus_microphylla_var_japonica_national/small/24534276389_6c64bdee08_b.jpg","thumbnail":"https://perenual.com/storage/species_image/1420_buxus_microphylla_var_japonica_national/thumbnail/24534276389_6c64bdee08_b.jpg"}},{"id":1421,"common_name":"Japanese boxwood","scientific_name":["Buxus microphylla var. japonica 'Winter Gem'"],"other_name":["Korean boxwood"],"cycle":"Perennial","watering":"Average","sunlight":["Filtered shade"," Full sun only if soil kept moist"," Part sun/part shade"],"default_image":{"image_id":3266,"license":4,"license_name":"Attribution License","license_url":"https://creativecommons.org/licenses/by/2.0/","original_url":"https://perenual.com/storage/species_image/1421_buxus_microphylla_var_japonica_winter_gem/og/24273252824_eb65abca60_b.jpg","regular_url":"https://perenual.com/storage/species_image/1421_buxus_microphylla_var_japonica_winter_gem/regular/24273252824_eb65abca60_b.jpg","medium_url":"https://perenual.com/storage/species_image/1421_buxus_microphylla_var_japonica_winter_gem/medium/24273252824_eb65abca60_b.jpg","small_url":"https://perenual.com/storage/species_image/1421_buxus_microphylla_var_japonica_winter_gem/small/24273252824_eb65abca60_b.jpg","thumbnail":"https://perenual.com/storage/species_image/1421_buxus_microphylla_var_japonica_winter_gem/thumbnail/24273252824_eb65abca60_b.jpg"}},{"id":1422,"common_name":"common box","scientific_name":["Buxus sempervirens"],"other_name":null,"cycle":"Perennial","watering":"Average","sunlight":["Deep shade"," Filtered shade"," Full sun only if soil kept moist"," Part sun/part shade"],"default_image":{"image_id":3271,"license":5,"license_name":"Attribution-ShareAlike License","license_url":"https://creativecommons.org/licenses/by-sa/2.0/","original_url":"https://perenual.com/storage/species_image/1422_buxus_sempervirens/og/51944088906_7a93dc559c_b.jpg","regular_url":"https://perenual.com/storage/species_image/1422_buxus_sempervirens/regular/51944088906_7a93dc559c_b.jpg","medium_url":"https://perenual.com/storage/species_image/1422_buxus_sempervirens/medium/51944088906_7a93dc559c_b.jpg","small_url":"https://perenual.com/storage/species_image/1422_buxus_sempervirens/small/51944088906_7a93dc559c_b.jpg","thumbnail":"https://perenual.com/storage/species_image/1422_buxus_sempervirens/thumbnail/51944088906_7a93dc559c_b.jpg"}},{"id":1423,"common_name":"boxwood","scientific_name":["Buxus sempervirens 'Appalachian Pyramid'"],"other_name":null,"cycle":"Perennial","watering":"Average","sunlight":["Deep shade"," Filtered shade"," Full sun only if soil kept moist"," Part sun/part shade"],"default_image":null},{"id":1424,"common_name":"boxwood","scientific_name":["Buxus sempervirens 'Aurea Pendula'"],"other_name":null,"cycle":"Perennial","watering":"Average","sunlight":["Deep shade"," Filtered shade"," Full sun only if soil kept moist"," Part sun/part shade"],"default_image":{"image_id":3276,"license":5,"license_name":"Attribution-ShareAlike License","license_url":"https://creativecommons.org/licenses/by-sa/2.0/","original_url":"https://perenual.com/storage/species_image/1424_buxus_sempervirens_aurea_pendula/og/26602310275_287748b917_b.jpg","regular_url":"https://perenual.com/storage/species_image/1424_buxus_sempervirens_aurea_pendula/regular/26602310275_287748b917_b.jpg","medium_url":"https://perenual.com/storage/species_image/1424_buxus_sempervirens_aurea_pendula/medium/26602310275_287748b917_b.jpg","small_url":"https://perenual.com/storage/species_image/1424_buxus_sempervirens_aurea_pendula/small/26602310275_287748b917_b.jpg","thumbnail":"https://perenual.com/storage/species_image/1424_buxus_sempervirens_aurea_pendula/thumbnail/26602310275_287748b917_b.jpg"}},{"id":1425,"common_name":"boxwood","scientific_name":["Buxus sempervirens 'Chloe'"],"other_name":null,"cycle":"Perennial","watering":"Average","sunlight":["Deep shade"," Filtered shade"," Full sun only if soil kept moist"," Part sun/part shade"],"default_image":null},{"id":1426,"common_name":"boxwood","scientific_name":["Buxus sempervirens 'Dee Runk'"],"other_name":null,"cycle":"Perennial","watering":"Average","sunlight":["Deep shade"," Filtered shade"," Full sun only if soil kept moist"," Part sun/part shade"],"default_image":null},{"id":1427,"common_name":"boxwood","scientific_name":["Buxus sempervirens 'Edgar Anderson'"],"other_name":null,"cycle":"Perennial","watering":"Average","sunlight":["Deep shade"," Filtered shade"," Full sun only if soil kept moist"," Part sun/part shade"],"default_image":null},{"id":1428,"common_name":"boxwood","scientific_name":["Buxus sempervirens 'Elegantissima'"],"other_name":null,"cycle":"Perennial","watering":"Average","sunlight":["Deep shade"," Filtered shade"," Full sun only if soil kept moist"," Part sun/part shade"],"default_image":{"image_id":3277,"license":5,"license_name":"Attribution-ShareAlike License","license_url":"https://creativecommons.org/licenses/by-sa/2.0/","original_url":"https://perenual.com/storage/species_image/1428_buxus_sempervirens_elegantissima/og/27690975111_3265c36283_b.jpg","regular_url":"https://perenual.com/storage/species_image/1428_buxus_sempervirens_elegantissima/regular/27690975111_3265c36283_b.jpg","medium_url":"https://perenual.com/storage/species_image/1428_buxus_sempervirens_elegantissima/medium/27690975111_3265c36283_b.jpg","small_url":"https://perenual.com/storage/species_image/1428_buxus_sempervirens_elegantissima/small/27690975111_3265c36283_b.jpg","thumbnail":"https://perenual.com/storage/species_image/1428_buxus_sempervirens_elegantissima/thumbnail/27690975111_3265c36283_b.jpg"}},{"id":1429,"common_name":"boxwood","scientific_name":["Buxus sempervirens 'Fastigiata'"],"other_name":null,"cycle":"Perennial","watering":"Average","sunlight":["Deep shade"," Filtered shade"," Full sun only if soil kept moist"," Part sun/part shade"],"default_image":null},{"id":1430,"common_name":"boxwood","scientific_name":["Buxus sempervirens 'Flora Place'"],"other_name":null,"cycle":"Perennial","watering":"Average","sunlight":["Deep shade"," Filtered shade"," Full sun only if soil kept moist"," Part sun/part shade"],"default_image":null},{"id":1431,"common_name":"boxwood","scientific_name":["Buxus sempervirens 'Furore' JADE PILLAR"],"other_name":null,"cycle":"Perennial","watering":"Average","sunlight":["Deep shade"," Filtered shade"," Full sun only if soil kept moist"," Part sun/part shade"],"default_image":null},{"id":1432,"common_name":"boxwood","scientific_name":["Buxus sempervirens 'Graham Blandy'"],"other_name":null,"cycle":"Perennial","watering":"Average","sunlight":["Deep shade"," Filtered shade"," Full sun only if soil kept moist"," Part sun/part shade"],"default_image":{"image_id":3278,"license":5,"license_name":"Attribution-ShareAlike License","license_url":"https://creativecommons.org/licenses/by-sa/2.0/","original_url":"https://perenual.com/storage/species_image/1432_buxus_sempervirens_graham_blandy/og/27848874906_ebbd1b0e6b_b.jpg","regular_url":"https://perenual.com/storage/species_image/1432_buxus_sempervirens_graham_blandy/regular/27848874906_ebbd1b0e6b_b.jpg","medium_url":"https://perenual.com/storage/species_image/1432_buxus_sempervirens_graham_blandy/medium/27848874906_ebbd1b0e6b_b.jpg","small_url":"https://perenual.com/storage/species_image/1432_buxus_sempervirens_graham_blandy/small/27848874906_ebbd1b0e6b_b.jpg","thumbnail":"https://perenual.com/storage/species_image/1432_buxus_sempervirens_graham_blandy/thumbnail/27848874906_ebbd1b0e6b_b.jpg"}},{"id":1433,"common_name":"boxwood","scientific_name":["Buxus sempervirens 'Henry Shaw'"],"other_name":null,"cycle":"Perennial","watering":"Average","sunlight":["Deep shade"," Filtered shade"," Full sun only if soil kept moist"," Part sun/part shade"],"default_image":null},{"id":1434,"common_name":"boxwood","scientific_name":["Buxus sempervirens 'Inglis'"],"other_name":null,"cycle":"Perennial","watering":"Average","sunlight":["Deep shade"," Filtered shade"," Full sun only if soil kept moist"," Part sun/part shade"],"default_image":null},{"id":1435,"common_name":"boxwood","scientific_name":["Buxus sempervirens 'Joy'"],"other_name":null,"cycle":"Perennial","watering":"Average","sunlight":["Deep shade"," Filtered shade"," Full sun only if soil kept moist"," Part sun/part shade"],"default_image":null},{"id":1436,"common_name":"boxwood","scientific_name":["Buxus sempervirens 'Mary Gamble'"],"other_name":null,"cycle":"Perennial","watering":"Average","sunlight":["Deep shade"," Filtered shade"," Full sun only if soil kept moist"," Part sun/part shade"],"default_image":null},{"id":1437,"common_name":"boxwood","scientific_name":["Buxus sempervirens 'Memorial'"],"other_name":null,"cycle":"Perennial","watering":"Average","sunlight":["Deep shade"," Filtered shade"," Full sun only if soil kept moist"," Part sun/part shade"],"default_image":{"image_id":3279,"license":5,"license_name":"Attribution-ShareAlike License","license_url":"https://creativecommons.org/licenses/by-sa/2.0/","original_url":"https://perenual.com/storage/species_image/1437_buxus_sempervirens_memorial/og/29888354994_aa5a284e57_b.jpg","regular_url":"https://perenual.com/storage/species_image/1437_buxus_sempervirens_memorial/regular/29888354994_aa5a284e57_b.jpg","medium_url":"https://perenual.com/storage/species_image/1437_buxus_sempervirens_memorial/medium/29888354994_aa5a284e57_b.jpg","small_url":"https://perenual.com/storage/species_image/1437_buxus_sempervirens_memorial/small/29888354994_aa5a284e57_b.jpg","thumbnail":"https://perenual.com/storage/species_image/1437_buxus_sempervirens_memorial/thumbnail/29888354994_aa5a284e57_b.jpg"}},{"id":1438,"common_name":"boxwood","scientific_name":["Buxus sempervirens 'Myrtifolia'"],"other_name":null,"cycle":"Perennial","watering":"Average","sunlight":["Deep shade"," Filtered shade"," Full sun only if soil kept moist"," Part sun/part shade"],"default_image":{"image_id":9,"license":5,"license_name":"Attribution-ShareAlike License","license_url":"https://creativecommons.org/licenses/by-sa/2.0/","original_url":"https://perenual.com/storage/species_image/2_abies_alba_pyramidalis/og/49255769768_df55596553_b.jpg","regular_url":"https://perenual.com/storage/species_image/2_abies_alba_pyramidalis/regular/49255769768_df55596553_b.jpg","medium_url":"https://perenual.com/storage/species_image/2_abies_alba_pyramidalis/medium/49255769768_df55596553_b.jpg","small_url":"https://perenual.com/storage/species_image/2_abies_alba_pyramidalis/small/49255769768_df55596553_b.jpg","thumbnail":"https://perenual.com/storage/species_image/2_abies_alba_pyramidalis/thumbnail/49255769768_df55596553_b.jpg"}},{"id":1439,"common_name":"boxwood","scientific_name":["Buxus sempervirens 'Natchez'"],"other_name":null,"cycle":"Perennial","watering":"Average","sunlight":["Deep shade"," Filtered shade"," Full sun only if soil kept moist"," Part sun/part shade"],"default_image":{"image_id":9,"license":5,"license_name":"Attribution-ShareAlike License","license_url":"https://creativecommons.org/licenses/by-sa/2.0/","original_url":"https://perenual.com/storage/species_image/2_abies_alba_pyramidalis/og/49255769768_df55596553_b.jpg","regular_url":"https://perenual.com/storage/species_image/2_abies_alba_pyramidalis/regular/49255769768_df55596553_b.jpg","medium_url":"https://perenual.com/storage/species_image/2_abies_alba_pyramidalis/medium/49255769768_df55596553_b.jpg","small_url":"https://perenual.com/storage/species_image/2_abies_alba_pyramidalis/small/49255769768_df55596553_b.jpg","thumbnail":"https://perenual.com/storage/species_image/2_abies_alba_pyramidalis/thumbnail/49255769768_df55596553_b.jpg"}},{"id":1440,"common_name":"boxwood","scientific_name":["Buxus sempervirens 'Nish'"],"other_name":null,"cycle":"Perennial","watering":"Average","sunlight":["Deep shade"," Filtered shade"," Full sun only if soil kept moist"," Part sun/part shade"],"default_image":null}],"to":1440,"per_page":30,"current_page":48,"from":1411,"last_page":200,"total":6000}