{"data":[{"id":2461,"common_name":"blue ginger","scientific_name":["Dichorisandra thyrsiflora"],"other_name":null,"cycle":"Perennial","watering":"Average","sunlight":["Part shade"],"default_image":{"image_id":9,"license":5,"license_name":"Attribution-ShareAlike License","license_url":"https://creativecommons.org/licenses/by-sa/2.0/","original_url":"https://perenual.com/storage/species_image/2_abies_alba_pyramidalis/og/49255769768_df55596553_b.jpg","regular_url":"https://perenual.com/storage/species_image/2_abies_alba_pyramidalis/regular/49255769768_df55596553_b.jpg","medium_url":"https://perenual.com/storage/species_image/2_abies_alba_pyramidalis/medium/49255769768_df55596553_b.jpg","small_url":"https://perenual.com/storage/species_image/2_abies_alba_pyramidalis/small/49255769768_df55596553_b.jpg","thumbnail":"https://perenual.com/storage/species_image/2_abies_alba_pyramidalis/thumbnail/49255769768_df55596553_b.jpg"}},{"id":2462,"common_name":"Chinese quinine","scientific_name":["Dichroa febrifuga"],"other_name":null,"cycle":"Perennial","watering":"Average","sunlight":["Part shade"],"default_image":{"image_id":5563,"license":5,"license_name":"Attribution-ShareAlike License","license_url":"https://creativecommons.org/licenses/by-sa/2.0/","original_url":"https://perenual.com/storage/species_image/2462_dichroa_febrifuga/og/33126877948_782574be25_b.jpg","regular_url":"https://perenual.com/storage/species_image/2462_dichroa_febrifuga/regular/33126877948_782574be25_b.jpg","medium_url":"https://perenual.com/storage/species_image/2462_dichroa_febrifuga/medium/33126877948_782574be25_b.jpg","small_url":"https://perenual.com/storage/species_image/2462_dichroa_febrifuga/small/33126877948_782574be25_b.jpg","thumbnail":"https://perenual.com/storage/species_image/2462_dichroa_febrifuga/thumbnail/33126877948_782574be25_b.jpg"}},{"id":2463,"common_name":"soft tree fern","scientific_name":["Dicksonia antarctica"],"other_name":null,"cycle":"Perennial","watering":"Frequent","sunlight":["Part shade","full shade"],"default_image":{"image_id":5566,"license":5,"license_name":"Attribution-ShareAlike License","license_url":"https://creativecommons.org/licenses/by-sa/2.0/","original_url":"https://perenual.com/storage/species_image/2463_dicksonia_antarctica/og/52447320602_78d1b2017d_b.jpg","regular_url":"https://perenual.com/storage/species_image/2463_dicksonia_antarctica/regular/52447320602_78d1b2017d_b.jpg","medium_url":"https://perenual.com/storage/species_image/2463_dicksonia_antarctica/medium/52447320602_78d1b2017d_b.jpg","small_url":"https://perenual.com/storage/species_image/2463_dicksonia_antarctica/small/52447320602_78d1b2017d_b.jpg","thumbnail":"https://perenual.com/storage/species_image/2463_dicksonia_antarctica/thumbnail/52447320602_78d1b2017d_b.jpg"}},{"id":2464,"common_name":"dicliptera","scientific_name":["Dicliptera squarrosa"],"other_name":null,"cycle":"Perennial","watering":"Average","sunlight":["Full sun"],"default_image":{"image_id":9,"license":5,"license_name":"Attribution-ShareAlike License","license_url":"https://creativecommons.org/licenses/by-sa/2.0/","original_url":"https://perenual.com/storage/species_image/2_abies_alba_pyramidalis/og/49255769768_df55596553_b.jpg","regular_url":"https://perenual.com/storage/species_image/2_abies_alba_pyramidalis/regular/49255769768_df55596553_b.jpg","medium_url":"https://perenual.com/storage/species_image/2_abies_alba_pyramidalis/medium/49255769768_df55596553_b.jpg","small_url":"https://perenual.com/storage/species_image/2_abies_alba_pyramidalis/small/49255769768_df55596553_b.jpg","thumbnail":"https://perenual.com/storage/species_image/2_abies_alba_pyramidalis/thumbnail/49255769768_df55596553_b.jpg"}},{"id":2465,"common_name":"dittany","scientific_name":["Dictamnus albus"],"other_name":null,"cycle":"Perennial","watering":"Average","sunlight":["Full sun"],"default_image":{"image_id":5568,"license":5,"license_name":"Attribution-ShareAlike License","license_url":"https://creativecommons.org/licenses/by-sa/2.0/","original_url":"https://perenual.com/storage/species_image/2465_dictamnus_albus/og/35837112113_6635044261_b.jpg","regular_url":"https://perenual.com/storage/species_image/2465_dictamnus_albus/regular/35837112113_6635044261_b.jpg","medium_url":"https://perenual.com/storage/species_image/2465_dictamnus_albus/medium/35837112113_6635044261_b.jpg","small_url":"https://perenual.com/storage/species_image/2465_dictamnus_albus/small/35837112113_6635044261_b.jpg","thumbnail":"https://perenual.com/storage/species_image/2465_dictamnus_albus/thumbnail/35837112113_6635044261_b.jpg"}},{"id":2466,"common_name":"dittany","scientific_name":["Dictamnus albus 'Albiflorus'"],"other_name":null,"cycle":"Perennial","watering":"Average","sunlight":["Full sun","part shade"],"default_image":{"image_id":9,"license":5,"license_name":"Attribution-ShareAlike License","license_url":"https://creativecommons.org/licenses/by-sa/2.0/","original_url":"https://perenual.com/storage/species_image/2_abies_alba_pyramidalis/og/49255769768_df55596553_b.jpg","regular_url":"https://perenual.com/storage/species_image/2_abies_alba_pyramidalis/regular/49255769768_df55596553_b.jpg","medium_url":"https://perenual.com/storage/species_image/2_abies_alba_pyramidalis/medium/49255769768_df55596553_b.jpg","small_url":"https://perenual.com/storage/species_image/2_abies_alba_pyramidalis/small/49255769768_df55596553_b.jpg","thumbnail":"https://perenual.com/storage/species_image/2_abies_alba_pyramidalis/thumbnail/49255769768_df55596553_b.jpg"}},{"id":2467,"common_name":"dittany","scientific_name":["Dictamnus albus var. purpureus"],"other_name":null,"cycle":"Perennial","watering":"Average","sunlight":["Full sun"],"default_image":{"image_id":5574,"license":4,"license_name":"Attribution License","license_url":"https://creativecommons.org/licenses/by/2.0/","original_url":"https://perenual.com/storage/species_image/2467_dictamnus_albus_var_purpureus/og/50061468741_4de73f0eae_b.jpg","regular_url":"https://perenual.com/storage/species_image/2467_dictamnus_albus_var_purpureus/regular/50061468741_4de73f0eae_b.jpg","medium_url":"https://perenual.com/storage/species_image/2467_dictamnus_albus_var_purpureus/medium/50061468741_4de73f0eae_b.jpg","small_url":"https://perenual.com/storage/species_image/2467_dictamnus_albus_var_purpureus/small/50061468741_4de73f0eae_b.jpg","thumbnail":"https://perenual.com/storage/species_image/2467_dictamnus_albus_var_purpureus/thumbnail/50061468741_4de73f0eae_b.jpg"}},{"id":2468,"common_name":"dumb cane","scientific_name":["Dieffenbachia seguine"],"other_name":null,"cycle":"Perennial","watering":"Average","sunlight":["Filtered shade"],"default_image":{"image_id":5576,"license":4,"license_name":"Attribution License","license_url":"https://creativecommons.org/licenses/by/2.0/","original_url":"https://perenual.com/storage/species_image/2468_dieffenbachia_seguine/og/24449059743_2aee995991_b.jpg","regular_url":"https://perenual.com/storage/species_image/2468_dieffenbachia_seguine/regular/24449059743_2aee995991_b.jpg","medium_url":"https://perenual.com/storage/species_image/2468_dieffenbachia_seguine/medium/24449059743_2aee995991_b.jpg","small_url":"https://perenual.com/storage/species_image/2468_dieffenbachia_seguine/small/24449059743_2aee995991_b.jpg","thumbnail":"https://perenual.com/storage/species_image/2468_dieffenbachia_seguine/thumbnail/24449059743_2aee995991_b.jpg"}},{"id":2469,"common_name":"Angel’s fishing rod","scientific_name":["Dierama igneum"],"other_name":null,"cycle":"Perennial","watering":"Average","sunlight":["Full sun"],"default_image":{"image_id":5578,"license":5,"license_name":"Attribution-ShareAlike License","license_url":"https://creativecommons.org/licenses/by-sa/2.0/","original_url":"https://perenual.com/storage/species_image/2469_dierama_igneum/og/5890470263_12803435df_b.jpg","regular_url":"https://perenual.com/storage/species_image/2469_dierama_igneum/regular/5890470263_12803435df_b.jpg","medium_url":"https://perenual.com/storage/species_image/2469_dierama_igneum/medium/5890470263_12803435df_b.jpg","small_url":"https://perenual.com/storage/species_image/2469_dierama_igneum/small/5890470263_12803435df_b.jpg","thumbnail":"https://perenual.com/storage/species_image/2469_dierama_igneum/thumbnail/5890470263_12803435df_b.jpg"}},{"id":2470,"common_name":"angel's fishing rods","scientific_name":["Dierama pendulum"],"other_name":null,"cycle":"Perennial","watering":"Average","sunlight":["Full sun"],"default_image":{"image_id":5580,"license":4,"license_name":"Attribution License","license_url":"https://creativecommons.org/licenses/by/2.0/","original_url":"https://perenual.com/storage/species_image/2470_dierama_pendulum/og/196231514_c687561fd9_b.jpg","regular_url":"https://perenual.com/storage/species_image/2470_dierama_pendulum/regular/196231514_c687561fd9_b.jpg","medium_url":"https://perenual.com/storage/species_image/2470_dierama_pendulum/medium/196231514_c687561fd9_b.jpg","small_url":"https://perenual.com/storage/species_image/2470_dierama_pendulum/small/196231514_c687561fd9_b.jpg","thumbnail":"https://perenual.com/storage/species_image/2470_dierama_pendulum/thumbnail/196231514_c687561fd9_b.jpg"}},{"id":2471,"common_name":"dwarf bush-honeysuckle","scientific_name":["Diervilla 'Copper'"],"other_name":null,"cycle":"Perennial","watering":"Average","sunlight":["Full sun","part shade"],"default_image":{"image_id":9,"license":5,"license_name":"Attribution-ShareAlike License","license_url":"https://creativecommons.org/licenses/by-sa/2.0/","original_url":"https://perenual.com/storage/species_image/2_abies_alba_pyramidalis/og/49255769768_df55596553_b.jpg","regular_url":"https://perenual.com/storage/species_image/2_abies_alba_pyramidalis/regular/49255769768_df55596553_b.jpg","medium_url":"https://perenual.com/storage/species_image/2_abies_alba_pyramidalis/medium/49255769768_df55596553_b.jpg","small_url":"https://perenual.com/storage/species_image/2_abies_alba_pyramidalis/small/49255769768_df55596553_b.jpg","thumbnail":"https://perenual.com/storage/species_image/2_abies_alba_pyramidalis/thumbnail/49255769768_df55596553_b.jpg"}},{"id":2472,"common_name":"southern bush honeysuckle","scientific_name":["Diervilla 'G2X88544' KODIAK ORANGE"],"other_name":null,"cycle":"Perennial","watering":"Average","sunlight":["Full sun","part shade"],"default_image":{"image_id":5583,"license":45,"license_name":"Attribution-ShareAlike 3.0 Unported (CC BY-SA 3.0)","license_url":"https://creativecommons.org/licenses/by-sa/3.0/deed.en","original_url":"https://perenual.com/storage/species_image/2472_diervilla_g2x88544_kodiak_orange/og/Diervilla_%C3%97_splendens_kz3.jpg","regular_url":"https://perenual.com/storage/species_image/2472_diervilla_g2x88544_kodiak_orange/regular/Diervilla_%C3%97_splendens_kz3.jpg","medium_url":"https://perenual.com/storage/species_image/2472_diervilla_g2x88544_kodiak_orange/medium/Diervilla_%C3%97_splendens_kz3.jpg","small_url":"https://perenual.com/storage/species_image/2472_diervilla_g2x88544_kodiak_orange/small/Diervilla_%C3%97_splendens_kz3.jpg","thumbnail":"https://perenual.com/storage/species_image/2472_diervilla_g2x88544_kodiak_orange/thumbnail/Diervilla_%C3%97_splendens_kz3.jpg"}},{"id":2473,"common_name":"bush honeysuckle","scientific_name":["Diervilla lonicera"],"other_name":null,"cycle":"Perennial","watering":"Minimum","sunlight":["Full sun Partial sun Shade"],"default_image":{"image_id":9,"license":5,"license_name":"Attribution-ShareAlike License","license_url":"https://creativecommons.org/licenses/by-sa/2.0/","original_url":"https://perenual.com/storage/species_image/2_abies_alba_pyramidalis/og/49255769768_df55596553_b.jpg","regular_url":"https://perenual.com/storage/species_image/2_abies_alba_pyramidalis/regular/49255769768_df55596553_b.jpg","medium_url":"https://perenual.com/storage/species_image/2_abies_alba_pyramidalis/medium/49255769768_df55596553_b.jpg","small_url":"https://perenual.com/storage/species_image/2_abies_alba_pyramidalis/small/49255769768_df55596553_b.jpg","thumbnail":"https://perenual.com/storage/species_image/2_abies_alba_pyramidalis/thumbnail/49255769768_df55596553_b.jpg"}},{"id":2474,"common_name":"mountain bush honeysuckle","scientific_name":["Diervilla rivularis"],"other_name":null,"cycle":"Perennial","watering":"Average","sunlight":["Full sun","part shade"],"default_image":{"image_id":9,"license":5,"license_name":"Attribution-ShareAlike License","license_url":"https://creativecommons.org/licenses/by-sa/2.0/","original_url":"https://perenual.com/storage/species_image/2_abies_alba_pyramidalis/og/49255769768_df55596553_b.jpg","regular_url":"https://perenual.com/storage/species_image/2_abies_alba_pyramidalis/regular/49255769768_df55596553_b.jpg","medium_url":"https://perenual.com/storage/species_image/2_abies_alba_pyramidalis/medium/49255769768_df55596553_b.jpg","small_url":"https://perenual.com/storage/species_image/2_abies_alba_pyramidalis/small/49255769768_df55596553_b.jpg","thumbnail":"https://perenual.com/storage/species_image/2_abies_alba_pyramidalis/thumbnail/49255769768_df55596553_b.jpg"}},{"id":2475,"common_name":"mountain bush honeysuckle","scientific_name":["Diervilla rivularis 'Morton' SUMMER STARS"],"other_name":null,"cycle":"Perennial","watering":"Average","sunlight":["Full sun","part shade"],"default_image":{"image_id":9,"license":5,"license_name":"Attribution-ShareAlike License","license_url":"https://creativecommons.org/licenses/by-sa/2.0/","original_url":"https://perenual.com/storage/species_image/2_abies_alba_pyramidalis/og/49255769768_df55596553_b.jpg","regular_url":"https://perenual.com/storage/species_image/2_abies_alba_pyramidalis/regular/49255769768_df55596553_b.jpg","medium_url":"https://perenual.com/storage/species_image/2_abies_alba_pyramidalis/medium/49255769768_df55596553_b.jpg","small_url":"https://perenual.com/storage/species_image/2_abies_alba_pyramidalis/small/49255769768_df55596553_b.jpg","thumbnail":"https://perenual.com/storage/species_image/2_abies_alba_pyramidalis/thumbnail/49255769768_df55596553_b.jpg"}},{"id":2476,"common_name":"bush honeysuckle","scientific_name":["Diervilla sessilifolia"],"other_name":null,"cycle":"Perennial","watering":"Average","sunlight":["Full sun","part shade"],"default_image":{"image_id":5587,"license":5,"license_name":"Attribution-ShareAlike License","license_url":"https://creativecommons.org/licenses/by-sa/2.0/","original_url":"https://perenual.com/storage/species_image/2476_diervilla_sessilifolia/og/34541688346_dafc74db43_b.jpg","regular_url":"https://perenual.com/storage/species_image/2476_diervilla_sessilifolia/regular/34541688346_dafc74db43_b.jpg","medium_url":"https://perenual.com/storage/species_image/2476_diervilla_sessilifolia/medium/34541688346_dafc74db43_b.jpg","small_url":"https://perenual.com/storage/species_image/2476_diervilla_sessilifolia/small/34541688346_dafc74db43_b.jpg","thumbnail":"https://perenual.com/storage/species_image/2476_diervilla_sessilifolia/thumbnail/34541688346_dafc74db43_b.jpg"}},{"id":2477,"common_name":"southern bush honeysuckle","scientific_name":["Diervilla sessilifolia 'LPDC Podaras' COOL SPLASH"],"other_name":null,"cycle":"Perennial","watering":"Average","sunlight":["Full sun","part shade"],"default_image":{"image_id":9,"license":5,"license_name":"Attribution-ShareAlike License","license_url":"https://creativecommons.org/licenses/by-sa/2.0/","original_url":"https://perenual.com/storage/species_image/2_abies_alba_pyramidalis/og/49255769768_df55596553_b.jpg","regular_url":"https://perenual.com/storage/species_image/2_abies_alba_pyramidalis/regular/49255769768_df55596553_b.jpg","medium_url":"https://perenual.com/storage/species_image/2_abies_alba_pyramidalis/medium/49255769768_df55596553_b.jpg","small_url":"https://perenual.com/storage/species_image/2_abies_alba_pyramidalis/small/49255769768_df55596553_b.jpg","thumbnail":"https://perenual.com/storage/species_image/2_abies_alba_pyramidalis/thumbnail/49255769768_df55596553_b.jpg"}},{"id":2478,"common_name":"bush honeysuckle","scientific_name":["Diervilla splendens 'El Madrigal' NIGHTGLOW"],"other_name":null,"cycle":"Perennial","watering":"Average","sunlight":["Full sun"],"default_image":{"image_id":5591,"license":4,"license_name":"Attribution License","license_url":"https://creativecommons.org/licenses/by/2.0/","original_url":"https://perenual.com/storage/species_image/2478_diervilla_splendens_el_madrigal_nightglow/og/52573343481_264e929c66_b.jpg","regular_url":"https://perenual.com/storage/species_image/2478_diervilla_splendens_el_madrigal_nightglow/regular/52573343481_264e929c66_b.jpg","medium_url":"https://perenual.com/storage/species_image/2478_diervilla_splendens_el_madrigal_nightglow/medium/52573343481_264e929c66_b.jpg","small_url":"https://perenual.com/storage/species_image/2478_diervilla_splendens_el_madrigal_nightglow/small/52573343481_264e929c66_b.jpg","thumbnail":"https://perenual.com/storage/species_image/2478_diervilla_splendens_el_madrigal_nightglow/thumbnail/52573343481_264e929c66_b.jpg"}},{"id":2479,"common_name":"butterfly flag","scientific_name":["Dietes bicolor"],"other_name":null,"cycle":"Perennial","watering":"Average","sunlight":["Full sun","part shade"],"default_image":{"image_id":5592,"license":4,"license_name":"Attribution License","license_url":"https://creativecommons.org/licenses/by/2.0/","original_url":"https://perenual.com/storage/species_image/2479_dietes_bicolor/og/15561391418_d269ebe263_b.jpg","regular_url":"https://perenual.com/storage/species_image/2479_dietes_bicolor/regular/15561391418_d269ebe263_b.jpg","medium_url":"https://perenual.com/storage/species_image/2479_dietes_bicolor/medium/15561391418_d269ebe263_b.jpg","small_url":"https://perenual.com/storage/species_image/2479_dietes_bicolor/small/15561391418_d269ebe263_b.jpg","thumbnail":"https://perenual.com/storage/species_image/2479_dietes_bicolor/thumbnail/15561391418_d269ebe263_b.jpg"}},{"id":2480,"common_name":"dietes","scientific_name":["Dietes iridioides"],"other_name":null,"cycle":"Perennial","watering":"Average","sunlight":["Full sun","part shade"],"default_image":{"image_id":5595,"license":6,"license_name":"Attribution-NoDerivs License","license_url":"https://creativecommons.org/licenses/by-nd/2.0/","original_url":"https://perenual.com/storage/species_image/2480_dietes_iridioides/og/49848403113_8b32fcc682_b.jpg"}},{"id":2481,"common_name":"rusty foxglove","scientific_name":["Digitalis ferruginea"],"other_name":null,"cycle":"Perennial","watering":"Average","sunlight":["Part shade"],"default_image":{"image_id":9,"license":5,"license_name":"Attribution-ShareAlike License","license_url":"https://creativecommons.org/licenses/by-sa/2.0/","original_url":"https://perenual.com/storage/species_image/2_abies_alba_pyramidalis/og/49255769768_df55596553_b.jpg","regular_url":"https://perenual.com/storage/species_image/2_abies_alba_pyramidalis/regular/49255769768_df55596553_b.jpg","medium_url":"https://perenual.com/storage/species_image/2_abies_alba_pyramidalis/medium/49255769768_df55596553_b.jpg","small_url":"https://perenual.com/storage/species_image/2_abies_alba_pyramidalis/small/49255769768_df55596553_b.jpg","thumbnail":"https://perenual.com/storage/species_image/2_abies_alba_pyramidalis/thumbnail/49255769768_df55596553_b.jpg"}},{"id":2482,"common_name":"rusty foxglove","scientific_name":["Digitalis ferruginea 'Gelber Herold'"],"other_name":null,"cycle":"Perennial","watering":"Average","sunlight":["Part shade"],"default_image":{"image_id":9,"license":5,"license_name":"Attribution-ShareAlike License","license_url":"https://creativecommons.org/licenses/by-sa/2.0/","original_url":"https://perenual.com/storage/species_image/2_abies_alba_pyramidalis/og/49255769768_df55596553_b.jpg","regular_url":"https://perenual.com/storage/species_image/2_abies_alba_pyramidalis/regular/49255769768_df55596553_b.jpg","medium_url":"https://perenual.com/storage/species_image/2_abies_alba_pyramidalis/medium/49255769768_df55596553_b.jpg","small_url":"https://perenual.com/storage/species_image/2_abies_alba_pyramidalis/small/49255769768_df55596553_b.jpg","thumbnail":"https://perenual.com/storage/species_image/2_abies_alba_pyramidalis/thumbnail/49255769768_df55596553_b.jpg"}},{"id":2483,"common_name":"foxglove","scientific_name":["Digitalis FOXLIGHT RUBY GLOW"],"other_name":null,"cycle":"Perennial","watering":"Average","sunlight":["Full sun","part shade"],"default_image":{"image_id":9,"license":5,"license_name":"Attribution-ShareAlike License","license_url":"https://creativecommons.org/licenses/by-sa/2.0/","original_url":"https://perenual.com/storage/species_image/2_abies_alba_pyramidalis/og/49255769768_df55596553_b.jpg","regular_url":"https://perenual.com/storage/species_image/2_abies_alba_pyramidalis/regular/49255769768_df55596553_b.jpg","medium_url":"https://perenual.com/storage/species_image/2_abies_alba_pyramidalis/medium/49255769768_df55596553_b.jpg","small_url":"https://perenual.com/storage/species_image/2_abies_alba_pyramidalis/small/49255769768_df55596553_b.jpg","thumbnail":"https://perenual.com/storage/species_image/2_abies_alba_pyramidalis/thumbnail/49255769768_df55596553_b.jpg"}},{"id":2484,"common_name":"large yellow foxglove","scientific_name":["Digitalis grandiflora"],"other_name":null,"cycle":"Perennial","watering":"Average","sunlight":["Part shade"],"default_image":{"image_id":9,"license":5,"license_name":"Attribution-ShareAlike License","license_url":"https://creativecommons.org/licenses/by-sa/2.0/","original_url":"https://perenual.com/storage/species_image/2_abies_alba_pyramidalis/og/49255769768_df55596553_b.jpg","regular_url":"https://perenual.com/storage/species_image/2_abies_alba_pyramidalis/regular/49255769768_df55596553_b.jpg","medium_url":"https://perenual.com/storage/species_image/2_abies_alba_pyramidalis/medium/49255769768_df55596553_b.jpg","small_url":"https://perenual.com/storage/species_image/2_abies_alba_pyramidalis/small/49255769768_df55596553_b.jpg","thumbnail":"https://perenual.com/storage/species_image/2_abies_alba_pyramidalis/thumbnail/49255769768_df55596553_b.jpg"}},{"id":2485,"common_name":"strawberry foxglove","scientific_name":["Digitalis mertonensis"],"other_name":null,"cycle":"Perennial","watering":"Average","sunlight":["Full sun","part shade"],"default_image":{"image_id":5605,"license":4,"license_name":"Attribution License","license_url":"https://creativecommons.org/licenses/by/2.0/","original_url":"https://perenual.com/storage/species_image/2485_digitalis_mertonensis/og/5787359510_3f7e0bd0eb_b.jpg","regular_url":"https://perenual.com/storage/species_image/2485_digitalis_mertonensis/regular/5787359510_3f7e0bd0eb_b.jpg","medium_url":"https://perenual.com/storage/species_image/2485_digitalis_mertonensis/medium/5787359510_3f7e0bd0eb_b.jpg","small_url":"https://perenual.com/storage/species_image/2485_digitalis_mertonensis/small/5787359510_3f7e0bd0eb_b.jpg","thumbnail":"https://perenual.com/storage/species_image/2485_digitalis_mertonensis/thumbnail/5787359510_3f7e0bd0eb_b.jpg"}},{"id":2486,"common_name":"willow-leaved foxglove","scientific_name":["Digitalis obscura"],"other_name":null,"cycle":"Perennial","watering":"Average","sunlight":["Part shade"],"default_image":{"image_id":5607,"license":5,"license_name":"Attribution-ShareAlike License","license_url":"https://creativecommons.org/licenses/by-sa/2.0/","original_url":"https://perenual.com/storage/species_image/2486_digitalis_obscura/og/40079111613_2953016b89_b.jpg","regular_url":"https://perenual.com/storage/species_image/2486_digitalis_obscura/regular/40079111613_2953016b89_b.jpg","medium_url":"https://perenual.com/storage/species_image/2486_digitalis_obscura/medium/40079111613_2953016b89_b.jpg","small_url":"https://perenual.com/storage/species_image/2486_digitalis_obscura/small/40079111613_2953016b89_b.jpg","thumbnail":"https://perenual.com/storage/species_image/2486_digitalis_obscura/thumbnail/40079111613_2953016b89_b.jpg"}},{"id":2487,"common_name":"common foxglove","scientific_name":["Digitalis purpurea"],"other_name":null,"cycle":"Perennial","watering":"Average","sunlight":["Part sun/part shade"],"default_image":{"image_id":9,"license":5,"license_name":"Attribution-ShareAlike License","license_url":"https://creativecommons.org/licenses/by-sa/2.0/","original_url":"https://perenual.com/storage/species_image/2_abies_alba_pyramidalis/og/49255769768_df55596553_b.jpg","regular_url":"https://perenual.com/storage/species_image/2_abies_alba_pyramidalis/regular/49255769768_df55596553_b.jpg","medium_url":"https://perenual.com/storage/species_image/2_abies_alba_pyramidalis/medium/49255769768_df55596553_b.jpg","small_url":"https://perenual.com/storage/species_image/2_abies_alba_pyramidalis/small/49255769768_df55596553_b.jpg","thumbnail":"https://perenual.com/storage/species_image/2_abies_alba_pyramidalis/thumbnail/49255769768_df55596553_b.jpg"}},{"id":2488,"common_name":"common foxglove","scientific_name":["Digitalis purpurea 'Candy Mountain'"],"other_name":null,"cycle":"Perennial","watering":"Average","sunlight":["Part sun/part shade"],"default_image":{"image_id":5618,"license":4,"license_name":"Attribution License","license_url":"https://creativecommons.org/licenses/by/2.0/","original_url":"https://perenual.com/storage/species_image/2488_digitalis_purpurea_candy_mountain/og/51288444040_2a7d785cb7_b.jpg","regular_url":"https://perenual.com/storage/species_image/2488_digitalis_purpurea_candy_mountain/regular/51288444040_2a7d785cb7_b.jpg","medium_url":"https://perenual.com/storage/species_image/2488_digitalis_purpurea_candy_mountain/medium/51288444040_2a7d785cb7_b.jpg","small_url":"https://perenual.com/storage/species_image/2488_digitalis_purpurea_candy_mountain/small/51288444040_2a7d785cb7_b.jpg","thumbnail":"https://perenual.com/storage/species_image/2488_digitalis_purpurea_candy_mountain/thumbnail/51288444040_2a7d785cb7_b.jpg"}},{"id":2489,"common_name":"common foxglove","scientific_name":["Digitalis purpurea (Excelsior Group)"],"other_name":null,"cycle":"Perennial","watering":"Average","sunlight":["Part sun/part shade"],"default_image":{"image_id":9,"license":5,"license_name":"Attribution-ShareAlike License","license_url":"https://creativecommons.org/licenses/by-sa/2.0/","original_url":"https://perenual.com/storage/species_image/2_abies_alba_pyramidalis/og/49255769768_df55596553_b.jpg","regular_url":"https://perenual.com/storage/species_image/2_abies_alba_pyramidalis/regular/49255769768_df55596553_b.jpg","medium_url":"https://perenual.com/storage/species_image/2_abies_alba_pyramidalis/medium/49255769768_df55596553_b.jpg","small_url":"https://perenual.com/storage/species_image/2_abies_alba_pyramidalis/small/49255769768_df55596553_b.jpg","thumbnail":"https://perenual.com/storage/species_image/2_abies_alba_pyramidalis/thumbnail/49255769768_df55596553_b.jpg"}},{"id":2490,"common_name":"common foxglove","scientific_name":["Digitalis purpurea f. albiflora"],"other_name":null,"cycle":"Perennial","watering":"Average","sunlight":["Part sun/part shade"],"default_image":{"image_id":5620,"license":4,"license_name":"Attribution License","license_url":"https://creativecommons.org/licenses/by/2.0/","original_url":"https://perenual.com/storage/species_image/2490_digitalis_purpurea_f_albiflora/og/9478123079_0e15d8146c_b.jpg","regular_url":"https://perenual.com/storage/species_image/2490_digitalis_purpurea_f_albiflora/regular/9478123079_0e15d8146c_b.jpg","medium_url":"https://perenual.com/storage/species_image/2490_digitalis_purpurea_f_albiflora/medium/9478123079_0e15d8146c_b.jpg","small_url":"https://perenual.com/storage/species_image/2490_digitalis_purpurea_f_albiflora/small/9478123079_0e15d8146c_b.jpg","thumbnail":"https://perenual.com/storage/species_image/2490_digitalis_purpurea_f_albiflora/thumbnail/9478123079_0e15d8146c_b.jpg"}}],"to":2490,"per_page":30,"current_page":83,"from":2461,"last_page":200,"total":6000}