{"data":[{"id":3421,"common_name":"Corsican hellebore","scientific_name":["Helleborus argutifolius"],"other_name":null,"cycle":"Perennial","watering":"Average","sunlight":["Part shade","full shade"],"default_image":{"image_id":7256,"license":4,"license_name":"Attribution License","license_url":"https://creativecommons.org/licenses/by/2.0/","original_url":"https://perenual.com/storage/species_image/3421_helleborus_argutifolius/og/50930188941_1f4d5160fa_b.jpg","regular_url":"https://perenual.com/storage/species_image/3421_helleborus_argutifolius/regular/50930188941_1f4d5160fa_b.jpg","medium_url":"https://perenual.com/storage/species_image/3421_helleborus_argutifolius/medium/50930188941_1f4d5160fa_b.jpg","small_url":"https://perenual.com/storage/species_image/3421_helleborus_argutifolius/small/50930188941_1f4d5160fa_b.jpg","thumbnail":"https://perenual.com/storage/species_image/3421_helleborus_argutifolius/thumbnail/50930188941_1f4d5160fa_b.jpg"}},{"id":3422,"common_name":"hellebore","scientific_name":["Helleborus 'Brushstrokes Strain'"],"other_name":null,"cycle":"Perennial","watering":"Average","sunlight":["Part shade","full shade"],"default_image":{"image_id":9,"license":5,"license_name":"Attribution-ShareAlike License","license_url":"https://creativecommons.org/licenses/by-sa/2.0/","original_url":"https://perenual.com/storage/species_image/2_abies_alba_pyramidalis/og/49255769768_df55596553_b.jpg","regular_url":"https://perenual.com/storage/species_image/2_abies_alba_pyramidalis/regular/49255769768_df55596553_b.jpg","medium_url":"https://perenual.com/storage/species_image/2_abies_alba_pyramidalis/medium/49255769768_df55596553_b.jpg","small_url":"https://perenual.com/storage/species_image/2_abies_alba_pyramidalis/small/49255769768_df55596553_b.jpg","thumbnail":"https://perenual.com/storage/species_image/2_abies_alba_pyramidalis/thumbnail/49255769768_df55596553_b.jpg"}},{"id":3423,"common_name":"hellebore","scientific_name":["Helleborus 'Confetti Cake'"],"other_name":null,"cycle":"Perennial","watering":"Average","sunlight":["Part shade","full shade"],"default_image":{"image_id":9,"license":5,"license_name":"Attribution-ShareAlike License","license_url":"https://creativecommons.org/licenses/by-sa/2.0/","original_url":"https://perenual.com/storage/species_image/2_abies_alba_pyramidalis/og/49255769768_df55596553_b.jpg","regular_url":"https://perenual.com/storage/species_image/2_abies_alba_pyramidalis/regular/49255769768_df55596553_b.jpg","medium_url":"https://perenual.com/storage/species_image/2_abies_alba_pyramidalis/medium/49255769768_df55596553_b.jpg","small_url":"https://perenual.com/storage/species_image/2_abies_alba_pyramidalis/small/49255769768_df55596553_b.jpg","thumbnail":"https://perenual.com/storage/species_image/2_abies_alba_pyramidalis/thumbnail/49255769768_df55596553_b.jpg"}},{"id":3424,"common_name":"hellebore","scientific_name":["Helleborus 'Coseh 710' PINK FROST"],"other_name":null,"cycle":"Perennial","watering":"Average","sunlight":["Part shade","full shade"],"default_image":{"image_id":7263,"license":4,"license_name":"Attribution License","license_url":"https://creativecommons.org/licenses/by/2.0/","original_url":"https://perenual.com/storage/species_image/3424_helleborus_coseh_710_pink_frost/og/26487383120_8c0074843b_b.jpg","regular_url":"https://perenual.com/storage/species_image/3424_helleborus_coseh_710_pink_frost/regular/26487383120_8c0074843b_b.jpg","medium_url":"https://perenual.com/storage/species_image/3424_helleborus_coseh_710_pink_frost/medium/26487383120_8c0074843b_b.jpg","small_url":"https://perenual.com/storage/species_image/3424_helleborus_coseh_710_pink_frost/small/26487383120_8c0074843b_b.jpg","thumbnail":"https://perenual.com/storage/species_image/3424_helleborus_coseh_710_pink_frost/thumbnail/26487383120_8c0074843b_b.jpg"}},{"id":3425,"common_name":"stinking hellebore","scientific_name":["Helleborus foetidus"],"other_name":null,"cycle":"Perennial","watering":"Average","sunlight":["Deep shade"," Filtered shade"," Part sun/part shade"],"default_image":{"image_id":9,"license":5,"license_name":"Attribution-ShareAlike License","license_url":"https://creativecommons.org/licenses/by-sa/2.0/","original_url":"https://perenual.com/storage/species_image/2_abies_alba_pyramidalis/og/49255769768_df55596553_b.jpg","regular_url":"https://perenual.com/storage/species_image/2_abies_alba_pyramidalis/regular/49255769768_df55596553_b.jpg","medium_url":"https://perenual.com/storage/species_image/2_abies_alba_pyramidalis/medium/49255769768_df55596553_b.jpg","small_url":"https://perenual.com/storage/species_image/2_abies_alba_pyramidalis/small/49255769768_df55596553_b.jpg","thumbnail":"https://perenual.com/storage/species_image/2_abies_alba_pyramidalis/thumbnail/49255769768_df55596553_b.jpg"}},{"id":3426,"common_name":"stinking hellebore","scientific_name":["Helleborus foetidus 'Piccadilly'"],"other_name":null,"cycle":"Perennial","watering":"Average","sunlight":["Deep shade"," Filtered shade"," Part sun/part shade"],"default_image":{"image_id":7269,"license":5,"license_name":"Attribution-ShareAlike License","license_url":"https://creativecommons.org/licenses/by-sa/2.0/","original_url":"https://perenual.com/storage/species_image/3427_helleborus_foetidus_pontarlier/og/52024862375_bdcb537171_b.jpg","regular_url":"https://perenual.com/storage/species_image/3427_helleborus_foetidus_pontarlier/regular/52024862375_bdcb537171_b.jpg","medium_url":"https://perenual.com/storage/species_image/3427_helleborus_foetidus_pontarlier/medium/52024862375_bdcb537171_b.jpg","small_url":"https://perenual.com/storage/species_image/3427_helleborus_foetidus_pontarlier/small/52024862375_bdcb537171_b.jpg","thumbnail":"https://perenual.com/storage/species_image/3427_helleborus_foetidus_pontarlier/thumbnail/52024862375_bdcb537171_b.jpg"}},{"id":3427,"common_name":"stinking hellebore","scientific_name":["Helleborus foetidus 'Pontarlier'"],"other_name":null,"cycle":"Perennial","watering":"Average","sunlight":["Deep shade"," Filtered shade"," Part sun/part shade"],"default_image":{"image_id":7269,"license":5,"license_name":"Attribution-ShareAlike License","license_url":"https://creativecommons.org/licenses/by-sa/2.0/","original_url":"https://perenual.com/storage/species_image/3427_helleborus_foetidus_pontarlier/og/52024862375_bdcb537171_b.jpg","regular_url":"https://perenual.com/storage/species_image/3427_helleborus_foetidus_pontarlier/regular/52024862375_bdcb537171_b.jpg","medium_url":"https://perenual.com/storage/species_image/3427_helleborus_foetidus_pontarlier/medium/52024862375_bdcb537171_b.jpg","small_url":"https://perenual.com/storage/species_image/3427_helleborus_foetidus_pontarlier/small/52024862375_bdcb537171_b.jpg","thumbnail":"https://perenual.com/storage/species_image/3427_helleborus_foetidus_pontarlier/thumbnail/52024862375_bdcb537171_b.jpg"}},{"id":3428,"common_name":"stinking hellebore","scientific_name":["Helleborus foetidus 'Sienna'"],"other_name":null,"cycle":"Perennial","watering":"Average","sunlight":["Deep shade"," Filtered shade"," Part sun/part shade"],"default_image":{"image_id":7275,"license":5,"license_name":"Attribution-ShareAlike License","license_url":"https://creativecommons.org/licenses/by-sa/2.0/","original_url":"https://perenual.com/storage/species_image/3428_helleborus_foetidus_sienna/og/2301083021_798b9f0550_b.jpg","regular_url":"https://perenual.com/storage/species_image/3428_helleborus_foetidus_sienna/regular/2301083021_798b9f0550_b.jpg","medium_url":"https://perenual.com/storage/species_image/3428_helleborus_foetidus_sienna/medium/2301083021_798b9f0550_b.jpg","small_url":"https://perenual.com/storage/species_image/3428_helleborus_foetidus_sienna/small/2301083021_798b9f0550_b.jpg","thumbnail":"https://perenual.com/storage/species_image/3428_helleborus_foetidus_sienna/thumbnail/2301083021_798b9f0550_b.jpg"}},{"id":3429,"common_name":"hellebore","scientific_name":["Helleborus HONEYMOON ROME IN RED"],"other_name":null,"cycle":"Perennial","watering":"Average","sunlight":["Part shade","full shade"],"default_image":{"image_id":7277,"license":5,"license_name":"Attribution-ShareAlike License","license_url":"https://creativecommons.org/licenses/by-sa/2.0/","original_url":"https://perenual.com/storage/species_image/8607_helleborus_x_hybridus/og/52011706599_8a118e61da_b.jpg","regular_url":"https://perenual.com/storage/species_image/8607_helleborus_x_hybridus/regular/52011706599_8a118e61da_b.jpg","medium_url":"https://perenual.com/storage/species_image/8607_helleborus_x_hybridus/medium/52011706599_8a118e61da_b.jpg","small_url":"https://perenual.com/storage/species_image/8607_helleborus_x_hybridus/small/52011706599_8a118e61da_b.jpg","thumbnail":"https://perenual.com/storage/species_image/8607_helleborus_x_hybridus/thumbnail/52011706599_8a118e61da_b.jpg"}},{"id":3430,"common_name":"hellebore","scientific_name":["Helleborus hybridus (Ballard's Group)"],"other_name":null,"cycle":"Perennial","watering":"Average","sunlight":["Part shade","full shade"],"default_image":{"image_id":7281,"license":4,"license_name":"Attribution License","license_url":"https://creativecommons.org/licenses/by/2.0/","original_url":"https://perenual.com/storage/species_image/3443_helleborus_mardi_gras_double_mix/og/52171608516_2014daed91_b.jpg","regular_url":"https://perenual.com/storage/species_image/3443_helleborus_mardi_gras_double_mix/regular/52171608516_2014daed91_b.jpg","medium_url":"https://perenual.com/storage/species_image/3443_helleborus_mardi_gras_double_mix/medium/52171608516_2014daed91_b.jpg","small_url":"https://perenual.com/storage/species_image/3443_helleborus_mardi_gras_double_mix/small/52171608516_2014daed91_b.jpg","thumbnail":"https://perenual.com/storage/species_image/3443_helleborus_mardi_gras_double_mix/thumbnail/52171608516_2014daed91_b.jpg"}},{"id":3431,"common_name":"hellebore","scientific_name":["Helleborus hybridus 'Blue Lady'"],"other_name":null,"cycle":"Perennial","watering":"Average","sunlight":["Part shade","full shade"],"default_image":{"image_id":7281,"license":4,"license_name":"Attribution License","license_url":"https://creativecommons.org/licenses/by/2.0/","original_url":"https://perenual.com/storage/species_image/3443_helleborus_mardi_gras_double_mix/og/52171608516_2014daed91_b.jpg","regular_url":"https://perenual.com/storage/species_image/3443_helleborus_mardi_gras_double_mix/regular/52171608516_2014daed91_b.jpg","medium_url":"https://perenual.com/storage/species_image/3443_helleborus_mardi_gras_double_mix/medium/52171608516_2014daed91_b.jpg","small_url":"https://perenual.com/storage/species_image/3443_helleborus_mardi_gras_double_mix/small/52171608516_2014daed91_b.jpg","thumbnail":"https://perenual.com/storage/species_image/3443_helleborus_mardi_gras_double_mix/thumbnail/52171608516_2014daed91_b.jpg"}},{"id":3432,"common_name":"hellebore","scientific_name":["Helleborus hybridus (Lady Mix)"],"other_name":null,"cycle":"Perennial","watering":"Average","sunlight":["Part shade","full shade"],"default_image":{"image_id":9,"license":5,"license_name":"Attribution-ShareAlike License","license_url":"https://creativecommons.org/licenses/by-sa/2.0/","original_url":"https://perenual.com/storage/species_image/2_abies_alba_pyramidalis/og/49255769768_df55596553_b.jpg","regular_url":"https://perenual.com/storage/species_image/2_abies_alba_pyramidalis/regular/49255769768_df55596553_b.jpg","medium_url":"https://perenual.com/storage/species_image/2_abies_alba_pyramidalis/medium/49255769768_df55596553_b.jpg","small_url":"https://perenual.com/storage/species_image/2_abies_alba_pyramidalis/small/49255769768_df55596553_b.jpg","thumbnail":"https://perenual.com/storage/species_image/2_abies_alba_pyramidalis/thumbnail/49255769768_df55596553_b.jpg"}},{"id":3433,"common_name":"hellebore","scientific_name":["Helleborus hybridus 'Pine Knot Best Darks'"],"other_name":null,"cycle":"Perennial","watering":"Average","sunlight":["Part shade","full shade"],"default_image":{"image_id":7281,"license":4,"license_name":"Attribution License","license_url":"https://creativecommons.org/licenses/by/2.0/","original_url":"https://perenual.com/storage/species_image/3443_helleborus_mardi_gras_double_mix/og/52171608516_2014daed91_b.jpg","regular_url":"https://perenual.com/storage/species_image/3443_helleborus_mardi_gras_double_mix/regular/52171608516_2014daed91_b.jpg","medium_url":"https://perenual.com/storage/species_image/3443_helleborus_mardi_gras_double_mix/medium/52171608516_2014daed91_b.jpg","small_url":"https://perenual.com/storage/species_image/3443_helleborus_mardi_gras_double_mix/small/52171608516_2014daed91_b.jpg","thumbnail":"https://perenual.com/storage/species_image/3443_helleborus_mardi_gras_double_mix/thumbnail/52171608516_2014daed91_b.jpg"}},{"id":3434,"common_name":"hellebore","scientific_name":["Helleborus hybridus 'Pine Knot Best R & C'"],"other_name":null,"cycle":"Perennial","watering":"Average","sunlight":["Part shade","full shade"],"default_image":{"image_id":9,"license":5,"license_name":"Attribution-ShareAlike License","license_url":"https://creativecommons.org/licenses/by-sa/2.0/","original_url":"https://perenual.com/storage/species_image/2_abies_alba_pyramidalis/og/49255769768_df55596553_b.jpg","regular_url":"https://perenual.com/storage/species_image/2_abies_alba_pyramidalis/regular/49255769768_df55596553_b.jpg","medium_url":"https://perenual.com/storage/species_image/2_abies_alba_pyramidalis/medium/49255769768_df55596553_b.jpg","small_url":"https://perenual.com/storage/species_image/2_abies_alba_pyramidalis/small/49255769768_df55596553_b.jpg","thumbnail":"https://perenual.com/storage/species_image/2_abies_alba_pyramidalis/thumbnail/49255769768_df55596553_b.jpg"}},{"id":3435,"common_name":"hellebore","scientific_name":["Helleborus hybridus 'Pine Knot Best Strain'"],"other_name":null,"cycle":"Perennial","watering":"Average","sunlight":["Part shade","full shade"],"default_image":{"image_id":7286,"license":5,"license_name":"Attribution-ShareAlike License","license_url":"https://creativecommons.org/licenses/by-sa/2.0/","original_url":"https://perenual.com/storage/species_image/3444_helleborus_niger/og/52029512618_29658c2fea_b.jpg","regular_url":"https://perenual.com/storage/species_image/3444_helleborus_niger/regular/52029512618_29658c2fea_b.jpg","medium_url":"https://perenual.com/storage/species_image/3444_helleborus_niger/medium/52029512618_29658c2fea_b.jpg","small_url":"https://perenual.com/storage/species_image/3444_helleborus_niger/small/52029512618_29658c2fea_b.jpg","thumbnail":"https://perenual.com/storage/species_image/3444_helleborus_niger/thumbnail/52029512618_29658c2fea_b.jpg"}},{"id":3436,"common_name":"hellebore","scientific_name":["Helleborus hybridus 'Pink Lady'"],"other_name":null,"cycle":"Perennial","watering":"Average","sunlight":["Part shade","full shade"],"default_image":{"image_id":9,"license":5,"license_name":"Attribution-ShareAlike License","license_url":"https://creativecommons.org/licenses/by-sa/2.0/","original_url":"https://perenual.com/storage/species_image/2_abies_alba_pyramidalis/og/49255769768_df55596553_b.jpg","regular_url":"https://perenual.com/storage/species_image/2_abies_alba_pyramidalis/regular/49255769768_df55596553_b.jpg","medium_url":"https://perenual.com/storage/species_image/2_abies_alba_pyramidalis/medium/49255769768_df55596553_b.jpg","small_url":"https://perenual.com/storage/species_image/2_abies_alba_pyramidalis/small/49255769768_df55596553_b.jpg","thumbnail":"https://perenual.com/storage/species_image/2_abies_alba_pyramidalis/thumbnail/49255769768_df55596553_b.jpg"}},{"id":3437,"common_name":"hellebore","scientific_name":["Helleborus hybridus (red hybrid)"],"other_name":null,"cycle":"Perennial","watering":"Average","sunlight":["Part shade","full shade"],"default_image":{"image_id":7290,"license":4,"license_name":"Attribution License","license_url":"https://creativecommons.org/licenses/by/2.0/","original_url":"https://perenual.com/storage/species_image/3437_helleborus_hybridus_red_hybrid/og/15611340157_07321c2a27_b.jpg","regular_url":"https://perenual.com/storage/species_image/3437_helleborus_hybridus_red_hybrid/regular/15611340157_07321c2a27_b.jpg","medium_url":"https://perenual.com/storage/species_image/3437_helleborus_hybridus_red_hybrid/medium/15611340157_07321c2a27_b.jpg","small_url":"https://perenual.com/storage/species_image/3437_helleborus_hybridus_red_hybrid/small/15611340157_07321c2a27_b.jpg","thumbnail":"https://perenual.com/storage/species_image/3437_helleborus_hybridus_red_hybrid/thumbnail/15611340157_07321c2a27_b.jpg"}},{"id":3438,"common_name":"hellebore","scientific_name":["Helleborus hybridus 'Red Lady'"],"other_name":null,"cycle":"Perennial","watering":"Average","sunlight":["Part shade","full shade"],"default_image":{"image_id":7286,"license":5,"license_name":"Attribution-ShareAlike License","license_url":"https://creativecommons.org/licenses/by-sa/2.0/","original_url":"https://perenual.com/storage/species_image/3444_helleborus_niger/og/52029512618_29658c2fea_b.jpg","regular_url":"https://perenual.com/storage/species_image/3444_helleborus_niger/regular/52029512618_29658c2fea_b.jpg","medium_url":"https://perenual.com/storage/species_image/3444_helleborus_niger/medium/52029512618_29658c2fea_b.jpg","small_url":"https://perenual.com/storage/species_image/3444_helleborus_niger/small/52029512618_29658c2fea_b.jpg","thumbnail":"https://perenual.com/storage/species_image/3444_helleborus_niger/thumbnail/52029512618_29658c2fea_b.jpg"}},{"id":3439,"common_name":"hellebore","scientific_name":["Helleborus hybridus 'Red Mountain'"],"other_name":null,"cycle":"Perennial","watering":"Average","sunlight":["Part shade","full shade"],"default_image":{"image_id":7291,"license":5,"license_name":"Attribution-ShareAlike License","license_url":"https://creativecommons.org/licenses/by-sa/2.0/","original_url":"https://perenual.com/storage/species_image/3452_helleborus_red_racer/og/52028430662_534e00a2b0_b.jpg","regular_url":"https://perenual.com/storage/species_image/3452_helleborus_red_racer/regular/52028430662_534e00a2b0_b.jpg","medium_url":"https://perenual.com/storage/species_image/3452_helleborus_red_racer/medium/52028430662_534e00a2b0_b.jpg","small_url":"https://perenual.com/storage/species_image/3452_helleborus_red_racer/small/52028430662_534e00a2b0_b.jpg","thumbnail":"https://perenual.com/storage/species_image/3452_helleborus_red_racer/thumbnail/52028430662_534e00a2b0_b.jpg"}},{"id":3440,"common_name":"hellebore","scientific_name":["Helleborus hybridus 'White Lady'"],"other_name":null,"cycle":"Perennial","watering":"Average","sunlight":["Part shade","full shade"],"default_image":{"image_id":7292,"license":4,"license_name":"Attribution License","license_url":"https://creativecommons.org/licenses/by/2.0/","original_url":"https://perenual.com/storage/species_image/3440_helleborus_hybridus_white_lady/og/52113492211_eb53469016_b.jpg","regular_url":"https://perenual.com/storage/species_image/3440_helleborus_hybridus_white_lady/regular/52113492211_eb53469016_b.jpg","medium_url":"https://perenual.com/storage/species_image/3440_helleborus_hybridus_white_lady/medium/52113492211_eb53469016_b.jpg","small_url":"https://perenual.com/storage/species_image/3440_helleborus_hybridus_white_lady/small/52113492211_eb53469016_b.jpg","thumbnail":"https://perenual.com/storage/species_image/3440_helleborus_hybridus_white_lady/thumbnail/52113492211_eb53469016_b.jpg"}},{"id":3441,"common_name":"hellebore","scientific_name":["Helleborus hybridus 'White Lady Spotted'"],"other_name":null,"cycle":"Perennial","watering":"Average","sunlight":["Part shade","full shade"],"default_image":{"image_id":7294,"license":5,"license_name":"Attribution-ShareAlike License","license_url":"https://creativecommons.org/licenses/by-sa/2.0/","original_url":"https://perenual.com/storage/species_image/3441_helleborus_hybridus_white_lady_spotted/og/52395758392_f7784153de_b.jpg","regular_url":"https://perenual.com/storage/species_image/3441_helleborus_hybridus_white_lady_spotted/regular/52395758392_f7784153de_b.jpg","medium_url":"https://perenual.com/storage/species_image/3441_helleborus_hybridus_white_lady_spotted/medium/52395758392_f7784153de_b.jpg","small_url":"https://perenual.com/storage/species_image/3441_helleborus_hybridus_white_lady_spotted/small/52395758392_f7784153de_b.jpg","thumbnail":"https://perenual.com/storage/species_image/3441_helleborus_hybridus_white_lady_spotted/thumbnail/52395758392_f7784153de_b.jpg"}},{"id":3442,"common_name":"hellebore","scientific_name":["Helleborus hybridus 'Yellow Lady'"],"other_name":null,"cycle":"Perennial","watering":"Average","sunlight":["Part shade","full shade"],"default_image":{"image_id":9,"license":5,"license_name":"Attribution-ShareAlike License","license_url":"https://creativecommons.org/licenses/by-sa/2.0/","original_url":"https://perenual.com/storage/species_image/2_abies_alba_pyramidalis/og/49255769768_df55596553_b.jpg","regular_url":"https://perenual.com/storage/species_image/2_abies_alba_pyramidalis/regular/49255769768_df55596553_b.jpg","medium_url":"https://perenual.com/storage/species_image/2_abies_alba_pyramidalis/medium/49255769768_df55596553_b.jpg","small_url":"https://perenual.com/storage/species_image/2_abies_alba_pyramidalis/small/49255769768_df55596553_b.jpg","thumbnail":"https://perenual.com/storage/species_image/2_abies_alba_pyramidalis/thumbnail/49255769768_df55596553_b.jpg"}},{"id":3443,"common_name":"hellebore","scientific_name":["Helleborus 'Mardi Gras Double Mix'"],"other_name":null,"cycle":"Perennial","watering":"Average","sunlight":["Part shade","full shade"],"default_image":{"image_id":7281,"license":4,"license_name":"Attribution License","license_url":"https://creativecommons.org/licenses/by/2.0/","original_url":"https://perenual.com/storage/species_image/3443_helleborus_mardi_gras_double_mix/og/52171608516_2014daed91_b.jpg","regular_url":"https://perenual.com/storage/species_image/3443_helleborus_mardi_gras_double_mix/regular/52171608516_2014daed91_b.jpg","medium_url":"https://perenual.com/storage/species_image/3443_helleborus_mardi_gras_double_mix/medium/52171608516_2014daed91_b.jpg","small_url":"https://perenual.com/storage/species_image/3443_helleborus_mardi_gras_double_mix/small/52171608516_2014daed91_b.jpg","thumbnail":"https://perenual.com/storage/species_image/3443_helleborus_mardi_gras_double_mix/thumbnail/52171608516_2014daed91_b.jpg"}},{"id":3444,"common_name":"black hellebore","scientific_name":["Helleborus niger"],"other_name":null,"cycle":"Perennial","watering":"Average","sunlight":["Part shade","full shade"],"default_image":{"image_id":7287,"license":5,"license_name":"Attribution-ShareAlike License","license_url":"https://creativecommons.org/licenses/by-sa/2.0/","original_url":"https://perenual.com/storage/species_image/3452_helleborus_red_racer/og/52028425492_127f1a2456_b.jpg","regular_url":"https://perenual.com/storage/species_image/3452_helleborus_red_racer/regular/52028425492_127f1a2456_b.jpg","medium_url":"https://perenual.com/storage/species_image/3452_helleborus_red_racer/medium/52028425492_127f1a2456_b.jpg","small_url":"https://perenual.com/storage/species_image/3452_helleborus_red_racer/small/52028425492_127f1a2456_b.jpg","thumbnail":"https://perenual.com/storage/species_image/3452_helleborus_red_racer/thumbnail/52028425492_127f1a2456_b.jpg"}},{"id":3445,"common_name":"Christmas rose","scientific_name":["Helleborus niger 'Altifolius'"],"other_name":null,"cycle":"Perennial","watering":"Average","sunlight":["Part shade","full shade"],"default_image":{"image_id":7298,"license":5,"license_name":"Attribution-ShareAlike License","license_url":"https://creativecommons.org/licenses/by-sa/2.0/","original_url":"https://perenual.com/storage/species_image/3445_helleborus_niger_altifolius/og/52011706679_6256d96767_b.jpg","regular_url":"https://perenual.com/storage/species_image/3445_helleborus_niger_altifolius/regular/52011706679_6256d96767_b.jpg","medium_url":"https://perenual.com/storage/species_image/3445_helleborus_niger_altifolius/medium/52011706679_6256d96767_b.jpg","small_url":"https://perenual.com/storage/species_image/3445_helleborus_niger_altifolius/small/52011706679_6256d96767_b.jpg","thumbnail":"https://perenual.com/storage/species_image/3445_helleborus_niger_altifolius/thumbnail/52011706679_6256d96767_b.jpg"}},{"id":3446,"common_name":"hellebore","scientific_name":["Helleborus odorus"],"other_name":null,"cycle":"Perennial","watering":"Average","sunlight":["Part shade","full shade"],"default_image":{"image_id":7301,"license":4,"license_name":"Attribution License","license_url":"https://creativecommons.org/licenses/by/2.0/","original_url":"https://perenual.com/storage/species_image/3446_helleborus_odorus/og/51894048568_1c8c7ec7ee_b.jpg","regular_url":"https://perenual.com/storage/species_image/3446_helleborus_odorus/regular/51894048568_1c8c7ec7ee_b.jpg","medium_url":"https://perenual.com/storage/species_image/3446_helleborus_odorus/medium/51894048568_1c8c7ec7ee_b.jpg","small_url":"https://perenual.com/storage/species_image/3446_helleborus_odorus/small/51894048568_1c8c7ec7ee_b.jpg","thumbnail":"https://perenual.com/storage/species_image/3446_helleborus_odorus/thumbnail/51894048568_1c8c7ec7ee_b.jpg"}},{"id":3447,"common_name":"hellebore","scientific_name":["Helleborus orientalis"],"other_name":null,"cycle":"Perennial","watering":"Average","sunlight":["Part shade","full shade"],"default_image":{"image_id":9,"license":5,"license_name":"Attribution-ShareAlike License","license_url":"https://creativecommons.org/licenses/by-sa/2.0/","original_url":"https://perenual.com/storage/species_image/2_abies_alba_pyramidalis/og/49255769768_df55596553_b.jpg","regular_url":"https://perenual.com/storage/species_image/2_abies_alba_pyramidalis/regular/49255769768_df55596553_b.jpg","medium_url":"https://perenual.com/storage/species_image/2_abies_alba_pyramidalis/medium/49255769768_df55596553_b.jpg","small_url":"https://perenual.com/storage/species_image/2_abies_alba_pyramidalis/small/49255769768_df55596553_b.jpg","thumbnail":"https://perenual.com/storage/species_image/2_abies_alba_pyramidalis/thumbnail/49255769768_df55596553_b.jpg"}},{"id":3448,"common_name":"hellebore","scientific_name":["Helleborus orientalis 'Millet Hybrids'"],"other_name":null,"cycle":"Perennial","watering":"Average","sunlight":["Part shade","full shade"],"default_image":{"image_id":22001,"license":1,"license_name":null,"license_url":null,"original_url":"https://perenual.com/storage/species_image/3449_helleborus_orientalis_subsp_abchasicus_early_purple_group/og/52261187580_2c37015d2c_b.jpg","regular_url":"https://perenual.com/storage/species_image/3449_helleborus_orientalis_subsp_abchasicus_early_purple_group/regular/52261187580_2c37015d2c_b.jpg","medium_url":"https://perenual.com/storage/species_image/3449_helleborus_orientalis_subsp_abchasicus_early_purple_group/medium/52261187580_2c37015d2c_b.jpg","small_url":"https://perenual.com/storage/species_image/3449_helleborus_orientalis_subsp_abchasicus_early_purple_group/small/52261187580_2c37015d2c_b.jpg","thumbnail":"https://perenual.com/storage/species_image/3449_helleborus_orientalis_subsp_abchasicus_early_purple_group/thumbnail/52261187580_2c37015d2c_b.jpg"}},{"id":3449,"common_name":"hellebore","scientific_name":["Helleborus orientalis subsp. abchasicus (Early Purple Group)"],"other_name":null,"cycle":"Perennial","watering":"Average","sunlight":["Part shade","full shade"],"default_image":{"image_id":22001,"license":1,"license_name":null,"license_url":null,"original_url":"https://perenual.com/storage/species_image/3449_helleborus_orientalis_subsp_abchasicus_early_purple_group/og/52261187580_2c37015d2c_b.jpg","regular_url":"https://perenual.com/storage/species_image/3449_helleborus_orientalis_subsp_abchasicus_early_purple_group/regular/52261187580_2c37015d2c_b.jpg","medium_url":"https://perenual.com/storage/species_image/3449_helleborus_orientalis_subsp_abchasicus_early_purple_group/medium/52261187580_2c37015d2c_b.jpg","small_url":"https://perenual.com/storage/species_image/3449_helleborus_orientalis_subsp_abchasicus_early_purple_group/small/52261187580_2c37015d2c_b.jpg","thumbnail":"https://perenual.com/storage/species_image/3449_helleborus_orientalis_subsp_abchasicus_early_purple_group/thumbnail/52261187580_2c37015d2c_b.jpg"}},{"id":3450,"common_name":"hellebore","scientific_name":["Helleborus (Painted Strain) WINTER JEWELS"],"other_name":null,"cycle":"Perennial","watering":"Average","sunlight":["Part shade","full shade"],"default_image":{"image_id":7310,"license":5,"license_name":"Attribution-ShareAlike License","license_url":"https://creativecommons.org/licenses/by-sa/2.0/","original_url":"https://perenual.com/storage/species_image/3450_helleborus_painted_strain_winter_jewels/og/52024347026_914f4a56b6_b.jpg","regular_url":"https://perenual.com/storage/species_image/3450_helleborus_painted_strain_winter_jewels/regular/52024347026_914f4a56b6_b.jpg","medium_url":"https://perenual.com/storage/species_image/3450_helleborus_painted_strain_winter_jewels/medium/52024347026_914f4a56b6_b.jpg","small_url":"https://perenual.com/storage/species_image/3450_helleborus_painted_strain_winter_jewels/small/52024347026_914f4a56b6_b.jpg","thumbnail":"https://perenual.com/storage/species_image/3450_helleborus_painted_strain_winter_jewels/thumbnail/52024347026_914f4a56b6_b.jpg"}}],"to":3450,"per_page":30,"current_page":115,"from":3421,"last_page":200,"total":6000}