{"data":[{"id":4711,"common_name":"English lavender","scientific_name":["Lavandula angustifolia 'Royal Velvet'"],"other_name":null,"cycle":"Perennial","watering":"Minimum","sunlight":["Full sun"],"default_image":{"image_id":9851,"license":5,"license_name":"Attribution-ShareAlike License","license_url":"https://creativecommons.org/licenses/by-sa/2.0/","original_url":"https://perenual.com/storage/species_image/4711_lavandula_angustifolia_royal_velvet/og/51142985498_151d33c3a3_b.jpg","regular_url":"https://perenual.com/storage/species_image/4711_lavandula_angustifolia_royal_velvet/regular/51142985498_151d33c3a3_b.jpg","medium_url":"https://perenual.com/storage/species_image/4711_lavandula_angustifolia_royal_velvet/medium/51142985498_151d33c3a3_b.jpg","small_url":"https://perenual.com/storage/species_image/4711_lavandula_angustifolia_royal_velvet/small/51142985498_151d33c3a3_b.jpg","thumbnail":"https://perenual.com/storage/species_image/4711_lavandula_angustifolia_royal_velvet/thumbnail/51142985498_151d33c3a3_b.jpg"}},{"id":4712,"common_name":"English lavender","scientific_name":["Lavandula angustifolia 'Sharon Roberts'"],"other_name":null,"cycle":"Perennial","watering":"Minimum","sunlight":["Full sun"],"default_image":{"image_id":9859,"license":4,"license_name":"Attribution License","license_url":"https://creativecommons.org/licenses/by/2.0/","original_url":"https://perenual.com/storage/species_image/4712_lavandula_angustifolia_sharon_roberts/og/42141566994_5f06c65065_b.jpg","regular_url":"https://perenual.com/storage/species_image/4712_lavandula_angustifolia_sharon_roberts/regular/42141566994_5f06c65065_b.jpg","medium_url":"https://perenual.com/storage/species_image/4712_lavandula_angustifolia_sharon_roberts/medium/42141566994_5f06c65065_b.jpg","small_url":"https://perenual.com/storage/species_image/4712_lavandula_angustifolia_sharon_roberts/small/42141566994_5f06c65065_b.jpg","thumbnail":"https://perenual.com/storage/species_image/4712_lavandula_angustifolia_sharon_roberts/thumbnail/42141566994_5f06c65065_b.jpg"}},{"id":4713,"common_name":"English lavender","scientific_name":["Lavandula angustifolia 'SuperBlue'"],"other_name":null,"cycle":"Perennial","watering":"Minimum","sunlight":["Full sun"],"default_image":{"image_id":9855,"license":4,"license_name":"Attribution License","license_url":"https://creativecommons.org/licenses/by/2.0/","original_url":"https://perenual.com/storage/species_image/4713_lavandula_angustifolia_superblue/og/31305743805_4a11cf7184_b.jpg","regular_url":"https://perenual.com/storage/species_image/4713_lavandula_angustifolia_superblue/regular/31305743805_4a11cf7184_b.jpg","medium_url":"https://perenual.com/storage/species_image/4713_lavandula_angustifolia_superblue/medium/31305743805_4a11cf7184_b.jpg","small_url":"https://perenual.com/storage/species_image/4713_lavandula_angustifolia_superblue/small/31305743805_4a11cf7184_b.jpg","thumbnail":"https://perenual.com/storage/species_image/4713_lavandula_angustifolia_superblue/thumbnail/31305743805_4a11cf7184_b.jpg"}},{"id":4714,"common_name":"lavandin","scientific_name":["Lavandula intermedia 'Alba'"],"other_name":null,"cycle":"Perennial","watering":"Minimum","sunlight":["Full sun"],"default_image":{"image_id":9861,"license":6,"license_name":"Attribution-NoDerivs License","license_url":"https://creativecommons.org/licenses/by-nd/2.0/","original_url":"https://perenual.com/storage/species_image/4714_lavandula_intermedia_alba/og/8203034763_f91e3a6577_b.jpg"}},{"id":4715,"common_name":"lavandin","scientific_name":["Lavandula intermedia (Dutch Group)"],"other_name":null,"cycle":"Perennial","watering":"Minimum","sunlight":["Full sun"],"default_image":{"image_id":9862,"license":4,"license_name":"Attribution License","license_url":"https://creativecommons.org/licenses/by/2.0/","original_url":"https://perenual.com/storage/species_image/4715_lavandula_intermedia_dutch_group/og/38797970260_ea4203742f_b.jpg","regular_url":"https://perenual.com/storage/species_image/4715_lavandula_intermedia_dutch_group/regular/38797970260_ea4203742f_b.jpg","medium_url":"https://perenual.com/storage/species_image/4715_lavandula_intermedia_dutch_group/medium/38797970260_ea4203742f_b.jpg","small_url":"https://perenual.com/storage/species_image/4715_lavandula_intermedia_dutch_group/small/38797970260_ea4203742f_b.jpg","thumbnail":"https://perenual.com/storage/species_image/4715_lavandula_intermedia_dutch_group/thumbnail/38797970260_ea4203742f_b.jpg"}},{"id":4716,"common_name":"lavandin","scientific_name":["Lavandula intermedia 'Fred Boutin'"],"other_name":null,"cycle":"Perennial","watering":"Minimum","sunlight":["Full sun"],"default_image":{"image_id":9864,"license":5,"license_name":"Attribution-ShareAlike License","license_url":"https://creativecommons.org/licenses/by-sa/2.0/","original_url":"https://perenual.com/storage/species_image/4716_lavandula_intermedia_fred_boutin/og/27808494991_92712d7f30_b.jpg","regular_url":"https://perenual.com/storage/species_image/4716_lavandula_intermedia_fred_boutin/regular/27808494991_92712d7f30_b.jpg","medium_url":"https://perenual.com/storage/species_image/4716_lavandula_intermedia_fred_boutin/medium/27808494991_92712d7f30_b.jpg","small_url":"https://perenual.com/storage/species_image/4716_lavandula_intermedia_fred_boutin/small/27808494991_92712d7f30_b.jpg","thumbnail":"https://perenual.com/storage/species_image/4716_lavandula_intermedia_fred_boutin/thumbnail/27808494991_92712d7f30_b.jpg"}},{"id":4717,"common_name":"lavandin","scientific_name":["Lavandula intermedia 'Grosso'"],"other_name":null,"cycle":"Perennial","watering":"Minimum","sunlight":["Full sun"],"default_image":{"image_id":9863,"license":5,"license_name":"Attribution-ShareAlike License","license_url":"https://creativecommons.org/licenses/by-sa/2.0/","original_url":"https://perenual.com/storage/species_image/4717_lavandula_intermedia_grosso/og/35267237810_236877929d_b.jpg","regular_url":"https://perenual.com/storage/species_image/4717_lavandula_intermedia_grosso/regular/35267237810_236877929d_b.jpg","medium_url":"https://perenual.com/storage/species_image/4717_lavandula_intermedia_grosso/medium/35267237810_236877929d_b.jpg","small_url":"https://perenual.com/storage/species_image/4717_lavandula_intermedia_grosso/small/35267237810_236877929d_b.jpg","thumbnail":"https://perenual.com/storage/species_image/4717_lavandula_intermedia_grosso/thumbnail/35267237810_236877929d_b.jpg"}},{"id":4718,"common_name":"lavender","scientific_name":["Lavandula intermedia 'Niko' PHENOMENAL"],"other_name":null,"cycle":"Perennial","watering":"Minimum","sunlight":["Full sun"],"default_image":{"image_id":6922,"license":4,"license_name":"Attribution License","license_url":"https://creativecommons.org/licenses/by/2.0/","original_url":"https://perenual.com/storage/species_image/4718_lavandula_intermedia_niko_phenomenal/og/52606967175_972ab49331_b.jpg","regular_url":"https://perenual.com/storage/species_image/4718_lavandula_intermedia_niko_phenomenal/regular/52606967175_972ab49331_b.jpg","medium_url":"https://perenual.com/storage/species_image/4718_lavandula_intermedia_niko_phenomenal/medium/52606967175_972ab49331_b.jpg","small_url":"https://perenual.com/storage/species_image/4718_lavandula_intermedia_niko_phenomenal/small/52606967175_972ab49331_b.jpg","thumbnail":"https://perenual.com/storage/species_image/4718_lavandula_intermedia_niko_phenomenal/thumbnail/52606967175_972ab49331_b.jpg"}},{"id":4719,"common_name":"lavandin","scientific_name":["Lavandula intermedia 'Provence'"],"other_name":null,"cycle":"Perennial","watering":"Minimum","sunlight":["Full sun"],"default_image":{"image_id":9,"license":5,"license_name":"Attribution-ShareAlike License","license_url":"https://creativecommons.org/licenses/by-sa/2.0/","original_url":"https://perenual.com/storage/species_image/2_abies_alba_pyramidalis/og/49255769768_df55596553_b.jpg","regular_url":"https://perenual.com/storage/species_image/2_abies_alba_pyramidalis/regular/49255769768_df55596553_b.jpg","medium_url":"https://perenual.com/storage/species_image/2_abies_alba_pyramidalis/medium/49255769768_df55596553_b.jpg","small_url":"https://perenual.com/storage/species_image/2_abies_alba_pyramidalis/small/49255769768_df55596553_b.jpg","thumbnail":"https://perenual.com/storage/species_image/2_abies_alba_pyramidalis/thumbnail/49255769768_df55596553_b.jpg"}},{"id":4720,"common_name":"French lace","scientific_name":["Lavandula multifida"],"other_name":null,"cycle":"Perennial","watering":"Minimum","sunlight":["Full sun","part shade"],"default_image":{"image_id":9869,"license":4,"license_name":"Attribution License","license_url":"https://creativecommons.org/licenses/by/2.0/","original_url":"https://perenual.com/storage/species_image/4720_lavandula_multifida/og/49220322598_0dac4dc0f1_b.jpg","regular_url":"https://perenual.com/storage/species_image/4720_lavandula_multifida/regular/49220322598_0dac4dc0f1_b.jpg","medium_url":"https://perenual.com/storage/species_image/4720_lavandula_multifida/medium/49220322598_0dac4dc0f1_b.jpg","small_url":"https://perenual.com/storage/species_image/4720_lavandula_multifida/small/49220322598_0dac4dc0f1_b.jpg","thumbnail":"https://perenual.com/storage/species_image/4720_lavandula_multifida/thumbnail/49220322598_0dac4dc0f1_b.jpg"}},{"id":4721,"common_name":"lavender","scientific_name":["Lavandula 'Regal Splendour'"],"other_name":null,"cycle":"Perennial","watering":"Minimum","sunlight":["Full sun"],"default_image":{"image_id":9872,"license":5,"license_name":"Attribution-ShareAlike License","license_url":"https://creativecommons.org/licenses/by-sa/2.0/","original_url":"https://perenual.com/storage/species_image/4721_lavandula_regal_splendour/og/52537901932_9800859129_b.jpg","regular_url":"https://perenual.com/storage/species_image/4721_lavandula_regal_splendour/regular/52537901932_9800859129_b.jpg","medium_url":"https://perenual.com/storage/species_image/4721_lavandula_regal_splendour/medium/52537901932_9800859129_b.jpg","small_url":"https://perenual.com/storage/species_image/4721_lavandula_regal_splendour/small/52537901932_9800859129_b.jpg","thumbnail":"https://perenual.com/storage/species_image/4721_lavandula_regal_splendour/thumbnail/52537901932_9800859129_b.jpg"}},{"id":4722,"common_name":"lavender","scientific_name":["Lavandula 'Silver Frost'"],"other_name":null,"cycle":"Perennial","watering":"Minimum","sunlight":["Full sun"],"default_image":{"image_id":9873,"license":4,"license_name":"Attribution License","license_url":"https://creativecommons.org/licenses/by/2.0/","original_url":"https://perenual.com/storage/species_image/4722_lavandula_silver_frost/og/52596427398_a15013f16a_b.jpg","regular_url":"https://perenual.com/storage/species_image/4722_lavandula_silver_frost/regular/52596427398_a15013f16a_b.jpg","medium_url":"https://perenual.com/storage/species_image/4722_lavandula_silver_frost/medium/52596427398_a15013f16a_b.jpg","small_url":"https://perenual.com/storage/species_image/4722_lavandula_silver_frost/small/52596427398_a15013f16a_b.jpg","thumbnail":"https://perenual.com/storage/species_image/4722_lavandula_silver_frost/thumbnail/52596427398_a15013f16a_b.jpg"}},{"id":4723,"common_name":"Spanish lavender","scientific_name":["Lavandula stoechas 'Bandera Deep Rose'"],"other_name":null,"cycle":"Perennial","watering":"Minimum","sunlight":["Full sun"],"default_image":{"image_id":9878,"license":4,"license_name":"Attribution License","license_url":"https://creativecommons.org/licenses/by/2.0/","original_url":"https://perenual.com/storage/species_image/4723_lavandula_stoechas_bandera_deep_rose/og/32457656061_8fde0a6d4a_b.jpg","regular_url":"https://perenual.com/storage/species_image/4723_lavandula_stoechas_bandera_deep_rose/regular/32457656061_8fde0a6d4a_b.jpg","medium_url":"https://perenual.com/storage/species_image/4723_lavandula_stoechas_bandera_deep_rose/medium/32457656061_8fde0a6d4a_b.jpg","small_url":"https://perenual.com/storage/species_image/4723_lavandula_stoechas_bandera_deep_rose/small/32457656061_8fde0a6d4a_b.jpg","thumbnail":"https://perenual.com/storage/species_image/4723_lavandula_stoechas_bandera_deep_rose/thumbnail/32457656061_8fde0a6d4a_b.jpg"}},{"id":4724,"common_name":"tree mallow","scientific_name":["Lavatera arborea"],"other_name":null,"cycle":"Perennial","watering":"Average","sunlight":["Full sun","part shade"],"default_image":{"image_id":9,"license":5,"license_name":"Attribution-ShareAlike License","license_url":"https://creativecommons.org/licenses/by-sa/2.0/","original_url":"https://perenual.com/storage/species_image/2_abies_alba_pyramidalis/og/49255769768_df55596553_b.jpg","regular_url":"https://perenual.com/storage/species_image/2_abies_alba_pyramidalis/regular/49255769768_df55596553_b.jpg","medium_url":"https://perenual.com/storage/species_image/2_abies_alba_pyramidalis/medium/49255769768_df55596553_b.jpg","small_url":"https://perenual.com/storage/species_image/2_abies_alba_pyramidalis/small/49255769768_df55596553_b.jpg","thumbnail":"https://perenual.com/storage/species_image/2_abies_alba_pyramidalis/thumbnail/49255769768_df55596553_b.jpg"}},{"id":4725,"common_name":"tree mallow","scientific_name":["Lavatera trimestris"],"other_name":null,"cycle":"Perennial","watering":"Average","sunlight":["Full sun"],"default_image":{"image_id":9885,"license":5,"license_name":"Attribution-ShareAlike License","license_url":"https://creativecommons.org/licenses/by-sa/2.0/","original_url":"https://perenual.com/storage/species_image/4725_lavatera_trimestris/og/50055293708_87596be733_b.jpg","regular_url":"https://perenual.com/storage/species_image/4725_lavatera_trimestris/regular/50055293708_87596be733_b.jpg","medium_url":"https://perenual.com/storage/species_image/4725_lavatera_trimestris/medium/50055293708_87596be733_b.jpg","small_url":"https://perenual.com/storage/species_image/4725_lavatera_trimestris/small/50055293708_87596be733_b.jpg","thumbnail":"https://perenual.com/storage/species_image/4725_lavatera_trimestris/thumbnail/50055293708_87596be733_b.jpg"}},{"id":4726,"common_name":"henna","scientific_name":["Lawsonia inermis"],"other_name":null,"cycle":"Perennial","watering":"Minimum","sunlight":["Full sun"],"default_image":{"image_id":9893,"license":4,"license_name":"Attribution License","license_url":"https://creativecommons.org/licenses/by/2.0/","original_url":"https://perenual.com/storage/species_image/4726_lawsonia_inermis/og/9780599996_fd8d7aa328_b.jpg","regular_url":"https://perenual.com/storage/species_image/4726_lawsonia_inermis/regular/9780599996_fd8d7aa328_b.jpg","medium_url":"https://perenual.com/storage/species_image/4726_lawsonia_inermis/medium/9780599996_fd8d7aa328_b.jpg","small_url":"https://perenual.com/storage/species_image/4726_lawsonia_inermis/small/9780599996_fd8d7aa328_b.jpg","thumbnail":"https://perenual.com/storage/species_image/4726_lawsonia_inermis/thumbnail/9780599996_fd8d7aa328_b.jpg"}},{"id":4727,"common_name":"Cooper’s African hyacinth","scientific_name":["Ledebouria cooperi"],"other_name":null,"cycle":"Perennial","watering":"Average","sunlight":["Full sun","part shade"],"default_image":{"image_id":9895,"license":5,"license_name":"Attribution-ShareAlike License","license_url":"https://creativecommons.org/licenses/by-sa/2.0/","original_url":"https://perenual.com/storage/species_image/4727_ledebouria_cooperi/og/46957839444_b79197d2d3_b.jpg","regular_url":"https://perenual.com/storage/species_image/4727_ledebouria_cooperi/regular/46957839444_b79197d2d3_b.jpg","medium_url":"https://perenual.com/storage/species_image/4727_ledebouria_cooperi/medium/46957839444_b79197d2d3_b.jpg","small_url":"https://perenual.com/storage/species_image/4727_ledebouria_cooperi/small/46957839444_b79197d2d3_b.jpg","thumbnail":"https://perenual.com/storage/species_image/4727_ledebouria_cooperi/thumbnail/46957839444_b79197d2d3_b.jpg"}},{"id":4728,"common_name":"leea","scientific_name":["Leea guineensis"],"other_name":null,"cycle":"Perennial","watering":"Average","sunlight":["Part shade","full shade"],"default_image":{"image_id":9901,"license":5,"license_name":"Attribution-ShareAlike License","license_url":"https://creativecommons.org/licenses/by-sa/2.0/","original_url":"https://perenual.com/storage/species_image/4728_leea_guineensis/og/9190566523_9d6537e77a_b.jpg","regular_url":"https://perenual.com/storage/species_image/4728_leea_guineensis/regular/9190566523_9d6537e77a_b.jpg","medium_url":"https://perenual.com/storage/species_image/4728_leea_guineensis/medium/9190566523_9d6537e77a_b.jpg","small_url":"https://perenual.com/storage/species_image/4728_leea_guineensis/small/9190566523_9d6537e77a_b.jpg","thumbnail":"https://perenual.com/storage/species_image/4728_leea_guineensis/thumbnail/9190566523_9d6537e77a_b.jpg"}},{"id":4729,"common_name":"corkwood","scientific_name":["Leitneria floridana"],"other_name":null,"cycle":"Perennial","watering":"Frequent","sunlight":["Full sun","part shade"],"default_image":{"image_id":9,"license":5,"license_name":"Attribution-ShareAlike License","license_url":"https://creativecommons.org/licenses/by-sa/2.0/","original_url":"https://perenual.com/storage/species_image/2_abies_alba_pyramidalis/og/49255769768_df55596553_b.jpg","regular_url":"https://perenual.com/storage/species_image/2_abies_alba_pyramidalis/regular/49255769768_df55596553_b.jpg","medium_url":"https://perenual.com/storage/species_image/2_abies_alba_pyramidalis/medium/49255769768_df55596553_b.jpg","small_url":"https://perenual.com/storage/species_image/2_abies_alba_pyramidalis/small/49255769768_df55596553_b.jpg","thumbnail":"https://perenual.com/storage/species_image/2_abies_alba_pyramidalis/thumbnail/49255769768_df55596553_b.jpg"}},{"id":4730,"common_name":"common duckweed","scientific_name":["Lemna minor"],"other_name":null,"cycle":"Perennial","watering":"Frequent","sunlight":["Full sun"],"default_image":{"image_id":9907,"license":5,"license_name":"Attribution-ShareAlike License","license_url":"https://creativecommons.org/licenses/by-sa/2.0/","original_url":"https://perenual.com/storage/species_image/4730_lemna_minor/og/28720445200_57a55ab4d4_b.jpg","regular_url":"https://perenual.com/storage/species_image/4730_lemna_minor/regular/28720445200_57a55ab4d4_b.jpg","medium_url":"https://perenual.com/storage/species_image/4730_lemna_minor/medium/28720445200_57a55ab4d4_b.jpg","small_url":"https://perenual.com/storage/species_image/4730_lemna_minor/small/28720445200_57a55ab4d4_b.jpg","thumbnail":"https://perenual.com/storage/species_image/4730_lemna_minor/thumbnail/28720445200_57a55ab4d4_b.jpg"}},{"id":4731,"common_name":"lion's ear","scientific_name":["Leonotis leonurus"],"other_name":null,"cycle":"Perennial","watering":"Average","sunlight":["Full sun"],"default_image":{"image_id":9915,"license":5,"license_name":"Attribution-ShareAlike License","license_url":"https://creativecommons.org/licenses/by-sa/2.0/","original_url":"https://perenual.com/storage/species_image/4731_leonotis_leonurus/og/52474006091_71c6f9cb49_b.jpg","regular_url":"https://perenual.com/storage/species_image/4731_leonotis_leonurus/regular/52474006091_71c6f9cb49_b.jpg","medium_url":"https://perenual.com/storage/species_image/4731_leonotis_leonurus/medium/52474006091_71c6f9cb49_b.jpg","small_url":"https://perenual.com/storage/species_image/4731_leonotis_leonurus/small/52474006091_71c6f9cb49_b.jpg","thumbnail":"https://perenual.com/storage/species_image/4731_leonotis_leonurus/thumbnail/52474006091_71c6f9cb49_b.jpg"}},{"id":4732,"common_name":"edelweiss","scientific_name":["Leontopodium alpinum"],"other_name":null,"cycle":"Perennial","watering":"Average","sunlight":["Full sun"],"default_image":{"image_id":9921,"license":5,"license_name":"Attribution-ShareAlike License","license_url":"https://creativecommons.org/licenses/by-sa/2.0/","original_url":"https://perenual.com/storage/species_image/4732_leontopodium_alpinum/og/44593878672_f926fa797f_b.jpg","regular_url":"https://perenual.com/storage/species_image/4732_leontopodium_alpinum/regular/44593878672_f926fa797f_b.jpg","medium_url":"https://perenual.com/storage/species_image/4732_leontopodium_alpinum/medium/44593878672_f926fa797f_b.jpg","small_url":"https://perenual.com/storage/species_image/4732_leontopodium_alpinum/small/44593878672_f926fa797f_b.jpg","thumbnail":"https://perenual.com/storage/species_image/4732_leontopodium_alpinum/thumbnail/44593878672_f926fa797f_b.jpg"}},{"id":4733,"common_name":"Siberian edelweiss","scientific_name":["Leontopodium palibinianum"],"other_name":null,"cycle":"Perennial","watering":"Average","sunlight":["Full sun"],"default_image":{"image_id":9,"license":5,"license_name":"Attribution-ShareAlike License","license_url":"https://creativecommons.org/licenses/by-sa/2.0/","original_url":"https://perenual.com/storage/species_image/2_abies_alba_pyramidalis/og/49255769768_df55596553_b.jpg","regular_url":"https://perenual.com/storage/species_image/2_abies_alba_pyramidalis/regular/49255769768_df55596553_b.jpg","medium_url":"https://perenual.com/storage/species_image/2_abies_alba_pyramidalis/medium/49255769768_df55596553_b.jpg","small_url":"https://perenual.com/storage/species_image/2_abies_alba_pyramidalis/small/49255769768_df55596553_b.jpg","thumbnail":"https://perenual.com/storage/species_image/2_abies_alba_pyramidalis/thumbnail/49255769768_df55596553_b.jpg"}},{"id":4734,"common_name":"motherwort","scientific_name":["Leonurus cardiaca"],"other_name":null,"cycle":"Perennial","watering":"Average","sunlight":["Part shade"],"default_image":{"image_id":9926,"license":6,"license_name":"Attribution-NoDerivs License","license_url":"https://creativecommons.org/licenses/by-nd/2.0/","original_url":"https://perenual.com/storage/species_image/4734_leonurus_cardiaca/og/51271541402_b909a78d33_b.jpg"}},{"id":4735,"common_name":"brass buttons","scientific_name":["Leptinella squalida"],"other_name":null,"cycle":"Perennial","watering":"Average","sunlight":["Full sun","part shade"],"default_image":{"image_id":9930,"license":4,"license_name":"Attribution License","license_url":"https://creativecommons.org/licenses/by/2.0/","original_url":"https://perenual.com/storage/species_image/4736_leptinella_squalida_platts_black/og/5597164350_169fd85154_b.jpg","regular_url":"https://perenual.com/storage/species_image/4736_leptinella_squalida_platts_black/regular/5597164350_169fd85154_b.jpg","medium_url":"https://perenual.com/storage/species_image/4736_leptinella_squalida_platts_black/medium/5597164350_169fd85154_b.jpg","small_url":"https://perenual.com/storage/species_image/4736_leptinella_squalida_platts_black/small/5597164350_169fd85154_b.jpg","thumbnail":"https://perenual.com/storage/species_image/4736_leptinella_squalida_platts_black/thumbnail/5597164350_169fd85154_b.jpg"}},{"id":4736,"common_name":"brass buttons","scientific_name":["Leptinella squalida 'Platt's Black'"],"other_name":null,"cycle":"Perennial","watering":"Average","sunlight":["Full sun","part shade"],"default_image":{"image_id":9930,"license":4,"license_name":"Attribution License","license_url":"https://creativecommons.org/licenses/by/2.0/","original_url":"https://perenual.com/storage/species_image/4736_leptinella_squalida_platts_black/og/5597164350_169fd85154_b.jpg","regular_url":"https://perenual.com/storage/species_image/4736_leptinella_squalida_platts_black/regular/5597164350_169fd85154_b.jpg","medium_url":"https://perenual.com/storage/species_image/4736_leptinella_squalida_platts_black/medium/5597164350_169fd85154_b.jpg","small_url":"https://perenual.com/storage/species_image/4736_leptinella_squalida_platts_black/small/5597164350_169fd85154_b.jpg","thumbnail":"https://perenual.com/storage/species_image/4736_leptinella_squalida_platts_black/thumbnail/5597164350_169fd85154_b.jpg"}},{"id":4737,"common_name":"leptodermis","scientific_name":["Leptodermis oblonga"],"other_name":null,"cycle":"Perennial","watering":"Average","sunlight":["Full sun","part shade"],"default_image":{"image_id":9935,"license":5,"license_name":"Attribution-ShareAlike License","license_url":"https://creativecommons.org/licenses/by-sa/2.0/","original_url":"https://perenual.com/storage/species_image/4737_leptodermis_oblonga/og/28652042704_0417e86506_b.jpg","regular_url":"https://perenual.com/storage/species_image/4737_leptodermis_oblonga/regular/28652042704_0417e86506_b.jpg","medium_url":"https://perenual.com/storage/species_image/4737_leptodermis_oblonga/medium/28652042704_0417e86506_b.jpg","small_url":"https://perenual.com/storage/species_image/4737_leptodermis_oblonga/small/28652042704_0417e86506_b.jpg","thumbnail":"https://perenual.com/storage/species_image/4737_leptodermis_oblonga/thumbnail/28652042704_0417e86506_b.jpg"}},{"id":4738,"common_name":"broom tea tree","scientific_name":["Leptospermum scoparium"],"other_name":null,"cycle":"Perennial","watering":"Average","sunlight":["Full sun"],"default_image":{"image_id":9938,"license":4,"license_name":"Attribution License","license_url":"https://creativecommons.org/licenses/by/2.0/","original_url":"https://perenual.com/storage/species_image/4738_leptospermum_scoparium/og/52078075163_d06e617666_b.jpg","regular_url":"https://perenual.com/storage/species_image/4738_leptospermum_scoparium/regular/52078075163_d06e617666_b.jpg","medium_url":"https://perenual.com/storage/species_image/4738_leptospermum_scoparium/medium/52078075163_d06e617666_b.jpg","small_url":"https://perenual.com/storage/species_image/4738_leptospermum_scoparium/small/52078075163_d06e617666_b.jpg","thumbnail":"https://perenual.com/storage/species_image/4738_leptospermum_scoparium/thumbnail/52078075163_d06e617666_b.jpg"}},{"id":4739,"common_name":"shrub lespedeza","scientific_name":["Lespedeza bicolor"],"other_name":null,"cycle":"Perennial","watering":"Minimum","sunlight":["Full sun","part shade"],"default_image":{"image_id":9,"license":5,"license_name":"Attribution-ShareAlike License","license_url":"https://creativecommons.org/licenses/by-sa/2.0/","original_url":"https://perenual.com/storage/species_image/2_abies_alba_pyramidalis/og/49255769768_df55596553_b.jpg","regular_url":"https://perenual.com/storage/species_image/2_abies_alba_pyramidalis/regular/49255769768_df55596553_b.jpg","medium_url":"https://perenual.com/storage/species_image/2_abies_alba_pyramidalis/medium/49255769768_df55596553_b.jpg","small_url":"https://perenual.com/storage/species_image/2_abies_alba_pyramidalis/small/49255769768_df55596553_b.jpg","thumbnail":"https://perenual.com/storage/species_image/2_abies_alba_pyramidalis/thumbnail/49255769768_df55596553_b.jpg"}},{"id":4740,"common_name":"bush clover","scientific_name":["Lespedeza bicolor 'Little Buddy'"],"other_name":null,"cycle":"Perennial","watering":"Minimum","sunlight":["Full sun","part shade"],"default_image":{"image_id":9,"license":5,"license_name":"Attribution-ShareAlike License","license_url":"https://creativecommons.org/licenses/by-sa/2.0/","original_url":"https://perenual.com/storage/species_image/2_abies_alba_pyramidalis/og/49255769768_df55596553_b.jpg","regular_url":"https://perenual.com/storage/species_image/2_abies_alba_pyramidalis/regular/49255769768_df55596553_b.jpg","medium_url":"https://perenual.com/storage/species_image/2_abies_alba_pyramidalis/medium/49255769768_df55596553_b.jpg","small_url":"https://perenual.com/storage/species_image/2_abies_alba_pyramidalis/small/49255769768_df55596553_b.jpg","thumbnail":"https://perenual.com/storage/species_image/2_abies_alba_pyramidalis/thumbnail/49255769768_df55596553_b.jpg"}}],"to":4740,"per_page":30,"current_page":158,"from":4711,"last_page":200,"total":6000}