{"data":[{"id":4171,"common_name":"Kalm's St. John's wort","scientific_name":["Hypericum kalmianum 'Ames'"],"other_name":null,"cycle":"Perennial","watering":"Average","sunlight":["Full sun","part shade"],"default_image":{"image_id":8452,"license":5,"license_name":"Attribution-ShareAlike License","license_url":"https://creativecommons.org/licenses/by-sa/2.0/","original_url":"https://perenual.com/storage/species_image/4171_hypericum_kalmianum_ames/og/24806120770_4f06cb1d4e_b.jpg","regular_url":"https://perenual.com/storage/species_image/4171_hypericum_kalmianum_ames/regular/24806120770_4f06cb1d4e_b.jpg","medium_url":"https://perenual.com/storage/species_image/4171_hypericum_kalmianum_ames/medium/24806120770_4f06cb1d4e_b.jpg","small_url":"https://perenual.com/storage/species_image/4171_hypericum_kalmianum_ames/small/24806120770_4f06cb1d4e_b.jpg","thumbnail":"https://perenual.com/storage/species_image/4171_hypericum_kalmianum_ames/thumbnail/24806120770_4f06cb1d4e_b.jpg"}},{"id":4172,"common_name":"St. John's wort","scientific_name":["Hypericum kalmianum 'Deppe' SUNNY BOULEVARD"],"other_name":null,"cycle":"Perennial","watering":"Average","sunlight":["Full sun","part shade"],"default_image":{"image_id":8449,"license":4,"license_name":"Attribution License","license_url":"https://creativecommons.org/licenses/by/2.0/","original_url":"https://perenual.com/storage/species_image/4170_hypericum_kalmianum/og/28664958472_0f57e2b38c_b.jpg","regular_url":"https://perenual.com/storage/species_image/4170_hypericum_kalmianum/regular/28664958472_0f57e2b38c_b.jpg","medium_url":"https://perenual.com/storage/species_image/4170_hypericum_kalmianum/medium/28664958472_0f57e2b38c_b.jpg","small_url":"https://perenual.com/storage/species_image/4170_hypericum_kalmianum/small/28664958472_0f57e2b38c_b.jpg","thumbnail":"https://perenual.com/storage/species_image/4170_hypericum_kalmianum/thumbnail/28664958472_0f57e2b38c_b.jpg"}},{"id":4173,"common_name":"large-flowered St. John's wort","scientific_name":["Hypericum kouytchense"],"other_name":null,"cycle":"Perennial","watering":"Average","sunlight":["Full sun","part shade"],"default_image":{"image_id":8459,"license":5,"license_name":"Attribution-ShareAlike License","license_url":"https://creativecommons.org/licenses/by-sa/2.0/","original_url":"https://perenual.com/storage/species_image/4173_hypericum_kouytchense/og/4855158432_12db728ddb_b.jpg","regular_url":"https://perenual.com/storage/species_image/4173_hypericum_kouytchense/regular/4855158432_12db728ddb_b.jpg","medium_url":"https://perenual.com/storage/species_image/4173_hypericum_kouytchense/medium/4855158432_12db728ddb_b.jpg","small_url":"https://perenual.com/storage/species_image/4173_hypericum_kouytchense/small/4855158432_12db728ddb_b.jpg","thumbnail":"https://perenual.com/storage/species_image/4173_hypericum_kouytchense/thumbnail/4855158432_12db728ddb_b.jpg"}},{"id":4174,"common_name":"smoothbark St. Johnswort","scientific_name":["Hypericum lissophloeus"],"other_name":null,"cycle":"Perennial","watering":"Average","sunlight":["Full sun","part shade"],"default_image":{"image_id":8463,"license":45,"license_name":"Attribution-ShareAlike 3.0 Unported (CC BY-SA 3.0)","license_url":"https://creativecommons.org/licenses/by-sa/3.0/deed.en","original_url":"https://perenual.com/storage/species_image/4174_hypericum_lissophloeus/og/Peelbark_St._Johns-wort_%28Hypericum_fasciculatum%29_%286439017119%29.jpg","regular_url":"https://perenual.com/storage/species_image/4174_hypericum_lissophloeus/regular/Peelbark_St._Johns-wort_%28Hypericum_fasciculatum%29_%286439017119%29.jpg","medium_url":"https://perenual.com/storage/species_image/4174_hypericum_lissophloeus/medium/Peelbark_St._Johns-wort_%28Hypericum_fasciculatum%29_%286439017119%29.jpg","small_url":"https://perenual.com/storage/species_image/4174_hypericum_lissophloeus/small/Peelbark_St._Johns-wort_%28Hypericum_fasciculatum%29_%286439017119%29.jpg","thumbnail":"https://perenual.com/storage/species_image/4174_hypericum_lissophloeus/thumbnail/Peelbark_St._Johns-wort_%28Hypericum_fasciculatum%29_%286439017119%29.jpg"}},{"id":4175,"common_name":"St. John's wort","scientific_name":["Hypericum moserianum 'Tricolor'"],"other_name":null,"cycle":"Perennial","watering":"Average","sunlight":["Full sun","part shade"],"default_image":{"image_id":8436,"license":4,"license_name":"Attribution License","license_url":"https://creativecommons.org/licenses/by/2.0/","original_url":"https://perenual.com/storage/species_image/4177_hypericum_perforatum_topas/og/52590270020_4c19ea4a24_b.jpg","regular_url":"https://perenual.com/storage/species_image/4177_hypericum_perforatum_topas/regular/52590270020_4c19ea4a24_b.jpg","medium_url":"https://perenual.com/storage/species_image/4177_hypericum_perforatum_topas/medium/52590270020_4c19ea4a24_b.jpg","small_url":"https://perenual.com/storage/species_image/4177_hypericum_perforatum_topas/small/52590270020_4c19ea4a24_b.jpg","thumbnail":"https://perenual.com/storage/species_image/4177_hypericum_perforatum_topas/thumbnail/52590270020_4c19ea4a24_b.jpg"}},{"id":4176,"common_name":"common St. John's wort","scientific_name":["Hypericum perforatum"],"other_name":null,"cycle":"Perennial","watering":"Average","sunlight":["Full sun","part shade"],"default_image":{"image_id":8464,"license":4,"license_name":"Attribution License","license_url":"https://creativecommons.org/licenses/by/2.0/","original_url":"https://perenual.com/storage/species_image/4176_hypericum_perforatum/og/52544897680_ebebfdc816_b.jpg","regular_url":"https://perenual.com/storage/species_image/4176_hypericum_perforatum/regular/52544897680_ebebfdc816_b.jpg","medium_url":"https://perenual.com/storage/species_image/4176_hypericum_perforatum/medium/52544897680_ebebfdc816_b.jpg","small_url":"https://perenual.com/storage/species_image/4176_hypericum_perforatum/small/52544897680_ebebfdc816_b.jpg","thumbnail":"https://perenual.com/storage/species_image/4176_hypericum_perforatum/thumbnail/52544897680_ebebfdc816_b.jpg"}},{"id":4177,"common_name":"St. John's wort","scientific_name":["Hypericum perforatum 'Topas'"],"other_name":null,"cycle":"Perennial","watering":"Average","sunlight":["Full sun","part shade"],"default_image":{"image_id":8436,"license":4,"license_name":"Attribution License","license_url":"https://creativecommons.org/licenses/by/2.0/","original_url":"https://perenual.com/storage/species_image/4177_hypericum_perforatum_topas/og/52590270020_4c19ea4a24_b.jpg","regular_url":"https://perenual.com/storage/species_image/4177_hypericum_perforatum_topas/regular/52590270020_4c19ea4a24_b.jpg","medium_url":"https://perenual.com/storage/species_image/4177_hypericum_perforatum_topas/medium/52590270020_4c19ea4a24_b.jpg","small_url":"https://perenual.com/storage/species_image/4177_hypericum_perforatum_topas/small/52590270020_4c19ea4a24_b.jpg","thumbnail":"https://perenual.com/storage/species_image/4177_hypericum_perforatum_topas/thumbnail/52590270020_4c19ea4a24_b.jpg"}},{"id":4178,"common_name":"shrubby St. John's wort","scientific_name":["Hypericum prolificum"],"other_name":null,"cycle":"Perennial","watering":"Frequent","sunlight":["Full sun Partial sun"],"default_image":{"image_id":8414,"license":4,"license_name":"Attribution License","license_url":"https://creativecommons.org/licenses/by/2.0/","original_url":"https://perenual.com/storage/species_image/4178_hypericum_prolificum/og/52231286391_5687bec953_b.jpg","regular_url":"https://perenual.com/storage/species_image/4178_hypericum_prolificum/regular/52231286391_5687bec953_b.jpg","medium_url":"https://perenual.com/storage/species_image/4178_hypericum_prolificum/medium/52231286391_5687bec953_b.jpg","small_url":"https://perenual.com/storage/species_image/4178_hypericum_prolificum/small/52231286391_5687bec953_b.jpg","thumbnail":"https://perenual.com/storage/species_image/4178_hypericum_prolificum/thumbnail/52231286391_5687bec953_b.jpg"}},{"id":4179,"common_name":"great St. John's wort","scientific_name":["Hypericum pyramidatum"],"other_name":null,"cycle":"Perennial","watering":"Average","sunlight":["Full sun","part shade"],"default_image":{"image_id":8477,"license":5,"license_name":"Attribution-ShareAlike License","license_url":"https://creativecommons.org/licenses/by-sa/2.0/","original_url":"https://perenual.com/storage/species_image/4179_hypericum_pyramidatum/og/28082516875_f5253ba440_b.jpg","regular_url":"https://perenual.com/storage/species_image/4179_hypericum_pyramidatum/regular/28082516875_f5253ba440_b.jpg","medium_url":"https://perenual.com/storage/species_image/4179_hypericum_pyramidatum/medium/28082516875_f5253ba440_b.jpg","small_url":"https://perenual.com/storage/species_image/4179_hypericum_pyramidatum/small/28082516875_f5253ba440_b.jpg","thumbnail":"https://perenual.com/storage/species_image/4179_hypericum_pyramidatum/thumbnail/28082516875_f5253ba440_b.jpg"}},{"id":4180,"common_name":"round fruited St. John's wort","scientific_name":["Hypericum sphaerocarpum"],"other_name":null,"cycle":"Perennial","watering":"Minimum","sunlight":["Full sun","part shade"],"default_image":{"image_id":9,"license":5,"license_name":"Attribution-ShareAlike License","license_url":"https://creativecommons.org/licenses/by-sa/2.0/","original_url":"https://perenual.com/storage/species_image/2_abies_alba_pyramidalis/og/49255769768_df55596553_b.jpg","regular_url":"https://perenual.com/storage/species_image/2_abies_alba_pyramidalis/regular/49255769768_df55596553_b.jpg","medium_url":"https://perenual.com/storage/species_image/2_abies_alba_pyramidalis/medium/49255769768_df55596553_b.jpg","small_url":"https://perenual.com/storage/species_image/2_abies_alba_pyramidalis/small/49255769768_df55596553_b.jpg","thumbnail":"https://perenual.com/storage/species_image/2_abies_alba_pyramidalis/thumbnail/49255769768_df55596553_b.jpg"}},{"id":4181,"common_name":"polka dot plant","scientific_name":["Hypoestes phyllostachya"],"other_name":null,"cycle":"Perennial","watering":"Average","sunlight":["Part shade"],"default_image":{"image_id":8487,"license":4,"license_name":"Attribution License","license_url":"https://creativecommons.org/licenses/by/2.0/","original_url":"https://perenual.com/storage/species_image/4181_hypoestes_phyllostachya/og/24900633135_8a01c1ce84_b.jpg","regular_url":"https://perenual.com/storage/species_image/4181_hypoestes_phyllostachya/regular/24900633135_8a01c1ce84_b.jpg","medium_url":"https://perenual.com/storage/species_image/4181_hypoestes_phyllostachya/medium/24900633135_8a01c1ce84_b.jpg","small_url":"https://perenual.com/storage/species_image/4181_hypoestes_phyllostachya/small/24900633135_8a01c1ce84_b.jpg","thumbnail":"https://perenual.com/storage/species_image/4181_hypoestes_phyllostachya/thumbnail/24900633135_8a01c1ce84_b.jpg"}},{"id":4182,"common_name":"polka dot plant","scientific_name":["Hypoestes phyllostachya 'Confetti Compact White'"],"other_name":null,"cycle":"Perennial","watering":"Average","sunlight":["Part shade"],"default_image":{"image_id":8489,"license":4,"license_name":"Attribution License","license_url":"https://creativecommons.org/licenses/by/2.0/","original_url":"https://perenual.com/storage/species_image/4182_hypoestes_phyllostachya_confetti_compact_white/og/32749936301_bed221201e_b.jpg","regular_url":"https://perenual.com/storage/species_image/4182_hypoestes_phyllostachya_confetti_compact_white/regular/32749936301_bed221201e_b.jpg","medium_url":"https://perenual.com/storage/species_image/4182_hypoestes_phyllostachya_confetti_compact_white/medium/32749936301_bed221201e_b.jpg","small_url":"https://perenual.com/storage/species_image/4182_hypoestes_phyllostachya_confetti_compact_white/small/32749936301_bed221201e_b.jpg","thumbnail":"https://perenual.com/storage/species_image/4182_hypoestes_phyllostachya_confetti_compact_white/thumbnail/32749936301_bed221201e_b.jpg"}},{"id":4183,"common_name":"polka dot plant","scientific_name":["Hypoestes phyllostachya SPLASH SELECT PINK"],"other_name":null,"cycle":"Perennial","watering":"Average","sunlight":["Part shade"],"default_image":{"image_id":8488,"license":4,"license_name":"Attribution License","license_url":"https://creativecommons.org/licenses/by/2.0/","original_url":"https://perenual.com/storage/species_image/4181_hypoestes_phyllostachya/og/24891200835_52a45fd2b4_b.jpg","regular_url":"https://perenual.com/storage/species_image/4181_hypoestes_phyllostachya/regular/24891200835_52a45fd2b4_b.jpg","medium_url":"https://perenual.com/storage/species_image/4181_hypoestes_phyllostachya/medium/24891200835_52a45fd2b4_b.jpg","small_url":"https://perenual.com/storage/species_image/4181_hypoestes_phyllostachya/small/24891200835_52a45fd2b4_b.jpg","thumbnail":"https://perenual.com/storage/species_image/4181_hypoestes_phyllostachya/thumbnail/24891200835_52a45fd2b4_b.jpg"}},{"id":4184,"common_name":"hyssop","scientific_name":["Hyssopus officinalis"],"other_name":null,"cycle":"Perennial","watering":"Minimum","sunlight":["Full sun","part shade"],"default_image":{"image_id":8495,"license":4,"license_name":"Attribution License","license_url":"https://creativecommons.org/licenses/by/2.0/","original_url":"https://perenual.com/storage/species_image/4184_hyssopus_officinalis/og/48565085946_ec19e7fbb0_b.jpg","regular_url":"https://perenual.com/storage/species_image/4184_hyssopus_officinalis/regular/48565085946_ec19e7fbb0_b.jpg","medium_url":"https://perenual.com/storage/species_image/4184_hyssopus_officinalis/medium/48565085946_ec19e7fbb0_b.jpg","small_url":"https://perenual.com/storage/species_image/4184_hyssopus_officinalis/small/48565085946_ec19e7fbb0_b.jpg","thumbnail":"https://perenual.com/storage/species_image/4184_hyssopus_officinalis/thumbnail/48565085946_ec19e7fbb0_b.jpg"}},{"id":4185,"common_name":"candytuft","scientific_name":["Iberis 'IB2401' ABSOLUTELY AMETHYST"],"other_name":null,"cycle":"Perennial","watering":"Average","sunlight":["Full sun"],"default_image":{"image_id":9,"license":5,"license_name":"Attribution-ShareAlike License","license_url":"https://creativecommons.org/licenses/by-sa/2.0/","original_url":"https://perenual.com/storage/species_image/2_abies_alba_pyramidalis/og/49255769768_df55596553_b.jpg","regular_url":"https://perenual.com/storage/species_image/2_abies_alba_pyramidalis/regular/49255769768_df55596553_b.jpg","medium_url":"https://perenual.com/storage/species_image/2_abies_alba_pyramidalis/medium/49255769768_df55596553_b.jpg","small_url":"https://perenual.com/storage/species_image/2_abies_alba_pyramidalis/small/49255769768_df55596553_b.jpg","thumbnail":"https://perenual.com/storage/species_image/2_abies_alba_pyramidalis/thumbnail/49255769768_df55596553_b.jpg"}},{"id":4186,"common_name":"alpine candytuft","scientific_name":["Iberis saxatilis"],"other_name":null,"cycle":"Perennial","watering":"Average","sunlight":["Full sun"],"default_image":{"image_id":8507,"license":4,"license_name":"Attribution License","license_url":"https://creativecommons.org/licenses/by/2.0/","original_url":"https://perenual.com/storage/species_image/4186_iberis_saxatilis/og/14477730785_faf4897711_b.jpg","regular_url":"https://perenual.com/storage/species_image/4186_iberis_saxatilis/regular/14477730785_faf4897711_b.jpg","medium_url":"https://perenual.com/storage/species_image/4186_iberis_saxatilis/medium/14477730785_faf4897711_b.jpg","small_url":"https://perenual.com/storage/species_image/4186_iberis_saxatilis/small/14477730785_faf4897711_b.jpg","thumbnail":"https://perenual.com/storage/species_image/4186_iberis_saxatilis/thumbnail/14477730785_faf4897711_b.jpg"}},{"id":4187,"common_name":"candytuft","scientific_name":["Iberis sempervirens"],"other_name":["rock candytuft","candytuft"],"cycle":"Perennial","watering":"Average","sunlight":["Full sun"],"default_image":{"image_id":8511,"license":4,"license_name":"Attribution License","license_url":"https://creativecommons.org/licenses/by/2.0/","original_url":"https://perenual.com/storage/species_image/4189_iberis_sempervirens_purity/og/52036445224_b0bc592178_b.jpg","regular_url":"https://perenual.com/storage/species_image/4189_iberis_sempervirens_purity/regular/52036445224_b0bc592178_b.jpg","medium_url":"https://perenual.com/storage/species_image/4189_iberis_sempervirens_purity/medium/52036445224_b0bc592178_b.jpg","small_url":"https://perenual.com/storage/species_image/4189_iberis_sempervirens_purity/small/52036445224_b0bc592178_b.jpg","thumbnail":"https://perenual.com/storage/species_image/4189_iberis_sempervirens_purity/thumbnail/52036445224_b0bc592178_b.jpg"}},{"id":4188,"common_name":"candytuft","scientific_name":["Iberis sempervirens 'Alexander's White'"],"other_name":null,"cycle":"Perennial","watering":"Average","sunlight":["Full sun"],"default_image":{"image_id":8519,"license":4,"license_name":"Attribution License","license_url":"https://creativecommons.org/licenses/by/2.0/","original_url":"https://perenual.com/storage/species_image/4190_iberis_sempervirens_pygmaea/og/52339174449_e438c85898_b.jpg","regular_url":"https://perenual.com/storage/species_image/4190_iberis_sempervirens_pygmaea/regular/52339174449_e438c85898_b.jpg","medium_url":"https://perenual.com/storage/species_image/4190_iberis_sempervirens_pygmaea/medium/52339174449_e438c85898_b.jpg","small_url":"https://perenual.com/storage/species_image/4190_iberis_sempervirens_pygmaea/small/52339174449_e438c85898_b.jpg","thumbnail":"https://perenual.com/storage/species_image/4190_iberis_sempervirens_pygmaea/thumbnail/52339174449_e438c85898_b.jpg"}},{"id":4189,"common_name":"candytuft","scientific_name":["Iberis sempervirens 'Purity'"],"other_name":null,"cycle":"Perennial","watering":"Average","sunlight":["Full sun"],"default_image":{"image_id":8511,"license":4,"license_name":"Attribution License","license_url":"https://creativecommons.org/licenses/by/2.0/","original_url":"https://perenual.com/storage/species_image/4189_iberis_sempervirens_purity/og/52036445224_b0bc592178_b.jpg","regular_url":"https://perenual.com/storage/species_image/4189_iberis_sempervirens_purity/regular/52036445224_b0bc592178_b.jpg","medium_url":"https://perenual.com/storage/species_image/4189_iberis_sempervirens_purity/medium/52036445224_b0bc592178_b.jpg","small_url":"https://perenual.com/storage/species_image/4189_iberis_sempervirens_purity/small/52036445224_b0bc592178_b.jpg","thumbnail":"https://perenual.com/storage/species_image/4189_iberis_sempervirens_purity/thumbnail/52036445224_b0bc592178_b.jpg"}},{"id":4190,"common_name":"candytuft","scientific_name":["Iberis sempervirens 'Pygmaea'"],"other_name":null,"cycle":"Perennial","watering":"Average","sunlight":["Full sun"],"default_image":{"image_id":22012,"license":2,"license_name":null,"license_url":null,"original_url":"https://perenual.com/storage/species_image/4190_iberis_sempervirens_pygmaea/og/51006651048_21a743f758_b.jpg","regular_url":"https://perenual.com/storage/species_image/4190_iberis_sempervirens_pygmaea/regular/51006651048_21a743f758_b.jpg","medium_url":"https://perenual.com/storage/species_image/4190_iberis_sempervirens_pygmaea/medium/51006651048_21a743f758_b.jpg","small_url":"https://perenual.com/storage/species_image/4190_iberis_sempervirens_pygmaea/small/51006651048_21a743f758_b.jpg","thumbnail":"https://perenual.com/storage/species_image/4190_iberis_sempervirens_pygmaea/thumbnail/51006651048_21a743f758_b.jpg"}},{"id":4191,"common_name":"candytuft","scientific_name":["Iberis sempervirens 'Snowflake'"],"other_name":null,"cycle":"Perennial","watering":"Average","sunlight":["Full sun"],"default_image":{"image_id":8529,"license":6,"license_name":"Attribution-NoDerivs License","license_url":"https://creativecommons.org/licenses/by-nd/2.0/","original_url":"https://perenual.com/storage/species_image/4191_iberis_sempervirens_snowflake/og/33896671868_f438df0db2_b.jpg"}},{"id":4192,"common_name":"candytuft","scientific_name":["Iberis sempervirens 'Weisser Zwerg'"],"other_name":null,"cycle":"Perennial","watering":"Average","sunlight":["Full sun"],"default_image":{"image_id":8512,"license":4,"license_name":"Attribution License","license_url":"https://creativecommons.org/licenses/by/2.0/","original_url":"https://perenual.com/storage/species_image/4189_iberis_sempervirens_purity/og/52000980882_2d20052400_b.jpg","regular_url":"https://perenual.com/storage/species_image/4189_iberis_sempervirens_purity/regular/52000980882_2d20052400_b.jpg","medium_url":"https://perenual.com/storage/species_image/4189_iberis_sempervirens_purity/medium/52000980882_2d20052400_b.jpg","small_url":"https://perenual.com/storage/species_image/4189_iberis_sempervirens_purity/small/52000980882_2d20052400_b.jpg","thumbnail":"https://perenual.com/storage/species_image/4189_iberis_sempervirens_purity/thumbnail/52000980882_2d20052400_b.jpg"}},{"id":4193,"common_name":"candytuft","scientific_name":["Iberis SNOWBALL"],"other_name":null,"cycle":"Perennial","watering":"Average","sunlight":["Full sun"],"default_image":{"image_id":8537,"license":4,"license_name":"Attribution License","license_url":"https://creativecommons.org/licenses/by/2.0/","original_url":"https://perenual.com/storage/species_image/4193_iberis_snowball/og/51073085136_d5bd9fe712_b.jpg","regular_url":"https://perenual.com/storage/species_image/4193_iberis_snowball/regular/51073085136_d5bd9fe712_b.jpg","medium_url":"https://perenual.com/storage/species_image/4193_iberis_snowball/medium/51073085136_d5bd9fe712_b.jpg","small_url":"https://perenual.com/storage/species_image/4193_iberis_snowball/small/51073085136_d5bd9fe712_b.jpg","thumbnail":"https://perenual.com/storage/species_image/4193_iberis_snowball/thumbnail/51073085136_d5bd9fe712_b.jpg"}},{"id":4194,"common_name":"English holly","scientific_name":["Ilex aquifolium"],"other_name":null,"cycle":"Perennial","watering":"Average","sunlight":["Full sun"," Part sun/part shade"],"default_image":{"image_id":8539,"license":4,"license_name":"Attribution License","license_url":"https://creativecommons.org/licenses/by/2.0/","original_url":"https://perenual.com/storage/species_image/4194_ilex_aquifolium/og/51638606141_a857e3410f_b.jpg","regular_url":"https://perenual.com/storage/species_image/4194_ilex_aquifolium/regular/51638606141_a857e3410f_b.jpg","medium_url":"https://perenual.com/storage/species_image/4194_ilex_aquifolium/medium/51638606141_a857e3410f_b.jpg","small_url":"https://perenual.com/storage/species_image/4194_ilex_aquifolium/small/51638606141_a857e3410f_b.jpg","thumbnail":"https://perenual.com/storage/species_image/4194_ilex_aquifolium/thumbnail/51638606141_a857e3410f_b.jpg"}},{"id":4195,"common_name":"English holly","scientific_name":["Ilex aquifolium 'Aurea Marginata'"],"other_name":null,"cycle":"Perennial","watering":"Average","sunlight":["Full sun"," Part sun/part shade"],"default_image":{"image_id":9,"license":5,"license_name":"Attribution-ShareAlike License","license_url":"https://creativecommons.org/licenses/by-sa/2.0/","original_url":"https://perenual.com/storage/species_image/2_abies_alba_pyramidalis/og/49255769768_df55596553_b.jpg","regular_url":"https://perenual.com/storage/species_image/2_abies_alba_pyramidalis/regular/49255769768_df55596553_b.jpg","medium_url":"https://perenual.com/storage/species_image/2_abies_alba_pyramidalis/medium/49255769768_df55596553_b.jpg","small_url":"https://perenual.com/storage/species_image/2_abies_alba_pyramidalis/small/49255769768_df55596553_b.jpg","thumbnail":"https://perenual.com/storage/species_image/2_abies_alba_pyramidalis/thumbnail/49255769768_df55596553_b.jpg"}},{"id":4196,"common_name":"holly","scientific_name":["Ilex aquipernyi 'Meschick' DRAGON LADY"],"other_name":null,"cycle":"Perennial","watering":"Average","sunlight":["Full sun","part shade"],"default_image":{"image_id":9,"license":5,"license_name":"Attribution-ShareAlike License","license_url":"https://creativecommons.org/licenses/by-sa/2.0/","original_url":"https://perenual.com/storage/species_image/2_abies_alba_pyramidalis/og/49255769768_df55596553_b.jpg","regular_url":"https://perenual.com/storage/species_image/2_abies_alba_pyramidalis/regular/49255769768_df55596553_b.jpg","medium_url":"https://perenual.com/storage/species_image/2_abies_alba_pyramidalis/medium/49255769768_df55596553_b.jpg","small_url":"https://perenual.com/storage/species_image/2_abies_alba_pyramidalis/small/49255769768_df55596553_b.jpg","thumbnail":"https://perenual.com/storage/species_image/2_abies_alba_pyramidalis/thumbnail/49255769768_df55596553_b.jpg"}},{"id":4197,"common_name":"topal holly","scientific_name":["Ilex attenuata"],"other_name":null,"cycle":"Perennial","watering":"Average","sunlight":["Full sun","part shade"],"default_image":{"image_id":9,"license":5,"license_name":"Attribution-ShareAlike License","license_url":"https://creativecommons.org/licenses/by-sa/2.0/","original_url":"https://perenual.com/storage/species_image/2_abies_alba_pyramidalis/og/49255769768_df55596553_b.jpg","regular_url":"https://perenual.com/storage/species_image/2_abies_alba_pyramidalis/regular/49255769768_df55596553_b.jpg","medium_url":"https://perenual.com/storage/species_image/2_abies_alba_pyramidalis/medium/49255769768_df55596553_b.jpg","small_url":"https://perenual.com/storage/species_image/2_abies_alba_pyramidalis/small/49255769768_df55596553_b.jpg","thumbnail":"https://perenual.com/storage/species_image/2_abies_alba_pyramidalis/thumbnail/49255769768_df55596553_b.jpg"}},{"id":4198,"common_name":"foster holly","scientific_name":["Ilex attenuata 'Fosteri'"],"other_name":null,"cycle":"Perennial","watering":"Average","sunlight":["Full sun","part shade"],"default_image":{"image_id":9,"license":5,"license_name":"Attribution-ShareAlike License","license_url":"https://creativecommons.org/licenses/by-sa/2.0/","original_url":"https://perenual.com/storage/species_image/2_abies_alba_pyramidalis/og/49255769768_df55596553_b.jpg","regular_url":"https://perenual.com/storage/species_image/2_abies_alba_pyramidalis/regular/49255769768_df55596553_b.jpg","medium_url":"https://perenual.com/storage/species_image/2_abies_alba_pyramidalis/medium/49255769768_df55596553_b.jpg","small_url":"https://perenual.com/storage/species_image/2_abies_alba_pyramidalis/small/49255769768_df55596553_b.jpg","thumbnail":"https://perenual.com/storage/species_image/2_abies_alba_pyramidalis/thumbnail/49255769768_df55596553_b.jpg"}},{"id":4199,"common_name":"topal holly","scientific_name":["Ilex attenuata 'Savannah'"],"other_name":null,"cycle":"Perennial","watering":"Average","sunlight":["Full sun","part shade"],"default_image":{"image_id":8550,"license":5,"license_name":"Attribution-ShareAlike License","license_url":"https://creativecommons.org/licenses/by-sa/2.0/","original_url":"https://perenual.com/storage/species_image/4199_ilex_attenuata_savannah/og/45204023254_45c06450bd_b.jpg","regular_url":"https://perenual.com/storage/species_image/4199_ilex_attenuata_savannah/regular/45204023254_45c06450bd_b.jpg","medium_url":"https://perenual.com/storage/species_image/4199_ilex_attenuata_savannah/medium/45204023254_45c06450bd_b.jpg","small_url":"https://perenual.com/storage/species_image/4199_ilex_attenuata_savannah/small/45204023254_45c06450bd_b.jpg","thumbnail":"https://perenual.com/storage/species_image/4199_ilex_attenuata_savannah/thumbnail/45204023254_45c06450bd_b.jpg"}},{"id":4200,"common_name":"holly","scientific_name":["Ilex 'Centennial Girl'"],"other_name":null,"cycle":"Perennial","watering":"Average","sunlight":["Full sun","part shade"],"default_image":{"image_id":8551,"license":4,"license_name":"Attribution License","license_url":"https://creativecommons.org/licenses/by/2.0/","original_url":"https://perenual.com/storage/species_image/4200_ilex_centennial_girl/og/52542480229_506bee8799_b.jpg","regular_url":"https://perenual.com/storage/species_image/4200_ilex_centennial_girl/regular/52542480229_506bee8799_b.jpg","medium_url":"https://perenual.com/storage/species_image/4200_ilex_centennial_girl/medium/52542480229_506bee8799_b.jpg","small_url":"https://perenual.com/storage/species_image/4200_ilex_centennial_girl/small/52542480229_506bee8799_b.jpg","thumbnail":"https://perenual.com/storage/species_image/4200_ilex_centennial_girl/thumbnail/52542480229_506bee8799_b.jpg"}}],"to":4200,"per_page":30,"current_page":140,"from":4171,"last_page":200,"total":6000}