{"data":[{"id":4291,"common_name":"indigofera","scientific_name":["Indigofera tinctoria"],"other_name":null,"cycle":"Perennial","watering":"Average","sunlight":["Full sun"],"default_image":{"image_id":9,"license":5,"license_name":"Attribution-ShareAlike License","license_url":"https://creativecommons.org/licenses/by-sa/2.0/","original_url":"https://perenual.com/storage/species_image/2_abies_alba_pyramidalis/og/49255769768_df55596553_b.jpg","regular_url":"https://perenual.com/storage/species_image/2_abies_alba_pyramidalis/regular/49255769768_df55596553_b.jpg","medium_url":"https://perenual.com/storage/species_image/2_abies_alba_pyramidalis/medium/49255769768_df55596553_b.jpg","small_url":"https://perenual.com/storage/species_image/2_abies_alba_pyramidalis/small/49255769768_df55596553_b.jpg","thumbnail":"https://perenual.com/storage/species_image/2_abies_alba_pyramidalis/thumbnail/49255769768_df55596553_b.jpg"}},{"id":4292,"common_name":"British yellowhead","scientific_name":["Inula britannica"],"other_name":null,"cycle":"Perennial","watering":"Frequent","sunlight":["Full sun","part shade"],"default_image":{"image_id":8774,"license":5,"license_name":"Attribution-ShareAlike License","license_url":"https://creativecommons.org/licenses/by-sa/2.0/","original_url":"https://perenual.com/storage/species_image/4292_inula_britannica/og/49477196407_8644c2e994_b.jpg","regular_url":"https://perenual.com/storage/species_image/4292_inula_britannica/regular/49477196407_8644c2e994_b.jpg","medium_url":"https://perenual.com/storage/species_image/4292_inula_britannica/medium/49477196407_8644c2e994_b.jpg","small_url":"https://perenual.com/storage/species_image/4292_inula_britannica/small/49477196407_8644c2e994_b.jpg","thumbnail":"https://perenual.com/storage/species_image/4292_inula_britannica/thumbnail/49477196407_8644c2e994_b.jpg"}},{"id":4293,"common_name":"Ploughman's spikenard","scientific_name":["Inula conyza"],"other_name":null,"cycle":"Perennial","watering":"Minimum","sunlight":["Full sun","part shade"],"default_image":{"image_id":9,"license":5,"license_name":"Attribution-ShareAlike License","license_url":"https://creativecommons.org/licenses/by-sa/2.0/","original_url":"https://perenual.com/storage/species_image/2_abies_alba_pyramidalis/og/49255769768_df55596553_b.jpg","regular_url":"https://perenual.com/storage/species_image/2_abies_alba_pyramidalis/regular/49255769768_df55596553_b.jpg","medium_url":"https://perenual.com/storage/species_image/2_abies_alba_pyramidalis/medium/49255769768_df55596553_b.jpg","small_url":"https://perenual.com/storage/species_image/2_abies_alba_pyramidalis/small/49255769768_df55596553_b.jpg","thumbnail":"https://perenual.com/storage/species_image/2_abies_alba_pyramidalis/thumbnail/49255769768_df55596553_b.jpg"}},{"id":4294,"common_name":"elecampane","scientific_name":["Inula helenium"],"other_name":null,"cycle":"Perennial","watering":"Average","sunlight":["Full sun"],"default_image":{"image_id":8785,"license":4,"license_name":"Attribution License","license_url":"https://creativecommons.org/licenses/by/2.0/","original_url":"https://perenual.com/storage/species_image/4294_inula_helenium/og/50338406737_21176d21e7_b.jpg","regular_url":"https://perenual.com/storage/species_image/4294_inula_helenium/regular/50338406737_21176d21e7_b.jpg","medium_url":"https://perenual.com/storage/species_image/4294_inula_helenium/medium/50338406737_21176d21e7_b.jpg","small_url":"https://perenual.com/storage/species_image/4294_inula_helenium/small/50338406737_21176d21e7_b.jpg","thumbnail":"https://perenual.com/storage/species_image/4294_inula_helenium/thumbnail/50338406737_21176d21e7_b.jpg"}},{"id":4295,"common_name":"inula","scientific_name":["Inula verbascifolia"],"other_name":null,"cycle":"Perennial","watering":"Average","sunlight":["Full sun","part shade"],"default_image":{"image_id":9,"license":5,"license_name":"Attribution-ShareAlike License","license_url":"https://creativecommons.org/licenses/by-sa/2.0/","original_url":"https://perenual.com/storage/species_image/2_abies_alba_pyramidalis/og/49255769768_df55596553_b.jpg","regular_url":"https://perenual.com/storage/species_image/2_abies_alba_pyramidalis/regular/49255769768_df55596553_b.jpg","medium_url":"https://perenual.com/storage/species_image/2_abies_alba_pyramidalis/medium/49255769768_df55596553_b.jpg","small_url":"https://perenual.com/storage/species_image/2_abies_alba_pyramidalis/small/49255769768_df55596553_b.jpg","thumbnail":"https://perenual.com/storage/species_image/2_abies_alba_pyramidalis/thumbnail/49255769768_df55596553_b.jpg"}},{"id":4296,"common_name":"purple rocket","scientific_name":["Iodanthus pinnatifidus"],"other_name":null,"cycle":"Perennial","watering":"Frequent","sunlight":["Part shade","full shade"],"default_image":{"image_id":8793,"license":5,"license_name":"Attribution-ShareAlike License","license_url":"https://creativecommons.org/licenses/by-sa/2.0/","original_url":"https://perenual.com/storage/species_image/4296_iodanthus_pinnatifidus/og/49949119736_f7cd60c5eb_b.jpg","regular_url":"https://perenual.com/storage/species_image/4296_iodanthus_pinnatifidus/regular/49949119736_f7cd60c5eb_b.jpg","medium_url":"https://perenual.com/storage/species_image/4296_iodanthus_pinnatifidus/medium/49949119736_f7cd60c5eb_b.jpg","small_url":"https://perenual.com/storage/species_image/4296_iodanthus_pinnatifidus/small/49949119736_f7cd60c5eb_b.jpg","thumbnail":"https://perenual.com/storage/species_image/4296_iodanthus_pinnatifidus/thumbnail/49949119736_f7cd60c5eb_b.jpg"}},{"id":4297,"common_name":"stiff aster","scientific_name":["Ionactis linariifolia"],"other_name":null,"cycle":"Perennial","watering":"Minimum","sunlight":["Full sun"],"default_image":{"image_id":8795,"license":4,"license_name":"Attribution License","license_url":"https://creativecommons.org/licenses/by/2.0/","original_url":"https://perenual.com/storage/species_image/4297_ionactis_linariifolia/og/31794309320_d77f55e2d7_b.jpg","regular_url":"https://perenual.com/storage/species_image/4297_ionactis_linariifolia/regular/31794309320_d77f55e2d7_b.jpg","medium_url":"https://perenual.com/storage/species_image/4297_ionactis_linariifolia/medium/31794309320_d77f55e2d7_b.jpg","small_url":"https://perenual.com/storage/species_image/4297_ionactis_linariifolia/small/31794309320_d77f55e2d7_b.jpg","thumbnail":"https://perenual.com/storage/species_image/4297_ionactis_linariifolia/thumbnail/31794309320_d77f55e2d7_b.jpg"}},{"id":4298,"common_name":"spring starflower","scientific_name":["Ipheion uniflorum"],"other_name":null,"cycle":"Perennial","watering":"Average","sunlight":["Full sun","part shade"],"default_image":{"image_id":8799,"license":4,"license_name":"Attribution License","license_url":"https://creativecommons.org/licenses/by/2.0/","original_url":"https://perenual.com/storage/species_image/4298_ipheion_uniflorum/og/50282362681_bab4f7d095_b.jpg","regular_url":"https://perenual.com/storage/species_image/4298_ipheion_uniflorum/regular/50282362681_bab4f7d095_b.jpg","medium_url":"https://perenual.com/storage/species_image/4298_ipheion_uniflorum/medium/50282362681_bab4f7d095_b.jpg","small_url":"https://perenual.com/storage/species_image/4298_ipheion_uniflorum/small/50282362681_bab4f7d095_b.jpg","thumbnail":"https://perenual.com/storage/species_image/4298_ipheion_uniflorum/thumbnail/50282362681_bab4f7d095_b.jpg"}},{"id":4299,"common_name":"spring starflower","scientific_name":["Ipheion uniflorum 'Charlotte Bishop'"],"other_name":null,"cycle":"Perennial","watering":"Average","sunlight":["Full sun","part shade"],"default_image":{"image_id":8807,"license":4,"license_name":"Attribution License","license_url":"https://creativecommons.org/licenses/by/2.0/","original_url":"https://perenual.com/storage/species_image/4299_ipheion_uniflorum_charlotte_bishop/og/13230390963_d9678a3fb2_b.jpg","regular_url":"https://perenual.com/storage/species_image/4299_ipheion_uniflorum_charlotte_bishop/regular/13230390963_d9678a3fb2_b.jpg","medium_url":"https://perenual.com/storage/species_image/4299_ipheion_uniflorum_charlotte_bishop/medium/13230390963_d9678a3fb2_b.jpg","small_url":"https://perenual.com/storage/species_image/4299_ipheion_uniflorum_charlotte_bishop/small/13230390963_d9678a3fb2_b.jpg","thumbnail":"https://perenual.com/storage/species_image/4299_ipheion_uniflorum_charlotte_bishop/thumbnail/13230390963_d9678a3fb2_b.jpg"}},{"id":4300,"common_name":"moonflower","scientific_name":["Ipomoea alba"],"other_name":null,"cycle":"Perennial","watering":"Average","sunlight":["Full sun"],"default_image":{"image_id":8814,"license":5,"license_name":"Attribution-ShareAlike License","license_url":"https://creativecommons.org/licenses/by-sa/2.0/","original_url":"https://perenual.com/storage/species_image/4300_ipomoea_alba/og/49108970576_b344186bf7_b.jpg","regular_url":"https://perenual.com/storage/species_image/4300_ipomoea_alba/regular/49108970576_b344186bf7_b.jpg","medium_url":"https://perenual.com/storage/species_image/4300_ipomoea_alba/medium/49108970576_b344186bf7_b.jpg","small_url":"https://perenual.com/storage/species_image/4300_ipomoea_alba/small/49108970576_b344186bf7_b.jpg","thumbnail":"https://perenual.com/storage/species_image/4300_ipomoea_alba/thumbnail/49108970576_b344186bf7_b.jpg"}},{"id":4301,"common_name":"swamp morning-glory","scientific_name":["Ipomoea aquatica"],"other_name":null,"cycle":"Perennial","watering":"Frequent","sunlight":["Full sun"],"default_image":{"image_id":8819,"license":4,"license_name":"Attribution License","license_url":"https://creativecommons.org/licenses/by/2.0/","original_url":"https://perenual.com/storage/species_image/4301_ipomoea_aquatica/og/6920947073_410ecf6354_b.jpg","regular_url":"https://perenual.com/storage/species_image/4301_ipomoea_aquatica/regular/6920947073_410ecf6354_b.jpg","medium_url":"https://perenual.com/storage/species_image/4301_ipomoea_aquatica/medium/6920947073_410ecf6354_b.jpg","small_url":"https://perenual.com/storage/species_image/4301_ipomoea_aquatica/small/6920947073_410ecf6354_b.jpg","thumbnail":"https://perenual.com/storage/species_image/4301_ipomoea_aquatica/thumbnail/6920947073_410ecf6354_b.jpg"}},{"id":4302,"common_name":"sweet potato","scientific_name":["Ipomoea batatas"],"other_name":null,"cycle":"Perennial","watering":"Average","sunlight":["Full sun"],"default_image":{"image_id":8822,"license":4,"license_name":"Attribution License","license_url":"https://creativecommons.org/licenses/by/2.0/","original_url":"https://perenual.com/storage/species_image/4302_ipomoea_batatas/og/52457532874_163690b241_b.jpg","regular_url":"https://perenual.com/storage/species_image/4302_ipomoea_batatas/regular/52457532874_163690b241_b.jpg","medium_url":"https://perenual.com/storage/species_image/4302_ipomoea_batatas/medium/52457532874_163690b241_b.jpg","small_url":"https://perenual.com/storage/species_image/4302_ipomoea_batatas/small/52457532874_163690b241_b.jpg","thumbnail":"https://perenual.com/storage/species_image/4302_ipomoea_batatas/thumbnail/52457532874_163690b241_b.jpg"}},{"id":4303,"common_name":"sweet potato vine","scientific_name":["Ipomoea batatas 'NCORNSP-021SHJB' SWEET CAROLINE SWEETHEART JET BLACK"],"other_name":null,"cycle":"Perennial","watering":"Average","sunlight":["Full sun","part shade"],"default_image":{"image_id":9,"license":5,"license_name":"Attribution-ShareAlike License","license_url":"https://creativecommons.org/licenses/by-sa/2.0/","original_url":"https://perenual.com/storage/species_image/2_abies_alba_pyramidalis/og/49255769768_df55596553_b.jpg","regular_url":"https://perenual.com/storage/species_image/2_abies_alba_pyramidalis/regular/49255769768_df55596553_b.jpg","medium_url":"https://perenual.com/storage/species_image/2_abies_alba_pyramidalis/medium/49255769768_df55596553_b.jpg","small_url":"https://perenual.com/storage/species_image/2_abies_alba_pyramidalis/small/49255769768_df55596553_b.jpg","thumbnail":"https://perenual.com/storage/species_image/2_abies_alba_pyramidalis/thumbnail/49255769768_df55596553_b.jpg"}},{"id":4304,"common_name":"sweet potato vine","scientific_name":["Ipomoea batatas SWEET CAROLINE BEWITCHED GREEN WITH ENVY"],"other_name":null,"cycle":"Perennial","watering":"Average","sunlight":["Full sun","part shade"],"default_image":{"image_id":9,"license":5,"license_name":"Attribution-ShareAlike License","license_url":"https://creativecommons.org/licenses/by-sa/2.0/","original_url":"https://perenual.com/storage/species_image/2_abies_alba_pyramidalis/og/49255769768_df55596553_b.jpg","regular_url":"https://perenual.com/storage/species_image/2_abies_alba_pyramidalis/regular/49255769768_df55596553_b.jpg","medium_url":"https://perenual.com/storage/species_image/2_abies_alba_pyramidalis/medium/49255769768_df55596553_b.jpg","small_url":"https://perenual.com/storage/species_image/2_abies_alba_pyramidalis/small/49255769768_df55596553_b.jpg","thumbnail":"https://perenual.com/storage/species_image/2_abies_alba_pyramidalis/thumbnail/49255769768_df55596553_b.jpg"}},{"id":4305,"common_name":"sweet potato vine","scientific_name":["Ipomoea batatas 'Sweet Caroline Sweetheart Lime'"],"other_name":null,"cycle":"Perennial","watering":"Average","sunlight":["Full sun","part shade"],"default_image":{"image_id":9,"license":5,"license_name":"Attribution-ShareAlike License","license_url":"https://creativecommons.org/licenses/by-sa/2.0/","original_url":"https://perenual.com/storage/species_image/2_abies_alba_pyramidalis/og/49255769768_df55596553_b.jpg","regular_url":"https://perenual.com/storage/species_image/2_abies_alba_pyramidalis/regular/49255769768_df55596553_b.jpg","medium_url":"https://perenual.com/storage/species_image/2_abies_alba_pyramidalis/medium/49255769768_df55596553_b.jpg","small_url":"https://perenual.com/storage/species_image/2_abies_alba_pyramidalis/small/49255769768_df55596553_b.jpg","thumbnail":"https://perenual.com/storage/species_image/2_abies_alba_pyramidalis/thumbnail/49255769768_df55596553_b.jpg"}},{"id":4306,"common_name":"Spanish flag","scientific_name":["Ipomoea lobata"],"other_name":null,"cycle":"Perennial","watering":"Average","sunlight":["Full sun"],"default_image":{"image_id":8834,"license":4,"license_name":"Attribution License","license_url":"https://creativecommons.org/licenses/by/2.0/","original_url":"https://perenual.com/storage/species_image/4306_ipomoea_lobata/og/51507604220_395b139e9c_b.jpg","regular_url":"https://perenual.com/storage/species_image/4306_ipomoea_lobata/regular/51507604220_395b139e9c_b.jpg","medium_url":"https://perenual.com/storage/species_image/4306_ipomoea_lobata/medium/51507604220_395b139e9c_b.jpg","small_url":"https://perenual.com/storage/species_image/4306_ipomoea_lobata/small/51507604220_395b139e9c_b.jpg","thumbnail":"https://perenual.com/storage/species_image/4306_ipomoea_lobata/thumbnail/51507604220_395b139e9c_b.jpg"}},{"id":4307,"common_name":"morning glory","scientific_name":["Ipomoea mauritiana"],"other_name":null,"cycle":"Perennial","watering":"Average","sunlight":["Full sun"],"default_image":{"image_id":8843,"license":5,"license_name":"Attribution-ShareAlike License","license_url":"https://creativecommons.org/licenses/by-sa/2.0/","original_url":"https://perenual.com/storage/species_image/4307_ipomoea_mauritiana/og/51345753890_0cedb4167d_b.jpg","regular_url":"https://perenual.com/storage/species_image/4307_ipomoea_mauritiana/regular/51345753890_0cedb4167d_b.jpg","medium_url":"https://perenual.com/storage/species_image/4307_ipomoea_mauritiana/medium/51345753890_0cedb4167d_b.jpg","small_url":"https://perenual.com/storage/species_image/4307_ipomoea_mauritiana/small/51345753890_0cedb4167d_b.jpg","thumbnail":"https://perenual.com/storage/species_image/4307_ipomoea_mauritiana/thumbnail/51345753890_0cedb4167d_b.jpg"}},{"id":4308,"common_name":"cardinal climber","scientific_name":["Ipomoea multifida"],"other_name":null,"cycle":"Perennial","watering":"Average","sunlight":["Full sun"],"default_image":{"image_id":9,"license":5,"license_name":"Attribution-ShareAlike License","license_url":"https://creativecommons.org/licenses/by-sa/2.0/","original_url":"https://perenual.com/storage/species_image/2_abies_alba_pyramidalis/og/49255769768_df55596553_b.jpg","regular_url":"https://perenual.com/storage/species_image/2_abies_alba_pyramidalis/regular/49255769768_df55596553_b.jpg","medium_url":"https://perenual.com/storage/species_image/2_abies_alba_pyramidalis/medium/49255769768_df55596553_b.jpg","small_url":"https://perenual.com/storage/species_image/2_abies_alba_pyramidalis/small/49255769768_df55596553_b.jpg","thumbnail":"https://perenual.com/storage/species_image/2_abies_alba_pyramidalis/thumbnail/49255769768_df55596553_b.jpg"}},{"id":4309,"common_name":"wild potato vine","scientific_name":["Ipomoea pandurata"],"other_name":null,"cycle":"Perennial","watering":"Average","sunlight":["Full sun","part shade"],"default_image":{"image_id":8859,"license":4,"license_name":"Attribution License","license_url":"https://creativecommons.org/licenses/by/2.0/","original_url":"https://perenual.com/storage/species_image/4309_ipomoea_pandurata/og/29654365026_c7f08d3086_b.jpg","regular_url":"https://perenual.com/storage/species_image/4309_ipomoea_pandurata/regular/29654365026_c7f08d3086_b.jpg","medium_url":"https://perenual.com/storage/species_image/4309_ipomoea_pandurata/medium/29654365026_c7f08d3086_b.jpg","small_url":"https://perenual.com/storage/species_image/4309_ipomoea_pandurata/small/29654365026_c7f08d3086_b.jpg","thumbnail":"https://perenual.com/storage/species_image/4309_ipomoea_pandurata/thumbnail/29654365026_c7f08d3086_b.jpg"}},{"id":4310,"common_name":"morning glory","scientific_name":["Ipomoea purpurea"],"other_name":null,"cycle":"Perennial","watering":"Average","sunlight":["Full sun"],"default_image":{"image_id":8864,"license":4,"license_name":"Attribution License","license_url":"https://creativecommons.org/licenses/by/2.0/","original_url":"https://perenual.com/storage/species_image/4310_ipomoea_purpurea/og/50615235702_32612e3d60_b.jpg","regular_url":"https://perenual.com/storage/species_image/4310_ipomoea_purpurea/regular/50615235702_32612e3d60_b.jpg","medium_url":"https://perenual.com/storage/species_image/4310_ipomoea_purpurea/medium/50615235702_32612e3d60_b.jpg","small_url":"https://perenual.com/storage/species_image/4310_ipomoea_purpurea/small/50615235702_32612e3d60_b.jpg","thumbnail":"https://perenual.com/storage/species_image/4310_ipomoea_purpurea/thumbnail/50615235702_32612e3d60_b.jpg"}},{"id":4311,"common_name":"cypress vine","scientific_name":["Ipomoea quamoclit"],"other_name":null,"cycle":"Perennial","watering":"Average","sunlight":["Full sun"],"default_image":{"image_id":9,"license":5,"license_name":"Attribution-ShareAlike License","license_url":"https://creativecommons.org/licenses/by-sa/2.0/","original_url":"https://perenual.com/storage/species_image/2_abies_alba_pyramidalis/og/49255769768_df55596553_b.jpg","regular_url":"https://perenual.com/storage/species_image/2_abies_alba_pyramidalis/regular/49255769768_df55596553_b.jpg","medium_url":"https://perenual.com/storage/species_image/2_abies_alba_pyramidalis/medium/49255769768_df55596553_b.jpg","small_url":"https://perenual.com/storage/species_image/2_abies_alba_pyramidalis/small/49255769768_df55596553_b.jpg","thumbnail":"https://perenual.com/storage/species_image/2_abies_alba_pyramidalis/thumbnail/49255769768_df55596553_b.jpg"}},{"id":4312,"common_name":"cardinal climber","scientific_name":["Ipomoea sloteri"],"other_name":null,"cycle":"Perennial","watering":"Average","sunlight":["Full sun"],"default_image":{"image_id":8875,"license":4,"license_name":"Attribution License","license_url":"https://creativecommons.org/licenses/by/2.0/","original_url":"https://perenual.com/storage/species_image/4312_ipomoea_sloteri/og/41844081291_163569cea5_b.jpg","regular_url":"https://perenual.com/storage/species_image/4312_ipomoea_sloteri/regular/41844081291_163569cea5_b.jpg","medium_url":"https://perenual.com/storage/species_image/4312_ipomoea_sloteri/medium/41844081291_163569cea5_b.jpg","small_url":"https://perenual.com/storage/species_image/4312_ipomoea_sloteri/small/41844081291_163569cea5_b.jpg","thumbnail":"https://perenual.com/storage/species_image/4312_ipomoea_sloteri/thumbnail/41844081291_163569cea5_b.jpg"}},{"id":4313,"common_name":"standing cypress","scientific_name":["Ipomopsis rubra"],"other_name":null,"cycle":"Perennial","watering":"Minimum","sunlight":["Full sun"],"default_image":{"image_id":8885,"license":6,"license_name":"Attribution-NoDerivs License","license_url":"https://creativecommons.org/licenses/by-nd/2.0/","original_url":"https://perenual.com/storage/species_image/4313_ipomopsis_rubra/og/43843164360_0f14a965bf_b.jpg"}},{"id":4314,"common_name":"Herbst's bloodleaf","scientific_name":["Iresine herbstii"],"other_name":null,"cycle":"Perennial","watering":"Average","sunlight":["Full sun"," Part sun/part shade"],"default_image":{"image_id":8887,"license":6,"license_name":"Attribution-NoDerivs License","license_url":"https://creativecommons.org/licenses/by-nd/2.0/","original_url":"https://perenual.com/storage/species_image/4314_iresine_herbstii/og/47954818291_27e3280dc2_b.jpg"}},{"id":4315,"common_name":"bloodleaf","scientific_name":["Iresine rhizomatosa"],"other_name":null,"cycle":"Perennial","watering":"Frequent","sunlight":["Part shade","full shade"],"default_image":{"image_id":9,"license":5,"license_name":"Attribution-ShareAlike License","license_url":"https://creativecommons.org/licenses/by-sa/2.0/","original_url":"https://perenual.com/storage/species_image/2_abies_alba_pyramidalis/og/49255769768_df55596553_b.jpg","regular_url":"https://perenual.com/storage/species_image/2_abies_alba_pyramidalis/regular/49255769768_df55596553_b.jpg","medium_url":"https://perenual.com/storage/species_image/2_abies_alba_pyramidalis/medium/49255769768_df55596553_b.jpg","small_url":"https://perenual.com/storage/species_image/2_abies_alba_pyramidalis/small/49255769768_df55596553_b.jpg","thumbnail":"https://perenual.com/storage/species_image/2_abies_alba_pyramidalis/thumbnail/49255769768_df55596553_b.jpg"}},{"id":4316,"common_name":"spuria iris","scientific_name":["Iris 'Adriatic Blue'"],"other_name":null,"cycle":"Perennial","watering":"Average","sunlight":["Full sun"],"default_image":{"image_id":8893,"license":4,"license_name":"Attribution License","license_url":"https://creativecommons.org/licenses/by/2.0/","original_url":"https://perenual.com/storage/species_image/4316_iris_adriatic_blue/og/51021049901_a495fec48d_b.jpg","regular_url":"https://perenual.com/storage/species_image/4316_iris_adriatic_blue/regular/51021049901_a495fec48d_b.jpg","medium_url":"https://perenual.com/storage/species_image/4316_iris_adriatic_blue/medium/51021049901_a495fec48d_b.jpg","small_url":"https://perenual.com/storage/species_image/4316_iris_adriatic_blue/small/51021049901_a495fec48d_b.jpg","thumbnail":"https://perenual.com/storage/species_image/4316_iris_adriatic_blue/thumbnail/51021049901_a495fec48d_b.jpg"}},{"id":4317,"common_name":"tall bearded iris","scientific_name":["Iris 'America's Cup'"],"other_name":null,"cycle":"Perennial","watering":"Average","sunlight":["Full sun"],"default_image":{"image_id":8900,"license":5,"license_name":"Attribution-ShareAlike License","license_url":"https://creativecommons.org/licenses/by-sa/2.0/","original_url":"https://perenual.com/storage/species_image/4317_iris_americas_cup/og/47952408168_514c32c663_b.jpg","regular_url":"https://perenual.com/storage/species_image/4317_iris_americas_cup/regular/47952408168_514c32c663_b.jpg","medium_url":"https://perenual.com/storage/species_image/4317_iris_americas_cup/medium/47952408168_514c32c663_b.jpg","small_url":"https://perenual.com/storage/species_image/4317_iris_americas_cup/small/47952408168_514c32c663_b.jpg","thumbnail":"https://perenual.com/storage/species_image/4317_iris_americas_cup/thumbnail/47952408168_514c32c663_b.jpg"}},{"id":4318,"common_name":"iris","scientific_name":["Iris aucheri x bucharica"],"other_name":null,"cycle":"Perennial","watering":"Average","sunlight":["Full sun","part shade"],"default_image":{"image_id":9,"license":5,"license_name":"Attribution-ShareAlike License","license_url":"https://creativecommons.org/licenses/by-sa/2.0/","original_url":"https://perenual.com/storage/species_image/2_abies_alba_pyramidalis/og/49255769768_df55596553_b.jpg","regular_url":"https://perenual.com/storage/species_image/2_abies_alba_pyramidalis/regular/49255769768_df55596553_b.jpg","medium_url":"https://perenual.com/storage/species_image/2_abies_alba_pyramidalis/medium/49255769768_df55596553_b.jpg","small_url":"https://perenual.com/storage/species_image/2_abies_alba_pyramidalis/small/49255769768_df55596553_b.jpg","thumbnail":"https://perenual.com/storage/species_image/2_abies_alba_pyramidalis/thumbnail/49255769768_df55596553_b.jpg"}},{"id":4319,"common_name":"tall bearded reblooming iris","scientific_name":["Iris 'Autumn Tryst'"],"other_name":null,"cycle":"Perennial","watering":"Average","sunlight":["Full sun"],"default_image":{"image_id":9,"license":5,"license_name":"Attribution-ShareAlike License","license_url":"https://creativecommons.org/licenses/by-sa/2.0/","original_url":"https://perenual.com/storage/species_image/2_abies_alba_pyramidalis/og/49255769768_df55596553_b.jpg","regular_url":"https://perenual.com/storage/species_image/2_abies_alba_pyramidalis/regular/49255769768_df55596553_b.jpg","medium_url":"https://perenual.com/storage/species_image/2_abies_alba_pyramidalis/medium/49255769768_df55596553_b.jpg","small_url":"https://perenual.com/storage/species_image/2_abies_alba_pyramidalis/small/49255769768_df55596553_b.jpg","thumbnail":"https://perenual.com/storage/species_image/2_abies_alba_pyramidalis/thumbnail/49255769768_df55596553_b.jpg"}},{"id":4320,"common_name":"intermediate iris","scientific_name":["Iris 'Az Ap'"],"other_name":null,"cycle":"Perennial","watering":"Average","sunlight":["Full sun"],"default_image":{"image_id":9,"license":5,"license_name":"Attribution-ShareAlike License","license_url":"https://creativecommons.org/licenses/by-sa/2.0/","original_url":"https://perenual.com/storage/species_image/2_abies_alba_pyramidalis/og/49255769768_df55596553_b.jpg","regular_url":"https://perenual.com/storage/species_image/2_abies_alba_pyramidalis/regular/49255769768_df55596553_b.jpg","medium_url":"https://perenual.com/storage/species_image/2_abies_alba_pyramidalis/medium/49255769768_df55596553_b.jpg","small_url":"https://perenual.com/storage/species_image/2_abies_alba_pyramidalis/small/49255769768_df55596553_b.jpg","thumbnail":"https://perenual.com/storage/species_image/2_abies_alba_pyramidalis/thumbnail/49255769768_df55596553_b.jpg"}}],"to":4320,"per_page":30,"current_page":144,"from":4291,"last_page":200,"total":6000}