{"data":[{"id":2221,"common_name":"montbretia","scientific_name":["Crocosmia 'Emberglow'"],"other_name":null,"cycle":"Perennial","watering":"Average","sunlight":["Full sun","part shade"],"default_image":{"image_id":9,"license":5,"license_name":"Attribution-ShareAlike License","license_url":"https://creativecommons.org/licenses/by-sa/2.0/","original_url":"https://perenual.com/storage/species_image/2_abies_alba_pyramidalis/og/49255769768_df55596553_b.jpg","regular_url":"https://perenual.com/storage/species_image/2_abies_alba_pyramidalis/regular/49255769768_df55596553_b.jpg","medium_url":"https://perenual.com/storage/species_image/2_abies_alba_pyramidalis/medium/49255769768_df55596553_b.jpg","small_url":"https://perenual.com/storage/species_image/2_abies_alba_pyramidalis/small/49255769768_df55596553_b.jpg","thumbnail":"https://perenual.com/storage/species_image/2_abies_alba_pyramidalis/thumbnail/49255769768_df55596553_b.jpg"}},{"id":2222,"common_name":"montbretia","scientific_name":["Crocosmia 'Emily McKenzie'"],"other_name":null,"cycle":"Perennial","watering":"Average","sunlight":["Full sun","part shade"],"default_image":{"image_id":9,"license":5,"license_name":"Attribution-ShareAlike License","license_url":"https://creativecommons.org/licenses/by-sa/2.0/","original_url":"https://perenual.com/storage/species_image/2_abies_alba_pyramidalis/og/49255769768_df55596553_b.jpg","regular_url":"https://perenual.com/storage/species_image/2_abies_alba_pyramidalis/regular/49255769768_df55596553_b.jpg","medium_url":"https://perenual.com/storage/species_image/2_abies_alba_pyramidalis/medium/49255769768_df55596553_b.jpg","small_url":"https://perenual.com/storage/species_image/2_abies_alba_pyramidalis/small/49255769768_df55596553_b.jpg","thumbnail":"https://perenual.com/storage/species_image/2_abies_alba_pyramidalis/thumbnail/49255769768_df55596553_b.jpg"}},{"id":2223,"common_name":"montbretia","scientific_name":["Crocosmia 'Gold Rush'"],"other_name":null,"cycle":"Perennial","watering":"Average","sunlight":["Full sun","part shade"],"default_image":{"image_id":5234,"license":4,"license_name":"Attribution License","license_url":"https://creativecommons.org/licenses/by/2.0/","original_url":"https://perenual.com/storage/species_image/2223_crocosmia_gold_rush/og/52202336109_caef4247a3_b.jpg","regular_url":"https://perenual.com/storage/species_image/2223_crocosmia_gold_rush/regular/52202336109_caef4247a3_b.jpg","medium_url":"https://perenual.com/storage/species_image/2223_crocosmia_gold_rush/medium/52202336109_caef4247a3_b.jpg","small_url":"https://perenual.com/storage/species_image/2223_crocosmia_gold_rush/small/52202336109_caef4247a3_b.jpg","thumbnail":"https://perenual.com/storage/species_image/2223_crocosmia_gold_rush/thumbnail/52202336109_caef4247a3_b.jpg"}},{"id":2224,"common_name":"montbretia","scientific_name":["Crocosmia 'Lucifer'"],"other_name":null,"cycle":"Perennial","watering":"Average","sunlight":["Full sun","part shade"],"default_image":{"image_id":9,"license":5,"license_name":"Attribution-ShareAlike License","license_url":"https://creativecommons.org/licenses/by-sa/2.0/","original_url":"https://perenual.com/storage/species_image/2_abies_alba_pyramidalis/og/49255769768_df55596553_b.jpg","regular_url":"https://perenual.com/storage/species_image/2_abies_alba_pyramidalis/regular/49255769768_df55596553_b.jpg","medium_url":"https://perenual.com/storage/species_image/2_abies_alba_pyramidalis/medium/49255769768_df55596553_b.jpg","small_url":"https://perenual.com/storage/species_image/2_abies_alba_pyramidalis/small/49255769768_df55596553_b.jpg","thumbnail":"https://perenual.com/storage/species_image/2_abies_alba_pyramidalis/thumbnail/49255769768_df55596553_b.jpg"}},{"id":2225,"common_name":"montbretia","scientific_name":["Crocosmia pottsii"],"other_name":null,"cycle":"Perennial","watering":"Average","sunlight":["Full sun","part shade"],"default_image":{"image_id":5247,"license":5,"license_name":"Attribution-ShareAlike License","license_url":"https://creativecommons.org/licenses/by-sa/2.0/","original_url":"https://perenual.com/storage/species_image/2225_crocosmia_pottsii/og/20107886040_2a73fa867b_b.jpg","regular_url":"https://perenual.com/storage/species_image/2225_crocosmia_pottsii/regular/20107886040_2a73fa867b_b.jpg","medium_url":"https://perenual.com/storage/species_image/2225_crocosmia_pottsii/medium/20107886040_2a73fa867b_b.jpg","small_url":"https://perenual.com/storage/species_image/2225_crocosmia_pottsii/small/20107886040_2a73fa867b_b.jpg","thumbnail":"https://perenual.com/storage/species_image/2225_crocosmia_pottsii/thumbnail/20107886040_2a73fa867b_b.jpg"}},{"id":2226,"common_name":"snow crocus","scientific_name":["Crocus chrysanthus"],"other_name":["golden crocus"],"cycle":"Perennial","watering":"Average","sunlight":["Full sun","part shade"],"default_image":{"image_id":5250,"license":5,"license_name":"Attribution-ShareAlike License","license_url":"https://creativecommons.org/licenses/by-sa/2.0/","original_url":"https://perenual.com/storage/species_image/2226_crocus_chrysanthus/og/47732860481_0510d228cc_b.jpg","regular_url":"https://perenual.com/storage/species_image/2226_crocus_chrysanthus/regular/47732860481_0510d228cc_b.jpg","medium_url":"https://perenual.com/storage/species_image/2226_crocus_chrysanthus/medium/47732860481_0510d228cc_b.jpg","small_url":"https://perenual.com/storage/species_image/2226_crocus_chrysanthus/small/47732860481_0510d228cc_b.jpg","thumbnail":"https://perenual.com/storage/species_image/2226_crocus_chrysanthus/thumbnail/47732860481_0510d228cc_b.jpg"}},{"id":2227,"common_name":"snow crocus","scientific_name":["Crocus chrysanthus 'Advance'"],"other_name":null,"cycle":"Perennial","watering":"Average","sunlight":["Full sun","part shade"],"default_image":{"image_id":9,"license":5,"license_name":"Attribution-ShareAlike License","license_url":"https://creativecommons.org/licenses/by-sa/2.0/","original_url":"https://perenual.com/storage/species_image/2_abies_alba_pyramidalis/og/49255769768_df55596553_b.jpg","regular_url":"https://perenual.com/storage/species_image/2_abies_alba_pyramidalis/regular/49255769768_df55596553_b.jpg","medium_url":"https://perenual.com/storage/species_image/2_abies_alba_pyramidalis/medium/49255769768_df55596553_b.jpg","small_url":"https://perenual.com/storage/species_image/2_abies_alba_pyramidalis/small/49255769768_df55596553_b.jpg","thumbnail":"https://perenual.com/storage/species_image/2_abies_alba_pyramidalis/thumbnail/49255769768_df55596553_b.jpg"}},{"id":2228,"common_name":"snow crocus","scientific_name":["Crocus chrysanthus 'Goldilocks'"],"other_name":null,"cycle":"Perennial","watering":"Average","sunlight":["Full sun","part shade"],"default_image":{"image_id":5253,"license":4,"license_name":"Attribution License","license_url":"https://creativecommons.org/licenses/by/2.0/","original_url":"https://perenual.com/storage/species_image/2228_crocus_chrysanthus_goldilocks/og/46959141442_67c07a1bf6_b.jpg","regular_url":"https://perenual.com/storage/species_image/2228_crocus_chrysanthus_goldilocks/regular/46959141442_67c07a1bf6_b.jpg","medium_url":"https://perenual.com/storage/species_image/2228_crocus_chrysanthus_goldilocks/medium/46959141442_67c07a1bf6_b.jpg","small_url":"https://perenual.com/storage/species_image/2228_crocus_chrysanthus_goldilocks/small/46959141442_67c07a1bf6_b.jpg","thumbnail":"https://perenual.com/storage/species_image/2228_crocus_chrysanthus_goldilocks/thumbnail/46959141442_67c07a1bf6_b.jpg"}},{"id":2229,"common_name":"snow crocus","scientific_name":["Crocus chrysanthus 'Snowbunting'"],"other_name":null,"cycle":"Perennial","watering":"Average","sunlight":["Full sun","part shade"],"default_image":{"image_id":9,"license":5,"license_name":"Attribution-ShareAlike License","license_url":"https://creativecommons.org/licenses/by-sa/2.0/","original_url":"https://perenual.com/storage/species_image/2_abies_alba_pyramidalis/og/49255769768_df55596553_b.jpg","regular_url":"https://perenual.com/storage/species_image/2_abies_alba_pyramidalis/regular/49255769768_df55596553_b.jpg","medium_url":"https://perenual.com/storage/species_image/2_abies_alba_pyramidalis/medium/49255769768_df55596553_b.jpg","small_url":"https://perenual.com/storage/species_image/2_abies_alba_pyramidalis/small/49255769768_df55596553_b.jpg","thumbnail":"https://perenual.com/storage/species_image/2_abies_alba_pyramidalis/thumbnail/49255769768_df55596553_b.jpg"}},{"id":2230,"common_name":"crocus","scientific_name":["Crocus luteus 'Golden Yellow'"],"other_name":null,"cycle":"Perennial","watering":"Average","sunlight":["Full sun","part shade"],"default_image":{"image_id":5257,"license":451,"license_name":"CC0 1.0 Universal (CC0 1.0) Public Domain Dedication","license_url":"https://creativecommons.org/publicdomain/zero/1.0/","original_url":"https://perenual.com/storage/species_image/2230_crocus_luteus_golden_yellow/og/g8690c2c488681d10f416979f8e5eebd8ec9d7b2d58797129816c9090fea3f9a9b92ca413dd5c5935f4bf9b6e2340600f8ac63d73b30856325a5eec501c08be16_1280.jpg","regular_url":"https://perenual.com/storage/species_image/2230_crocus_luteus_golden_yellow/regular/g8690c2c488681d10f416979f8e5eebd8ec9d7b2d58797129816c9090fea3f9a9b92ca413dd5c5935f4bf9b6e2340600f8ac63d73b30856325a5eec501c08be16_1280.jpg","medium_url":"https://perenual.com/storage/species_image/2230_crocus_luteus_golden_yellow/medium/g8690c2c488681d10f416979f8e5eebd8ec9d7b2d58797129816c9090fea3f9a9b92ca413dd5c5935f4bf9b6e2340600f8ac63d73b30856325a5eec501c08be16_1280.jpg","small_url":"https://perenual.com/storage/species_image/2230_crocus_luteus_golden_yellow/small/g8690c2c488681d10f416979f8e5eebd8ec9d7b2d58797129816c9090fea3f9a9b92ca413dd5c5935f4bf9b6e2340600f8ac63d73b30856325a5eec501c08be16_1280.jpg","thumbnail":"https://perenual.com/storage/species_image/2230_crocus_luteus_golden_yellow/thumbnail/g8690c2c488681d10f416979f8e5eebd8ec9d7b2d58797129816c9090fea3f9a9b92ca413dd5c5935f4bf9b6e2340600f8ac63d73b30856325a5eec501c08be16_1280.jpg"}},{"id":2231,"common_name":"saffron crocus","scientific_name":["Crocus sativus"],"other_name":null,"cycle":"Perennial","watering":"Average","sunlight":["Full sun","part shade"],"default_image":{"image_id":5259,"license":4,"license_name":"Attribution License","license_url":"https://creativecommons.org/licenses/by/2.0/","original_url":"https://perenual.com/storage/species_image/2231_crocus_sativus/og/51885162396_fb3902be73_b.jpg","regular_url":"https://perenual.com/storage/species_image/2231_crocus_sativus/regular/51885162396_fb3902be73_b.jpg","medium_url":"https://perenual.com/storage/species_image/2231_crocus_sativus/medium/51885162396_fb3902be73_b.jpg","small_url":"https://perenual.com/storage/species_image/2231_crocus_sativus/small/51885162396_fb3902be73_b.jpg","thumbnail":"https://perenual.com/storage/species_image/2231_crocus_sativus/thumbnail/51885162396_fb3902be73_b.jpg"}},{"id":2232,"common_name":"Sieber's crocus","scientific_name":["Crocus sieberi subsp. atticus 'Firefly'"],"other_name":null,"cycle":"","watering":"Average","sunlight":["Full sun","part shade"],"default_image":{"image_id":9,"license":5,"license_name":"Attribution-ShareAlike License","license_url":"https://creativecommons.org/licenses/by-sa/2.0/","original_url":"https://perenual.com/storage/species_image/2_abies_alba_pyramidalis/og/49255769768_df55596553_b.jpg","regular_url":"https://perenual.com/storage/species_image/2_abies_alba_pyramidalis/regular/49255769768_df55596553_b.jpg","medium_url":"https://perenual.com/storage/species_image/2_abies_alba_pyramidalis/medium/49255769768_df55596553_b.jpg","small_url":"https://perenual.com/storage/species_image/2_abies_alba_pyramidalis/small/49255769768_df55596553_b.jpg","thumbnail":"https://perenual.com/storage/species_image/2_abies_alba_pyramidalis/thumbnail/49255769768_df55596553_b.jpg"}},{"id":2233,"common_name":"snow crocus","scientific_name":["Crocus tommasinianus"],"other_name":null,"cycle":"Perennial","watering":"Average","sunlight":["Full sun","part shade"],"default_image":{"image_id":5265,"license":5,"license_name":"Attribution-ShareAlike License","license_url":"https://creativecommons.org/licenses/by-sa/2.0/","original_url":"https://perenual.com/storage/species_image/2233_crocus_tommasinianus/og/32981807440_651d31256c_b.jpg","regular_url":"https://perenual.com/storage/species_image/2233_crocus_tommasinianus/regular/32981807440_651d31256c_b.jpg","medium_url":"https://perenual.com/storage/species_image/2233_crocus_tommasinianus/medium/32981807440_651d31256c_b.jpg","small_url":"https://perenual.com/storage/species_image/2233_crocus_tommasinianus/small/32981807440_651d31256c_b.jpg","thumbnail":"https://perenual.com/storage/species_image/2233_crocus_tommasinianus/thumbnail/32981807440_651d31256c_b.jpg"}},{"id":2234,"common_name":"snow crocus","scientific_name":["Crocus tommasinianus 'Ruby Giant'"],"other_name":null,"cycle":"Perennial","watering":"Average","sunlight":["Full sun","part shade"],"default_image":{"image_id":9,"license":5,"license_name":"Attribution-ShareAlike License","license_url":"https://creativecommons.org/licenses/by-sa/2.0/","original_url":"https://perenual.com/storage/species_image/2_abies_alba_pyramidalis/og/49255769768_df55596553_b.jpg","regular_url":"https://perenual.com/storage/species_image/2_abies_alba_pyramidalis/regular/49255769768_df55596553_b.jpg","medium_url":"https://perenual.com/storage/species_image/2_abies_alba_pyramidalis/medium/49255769768_df55596553_b.jpg","small_url":"https://perenual.com/storage/species_image/2_abies_alba_pyramidalis/small/49255769768_df55596553_b.jpg","thumbnail":"https://perenual.com/storage/species_image/2_abies_alba_pyramidalis/thumbnail/49255769768_df55596553_b.jpg"}},{"id":2235,"common_name":"Dutch crocus","scientific_name":["Crocus vernus"],"other_name":null,"cycle":"Perennial","watering":"Average","sunlight":["Full sun","part shade"],"default_image":{"image_id":5268,"license":4,"license_name":"Attribution License","license_url":"https://creativecommons.org/licenses/by/2.0/","original_url":"https://perenual.com/storage/species_image/2235_crocus_vernus/og/40400641675_1e41ce8b06_b.jpg","regular_url":"https://perenual.com/storage/species_image/2235_crocus_vernus/regular/40400641675_1e41ce8b06_b.jpg","medium_url":"https://perenual.com/storage/species_image/2235_crocus_vernus/medium/40400641675_1e41ce8b06_b.jpg","small_url":"https://perenual.com/storage/species_image/2235_crocus_vernus/small/40400641675_1e41ce8b06_b.jpg","thumbnail":"https://perenual.com/storage/species_image/2235_crocus_vernus/thumbnail/40400641675_1e41ce8b06_b.jpg"}},{"id":2236,"common_name":"Spring crocus","scientific_name":["Crocus vernus 'Flower Record'"],"other_name":null,"cycle":"Perennial","watering":"Average","sunlight":["Full sun","part shade"],"default_image":{"image_id":9,"license":5,"license_name":"Attribution-ShareAlike License","license_url":"https://creativecommons.org/licenses/by-sa/2.0/","original_url":"https://perenual.com/storage/species_image/2_abies_alba_pyramidalis/og/49255769768_df55596553_b.jpg","regular_url":"https://perenual.com/storage/species_image/2_abies_alba_pyramidalis/regular/49255769768_df55596553_b.jpg","medium_url":"https://perenual.com/storage/species_image/2_abies_alba_pyramidalis/medium/49255769768_df55596553_b.jpg","small_url":"https://perenual.com/storage/species_image/2_abies_alba_pyramidalis/small/49255769768_df55596553_b.jpg","thumbnail":"https://perenual.com/storage/species_image/2_abies_alba_pyramidalis/thumbnail/49255769768_df55596553_b.jpg"}},{"id":2237,"common_name":"Spring crocus","scientific_name":["Crocus vernus 'Jeanne d'Arc'"],"other_name":null,"cycle":"Perennial","watering":"Average","sunlight":["Full sun","part shade"],"default_image":{"image_id":5271,"license":4,"license_name":"Attribution License","license_url":"https://creativecommons.org/licenses/by/2.0/","original_url":"https://perenual.com/storage/species_image/2237_crocus_vernus_jeanne_darc/og/4443261069_f144c35af7_b.jpg","regular_url":"https://perenual.com/storage/species_image/2237_crocus_vernus_jeanne_darc/regular/4443261069_f144c35af7_b.jpg","medium_url":"https://perenual.com/storage/species_image/2237_crocus_vernus_jeanne_darc/medium/4443261069_f144c35af7_b.jpg","small_url":"https://perenual.com/storage/species_image/2237_crocus_vernus_jeanne_darc/small/4443261069_f144c35af7_b.jpg","thumbnail":"https://perenual.com/storage/species_image/2237_crocus_vernus_jeanne_darc/thumbnail/4443261069_f144c35af7_b.jpg"}},{"id":2238,"common_name":"Spring crocus","scientific_name":["Crocus vernus 'Pickwick'"],"other_name":null,"cycle":"Perennial","watering":"Average","sunlight":["Full sun","part shade"],"default_image":{"image_id":9,"license":5,"license_name":"Attribution-ShareAlike License","license_url":"https://creativecommons.org/licenses/by-sa/2.0/","original_url":"https://perenual.com/storage/species_image/2_abies_alba_pyramidalis/og/49255769768_df55596553_b.jpg","regular_url":"https://perenual.com/storage/species_image/2_abies_alba_pyramidalis/regular/49255769768_df55596553_b.jpg","medium_url":"https://perenual.com/storage/species_image/2_abies_alba_pyramidalis/medium/49255769768_df55596553_b.jpg","small_url":"https://perenual.com/storage/species_image/2_abies_alba_pyramidalis/small/49255769768_df55596553_b.jpg","thumbnail":"https://perenual.com/storage/species_image/2_abies_alba_pyramidalis/thumbnail/49255769768_df55596553_b.jpg"}},{"id":2239,"common_name":"Spring crocus","scientific_name":["Crocus vernus 'Purpureus Grandiflorus'"],"other_name":null,"cycle":"Perennial","watering":"Average","sunlight":["Full sun","part shade"],"default_image":{"image_id":9,"license":5,"license_name":"Attribution-ShareAlike License","license_url":"https://creativecommons.org/licenses/by-sa/2.0/","original_url":"https://perenual.com/storage/species_image/2_abies_alba_pyramidalis/og/49255769768_df55596553_b.jpg","regular_url":"https://perenual.com/storage/species_image/2_abies_alba_pyramidalis/regular/49255769768_df55596553_b.jpg","medium_url":"https://perenual.com/storage/species_image/2_abies_alba_pyramidalis/medium/49255769768_df55596553_b.jpg","small_url":"https://perenual.com/storage/species_image/2_abies_alba_pyramidalis/small/49255769768_df55596553_b.jpg","thumbnail":"https://perenual.com/storage/species_image/2_abies_alba_pyramidalis/thumbnail/49255769768_df55596553_b.jpg"}},{"id":2240,"common_name":"Spring crocus","scientific_name":["Crocus vernus 'Remembrance'"],"other_name":null,"cycle":"Perennial","watering":"Average","sunlight":["Full sun","part shade"],"default_image":{"image_id":5274,"license":5,"license_name":"Attribution-ShareAlike License","license_url":"https://creativecommons.org/licenses/by-sa/2.0/","original_url":"https://perenual.com/storage/species_image/2240_crocus_vernus_remembrance/og/9198166427_0264857dcc_b.jpg","regular_url":"https://perenual.com/storage/species_image/2240_crocus_vernus_remembrance/regular/9198166427_0264857dcc_b.jpg","medium_url":"https://perenual.com/storage/species_image/2240_crocus_vernus_remembrance/medium/9198166427_0264857dcc_b.jpg","small_url":"https://perenual.com/storage/species_image/2240_crocus_vernus_remembrance/small/9198166427_0264857dcc_b.jpg","thumbnail":"https://perenual.com/storage/species_image/2240_crocus_vernus_remembrance/thumbnail/9198166427_0264857dcc_b.jpg"}},{"id":2241,"common_name":"Spring crocus","scientific_name":["Crocus vernus 'Striped Beauty'"],"other_name":null,"cycle":"Perennial","watering":"Average","sunlight":["Full sun","part shade"],"default_image":{"image_id":5277,"license":6,"license_name":"Attribution-NoDerivs License","license_url":"https://creativecommons.org/licenses/by-nd/2.0/","original_url":"https://perenual.com/storage/species_image/2241_crocus_vernus_striped_beauty/og/52018202866_ee4656afc5_b.jpg"}},{"id":2242,"common_name":"firecracker flower","scientific_name":["Crossandra infundibuliformis"],"other_name":null,"cycle":"Perennial","watering":"Average","sunlight":["Part shade"],"default_image":{"image_id":9,"license":5,"license_name":"Attribution-ShareAlike License","license_url":"https://creativecommons.org/licenses/by-sa/2.0/","original_url":"https://perenual.com/storage/species_image/2_abies_alba_pyramidalis/og/49255769768_df55596553_b.jpg","regular_url":"https://perenual.com/storage/species_image/2_abies_alba_pyramidalis/regular/49255769768_df55596553_b.jpg","medium_url":"https://perenual.com/storage/species_image/2_abies_alba_pyramidalis/medium/49255769768_df55596553_b.jpg","small_url":"https://perenual.com/storage/species_image/2_abies_alba_pyramidalis/small/49255769768_df55596553_b.jpg","thumbnail":"https://perenual.com/storage/species_image/2_abies_alba_pyramidalis/thumbnail/49255769768_df55596553_b.jpg"}},{"id":2243,"common_name":"alabama croton","scientific_name":["Croton alabamensis"],"other_name":null,"cycle":"Perennial","watering":"Average","sunlight":["Full sun","part shade"],"default_image":{"image_id":9,"license":5,"license_name":"Attribution-ShareAlike License","license_url":"https://creativecommons.org/licenses/by-sa/2.0/","original_url":"https://perenual.com/storage/species_image/2_abies_alba_pyramidalis/og/49255769768_df55596553_b.jpg","regular_url":"https://perenual.com/storage/species_image/2_abies_alba_pyramidalis/regular/49255769768_df55596553_b.jpg","medium_url":"https://perenual.com/storage/species_image/2_abies_alba_pyramidalis/medium/49255769768_df55596553_b.jpg","small_url":"https://perenual.com/storage/species_image/2_abies_alba_pyramidalis/small/49255769768_df55596553_b.jpg","thumbnail":"https://perenual.com/storage/species_image/2_abies_alba_pyramidalis/thumbnail/49255769768_df55596553_b.jpg"}},{"id":2244,"common_name":"cryptanthus","scientific_name":["Cryptanthus (group)"],"other_name":null,"cycle":"Perennial","watering":"Average","sunlight":["Part shade"],"default_image":{"image_id":9,"license":5,"license_name":"Attribution-ShareAlike License","license_url":"https://creativecommons.org/licenses/by-sa/2.0/","original_url":"https://perenual.com/storage/species_image/2_abies_alba_pyramidalis/og/49255769768_df55596553_b.jpg","regular_url":"https://perenual.com/storage/species_image/2_abies_alba_pyramidalis/regular/49255769768_df55596553_b.jpg","medium_url":"https://perenual.com/storage/species_image/2_abies_alba_pyramidalis/medium/49255769768_df55596553_b.jpg","small_url":"https://perenual.com/storage/species_image/2_abies_alba_pyramidalis/small/49255769768_df55596553_b.jpg","thumbnail":"https://perenual.com/storage/species_image/2_abies_alba_pyramidalis/thumbnail/49255769768_df55596553_b.jpg"}},{"id":2245,"common_name":"Japanese cedar","scientific_name":["Cryptomeria japonica 'Elegans Nana'"],"other_name":null,"cycle":"Perennial","watering":"Average","sunlight":["Full sun"," Part sun/part shade"," Sheltered"],"default_image":{"image_id":5285,"license":45,"license_name":"Attribution-ShareAlike 3.0 Unported (CC BY-SA 3.0)","license_url":"https://creativecommons.org/licenses/by-sa/3.0/deed.en","original_url":"https://perenual.com/storage/species_image/2245_cryptomeria_japonica_elegans_nana/og/450px-Cryptomeria_japonica_%27Elegans_nana%27_in_Morris_Arboretum.jpg","regular_url":"https://perenual.com/storage/species_image/2245_cryptomeria_japonica_elegans_nana/regular/450px-Cryptomeria_japonica_%27Elegans_nana%27_in_Morris_Arboretum.jpg","medium_url":"https://perenual.com/storage/species_image/2245_cryptomeria_japonica_elegans_nana/medium/450px-Cryptomeria_japonica_%27Elegans_nana%27_in_Morris_Arboretum.jpg","small_url":"https://perenual.com/storage/species_image/2245_cryptomeria_japonica_elegans_nana/small/450px-Cryptomeria_japonica_%27Elegans_nana%27_in_Morris_Arboretum.jpg","thumbnail":"https://perenual.com/storage/species_image/2245_cryptomeria_japonica_elegans_nana/thumbnail/450px-Cryptomeria_japonica_%27Elegans_nana%27_in_Morris_Arboretum.jpg"}},{"id":2246,"common_name":"Japanese cedar","scientific_name":["Cryptomeria japonica 'Radicans'"],"other_name":null,"cycle":"Perennial","watering":"Average","sunlight":["Full sun"," Part sun/part shade"," Sheltered"],"default_image":{"image_id":5286,"license":45,"license_name":"Attribution-ShareAlike 3.0 Unported (CC BY-SA 3.0)","license_url":"https://creativecommons.org/licenses/by-sa/3.0/deed.en","original_url":"https://perenual.com/storage/species_image/2246_cryptomeria_japonica_radicans/og/Starr_031108-2113_Pinus_elliottii.jpg","regular_url":"https://perenual.com/storage/species_image/2246_cryptomeria_japonica_radicans/regular/Starr_031108-2113_Pinus_elliottii.jpg","medium_url":"https://perenual.com/storage/species_image/2246_cryptomeria_japonica_radicans/medium/Starr_031108-2113_Pinus_elliottii.jpg","small_url":"https://perenual.com/storage/species_image/2246_cryptomeria_japonica_radicans/small/Starr_031108-2113_Pinus_elliottii.jpg","thumbnail":"https://perenual.com/storage/species_image/2246_cryptomeria_japonica_radicans/thumbnail/Starr_031108-2113_Pinus_elliottii.jpg"}},{"id":2247,"common_name":"Japanese cedar","scientific_name":["Cryptomeria japonica 'Spiralis'"],"other_name":null,"cycle":"Perennial","watering":"Average","sunlight":["Full sun"," Part sun/part shade"," Sheltered"],"default_image":{"image_id":5287,"license":4,"license_name":"Attribution License","license_url":"https://creativecommons.org/licenses/by/2.0/","original_url":"https://perenual.com/storage/species_image/2247_cryptomeria_japonica_spiralis/og/4375503014_a18138e98d_b.jpg","regular_url":"https://perenual.com/storage/species_image/2247_cryptomeria_japonica_spiralis/regular/4375503014_a18138e98d_b.jpg","medium_url":"https://perenual.com/storage/species_image/2247_cryptomeria_japonica_spiralis/medium/4375503014_a18138e98d_b.jpg","small_url":"https://perenual.com/storage/species_image/2247_cryptomeria_japonica_spiralis/small/4375503014_a18138e98d_b.jpg","thumbnail":"https://perenual.com/storage/species_image/2247_cryptomeria_japonica_spiralis/thumbnail/4375503014_a18138e98d_b.jpg"}},{"id":2248,"common_name":"Canadian honewort","scientific_name":["Cryptotaenia canadensis"],"other_name":null,"cycle":"Perennial","watering":"Average","sunlight":["Partial sun Shade"],"default_image":{"image_id":5289,"license":4,"license_name":"Attribution License","license_url":"https://creativecommons.org/licenses/by/2.0/","original_url":"https://perenual.com/storage/species_image/2248_cryptotaenia_canadensis/og/17660706206_9a748e6b87_b.jpg","regular_url":"https://perenual.com/storage/species_image/2248_cryptotaenia_canadensis/regular/17660706206_9a748e6b87_b.jpg","medium_url":"https://perenual.com/storage/species_image/2248_cryptotaenia_canadensis/medium/17660706206_9a748e6b87_b.jpg","small_url":"https://perenual.com/storage/species_image/2248_cryptotaenia_canadensis/small/17660706206_9a748e6b87_b.jpg","thumbnail":"https://perenual.com/storage/species_image/2248_cryptotaenia_canadensis/thumbnail/17660706206_9a748e6b87_b.jpg"}},{"id":2249,"common_name":"Japanese parsley","scientific_name":["Cryptotaenia japonica f. atropurpurea"],"other_name":null,"cycle":"Perennial","watering":"Average","sunlight":["Part shade"],"default_image":{"image_id":5294,"license":5,"license_name":"Attribution-ShareAlike License","license_url":"https://creativecommons.org/licenses/by-sa/2.0/","original_url":"https://perenual.com/storage/species_image/2249_cryptotaenia_japonica_f_atropurpurea/og/4757169063_dbed0b68ba_b.jpg","regular_url":"https://perenual.com/storage/species_image/2249_cryptotaenia_japonica_f_atropurpurea/regular/4757169063_dbed0b68ba_b.jpg","medium_url":"https://perenual.com/storage/species_image/2249_cryptotaenia_japonica_f_atropurpurea/medium/4757169063_dbed0b68ba_b.jpg","small_url":"https://perenual.com/storage/species_image/2249_cryptotaenia_japonica_f_atropurpurea/small/4757169063_dbed0b68ba_b.jpg","thumbnail":"https://perenual.com/storage/species_image/2249_cryptotaenia_japonica_f_atropurpurea/thumbnail/4757169063_dbed0b68ba_b.jpg"}},{"id":2250,"common_name":"melon","scientific_name":["Cucumis melo var. flexuosus"],"other_name":null,"cycle":"Perennial","watering":"Average","sunlight":["Full sun"],"default_image":{"image_id":9,"license":5,"license_name":"Attribution-ShareAlike License","license_url":"https://creativecommons.org/licenses/by-sa/2.0/","original_url":"https://perenual.com/storage/species_image/2_abies_alba_pyramidalis/og/49255769768_df55596553_b.jpg","regular_url":"https://perenual.com/storage/species_image/2_abies_alba_pyramidalis/regular/49255769768_df55596553_b.jpg","medium_url":"https://perenual.com/storage/species_image/2_abies_alba_pyramidalis/medium/49255769768_df55596553_b.jpg","small_url":"https://perenual.com/storage/species_image/2_abies_alba_pyramidalis/small/49255769768_df55596553_b.jpg","thumbnail":"https://perenual.com/storage/species_image/2_abies_alba_pyramidalis/thumbnail/49255769768_df55596553_b.jpg"}}],"to":2250,"per_page":30,"current_page":75,"from":2221,"last_page":200,"total":6000}