{"data":[{"id":5581,"common_name":"eastern hop hornbeam","scientific_name":["Ostrya virginiana"],"other_name":["ironwood"],"cycle":"Perennial","watering":"Average","sunlight":["Full sun"," Part sun/part shade"],"default_image":{"image_id":9,"license":5,"license_name":"Attribution-ShareAlike License","license_url":"https://creativecommons.org/licenses/by-sa/2.0/","original_url":"https://perenual.com/storage/species_image/2_abies_alba_pyramidalis/og/49255769768_df55596553_b.jpg","regular_url":"https://perenual.com/storage/species_image/2_abies_alba_pyramidalis/regular/49255769768_df55596553_b.jpg","medium_url":"https://perenual.com/storage/species_image/2_abies_alba_pyramidalis/medium/49255769768_df55596553_b.jpg","small_url":"https://perenual.com/storage/species_image/2_abies_alba_pyramidalis/small/49255769768_df55596553_b.jpg","thumbnail":"https://perenual.com/storage/species_image/2_abies_alba_pyramidalis/thumbnail/49255769768_df55596553_b.jpg"}},{"id":5582,"common_name":"little pickles","scientific_name":["Othonna capensis"],"other_name":null,"cycle":"Perennial","watering":"Minimum","sunlight":["Full sun"],"default_image":{"image_id":9,"license":5,"license_name":"Attribution-ShareAlike License","license_url":"https://creativecommons.org/licenses/by-sa/2.0/","original_url":"https://perenual.com/storage/species_image/2_abies_alba_pyramidalis/og/49255769768_df55596553_b.jpg","regular_url":"https://perenual.com/storage/species_image/2_abies_alba_pyramidalis/regular/49255769768_df55596553_b.jpg","medium_url":"https://perenual.com/storage/species_image/2_abies_alba_pyramidalis/medium/49255769768_df55596553_b.jpg","small_url":"https://perenual.com/storage/species_image/2_abies_alba_pyramidalis/small/49255769768_df55596553_b.jpg","thumbnail":"https://perenual.com/storage/species_image/2_abies_alba_pyramidalis/thumbnail/49255769768_df55596553_b.jpg"}},{"id":5583,"common_name":"sorrel","scientific_name":["Oxalis articulata subsp. rubra"],"other_name":null,"cycle":"Perennial","watering":"Average","sunlight":["Full sun","part shade"],"default_image":{"image_id":11440,"license":45,"license_name":"Attribution-ShareAlike 3.0 Unported (CC BY-SA 3.0)","license_url":"https://creativecommons.org/licenses/by-sa/3.0/deed.en","original_url":"https://perenual.com/storage/species_image/5583_oxalis_articulata_subsp_rubra/og/Oxalis_articulata.jpg","regular_url":"https://perenual.com/storage/species_image/5583_oxalis_articulata_subsp_rubra/regular/Oxalis_articulata.jpg","medium_url":"https://perenual.com/storage/species_image/5583_oxalis_articulata_subsp_rubra/medium/Oxalis_articulata.jpg","small_url":"https://perenual.com/storage/species_image/5583_oxalis_articulata_subsp_rubra/small/Oxalis_articulata.jpg","thumbnail":"https://perenual.com/storage/species_image/5583_oxalis_articulata_subsp_rubra/thumbnail/Oxalis_articulata.jpg"}},{"id":5584,"common_name":"violet wood sorrel","scientific_name":["Oxalis violacea"],"other_name":null,"cycle":"Perennial","watering":"Average","sunlight":["Full sun","part shade"],"default_image":{"image_id":11441,"license":5,"license_name":"Attribution-ShareAlike License","license_url":"https://creativecommons.org/licenses/by-sa/2.0/","original_url":"https://perenual.com/storage/species_image/5584_oxalis_violacea/og/8933167120_87ff39dd9c_b.jpg","regular_url":"https://perenual.com/storage/species_image/5584_oxalis_violacea/regular/8933167120_87ff39dd9c_b.jpg","medium_url":"https://perenual.com/storage/species_image/5584_oxalis_violacea/medium/8933167120_87ff39dd9c_b.jpg","small_url":"https://perenual.com/storage/species_image/5584_oxalis_violacea/small/8933167120_87ff39dd9c_b.jpg","thumbnail":"https://perenual.com/storage/species_image/5584_oxalis_violacea/thumbnail/8933167120_87ff39dd9c_b.jpg"}},{"id":5585,"common_name":"sourwood","scientific_name":["Oxydendrum arboreum"],"other_name":["sourwood"],"cycle":"Perennial","watering":"Average","sunlight":["Full sun","part shade"],"default_image":{"image_id":9,"license":5,"license_name":"Attribution-ShareAlike License","license_url":"https://creativecommons.org/licenses/by-sa/2.0/","original_url":"https://perenual.com/storage/species_image/2_abies_alba_pyramidalis/og/49255769768_df55596553_b.jpg","regular_url":"https://perenual.com/storage/species_image/2_abies_alba_pyramidalis/regular/49255769768_df55596553_b.jpg","medium_url":"https://perenual.com/storage/species_image/2_abies_alba_pyramidalis/medium/49255769768_df55596553_b.jpg","small_url":"https://perenual.com/storage/species_image/2_abies_alba_pyramidalis/small/49255769768_df55596553_b.jpg","thumbnail":"https://perenual.com/storage/species_image/2_abies_alba_pyramidalis/thumbnail/49255769768_df55596553_b.jpg"}},{"id":5586,"common_name":"tweedia","scientific_name":["Oxypetalum coeruleum"],"other_name":null,"cycle":"Perennial","watering":"Minimum","sunlight":["Full sun","part shade"],"default_image":{"image_id":9,"license":5,"license_name":"Attribution-ShareAlike License","license_url":"https://creativecommons.org/licenses/by-sa/2.0/","original_url":"https://perenual.com/storage/species_image/2_abies_alba_pyramidalis/og/49255769768_df55596553_b.jpg","regular_url":"https://perenual.com/storage/species_image/2_abies_alba_pyramidalis/regular/49255769768_df55596553_b.jpg","medium_url":"https://perenual.com/storage/species_image/2_abies_alba_pyramidalis/medium/49255769768_df55596553_b.jpg","small_url":"https://perenual.com/storage/species_image/2_abies_alba_pyramidalis/small/49255769768_df55596553_b.jpg","thumbnail":"https://perenual.com/storage/species_image/2_abies_alba_pyramidalis/thumbnail/49255769768_df55596553_b.jpg"}},{"id":5587,"common_name":"kerosene bush","scientific_name":["Ozothamnus ledifolius"],"other_name":null,"cycle":"Perennial","watering":"Minimum","sunlight":["Full sun","part shade"],"default_image":{"image_id":11447,"license":5,"license_name":"Attribution-ShareAlike License","license_url":"https://creativecommons.org/licenses/by-sa/2.0/","original_url":"https://perenual.com/storage/species_image/5587_ozothamnus_ledifolius/og/11380776136_8a1a07ca88_b.jpg","regular_url":"https://perenual.com/storage/species_image/5587_ozothamnus_ledifolius/regular/11380776136_8a1a07ca88_b.jpg","medium_url":"https://perenual.com/storage/species_image/5587_ozothamnus_ledifolius/medium/11380776136_8a1a07ca88_b.jpg","small_url":"https://perenual.com/storage/species_image/5587_ozothamnus_ledifolius/small/11380776136_8a1a07ca88_b.jpg","thumbnail":"https://perenual.com/storage/species_image/5587_ozothamnus_ledifolius/thumbnail/11380776136_8a1a07ca88_b.jpg"}},{"id":5588,"common_name":"Guiana chestnut","scientific_name":["Pachira aquatica"],"other_name":null,"cycle":"Perennial","watering":"Frequent","sunlight":["Part sun/part shade"],"default_image":{"image_id":11448,"license":4,"license_name":"Attribution License","license_url":"https://creativecommons.org/licenses/by/2.0/","original_url":"https://perenual.com/storage/species_image/5588_pachira_aquatica/og/48134154753_4a0cbe6e47_b.jpg","regular_url":"https://perenual.com/storage/species_image/5588_pachira_aquatica/regular/48134154753_4a0cbe6e47_b.jpg","medium_url":"https://perenual.com/storage/species_image/5588_pachira_aquatica/medium/48134154753_4a0cbe6e47_b.jpg","small_url":"https://perenual.com/storage/species_image/5588_pachira_aquatica/small/48134154753_4a0cbe6e47_b.jpg","thumbnail":"https://perenual.com/storage/species_image/5588_pachira_aquatica/thumbnail/48134154753_4a0cbe6e47_b.jpg"}},{"id":5589,"common_name":"water chestnut","scientific_name":["Pachira aquatica 'Lemon Blush'"],"other_name":null,"cycle":"Perennial","watering":"Frequent","sunlight":["Part sun/part shade"],"default_image":{"image_id":11450,"license":45,"license_name":"Attribution-ShareAlike 3.0 Unported (CC BY-SA 3.0)","license_url":"https://creativecommons.org/licenses/by-sa/3.0/deed.en","original_url":"https://perenual.com/storage/species_image/5589_pachira_aquatica_lemon_blush/og/Pachira_aquatica_19zz.jpg","regular_url":"https://perenual.com/storage/species_image/5589_pachira_aquatica_lemon_blush/regular/Pachira_aquatica_19zz.jpg","medium_url":"https://perenual.com/storage/species_image/5589_pachira_aquatica_lemon_blush/medium/Pachira_aquatica_19zz.jpg","small_url":"https://perenual.com/storage/species_image/5589_pachira_aquatica_lemon_blush/small/Pachira_aquatica_19zz.jpg","thumbnail":"https://perenual.com/storage/species_image/5589_pachira_aquatica_lemon_blush/thumbnail/Pachira_aquatica_19zz.jpg"}},{"id":5590,"common_name":"pachypodium","scientific_name":["Pachypodium rutenbergianum"],"other_name":null,"cycle":"Perennial","watering":"Minimum","sunlight":["Full sun"],"default_image":{"image_id":11451,"license":4,"license_name":"Attribution License","license_url":"https://creativecommons.org/licenses/by/2.0/","original_url":"https://perenual.com/storage/species_image/5590_pachypodium_rutenbergianum/og/23372154933_a0c7ae8a9f_b.jpg","regular_url":"https://perenual.com/storage/species_image/5590_pachypodium_rutenbergianum/regular/23372154933_a0c7ae8a9f_b.jpg","medium_url":"https://perenual.com/storage/species_image/5590_pachypodium_rutenbergianum/medium/23372154933_a0c7ae8a9f_b.jpg","small_url":"https://perenual.com/storage/species_image/5590_pachypodium_rutenbergianum/small/23372154933_a0c7ae8a9f_b.jpg","thumbnail":"https://perenual.com/storage/species_image/5590_pachypodium_rutenbergianum/thumbnail/23372154933_a0c7ae8a9f_b.jpg"}},{"id":5591,"common_name":"jicama","scientific_name":["Pachyrhizus erosus"],"other_name":null,"cycle":"Perennial","watering":"Average","sunlight":["Full sun"],"default_image":{"image_id":11452,"license":4,"license_name":"Attribution License","license_url":"https://creativecommons.org/licenses/by/2.0/","original_url":"https://perenual.com/storage/species_image/5591_pachyrhizus_erosus/og/24596703434_9b81bec331_b.jpg","regular_url":"https://perenual.com/storage/species_image/5591_pachyrhizus_erosus/regular/24596703434_9b81bec331_b.jpg","medium_url":"https://perenual.com/storage/species_image/5591_pachyrhizus_erosus/medium/24596703434_9b81bec331_b.jpg","small_url":"https://perenual.com/storage/species_image/5591_pachyrhizus_erosus/small/24596703434_9b81bec331_b.jpg","thumbnail":"https://perenual.com/storage/species_image/5591_pachyrhizus_erosus/thumbnail/24596703434_9b81bec331_b.jpg"}},{"id":5592,"common_name":"Japanese pachysandra","scientific_name":["Pachysandra terminalis"],"other_name":null,"cycle":"Perennial","watering":"Average","sunlight":["Deep shade"," Filtered shade"," Part sun/part shade"],"default_image":{"image_id":11454,"license":4,"license_name":"Attribution License","license_url":"https://creativecommons.org/licenses/by/2.0/","original_url":"https://perenual.com/storage/species_image/5592_pachysandra_terminalis/og/1118932171_f15ce19ffd_b.jpg","regular_url":"https://perenual.com/storage/species_image/5592_pachysandra_terminalis/regular/1118932171_f15ce19ffd_b.jpg","medium_url":"https://perenual.com/storage/species_image/5592_pachysandra_terminalis/medium/1118932171_f15ce19ffd_b.jpg","small_url":"https://perenual.com/storage/species_image/5592_pachysandra_terminalis/small/1118932171_f15ce19ffd_b.jpg","thumbnail":"https://perenual.com/storage/species_image/5592_pachysandra_terminalis/thumbnail/1118932171_f15ce19ffd_b.jpg"}},{"id":5593,"common_name":"Japanese pachysandra","scientific_name":["Pachysandra terminalis 'Green Carpet'"],"other_name":null,"cycle":"Perennial","watering":"Average","sunlight":["Deep shade"," Filtered shade"," Part sun/part shade"],"default_image":{"image_id":11455,"license":5,"license_name":"Attribution-ShareAlike License","license_url":"https://creativecommons.org/licenses/by-sa/2.0/","original_url":"https://perenual.com/storage/species_image/5593_pachysandra_terminalis_green_carpet/og/50053935936_788b29b8f7_b.jpg","regular_url":"https://perenual.com/storage/species_image/5593_pachysandra_terminalis_green_carpet/regular/50053935936_788b29b8f7_b.jpg","medium_url":"https://perenual.com/storage/species_image/5593_pachysandra_terminalis_green_carpet/medium/50053935936_788b29b8f7_b.jpg","small_url":"https://perenual.com/storage/species_image/5593_pachysandra_terminalis_green_carpet/small/50053935936_788b29b8f7_b.jpg","thumbnail":"https://perenual.com/storage/species_image/5593_pachysandra_terminalis_green_carpet/thumbnail/50053935936_788b29b8f7_b.jpg"}},{"id":5594,"common_name":"Japanese pachysandra","scientific_name":["Pachysandra terminalis 'Green Sheen'"],"other_name":null,"cycle":"Perennial","watering":"Average","sunlight":["Deep shade"," Filtered shade"," Part sun/part shade"],"default_image":{"image_id":9,"license":5,"license_name":"Attribution-ShareAlike License","license_url":"https://creativecommons.org/licenses/by-sa/2.0/","original_url":"https://perenual.com/storage/species_image/2_abies_alba_pyramidalis/og/49255769768_df55596553_b.jpg","regular_url":"https://perenual.com/storage/species_image/2_abies_alba_pyramidalis/regular/49255769768_df55596553_b.jpg","medium_url":"https://perenual.com/storage/species_image/2_abies_alba_pyramidalis/medium/49255769768_df55596553_b.jpg","small_url":"https://perenual.com/storage/species_image/2_abies_alba_pyramidalis/small/49255769768_df55596553_b.jpg","thumbnail":"https://perenual.com/storage/species_image/2_abies_alba_pyramidalis/thumbnail/49255769768_df55596553_b.jpg"}},{"id":5595,"common_name":"Japanese spurge","scientific_name":["Pachysandra terminalis 'Variegata'"],"other_name":null,"cycle":"Perennial","watering":"Average","sunlight":["Deep shade"," Filtered shade"," Part sun/part shade"],"default_image":{"image_id":11458,"license":45,"license_name":"Attribution-ShareAlike 3.0 Unported (CC BY-SA 3.0)","license_url":"https://creativecommons.org/licenses/by-sa/3.0/deed.en","original_url":"https://perenual.com/storage/species_image/5595_pachysandra_terminalis_variegata/og/Pachysandra_terminalis_%27Variegata%27_kz4.jpg","regular_url":"https://perenual.com/storage/species_image/5595_pachysandra_terminalis_variegata/regular/Pachysandra_terminalis_%27Variegata%27_kz4.jpg","medium_url":"https://perenual.com/storage/species_image/5595_pachysandra_terminalis_variegata/medium/Pachysandra_terminalis_%27Variegata%27_kz4.jpg","small_url":"https://perenual.com/storage/species_image/5595_pachysandra_terminalis_variegata/small/Pachysandra_terminalis_%27Variegata%27_kz4.jpg","thumbnail":"https://perenual.com/storage/species_image/5595_pachysandra_terminalis_variegata/thumbnail/Pachysandra_terminalis_%27Variegata%27_kz4.jpg"}},{"id":5596,"common_name":"cardinal's guard","scientific_name":["Pachystachys coccinea"],"other_name":null,"cycle":"Perennial","watering":"Average","sunlight":["Full sun"],"default_image":{"image_id":11459,"license":4,"license_name":"Attribution License","license_url":"https://creativecommons.org/licenses/by/2.0/","original_url":"https://perenual.com/storage/species_image/5596_pachystachys_coccinea/og/51603475592_93c264e96d_b.jpg","regular_url":"https://perenual.com/storage/species_image/5596_pachystachys_coccinea/regular/51603475592_93c264e96d_b.jpg","medium_url":"https://perenual.com/storage/species_image/5596_pachystachys_coccinea/medium/51603475592_93c264e96d_b.jpg","small_url":"https://perenual.com/storage/species_image/5596_pachystachys_coccinea/small/51603475592_93c264e96d_b.jpg","thumbnail":"https://perenual.com/storage/species_image/5596_pachystachys_coccinea/thumbnail/51603475592_93c264e96d_b.jpg"}},{"id":5597,"common_name":"golden shrimp plant","scientific_name":["Pachystachys lutea"],"other_name":["lollipop plant"],"cycle":"Perennial","watering":"Average","sunlight":["Full sun"," Part sun/part shade"],"default_image":{"image_id":11461,"license":4,"license_name":"Attribution License","license_url":"https://creativecommons.org/licenses/by/2.0/","original_url":"https://perenual.com/storage/species_image/5597_pachystachys_lutea/og/48134426072_0c566a056b_b.jpg","regular_url":"https://perenual.com/storage/species_image/5597_pachystachys_lutea/regular/48134426072_0c566a056b_b.jpg","medium_url":"https://perenual.com/storage/species_image/5597_pachystachys_lutea/medium/48134426072_0c566a056b_b.jpg","small_url":"https://perenual.com/storage/species_image/5597_pachystachys_lutea/small/48134426072_0c566a056b_b.jpg","thumbnail":"https://perenual.com/storage/species_image/5597_pachystachys_lutea/thumbnail/48134426072_0c566a056b_b.jpg"}},{"id":5598,"common_name":"golden ragwort","scientific_name":["Packera aurea"],"other_name":null,"cycle":"Perennial","watering":"Frequent","sunlight":["Full sun","part shade"],"default_image":{"image_id":9,"license":5,"license_name":"Attribution-ShareAlike License","license_url":"https://creativecommons.org/licenses/by-sa/2.0/","original_url":"https://perenual.com/storage/species_image/2_abies_alba_pyramidalis/og/49255769768_df55596553_b.jpg","regular_url":"https://perenual.com/storage/species_image/2_abies_alba_pyramidalis/regular/49255769768_df55596553_b.jpg","medium_url":"https://perenual.com/storage/species_image/2_abies_alba_pyramidalis/medium/49255769768_df55596553_b.jpg","small_url":"https://perenual.com/storage/species_image/2_abies_alba_pyramidalis/small/49255769768_df55596553_b.jpg","thumbnail":"https://perenual.com/storage/species_image/2_abies_alba_pyramidalis/thumbnail/49255769768_df55596553_b.jpg"}},{"id":5599,"common_name":"round-leaved ragwort","scientific_name":["Packera obovata"],"other_name":null,"cycle":"Perennial","watering":"Frequent","sunlight":["Full sun","part shade"],"default_image":{"image_id":9,"license":5,"license_name":"Attribution-ShareAlike License","license_url":"https://creativecommons.org/licenses/by-sa/2.0/","original_url":"https://perenual.com/storage/species_image/2_abies_alba_pyramidalis/og/49255769768_df55596553_b.jpg","regular_url":"https://perenual.com/storage/species_image/2_abies_alba_pyramidalis/regular/49255769768_df55596553_b.jpg","medium_url":"https://perenual.com/storage/species_image/2_abies_alba_pyramidalis/medium/49255769768_df55596553_b.jpg","small_url":"https://perenual.com/storage/species_image/2_abies_alba_pyramidalis/small/49255769768_df55596553_b.jpg","thumbnail":"https://perenual.com/storage/species_image/2_abies_alba_pyramidalis/thumbnail/49255769768_df55596553_b.jpg"}},{"id":5600,"common_name":"peony","scientific_name":["Paeonia 'America'"],"other_name":null,"cycle":"Perennial","watering":"Average","sunlight":["Full sun","part shade"],"default_image":{"image_id":11465,"license":5,"license_name":"Attribution-ShareAlike License","license_url":"https://creativecommons.org/licenses/by-sa/2.0/","original_url":"https://perenual.com/storage/species_image/5600_paeonia_america/og/52131827905_7b3837673b_b.jpg","regular_url":"https://perenual.com/storage/species_image/5600_paeonia_america/regular/52131827905_7b3837673b_b.jpg","medium_url":"https://perenual.com/storage/species_image/5600_paeonia_america/medium/52131827905_7b3837673b_b.jpg","small_url":"https://perenual.com/storage/species_image/5600_paeonia_america/small/52131827905_7b3837673b_b.jpg","thumbnail":"https://perenual.com/storage/species_image/5600_paeonia_america/thumbnail/52131827905_7b3837673b_b.jpg"}},{"id":5601,"common_name":"peony","scientific_name":["Paeonia 'Border Charm'"],"other_name":null,"cycle":"Perennial","watering":"Average","sunlight":["Full sun","part shade"],"default_image":{"image_id":11467,"license":5,"license_name":"Attribution-ShareAlike License","license_url":"https://creativecommons.org/licenses/by-sa/2.0/","original_url":"https://perenual.com/storage/species_image/5601_paeonia_border_charm/og/35001511785_eb51d1a865_b.jpg","regular_url":"https://perenual.com/storage/species_image/5601_paeonia_border_charm/regular/35001511785_eb51d1a865_b.jpg","medium_url":"https://perenual.com/storage/species_image/5601_paeonia_border_charm/medium/35001511785_eb51d1a865_b.jpg","small_url":"https://perenual.com/storage/species_image/5601_paeonia_border_charm/small/35001511785_eb51d1a865_b.jpg","thumbnail":"https://perenual.com/storage/species_image/5601_paeonia_border_charm/thumbnail/35001511785_eb51d1a865_b.jpg"}},{"id":5602,"common_name":"peony","scientific_name":["Paeonia 'Cora Louise'"],"other_name":null,"cycle":"Perennial","watering":"Average","sunlight":["Full sun","part shade"],"default_image":{"image_id":11468,"license":5,"license_name":"Attribution-ShareAlike License","license_url":"https://creativecommons.org/licenses/by-sa/2.0/","original_url":"https://perenual.com/storage/species_image/5602_paeonia_cora_louise/og/48020417192_672a2963f1_b.jpg","regular_url":"https://perenual.com/storage/species_image/5602_paeonia_cora_louise/regular/48020417192_672a2963f1_b.jpg","medium_url":"https://perenual.com/storage/species_image/5602_paeonia_cora_louise/medium/48020417192_672a2963f1_b.jpg","small_url":"https://perenual.com/storage/species_image/5602_paeonia_cora_louise/small/48020417192_672a2963f1_b.jpg","thumbnail":"https://perenual.com/storage/species_image/5602_paeonia_cora_louise/thumbnail/48020417192_672a2963f1_b.jpg"}},{"id":5603,"common_name":"peony","scientific_name":["Paeonia 'Coral 'n Gold'"],"other_name":null,"cycle":"Perennial","watering":"Average","sunlight":["Full sun","part shade"],"default_image":{"image_id":11470,"license":5,"license_name":"Attribution-ShareAlike License","license_url":"https://creativecommons.org/licenses/by-sa/2.0/","original_url":"https://perenual.com/storage/species_image/5603_paeonia_coral_n_gold/og/49976877517_78504c0ef3_b.jpg","regular_url":"https://perenual.com/storage/species_image/5603_paeonia_coral_n_gold/regular/49976877517_78504c0ef3_b.jpg","medium_url":"https://perenual.com/storage/species_image/5603_paeonia_coral_n_gold/medium/49976877517_78504c0ef3_b.jpg","small_url":"https://perenual.com/storage/species_image/5603_paeonia_coral_n_gold/small/49976877517_78504c0ef3_b.jpg","thumbnail":"https://perenual.com/storage/species_image/5603_paeonia_coral_n_gold/thumbnail/49976877517_78504c0ef3_b.jpg"}},{"id":5604,"common_name":"peony","scientific_name":["Paeonia 'Coral Sunset'"],"other_name":null,"cycle":"Perennial","watering":"Average","sunlight":["Full sun","part shade"],"default_image":{"image_id":11471,"license":5,"license_name":"Attribution-ShareAlike License","license_url":"https://creativecommons.org/licenses/by-sa/2.0/","original_url":"https://perenual.com/storage/species_image/5604_paeonia_coral_sunset/og/51207603713_5ef5cd075e_b.jpg","regular_url":"https://perenual.com/storage/species_image/5604_paeonia_coral_sunset/regular/51207603713_5ef5cd075e_b.jpg","medium_url":"https://perenual.com/storage/species_image/5604_paeonia_coral_sunset/medium/51207603713_5ef5cd075e_b.jpg","small_url":"https://perenual.com/storage/species_image/5604_paeonia_coral_sunset/small/51207603713_5ef5cd075e_b.jpg","thumbnail":"https://perenual.com/storage/species_image/5604_paeonia_coral_sunset/thumbnail/51207603713_5ef5cd075e_b.jpg"}},{"id":5605,"common_name":"tree peony","scientific_name":["Paeonia delavayi var. lutea"],"other_name":null,"cycle":"Perennial","watering":"Average","sunlight":["Full sun","part shade"],"default_image":{"image_id":9,"license":5,"license_name":"Attribution-ShareAlike License","license_url":"https://creativecommons.org/licenses/by-sa/2.0/","original_url":"https://perenual.com/storage/species_image/2_abies_alba_pyramidalis/og/49255769768_df55596553_b.jpg","regular_url":"https://perenual.com/storage/species_image/2_abies_alba_pyramidalis/regular/49255769768_df55596553_b.jpg","medium_url":"https://perenual.com/storage/species_image/2_abies_alba_pyramidalis/medium/49255769768_df55596553_b.jpg","small_url":"https://perenual.com/storage/species_image/2_abies_alba_pyramidalis/small/49255769768_df55596553_b.jpg","thumbnail":"https://perenual.com/storage/species_image/2_abies_alba_pyramidalis/thumbnail/49255769768_df55596553_b.jpg"}},{"id":5606,"common_name":"tree peony","scientific_name":["Paeonia delavayi var. lutea 'Hesperus'"],"other_name":null,"cycle":"Perennial","watering":"Average","sunlight":["Full sun","part shade"],"default_image":{"image_id":11474,"license":5,"license_name":"Attribution-ShareAlike License","license_url":"https://creativecommons.org/licenses/by-sa/2.0/","original_url":"https://perenual.com/storage/species_image/5606_paeonia_delavayi_var_lutea_hesperus/og/52129529053_aed16103c4_b.jpg","regular_url":"https://perenual.com/storage/species_image/5606_paeonia_delavayi_var_lutea_hesperus/regular/52129529053_aed16103c4_b.jpg","medium_url":"https://perenual.com/storage/species_image/5606_paeonia_delavayi_var_lutea_hesperus/medium/52129529053_aed16103c4_b.jpg","small_url":"https://perenual.com/storage/species_image/5606_paeonia_delavayi_var_lutea_hesperus/small/52129529053_aed16103c4_b.jpg","thumbnail":"https://perenual.com/storage/species_image/5606_paeonia_delavayi_var_lutea_hesperus/thumbnail/52129529053_aed16103c4_b.jpg"}},{"id":5607,"common_name":"tree peony","scientific_name":["Paeonia 'Goldfinch'"],"other_name":null,"cycle":"Perennial","watering":"Average","sunlight":["Full sun","part shade"],"default_image":{"image_id":9,"license":5,"license_name":"Attribution-ShareAlike License","license_url":"https://creativecommons.org/licenses/by-sa/2.0/","original_url":"https://perenual.com/storage/species_image/2_abies_alba_pyramidalis/og/49255769768_df55596553_b.jpg","regular_url":"https://perenual.com/storage/species_image/2_abies_alba_pyramidalis/regular/49255769768_df55596553_b.jpg","medium_url":"https://perenual.com/storage/species_image/2_abies_alba_pyramidalis/medium/49255769768_df55596553_b.jpg","small_url":"https://perenual.com/storage/species_image/2_abies_alba_pyramidalis/small/49255769768_df55596553_b.jpg","thumbnail":"https://perenual.com/storage/species_image/2_abies_alba_pyramidalis/thumbnail/49255769768_df55596553_b.jpg"}},{"id":5608,"common_name":"fernleaf peony","scientific_name":["Paeonia 'Itopa Shakuyaki'"],"other_name":null,"cycle":"Perennial","watering":"Average","sunlight":["Full sun","part shade"],"default_image":{"image_id":11477,"license":5,"license_name":"Attribution-ShareAlike License","license_url":"https://creativecommons.org/licenses/by-sa/2.0/","original_url":"https://perenual.com/storage/species_image/5608_paeonia_itopa_shakuyaki/og/3557676596_cb1a831bc0_b.jpg","regular_url":"https://perenual.com/storage/species_image/5608_paeonia_itopa_shakuyaki/regular/3557676596_cb1a831bc0_b.jpg","medium_url":"https://perenual.com/storage/species_image/5608_paeonia_itopa_shakuyaki/medium/3557676596_cb1a831bc0_b.jpg","small_url":"https://perenual.com/storage/species_image/5608_paeonia_itopa_shakuyaki/small/3557676596_cb1a831bc0_b.jpg","thumbnail":"https://perenual.com/storage/species_image/5608_paeonia_itopa_shakuyaki/thumbnail/3557676596_cb1a831bc0_b.jpg"}},{"id":5609,"common_name":"peony","scientific_name":["Paeonia japonica"],"other_name":null,"cycle":"Perennial","watering":"Average","sunlight":["Part shade"],"default_image":{"image_id":11478,"license":45,"license_name":"Attribution-ShareAlike 3.0 Unported (CC BY-SA 3.0)","license_url":"https://creativecommons.org/licenses/by-sa/3.0/deed.en","original_url":"https://perenual.com/storage/species_image/5609_paeonia_japonica/og/Paeonia_japonica_flower.jpg","regular_url":"https://perenual.com/storage/species_image/5609_paeonia_japonica/regular/Paeonia_japonica_flower.jpg","medium_url":"https://perenual.com/storage/species_image/5609_paeonia_japonica/medium/Paeonia_japonica_flower.jpg","small_url":"https://perenual.com/storage/species_image/5609_paeonia_japonica/small/Paeonia_japonica_flower.jpg","thumbnail":"https://perenual.com/storage/species_image/5609_paeonia_japonica/thumbnail/Paeonia_japonica_flower.jpg"}},{"id":5610,"common_name":"tree peony","scientific_name":["Paeonia 'Kronos'"],"other_name":null,"cycle":"Perennial","watering":"Average","sunlight":["Full sun","part shade"],"default_image":{"image_id":11466,"license":5,"license_name":"Attribution-ShareAlike License","license_url":"https://creativecommons.org/licenses/by-sa/2.0/","original_url":"https://perenual.com/storage/species_image/5610_paeonia_kronos/og/52131352273_cf496b5086_b.jpg","regular_url":"https://perenual.com/storage/species_image/5610_paeonia_kronos/regular/52131352273_cf496b5086_b.jpg","medium_url":"https://perenual.com/storage/species_image/5610_paeonia_kronos/medium/52131352273_cf496b5086_b.jpg","small_url":"https://perenual.com/storage/species_image/5610_paeonia_kronos/small/52131352273_cf496b5086_b.jpg","thumbnail":"https://perenual.com/storage/species_image/5610_paeonia_kronos/thumbnail/52131352273_cf496b5086_b.jpg"}}],"to":5610,"per_page":30,"current_page":187,"from":5581,"last_page":200,"total":6000}