{"data":[{"id":4231,"common_name":"holly","scientific_name":["Ilex meserveae 'Heckenstar' CASTLE WALL"],"other_name":null,"cycle":"Perennial","watering":"Average","sunlight":["Full sun","part shade"],"default_image":{"image_id":8606,"license":4,"license_name":"Attribution License","license_url":"https://creativecommons.org/licenses/by/2.0/","original_url":"https://perenual.com/storage/species_image/4231_ilex_meserveae_heckenstar_castle_wall/og/52596701890_fb9511b5ac_b.jpg","regular_url":"https://perenual.com/storage/species_image/4231_ilex_meserveae_heckenstar_castle_wall/regular/52596701890_fb9511b5ac_b.jpg","medium_url":"https://perenual.com/storage/species_image/4231_ilex_meserveae_heckenstar_castle_wall/medium/52596701890_fb9511b5ac_b.jpg","small_url":"https://perenual.com/storage/species_image/4231_ilex_meserveae_heckenstar_castle_wall/small/52596701890_fb9511b5ac_b.jpg","thumbnail":"https://perenual.com/storage/species_image/4231_ilex_meserveae_heckenstar_castle_wall/thumbnail/52596701890_fb9511b5ac_b.jpg"}},{"id":4232,"common_name":"holly","scientific_name":["Ilex 'Mesog' CHINA GIRL"],"other_name":null,"cycle":"Perennial","watering":"Average","sunlight":["Full sun","part shade"],"default_image":{"image_id":9,"license":5,"license_name":"Attribution-ShareAlike License","license_url":"https://creativecommons.org/licenses/by-sa/2.0/","original_url":"https://perenual.com/storage/species_image/2_abies_alba_pyramidalis/og/49255769768_df55596553_b.jpg","regular_url":"https://perenual.com/storage/species_image/2_abies_alba_pyramidalis/regular/49255769768_df55596553_b.jpg","medium_url":"https://perenual.com/storage/species_image/2_abies_alba_pyramidalis/medium/49255769768_df55596553_b.jpg","small_url":"https://perenual.com/storage/species_image/2_abies_alba_pyramidalis/small/49255769768_df55596553_b.jpg","thumbnail":"https://perenual.com/storage/species_image/2_abies_alba_pyramidalis/thumbnail/49255769768_df55596553_b.jpg"}},{"id":4233,"common_name":"holly","scientific_name":["Ilex 'Nellie R. Stevens'"],"other_name":null,"cycle":"Perennial","watering":"Average","sunlight":["Full sun","part shade"],"default_image":{"image_id":8562,"license":6,"license_name":"Attribution-NoDerivs License","license_url":"https://creativecommons.org/licenses/by-nd/2.0/","original_url":"https://perenual.com/storage/species_image/4233_ilex_nellie_r_stevens/og/2260640344_a4fdf84b50_b.jpg"}},{"id":4234,"common_name":"American holly","scientific_name":["Ilex opaca"],"other_name":null,"cycle":"Perennial","watering":"Average","sunlight":["Full sun","part shade"],"default_image":{"image_id":8613,"license":5,"license_name":"Attribution-ShareAlike License","license_url":"https://creativecommons.org/licenses/by-sa/2.0/","original_url":"https://perenual.com/storage/species_image/4234_ilex_opaca/og/39656935103_8a7fbcc167_b.jpg","regular_url":"https://perenual.com/storage/species_image/4234_ilex_opaca/regular/39656935103_8a7fbcc167_b.jpg","medium_url":"https://perenual.com/storage/species_image/4234_ilex_opaca/medium/39656935103_8a7fbcc167_b.jpg","small_url":"https://perenual.com/storage/species_image/4234_ilex_opaca/small/39656935103_8a7fbcc167_b.jpg","thumbnail":"https://perenual.com/storage/species_image/4234_ilex_opaca/thumbnail/39656935103_8a7fbcc167_b.jpg"}},{"id":4235,"common_name":"American holly","scientific_name":["Ilex opaca 'Canary'"],"other_name":null,"cycle":"Perennial","watering":"Average","sunlight":["Full sun","part shade"],"default_image":{"image_id":9,"license":5,"license_name":"Attribution-ShareAlike License","license_url":"https://creativecommons.org/licenses/by-sa/2.0/","original_url":"https://perenual.com/storage/species_image/2_abies_alba_pyramidalis/og/49255769768_df55596553_b.jpg","regular_url":"https://perenual.com/storage/species_image/2_abies_alba_pyramidalis/regular/49255769768_df55596553_b.jpg","medium_url":"https://perenual.com/storage/species_image/2_abies_alba_pyramidalis/medium/49255769768_df55596553_b.jpg","small_url":"https://perenual.com/storage/species_image/2_abies_alba_pyramidalis/small/49255769768_df55596553_b.jpg","thumbnail":"https://perenual.com/storage/species_image/2_abies_alba_pyramidalis/thumbnail/49255769768_df55596553_b.jpg"}},{"id":4236,"common_name":"American holly","scientific_name":["Ilex opaca 'Chief Paduke'"],"other_name":null,"cycle":"Perennial","watering":"Average","sunlight":["Full sun","part shade"],"default_image":{"image_id":9,"license":5,"license_name":"Attribution-ShareAlike License","license_url":"https://creativecommons.org/licenses/by-sa/2.0/","original_url":"https://perenual.com/storage/species_image/2_abies_alba_pyramidalis/og/49255769768_df55596553_b.jpg","regular_url":"https://perenual.com/storage/species_image/2_abies_alba_pyramidalis/regular/49255769768_df55596553_b.jpg","medium_url":"https://perenual.com/storage/species_image/2_abies_alba_pyramidalis/medium/49255769768_df55596553_b.jpg","small_url":"https://perenual.com/storage/species_image/2_abies_alba_pyramidalis/small/49255769768_df55596553_b.jpg","thumbnail":"https://perenual.com/storage/species_image/2_abies_alba_pyramidalis/thumbnail/49255769768_df55596553_b.jpg"}},{"id":4237,"common_name":"American holly","scientific_name":["Ilex opaca 'Clarendon'"],"other_name":null,"cycle":"Perennial","watering":"Average","sunlight":["Full sun","part shade"],"default_image":{"image_id":9,"license":5,"license_name":"Attribution-ShareAlike License","license_url":"https://creativecommons.org/licenses/by-sa/2.0/","original_url":"https://perenual.com/storage/species_image/2_abies_alba_pyramidalis/og/49255769768_df55596553_b.jpg","regular_url":"https://perenual.com/storage/species_image/2_abies_alba_pyramidalis/regular/49255769768_df55596553_b.jpg","medium_url":"https://perenual.com/storage/species_image/2_abies_alba_pyramidalis/medium/49255769768_df55596553_b.jpg","small_url":"https://perenual.com/storage/species_image/2_abies_alba_pyramidalis/small/49255769768_df55596553_b.jpg","thumbnail":"https://perenual.com/storage/species_image/2_abies_alba_pyramidalis/thumbnail/49255769768_df55596553_b.jpg"}},{"id":4238,"common_name":"American holly","scientific_name":["Ilex opaca 'Delia Bradley'"],"other_name":null,"cycle":"Perennial","watering":"Average","sunlight":["Full sun","part shade"],"default_image":{"image_id":8615,"license":4,"license_name":"Attribution License","license_url":"https://creativecommons.org/licenses/by/2.0/","original_url":"https://perenual.com/storage/species_image/4246_ilex_opaca_miss_helen/og/51994580057_f70d60afc6_b.jpg","regular_url":"https://perenual.com/storage/species_image/4246_ilex_opaca_miss_helen/regular/51994580057_f70d60afc6_b.jpg","medium_url":"https://perenual.com/storage/species_image/4246_ilex_opaca_miss_helen/medium/51994580057_f70d60afc6_b.jpg","small_url":"https://perenual.com/storage/species_image/4246_ilex_opaca_miss_helen/small/51994580057_f70d60afc6_b.jpg","thumbnail":"https://perenual.com/storage/species_image/4246_ilex_opaca_miss_helen/thumbnail/51994580057_f70d60afc6_b.jpg"}},{"id":4239,"common_name":"American holly","scientific_name":["Ilex opaca 'Greenleaf'"],"other_name":null,"cycle":"Perennial","watering":"Average","sunlight":["Full sun","part shade"],"default_image":{"image_id":9,"license":5,"license_name":"Attribution-ShareAlike License","license_url":"https://creativecommons.org/licenses/by-sa/2.0/","original_url":"https://perenual.com/storage/species_image/2_abies_alba_pyramidalis/og/49255769768_df55596553_b.jpg","regular_url":"https://perenual.com/storage/species_image/2_abies_alba_pyramidalis/regular/49255769768_df55596553_b.jpg","medium_url":"https://perenual.com/storage/species_image/2_abies_alba_pyramidalis/medium/49255769768_df55596553_b.jpg","small_url":"https://perenual.com/storage/species_image/2_abies_alba_pyramidalis/small/49255769768_df55596553_b.jpg","thumbnail":"https://perenual.com/storage/species_image/2_abies_alba_pyramidalis/thumbnail/49255769768_df55596553_b.jpg"}},{"id":4240,"common_name":"American holly","scientific_name":["Ilex opaca 'Jersey Knight'"],"other_name":null,"cycle":"Perennial","watering":"Average","sunlight":["Full sun","part shade"],"default_image":{"image_id":8624,"license":45,"license_name":"Attribution-ShareAlike 3.0 Unported (CC BY-SA 3.0)","license_url":"https://creativecommons.org/licenses/by-sa/3.0/deed.en","original_url":"https://perenual.com/storage/species_image/4240_ilex_opaca_jersey_knight/og/Pseudotsuga_menziesii_Landesarboretum_Baden-W%C3%BCrttemberg_R0010083.jpg","regular_url":"https://perenual.com/storage/species_image/4240_ilex_opaca_jersey_knight/regular/Pseudotsuga_menziesii_Landesarboretum_Baden-W%C3%BCrttemberg_R0010083.jpg","medium_url":"https://perenual.com/storage/species_image/4240_ilex_opaca_jersey_knight/medium/Pseudotsuga_menziesii_Landesarboretum_Baden-W%C3%BCrttemberg_R0010083.jpg","small_url":"https://perenual.com/storage/species_image/4240_ilex_opaca_jersey_knight/small/Pseudotsuga_menziesii_Landesarboretum_Baden-W%C3%BCrttemberg_R0010083.jpg","thumbnail":"https://perenual.com/storage/species_image/4240_ilex_opaca_jersey_knight/thumbnail/Pseudotsuga_menziesii_Landesarboretum_Baden-W%C3%BCrttemberg_R0010083.jpg"}},{"id":4241,"common_name":"American holly","scientific_name":["Ilex opaca 'Mac's Prince'"],"other_name":null,"cycle":"Perennial","watering":"Average","sunlight":["Full sun","part shade"],"default_image":{"image_id":9,"license":5,"license_name":"Attribution-ShareAlike License","license_url":"https://creativecommons.org/licenses/by-sa/2.0/","original_url":"https://perenual.com/storage/species_image/2_abies_alba_pyramidalis/og/49255769768_df55596553_b.jpg","regular_url":"https://perenual.com/storage/species_image/2_abies_alba_pyramidalis/regular/49255769768_df55596553_b.jpg","medium_url":"https://perenual.com/storage/species_image/2_abies_alba_pyramidalis/medium/49255769768_df55596553_b.jpg","small_url":"https://perenual.com/storage/species_image/2_abies_alba_pyramidalis/small/49255769768_df55596553_b.jpg","thumbnail":"https://perenual.com/storage/species_image/2_abies_alba_pyramidalis/thumbnail/49255769768_df55596553_b.jpg"}},{"id":4242,"common_name":"American holly","scientific_name":["Ilex opaca 'Mae'"],"other_name":null,"cycle":"Perennial","watering":"Average","sunlight":["Full sun","part shade"],"default_image":{"image_id":22013,"license":3,"license_name":null,"license_url":null,"original_url":"https://perenual.com/storage/species_image/4245_ilex_opaca_mcdonald/og/52484474364_10705c1fa1_b.jpg","regular_url":"https://perenual.com/storage/species_image/4245_ilex_opaca_mcdonald/regular/52484474364_10705c1fa1_b.jpg","medium_url":"https://perenual.com/storage/species_image/4245_ilex_opaca_mcdonald/medium/52484474364_10705c1fa1_b.jpg","small_url":"https://perenual.com/storage/species_image/4245_ilex_opaca_mcdonald/small/52484474364_10705c1fa1_b.jpg","thumbnail":"https://perenual.com/storage/species_image/4245_ilex_opaca_mcdonald/thumbnail/52484474364_10705c1fa1_b.jpg"}},{"id":4243,"common_name":"American holly","scientific_name":["Ilex opaca 'Mamie Eisenhower'"],"other_name":null,"cycle":"Perennial","watering":"Average","sunlight":["Full sun","part shade"],"default_image":{"image_id":8621,"license":4,"license_name":"Attribution License","license_url":"https://creativecommons.org/licenses/by/2.0/","original_url":"https://perenual.com/storage/species_image/4245_ilex_opaca_mcdonald/og/51817039856_d430bbaec9_b.jpg","regular_url":"https://perenual.com/storage/species_image/4245_ilex_opaca_mcdonald/regular/51817039856_d430bbaec9_b.jpg","medium_url":"https://perenual.com/storage/species_image/4245_ilex_opaca_mcdonald/medium/51817039856_d430bbaec9_b.jpg","small_url":"https://perenual.com/storage/species_image/4245_ilex_opaca_mcdonald/small/51817039856_d430bbaec9_b.jpg","thumbnail":"https://perenual.com/storage/species_image/4245_ilex_opaca_mcdonald/thumbnail/51817039856_d430bbaec9_b.jpg"}},{"id":4244,"common_name":"American holly","scientific_name":["Ilex opaca 'Maryland Dwarf'"],"other_name":null,"cycle":"Perennial","watering":"Average","sunlight":["Full sun","part shade"],"default_image":{"image_id":9,"license":5,"license_name":"Attribution-ShareAlike License","license_url":"https://creativecommons.org/licenses/by-sa/2.0/","original_url":"https://perenual.com/storage/species_image/2_abies_alba_pyramidalis/og/49255769768_df55596553_b.jpg","regular_url":"https://perenual.com/storage/species_image/2_abies_alba_pyramidalis/regular/49255769768_df55596553_b.jpg","medium_url":"https://perenual.com/storage/species_image/2_abies_alba_pyramidalis/medium/49255769768_df55596553_b.jpg","small_url":"https://perenual.com/storage/species_image/2_abies_alba_pyramidalis/small/49255769768_df55596553_b.jpg","thumbnail":"https://perenual.com/storage/species_image/2_abies_alba_pyramidalis/thumbnail/49255769768_df55596553_b.jpg"}},{"id":4245,"common_name":"American holly","scientific_name":["Ilex opaca 'McDonald'"],"other_name":null,"cycle":"Perennial","watering":"Average","sunlight":["Full sun","part shade"],"default_image":{"image_id":22013,"license":3,"license_name":null,"license_url":null,"original_url":"https://perenual.com/storage/species_image/4245_ilex_opaca_mcdonald/og/52484474364_10705c1fa1_b.jpg","regular_url":"https://perenual.com/storage/species_image/4245_ilex_opaca_mcdonald/regular/52484474364_10705c1fa1_b.jpg","medium_url":"https://perenual.com/storage/species_image/4245_ilex_opaca_mcdonald/medium/52484474364_10705c1fa1_b.jpg","small_url":"https://perenual.com/storage/species_image/4245_ilex_opaca_mcdonald/small/52484474364_10705c1fa1_b.jpg","thumbnail":"https://perenual.com/storage/species_image/4245_ilex_opaca_mcdonald/thumbnail/52484474364_10705c1fa1_b.jpg"}},{"id":4246,"common_name":"American holly","scientific_name":["Ilex opaca 'Miss Helen'"],"other_name":null,"cycle":"Perennial","watering":"Average","sunlight":["Full sun","part shade"],"default_image":{"image_id":8616,"license":4,"license_name":"Attribution License","license_url":"https://creativecommons.org/licenses/by/2.0/","original_url":"https://perenual.com/storage/species_image/4246_ilex_opaca_miss_helen/og/52032688720_94422755eb_b.jpg","regular_url":"https://perenual.com/storage/species_image/4246_ilex_opaca_miss_helen/regular/52032688720_94422755eb_b.jpg","medium_url":"https://perenual.com/storage/species_image/4246_ilex_opaca_miss_helen/medium/52032688720_94422755eb_b.jpg","small_url":"https://perenual.com/storage/species_image/4246_ilex_opaca_miss_helen/small/52032688720_94422755eb_b.jpg","thumbnail":"https://perenual.com/storage/species_image/4246_ilex_opaca_miss_helen/thumbnail/52032688720_94422755eb_b.jpg"}},{"id":4247,"common_name":"American holly","scientific_name":["Ilex opaca 'Steward's Silver Crown'"],"other_name":null,"cycle":"Perennial","watering":"Average","sunlight":["Full sun","part shade"],"default_image":{"image_id":9,"license":5,"license_name":"Attribution-ShareAlike License","license_url":"https://creativecommons.org/licenses/by-sa/2.0/","original_url":"https://perenual.com/storage/species_image/2_abies_alba_pyramidalis/og/49255769768_df55596553_b.jpg","regular_url":"https://perenual.com/storage/species_image/2_abies_alba_pyramidalis/regular/49255769768_df55596553_b.jpg","medium_url":"https://perenual.com/storage/species_image/2_abies_alba_pyramidalis/medium/49255769768_df55596553_b.jpg","small_url":"https://perenual.com/storage/species_image/2_abies_alba_pyramidalis/small/49255769768_df55596553_b.jpg","thumbnail":"https://perenual.com/storage/species_image/2_abies_alba_pyramidalis/thumbnail/49255769768_df55596553_b.jpg"}},{"id":4248,"common_name":"American holly","scientific_name":["Ilex opaca 'W. M. Hawkins'"],"other_name":null,"cycle":"Perennial","watering":"Average","sunlight":["Full sun","part shade"],"default_image":{"image_id":8626,"license":451,"license_name":"CC0 1.0 Universal (CC0 1.0) Public Domain Dedication","license_url":"https://creativecommons.org/publicdomain/zero/1.0/","original_url":"https://perenual.com/storage/species_image/4248_ilex_opaca_w_m_hawkins/og/berries_blur_bokeh_close_up_depth_of_field_focus_fresh_freshness-1558731.jpg","regular_url":"https://perenual.com/storage/species_image/4248_ilex_opaca_w_m_hawkins/regular/berries_blur_bokeh_close_up_depth_of_field_focus_fresh_freshness-1558731.jpg","medium_url":"https://perenual.com/storage/species_image/4248_ilex_opaca_w_m_hawkins/medium/berries_blur_bokeh_close_up_depth_of_field_focus_fresh_freshness-1558731.jpg","small_url":"https://perenual.com/storage/species_image/4248_ilex_opaca_w_m_hawkins/small/berries_blur_bokeh_close_up_depth_of_field_focus_fresh_freshness-1558731.jpg","thumbnail":"https://perenual.com/storage/species_image/4248_ilex_opaca_w_m_hawkins/thumbnail/berries_blur_bokeh_close_up_depth_of_field_focus_fresh_freshness-1558731.jpg"}},{"id":4249,"common_name":"holly","scientific_name":["Ilex opaca 'Waysides Christmas Tree'"],"other_name":null,"cycle":"Perennial","watering":"Average","sunlight":["Full sun","part shade"],"default_image":{"image_id":8627,"license":4,"license_name":"Attribution License","license_url":"https://creativecommons.org/licenses/by/2.0/","original_url":"https://perenual.com/storage/species_image/4249_ilex_opaca_waysides_christmas_tree/og/52596702160_2f71fbc1cf_b.jpg","regular_url":"https://perenual.com/storage/species_image/4249_ilex_opaca_waysides_christmas_tree/regular/52596702160_2f71fbc1cf_b.jpg","medium_url":"https://perenual.com/storage/species_image/4249_ilex_opaca_waysides_christmas_tree/medium/52596702160_2f71fbc1cf_b.jpg","small_url":"https://perenual.com/storage/species_image/4249_ilex_opaca_waysides_christmas_tree/small/52596702160_2f71fbc1cf_b.jpg","thumbnail":"https://perenual.com/storage/species_image/4249_ilex_opaca_waysides_christmas_tree/thumbnail/52596702160_2f71fbc1cf_b.jpg"}},{"id":4250,"common_name":"American holly","scientific_name":["Ilex opaca 'William Hawkins'"],"other_name":null,"cycle":"Perennial","watering":"Average","sunlight":["Full sun","part shade"],"default_image":{"image_id":9,"license":5,"license_name":"Attribution-ShareAlike License","license_url":"https://creativecommons.org/licenses/by-sa/2.0/","original_url":"https://perenual.com/storage/species_image/2_abies_alba_pyramidalis/og/49255769768_df55596553_b.jpg","regular_url":"https://perenual.com/storage/species_image/2_abies_alba_pyramidalis/regular/49255769768_df55596553_b.jpg","medium_url":"https://perenual.com/storage/species_image/2_abies_alba_pyramidalis/medium/49255769768_df55596553_b.jpg","small_url":"https://perenual.com/storage/species_image/2_abies_alba_pyramidalis/small/49255769768_df55596553_b.jpg","thumbnail":"https://perenual.com/storage/species_image/2_abies_alba_pyramidalis/thumbnail/49255769768_df55596553_b.jpg"}},{"id":4251,"common_name":"longstalk holly","scientific_name":["Ilex pedunculosa"],"other_name":null,"cycle":"Perennial","watering":"Average","sunlight":["Full sun","part shade"],"default_image":{"image_id":8630,"license":5,"license_name":"Attribution-ShareAlike License","license_url":"https://creativecommons.org/licenses/by-sa/2.0/","original_url":"https://perenual.com/storage/species_image/4251_ilex_pedunculosa/og/47057274562_fc8cae68ab_b.jpg","regular_url":"https://perenual.com/storage/species_image/4251_ilex_pedunculosa/regular/47057274562_fc8cae68ab_b.jpg","medium_url":"https://perenual.com/storage/species_image/4251_ilex_pedunculosa/medium/47057274562_fc8cae68ab_b.jpg","small_url":"https://perenual.com/storage/species_image/4251_ilex_pedunculosa/small/47057274562_fc8cae68ab_b.jpg","thumbnail":"https://perenual.com/storage/species_image/4251_ilex_pedunculosa/thumbnail/47057274562_fc8cae68ab_b.jpg"}},{"id":4252,"common_name":"holly","scientific_name":["Ilex 'Rock Garden'"],"other_name":null,"cycle":"Perennial","watering":"Average","sunlight":["Full sun","part shade"],"default_image":{"image_id":9,"license":5,"license_name":"Attribution-ShareAlike License","license_url":"https://creativecommons.org/licenses/by-sa/2.0/","original_url":"https://perenual.com/storage/species_image/2_abies_alba_pyramidalis/og/49255769768_df55596553_b.jpg","regular_url":"https://perenual.com/storage/species_image/2_abies_alba_pyramidalis/regular/49255769768_df55596553_b.jpg","medium_url":"https://perenual.com/storage/species_image/2_abies_alba_pyramidalis/medium/49255769768_df55596553_b.jpg","small_url":"https://perenual.com/storage/species_image/2_abies_alba_pyramidalis/small/49255769768_df55596553_b.jpg","thumbnail":"https://perenual.com/storage/species_image/2_abies_alba_pyramidalis/thumbnail/49255769768_df55596553_b.jpg"}},{"id":4253,"common_name":"winterberry","scientific_name":["Ilex 'Sparkleberry'"],"other_name":null,"cycle":"Perennial","watering":"Frequent","sunlight":["Full sun","part shade"],"default_image":{"image_id":8640,"license":4,"license_name":"Attribution License","license_url":"https://creativecommons.org/licenses/by/2.0/","original_url":"https://perenual.com/storage/species_image/4254_ilex_verticillata/og/52314300776_8e773bc9e2_b.jpg","regular_url":"https://perenual.com/storage/species_image/4254_ilex_verticillata/regular/52314300776_8e773bc9e2_b.jpg","medium_url":"https://perenual.com/storage/species_image/4254_ilex_verticillata/medium/52314300776_8e773bc9e2_b.jpg","small_url":"https://perenual.com/storage/species_image/4254_ilex_verticillata/small/52314300776_8e773bc9e2_b.jpg","thumbnail":"https://perenual.com/storage/species_image/4254_ilex_verticillata/thumbnail/52314300776_8e773bc9e2_b.jpg"}},{"id":4254,"common_name":"winterberry","scientific_name":["Ilex verticillata"],"other_name":null,"cycle":"Perennial","watering":"Frequent","sunlight":["Full sun","part shade"],"default_image":{"image_id":8640,"license":4,"license_name":"Attribution License","license_url":"https://creativecommons.org/licenses/by/2.0/","original_url":"https://perenual.com/storage/species_image/4254_ilex_verticillata/og/52314300776_8e773bc9e2_b.jpg","regular_url":"https://perenual.com/storage/species_image/4254_ilex_verticillata/regular/52314300776_8e773bc9e2_b.jpg","medium_url":"https://perenual.com/storage/species_image/4254_ilex_verticillata/medium/52314300776_8e773bc9e2_b.jpg","small_url":"https://perenual.com/storage/species_image/4254_ilex_verticillata/small/52314300776_8e773bc9e2_b.jpg","thumbnail":"https://perenual.com/storage/species_image/4254_ilex_verticillata/thumbnail/52314300776_8e773bc9e2_b.jpg"}},{"id":4255,"common_name":"winterberry","scientific_name":["Ilex verticillata 'Afterglow'"],"other_name":null,"cycle":"Perennial","watering":"Frequent","sunlight":["Full sun","part shade"],"default_image":{"image_id":8648,"license":4,"license_name":"Attribution License","license_url":"https://creativecommons.org/licenses/by/2.0/","original_url":"https://perenual.com/storage/species_image/4255_ilex_verticillata_afterglow/og/52600579039_14e62bc463_b.jpg","regular_url":"https://perenual.com/storage/species_image/4255_ilex_verticillata_afterglow/regular/52600579039_14e62bc463_b.jpg","medium_url":"https://perenual.com/storage/species_image/4255_ilex_verticillata_afterglow/medium/52600579039_14e62bc463_b.jpg","small_url":"https://perenual.com/storage/species_image/4255_ilex_verticillata_afterglow/small/52600579039_14e62bc463_b.jpg","thumbnail":"https://perenual.com/storage/species_image/4255_ilex_verticillata_afterglow/thumbnail/52600579039_14e62bc463_b.jpg"}},{"id":4256,"common_name":"winterberry","scientific_name":["Ilex verticillata 'Cacapon'"],"other_name":null,"cycle":"Perennial","watering":"Frequent","sunlight":["Full sun","part shade"],"default_image":{"image_id":8649,"license":4,"license_name":"Attribution License","license_url":"https://creativecommons.org/licenses/by/2.0/","original_url":"https://perenual.com/storage/species_image/4264_ilex_verticillata_spriber_berry_nice/og/52314743415_17b1143c45_b.jpg","regular_url":"https://perenual.com/storage/species_image/4264_ilex_verticillata_spriber_berry_nice/regular/52314743415_17b1143c45_b.jpg","medium_url":"https://perenual.com/storage/species_image/4264_ilex_verticillata_spriber_berry_nice/medium/52314743415_17b1143c45_b.jpg","small_url":"https://perenual.com/storage/species_image/4264_ilex_verticillata_spriber_berry_nice/small/52314743415_17b1143c45_b.jpg","thumbnail":"https://perenual.com/storage/species_image/4264_ilex_verticillata_spriber_berry_nice/thumbnail/52314743415_17b1143c45_b.jpg"}},{"id":4257,"common_name":"winterberry","scientific_name":["Ilex verticillata 'Goldfinch'"],"other_name":null,"cycle":"Perennial","watering":"Frequent","sunlight":["Full sun","part shade"],"default_image":{"image_id":9,"license":5,"license_name":"Attribution-ShareAlike License","license_url":"https://creativecommons.org/licenses/by-sa/2.0/","original_url":"https://perenual.com/storage/species_image/2_abies_alba_pyramidalis/og/49255769768_df55596553_b.jpg","regular_url":"https://perenual.com/storage/species_image/2_abies_alba_pyramidalis/regular/49255769768_df55596553_b.jpg","medium_url":"https://perenual.com/storage/species_image/2_abies_alba_pyramidalis/medium/49255769768_df55596553_b.jpg","small_url":"https://perenual.com/storage/species_image/2_abies_alba_pyramidalis/small/49255769768_df55596553_b.jpg","thumbnail":"https://perenual.com/storage/species_image/2_abies_alba_pyramidalis/thumbnail/49255769768_df55596553_b.jpg"}},{"id":4258,"common_name":"winterberry","scientific_name":["Ilex verticillata 'Jim Dandy'"],"other_name":null,"cycle":"Perennial","watering":"Frequent","sunlight":["Full sun","part shade"],"default_image":{"image_id":9,"license":5,"license_name":"Attribution-ShareAlike License","license_url":"https://creativecommons.org/licenses/by-sa/2.0/","original_url":"https://perenual.com/storage/species_image/2_abies_alba_pyramidalis/og/49255769768_df55596553_b.jpg","regular_url":"https://perenual.com/storage/species_image/2_abies_alba_pyramidalis/regular/49255769768_df55596553_b.jpg","medium_url":"https://perenual.com/storage/species_image/2_abies_alba_pyramidalis/medium/49255769768_df55596553_b.jpg","small_url":"https://perenual.com/storage/species_image/2_abies_alba_pyramidalis/small/49255769768_df55596553_b.jpg","thumbnail":"https://perenual.com/storage/species_image/2_abies_alba_pyramidalis/thumbnail/49255769768_df55596553_b.jpg"}},{"id":4259,"common_name":"winterberry","scientific_name":["Ilex verticillata 'Maryland Beauty'"],"other_name":null,"cycle":"Perennial","watering":"Frequent","sunlight":["Full sun","part shade"],"default_image":{"image_id":9,"license":5,"license_name":"Attribution-ShareAlike License","license_url":"https://creativecommons.org/licenses/by-sa/2.0/","original_url":"https://perenual.com/storage/species_image/2_abies_alba_pyramidalis/og/49255769768_df55596553_b.jpg","regular_url":"https://perenual.com/storage/species_image/2_abies_alba_pyramidalis/regular/49255769768_df55596553_b.jpg","medium_url":"https://perenual.com/storage/species_image/2_abies_alba_pyramidalis/medium/49255769768_df55596553_b.jpg","small_url":"https://perenual.com/storage/species_image/2_abies_alba_pyramidalis/small/49255769768_df55596553_b.jpg","thumbnail":"https://perenual.com/storage/species_image/2_abies_alba_pyramidalis/thumbnail/49255769768_df55596553_b.jpg"}},{"id":4260,"common_name":"winterberry","scientific_name":["Ilex verticillata 'Nana' RED SPRITE"],"other_name":null,"cycle":"Perennial","watering":"Frequent","sunlight":["Full sun","part shade"],"default_image":{"image_id":8648,"license":4,"license_name":"Attribution License","license_url":"https://creativecommons.org/licenses/by/2.0/","original_url":"https://perenual.com/storage/species_image/4255_ilex_verticillata_afterglow/og/52600579039_14e62bc463_b.jpg","regular_url":"https://perenual.com/storage/species_image/4255_ilex_verticillata_afterglow/regular/52600579039_14e62bc463_b.jpg","medium_url":"https://perenual.com/storage/species_image/4255_ilex_verticillata_afterglow/medium/52600579039_14e62bc463_b.jpg","small_url":"https://perenual.com/storage/species_image/4255_ilex_verticillata_afterglow/small/52600579039_14e62bc463_b.jpg","thumbnail":"https://perenual.com/storage/species_image/4255_ilex_verticillata_afterglow/thumbnail/52600579039_14e62bc463_b.jpg"}}],"to":4260,"per_page":30,"current_page":142,"from":4231,"last_page":200,"total":6000}