{"data":[{"id":781,"common_name":"shining blue star","scientific_name":["Amsonia illustris"],"other_name":null,"cycle":"Perennial","watering":"Average","sunlight":["Full sun","part shade"],"default_image":{"image_id":9,"license":5,"license_name":"Attribution-ShareAlike License","license_url":"https://creativecommons.org/licenses/by-sa/2.0/","original_url":"https://perenual.com/storage/species_image/2_abies_alba_pyramidalis/og/49255769768_df55596553_b.jpg","regular_url":"https://perenual.com/storage/species_image/2_abies_alba_pyramidalis/regular/49255769768_df55596553_b.jpg","medium_url":"https://perenual.com/storage/species_image/2_abies_alba_pyramidalis/medium/49255769768_df55596553_b.jpg","small_url":"https://perenual.com/storage/species_image/2_abies_alba_pyramidalis/small/49255769768_df55596553_b.jpg","thumbnail":"https://perenual.com/storage/species_image/2_abies_alba_pyramidalis/thumbnail/49255769768_df55596553_b.jpg"}},{"id":782,"common_name":"blue star","scientific_name":["Amsonia 'Midway to Montana'"],"other_name":null,"cycle":"Perennial","watering":"Average","sunlight":["Full sun","part shade"],"default_image":{"image_id":9,"license":5,"license_name":"Attribution-ShareAlike License","license_url":"https://creativecommons.org/licenses/by-sa/2.0/","original_url":"https://perenual.com/storage/species_image/2_abies_alba_pyramidalis/og/49255769768_df55596553_b.jpg","regular_url":"https://perenual.com/storage/species_image/2_abies_alba_pyramidalis/regular/49255769768_df55596553_b.jpg","medium_url":"https://perenual.com/storage/species_image/2_abies_alba_pyramidalis/medium/49255769768_df55596553_b.jpg","small_url":"https://perenual.com/storage/species_image/2_abies_alba_pyramidalis/small/49255769768_df55596553_b.jpg","thumbnail":"https://perenual.com/storage/species_image/2_abies_alba_pyramidalis/thumbnail/49255769768_df55596553_b.jpg"}},{"id":783,"common_name":"blue star","scientific_name":["Amsonia 'Seaford Skies'"],"other_name":null,"cycle":"Perennial","watering":"Average","sunlight":["Full sun","part shade"],"default_image":{"image_id":21227,"license":45,"license_name":"Attribution-ShareAlike 3.0 Unported (CC BY-SA 3.0)","license_url":"https://creativecommons.org/licenses/by-sa/3.0/deed.en","original_url":"https://perenual.com/storage/species_image/784_amsonia_starstruck/og/Amsonia-tabernaemontana-flowers.jpg","regular_url":"https://perenual.com/storage/species_image/784_amsonia_starstruck/regular/Amsonia-tabernaemontana-flowers.jpg","medium_url":"https://perenual.com/storage/species_image/784_amsonia_starstruck/medium/Amsonia-tabernaemontana-flowers.jpg","small_url":"https://perenual.com/storage/species_image/784_amsonia_starstruck/small/Amsonia-tabernaemontana-flowers.jpg","thumbnail":"https://perenual.com/storage/species_image/784_amsonia_starstruck/thumbnail/Amsonia-tabernaemontana-flowers.jpg"}},{"id":784,"common_name":"blue star","scientific_name":["Amsonia 'Starstruck'"],"other_name":null,"cycle":"Perennial","watering":"Average","sunlight":["Full sun","part shade"],"default_image":{"image_id":21227,"license":45,"license_name":"Attribution-ShareAlike 3.0 Unported (CC BY-SA 3.0)","license_url":"https://creativecommons.org/licenses/by-sa/3.0/deed.en","original_url":"https://perenual.com/storage/species_image/784_amsonia_starstruck/og/Amsonia-tabernaemontana-flowers.jpg","regular_url":"https://perenual.com/storage/species_image/784_amsonia_starstruck/regular/Amsonia-tabernaemontana-flowers.jpg","medium_url":"https://perenual.com/storage/species_image/784_amsonia_starstruck/medium/Amsonia-tabernaemontana-flowers.jpg","small_url":"https://perenual.com/storage/species_image/784_amsonia_starstruck/small/Amsonia-tabernaemontana-flowers.jpg","thumbnail":"https://perenual.com/storage/species_image/784_amsonia_starstruck/thumbnail/Amsonia-tabernaemontana-flowers.jpg"}},{"id":785,"common_name":"blue star","scientific_name":["Amsonia tabernaemontana"],"other_name":null,"cycle":"Perennial","watering":"Average","sunlight":["Full sun","part shade"],"default_image":{"image_id":1770,"license":5,"license_name":"Attribution-ShareAlike License","license_url":"https://creativecommons.org/licenses/by-sa/2.0/","original_url":"https://perenual.com/storage/species_image/785_amsonia_tabernaemontana/og/52112822044_620f4a359e_b.jpg","regular_url":"https://perenual.com/storage/species_image/785_amsonia_tabernaemontana/regular/52112822044_620f4a359e_b.jpg","medium_url":"https://perenual.com/storage/species_image/785_amsonia_tabernaemontana/medium/52112822044_620f4a359e_b.jpg","small_url":"https://perenual.com/storage/species_image/785_amsonia_tabernaemontana/small/52112822044_620f4a359e_b.jpg","thumbnail":"https://perenual.com/storage/species_image/785_amsonia_tabernaemontana/thumbnail/52112822044_620f4a359e_b.jpg"}},{"id":786,"common_name":"blue star","scientific_name":["Amsonia tabernaemontana 'Montana'"],"other_name":null,"cycle":"Perennial","watering":"Average","sunlight":["Full sun","part shade"],"default_image":{"image_id":21229,"license":45,"license_name":"Attribution-ShareAlike 3.0 Unported (CC BY-SA 3.0)","license_url":"https://creativecommons.org/licenses/by-sa/3.0/deed.en","original_url":"https://perenual.com/storage/species_image/786_amsonia_tabernaemontana_montana/og/Amsonia_tabernaemontana_Blue_Ice_0zz.jpg","regular_url":"https://perenual.com/storage/species_image/786_amsonia_tabernaemontana_montana/regular/Amsonia_tabernaemontana_Blue_Ice_0zz.jpg","medium_url":"https://perenual.com/storage/species_image/786_amsonia_tabernaemontana_montana/medium/Amsonia_tabernaemontana_Blue_Ice_0zz.jpg","small_url":"https://perenual.com/storage/species_image/786_amsonia_tabernaemontana_montana/small/Amsonia_tabernaemontana_Blue_Ice_0zz.jpg","thumbnail":"https://perenual.com/storage/species_image/786_amsonia_tabernaemontana_montana/thumbnail/Amsonia_tabernaemontana_Blue_Ice_0zz.jpg"}},{"id":787,"common_name":"dwarf blue star","scientific_name":["Amsonia tabernaemontana 'Short Stack'"],"other_name":null,"cycle":"Perennial","watering":"Average","sunlight":["Full sun","part shade"],"default_image":{"image_id":21230,"license":45,"license_name":"Attribution-ShareAlike 3.0 Unported (CC BY-SA 3.0)","license_url":"https://creativecommons.org/licenses/by-sa/3.0/deed.en","original_url":"https://perenual.com/storage/species_image/788_amsonia_tabernaemontana_storm_cloud/og/Amsonia_tabernaemontana_Blue_Ice_2zz.jpg","regular_url":"https://perenual.com/storage/species_image/788_amsonia_tabernaemontana_storm_cloud/regular/Amsonia_tabernaemontana_Blue_Ice_2zz.jpg","medium_url":"https://perenual.com/storage/species_image/788_amsonia_tabernaemontana_storm_cloud/medium/Amsonia_tabernaemontana_Blue_Ice_2zz.jpg","small_url":"https://perenual.com/storage/species_image/788_amsonia_tabernaemontana_storm_cloud/small/Amsonia_tabernaemontana_Blue_Ice_2zz.jpg","thumbnail":"https://perenual.com/storage/species_image/788_amsonia_tabernaemontana_storm_cloud/thumbnail/Amsonia_tabernaemontana_Blue_Ice_2zz.jpg"}},{"id":788,"common_name":"blue star","scientific_name":["Amsonia tabernaemontana 'Storm Cloud'"],"other_name":null,"cycle":"Perennial","watering":"Average","sunlight":["Full sun","part shade"],"default_image":{"image_id":21230,"license":45,"license_name":"Attribution-ShareAlike 3.0 Unported (CC BY-SA 3.0)","license_url":"https://creativecommons.org/licenses/by-sa/3.0/deed.en","original_url":"https://perenual.com/storage/species_image/788_amsonia_tabernaemontana_storm_cloud/og/Amsonia_tabernaemontana_Blue_Ice_2zz.jpg","regular_url":"https://perenual.com/storage/species_image/788_amsonia_tabernaemontana_storm_cloud/regular/Amsonia_tabernaemontana_Blue_Ice_2zz.jpg","medium_url":"https://perenual.com/storage/species_image/788_amsonia_tabernaemontana_storm_cloud/medium/Amsonia_tabernaemontana_Blue_Ice_2zz.jpg","small_url":"https://perenual.com/storage/species_image/788_amsonia_tabernaemontana_storm_cloud/small/Amsonia_tabernaemontana_Blue_Ice_2zz.jpg","thumbnail":"https://perenual.com/storage/species_image/788_amsonia_tabernaemontana_storm_cloud/thumbnail/Amsonia_tabernaemontana_Blue_Ice_2zz.jpg"}},{"id":789,"common_name":"blue star","scientific_name":["Amsonia tabernaemontana var. salicifolia"],"other_name":null,"cycle":"Perennial","watering":"Average","sunlight":["Full sun","part shade"],"default_image":{"image_id":1774,"license":5,"license_name":"Attribution-ShareAlike License","license_url":"https://creativecommons.org/licenses/by-sa/2.0/","original_url":"https://perenual.com/storage/species_image/789_amsonia_tabernaemontana_var_salicifolia/og/33513881814_1dd810b855_b.jpg","regular_url":"https://perenual.com/storage/species_image/789_amsonia_tabernaemontana_var_salicifolia/regular/33513881814_1dd810b855_b.jpg","medium_url":"https://perenual.com/storage/species_image/789_amsonia_tabernaemontana_var_salicifolia/medium/33513881814_1dd810b855_b.jpg","small_url":"https://perenual.com/storage/species_image/789_amsonia_tabernaemontana_var_salicifolia/small/33513881814_1dd810b855_b.jpg","thumbnail":"https://perenual.com/storage/species_image/789_amsonia_tabernaemontana_var_salicifolia/thumbnail/33513881814_1dd810b855_b.jpg"}},{"id":790,"common_name":"blue pimpernel","scientific_name":["Anagallis monelli"],"other_name":null,"cycle":"Perennial","watering":"Average","sunlight":["Full sun"],"default_image":{"image_id":1776,"license":6,"license_name":"Attribution-NoDerivs License","license_url":"https://creativecommons.org/licenses/by-nd/2.0/","original_url":"https://perenual.com/storage/species_image/790_anagallis_monelli/og/49401044388_fc4c474cef_b.jpg"}},{"id":791,"common_name":"pineapple","scientific_name":["Ananas comosus"],"other_name":null,"cycle":"Perennial","watering":"Average","sunlight":["Full sun"],"default_image":{"image_id":1785,"license":4,"license_name":"Attribution License","license_url":"https://creativecommons.org/licenses/by/2.0/","original_url":"https://perenual.com/storage/species_image/791_ananas_comosus/og/34419208613_3b3d2ae347_b.jpg","regular_url":"https://perenual.com/storage/species_image/791_ananas_comosus/regular/34419208613_3b3d2ae347_b.jpg","medium_url":"https://perenual.com/storage/species_image/791_ananas_comosus/medium/34419208613_3b3d2ae347_b.jpg","small_url":"https://perenual.com/storage/species_image/791_ananas_comosus/small/34419208613_3b3d2ae347_b.jpg","thumbnail":"https://perenual.com/storage/species_image/791_ananas_comosus/thumbnail/34419208613_3b3d2ae347_b.jpg"}},{"id":792,"common_name":"pineapple","scientific_name":["Ananas comosus 'Sugarloaf'"],"other_name":null,"cycle":"Perennial","watering":"Average","sunlight":["Full sun"],"default_image":{"image_id":1789,"license":4,"license_name":"Attribution License","license_url":"https://creativecommons.org/licenses/by/2.0/","original_url":"https://perenual.com/storage/species_image/792_ananas_comosus_sugarloaf/og/25144772325_c1d9d73dab_b.jpg","regular_url":"https://perenual.com/storage/species_image/792_ananas_comosus_sugarloaf/regular/25144772325_c1d9d73dab_b.jpg","medium_url":"https://perenual.com/storage/species_image/792_ananas_comosus_sugarloaf/medium/25144772325_c1d9d73dab_b.jpg","small_url":"https://perenual.com/storage/species_image/792_ananas_comosus_sugarloaf/small/25144772325_c1d9d73dab_b.jpg","thumbnail":"https://perenual.com/storage/species_image/792_ananas_comosus_sugarloaf/thumbnail/25144772325_c1d9d73dab_b.jpg"}},{"id":793,"common_name":"variegated pineapple","scientific_name":["Ananas comosus var. variegatus"],"other_name":null,"cycle":"Perennial","watering":"Average","sunlight":["Full sun"],"default_image":{"image_id":21231,"license":4,"license_name":"Attribution License","license_url":"https://creativecommons.org/licenses/by/2.0/","original_url":"https://perenual.com/storage/species_image/793_ananas_comosus_var_variegatus/og/3084408454_c0938466ae_b.jpg","regular_url":"https://perenual.com/storage/species_image/793_ananas_comosus_var_variegatus/regular/3084408454_c0938466ae_b.jpg","medium_url":"https://perenual.com/storage/species_image/793_ananas_comosus_var_variegatus/medium/3084408454_c0938466ae_b.jpg","small_url":"https://perenual.com/storage/species_image/793_ananas_comosus_var_variegatus/small/3084408454_c0938466ae_b.jpg","thumbnail":"https://perenual.com/storage/species_image/793_ananas_comosus_var_variegatus/thumbnail/3084408454_c0938466ae_b.jpg"}},{"id":794,"common_name":"pearly everlasting","scientific_name":["Anaphalis margaritacea"],"other_name":["Western Pearly Everlasting"],"cycle":"Perennial","watering":"Minimum","sunlight":["Sun"],"default_image":{"image_id":1793,"license":4,"license_name":"Attribution License","license_url":"https://creativecommons.org/licenses/by/2.0/","original_url":"https://perenual.com/storage/species_image/794_anaphalis_margaritacea/og/51637179515_76fcd9a6e8_b.jpg","regular_url":"https://perenual.com/storage/species_image/794_anaphalis_margaritacea/regular/51637179515_76fcd9a6e8_b.jpg","medium_url":"https://perenual.com/storage/species_image/794_anaphalis_margaritacea/medium/51637179515_76fcd9a6e8_b.jpg","small_url":"https://perenual.com/storage/species_image/794_anaphalis_margaritacea/small/51637179515_76fcd9a6e8_b.jpg","thumbnail":"https://perenual.com/storage/species_image/794_anaphalis_margaritacea/thumbnail/51637179515_76fcd9a6e8_b.jpg"}},{"id":795,"common_name":"pearly everlasting","scientific_name":["Anaphalis triplinervis"],"other_name":null,"cycle":"Perennial","watering":"Frequent","sunlight":["Full sun","part shade"],"default_image":{"image_id":9,"license":5,"license_name":"Attribution-ShareAlike License","license_url":"https://creativecommons.org/licenses/by-sa/2.0/","original_url":"https://perenual.com/storage/species_image/2_abies_alba_pyramidalis/og/49255769768_df55596553_b.jpg","regular_url":"https://perenual.com/storage/species_image/2_abies_alba_pyramidalis/regular/49255769768_df55596553_b.jpg","medium_url":"https://perenual.com/storage/species_image/2_abies_alba_pyramidalis/medium/49255769768_df55596553_b.jpg","small_url":"https://perenual.com/storage/species_image/2_abies_alba_pyramidalis/small/49255769768_df55596553_b.jpg","thumbnail":"https://perenual.com/storage/species_image/2_abies_alba_pyramidalis/thumbnail/49255769768_df55596553_b.jpg"}},{"id":796,"common_name":"blue bugloss","scientific_name":["Anchusa azurea"],"other_name":null,"cycle":"Perennial","watering":"Average","sunlight":[],"default_image":{"image_id":1803,"license":4,"license_name":"Attribution License","license_url":"https://creativecommons.org/licenses/by/2.0/","original_url":"https://perenual.com/storage/species_image/796_anchusa_azurea/og/51160919913_307408ffe1_b.jpg","regular_url":"https://perenual.com/storage/species_image/796_anchusa_azurea/regular/51160919913_307408ffe1_b.jpg","medium_url":"https://perenual.com/storage/species_image/796_anchusa_azurea/medium/51160919913_307408ffe1_b.jpg","small_url":"https://perenual.com/storage/species_image/796_anchusa_azurea/small/51160919913_307408ffe1_b.jpg","thumbnail":"https://perenual.com/storage/species_image/796_anchusa_azurea/thumbnail/51160919913_307408ffe1_b.jpg"}},{"id":797,"common_name":"blue bugloss","scientific_name":["Anchusa azurea 'Dropmore'"],"other_name":null,"cycle":"Perennial","watering":"Average","sunlight":[],"default_image":{"image_id":9,"license":5,"license_name":"Attribution-ShareAlike License","license_url":"https://creativecommons.org/licenses/by-sa/2.0/","original_url":"https://perenual.com/storage/species_image/2_abies_alba_pyramidalis/og/49255769768_df55596553_b.jpg","regular_url":"https://perenual.com/storage/species_image/2_abies_alba_pyramidalis/regular/49255769768_df55596553_b.jpg","medium_url":"https://perenual.com/storage/species_image/2_abies_alba_pyramidalis/medium/49255769768_df55596553_b.jpg","small_url":"https://perenual.com/storage/species_image/2_abies_alba_pyramidalis/small/49255769768_df55596553_b.jpg","thumbnail":"https://perenual.com/storage/species_image/2_abies_alba_pyramidalis/thumbnail/49255769768_df55596553_b.jpg"}},{"id":798,"common_name":"blue bugloss","scientific_name":["Anchusa azurea 'Loddon Royalist'"],"other_name":null,"cycle":"Perennial","watering":"Average","sunlight":[],"default_image":{"image_id":21234,"license":45,"license_name":"Attribution-ShareAlike 3.0 Unported (CC BY-SA 3.0)","license_url":"https://creativecommons.org/licenses/by-sa/3.0/deed.en","original_url":"https://perenual.com/storage/species_image/798_anchusa_azurea_loddon_royalist/og/Buglossoides_purpurocaeruleum02.jpg","regular_url":"https://perenual.com/storage/species_image/798_anchusa_azurea_loddon_royalist/regular/Buglossoides_purpurocaeruleum02.jpg","medium_url":"https://perenual.com/storage/species_image/798_anchusa_azurea_loddon_royalist/medium/Buglossoides_purpurocaeruleum02.jpg","small_url":"https://perenual.com/storage/species_image/798_anchusa_azurea_loddon_royalist/small/Buglossoides_purpurocaeruleum02.jpg","thumbnail":"https://perenual.com/storage/species_image/798_anchusa_azurea_loddon_royalist/thumbnail/Buglossoides_purpurocaeruleum02.jpg"}},{"id":799,"common_name":"bluestem","scientific_name":["Andropogon capillipes 'Valdosta Blue'"],"other_name":null,"cycle":"Perennial","watering":"Frequent","sunlight":["Full sun","part shade"],"default_image":{"image_id":1810,"license":5,"license_name":"Attribution-ShareAlike License","license_url":"https://creativecommons.org/licenses/by-sa/2.0/","original_url":"https://perenual.com/storage/species_image/802_andropogon_gerardii_dancing_wind/og/48666137008_7f8da5fb3a_b.jpg","regular_url":"https://perenual.com/storage/species_image/802_andropogon_gerardii_dancing_wind/regular/48666137008_7f8da5fb3a_b.jpg","medium_url":"https://perenual.com/storage/species_image/802_andropogon_gerardii_dancing_wind/medium/48666137008_7f8da5fb3a_b.jpg","small_url":"https://perenual.com/storage/species_image/802_andropogon_gerardii_dancing_wind/small/48666137008_7f8da5fb3a_b.jpg","thumbnail":"https://perenual.com/storage/species_image/802_andropogon_gerardii_dancing_wind/thumbnail/48666137008_7f8da5fb3a_b.jpg"}},{"id":800,"common_name":"big blue stem","scientific_name":["Andropogon gerardii"],"other_name":null,"cycle":"Perennial","watering":"Minimum","sunlight":["Sun"," Partial Shade"],"default_image":{"image_id":1809,"license":5,"license_name":"Attribution-ShareAlike License","license_url":"https://creativecommons.org/licenses/by-sa/2.0/","original_url":"https://perenual.com/storage/species_image/800_andropogon_gerardii/og/48666647122_e3f737af92_b.jpg","regular_url":"https://perenual.com/storage/species_image/800_andropogon_gerardii/regular/48666647122_e3f737af92_b.jpg","medium_url":"https://perenual.com/storage/species_image/800_andropogon_gerardii/medium/48666647122_e3f737af92_b.jpg","small_url":"https://perenual.com/storage/species_image/800_andropogon_gerardii/small/48666647122_e3f737af92_b.jpg","thumbnail":"https://perenual.com/storage/species_image/800_andropogon_gerardii/thumbnail/48666647122_e3f737af92_b.jpg"}},{"id":801,"common_name":"big blue stem","scientific_name":["Andropogon gerardii 'Blackhawks'"],"other_name":null,"cycle":"Perennial","watering":"Minimum","sunlight":["Sun"," Partial Shade"],"default_image":{"image_id":1811,"license":4,"license_name":"Attribution License","license_url":"https://creativecommons.org/licenses/by/2.0/","original_url":"https://perenual.com/storage/species_image/801_andropogon_gerardii_blackhawks/og/48861101783_1a37768f23_b.jpg","regular_url":"https://perenual.com/storage/species_image/801_andropogon_gerardii_blackhawks/regular/48861101783_1a37768f23_b.jpg","medium_url":"https://perenual.com/storage/species_image/801_andropogon_gerardii_blackhawks/medium/48861101783_1a37768f23_b.jpg","small_url":"https://perenual.com/storage/species_image/801_andropogon_gerardii_blackhawks/small/48861101783_1a37768f23_b.jpg","thumbnail":"https://perenual.com/storage/species_image/801_andropogon_gerardii_blackhawks/thumbnail/48861101783_1a37768f23_b.jpg"}},{"id":802,"common_name":"big blue stem","scientific_name":["Andropogon gerardii 'Dancing Wind'"],"other_name":null,"cycle":"Perennial","watering":"Minimum","sunlight":["Sun"," Partial Shade"],"default_image":{"image_id":1810,"license":5,"license_name":"Attribution-ShareAlike License","license_url":"https://creativecommons.org/licenses/by-sa/2.0/","original_url":"https://perenual.com/storage/species_image/802_andropogon_gerardii_dancing_wind/og/48666137008_7f8da5fb3a_b.jpg","regular_url":"https://perenual.com/storage/species_image/802_andropogon_gerardii_dancing_wind/regular/48666137008_7f8da5fb3a_b.jpg","medium_url":"https://perenual.com/storage/species_image/802_andropogon_gerardii_dancing_wind/medium/48666137008_7f8da5fb3a_b.jpg","small_url":"https://perenual.com/storage/species_image/802_andropogon_gerardii_dancing_wind/small/48666137008_7f8da5fb3a_b.jpg","thumbnail":"https://perenual.com/storage/species_image/802_andropogon_gerardii_dancing_wind/thumbnail/48666137008_7f8da5fb3a_b.jpg"}},{"id":803,"common_name":"big blue stem","scientific_name":["Andropogon gerardii 'Red October'"],"other_name":null,"cycle":"Perennial","watering":"Minimum","sunlight":["Sun"," Partial Shade"],"default_image":{"image_id":21235,"license":45,"license_name":"Attribution-ShareAlike 3.0 Unported (CC BY-SA 3.0)","license_url":"https://creativecommons.org/licenses/by-sa/3.0/deed.en","original_url":"https://perenual.com/storage/species_image/803_andropogon_gerardii_red_october/og/190909_065_Chicago_Botanic_Gdn_-_Bulb_Gdn%2C_Andropogon_gerardii_%27Blackhawks%27_Purple-leaf_Big_Bluestem_Grass%2C_Juniperus_x_pfitzeriana_%27Pfitzeriana_Ozark%27_Juniper_%2848861101783%29.jpg","regular_url":"https://perenual.com/storage/species_image/803_andropogon_gerardii_red_october/regular/190909_065_Chicago_Botanic_Gdn_-_Bulb_Gdn%2C_Andropogon_gerardii_%27Blackhawks%27_Purple-leaf_Big_Bluestem_Grass%2C_Juniperus_x_pfitzeriana_%27Pfitzeriana_Ozark%27_Juniper_%2848861101783%29.jpg","medium_url":"https://perenual.com/storage/species_image/803_andropogon_gerardii_red_october/medium/190909_065_Chicago_Botanic_Gdn_-_Bulb_Gdn%2C_Andropogon_gerardii_%27Blackhawks%27_Purple-leaf_Big_Bluestem_Grass%2C_Juniperus_x_pfitzeriana_%27Pfitzeriana_Ozark%27_Juniper_%2848861101783%29.jpg","small_url":"https://perenual.com/storage/species_image/803_andropogon_gerardii_red_october/small/190909_065_Chicago_Botanic_Gdn_-_Bulb_Gdn%2C_Andropogon_gerardii_%27Blackhawks%27_Purple-leaf_Big_Bluestem_Grass%2C_Juniperus_x_pfitzeriana_%27Pfitzeriana_Ozark%27_Juniper_%2848861101783%29.jpg","thumbnail":"https://perenual.com/storage/species_image/803_andropogon_gerardii_red_october/thumbnail/190909_065_Chicago_Botanic_Gdn_-_Bulb_Gdn%2C_Andropogon_gerardii_%27Blackhawks%27_Purple-leaf_Big_Bluestem_Grass%2C_Juniperus_x_pfitzeriana_%27Pfitzeriana_Ozark%27_Juniper_%2848861101783%29.jpg"}},{"id":804,"common_name":"bushy bluestem","scientific_name":["Andropogon glomeratus"],"other_name":null,"cycle":"Perennial","watering":"Frequent","sunlight":["Full sun"],"default_image":{"image_id":1816,"license":4,"license_name":"Attribution License","license_url":"https://creativecommons.org/licenses/by/2.0/","original_url":"https://perenual.com/storage/species_image/804_andropogon_glomeratus/og/25246448476_718627bf93_b.jpg","regular_url":"https://perenual.com/storage/species_image/804_andropogon_glomeratus/regular/25246448476_718627bf93_b.jpg","medium_url":"https://perenual.com/storage/species_image/804_andropogon_glomeratus/medium/25246448476_718627bf93_b.jpg","small_url":"https://perenual.com/storage/species_image/804_andropogon_glomeratus/small/25246448476_718627bf93_b.jpg","thumbnail":"https://perenual.com/storage/species_image/804_andropogon_glomeratus/thumbnail/25246448476_718627bf93_b.jpg"}},{"id":805,"common_name":"Roundleaf Liverleaf","scientific_name":["Anemone americana"],"other_name":null,"cycle":"Perennial","watering":"Average","sunlight":["Part shade"],"default_image":{"image_id":1822,"license":4,"license_name":"Attribution License","license_url":"https://creativecommons.org/licenses/by/2.0/","original_url":"https://perenual.com/storage/species_image/805_anemone_americana/og/26956083207_fbdd787ef8_b.jpg","regular_url":"https://perenual.com/storage/species_image/805_anemone_americana/regular/26956083207_fbdd787ef8_b.jpg","medium_url":"https://perenual.com/storage/species_image/805_anemone_americana/medium/26956083207_fbdd787ef8_b.jpg","small_url":"https://perenual.com/storage/species_image/805_anemone_americana/small/26956083207_fbdd787ef8_b.jpg","thumbnail":"https://perenual.com/storage/species_image/805_anemone_americana/thumbnail/26956083207_fbdd787ef8_b.jpg"}},{"id":806,"common_name":"windflower","scientific_name":["Anemone blanda"],"other_name":["blue wood anemone"],"cycle":"Perennial","watering":"Average","sunlight":[],"default_image":{"image_id":1827,"license":4,"license_name":"Attribution License","license_url":"https://creativecommons.org/licenses/by/2.0/","original_url":"https://perenual.com/storage/species_image/806_anemone_blanda/og/51001349652_f014611b16_b.jpg","regular_url":"https://perenual.com/storage/species_image/806_anemone_blanda/regular/51001349652_f014611b16_b.jpg","medium_url":"https://perenual.com/storage/species_image/806_anemone_blanda/medium/51001349652_f014611b16_b.jpg","small_url":"https://perenual.com/storage/species_image/806_anemone_blanda/small/51001349652_f014611b16_b.jpg","thumbnail":"https://perenual.com/storage/species_image/806_anemone_blanda/thumbnail/51001349652_f014611b16_b.jpg"}},{"id":807,"common_name":"windflower","scientific_name":["Anemone blanda 'Blue Shades'"],"other_name":["blue wood anemone"],"cycle":"Perennial","watering":"Average","sunlight":[],"default_image":{"image_id":1833,"license":5,"license_name":"Attribution-ShareAlike License","license_url":"https://creativecommons.org/licenses/by-sa/2.0/","original_url":"https://perenual.com/storage/species_image/807_anemone_blanda_blue_shades/og/9200911248_d94496dba9_b.jpg","regular_url":"https://perenual.com/storage/species_image/807_anemone_blanda_blue_shades/regular/9200911248_d94496dba9_b.jpg","medium_url":"https://perenual.com/storage/species_image/807_anemone_blanda_blue_shades/medium/9200911248_d94496dba9_b.jpg","small_url":"https://perenual.com/storage/species_image/807_anemone_blanda_blue_shades/small/9200911248_d94496dba9_b.jpg","thumbnail":"https://perenual.com/storage/species_image/807_anemone_blanda_blue_shades/thumbnail/9200911248_d94496dba9_b.jpg"}},{"id":808,"common_name":"windflower","scientific_name":["Anemone blanda 'Blue Star'"],"other_name":["blue wood anemone"],"cycle":"Perennial","watering":"Average","sunlight":[],"default_image":{"image_id":9,"license":5,"license_name":"Attribution-ShareAlike License","license_url":"https://creativecommons.org/licenses/by-sa/2.0/","original_url":"https://perenual.com/storage/species_image/2_abies_alba_pyramidalis/og/49255769768_df55596553_b.jpg","regular_url":"https://perenual.com/storage/species_image/2_abies_alba_pyramidalis/regular/49255769768_df55596553_b.jpg","medium_url":"https://perenual.com/storage/species_image/2_abies_alba_pyramidalis/medium/49255769768_df55596553_b.jpg","small_url":"https://perenual.com/storage/species_image/2_abies_alba_pyramidalis/small/49255769768_df55596553_b.jpg","thumbnail":"https://perenual.com/storage/species_image/2_abies_alba_pyramidalis/thumbnail/49255769768_df55596553_b.jpg"}},{"id":809,"common_name":"windflower","scientific_name":["Anemone blanda 'White Splendour'"],"other_name":["blue wood anemone"],"cycle":"Perennial","watering":"Average","sunlight":[],"default_image":{"image_id":1837,"license":4,"license_name":"Attribution License","license_url":"https://creativecommons.org/licenses/by/2.0/","original_url":"https://perenual.com/storage/species_image/809_anemone_blanda_white_splendour/og/15814358472_a7f25a6bc1_b.jpg","regular_url":"https://perenual.com/storage/species_image/809_anemone_blanda_white_splendour/regular/15814358472_a7f25a6bc1_b.jpg","medium_url":"https://perenual.com/storage/species_image/809_anemone_blanda_white_splendour/medium/15814358472_a7f25a6bc1_b.jpg","small_url":"https://perenual.com/storage/species_image/809_anemone_blanda_white_splendour/small/15814358472_a7f25a6bc1_b.jpg","thumbnail":"https://perenual.com/storage/species_image/809_anemone_blanda_white_splendour/thumbnail/15814358472_a7f25a6bc1_b.jpg"}},{"id":810,"common_name":"windflower","scientific_name":["Anemone canadensis"],"other_name":null,"cycle":"Perennial","watering":"Frequent","sunlight":["Full sun","part shade"],"default_image":{"image_id":1843,"license":5,"license_name":"Attribution-ShareAlike License","license_url":"https://creativecommons.org/licenses/by-sa/2.0/","original_url":"https://perenual.com/storage/species_image/810_anemone_canadensis/og/49993258343_935bc589eb_b.jpg","regular_url":"https://perenual.com/storage/species_image/810_anemone_canadensis/regular/49993258343_935bc589eb_b.jpg","medium_url":"https://perenual.com/storage/species_image/810_anemone_canadensis/medium/49993258343_935bc589eb_b.jpg","small_url":"https://perenual.com/storage/species_image/810_anemone_canadensis/small/49993258343_935bc589eb_b.jpg","thumbnail":"https://perenual.com/storage/species_image/810_anemone_canadensis/thumbnail/49993258343_935bc589eb_b.jpg"}}],"to":810,"per_page":30,"current_page":27,"from":781,"last_page":200,"total":6000}