{"data":[{"id":5851,"common_name":"mock orange","scientific_name":["Philadelphus 'Avalanche'"],"other_name":null,"cycle":"Perennial","watering":"Average","sunlight":["Full sun","part shade"],"default_image":{"image_id":11715,"license":5,"license_name":"Attribution-ShareAlike License","license_url":"https://creativecommons.org/licenses/by-sa/2.0/","original_url":"https://perenual.com/storage/species_image/5851_philadelphus_avalanche/og/14236600757_6e774d17f4_b.jpg","regular_url":"https://perenual.com/storage/species_image/5851_philadelphus_avalanche/regular/14236600757_6e774d17f4_b.jpg","medium_url":"https://perenual.com/storage/species_image/5851_philadelphus_avalanche/medium/14236600757_6e774d17f4_b.jpg","small_url":"https://perenual.com/storage/species_image/5851_philadelphus_avalanche/small/14236600757_6e774d17f4_b.jpg","thumbnail":"https://perenual.com/storage/species_image/5851_philadelphus_avalanche/thumbnail/14236600757_6e774d17f4_b.jpg"}},{"id":5852,"common_name":"mock orange","scientific_name":["Philadelphus 'Belle Etoile'"],"other_name":null,"cycle":"Perennial","watering":"Average","sunlight":["Full sun","part shade"],"default_image":{"image_id":9,"license":5,"license_name":"Attribution-ShareAlike License","license_url":"https://creativecommons.org/licenses/by-sa/2.0/","original_url":"https://perenual.com/storage/species_image/2_abies_alba_pyramidalis/og/49255769768_df55596553_b.jpg","regular_url":"https://perenual.com/storage/species_image/2_abies_alba_pyramidalis/regular/49255769768_df55596553_b.jpg","medium_url":"https://perenual.com/storage/species_image/2_abies_alba_pyramidalis/medium/49255769768_df55596553_b.jpg","small_url":"https://perenual.com/storage/species_image/2_abies_alba_pyramidalis/small/49255769768_df55596553_b.jpg","thumbnail":"https://perenual.com/storage/species_image/2_abies_alba_pyramidalis/thumbnail/49255769768_df55596553_b.jpg"}},{"id":5853,"common_name":"mock orange","scientific_name":["Philadelphus coronarius 'Romanizam' ROMANTIC KNIGHT"],"other_name":null,"cycle":"Perennial","watering":"Average","sunlight":["Full sun","part shade"],"default_image":{"image_id":11719,"license":45,"license_name":"Attribution-ShareAlike 3.0 Unported (CC BY-SA 3.0)","license_url":"https://creativecommons.org/licenses/by-sa/3.0/deed.en","original_url":"https://perenual.com/storage/species_image/5853_philadelphus_coronarius_romanizam_romantic_knight/og/Philadelphus_coronarius_15355.jpg","regular_url":"https://perenual.com/storage/species_image/5853_philadelphus_coronarius_romanizam_romantic_knight/regular/Philadelphus_coronarius_15355.jpg","medium_url":"https://perenual.com/storage/species_image/5853_philadelphus_coronarius_romanizam_romantic_knight/medium/Philadelphus_coronarius_15355.jpg","small_url":"https://perenual.com/storage/species_image/5853_philadelphus_coronarius_romanizam_romantic_knight/small/Philadelphus_coronarius_15355.jpg","thumbnail":"https://perenual.com/storage/species_image/5853_philadelphus_coronarius_romanizam_romantic_knight/thumbnail/Philadelphus_coronarius_15355.jpg"}},{"id":5854,"common_name":"mock orange","scientific_name":["Philadelphus coronarius 'SMNPVG' ILLUMINATI TOWER"],"other_name":null,"cycle":"Perennial","watering":"Average","sunlight":["Full sun","part shade"],"default_image":{"image_id":9,"license":5,"license_name":"Attribution-ShareAlike License","license_url":"https://creativecommons.org/licenses/by-sa/2.0/","original_url":"https://perenual.com/storage/species_image/2_abies_alba_pyramidalis/og/49255769768_df55596553_b.jpg","regular_url":"https://perenual.com/storage/species_image/2_abies_alba_pyramidalis/regular/49255769768_df55596553_b.jpg","medium_url":"https://perenual.com/storage/species_image/2_abies_alba_pyramidalis/medium/49255769768_df55596553_b.jpg","small_url":"https://perenual.com/storage/species_image/2_abies_alba_pyramidalis/small/49255769768_df55596553_b.jpg","thumbnail":"https://perenual.com/storage/species_image/2_abies_alba_pyramidalis/thumbnail/49255769768_df55596553_b.jpg"}},{"id":5855,"common_name":"mock orange","scientific_name":["Philadelphus 'Innocence'"],"other_name":null,"cycle":"Perennial","watering":"Average","sunlight":["Full sun","part shade"],"default_image":{"image_id":11721,"license":5,"license_name":"Attribution-ShareAlike License","license_url":"https://creativecommons.org/licenses/by-sa/2.0/","original_url":"https://perenual.com/storage/species_image/5855_philadelphus_innocence/og/14443226453_9364aff1f4_b.jpg","regular_url":"https://perenual.com/storage/species_image/5855_philadelphus_innocence/regular/14443226453_9364aff1f4_b.jpg","medium_url":"https://perenual.com/storage/species_image/5855_philadelphus_innocence/medium/14443226453_9364aff1f4_b.jpg","small_url":"https://perenual.com/storage/species_image/5855_philadelphus_innocence/small/14443226453_9364aff1f4_b.jpg","thumbnail":"https://perenual.com/storage/species_image/5855_philadelphus_innocence/thumbnail/14443226453_9364aff1f4_b.jpg"}},{"id":5856,"common_name":"mock orange","scientific_name":["Philadelphus lemoinei 'Silver Showers'"],"other_name":null,"cycle":"Perennial","watering":"Average","sunlight":["Full sun","part shade"],"default_image":{"image_id":11722,"license":45,"license_name":"Attribution-ShareAlike 3.0 Unported (CC BY-SA 3.0)","license_url":"https://creativecommons.org/licenses/by-sa/3.0/deed.en","original_url":"https://perenual.com/storage/species_image/5856_philadelphus_lemoinei_silver_showers/og/Philadelphus_%C3%97_lemoinei.jpg","regular_url":"https://perenual.com/storage/species_image/5856_philadelphus_lemoinei_silver_showers/regular/Philadelphus_%C3%97_lemoinei.jpg","medium_url":"https://perenual.com/storage/species_image/5856_philadelphus_lemoinei_silver_showers/medium/Philadelphus_%C3%97_lemoinei.jpg","small_url":"https://perenual.com/storage/species_image/5856_philadelphus_lemoinei_silver_showers/small/Philadelphus_%C3%97_lemoinei.jpg","thumbnail":"https://perenual.com/storage/species_image/5856_philadelphus_lemoinei_silver_showers/thumbnail/Philadelphus_%C3%97_lemoinei.jpg"}},{"id":5857,"common_name":"mock orange","scientific_name":["Philadelphus microphyllus 'June Bride'"],"other_name":null,"cycle":"Perennial","watering":"Minimum","sunlight":["Full sun","part shade"],"default_image":{"image_id":11723,"license":45,"license_name":"Attribution-ShareAlike 3.0 Unported (CC BY-SA 3.0)","license_url":"https://creativecommons.org/licenses/by-sa/3.0/deed.en","original_url":"https://perenual.com/storage/species_image/5857_philadelphus_microphyllus_june_bride/og/Philadelphus_microphyllus_3.jpg","regular_url":"https://perenual.com/storage/species_image/5857_philadelphus_microphyllus_june_bride/regular/Philadelphus_microphyllus_3.jpg","medium_url":"https://perenual.com/storage/species_image/5857_philadelphus_microphyllus_june_bride/medium/Philadelphus_microphyllus_3.jpg","small_url":"https://perenual.com/storage/species_image/5857_philadelphus_microphyllus_june_bride/small/Philadelphus_microphyllus_3.jpg","thumbnail":"https://perenual.com/storage/species_image/5857_philadelphus_microphyllus_june_bride/thumbnail/Philadelphus_microphyllus_3.jpg"}},{"id":5858,"common_name":"mock orange","scientific_name":["Philadelphus 'Miniature Snowflake'"],"other_name":null,"cycle":"Perennial","watering":"Average","sunlight":["Full sun","part shade"],"default_image":{"image_id":11724,"license":5,"license_name":"Attribution-ShareAlike License","license_url":"https://creativecommons.org/licenses/by-sa/2.0/","original_url":"https://perenual.com/storage/species_image/5858_philadelphus_miniature_snowflake/og/17847414079_64cbeb3b6b_b.jpg","regular_url":"https://perenual.com/storage/species_image/5858_philadelphus_miniature_snowflake/regular/17847414079_64cbeb3b6b_b.jpg","medium_url":"https://perenual.com/storage/species_image/5858_philadelphus_miniature_snowflake/medium/17847414079_64cbeb3b6b_b.jpg","small_url":"https://perenual.com/storage/species_image/5858_philadelphus_miniature_snowflake/small/17847414079_64cbeb3b6b_b.jpg","thumbnail":"https://perenual.com/storage/species_image/5858_philadelphus_miniature_snowflake/thumbnail/17847414079_64cbeb3b6b_b.jpg"}},{"id":5859,"common_name":"mock orange","scientific_name":["Philadelphus pekinensis"],"other_name":null,"cycle":"Perennial","watering":"Average","sunlight":["Full sun","part shade"],"default_image":{"image_id":11725,"license":5,"license_name":"Attribution-ShareAlike License","license_url":"https://creativecommons.org/licenses/by-sa/2.0/","original_url":"https://perenual.com/storage/species_image/5859_philadelphus_pekinensis/og/9229856586_aeb0cbc3e7_b.jpg","regular_url":"https://perenual.com/storage/species_image/5859_philadelphus_pekinensis/regular/9229856586_aeb0cbc3e7_b.jpg","medium_url":"https://perenual.com/storage/species_image/5859_philadelphus_pekinensis/medium/9229856586_aeb0cbc3e7_b.jpg","small_url":"https://perenual.com/storage/species_image/5859_philadelphus_pekinensis/small/9229856586_aeb0cbc3e7_b.jpg","thumbnail":"https://perenual.com/storage/species_image/5859_philadelphus_pekinensis/thumbnail/9229856586_aeb0cbc3e7_b.jpg"}},{"id":5860,"common_name":"broad-leaf mock orange","scientific_name":["Philadelphus pubescens"],"other_name":null,"cycle":"Perennial","watering":"Average","sunlight":["Full sun","part shade"],"default_image":{"image_id":9,"license":5,"license_name":"Attribution-ShareAlike License","license_url":"https://creativecommons.org/licenses/by-sa/2.0/","original_url":"https://perenual.com/storage/species_image/2_abies_alba_pyramidalis/og/49255769768_df55596553_b.jpg","regular_url":"https://perenual.com/storage/species_image/2_abies_alba_pyramidalis/regular/49255769768_df55596553_b.jpg","medium_url":"https://perenual.com/storage/species_image/2_abies_alba_pyramidalis/medium/49255769768_df55596553_b.jpg","small_url":"https://perenual.com/storage/species_image/2_abies_alba_pyramidalis/small/49255769768_df55596553_b.jpg","thumbnail":"https://perenual.com/storage/species_image/2_abies_alba_pyramidalis/thumbnail/49255769768_df55596553_b.jpg"}},{"id":5861,"common_name":"mock orange","scientific_name":["Philadelphus pubescens var. verrucosus"],"other_name":null,"cycle":"Perennial","watering":"Average","sunlight":["Full sun","part shade"],"default_image":{"image_id":11728,"license":4,"license_name":"Attribution License","license_url":"https://creativecommons.org/licenses/by/2.0/","original_url":"https://perenual.com/storage/species_image/5861_philadelphus_pubescens_var_verrucosus/og/52128328577_703fee5292_b.jpg","regular_url":"https://perenual.com/storage/species_image/5861_philadelphus_pubescens_var_verrucosus/regular/52128328577_703fee5292_b.jpg","medium_url":"https://perenual.com/storage/species_image/5861_philadelphus_pubescens_var_verrucosus/medium/52128328577_703fee5292_b.jpg","small_url":"https://perenual.com/storage/species_image/5861_philadelphus_pubescens_var_verrucosus/small/52128328577_703fee5292_b.jpg","thumbnail":"https://perenual.com/storage/species_image/5861_philadelphus_pubescens_var_verrucosus/thumbnail/52128328577_703fee5292_b.jpg"}},{"id":5862,"common_name":"mock orange","scientific_name":["Philadelphus schrenkii"],"other_name":null,"cycle":"Perennial","watering":"Average","sunlight":["Full sun","part shade"],"default_image":{"image_id":11730,"license":5,"license_name":"Attribution-ShareAlike License","license_url":"https://creativecommons.org/licenses/by-sa/2.0/","original_url":"https://perenual.com/storage/species_image/5862_philadelphus_schrenkii/og/9227115299_9663cdb552_b.jpg","regular_url":"https://perenual.com/storage/species_image/5862_philadelphus_schrenkii/regular/9227115299_9663cdb552_b.jpg","medium_url":"https://perenual.com/storage/species_image/5862_philadelphus_schrenkii/medium/9227115299_9663cdb552_b.jpg","small_url":"https://perenual.com/storage/species_image/5862_philadelphus_schrenkii/small/9227115299_9663cdb552_b.jpg","thumbnail":"https://perenual.com/storage/species_image/5862_philadelphus_schrenkii/thumbnail/9227115299_9663cdb552_b.jpg"}},{"id":5863,"common_name":"mock orange","scientific_name":["Philadelphus 'Snow Dwarf'"],"other_name":null,"cycle":"Perennial","watering":"Average","sunlight":["Full sun","part shade"],"default_image":{"image_id":11731,"license":5,"license_name":"Attribution-ShareAlike License","license_url":"https://creativecommons.org/licenses/by-sa/2.0/","original_url":"https://perenual.com/storage/species_image/5863_philadelphus_snow_dwarf/og/51233272322_6059a98780_b.jpg","regular_url":"https://perenual.com/storage/species_image/5863_philadelphus_snow_dwarf/regular/51233272322_6059a98780_b.jpg","medium_url":"https://perenual.com/storage/species_image/5863_philadelphus_snow_dwarf/medium/51233272322_6059a98780_b.jpg","small_url":"https://perenual.com/storage/species_image/5863_philadelphus_snow_dwarf/small/51233272322_6059a98780_b.jpg","thumbnail":"https://perenual.com/storage/species_image/5863_philadelphus_snow_dwarf/thumbnail/51233272322_6059a98780_b.jpg"}},{"id":5864,"common_name":"mock orange","scientific_name":["Philadelphus 'Snow Velvet'"],"other_name":null,"cycle":"Perennial","watering":"Average","sunlight":["Full sun","part shade"],"default_image":{"image_id":11733,"license":45,"license_name":"Attribution-ShareAlike 3.0 Unported (CC BY-SA 3.0)","license_url":"https://creativecommons.org/licenses/by-sa/3.0/deed.en","original_url":"https://perenual.com/storage/species_image/5864_philadelphus_snow_velvet/og/Falscher_Jasmin_IMG_5357.jpg","regular_url":"https://perenual.com/storage/species_image/5864_philadelphus_snow_velvet/regular/Falscher_Jasmin_IMG_5357.jpg","medium_url":"https://perenual.com/storage/species_image/5864_philadelphus_snow_velvet/medium/Falscher_Jasmin_IMG_5357.jpg","small_url":"https://perenual.com/storage/species_image/5864_philadelphus_snow_velvet/small/Falscher_Jasmin_IMG_5357.jpg","thumbnail":"https://perenual.com/storage/species_image/5864_philadelphus_snow_velvet/thumbnail/Falscher_Jasmin_IMG_5357.jpg"}},{"id":5865,"common_name":"mock orange","scientific_name":["Philadelphus 'Snowbelle'"],"other_name":null,"cycle":"Perennial","watering":"Average","sunlight":["Full sun","part shade"],"default_image":{"image_id":11734,"license":5,"license_name":"Attribution-ShareAlike License","license_url":"https://creativecommons.org/licenses/by-sa/2.0/","original_url":"https://perenual.com/storage/species_image/5865_philadelphus_snowbelle/og/14421805442_efbed079be_b.jpg","regular_url":"https://perenual.com/storage/species_image/5865_philadelphus_snowbelle/regular/14421805442_efbed079be_b.jpg","medium_url":"https://perenual.com/storage/species_image/5865_philadelphus_snowbelle/medium/14421805442_efbed079be_b.jpg","small_url":"https://perenual.com/storage/species_image/5865_philadelphus_snowbelle/small/14421805442_efbed079be_b.jpg","thumbnail":"https://perenual.com/storage/species_image/5865_philadelphus_snowbelle/thumbnail/14421805442_efbed079be_b.jpg"}},{"id":5866,"common_name":"mock orange","scientific_name":["Philadelphus 'Virginal'"],"other_name":null,"cycle":"Perennial","watering":"Average","sunlight":["Full sun","part shade"],"default_image":{"image_id":11735,"license":4,"license_name":"Attribution License","license_url":"https://creativecommons.org/licenses/by/2.0/","original_url":"https://perenual.com/storage/species_image/5866_philadelphus_virginal/og/52283497180_7b13edf923_b.jpg","regular_url":"https://perenual.com/storage/species_image/5866_philadelphus_virginal/regular/52283497180_7b13edf923_b.jpg","medium_url":"https://perenual.com/storage/species_image/5866_philadelphus_virginal/medium/52283497180_7b13edf923_b.jpg","small_url":"https://perenual.com/storage/species_image/5866_philadelphus_virginal/small/52283497180_7b13edf923_b.jpg","thumbnail":"https://perenual.com/storage/species_image/5866_philadelphus_virginal/thumbnail/52283497180_7b13edf923_b.jpg"}},{"id":5867,"common_name":"mock orange","scientific_name":["Philadelphus virginalis"],"other_name":null,"cycle":"Perennial","watering":"Average","sunlight":["Full sun","part shade"],"default_image":{"image_id":11737,"license":5,"license_name":"Attribution-ShareAlike License","license_url":"https://creativecommons.org/licenses/by-sa/2.0/","original_url":"https://perenual.com/storage/species_image/5867_philadelphus_virginalis/og/46474058162_3a15ef323a_b.jpg","regular_url":"https://perenual.com/storage/species_image/5867_philadelphus_virginalis/regular/46474058162_3a15ef323a_b.jpg","medium_url":"https://perenual.com/storage/species_image/5867_philadelphus_virginalis/medium/46474058162_3a15ef323a_b.jpg","small_url":"https://perenual.com/storage/species_image/5867_philadelphus_virginalis/small/46474058162_3a15ef323a_b.jpg","thumbnail":"https://perenual.com/storage/species_image/5867_philadelphus_virginalis/thumbnail/46474058162_3a15ef323a_b.jpg"}},{"id":5868,"common_name":"horsehead philodendron","scientific_name":["Philodendron bipinnatifidum"],"other_name":null,"cycle":"Perennial","watering":"Average","sunlight":["Part shade"],"default_image":{"image_id":11739,"license":4,"license_name":"Attribution License","license_url":"https://creativecommons.org/licenses/by/2.0/","original_url":"https://perenual.com/storage/species_image/5868_philodendron_bipinnatifidum/og/24251882664_c75285a823_b.jpg","regular_url":"https://perenual.com/storage/species_image/5868_philodendron_bipinnatifidum/regular/24251882664_c75285a823_b.jpg","medium_url":"https://perenual.com/storage/species_image/5868_philodendron_bipinnatifidum/medium/24251882664_c75285a823_b.jpg","small_url":"https://perenual.com/storage/species_image/5868_philodendron_bipinnatifidum/small/24251882664_c75285a823_b.jpg","thumbnail":"https://perenual.com/storage/species_image/5868_philodendron_bipinnatifidum/thumbnail/24251882664_c75285a823_b.jpg"}},{"id":5869,"common_name":"vilevine","scientific_name":["Philodendron hederaceum"],"other_name":null,"cycle":"Perennial","watering":"Average","sunlight":["Filtered shade"," Full sun only if soil kept moist"," Part sun/part shade"],"default_image":{"image_id":9,"license":5,"license_name":"Attribution-ShareAlike License","license_url":"https://creativecommons.org/licenses/by-sa/2.0/","original_url":"https://perenual.com/storage/species_image/2_abies_alba_pyramidalis/og/49255769768_df55596553_b.jpg","regular_url":"https://perenual.com/storage/species_image/2_abies_alba_pyramidalis/regular/49255769768_df55596553_b.jpg","medium_url":"https://perenual.com/storage/species_image/2_abies_alba_pyramidalis/medium/49255769768_df55596553_b.jpg","small_url":"https://perenual.com/storage/species_image/2_abies_alba_pyramidalis/small/49255769768_df55596553_b.jpg","thumbnail":"https://perenual.com/storage/species_image/2_abies_alba_pyramidalis/thumbnail/49255769768_df55596553_b.jpg"}},{"id":5870,"common_name":"philodendron","scientific_name":["Philodendron 'Pink Princess'"],"other_name":null,"cycle":"Perennial","watering":"Average","sunlight":["Part shade"],"default_image":{"image_id":9,"license":5,"license_name":"Attribution-ShareAlike License","license_url":"https://creativecommons.org/licenses/by-sa/2.0/","original_url":"https://perenual.com/storage/species_image/2_abies_alba_pyramidalis/og/49255769768_df55596553_b.jpg","regular_url":"https://perenual.com/storage/species_image/2_abies_alba_pyramidalis/regular/49255769768_df55596553_b.jpg","medium_url":"https://perenual.com/storage/species_image/2_abies_alba_pyramidalis/medium/49255769768_df55596553_b.jpg","small_url":"https://perenual.com/storage/species_image/2_abies_alba_pyramidalis/small/49255769768_df55596553_b.jpg","thumbnail":"https://perenual.com/storage/species_image/2_abies_alba_pyramidalis/thumbnail/49255769768_df55596553_b.jpg"}},{"id":5871,"common_name":"philodendron","scientific_name":["Philodendron 'Winterbourn' XANADU"],"other_name":null,"cycle":"Perennial","watering":"Average","sunlight":["Part shade"],"default_image":{"image_id":9,"license":5,"license_name":"Attribution-ShareAlike License","license_url":"https://creativecommons.org/licenses/by-sa/2.0/","original_url":"https://perenual.com/storage/species_image/2_abies_alba_pyramidalis/og/49255769768_df55596553_b.jpg","regular_url":"https://perenual.com/storage/species_image/2_abies_alba_pyramidalis/regular/49255769768_df55596553_b.jpg","medium_url":"https://perenual.com/storage/species_image/2_abies_alba_pyramidalis/medium/49255769768_df55596553_b.jpg","small_url":"https://perenual.com/storage/species_image/2_abies_alba_pyramidalis/small/49255769768_df55596553_b.jpg","thumbnail":"https://perenual.com/storage/species_image/2_abies_alba_pyramidalis/thumbnail/49255769768_df55596553_b.jpg"}},{"id":5872,"common_name":"Jerusalem sage","scientific_name":["Phlomis fruticosa"],"other_name":null,"cycle":"Perennial","watering":"Average","sunlight":["Full sun","part shade"],"default_image":{"image_id":11745,"license":5,"license_name":"Attribution-ShareAlike License","license_url":"https://creativecommons.org/licenses/by-sa/2.0/","original_url":"https://perenual.com/storage/species_image/5872_phlomis_fruticosa/og/51976306027_7d6c3fc490_b.jpg","regular_url":"https://perenual.com/storage/species_image/5872_phlomis_fruticosa/regular/51976306027_7d6c3fc490_b.jpg","medium_url":"https://perenual.com/storage/species_image/5872_phlomis_fruticosa/medium/51976306027_7d6c3fc490_b.jpg","small_url":"https://perenual.com/storage/species_image/5872_phlomis_fruticosa/small/51976306027_7d6c3fc490_b.jpg","thumbnail":"https://perenual.com/storage/species_image/5872_phlomis_fruticosa/thumbnail/51976306027_7d6c3fc490_b.jpg"}},{"id":5873,"common_name":"phlomis","scientific_name":["Phlomis longifolia"],"other_name":null,"cycle":"Perennial","watering":"Average","sunlight":["Full sun"],"default_image":{"image_id":11749,"license":5,"license_name":"Attribution-ShareAlike License","license_url":"https://creativecommons.org/licenses/by-sa/2.0/","original_url":"https://perenual.com/storage/species_image/5873_phlomis_longifolia/og/5734000502_5a22cd978b_b.jpg","regular_url":"https://perenual.com/storage/species_image/5873_phlomis_longifolia/regular/5734000502_5a22cd978b_b.jpg","medium_url":"https://perenual.com/storage/species_image/5873_phlomis_longifolia/medium/5734000502_5a22cd978b_b.jpg","small_url":"https://perenual.com/storage/species_image/5873_phlomis_longifolia/small/5734000502_5a22cd978b_b.jpg","thumbnail":"https://perenual.com/storage/species_image/5873_phlomis_longifolia/thumbnail/5734000502_5a22cd978b_b.jpg"}},{"id":5874,"common_name":"turkish sage","scientific_name":["Phlomis russeliana"],"other_name":null,"cycle":"Perennial","watering":"Minimum","sunlight":["Full sun"],"default_image":{"image_id":9,"license":5,"license_name":"Attribution-ShareAlike License","license_url":"https://creativecommons.org/licenses/by-sa/2.0/","original_url":"https://perenual.com/storage/species_image/2_abies_alba_pyramidalis/og/49255769768_df55596553_b.jpg","regular_url":"https://perenual.com/storage/species_image/2_abies_alba_pyramidalis/regular/49255769768_df55596553_b.jpg","medium_url":"https://perenual.com/storage/species_image/2_abies_alba_pyramidalis/medium/49255769768_df55596553_b.jpg","small_url":"https://perenual.com/storage/species_image/2_abies_alba_pyramidalis/small/49255769768_df55596553_b.jpg","thumbnail":"https://perenual.com/storage/species_image/2_abies_alba_pyramidalis/thumbnail/49255769768_df55596553_b.jpg"}},{"id":5875,"common_name":"sage-leaf mullein","scientific_name":["Phlomis tuberosa"],"other_name":null,"cycle":"Perennial","watering":"Average","sunlight":["Full sun"],"default_image":{"image_id":9,"license":5,"license_name":"Attribution-ShareAlike License","license_url":"https://creativecommons.org/licenses/by-sa/2.0/","original_url":"https://perenual.com/storage/species_image/2_abies_alba_pyramidalis/og/49255769768_df55596553_b.jpg","regular_url":"https://perenual.com/storage/species_image/2_abies_alba_pyramidalis/regular/49255769768_df55596553_b.jpg","medium_url":"https://perenual.com/storage/species_image/2_abies_alba_pyramidalis/medium/49255769768_df55596553_b.jpg","small_url":"https://perenual.com/storage/species_image/2_abies_alba_pyramidalis/small/49255769768_df55596553_b.jpg","thumbnail":"https://perenual.com/storage/species_image/2_abies_alba_pyramidalis/thumbnail/49255769768_df55596553_b.jpg"}},{"id":5876,"common_name":"phlomis","scientific_name":["Phlomis tuberosa 'Amazone'"],"other_name":null,"cycle":"Perennial","watering":"Average","sunlight":["Full sun"],"default_image":{"image_id":9,"license":5,"license_name":"Attribution-ShareAlike License","license_url":"https://creativecommons.org/licenses/by-sa/2.0/","original_url":"https://perenual.com/storage/species_image/2_abies_alba_pyramidalis/og/49255769768_df55596553_b.jpg","regular_url":"https://perenual.com/storage/species_image/2_abies_alba_pyramidalis/regular/49255769768_df55596553_b.jpg","medium_url":"https://perenual.com/storage/species_image/2_abies_alba_pyramidalis/medium/49255769768_df55596553_b.jpg","small_url":"https://perenual.com/storage/species_image/2_abies_alba_pyramidalis/small/49255769768_df55596553_b.jpg","thumbnail":"https://perenual.com/storage/species_image/2_abies_alba_pyramidalis/thumbnail/49255769768_df55596553_b.jpg"}},{"id":5877,"common_name":"garden phlox","scientific_name":["Phlox arendsii 'Hesperis'"],"other_name":null,"cycle":"Perennial","watering":"Average","sunlight":["Full sun","part shade"],"default_image":{"image_id":11753,"license":6,"license_name":"Attribution-NoDerivs License","license_url":"https://creativecommons.org/licenses/by-nd/2.0/","original_url":"https://perenual.com/storage/species_image/5877_phlox_arendsii_hesperis/og/52259178187_5bbeb4b112_b.jpg"}},{"id":5878,"common_name":"phlox","scientific_name":["Phlox arendsii 'Ping Pong'"],"other_name":null,"cycle":"Perennial","watering":"Average","sunlight":["Full sun","part shade"],"default_image":{"image_id":11754,"license":5,"license_name":"Attribution-ShareAlike License","license_url":"https://creativecommons.org/licenses/by-sa/2.0/","original_url":"https://perenual.com/storage/species_image/5878_phlox_arendsii_ping_pong/og/52262238282_ca2d42ae86_b.jpg","regular_url":"https://perenual.com/storage/species_image/5878_phlox_arendsii_ping_pong/regular/52262238282_ca2d42ae86_b.jpg","medium_url":"https://perenual.com/storage/species_image/5878_phlox_arendsii_ping_pong/medium/52262238282_ca2d42ae86_b.jpg","small_url":"https://perenual.com/storage/species_image/5878_phlox_arendsii_ping_pong/small/52262238282_ca2d42ae86_b.jpg","thumbnail":"https://perenual.com/storage/species_image/5878_phlox_arendsii_ping_pong/thumbnail/52262238282_ca2d42ae86_b.jpg"}},{"id":5879,"common_name":"sand phlox","scientific_name":["Phlox bifida"],"other_name":null,"cycle":"Perennial","watering":"Minimum","sunlight":["Full sun","part shade"],"default_image":{"image_id":9,"license":5,"license_name":"Attribution-ShareAlike License","license_url":"https://creativecommons.org/licenses/by-sa/2.0/","original_url":"https://perenual.com/storage/species_image/2_abies_alba_pyramidalis/og/49255769768_df55596553_b.jpg","regular_url":"https://perenual.com/storage/species_image/2_abies_alba_pyramidalis/regular/49255769768_df55596553_b.jpg","medium_url":"https://perenual.com/storage/species_image/2_abies_alba_pyramidalis/medium/49255769768_df55596553_b.jpg","small_url":"https://perenual.com/storage/species_image/2_abies_alba_pyramidalis/small/49255769768_df55596553_b.jpg","thumbnail":"https://perenual.com/storage/species_image/2_abies_alba_pyramidalis/thumbnail/49255769768_df55596553_b.jpg"}},{"id":5880,"common_name":"wild sweet William","scientific_name":["Phlox divaricata"],"other_name":null,"cycle":"Perennial","watering":"Average","sunlight":["Part shade","full shade"],"default_image":{"image_id":11756,"license":5,"license_name":"Attribution-ShareAlike License","license_url":"https://creativecommons.org/licenses/by-sa/2.0/","original_url":"https://perenual.com/storage/species_image/5880_phlox_divaricata/og/52153450254_c27645a4af_b.jpg","regular_url":"https://perenual.com/storage/species_image/5880_phlox_divaricata/regular/52153450254_c27645a4af_b.jpg","medium_url":"https://perenual.com/storage/species_image/5880_phlox_divaricata/medium/52153450254_c27645a4af_b.jpg","small_url":"https://perenual.com/storage/species_image/5880_phlox_divaricata/small/52153450254_c27645a4af_b.jpg","thumbnail":"https://perenual.com/storage/species_image/5880_phlox_divaricata/thumbnail/52153450254_c27645a4af_b.jpg"}}],"to":5880,"per_page":30,"current_page":196,"from":5851,"last_page":200,"total":6000}