{"data":[{"id":2491,"common_name":"common foxglove","scientific_name":["Digitalis purpurea (Foxy Group)"],"other_name":null,"cycle":"Perennial","watering":"Average","sunlight":["Part sun/part shade"],"default_image":{"image_id":5623,"license":5,"license_name":"Attribution-ShareAlike License","license_url":"https://creativecommons.org/licenses/by-sa/2.0/","original_url":"https://perenual.com/storage/species_image/2491_digitalis_purpurea_foxy_group/og/50020593372_3f8c3870d8_b.jpg","regular_url":"https://perenual.com/storage/species_image/2491_digitalis_purpurea_foxy_group/regular/50020593372_3f8c3870d8_b.jpg","medium_url":"https://perenual.com/storage/species_image/2491_digitalis_purpurea_foxy_group/medium/50020593372_3f8c3870d8_b.jpg","small_url":"https://perenual.com/storage/species_image/2491_digitalis_purpurea_foxy_group/small/50020593372_3f8c3870d8_b.jpg","thumbnail":"https://perenual.com/storage/species_image/2491_digitalis_purpurea_foxy_group/thumbnail/50020593372_3f8c3870d8_b.jpg"}},{"id":2492,"common_name":"common foxglove","scientific_name":["Digitalis purpurea 'Pam's Choice'"],"other_name":null,"cycle":"Perennial","watering":"Average","sunlight":["Part sun/part shade"],"default_image":{"image_id":9,"license":5,"license_name":"Attribution-ShareAlike License","license_url":"https://creativecommons.org/licenses/by-sa/2.0/","original_url":"https://perenual.com/storage/species_image/2_abies_alba_pyramidalis/og/49255769768_df55596553_b.jpg","regular_url":"https://perenual.com/storage/species_image/2_abies_alba_pyramidalis/regular/49255769768_df55596553_b.jpg","medium_url":"https://perenual.com/storage/species_image/2_abies_alba_pyramidalis/medium/49255769768_df55596553_b.jpg","small_url":"https://perenual.com/storage/species_image/2_abies_alba_pyramidalis/small/49255769768_df55596553_b.jpg","thumbnail":"https://perenual.com/storage/species_image/2_abies_alba_pyramidalis/thumbnail/49255769768_df55596553_b.jpg"}},{"id":2493,"common_name":"common foxglove","scientific_name":["Digitalis purpurea 'Sutton's Apricot'"],"other_name":null,"cycle":"Perennial","watering":"Average","sunlight":["Part sun/part shade"],"default_image":{"image_id":9,"license":5,"license_name":"Attribution-ShareAlike License","license_url":"https://creativecommons.org/licenses/by-sa/2.0/","original_url":"https://perenual.com/storage/species_image/2_abies_alba_pyramidalis/og/49255769768_df55596553_b.jpg","regular_url":"https://perenual.com/storage/species_image/2_abies_alba_pyramidalis/regular/49255769768_df55596553_b.jpg","medium_url":"https://perenual.com/storage/species_image/2_abies_alba_pyramidalis/medium/49255769768_df55596553_b.jpg","small_url":"https://perenual.com/storage/species_image/2_abies_alba_pyramidalis/small/49255769768_df55596553_b.jpg","thumbnail":"https://perenual.com/storage/species_image/2_abies_alba_pyramidalis/thumbnail/49255769768_df55596553_b.jpg"}},{"id":2494,"common_name":"foxglove","scientific_name":["Digitalis 'Takforoiv' FOXLIGHT ROSE IVORY"],"other_name":null,"cycle":"Perennial","watering":"Average","sunlight":["Full sun","part shade"],"default_image":{"image_id":9,"license":5,"license_name":"Attribution-ShareAlike License","license_url":"https://creativecommons.org/licenses/by-sa/2.0/","original_url":"https://perenual.com/storage/species_image/2_abies_alba_pyramidalis/og/49255769768_df55596553_b.jpg","regular_url":"https://perenual.com/storage/species_image/2_abies_alba_pyramidalis/regular/49255769768_df55596553_b.jpg","medium_url":"https://perenual.com/storage/species_image/2_abies_alba_pyramidalis/medium/49255769768_df55596553_b.jpg","small_url":"https://perenual.com/storage/species_image/2_abies_alba_pyramidalis/small/49255769768_df55596553_b.jpg","thumbnail":"https://perenual.com/storage/species_image/2_abies_alba_pyramidalis/thumbnail/49255769768_df55596553_b.jpg"}},{"id":2495,"common_name":"mullein foxglove","scientific_name":["Digitalis thapsi 'Spanish Peaks'"],"other_name":null,"cycle":"Perennial","watering":"Average","sunlight":["Full sun","part shade"],"default_image":{"image_id":5625,"license":4,"license_name":"Attribution License","license_url":"https://creativecommons.org/licenses/by/2.0/","original_url":"https://perenual.com/storage/species_image/2495_digitalis_thapsi_spanish_peaks/og/21530257614_6528992ba9_b.jpg","regular_url":"https://perenual.com/storage/species_image/2495_digitalis_thapsi_spanish_peaks/regular/21530257614_6528992ba9_b.jpg","medium_url":"https://perenual.com/storage/species_image/2495_digitalis_thapsi_spanish_peaks/medium/21530257614_6528992ba9_b.jpg","small_url":"https://perenual.com/storage/species_image/2495_digitalis_thapsi_spanish_peaks/small/21530257614_6528992ba9_b.jpg","thumbnail":"https://perenual.com/storage/species_image/2495_digitalis_thapsi_spanish_peaks/thumbnail/21530257614_6528992ba9_b.jpg"}},{"id":2496,"common_name":"longan","scientific_name":["Dimocarpus longan"],"other_name":null,"cycle":"Perennial","watering":"Average","sunlight":["Full sun","part shade"],"default_image":{"image_id":5627,"license":4,"license_name":"Attribution License","license_url":"https://creativecommons.org/licenses/by/2.0/","original_url":"https://perenual.com/storage/species_image/2496_dimocarpus_longan/og/24326697163_342ed81d99_b.jpg","regular_url":"https://perenual.com/storage/species_image/2496_dimocarpus_longan/regular/24326697163_342ed81d99_b.jpg","medium_url":"https://perenual.com/storage/species_image/2496_dimocarpus_longan/medium/24326697163_342ed81d99_b.jpg","small_url":"https://perenual.com/storage/species_image/2496_dimocarpus_longan/small/24326697163_342ed81d99_b.jpg","thumbnail":"https://perenual.com/storage/species_image/2496_dimocarpus_longan/thumbnail/24326697163_342ed81d99_b.jpg"}},{"id":2497,"common_name":"weather prophet","scientific_name":["Dimorphotheca pluvialis"],"other_name":null,"cycle":"Perennial","watering":"Minimum","sunlight":["Full sun"],"default_image":{"image_id":5635,"license":5,"license_name":"Attribution-ShareAlike License","license_url":"https://creativecommons.org/licenses/by-sa/2.0/","original_url":"https://perenual.com/storage/species_image/2497_dimorphotheca_pluvialis/og/3056745969_e9bf801d70_b.jpg","regular_url":"https://perenual.com/storage/species_image/2497_dimorphotheca_pluvialis/regular/3056745969_e9bf801d70_b.jpg","medium_url":"https://perenual.com/storage/species_image/2497_dimorphotheca_pluvialis/medium/3056745969_e9bf801d70_b.jpg","small_url":"https://perenual.com/storage/species_image/2497_dimorphotheca_pluvialis/small/3056745969_e9bf801d70_b.jpg","thumbnail":"https://perenual.com/storage/species_image/2497_dimorphotheca_pluvialis/thumbnail/3056745969_e9bf801d70_b.jpg"}},{"id":2498,"common_name":"Venus fly trap","scientific_name":["Dionaea muscipula"],"other_name":null,"cycle":"Perennial","watering":"Frequent","sunlight":["Full sun","part shade"],"default_image":{"image_id":9,"license":5,"license_name":"Attribution-ShareAlike License","license_url":"https://creativecommons.org/licenses/by-sa/2.0/","original_url":"https://perenual.com/storage/species_image/2_abies_alba_pyramidalis/og/49255769768_df55596553_b.jpg","regular_url":"https://perenual.com/storage/species_image/2_abies_alba_pyramidalis/regular/49255769768_df55596553_b.jpg","medium_url":"https://perenual.com/storage/species_image/2_abies_alba_pyramidalis/medium/49255769768_df55596553_b.jpg","small_url":"https://perenual.com/storage/species_image/2_abies_alba_pyramidalis/small/49255769768_df55596553_b.jpg","thumbnail":"https://perenual.com/storage/species_image/2_abies_alba_pyramidalis/thumbnail/49255769768_df55596553_b.jpg"}},{"id":2499,"common_name":"Venus fly trap","scientific_name":["Dionaea muscipula 'Akai Ryu'"],"other_name":null,"cycle":"Perennial","watering":"Frequent","sunlight":["Full sun","part shade"],"default_image":{"image_id":5638,"license":6,"license_name":"Attribution-NoDerivs License","license_url":"https://creativecommons.org/licenses/by-nd/2.0/","original_url":"https://perenual.com/storage/species_image/2499_dionaea_muscipula_akai_ryu/og/5638466264_af7c4be36f_b.jpg"}},{"id":2500,"common_name":"Venus fly trap","scientific_name":["Dionaea muscipula 'Cup-shaped'"],"other_name":null,"cycle":"Perennial","watering":"Frequent","sunlight":["Full sun","part shade"],"default_image":{"image_id":5639,"license":6,"license_name":"Attribution-NoDerivs License","license_url":"https://creativecommons.org/licenses/by-nd/2.0/","original_url":"https://perenual.com/storage/species_image/2500_dionaea_muscipula_cup-shaped/og/49820887063_7c309b02a2_b.jpg"}},{"id":2501,"common_name":"Venus fly trap","scientific_name":["Dionaea muscipula 'King Henry'"],"other_name":null,"cycle":"Perennial","watering":"Frequent","sunlight":["Full sun","part shade"],"default_image":{"image_id":9,"license":5,"license_name":"Attribution-ShareAlike License","license_url":"https://creativecommons.org/licenses/by-sa/2.0/","original_url":"https://perenual.com/storage/species_image/2_abies_alba_pyramidalis/og/49255769768_df55596553_b.jpg","regular_url":"https://perenual.com/storage/species_image/2_abies_alba_pyramidalis/regular/49255769768_df55596553_b.jpg","medium_url":"https://perenual.com/storage/species_image/2_abies_alba_pyramidalis/medium/49255769768_df55596553_b.jpg","small_url":"https://perenual.com/storage/species_image/2_abies_alba_pyramidalis/small/49255769768_df55596553_b.jpg","thumbnail":"https://perenual.com/storage/species_image/2_abies_alba_pyramidalis/thumbnail/49255769768_df55596553_b.jpg"}},{"id":2502,"common_name":"cycad","scientific_name":["Dioon edule"],"other_name":null,"cycle":"Perennial","watering":"Average","sunlight":["Full sun","part shade"],"default_image":{"image_id":5641,"license":4,"license_name":"Attribution License","license_url":"https://creativecommons.org/licenses/by/2.0/","original_url":"https://perenual.com/storage/species_image/2502_dioon_edule/og/52211201476_8d4bc0db17_b.jpg","regular_url":"https://perenual.com/storage/species_image/2502_dioon_edule/regular/52211201476_8d4bc0db17_b.jpg","medium_url":"https://perenual.com/storage/species_image/2502_dioon_edule/medium/52211201476_8d4bc0db17_b.jpg","small_url":"https://perenual.com/storage/species_image/2502_dioon_edule/small/52211201476_8d4bc0db17_b.jpg","thumbnail":"https://perenual.com/storage/species_image/2502_dioon_edule/thumbnail/52211201476_8d4bc0db17_b.jpg"}},{"id":2503,"common_name":"water yam","scientific_name":["Dioscorea alata"],"other_name":null,"cycle":"Perennial","watering":"Average","sunlight":["Full sun","part shade"],"default_image":{"image_id":5644,"license":4,"license_name":"Attribution License","license_url":"https://creativecommons.org/licenses/by/2.0/","original_url":"https://perenual.com/storage/species_image/2503_dioscorea_alata/og/24842091566_28c46d97bc_b.jpg","regular_url":"https://perenual.com/storage/species_image/2503_dioscorea_alata/regular/24842091566_28c46d97bc_b.jpg","medium_url":"https://perenual.com/storage/species_image/2503_dioscorea_alata/medium/24842091566_28c46d97bc_b.jpg","small_url":"https://perenual.com/storage/species_image/2503_dioscorea_alata/small/24842091566_28c46d97bc_b.jpg","thumbnail":"https://perenual.com/storage/species_image/2503_dioscorea_alata/thumbnail/24842091566_28c46d97bc_b.jpg"}},{"id":2504,"common_name":"ornamental yam","scientific_name":["Dioscorea discolor"],"other_name":null,"cycle":"Perennial","watering":"Average","sunlight":["Full sun"],"default_image":{"image_id":9,"license":5,"license_name":"Attribution-ShareAlike License","license_url":"https://creativecommons.org/licenses/by-sa/2.0/","original_url":"https://perenual.com/storage/species_image/2_abies_alba_pyramidalis/og/49255769768_df55596553_b.jpg","regular_url":"https://perenual.com/storage/species_image/2_abies_alba_pyramidalis/regular/49255769768_df55596553_b.jpg","medium_url":"https://perenual.com/storage/species_image/2_abies_alba_pyramidalis/medium/49255769768_df55596553_b.jpg","small_url":"https://perenual.com/storage/species_image/2_abies_alba_pyramidalis/small/49255769768_df55596553_b.jpg","thumbnail":"https://perenual.com/storage/species_image/2_abies_alba_pyramidalis/thumbnail/49255769768_df55596553_b.jpg"}},{"id":2505,"common_name":"white yam","scientific_name":["Dioscorea (vegetable group)"],"other_name":null,"cycle":"Perennial","watering":"Average","sunlight":["Full sun","part shade"],"default_image":{"image_id":9,"license":5,"license_name":"Attribution-ShareAlike License","license_url":"https://creativecommons.org/licenses/by-sa/2.0/","original_url":"https://perenual.com/storage/species_image/2_abies_alba_pyramidalis/og/49255769768_df55596553_b.jpg","regular_url":"https://perenual.com/storage/species_image/2_abies_alba_pyramidalis/regular/49255769768_df55596553_b.jpg","medium_url":"https://perenual.com/storage/species_image/2_abies_alba_pyramidalis/medium/49255769768_df55596553_b.jpg","small_url":"https://perenual.com/storage/species_image/2_abies_alba_pyramidalis/small/49255769768_df55596553_b.jpg","thumbnail":"https://perenual.com/storage/species_image/2_abies_alba_pyramidalis/thumbnail/49255769768_df55596553_b.jpg"}},{"id":2506,"common_name":"Japanese persimmon","scientific_name":["Diospyros kaki 'Dagaishi'"],"other_name":null,"cycle":"Perennial","watering":"Average","sunlight":["Full sun"],"default_image":{"image_id":9,"license":5,"license_name":"Attribution-ShareAlike License","license_url":"https://creativecommons.org/licenses/by-sa/2.0/","original_url":"https://perenual.com/storage/species_image/2_abies_alba_pyramidalis/og/49255769768_df55596553_b.jpg","regular_url":"https://perenual.com/storage/species_image/2_abies_alba_pyramidalis/regular/49255769768_df55596553_b.jpg","medium_url":"https://perenual.com/storage/species_image/2_abies_alba_pyramidalis/medium/49255769768_df55596553_b.jpg","small_url":"https://perenual.com/storage/species_image/2_abies_alba_pyramidalis/small/49255769768_df55596553_b.jpg","thumbnail":"https://perenual.com/storage/species_image/2_abies_alba_pyramidalis/thumbnail/49255769768_df55596553_b.jpg"}},{"id":2507,"common_name":"kaki","scientific_name":["Diospyros kaki 'Fuyu'"],"other_name":null,"cycle":"Perennial","watering":"Average","sunlight":["Full sun"],"default_image":{"image_id":5647,"license":5,"license_name":"Attribution-ShareAlike License","license_url":"https://creativecommons.org/licenses/by-sa/2.0/","original_url":"https://perenual.com/storage/species_image/2507_diospyros_kaki_fuyu/og/30717563617_e02a36cc4f_b.jpg","regular_url":"https://perenual.com/storage/species_image/2507_diospyros_kaki_fuyu/regular/30717563617_e02a36cc4f_b.jpg","medium_url":"https://perenual.com/storage/species_image/2507_diospyros_kaki_fuyu/medium/30717563617_e02a36cc4f_b.jpg","small_url":"https://perenual.com/storage/species_image/2507_diospyros_kaki_fuyu/small/30717563617_e02a36cc4f_b.jpg","thumbnail":"https://perenual.com/storage/species_image/2507_diospyros_kaki_fuyu/thumbnail/30717563617_e02a36cc4f_b.jpg"}},{"id":2508,"common_name":"persimmon","scientific_name":["Diospyros virginiana 'Meader'"],"other_name":null,"cycle":"Perennial","watering":"Minimum","sunlight":["Full sun","part shade"],"default_image":{"image_id":9,"license":5,"license_name":"Attribution-ShareAlike License","license_url":"https://creativecommons.org/licenses/by-sa/2.0/","original_url":"https://perenual.com/storage/species_image/2_abies_alba_pyramidalis/og/49255769768_df55596553_b.jpg","regular_url":"https://perenual.com/storage/species_image/2_abies_alba_pyramidalis/regular/49255769768_df55596553_b.jpg","medium_url":"https://perenual.com/storage/species_image/2_abies_alba_pyramidalis/medium/49255769768_df55596553_b.jpg","small_url":"https://perenual.com/storage/species_image/2_abies_alba_pyramidalis/small/49255769768_df55596553_b.jpg","thumbnail":"https://perenual.com/storage/species_image/2_abies_alba_pyramidalis/thumbnail/49255769768_df55596553_b.jpg"}},{"id":2509,"common_name":"rosy dipelta","scientific_name":["Dipelta floribunda"],"other_name":null,"cycle":"Perennial","watering":"Average","sunlight":["Full sun","part shade"],"default_image":{"image_id":5651,"license":4,"license_name":"Attribution License","license_url":"https://creativecommons.org/licenses/by/2.0/","original_url":"https://perenual.com/storage/species_image/2509_dipelta_floribunda/og/49925890302_52aed32b0f_b.jpg","regular_url":"https://perenual.com/storage/species_image/2509_dipelta_floribunda/regular/49925890302_52aed32b0f_b.jpg","medium_url":"https://perenual.com/storage/species_image/2509_dipelta_floribunda/medium/49925890302_52aed32b0f_b.jpg","small_url":"https://perenual.com/storage/species_image/2509_dipelta_floribunda/small/49925890302_52aed32b0f_b.jpg","thumbnail":"https://perenual.com/storage/species_image/2509_dipelta_floribunda/thumbnail/49925890302_52aed32b0f_b.jpg"}},{"id":2510,"common_name":"glade fern","scientific_name":["Diplazium pycnocarpon"],"other_name":null,"cycle":"Perennial","watering":"Average","sunlight":["Part shade","full shade"],"default_image":{"image_id":9,"license":5,"license_name":"Attribution-ShareAlike License","license_url":"https://creativecommons.org/licenses/by-sa/2.0/","original_url":"https://perenual.com/storage/species_image/2_abies_alba_pyramidalis/og/49255769768_df55596553_b.jpg","regular_url":"https://perenual.com/storage/species_image/2_abies_alba_pyramidalis/regular/49255769768_df55596553_b.jpg","medium_url":"https://perenual.com/storage/species_image/2_abies_alba_pyramidalis/medium/49255769768_df55596553_b.jpg","small_url":"https://perenual.com/storage/species_image/2_abies_alba_pyramidalis/small/49255769768_df55596553_b.jpg","thumbnail":"https://perenual.com/storage/species_image/2_abies_alba_pyramidalis/thumbnail/49255769768_df55596553_b.jpg"}},{"id":2511,"common_name":"common teasel","scientific_name":["Dipsacus fullonum"],"other_name":null,"cycle":"Perennial","watering":"Average","sunlight":["Full sun","part shade"],"default_image":{"image_id":5660,"license":5,"license_name":"Attribution-ShareAlike License","license_url":"https://creativecommons.org/licenses/by-sa/2.0/","original_url":"https://perenual.com/storage/species_image/2511_dipsacus_fullonum/og/50201810763_4b9a474143_b.jpg","regular_url":"https://perenual.com/storage/species_image/2511_dipsacus_fullonum/regular/50201810763_4b9a474143_b.jpg","medium_url":"https://perenual.com/storage/species_image/2511_dipsacus_fullonum/medium/50201810763_4b9a474143_b.jpg","small_url":"https://perenual.com/storage/species_image/2511_dipsacus_fullonum/small/50201810763_4b9a474143_b.jpg","thumbnail":"https://perenual.com/storage/species_image/2511_dipsacus_fullonum/thumbnail/50201810763_4b9a474143_b.jpg"}},{"id":2512,"common_name":"leatherwood","scientific_name":["Dirca palustris"],"other_name":null,"cycle":"Perennial","watering":"Average","sunlight":["Part shade","full shade"],"default_image":{"image_id":9,"license":5,"license_name":"Attribution-ShareAlike License","license_url":"https://creativecommons.org/licenses/by-sa/2.0/","original_url":"https://perenual.com/storage/species_image/2_abies_alba_pyramidalis/og/49255769768_df55596553_b.jpg","regular_url":"https://perenual.com/storage/species_image/2_abies_alba_pyramidalis/regular/49255769768_df55596553_b.jpg","medium_url":"https://perenual.com/storage/species_image/2_abies_alba_pyramidalis/medium/49255769768_df55596553_b.jpg","small_url":"https://perenual.com/storage/species_image/2_abies_alba_pyramidalis/small/49255769768_df55596553_b.jpg","thumbnail":"https://perenual.com/storage/species_image/2_abies_alba_pyramidalis/thumbnail/49255769768_df55596553_b.jpg"}},{"id":2513,"common_name":"disanthus","scientific_name":["Disanthus cercidifolius"],"other_name":null,"cycle":"Perennial","watering":"Average","sunlight":["Full sun"," Part sun/part shade"," Sheltered"],"default_image":{"image_id":5663,"license":5,"license_name":"Attribution-ShareAlike License","license_url":"https://creativecommons.org/licenses/by-sa/2.0/","original_url":"https://perenual.com/storage/species_image/2513_disanthus_cercidifolius/og/40037387943_389c5dd4ba_b.jpg","regular_url":"https://perenual.com/storage/species_image/2513_disanthus_cercidifolius/regular/40037387943_389c5dd4ba_b.jpg","medium_url":"https://perenual.com/storage/species_image/2513_disanthus_cercidifolius/medium/40037387943_389c5dd4ba_b.jpg","small_url":"https://perenual.com/storage/species_image/2513_disanthus_cercidifolius/small/40037387943_389c5dd4ba_b.jpg","thumbnail":"https://perenual.com/storage/species_image/2513_disanthus_cercidifolius/thumbnail/40037387943_389c5dd4ba_b.jpg"}},{"id":2514,"common_name":"Solomon's seal","scientific_name":["Disporopsis arisanensis"],"other_name":null,"cycle":"Perennial","watering":"Frequent","sunlight":["Part shade","full shade"],"default_image":{"image_id":5665,"license":4,"license_name":"Attribution License","license_url":"https://creativecommons.org/licenses/by/2.0/","original_url":"https://perenual.com/storage/species_image/2514_disporopsis_arisanensis/og/51251900216_d46b696992_b.jpg","regular_url":"https://perenual.com/storage/species_image/2514_disporopsis_arisanensis/regular/51251900216_d46b696992_b.jpg","medium_url":"https://perenual.com/storage/species_image/2514_disporopsis_arisanensis/medium/51251900216_d46b696992_b.jpg","small_url":"https://perenual.com/storage/species_image/2514_disporopsis_arisanensis/small/51251900216_d46b696992_b.jpg","thumbnail":"https://perenual.com/storage/species_image/2514_disporopsis_arisanensis/thumbnail/51251900216_d46b696992_b.jpg"}},{"id":2515,"common_name":"evergreen Solomon's seal","scientific_name":["Disporopsis pernyi"],"other_name":null,"cycle":"Perennial","watering":"Average","sunlight":["Part shade","full shade"],"default_image":{"image_id":9,"license":5,"license_name":"Attribution-ShareAlike License","license_url":"https://creativecommons.org/licenses/by-sa/2.0/","original_url":"https://perenual.com/storage/species_image/2_abies_alba_pyramidalis/og/49255769768_df55596553_b.jpg","regular_url":"https://perenual.com/storage/species_image/2_abies_alba_pyramidalis/regular/49255769768_df55596553_b.jpg","medium_url":"https://perenual.com/storage/species_image/2_abies_alba_pyramidalis/medium/49255769768_df55596553_b.jpg","small_url":"https://perenual.com/storage/species_image/2_abies_alba_pyramidalis/small/49255769768_df55596553_b.jpg","thumbnail":"https://perenual.com/storage/species_image/2_abies_alba_pyramidalis/thumbnail/49255769768_df55596553_b.jpg"}},{"id":2516,"common_name":"fairy bells","scientific_name":["Disporum cantoniense"],"other_name":null,"cycle":"Perennial","watering":"Average","sunlight":["Part shade","full shade"],"default_image":{"image_id":5670,"license":5,"license_name":"Attribution-ShareAlike License","license_url":"https://creativecommons.org/licenses/by-sa/2.0/","original_url":"https://perenual.com/storage/species_image/2516_disporum_cantoniense/og/8372950731_f51d758043_b.jpg","regular_url":"https://perenual.com/storage/species_image/2516_disporum_cantoniense/regular/8372950731_f51d758043_b.jpg","medium_url":"https://perenual.com/storage/species_image/2516_disporum_cantoniense/medium/8372950731_f51d758043_b.jpg","small_url":"https://perenual.com/storage/species_image/2516_disporum_cantoniense/small/8372950731_f51d758043_b.jpg","thumbnail":"https://perenual.com/storage/species_image/2516_disporum_cantoniense/thumbnail/8372950731_f51d758043_b.jpg"}},{"id":2517,"common_name":"fairy bells","scientific_name":["Disporum cantoniense 'Night Heron'"],"other_name":null,"cycle":"Perennial","watering":"Average","sunlight":["Part shade","full shade"],"default_image":{"image_id":9,"license":5,"license_name":"Attribution-ShareAlike License","license_url":"https://creativecommons.org/licenses/by-sa/2.0/","original_url":"https://perenual.com/storage/species_image/2_abies_alba_pyramidalis/og/49255769768_df55596553_b.jpg","regular_url":"https://perenual.com/storage/species_image/2_abies_alba_pyramidalis/regular/49255769768_df55596553_b.jpg","medium_url":"https://perenual.com/storage/species_image/2_abies_alba_pyramidalis/medium/49255769768_df55596553_b.jpg","small_url":"https://perenual.com/storage/species_image/2_abies_alba_pyramidalis/small/49255769768_df55596553_b.jpg","thumbnail":"https://perenual.com/storage/species_image/2_abies_alba_pyramidalis/thumbnail/49255769768_df55596553_b.jpg"}},{"id":2518,"common_name":"fairy bells","scientific_name":["Disporum flavens"],"other_name":null,"cycle":"Perennial","watering":"Average","sunlight":["Part shade","full shade"],"default_image":{"image_id":9,"license":5,"license_name":"Attribution-ShareAlike License","license_url":"https://creativecommons.org/licenses/by-sa/2.0/","original_url":"https://perenual.com/storage/species_image/2_abies_alba_pyramidalis/og/49255769768_df55596553_b.jpg","regular_url":"https://perenual.com/storage/species_image/2_abies_alba_pyramidalis/regular/49255769768_df55596553_b.jpg","medium_url":"https://perenual.com/storage/species_image/2_abies_alba_pyramidalis/medium/49255769768_df55596553_b.jpg","small_url":"https://perenual.com/storage/species_image/2_abies_alba_pyramidalis/small/49255769768_df55596553_b.jpg","thumbnail":"https://perenual.com/storage/species_image/2_abies_alba_pyramidalis/thumbnail/49255769768_df55596553_b.jpg"}},{"id":2519,"common_name":"fairy bells","scientific_name":["Disporum lutescens"],"other_name":null,"cycle":"Perennial","watering":"Average","sunlight":["Part shade","full shade"],"default_image":{"image_id":5679,"license":45,"license_name":"Attribution-ShareAlike 3.0 Unported (CC BY-SA 3.0)","license_url":"https://creativecommons.org/licenses/by-sa/3.0/deed.en","original_url":"https://perenual.com/storage/species_image/2519_disporum_lutescens/og/Disporum_uniflorum_2.jpg","regular_url":"https://perenual.com/storage/species_image/2519_disporum_lutescens/regular/Disporum_uniflorum_2.jpg","medium_url":"https://perenual.com/storage/species_image/2519_disporum_lutescens/medium/Disporum_uniflorum_2.jpg","small_url":"https://perenual.com/storage/species_image/2519_disporum_lutescens/small/Disporum_uniflorum_2.jpg","thumbnail":"https://perenual.com/storage/species_image/2519_disporum_lutescens/thumbnail/Disporum_uniflorum_2.jpg"}},{"id":2520,"common_name":"fairy bells","scientific_name":["Disporum sessile 'Variegatum'"],"other_name":null,"cycle":"Perennial","watering":"Average","sunlight":["Part shade","full shade"],"default_image":{"image_id":9,"license":5,"license_name":"Attribution-ShareAlike License","license_url":"https://creativecommons.org/licenses/by-sa/2.0/","original_url":"https://perenual.com/storage/species_image/2_abies_alba_pyramidalis/og/49255769768_df55596553_b.jpg","regular_url":"https://perenual.com/storage/species_image/2_abies_alba_pyramidalis/regular/49255769768_df55596553_b.jpg","medium_url":"https://perenual.com/storage/species_image/2_abies_alba_pyramidalis/medium/49255769768_df55596553_b.jpg","small_url":"https://perenual.com/storage/species_image/2_abies_alba_pyramidalis/small/49255769768_df55596553_b.jpg","thumbnail":"https://perenual.com/storage/species_image/2_abies_alba_pyramidalis/thumbnail/49255769768_df55596553_b.jpg"}}],"to":2520,"per_page":30,"current_page":84,"from":2491,"last_page":200,"total":6000}