{"data":[{"id":2281,"common_name":"cardoon","scientific_name":["Cynara cardunculus"],"other_name":["globe artichoke"],"cycle":"Perennial","watering":"Average","sunlight":["Full sun"],"default_image":{"image_id":5366,"license":4,"license_name":"Attribution License","license_url":"https://creativecommons.org/licenses/by/2.0/","original_url":"https://perenual.com/storage/species_image/2281_cynara_cardunculus/og/52237501965_a2d931e499_b.jpg","regular_url":"https://perenual.com/storage/species_image/2281_cynara_cardunculus/regular/52237501965_a2d931e499_b.jpg","medium_url":"https://perenual.com/storage/species_image/2281_cynara_cardunculus/medium/52237501965_a2d931e499_b.jpg","small_url":"https://perenual.com/storage/species_image/2281_cynara_cardunculus/small/52237501965_a2d931e499_b.jpg","thumbnail":"https://perenual.com/storage/species_image/2281_cynara_cardunculus/thumbnail/52237501965_a2d931e499_b.jpg"}},{"id":2282,"common_name":"cardoon","scientific_name":["Cynara cardunculus (Cardoon Group) 'Rouge D'Alger'"],"other_name":null,"cycle":"Perennial","watering":"Minimum","sunlight":["Full sun","part shade"],"default_image":{"image_id":9,"license":5,"license_name":"Attribution-ShareAlike License","license_url":"https://creativecommons.org/licenses/by-sa/2.0/","original_url":"https://perenual.com/storage/species_image/2_abies_alba_pyramidalis/og/49255769768_df55596553_b.jpg","regular_url":"https://perenual.com/storage/species_image/2_abies_alba_pyramidalis/regular/49255769768_df55596553_b.jpg","medium_url":"https://perenual.com/storage/species_image/2_abies_alba_pyramidalis/medium/49255769768_df55596553_b.jpg","small_url":"https://perenual.com/storage/species_image/2_abies_alba_pyramidalis/small/49255769768_df55596553_b.jpg","thumbnail":"https://perenual.com/storage/species_image/2_abies_alba_pyramidalis/thumbnail/49255769768_df55596553_b.jpg"}},{"id":2283,"common_name":"artichoke","scientific_name":["Cynara cardunculus (Scolymus Group)"],"other_name":null,"cycle":"Perennial","watering":"Average","sunlight":["Full sun"],"default_image":{"image_id":9,"license":5,"license_name":"Attribution-ShareAlike License","license_url":"https://creativecommons.org/licenses/by-sa/2.0/","original_url":"https://perenual.com/storage/species_image/2_abies_alba_pyramidalis/og/49255769768_df55596553_b.jpg","regular_url":"https://perenual.com/storage/species_image/2_abies_alba_pyramidalis/regular/49255769768_df55596553_b.jpg","medium_url":"https://perenual.com/storage/species_image/2_abies_alba_pyramidalis/medium/49255769768_df55596553_b.jpg","small_url":"https://perenual.com/storage/species_image/2_abies_alba_pyramidalis/small/49255769768_df55596553_b.jpg","thumbnail":"https://perenual.com/storage/species_image/2_abies_alba_pyramidalis/thumbnail/49255769768_df55596553_b.jpg"}},{"id":2284,"common_name":"Bermuda grass","scientific_name":["Cynodon dactylon 'Sundevil'"],"other_name":null,"cycle":"Perennial","watering":"Minimum","sunlight":["Full sun"],"default_image":{"image_id":9,"license":5,"license_name":"Attribution-ShareAlike License","license_url":"https://creativecommons.org/licenses/by-sa/2.0/","original_url":"https://perenual.com/storage/species_image/2_abies_alba_pyramidalis/og/49255769768_df55596553_b.jpg","regular_url":"https://perenual.com/storage/species_image/2_abies_alba_pyramidalis/regular/49255769768_df55596553_b.jpg","medium_url":"https://perenual.com/storage/species_image/2_abies_alba_pyramidalis/medium/49255769768_df55596553_b.jpg","small_url":"https://perenual.com/storage/species_image/2_abies_alba_pyramidalis/small/49255769768_df55596553_b.jpg","thumbnail":"https://perenual.com/storage/species_image/2_abies_alba_pyramidalis/thumbnail/49255769768_df55596553_b.jpg"}},{"id":2285,"common_name":"Bermuda grass","scientific_name":["Cynodon dactylon 'Yukon'"],"other_name":null,"cycle":"Perennial","watering":"Minimum","sunlight":["Full sun"],"default_image":{"image_id":5372,"license":4,"license_name":"Attribution License","license_url":"https://creativecommons.org/licenses/by/2.0/","original_url":"https://perenual.com/storage/species_image/2285_cynodon_dactylon_yukon/og/6920282935_e9d945432d_b.jpg","regular_url":"https://perenual.com/storage/species_image/2285_cynodon_dactylon_yukon/regular/6920282935_e9d945432d_b.jpg","medium_url":"https://perenual.com/storage/species_image/2285_cynodon_dactylon_yukon/medium/6920282935_e9d945432d_b.jpg","small_url":"https://perenual.com/storage/species_image/2285_cynodon_dactylon_yukon/small/6920282935_e9d945432d_b.jpg","thumbnail":"https://perenual.com/storage/species_image/2285_cynodon_dactylon_yukon/thumbnail/6920282935_e9d945432d_b.jpg"}},{"id":2286,"common_name":"Chinese forget-me-not","scientific_name":["Cynoglossum amabile"],"other_name":null,"cycle":"Perennial","watering":"Average","sunlight":["Full sun"],"default_image":{"image_id":5374,"license":5,"license_name":"Attribution-ShareAlike License","license_url":"https://creativecommons.org/licenses/by-sa/2.0/","original_url":"https://perenual.com/storage/species_image/2286_cynoglossum_amabile/og/50112554833_6b7b61df79_b.jpg","regular_url":"https://perenual.com/storage/species_image/2286_cynoglossum_amabile/regular/50112554833_6b7b61df79_b.jpg","medium_url":"https://perenual.com/storage/species_image/2286_cynoglossum_amabile/medium/50112554833_6b7b61df79_b.jpg","small_url":"https://perenual.com/storage/species_image/2286_cynoglossum_amabile/small/50112554833_6b7b61df79_b.jpg","thumbnail":"https://perenual.com/storage/species_image/2286_cynoglossum_amabile/thumbnail/50112554833_6b7b61df79_b.jpg"}},{"id":2287,"common_name":"umbrella plant","scientific_name":["Cyperus alternifolius 'Variegatus'"],"other_name":null,"cycle":"Perennial","watering":"Frequent","sunlight":["Part shade","full shade"],"default_image":{"image_id":9,"license":5,"license_name":"Attribution-ShareAlike License","license_url":"https://creativecommons.org/licenses/by-sa/2.0/","original_url":"https://perenual.com/storage/species_image/2_abies_alba_pyramidalis/og/49255769768_df55596553_b.jpg","regular_url":"https://perenual.com/storage/species_image/2_abies_alba_pyramidalis/regular/49255769768_df55596553_b.jpg","medium_url":"https://perenual.com/storage/species_image/2_abies_alba_pyramidalis/medium/49255769768_df55596553_b.jpg","small_url":"https://perenual.com/storage/species_image/2_abies_alba_pyramidalis/small/49255769768_df55596553_b.jpg","thumbnail":"https://perenual.com/storage/species_image/2_abies_alba_pyramidalis/thumbnail/49255769768_df55596553_b.jpg"}},{"id":2288,"common_name":"umbrella plant","scientific_name":["Cyperus involucratus"],"other_name":null,"cycle":"Perennial","watering":"Frequent","sunlight":["Full sun","part shade"],"default_image":{"image_id":5380,"license":5,"license_name":"Attribution-ShareAlike License","license_url":"https://creativecommons.org/licenses/by-sa/2.0/","original_url":"https://perenual.com/storage/species_image/2288_cyperus_involucratus/og/52231830628_a56099684e_b.jpg","regular_url":"https://perenual.com/storage/species_image/2288_cyperus_involucratus/regular/52231830628_a56099684e_b.jpg","medium_url":"https://perenual.com/storage/species_image/2288_cyperus_involucratus/medium/52231830628_a56099684e_b.jpg","small_url":"https://perenual.com/storage/species_image/2288_cyperus_involucratus/small/52231830628_a56099684e_b.jpg","thumbnail":"https://perenual.com/storage/species_image/2288_cyperus_involucratus/thumbnail/52231830628_a56099684e_b.jpg"}},{"id":2289,"common_name":"umbrella plant","scientific_name":["Cyperus involucratus 'Baby Tut'"],"other_name":null,"cycle":"Perennial","watering":"Frequent","sunlight":["Full sun","part shade"],"default_image":{"image_id":5381,"license":4,"license_name":"Attribution License","license_url":"https://creativecommons.org/licenses/by/2.0/","original_url":"https://perenual.com/storage/species_image/2289_cyperus_involucratus_baby_tut/og/52562143899_b7b9935bed_b.jpg","regular_url":"https://perenual.com/storage/species_image/2289_cyperus_involucratus_baby_tut/regular/52562143899_b7b9935bed_b.jpg","medium_url":"https://perenual.com/storage/species_image/2289_cyperus_involucratus_baby_tut/medium/52562143899_b7b9935bed_b.jpg","small_url":"https://perenual.com/storage/species_image/2289_cyperus_involucratus_baby_tut/small/52562143899_b7b9935bed_b.jpg","thumbnail":"https://perenual.com/storage/species_image/2289_cyperus_involucratus_baby_tut/thumbnail/52562143899_b7b9935bed_b.jpg"}},{"id":2290,"common_name":"umbrella plant","scientific_name":["Cyperus involucratus 'Gracilis'"],"other_name":null,"cycle":"Perennial","watering":"Frequent","sunlight":["Full sun","part shade"],"default_image":{"image_id":9,"license":5,"license_name":"Attribution-ShareAlike License","license_url":"https://creativecommons.org/licenses/by-sa/2.0/","original_url":"https://perenual.com/storage/species_image/2_abies_alba_pyramidalis/og/49255769768_df55596553_b.jpg","regular_url":"https://perenual.com/storage/species_image/2_abies_alba_pyramidalis/regular/49255769768_df55596553_b.jpg","medium_url":"https://perenual.com/storage/species_image/2_abies_alba_pyramidalis/medium/49255769768_df55596553_b.jpg","small_url":"https://perenual.com/storage/species_image/2_abies_alba_pyramidalis/small/49255769768_df55596553_b.jpg","thumbnail":"https://perenual.com/storage/species_image/2_abies_alba_pyramidalis/thumbnail/49255769768_df55596553_b.jpg"}},{"id":2291,"common_name":"papyrus","scientific_name":["Cyperus papyrus KING TUT"],"other_name":null,"cycle":"Perennial","watering":"Frequent","sunlight":["Full sun","part shade"],"default_image":{"image_id":9,"license":5,"license_name":"Attribution-ShareAlike License","license_url":"https://creativecommons.org/licenses/by-sa/2.0/","original_url":"https://perenual.com/storage/species_image/2_abies_alba_pyramidalis/og/49255769768_df55596553_b.jpg","regular_url":"https://perenual.com/storage/species_image/2_abies_alba_pyramidalis/regular/49255769768_df55596553_b.jpg","medium_url":"https://perenual.com/storage/species_image/2_abies_alba_pyramidalis/medium/49255769768_df55596553_b.jpg","small_url":"https://perenual.com/storage/species_image/2_abies_alba_pyramidalis/small/49255769768_df55596553_b.jpg","thumbnail":"https://perenual.com/storage/species_image/2_abies_alba_pyramidalis/thumbnail/49255769768_df55596553_b.jpg"}},{"id":2292,"common_name":"tree tomato","scientific_name":["Cyphomandra betacea"],"other_name":null,"cycle":"Perennial","watering":"Average","sunlight":["Full sun","part shade"],"default_image":{"image_id":5384,"license":5,"license_name":"Attribution-ShareAlike License","license_url":"https://creativecommons.org/licenses/by-sa/2.0/","original_url":"https://perenual.com/storage/species_image/2292_cyphomandra_betacea/og/49288036626_f4bfa5c8c5_b.jpg","regular_url":"https://perenual.com/storage/species_image/2292_cyphomandra_betacea/regular/49288036626_f4bfa5c8c5_b.jpg","medium_url":"https://perenual.com/storage/species_image/2292_cyphomandra_betacea/medium/49288036626_f4bfa5c8c5_b.jpg","small_url":"https://perenual.com/storage/species_image/2292_cyphomandra_betacea/small/49288036626_f4bfa5c8c5_b.jpg","thumbnail":"https://perenual.com/storage/species_image/2292_cyphomandra_betacea/thumbnail/49288036626_f4bfa5c8c5_b.jpg"}},{"id":2293,"common_name":"lady slipper","scientific_name":["Cypripedium kentuckiense"],"other_name":null,"cycle":"Perennial","watering":"Frequent","sunlight":["Part shade","full shade"],"default_image":{"image_id":9,"license":5,"license_name":"Attribution-ShareAlike License","license_url":"https://creativecommons.org/licenses/by-sa/2.0/","original_url":"https://perenual.com/storage/species_image/2_abies_alba_pyramidalis/og/49255769768_df55596553_b.jpg","regular_url":"https://perenual.com/storage/species_image/2_abies_alba_pyramidalis/regular/49255769768_df55596553_b.jpg","medium_url":"https://perenual.com/storage/species_image/2_abies_alba_pyramidalis/medium/49255769768_df55596553_b.jpg","small_url":"https://perenual.com/storage/species_image/2_abies_alba_pyramidalis/small/49255769768_df55596553_b.jpg","thumbnail":"https://perenual.com/storage/species_image/2_abies_alba_pyramidalis/thumbnail/49255769768_df55596553_b.jpg"}},{"id":2294,"common_name":"Japanese holly fern","scientific_name":["Cyrtomium falcatum"],"other_name":null,"cycle":"Perennial","watering":"Average","sunlight":["Filtered shade"," Part sun/part shade"],"default_image":{"image_id":5395,"license":5,"license_name":"Attribution-ShareAlike License","license_url":"https://creativecommons.org/licenses/by-sa/2.0/","original_url":"https://perenual.com/storage/species_image/2294_cyrtomium_falcatum/og/26936504270_796d7184d2_b.jpg","regular_url":"https://perenual.com/storage/species_image/2294_cyrtomium_falcatum/regular/26936504270_796d7184d2_b.jpg","medium_url":"https://perenual.com/storage/species_image/2294_cyrtomium_falcatum/medium/26936504270_796d7184d2_b.jpg","small_url":"https://perenual.com/storage/species_image/2294_cyrtomium_falcatum/small/26936504270_796d7184d2_b.jpg","thumbnail":"https://perenual.com/storage/species_image/2294_cyrtomium_falcatum/thumbnail/26936504270_796d7184d2_b.jpg"}},{"id":2295,"common_name":"Japanese holly fern","scientific_name":["Cyrtomium fortunei"],"other_name":null,"cycle":"Perennial","watering":"Average","sunlight":["Part shade","full shade"],"default_image":{"image_id":5396,"license":5,"license_name":"Attribution-ShareAlike License","license_url":"https://creativecommons.org/licenses/by-sa/2.0/","original_url":"https://perenual.com/storage/species_image/2295_cyrtomium_fortunei/og/22252312293_969315ce63_b.jpg","regular_url":"https://perenual.com/storage/species_image/2295_cyrtomium_fortunei/regular/22252312293_969315ce63_b.jpg","medium_url":"https://perenual.com/storage/species_image/2295_cyrtomium_fortunei/medium/22252312293_969315ce63_b.jpg","small_url":"https://perenual.com/storage/species_image/2295_cyrtomium_fortunei/small/22252312293_969315ce63_b.jpg","thumbnail":"https://perenual.com/storage/species_image/2295_cyrtomium_fortunei/thumbnail/22252312293_969315ce63_b.jpg"}},{"id":2296,"common_name":"sealing wax palm","scientific_name":["Cyrtostachys renda"],"other_name":null,"cycle":"Perennial","watering":"Average","sunlight":["Full sun","part shade"],"default_image":{"image_id":9,"license":5,"license_name":"Attribution-ShareAlike License","license_url":"https://creativecommons.org/licenses/by-sa/2.0/","original_url":"https://perenual.com/storage/species_image/2_abies_alba_pyramidalis/og/49255769768_df55596553_b.jpg","regular_url":"https://perenual.com/storage/species_image/2_abies_alba_pyramidalis/regular/49255769768_df55596553_b.jpg","medium_url":"https://perenual.com/storage/species_image/2_abies_alba_pyramidalis/medium/49255769768_df55596553_b.jpg","small_url":"https://perenual.com/storage/species_image/2_abies_alba_pyramidalis/small/49255769768_df55596553_b.jpg","thumbnail":"https://perenual.com/storage/species_image/2_abies_alba_pyramidalis/thumbnail/49255769768_df55596553_b.jpg"}},{"id":2297,"common_name":"lowland fragile fern","scientific_name":["Cystopteris protrusa"],"other_name":null,"cycle":"Perennial","watering":"Average","sunlight":["Part shade","full shade"],"default_image":{"image_id":9,"license":5,"license_name":"Attribution-ShareAlike License","license_url":"https://creativecommons.org/licenses/by-sa/2.0/","original_url":"https://perenual.com/storage/species_image/2_abies_alba_pyramidalis/og/49255769768_df55596553_b.jpg","regular_url":"https://perenual.com/storage/species_image/2_abies_alba_pyramidalis/regular/49255769768_df55596553_b.jpg","medium_url":"https://perenual.com/storage/species_image/2_abies_alba_pyramidalis/medium/49255769768_df55596553_b.jpg","small_url":"https://perenual.com/storage/species_image/2_abies_alba_pyramidalis/small/49255769768_df55596553_b.jpg","thumbnail":"https://perenual.com/storage/species_image/2_abies_alba_pyramidalis/thumbnail/49255769768_df55596553_b.jpg"}},{"id":2304,"common_name":"white prairie clover","scientific_name":["Dalea candida"],"other_name":null,"cycle":"Perennial","watering":"Average","sunlight":["Full sun"],"default_image":{"image_id":5405,"license":4,"license_name":"Attribution License","license_url":"https://creativecommons.org/licenses/by/2.0/","original_url":"https://perenual.com/storage/species_image/2304_dalea_candida/og/51689292753_0cd7859338_b.jpg","regular_url":"https://perenual.com/storage/species_image/2304_dalea_candida/regular/51689292753_0cd7859338_b.jpg","medium_url":"https://perenual.com/storage/species_image/2304_dalea_candida/medium/51689292753_0cd7859338_b.jpg","small_url":"https://perenual.com/storage/species_image/2304_dalea_candida/small/51689292753_0cd7859338_b.jpg","thumbnail":"https://perenual.com/storage/species_image/2304_dalea_candida/thumbnail/51689292753_0cd7859338_b.jpg"}},{"id":2305,"common_name":"Gattinger's prairie clover","scientific_name":["Dalea gattingeri"],"other_name":null,"cycle":"Perennial","watering":"Minimum","sunlight":["Full sun"],"default_image":{"image_id":5406,"license":5,"license_name":"Attribution-ShareAlike License","license_url":"https://creativecommons.org/licenses/by-sa/2.0/","original_url":"https://perenual.com/storage/species_image/2305_dalea_gattingeri/og/35252250283_b99d429143_b.jpg","regular_url":"https://perenual.com/storage/species_image/2305_dalea_gattingeri/regular/35252250283_b99d429143_b.jpg","medium_url":"https://perenual.com/storage/species_image/2305_dalea_gattingeri/medium/35252250283_b99d429143_b.jpg","small_url":"https://perenual.com/storage/species_image/2305_dalea_gattingeri/small/35252250283_b99d429143_b.jpg","thumbnail":"https://perenual.com/storage/species_image/2305_dalea_gattingeri/thumbnail/35252250283_b99d429143_b.jpg"}},{"id":2306,"common_name":"daphne","scientific_name":["Daphne burkwoodii 'Carol Mackie'"],"other_name":null,"cycle":"Perennial","watering":"Average","sunlight":["Part shade"],"default_image":{"image_id":5407,"license":4,"license_name":"Attribution License","license_url":"https://creativecommons.org/licenses/by/2.0/","original_url":"https://perenual.com/storage/species_image/2306_daphne_burkwoodii_carol_mackie/og/10793462376_b2026d5958_b.jpg","regular_url":"https://perenual.com/storage/species_image/2306_daphne_burkwoodii_carol_mackie/regular/10793462376_b2026d5958_b.jpg","medium_url":"https://perenual.com/storage/species_image/2306_daphne_burkwoodii_carol_mackie/medium/10793462376_b2026d5958_b.jpg","small_url":"https://perenual.com/storage/species_image/2306_daphne_burkwoodii_carol_mackie/small/10793462376_b2026d5958_b.jpg","thumbnail":"https://perenual.com/storage/species_image/2306_daphne_burkwoodii_carol_mackie/thumbnail/10793462376_b2026d5958_b.jpg"}},{"id":2307,"common_name":"daphne","scientific_name":["Daphne burkwoodii 'Silveredge'"],"other_name":null,"cycle":"Perennial","watering":"Average","sunlight":["Part shade"],"default_image":{"image_id":9,"license":5,"license_name":"Attribution-ShareAlike License","license_url":"https://creativecommons.org/licenses/by-sa/2.0/","original_url":"https://perenual.com/storage/species_image/2_abies_alba_pyramidalis/og/49255769768_df55596553_b.jpg","regular_url":"https://perenual.com/storage/species_image/2_abies_alba_pyramidalis/regular/49255769768_df55596553_b.jpg","medium_url":"https://perenual.com/storage/species_image/2_abies_alba_pyramidalis/medium/49255769768_df55596553_b.jpg","small_url":"https://perenual.com/storage/species_image/2_abies_alba_pyramidalis/small/49255769768_df55596553_b.jpg","thumbnail":"https://perenual.com/storage/species_image/2_abies_alba_pyramidalis/thumbnail/49255769768_df55596553_b.jpg"}},{"id":2308,"common_name":"daphne","scientific_name":["Daphne burkwoodii 'Somerset'"],"other_name":null,"cycle":"Perennial","watering":"Average","sunlight":["Part shade"],"default_image":{"image_id":9,"license":5,"license_name":"Attribution-ShareAlike License","license_url":"https://creativecommons.org/licenses/by-sa/2.0/","original_url":"https://perenual.com/storage/species_image/2_abies_alba_pyramidalis/og/49255769768_df55596553_b.jpg","regular_url":"https://perenual.com/storage/species_image/2_abies_alba_pyramidalis/regular/49255769768_df55596553_b.jpg","medium_url":"https://perenual.com/storage/species_image/2_abies_alba_pyramidalis/medium/49255769768_df55596553_b.jpg","small_url":"https://perenual.com/storage/species_image/2_abies_alba_pyramidalis/small/49255769768_df55596553_b.jpg","thumbnail":"https://perenual.com/storage/species_image/2_abies_alba_pyramidalis/thumbnail/49255769768_df55596553_b.jpg"}},{"id":2298,"common_name":"pineapple broom","scientific_name":["Cytisus kewensis"],"other_name":null,"cycle":"Perennial","watering":"Average","sunlight":["Full sun"],"default_image":{"image_id":9,"license":5,"license_name":"Attribution-ShareAlike License","license_url":"https://creativecommons.org/licenses/by-sa/2.0/","original_url":"https://perenual.com/storage/species_image/2_abies_alba_pyramidalis/og/49255769768_df55596553_b.jpg","regular_url":"https://perenual.com/storage/species_image/2_abies_alba_pyramidalis/regular/49255769768_df55596553_b.jpg","medium_url":"https://perenual.com/storage/species_image/2_abies_alba_pyramidalis/medium/49255769768_df55596553_b.jpg","small_url":"https://perenual.com/storage/species_image/2_abies_alba_pyramidalis/small/49255769768_df55596553_b.jpg","thumbnail":"https://perenual.com/storage/species_image/2_abies_alba_pyramidalis/thumbnail/49255769768_df55596553_b.jpg"}},{"id":2299,"common_name":"Scotch broom","scientific_name":["Cytisus scoparius"],"other_name":null,"cycle":"Perennial","watering":"Minimum","sunlight":["Full sun"],"default_image":{"image_id":5400,"license":4,"license_name":"Attribution License","license_url":"https://creativecommons.org/licenses/by/2.0/","original_url":"https://perenual.com/storage/species_image/2299_cytisus_scoparius/og/52062443919_e1c61a661f_b.jpg","regular_url":"https://perenual.com/storage/species_image/2299_cytisus_scoparius/regular/52062443919_e1c61a661f_b.jpg","medium_url":"https://perenual.com/storage/species_image/2299_cytisus_scoparius/medium/52062443919_e1c61a661f_b.jpg","small_url":"https://perenual.com/storage/species_image/2299_cytisus_scoparius/small/52062443919_e1c61a661f_b.jpg","thumbnail":"https://perenual.com/storage/species_image/2299_cytisus_scoparius/thumbnail/52062443919_e1c61a661f_b.jpg"}},{"id":2300,"common_name":"dahlia","scientific_name":["Dahlia (group)"],"other_name":null,"cycle":"Perennial","watering":"Average","sunlight":["Full sun"],"default_image":{"image_id":5401,"license":4,"license_name":"Attribution License","license_url":"https://creativecommons.org/licenses/by/2.0/","original_url":"https://perenual.com/storage/species_image/2300_dahlia_group/og/52385151063_b279abdb04_b.jpg","regular_url":"https://perenual.com/storage/species_image/2300_dahlia_group/regular/52385151063_b279abdb04_b.jpg","medium_url":"https://perenual.com/storage/species_image/2300_dahlia_group/medium/52385151063_b279abdb04_b.jpg","small_url":"https://perenual.com/storage/species_image/2300_dahlia_group/small/52385151063_b279abdb04_b.jpg","thumbnail":"https://perenual.com/storage/species_image/2300_dahlia_group/thumbnail/52385151063_b279abdb04_b.jpg"}},{"id":2301,"common_name":"dahlia","scientific_name":["Dahlia 'Lavender Chiffon'"],"other_name":null,"cycle":"Perennial","watering":"Average","sunlight":["Full sun"],"default_image":{"image_id":9,"license":5,"license_name":"Attribution-ShareAlike License","license_url":"https://creativecommons.org/licenses/by-sa/2.0/","original_url":"https://perenual.com/storage/species_image/2_abies_alba_pyramidalis/og/49255769768_df55596553_b.jpg","regular_url":"https://perenual.com/storage/species_image/2_abies_alba_pyramidalis/regular/49255769768_df55596553_b.jpg","medium_url":"https://perenual.com/storage/species_image/2_abies_alba_pyramidalis/medium/49255769768_df55596553_b.jpg","small_url":"https://perenual.com/storage/species_image/2_abies_alba_pyramidalis/small/49255769768_df55596553_b.jpg","thumbnail":"https://perenual.com/storage/species_image/2_abies_alba_pyramidalis/thumbnail/49255769768_df55596553_b.jpg"}},{"id":2302,"common_name":"decorative dahlia","scientific_name":["Dahlia 'Prinzessin Irene von Preussen'"],"other_name":null,"cycle":"Perennial","watering":"Average","sunlight":["Full sun"],"default_image":{"image_id":5403,"license":5,"license_name":"Attribution-ShareAlike License","license_url":"https://creativecommons.org/licenses/by-sa/2.0/","original_url":"https://perenual.com/storage/species_image/2302_dahlia_prinzessin_irene_von_preussen/og/52337423391_b7c7c0cfb3_b.jpg","regular_url":"https://perenual.com/storage/species_image/2302_dahlia_prinzessin_irene_von_preussen/regular/52337423391_b7c7c0cfb3_b.jpg","medium_url":"https://perenual.com/storage/species_image/2302_dahlia_prinzessin_irene_von_preussen/medium/52337423391_b7c7c0cfb3_b.jpg","small_url":"https://perenual.com/storage/species_image/2302_dahlia_prinzessin_irene_von_preussen/small/52337423391_b7c7c0cfb3_b.jpg","thumbnail":"https://perenual.com/storage/species_image/2302_dahlia_prinzessin_irene_von_preussen/thumbnail/52337423391_b7c7c0cfb3_b.jpg"}},{"id":2303,"common_name":"dahlia","scientific_name":["Dahlia 'Softie'"],"other_name":null,"cycle":"Perennial","watering":"Average","sunlight":["Full sun"],"default_image":{"image_id":9,"license":5,"license_name":"Attribution-ShareAlike License","license_url":"https://creativecommons.org/licenses/by-sa/2.0/","original_url":"https://perenual.com/storage/species_image/2_abies_alba_pyramidalis/og/49255769768_df55596553_b.jpg","regular_url":"https://perenual.com/storage/species_image/2_abies_alba_pyramidalis/regular/49255769768_df55596553_b.jpg","medium_url":"https://perenual.com/storage/species_image/2_abies_alba_pyramidalis/medium/49255769768_df55596553_b.jpg","small_url":"https://perenual.com/storage/species_image/2_abies_alba_pyramidalis/small/49255769768_df55596553_b.jpg","thumbnail":"https://perenual.com/storage/species_image/2_abies_alba_pyramidalis/thumbnail/49255769768_df55596553_b.jpg"}},{"id":2309,"common_name":"daphne","scientific_name":["Daphne cneorum"],"other_name":["garland flower","rock daphne","rock daphne"],"cycle":"Perennial","watering":"Average","sunlight":["Full sun only if soil kept moist"," Part sun/part shade"],"default_image":{"image_id":9,"license":5,"license_name":"Attribution-ShareAlike License","license_url":"https://creativecommons.org/licenses/by-sa/2.0/","original_url":"https://perenual.com/storage/species_image/2_abies_alba_pyramidalis/og/49255769768_df55596553_b.jpg","regular_url":"https://perenual.com/storage/species_image/2_abies_alba_pyramidalis/regular/49255769768_df55596553_b.jpg","medium_url":"https://perenual.com/storage/species_image/2_abies_alba_pyramidalis/medium/49255769768_df55596553_b.jpg","small_url":"https://perenual.com/storage/species_image/2_abies_alba_pyramidalis/small/49255769768_df55596553_b.jpg","thumbnail":"https://perenual.com/storage/species_image/2_abies_alba_pyramidalis/thumbnail/49255769768_df55596553_b.jpg"}},{"id":2310,"common_name":"daphne","scientific_name":["Daphne kurdica"],"other_name":null,"cycle":"Perennial","watering":"Minimum","sunlight":["Full sun","part shade"],"default_image":{"image_id":9,"license":5,"license_name":"Attribution-ShareAlike License","license_url":"https://creativecommons.org/licenses/by-sa/2.0/","original_url":"https://perenual.com/storage/species_image/2_abies_alba_pyramidalis/og/49255769768_df55596553_b.jpg","regular_url":"https://perenual.com/storage/species_image/2_abies_alba_pyramidalis/regular/49255769768_df55596553_b.jpg","medium_url":"https://perenual.com/storage/species_image/2_abies_alba_pyramidalis/medium/49255769768_df55596553_b.jpg","small_url":"https://perenual.com/storage/species_image/2_abies_alba_pyramidalis/small/49255769768_df55596553_b.jpg","thumbnail":"https://perenual.com/storage/species_image/2_abies_alba_pyramidalis/thumbnail/49255769768_df55596553_b.jpg"}}],"to":2310,"per_page":30,"current_page":77,"from":2281,"last_page":200,"total":6000}