{"data":[{"id":1261,"common_name":"pigsqueak","scientific_name":["Bergenia cordifolia 'Winterglut' WINTER GLOW"],"other_name":null,"cycle":"Perennial","watering":"Average","sunlight":["Part shade","full shade"],"default_image":{"image_id":2940,"license":4,"license_name":"Attribution License","license_url":"https://creativecommons.org/licenses/by/2.0/","original_url":"https://perenual.com/storage/species_image/1261_bergenia_cordifolia_winterglut_winter_glow/og/34142635135_905ab8b02b_b.jpg","regular_url":"https://perenual.com/storage/species_image/1261_bergenia_cordifolia_winterglut_winter_glow/regular/34142635135_905ab8b02b_b.jpg","medium_url":"https://perenual.com/storage/species_image/1261_bergenia_cordifolia_winterglut_winter_glow/medium/34142635135_905ab8b02b_b.jpg","small_url":"https://perenual.com/storage/species_image/1261_bergenia_cordifolia_winterglut_winter_glow/small/34142635135_905ab8b02b_b.jpg","thumbnail":"https://perenual.com/storage/species_image/1261_bergenia_cordifolia_winterglut_winter_glow/thumbnail/34142635135_905ab8b02b_b.jpg"}},{"id":1262,"common_name":"pigsqueak","scientific_name":["Bergenia crassifolia"],"other_name":null,"cycle":"Perennial","watering":"Average","sunlight":["Part shade","full shade"],"default_image":{"image_id":2946,"license":4,"license_name":"Attribution License","license_url":"https://creativecommons.org/licenses/by/2.0/","original_url":"https://perenual.com/storage/species_image/1262_bergenia_crassifolia/og/49795861818_6dddfa15dc_b.jpg","regular_url":"https://perenual.com/storage/species_image/1262_bergenia_crassifolia/regular/49795861818_6dddfa15dc_b.jpg","medium_url":"https://perenual.com/storage/species_image/1262_bergenia_crassifolia/medium/49795861818_6dddfa15dc_b.jpg","small_url":"https://perenual.com/storage/species_image/1262_bergenia_crassifolia/small/49795861818_6dddfa15dc_b.jpg","thumbnail":"https://perenual.com/storage/species_image/1262_bergenia_crassifolia/thumbnail/49795861818_6dddfa15dc_b.jpg"}},{"id":1263,"common_name":"bergenia","scientific_name":["Bergenia DRAGONFLY ANGEL KISS"],"other_name":null,"cycle":"Perennial","watering":"Average","sunlight":["Part shade","full shade"],"default_image":null},{"id":1264,"common_name":"bergenia","scientific_name":["Bergenia DRAGONFLY SAKURA"],"other_name":null,"cycle":"Perennial","watering":"Average","sunlight":["Part shade","full shade"],"default_image":{"image_id":2928,"license":5,"license_name":"Attribution-ShareAlike License","license_url":"https://creativecommons.org/licenses/by-sa/2.0/","original_url":"https://perenual.com/storage/species_image/1264_bergenia_dragonfly_sakura/og/51969302703_090c7f40c0_b.jpg","regular_url":"https://perenual.com/storage/species_image/1264_bergenia_dragonfly_sakura/regular/51969302703_090c7f40c0_b.jpg","medium_url":"https://perenual.com/storage/species_image/1264_bergenia_dragonfly_sakura/medium/51969302703_090c7f40c0_b.jpg","small_url":"https://perenual.com/storage/species_image/1264_bergenia_dragonfly_sakura/small/51969302703_090c7f40c0_b.jpg","thumbnail":"https://perenual.com/storage/species_image/1264_bergenia_dragonfly_sakura/thumbnail/51969302703_090c7f40c0_b.jpg"}},{"id":1265,"common_name":"pigsqueak","scientific_name":["Bergenia 'Eden's Magic Giant'"],"other_name":null,"cycle":"Perennial","watering":"Average","sunlight":["Part shade","full shade"],"default_image":{"image_id":9,"license":5,"license_name":"Attribution-ShareAlike License","license_url":"https://creativecommons.org/licenses/by-sa/2.0/","original_url":"https://perenual.com/storage/species_image/2_abies_alba_pyramidalis/og/49255769768_df55596553_b.jpg","regular_url":"https://perenual.com/storage/species_image/2_abies_alba_pyramidalis/regular/49255769768_df55596553_b.jpg","medium_url":"https://perenual.com/storage/species_image/2_abies_alba_pyramidalis/medium/49255769768_df55596553_b.jpg","small_url":"https://perenual.com/storage/species_image/2_abies_alba_pyramidalis/small/49255769768_df55596553_b.jpg","thumbnail":"https://perenual.com/storage/species_image/2_abies_alba_pyramidalis/thumbnail/49255769768_df55596553_b.jpg"}},{"id":1266,"common_name":"pigsqueak","scientific_name":["Bergenia 'Herbstblute' AUTUMN GLORY"],"other_name":null,"cycle":"Perennial","watering":"Average","sunlight":["Part shade","full shade"],"default_image":{"image_id":2951,"license":4,"license_name":"Attribution License","license_url":"https://creativecommons.org/licenses/by/2.0/","original_url":"https://perenual.com/storage/species_image/1266_bergenia_herbstblute_autumn_glory/og/19710816359_b23db68480_b.jpg","regular_url":"https://perenual.com/storage/species_image/1266_bergenia_herbstblute_autumn_glory/regular/19710816359_b23db68480_b.jpg","medium_url":"https://perenual.com/storage/species_image/1266_bergenia_herbstblute_autumn_glory/medium/19710816359_b23db68480_b.jpg","small_url":"https://perenual.com/storage/species_image/1266_bergenia_herbstblute_autumn_glory/small/19710816359_b23db68480_b.jpg","thumbnail":"https://perenual.com/storage/species_image/1266_bergenia_herbstblute_autumn_glory/thumbnail/19710816359_b23db68480_b.jpg"}},{"id":1267,"common_name":"purple bergenia","scientific_name":["Bergenia purpurascens"],"other_name":null,"cycle":"Perennial","watering":"Average","sunlight":["Part shade","full shade"],"default_image":{"image_id":2954,"license":5,"license_name":"Attribution-ShareAlike License","license_url":"https://creativecommons.org/licenses/by-sa/2.0/","original_url":"https://perenual.com/storage/species_image/1267_bergenia_purpurascens/og/9198104173_4e54a1ac35_b.jpg","regular_url":"https://perenual.com/storage/species_image/1267_bergenia_purpurascens/regular/9198104173_4e54a1ac35_b.jpg","medium_url":"https://perenual.com/storage/species_image/1267_bergenia_purpurascens/medium/9198104173_4e54a1ac35_b.jpg","small_url":"https://perenual.com/storage/species_image/1267_bergenia_purpurascens/small/9198104173_4e54a1ac35_b.jpg","thumbnail":"https://perenual.com/storage/species_image/1267_bergenia_purpurascens/thumbnail/9198104173_4e54a1ac35_b.jpg"}},{"id":1268,"common_name":"bergenia","scientific_name":["Bergenia 'Silberlicht' SILVERLIGHT"],"other_name":null,"cycle":"Perennial","watering":"Average","sunlight":["Part shade","full shade"],"default_image":{"image_id":9,"license":5,"license_name":"Attribution-ShareAlike License","license_url":"https://creativecommons.org/licenses/by-sa/2.0/","original_url":"https://perenual.com/storage/species_image/2_abies_alba_pyramidalis/og/49255769768_df55596553_b.jpg","regular_url":"https://perenual.com/storage/species_image/2_abies_alba_pyramidalis/regular/49255769768_df55596553_b.jpg","medium_url":"https://perenual.com/storage/species_image/2_abies_alba_pyramidalis/medium/49255769768_df55596553_b.jpg","small_url":"https://perenual.com/storage/species_image/2_abies_alba_pyramidalis/small/49255769768_df55596553_b.jpg","thumbnail":"https://perenual.com/storage/species_image/2_abies_alba_pyramidalis/thumbnail/49255769768_df55596553_b.jpg"}},{"id":1269,"common_name":"chocolate flower","scientific_name":["Berlandiera lyrata"],"other_name":null,"cycle":"Perennial","watering":"Minimum","sunlight":["Full sun"],"default_image":{"image_id":2956,"license":4,"license_name":"Attribution License","license_url":"https://creativecommons.org/licenses/by/2.0/","original_url":"https://perenual.com/storage/species_image/1269_berlandiera_lyrata/og/51107451812_2f53520afb_b.jpg","regular_url":"https://perenual.com/storage/species_image/1269_berlandiera_lyrata/regular/51107451812_2f53520afb_b.jpg","medium_url":"https://perenual.com/storage/species_image/1269_berlandiera_lyrata/medium/51107451812_2f53520afb_b.jpg","small_url":"https://perenual.com/storage/species_image/1269_berlandiera_lyrata/small/51107451812_2f53520afb_b.jpg","thumbnail":"https://perenual.com/storage/species_image/1269_berlandiera_lyrata/thumbnail/51107451812_2f53520afb_b.jpg"}},{"id":1270,"common_name":"chocolate flower","scientific_name":["Berlandiera lyrata 'Mora County Mix'"],"other_name":null,"cycle":"Perennial","watering":"Minimum","sunlight":["Full sun"],"default_image":{"image_id":21006,"license":45,"license_name":"Attribution-ShareAlike 3.0 Unported (CC BY-SA 3.0)","license_url":"https://creativecommons.org/licenses/by-sa/3.0/deed.en","original_url":"https://perenual.com/storage/species_image/1270_berlandiera_lyrata_mora_county_mix/og/Kaldari_Berlandiera_lyrata_01.jpg","regular_url":"https://perenual.com/storage/species_image/1270_berlandiera_lyrata_mora_county_mix/regular/Kaldari_Berlandiera_lyrata_01.jpg","medium_url":"https://perenual.com/storage/species_image/1270_berlandiera_lyrata_mora_county_mix/medium/Kaldari_Berlandiera_lyrata_01.jpg","small_url":"https://perenual.com/storage/species_image/1270_berlandiera_lyrata_mora_county_mix/small/Kaldari_Berlandiera_lyrata_01.jpg","thumbnail":"https://perenual.com/storage/species_image/1270_berlandiera_lyrata_mora_county_mix/thumbnail/Kaldari_Berlandiera_lyrata_01.jpg"}},{"id":1271,"common_name":"green eyes","scientific_name":["Berlandiera texana"],"other_name":null,"cycle":"Perennial","watering":"Minimum","sunlight":["Full sun"],"default_image":{"image_id":9,"license":5,"license_name":"Attribution-ShareAlike License","license_url":"https://creativecommons.org/licenses/by-sa/2.0/","original_url":"https://perenual.com/storage/species_image/2_abies_alba_pyramidalis/og/49255769768_df55596553_b.jpg","regular_url":"https://perenual.com/storage/species_image/2_abies_alba_pyramidalis/regular/49255769768_df55596553_b.jpg","medium_url":"https://perenual.com/storage/species_image/2_abies_alba_pyramidalis/medium/49255769768_df55596553_b.jpg","small_url":"https://perenual.com/storage/species_image/2_abies_alba_pyramidalis/small/49255769768_df55596553_b.jpg","thumbnail":"https://perenual.com/storage/species_image/2_abies_alba_pyramidalis/thumbnail/49255769768_df55596553_b.jpg"}},{"id":1272,"common_name":"jewel plant","scientific_name":["Bertolonia maculata"],"other_name":null,"cycle":"Perennial","watering":"Average","sunlight":["Part shade"],"default_image":{"image_id":2962,"license":45,"license_name":"Attribution-ShareAlike 3.0 Unported (CC BY-SA 3.0)","license_url":"https://creativecommons.org/licenses/by-sa/3.0/deed.en","original_url":"https://perenual.com/storage/species_image/1272_bertolonia_maculata/og/Bertolonia_maculata_2019-04-16_0864.jpg","regular_url":"https://perenual.com/storage/species_image/1272_bertolonia_maculata/regular/Bertolonia_maculata_2019-04-16_0864.jpg","medium_url":"https://perenual.com/storage/species_image/1272_bertolonia_maculata/medium/Bertolonia_maculata_2019-04-16_0864.jpg","small_url":"https://perenual.com/storage/species_image/1272_bertolonia_maculata/small/Bertolonia_maculata_2019-04-16_0864.jpg","thumbnail":"https://perenual.com/storage/species_image/1272_bertolonia_maculata/thumbnail/Bertolonia_maculata_2019-04-16_0864.jpg"}},{"id":1273,"common_name":"beet","scientific_name":["Beta vulgaris"],"other_name":null,"cycle":"Perennial","watering":"Average","sunlight":["Full sun","part shade"],"default_image":{"image_id":2964,"license":4,"license_name":"Attribution License","license_url":"https://creativecommons.org/licenses/by/2.0/","original_url":"https://perenual.com/storage/species_image/1273_beta_vulgaris/og/24673569230_b226299b70_b.jpg","regular_url":"https://perenual.com/storage/species_image/1273_beta_vulgaris/regular/24673569230_b226299b70_b.jpg","medium_url":"https://perenual.com/storage/species_image/1273_beta_vulgaris/medium/24673569230_b226299b70_b.jpg","small_url":"https://perenual.com/storage/species_image/1273_beta_vulgaris/small/24673569230_b226299b70_b.jpg","thumbnail":"https://perenual.com/storage/species_image/1273_beta_vulgaris/thumbnail/24673569230_b226299b70_b.jpg"}},{"id":1274,"common_name":"beet","scientific_name":["Beta vulgaris (Garden Beet Group) 'Bull's Blood'"],"other_name":null,"cycle":"Perennial","watering":"Average","sunlight":["Full sun","part shade"],"default_image":{"image_id":9,"license":5,"license_name":"Attribution-ShareAlike License","license_url":"https://creativecommons.org/licenses/by-sa/2.0/","original_url":"https://perenual.com/storage/species_image/2_abies_alba_pyramidalis/og/49255769768_df55596553_b.jpg","regular_url":"https://perenual.com/storage/species_image/2_abies_alba_pyramidalis/regular/49255769768_df55596553_b.jpg","medium_url":"https://perenual.com/storage/species_image/2_abies_alba_pyramidalis/medium/49255769768_df55596553_b.jpg","small_url":"https://perenual.com/storage/species_image/2_abies_alba_pyramidalis/small/49255769768_df55596553_b.jpg","thumbnail":"https://perenual.com/storage/species_image/2_abies_alba_pyramidalis/thumbnail/49255769768_df55596553_b.jpg"}},{"id":1275,"common_name":"Swiss chard","scientific_name":["Beta vulgaris (Leaf Beet Group)"],"other_name":null,"cycle":"Perennial","watering":"Average","sunlight":["Full sun","part shade"],"default_image":{"image_id":9,"license":5,"license_name":"Attribution-ShareAlike License","license_url":"https://creativecommons.org/licenses/by-sa/2.0/","original_url":"https://perenual.com/storage/species_image/2_abies_alba_pyramidalis/og/49255769768_df55596553_b.jpg","regular_url":"https://perenual.com/storage/species_image/2_abies_alba_pyramidalis/regular/49255769768_df55596553_b.jpg","medium_url":"https://perenual.com/storage/species_image/2_abies_alba_pyramidalis/medium/49255769768_df55596553_b.jpg","small_url":"https://perenual.com/storage/species_image/2_abies_alba_pyramidalis/small/49255769768_df55596553_b.jpg","thumbnail":"https://perenual.com/storage/species_image/2_abies_alba_pyramidalis/thumbnail/49255769768_df55596553_b.jpg"}},{"id":1276,"common_name":"Swiss chard","scientific_name":["Beta vulgaris (Leaf Beet Group) 'Bright Lights'"],"other_name":null,"cycle":"Perennial","watering":"Average","sunlight":["Full sun","part shade"],"default_image":{"image_id":9,"license":5,"license_name":"Attribution-ShareAlike License","license_url":"https://creativecommons.org/licenses/by-sa/2.0/","original_url":"https://perenual.com/storage/species_image/2_abies_alba_pyramidalis/og/49255769768_df55596553_b.jpg","regular_url":"https://perenual.com/storage/species_image/2_abies_alba_pyramidalis/regular/49255769768_df55596553_b.jpg","medium_url":"https://perenual.com/storage/species_image/2_abies_alba_pyramidalis/medium/49255769768_df55596553_b.jpg","small_url":"https://perenual.com/storage/species_image/2_abies_alba_pyramidalis/small/49255769768_df55596553_b.jpg","thumbnail":"https://perenual.com/storage/species_image/2_abies_alba_pyramidalis/thumbnail/49255769768_df55596553_b.jpg"}},{"id":1277,"common_name":"Swiss chard","scientific_name":["Beta vulgaris (Leaf Beet Group) 'Northern Lights'"],"other_name":null,"cycle":"Perennial","watering":"Average","sunlight":["Full sun","part shade"],"default_image":{"image_id":2972,"license":6,"license_name":"Attribution-NoDerivs License","license_url":"https://creativecommons.org/licenses/by-nd/2.0/","original_url":"https://perenual.com/storage/species_image/1277_beta_vulgaris_leaf_beet_group_northern_lights/og/51497846878_e9e9289222_b.jpg"}},{"id":1278,"common_name":"sugar beet","scientific_name":["Beta vulgaris subsp. vulgaris"],"other_name":null,"cycle":"Perennial","watering":"Average","sunlight":["Full sun"],"default_image":{"image_id":2966,"license":4,"license_name":"Attribution License","license_url":"https://creativecommons.org/licenses/by/2.0/","original_url":"https://perenual.com/storage/species_image/1278_beta_vulgaris_subsp_vulgaris/og/24879462575_521a00b451_b.jpg","regular_url":"https://perenual.com/storage/species_image/1278_beta_vulgaris_subsp_vulgaris/regular/24879462575_521a00b451_b.jpg","medium_url":"https://perenual.com/storage/species_image/1278_beta_vulgaris_subsp_vulgaris/medium/24879462575_521a00b451_b.jpg","small_url":"https://perenual.com/storage/species_image/1278_beta_vulgaris_subsp_vulgaris/small/24879462575_521a00b451_b.jpg","thumbnail":"https://perenual.com/storage/species_image/1278_beta_vulgaris_subsp_vulgaris/thumbnail/24879462575_521a00b451_b.jpg"}},{"id":1279,"common_name":"Asian black birch","scientific_name":["Betula dahurica"],"other_name":null,"cycle":"Perennial","watering":"Average","sunlight":["Full sun","part shade"],"default_image":{"image_id":9,"license":5,"license_name":"Attribution-ShareAlike License","license_url":"https://creativecommons.org/licenses/by-sa/2.0/","original_url":"https://perenual.com/storage/species_image/2_abies_alba_pyramidalis/og/49255769768_df55596553_b.jpg","regular_url":"https://perenual.com/storage/species_image/2_abies_alba_pyramidalis/regular/49255769768_df55596553_b.jpg","medium_url":"https://perenual.com/storage/species_image/2_abies_alba_pyramidalis/medium/49255769768_df55596553_b.jpg","small_url":"https://perenual.com/storage/species_image/2_abies_alba_pyramidalis/small/49255769768_df55596553_b.jpg","thumbnail":"https://perenual.com/storage/species_image/2_abies_alba_pyramidalis/thumbnail/49255769768_df55596553_b.jpg"}},{"id":1280,"common_name":"dwarf birch","scientific_name":["Betula 'Golden Treasure' CESKY GOLD"],"other_name":null,"cycle":"Perennial","watering":"Average","sunlight":["Full sun","part shade"],"default_image":{"image_id":9,"license":5,"license_name":"Attribution-ShareAlike License","license_url":"https://creativecommons.org/licenses/by-sa/2.0/","original_url":"https://perenual.com/storage/species_image/2_abies_alba_pyramidalis/og/49255769768_df55596553_b.jpg","regular_url":"https://perenual.com/storage/species_image/2_abies_alba_pyramidalis/regular/49255769768_df55596553_b.jpg","medium_url":"https://perenual.com/storage/species_image/2_abies_alba_pyramidalis/medium/49255769768_df55596553_b.jpg","small_url":"https://perenual.com/storage/species_image/2_abies_alba_pyramidalis/small/49255769768_df55596553_b.jpg","thumbnail":"https://perenual.com/storage/species_image/2_abies_alba_pyramidalis/thumbnail/49255769768_df55596553_b.jpg"}},{"id":1281,"common_name":"sweet birch","scientific_name":["Betula lenta"],"other_name":["sweet birch","black birch","black birch","Sweet Birch","Black Birch","Mountain Mahogany"],"cycle":"Perennial","watering":"Average","sunlight":["Sun"," Partial Shade"],"default_image":null},{"id":1282,"common_name":"river birch","scientific_name":["Betula nigra 'BNMTF' DURA-HEAT"],"other_name":null,"cycle":"Perennial","watering":"Frequent","sunlight":["Full sun","part shade"],"default_image":{"image_id":9,"license":5,"license_name":"Attribution-ShareAlike License","license_url":"https://creativecommons.org/licenses/by-sa/2.0/","original_url":"https://perenual.com/storage/species_image/2_abies_alba_pyramidalis/og/49255769768_df55596553_b.jpg","regular_url":"https://perenual.com/storage/species_image/2_abies_alba_pyramidalis/regular/49255769768_df55596553_b.jpg","medium_url":"https://perenual.com/storage/species_image/2_abies_alba_pyramidalis/medium/49255769768_df55596553_b.jpg","small_url":"https://perenual.com/storage/species_image/2_abies_alba_pyramidalis/small/49255769768_df55596553_b.jpg","thumbnail":"https://perenual.com/storage/species_image/2_abies_alba_pyramidalis/thumbnail/49255769768_df55596553_b.jpg"}},{"id":1283,"common_name":"river birch","scientific_name":["Betula nigra 'Cully' HERITAGE"],"other_name":null,"cycle":"Perennial","watering":"Frequent","sunlight":["Full sun","part shade"],"default_image":{"image_id":9,"license":5,"license_name":"Attribution-ShareAlike License","license_url":"https://creativecommons.org/licenses/by-sa/2.0/","original_url":"https://perenual.com/storage/species_image/2_abies_alba_pyramidalis/og/49255769768_df55596553_b.jpg","regular_url":"https://perenual.com/storage/species_image/2_abies_alba_pyramidalis/regular/49255769768_df55596553_b.jpg","medium_url":"https://perenual.com/storage/species_image/2_abies_alba_pyramidalis/medium/49255769768_df55596553_b.jpg","small_url":"https://perenual.com/storage/species_image/2_abies_alba_pyramidalis/small/49255769768_df55596553_b.jpg","thumbnail":"https://perenual.com/storage/species_image/2_abies_alba_pyramidalis/thumbnail/49255769768_df55596553_b.jpg"}},{"id":1284,"common_name":"river birch","scientific_name":["Betula nigra 'Dickinson' NORTHERN TRIBUTE"],"other_name":null,"cycle":"Perennial","watering":"Average","sunlight":["Full sun"],"default_image":{"image_id":9,"license":5,"license_name":"Attribution-ShareAlike License","license_url":"https://creativecommons.org/licenses/by-sa/2.0/","original_url":"https://perenual.com/storage/species_image/2_abies_alba_pyramidalis/og/49255769768_df55596553_b.jpg","regular_url":"https://perenual.com/storage/species_image/2_abies_alba_pyramidalis/regular/49255769768_df55596553_b.jpg","medium_url":"https://perenual.com/storage/species_image/2_abies_alba_pyramidalis/medium/49255769768_df55596553_b.jpg","small_url":"https://perenual.com/storage/species_image/2_abies_alba_pyramidalis/small/49255769768_df55596553_b.jpg","thumbnail":"https://perenual.com/storage/species_image/2_abies_alba_pyramidalis/thumbnail/49255769768_df55596553_b.jpg"}},{"id":1285,"common_name":"river birch","scientific_name":["Betula nigra 'Little King' FOX VALLEY"],"other_name":null,"cycle":"Perennial","watering":"Frequent","sunlight":["Full sun","part shade"],"default_image":{"image_id":2993,"license":5,"license_name":"Attribution-ShareAlike License","license_url":"https://creativecommons.org/licenses/by-sa/2.0/","original_url":"https://perenual.com/storage/species_image/1285_betula_nigra_little_king_fox_valley/og/52615262584_4de4239d56_b.jpg","regular_url":"https://perenual.com/storage/species_image/1285_betula_nigra_little_king_fox_valley/regular/52615262584_4de4239d56_b.jpg","medium_url":"https://perenual.com/storage/species_image/1285_betula_nigra_little_king_fox_valley/medium/52615262584_4de4239d56_b.jpg","small_url":"https://perenual.com/storage/species_image/1285_betula_nigra_little_king_fox_valley/small/52615262584_4de4239d56_b.jpg","thumbnail":"https://perenual.com/storage/species_image/1285_betula_nigra_little_king_fox_valley/thumbnail/52615262584_4de4239d56_b.jpg"}},{"id":1286,"common_name":"water birch","scientific_name":["Betula occidentalis"],"other_name":["River Birch","Western Birch","Black Birch","Red Birch","Spring Birch","Mountain Birch","Western Birch","Black Birch","Red Birch","Spring Birch","Mountain Birch"],"cycle":"Perennial","watering":"Frequent","sunlight":["Sun"," Partial Shade"],"default_image":{"image_id":2996,"license":4,"license_name":"Attribution License","license_url":"https://creativecommons.org/licenses/by/2.0/","original_url":"https://perenual.com/storage/species_image/1286_betula_occidentalis/og/49852650303_ae4566b8c2_b.jpg","regular_url":"https://perenual.com/storage/species_image/1286_betula_occidentalis/regular/49852650303_ae4566b8c2_b.jpg","medium_url":"https://perenual.com/storage/species_image/1286_betula_occidentalis/medium/49852650303_ae4566b8c2_b.jpg","small_url":"https://perenual.com/storage/species_image/1286_betula_occidentalis/small/49852650303_ae4566b8c2_b.jpg","thumbnail":"https://perenual.com/storage/species_image/1286_betula_occidentalis/thumbnail/49852650303_ae4566b8c2_b.jpg"}},{"id":1287,"common_name":"paper birch","scientific_name":["Betula papyrifera 'Varen' PRAIRIE DREAM"],"other_name":["White Birch","Canoe Birch"],"cycle":"Perennial","watering":"Frequent","sunlight":[],"default_image":{"image_id":9,"license":5,"license_name":"Attribution-ShareAlike License","license_url":"https://creativecommons.org/licenses/by-sa/2.0/","original_url":"https://perenual.com/storage/species_image/2_abies_alba_pyramidalis/og/49255769768_df55596553_b.jpg","regular_url":"https://perenual.com/storage/species_image/2_abies_alba_pyramidalis/regular/49255769768_df55596553_b.jpg","medium_url":"https://perenual.com/storage/species_image/2_abies_alba_pyramidalis/medium/49255769768_df55596553_b.jpg","small_url":"https://perenual.com/storage/species_image/2_abies_alba_pyramidalis/small/49255769768_df55596553_b.jpg","thumbnail":"https://perenual.com/storage/species_image/2_abies_alba_pyramidalis/thumbnail/49255769768_df55596553_b.jpg"}},{"id":1288,"common_name":"European white birch","scientific_name":["Betula pendula"],"other_name":["silver birch","European White Birch"],"cycle":"Perennial","watering":"Frequent","sunlight":["Sun"],"default_image":{"image_id":9,"license":5,"license_name":"Attribution-ShareAlike License","license_url":"https://creativecommons.org/licenses/by-sa/2.0/","original_url":"https://perenual.com/storage/species_image/2_abies_alba_pyramidalis/og/49255769768_df55596553_b.jpg","regular_url":"https://perenual.com/storage/species_image/2_abies_alba_pyramidalis/regular/49255769768_df55596553_b.jpg","medium_url":"https://perenual.com/storage/species_image/2_abies_alba_pyramidalis/medium/49255769768_df55596553_b.jpg","small_url":"https://perenual.com/storage/species_image/2_abies_alba_pyramidalis/small/49255769768_df55596553_b.jpg","thumbnail":"https://perenual.com/storage/species_image/2_abies_alba_pyramidalis/thumbnail/49255769768_df55596553_b.jpg"}},{"id":1289,"common_name":"silver birch","scientific_name":["Betula pendula MAGICAL GLOBE"],"other_name":["silver birch","European White Birch"],"cycle":"Perennial","watering":"Frequent","sunlight":["Sun"],"default_image":{"image_id":9,"license":5,"license_name":"Attribution-ShareAlike License","license_url":"https://creativecommons.org/licenses/by-sa/2.0/","original_url":"https://perenual.com/storage/species_image/2_abies_alba_pyramidalis/og/49255769768_df55596553_b.jpg","regular_url":"https://perenual.com/storage/species_image/2_abies_alba_pyramidalis/regular/49255769768_df55596553_b.jpg","medium_url":"https://perenual.com/storage/species_image/2_abies_alba_pyramidalis/medium/49255769768_df55596553_b.jpg","small_url":"https://perenual.com/storage/species_image/2_abies_alba_pyramidalis/small/49255769768_df55596553_b.jpg","thumbnail":"https://perenual.com/storage/species_image/2_abies_alba_pyramidalis/thumbnail/49255769768_df55596553_b.jpg"}},{"id":1290,"common_name":"Japanese white birch","scientific_name":["Betula platyphylla"],"other_name":null,"cycle":"Perennial","watering":"Frequent","sunlight":["Full sun","part shade"],"default_image":{"image_id":3001,"license":5,"license_name":"Attribution-ShareAlike License","license_url":"https://creativecommons.org/licenses/by-sa/2.0/","original_url":"https://perenual.com/storage/species_image/1290_betula_platyphylla/og/17210016372_4c7c2a3187_b.jpg","regular_url":"https://perenual.com/storage/species_image/1290_betula_platyphylla/regular/17210016372_4c7c2a3187_b.jpg","medium_url":"https://perenual.com/storage/species_image/1290_betula_platyphylla/medium/17210016372_4c7c2a3187_b.jpg","small_url":"https://perenual.com/storage/species_image/1290_betula_platyphylla/small/17210016372_4c7c2a3187_b.jpg","thumbnail":"https://perenual.com/storage/species_image/1290_betula_platyphylla/thumbnail/17210016372_4c7c2a3187_b.jpg"}}],"to":1290,"per_page":30,"current_page":43,"from":1261,"last_page":200,"total":6000}