{"data":[{"id":31,"common_name":"Aoyagi Japanese Maple*","scientific_name":["Acer palmatum 'Aoyagi'"],"other_name":["Green Coral Japanese Maple"],"cycle":"Perennial","watering":"Frequent","sunlight":[],"default_image":{"image_id":100,"license":451,"license_name":"CC0 1.0 Universal (CC0 1.0) Public Domain Dedication","license_url":"https://creativecommons.org/publicdomain/zero/1.0/","original_url":"https://perenual.com/storage/species_image/164_acer_shirasawanum_yasemin/og/acer_palmatum_japanese_maples_trees_red_red_leaves_blue_sky_blue_white-1126158.jpg","regular_url":"https://perenual.com/storage/species_image/164_acer_shirasawanum_yasemin/regular/acer_palmatum_japanese_maples_trees_red_red_leaves_blue_sky_blue_white-1126158.jpg","medium_url":"https://perenual.com/storage/species_image/164_acer_shirasawanum_yasemin/medium/acer_palmatum_japanese_maples_trees_red_red_leaves_blue_sky_blue_white-1126158.jpg","small_url":"https://perenual.com/storage/species_image/164_acer_shirasawanum_yasemin/small/acer_palmatum_japanese_maples_trees_red_red_leaves_blue_sky_blue_white-1126158.jpg","thumbnail":"https://perenual.com/storage/species_image/164_acer_shirasawanum_yasemin/thumbnail/acer_palmatum_japanese_maples_trees_red_red_leaves_blue_sky_blue_white-1126158.jpg"}},{"id":32,"common_name":"Arakawa Cork Bark Japanese Maple","scientific_name":["Acer palmatum 'Arakawa'"],"other_name":["Rough-Bark Japanese Maple","Arakawa Ukon"],"cycle":"Perennial","watering":"Average","sunlight":["Full sun","part shade"],"default_image":{"image_id":9,"license":5,"license_name":"Attribution-ShareAlike License","license_url":"https://creativecommons.org/licenses/by-sa/2.0/","original_url":"https://perenual.com/storage/species_image/2_abies_alba_pyramidalis/og/49255769768_df55596553_b.jpg","regular_url":"https://perenual.com/storage/species_image/2_abies_alba_pyramidalis/regular/49255769768_df55596553_b.jpg","medium_url":"https://perenual.com/storage/species_image/2_abies_alba_pyramidalis/medium/49255769768_df55596553_b.jpg","small_url":"https://perenual.com/storage/species_image/2_abies_alba_pyramidalis/small/49255769768_df55596553_b.jpg","thumbnail":"https://perenual.com/storage/species_image/2_abies_alba_pyramidalis/thumbnail/49255769768_df55596553_b.jpg"}},{"id":33,"common_name":"Asahi Zuru Japanese Maple","scientific_name":["Acer palmatum 'Asahi Zuru'"],"other_name":["Rising Sun","Dawn Swan"],"cycle":"Perennial","watering":"Frequent","sunlight":[],"default_image":{"image_id":9,"license":5,"license_name":"Attribution-ShareAlike License","license_url":"https://creativecommons.org/licenses/by-sa/2.0/","original_url":"https://perenual.com/storage/species_image/2_abies_alba_pyramidalis/og/49255769768_df55596553_b.jpg","regular_url":"https://perenual.com/storage/species_image/2_abies_alba_pyramidalis/regular/49255769768_df55596553_b.jpg","medium_url":"https://perenual.com/storage/species_image/2_abies_alba_pyramidalis/medium/49255769768_df55596553_b.jpg","small_url":"https://perenual.com/storage/species_image/2_abies_alba_pyramidalis/small/49255769768_df55596553_b.jpg","thumbnail":"https://perenual.com/storage/species_image/2_abies_alba_pyramidalis/thumbnail/49255769768_df55596553_b.jpg"}},{"id":34,"common_name":"Ribbon-leaf Japanese Maple*","scientific_name":["Acer palmatum 'Atrolineare'"],"other_name":["Red Strap-Leaf Japanese Maple"],"cycle":"Perennial","watering":"Frequent","sunlight":[],"default_image":{"image_id":9,"license":5,"license_name":"Attribution-ShareAlike License","license_url":"https://creativecommons.org/licenses/by-sa/2.0/","original_url":"https://perenual.com/storage/species_image/2_abies_alba_pyramidalis/og/49255769768_df55596553_b.jpg","regular_url":"https://perenual.com/storage/species_image/2_abies_alba_pyramidalis/regular/49255769768_df55596553_b.jpg","medium_url":"https://perenual.com/storage/species_image/2_abies_alba_pyramidalis/medium/49255769768_df55596553_b.jpg","small_url":"https://perenual.com/storage/species_image/2_abies_alba_pyramidalis/small/49255769768_df55596553_b.jpg","thumbnail":"https://perenual.com/storage/species_image/2_abies_alba_pyramidalis/thumbnail/49255769768_df55596553_b.jpg"}},{"id":35,"common_name":"Purple-Leaf Japanese Maple","scientific_name":["Acer palmatum 'Atropurpureum'"],"other_name":null,"cycle":"Perennial","watering":"Frequent","sunlight":[],"default_image":{"image_id":106,"license":4,"license_name":"Attribution License","license_url":"https://creativecommons.org/licenses/by/2.0/","original_url":"https://perenual.com/storage/species_image/35_acer_palmatum_atropurpureum/og/5656874577_617188e307_b.jpg","regular_url":"https://perenual.com/storage/species_image/35_acer_palmatum_atropurpureum/regular/5656874577_617188e307_b.jpg","medium_url":"https://perenual.com/storage/species_image/35_acer_palmatum_atropurpureum/medium/5656874577_617188e307_b.jpg","small_url":"https://perenual.com/storage/species_image/35_acer_palmatum_atropurpureum/small/5656874577_617188e307_b.jpg","thumbnail":"https://perenual.com/storage/species_image/35_acer_palmatum_atropurpureum/thumbnail/5656874577_617188e307_b.jpg"}},{"id":36,"common_name":"Aureum Japanese Maple*","scientific_name":["Acer palmatum 'Aureum'"],"other_name":null,"cycle":"Perennial","watering":"Frequent","sunlight":[],"default_image":{"image_id":9,"license":5,"license_name":"Attribution-ShareAlike License","license_url":"https://creativecommons.org/licenses/by-sa/2.0/","original_url":"https://perenual.com/storage/species_image/2_abies_alba_pyramidalis/og/49255769768_df55596553_b.jpg","regular_url":"https://perenual.com/storage/species_image/2_abies_alba_pyramidalis/regular/49255769768_df55596553_b.jpg","medium_url":"https://perenual.com/storage/species_image/2_abies_alba_pyramidalis/medium/49255769768_df55596553_b.jpg","small_url":"https://perenual.com/storage/species_image/2_abies_alba_pyramidalis/small/49255769768_df55596553_b.jpg","thumbnail":"https://perenual.com/storage/species_image/2_abies_alba_pyramidalis/thumbnail/49255769768_df55596553_b.jpg"}},{"id":37,"common_name":"Autumn Fire Japanese Maple","scientific_name":["Acer palmatum 'Autumn Fire'"],"other_name":["Herbstfeuer"],"cycle":"Perennial","watering":"Frequent","sunlight":[],"default_image":null},{"id":38,"common_name":"Azuma Murasaki Japanese Maple","scientific_name":["Acer palmatum 'Azuma Murasaki'"],"other_name":null,"cycle":"Perennial","watering":"Frequent","sunlight":[],"default_image":{"image_id":9,"license":5,"license_name":"Attribution-ShareAlike License","license_url":"https://creativecommons.org/licenses/by-sa/2.0/","original_url":"https://perenual.com/storage/species_image/2_abies_alba_pyramidalis/og/49255769768_df55596553_b.jpg","regular_url":"https://perenual.com/storage/species_image/2_abies_alba_pyramidalis/regular/49255769768_df55596553_b.jpg","medium_url":"https://perenual.com/storage/species_image/2_abies_alba_pyramidalis/medium/49255769768_df55596553_b.jpg","small_url":"https://perenual.com/storage/species_image/2_abies_alba_pyramidalis/small/49255769768_df55596553_b.jpg","thumbnail":"https://perenual.com/storage/species_image/2_abies_alba_pyramidalis/thumbnail/49255769768_df55596553_b.jpg"}},{"id":39,"common_name":"Beni Kawa Coral Bark Japanese Maple*","scientific_name":["Acer palmatum 'Beni Kawa'"],"other_name":null,"cycle":"Perennial","watering":"Frequent","sunlight":[],"default_image":{"image_id":110,"license":4,"license_name":"Attribution License","license_url":"https://creativecommons.org/licenses/by/2.0/","original_url":"https://perenual.com/storage/species_image/39_acer_palmatum_beni_kawa/og/5695802528_935d72efaa_b.jpg","regular_url":"https://perenual.com/storage/species_image/39_acer_palmatum_beni_kawa/regular/5695802528_935d72efaa_b.jpg","medium_url":"https://perenual.com/storage/species_image/39_acer_palmatum_beni_kawa/medium/5695802528_935d72efaa_b.jpg","small_url":"https://perenual.com/storage/species_image/39_acer_palmatum_beni_kawa/small/5695802528_935d72efaa_b.jpg","thumbnail":"https://perenual.com/storage/species_image/39_acer_palmatum_beni_kawa/thumbnail/5695802528_935d72efaa_b.jpg"}},{"id":40,"common_name":"Beni Otake Japanese Maple","scientific_name":["Acer palmatum 'Beni Otake'"],"other_name":["Big Red Bamboo"],"cycle":"Perennial","watering":"Frequent","sunlight":[],"default_image":{"image_id":9,"license":5,"license_name":"Attribution-ShareAlike License","license_url":"https://creativecommons.org/licenses/by-sa/2.0/","original_url":"https://perenual.com/storage/species_image/2_abies_alba_pyramidalis/og/49255769768_df55596553_b.jpg","regular_url":"https://perenual.com/storage/species_image/2_abies_alba_pyramidalis/regular/49255769768_df55596553_b.jpg","medium_url":"https://perenual.com/storage/species_image/2_abies_alba_pyramidalis/medium/49255769768_df55596553_b.jpg","small_url":"https://perenual.com/storage/species_image/2_abies_alba_pyramidalis/small/49255769768_df55596553_b.jpg","thumbnail":"https://perenual.com/storage/species_image/2_abies_alba_pyramidalis/thumbnail/49255769768_df55596553_b.jpg"}},{"id":41,"common_name":"Beni Schichihenge Japanese Maple","scientific_name":["Acer palmatum 'Beni Schichihenge'"],"other_name":null,"cycle":"Perennial","watering":"Frequent","sunlight":[],"default_image":{"image_id":9,"license":5,"license_name":"Attribution-ShareAlike License","license_url":"https://creativecommons.org/licenses/by-sa/2.0/","original_url":"https://perenual.com/storage/species_image/2_abies_alba_pyramidalis/og/49255769768_df55596553_b.jpg","regular_url":"https://perenual.com/storage/species_image/2_abies_alba_pyramidalis/regular/49255769768_df55596553_b.jpg","medium_url":"https://perenual.com/storage/species_image/2_abies_alba_pyramidalis/medium/49255769768_df55596553_b.jpg","small_url":"https://perenual.com/storage/species_image/2_abies_alba_pyramidalis/small/49255769768_df55596553_b.jpg","thumbnail":"https://perenual.com/storage/species_image/2_abies_alba_pyramidalis/thumbnail/49255769768_df55596553_b.jpg"}},{"id":42,"common_name":"Beni Tsukasa Japanese Maple*","scientific_name":["Acer palmatum 'Beni Tsukasa'"],"other_name":["Calico Cloth"],"cycle":"Perennial","watering":"Frequent","sunlight":[],"default_image":{"image_id":113,"license":451,"license_name":"CC0 1.0 Universal (CC0 1.0) Public Domain Dedication","license_url":"https://creativecommons.org/publicdomain/zero/1.0/","original_url":"https://perenual.com/storage/species_image/42_acer_palmatum_beni_tsukasa/og/pexels-photo-11870811.jpg","regular_url":"https://perenual.com/storage/species_image/42_acer_palmatum_beni_tsukasa/regular/pexels-photo-11870811.jpg","medium_url":"https://perenual.com/storage/species_image/42_acer_palmatum_beni_tsukasa/medium/pexels-photo-11870811.jpg","small_url":"https://perenual.com/storage/species_image/42_acer_palmatum_beni_tsukasa/small/pexels-photo-11870811.jpg","thumbnail":"https://perenual.com/storage/species_image/42_acer_palmatum_beni_tsukasa/thumbnail/pexels-photo-11870811.jpg"}},{"id":43,"common_name":"Bloodgood Japanese Maple","scientific_name":["Acer palmatum 'Bloodgood'"],"other_name":null,"cycle":"Perennial","watering":"Average","sunlight":["Full sun","part shade"],"default_image":{"image_id":114,"license":5,"license_name":"Attribution-ShareAlike License","license_url":"https://creativecommons.org/licenses/by-sa/2.0/","original_url":"https://perenual.com/storage/species_image/43_acer_palmatum_bloodgood/og/47923603032_5a96106ac6_b.jpg","regular_url":"https://perenual.com/storage/species_image/43_acer_palmatum_bloodgood/regular/47923603032_5a96106ac6_b.jpg","medium_url":"https://perenual.com/storage/species_image/43_acer_palmatum_bloodgood/medium/47923603032_5a96106ac6_b.jpg","small_url":"https://perenual.com/storage/species_image/43_acer_palmatum_bloodgood/small/47923603032_5a96106ac6_b.jpg","thumbnail":"https://perenual.com/storage/species_image/43_acer_palmatum_bloodgood/thumbnail/47923603032_5a96106ac6_b.jpg"}},{"id":44,"common_name":"Bonfire Japanese Maple","scientific_name":["Acer palmatum 'Bonfire'"],"other_name":["Seigai"],"cycle":"Perennial","watering":"Frequent","sunlight":[],"default_image":{"image_id":120,"license":451,"license_name":"CC0 1.0 Universal (CC0 1.0) Public Domain Dedication","license_url":"https://creativecommons.org/publicdomain/zero/1.0/","original_url":"https://perenual.com/storage/species_image/113_acer_palmatum_samarzam/og/sk3776-image-kwvuoab1.jpg?w=800&dpr=1&fit=default&crop=default&q=65&vib=3&con=3&usm=15&bg=F4F4F3&ixlib=js-2.2.jpg","regular_url":"https://perenual.com/storage/species_image/113_acer_palmatum_samarzam/regular/sk3776-image-kwvuoab1.jpg?w=800&dpr=1&fit=default&crop=default&q=65&vib=3&con=3&usm=15&bg=F4F4F3&ixlib=js-2.2.jpg","medium_url":"https://perenual.com/storage/species_image/113_acer_palmatum_samarzam/medium/sk3776-image-kwvuoab1.jpg?w=800&dpr=1&fit=default&crop=default&q=65&vib=3&con=3&usm=15&bg=F4F4F3&ixlib=js-2.2.jpg","small_url":"https://perenual.com/storage/species_image/113_acer_palmatum_samarzam/small/sk3776-image-kwvuoab1.jpg?w=800&dpr=1&fit=default&crop=default&q=65&vib=3&con=3&usm=15&bg=F4F4F3&ixlib=js-2.2.jpg","thumbnail":"https://perenual.com/storage/species_image/113_acer_palmatum_samarzam/thumbnail/sk3776-image-kwvuoab1.jpg?w=800&dpr=1&fit=default&crop=default&q=65&vib=3&con=3&usm=15&bg=F4F4F3&ixlib=js-2.2.jpg"}},{"id":45,"common_name":"Brandt's Dwarf Japanese Maple","scientific_name":["Acer palmatum 'Brandt's Dwarf'"],"other_name":null,"cycle":"Perennial","watering":"Minimal","sunlight":[],"default_image":{"image_id":121,"license":45,"license_name":"Attribution-ShareAlike 3.0 Unported (CC BY-SA 3.0)","license_url":"https://creativecommons.org/licenses/by-sa/3.0/deed.en","original_url":"https://perenual.com/storage/species_image/45_acer_palmatum_brandts_dwarf/og/Acer_palmatum_BotGartenMuenster_Faecherahorn_6691.jpg","regular_url":"https://perenual.com/storage/species_image/45_acer_palmatum_brandts_dwarf/regular/Acer_palmatum_BotGartenMuenster_Faecherahorn_6691.jpg","medium_url":"https://perenual.com/storage/species_image/45_acer_palmatum_brandts_dwarf/medium/Acer_palmatum_BotGartenMuenster_Faecherahorn_6691.jpg","small_url":"https://perenual.com/storage/species_image/45_acer_palmatum_brandts_dwarf/small/Acer_palmatum_BotGartenMuenster_Faecherahorn_6691.jpg","thumbnail":"https://perenual.com/storage/species_image/45_acer_palmatum_brandts_dwarf/thumbnail/Acer_palmatum_BotGartenMuenster_Faecherahorn_6691.jpg"}},{"id":46,"common_name":"Burgundy Lace Japanese Maple","scientific_name":["Acer palmatum 'Burgundy Lace'"],"other_name":null,"cycle":"Perennial","watering":"Average","sunlight":["Full sun","part shade"],"default_image":{"image_id":122,"license":5,"license_name":"Attribution-ShareAlike License","license_url":"https://creativecommons.org/licenses/by-sa/2.0/","original_url":"https://perenual.com/storage/species_image/46_acer_palmatum_burgundy_lace/og/50082938346_1040fdd690_b.jpg","regular_url":"https://perenual.com/storage/species_image/46_acer_palmatum_burgundy_lace/regular/50082938346_1040fdd690_b.jpg","medium_url":"https://perenual.com/storage/species_image/46_acer_palmatum_burgundy_lace/medium/50082938346_1040fdd690_b.jpg","small_url":"https://perenual.com/storage/species_image/46_acer_palmatum_burgundy_lace/small/50082938346_1040fdd690_b.jpg","thumbnail":"https://perenual.com/storage/species_image/46_acer_palmatum_burgundy_lace/thumbnail/50082938346_1040fdd690_b.jpg"}},{"id":47,"common_name":"Butterfly Variegated Japanese Maple","scientific_name":["Acer palmatum 'Butterfly'"],"other_name":null,"cycle":"Perennial","watering":"Average","sunlight":["Full sun","part shade"],"default_image":{"image_id":125,"license":4,"license_name":"Attribution License","license_url":"https://creativecommons.org/licenses/by/2.0/","original_url":"https://perenual.com/storage/species_image/47_acer_palmatum_butterfly/og/20251027248_dc9cfd6f65_b.jpg","regular_url":"https://perenual.com/storage/species_image/47_acer_palmatum_butterfly/regular/20251027248_dc9cfd6f65_b.jpg","medium_url":"https://perenual.com/storage/species_image/47_acer_palmatum_butterfly/medium/20251027248_dc9cfd6f65_b.jpg","small_url":"https://perenual.com/storage/species_image/47_acer_palmatum_butterfly/small/20251027248_dc9cfd6f65_b.jpg","thumbnail":"https://perenual.com/storage/species_image/47_acer_palmatum_butterfly/thumbnail/20251027248_dc9cfd6f65_b.jpg"}},{"id":48,"common_name":"Chantilly Lace Japanese Maple","scientific_name":["Acer palmatum 'Chantilly Lace'"],"other_name":["Threadleaf Japanese Maple"],"cycle":"Perennial","watering":"Frequent","sunlight":[],"default_image":{"image_id":126,"license":5,"license_name":"Attribution-ShareAlike License","license_url":"https://creativecommons.org/licenses/by-sa/2.0/","original_url":"https://perenual.com/storage/species_image/87_acer_palmatum_orangeola/og/4714671587_8ecba52560_b.jpg","regular_url":"https://perenual.com/storage/species_image/87_acer_palmatum_orangeola/regular/4714671587_8ecba52560_b.jpg","medium_url":"https://perenual.com/storage/species_image/87_acer_palmatum_orangeola/medium/4714671587_8ecba52560_b.jpg","small_url":"https://perenual.com/storage/species_image/87_acer_palmatum_orangeola/small/4714671587_8ecba52560_b.jpg","thumbnail":"https://perenual.com/storage/species_image/87_acer_palmatum_orangeola/thumbnail/4714671587_8ecba52560_b.jpg"}},{"id":49,"common_name":"Chishio Japanese Maple","scientific_name":["Acer palmatum 'Chishio'"],"other_name":null,"cycle":"Perennial","watering":"Frequent","sunlight":[],"default_image":{"image_id":9,"license":5,"license_name":"Attribution-ShareAlike License","license_url":"https://creativecommons.org/licenses/by-sa/2.0/","original_url":"https://perenual.com/storage/species_image/2_abies_alba_pyramidalis/og/49255769768_df55596553_b.jpg","regular_url":"https://perenual.com/storage/species_image/2_abies_alba_pyramidalis/regular/49255769768_df55596553_b.jpg","medium_url":"https://perenual.com/storage/species_image/2_abies_alba_pyramidalis/medium/49255769768_df55596553_b.jpg","small_url":"https://perenual.com/storage/species_image/2_abies_alba_pyramidalis/small/49255769768_df55596553_b.jpg","thumbnail":"https://perenual.com/storage/species_image/2_abies_alba_pyramidalis/thumbnail/49255769768_df55596553_b.jpg"}},{"id":50,"common_name":"Chitose Yama Japanese Maple","scientific_name":["Acer palmatum 'Chitose Yama'"],"other_name":["Chitoseyama"],"cycle":"Perennial","watering":"Frequent","sunlight":[],"default_image":{"image_id":9,"license":5,"license_name":"Attribution-ShareAlike License","license_url":"https://creativecommons.org/licenses/by-sa/2.0/","original_url":"https://perenual.com/storage/species_image/2_abies_alba_pyramidalis/og/49255769768_df55596553_b.jpg","regular_url":"https://perenual.com/storage/species_image/2_abies_alba_pyramidalis/regular/49255769768_df55596553_b.jpg","medium_url":"https://perenual.com/storage/species_image/2_abies_alba_pyramidalis/medium/49255769768_df55596553_b.jpg","small_url":"https://perenual.com/storage/species_image/2_abies_alba_pyramidalis/small/49255769768_df55596553_b.jpg","thumbnail":"https://perenual.com/storage/species_image/2_abies_alba_pyramidalis/thumbnail/49255769768_df55596553_b.jpg"}},{"id":51,"common_name":"Coonara Pygmy Japanese Maple","scientific_name":["Acer palmatum 'Coonara Pygmy'"],"other_name":null,"cycle":"Perennial","watering":"Frequent","sunlight":[],"default_image":{"image_id":9,"license":5,"license_name":"Attribution-ShareAlike License","license_url":"https://creativecommons.org/licenses/by-sa/2.0/","original_url":"https://perenual.com/storage/species_image/2_abies_alba_pyramidalis/og/49255769768_df55596553_b.jpg","regular_url":"https://perenual.com/storage/species_image/2_abies_alba_pyramidalis/regular/49255769768_df55596553_b.jpg","medium_url":"https://perenual.com/storage/species_image/2_abies_alba_pyramidalis/medium/49255769768_df55596553_b.jpg","small_url":"https://perenual.com/storage/species_image/2_abies_alba_pyramidalis/small/49255769768_df55596553_b.jpg","thumbnail":"https://perenual.com/storage/species_image/2_abies_alba_pyramidalis/thumbnail/49255769768_df55596553_b.jpg"}},{"id":52,"common_name":"Crimson Prince Japanese Maple*","scientific_name":["Acer palmatum 'Crimson Prince'"],"other_name":null,"cycle":"Perennial","watering":"Frequent","sunlight":[],"default_image":{"image_id":131,"license":451,"license_name":"CC0 1.0 Universal (CC0 1.0) Public Domain Dedication","license_url":"https://creativecommons.org/publicdomain/zero/1.0/","original_url":"https://perenual.com/storage/species_image/52_acer_palmatum_crimson_prince/og/1-1274349109Jjby.jpg","regular_url":"https://perenual.com/storage/species_image/52_acer_palmatum_crimson_prince/regular/1-1274349109Jjby.jpg","medium_url":"https://perenual.com/storage/species_image/52_acer_palmatum_crimson_prince/medium/1-1274349109Jjby.jpg","small_url":"https://perenual.com/storage/species_image/52_acer_palmatum_crimson_prince/small/1-1274349109Jjby.jpg","thumbnail":"https://perenual.com/storage/species_image/52_acer_palmatum_crimson_prince/thumbnail/1-1274349109Jjby.jpg"}},{"id":53,"common_name":"Ever Red Lace-Leaf Japanese Maple*","scientific_name":["Acer palmatum 'Ever Red'"],"other_name":null,"cycle":"Perennial","watering":"Frequent","sunlight":[],"default_image":{"image_id":132,"license":5,"license_name":"Attribution-ShareAlike License","license_url":"https://creativecommons.org/licenses/by-sa/2.0/","original_url":"https://perenual.com/storage/species_image/53_acer_palmatum_ever_red/og/9651313679_caf5a0d447_b.jpg","regular_url":"https://perenual.com/storage/species_image/53_acer_palmatum_ever_red/regular/9651313679_caf5a0d447_b.jpg","medium_url":"https://perenual.com/storage/species_image/53_acer_palmatum_ever_red/medium/9651313679_caf5a0d447_b.jpg","small_url":"https://perenual.com/storage/species_image/53_acer_palmatum_ever_red/small/9651313679_caf5a0d447_b.jpg","thumbnail":"https://perenual.com/storage/species_image/53_acer_palmatum_ever_red/thumbnail/9651313679_caf5a0d447_b.jpg"}},{"id":54,"common_name":"Glowing Embers Japanese Maple*","scientific_name":["Acer palmatum 'Glowing Embers'"],"other_name":null,"cycle":"Perennial","watering":"Frequent","sunlight":[],"default_image":{"image_id":9,"license":5,"license_name":"Attribution-ShareAlike License","license_url":"https://creativecommons.org/licenses/by-sa/2.0/","original_url":"https://perenual.com/storage/species_image/2_abies_alba_pyramidalis/og/49255769768_df55596553_b.jpg","regular_url":"https://perenual.com/storage/species_image/2_abies_alba_pyramidalis/regular/49255769768_df55596553_b.jpg","medium_url":"https://perenual.com/storage/species_image/2_abies_alba_pyramidalis/medium/49255769768_df55596553_b.jpg","small_url":"https://perenual.com/storage/species_image/2_abies_alba_pyramidalis/small/49255769768_df55596553_b.jpg","thumbnail":"https://perenual.com/storage/species_image/2_abies_alba_pyramidalis/thumbnail/49255769768_df55596553_b.jpg"}},{"id":55,"common_name":"Grandma Ghost Japanese Maple*","scientific_name":["Acer palmatum 'Grandma Ghost'"],"other_name":["Grandma's Ghost Japanese Maple"],"cycle":"Perennial","watering":"Frequent","sunlight":[],"default_image":{"image_id":134,"license":4,"license_name":"Attribution License","license_url":"https://creativecommons.org/licenses/by/2.0/","original_url":"https://perenual.com/storage/species_image/55_acer_palmatum_grandma_ghost/og/51480401507_4b9def5883_b.jpg","regular_url":"https://perenual.com/storage/species_image/55_acer_palmatum_grandma_ghost/regular/51480401507_4b9def5883_b.jpg","medium_url":"https://perenual.com/storage/species_image/55_acer_palmatum_grandma_ghost/medium/51480401507_4b9def5883_b.jpg","small_url":"https://perenual.com/storage/species_image/55_acer_palmatum_grandma_ghost/small/51480401507_4b9def5883_b.jpg","thumbnail":"https://perenual.com/storage/species_image/55_acer_palmatum_grandma_ghost/thumbnail/51480401507_4b9def5883_b.jpg"}},{"id":56,"common_name":"Green Hornet Cutleaf Japanese Maple*","scientific_name":["Acer palmatum 'Green Hornet'"],"other_name":null,"cycle":"Perennial","watering":"Frequent","sunlight":[],"default_image":{"image_id":9,"license":5,"license_name":"Attribution-ShareAlike License","license_url":"https://creativecommons.org/licenses/by-sa/2.0/","original_url":"https://perenual.com/storage/species_image/2_abies_alba_pyramidalis/og/49255769768_df55596553_b.jpg","regular_url":"https://perenual.com/storage/species_image/2_abies_alba_pyramidalis/regular/49255769768_df55596553_b.jpg","medium_url":"https://perenual.com/storage/species_image/2_abies_alba_pyramidalis/medium/49255769768_df55596553_b.jpg","small_url":"https://perenual.com/storage/species_image/2_abies_alba_pyramidalis/small/49255769768_df55596553_b.jpg","thumbnail":"https://perenual.com/storage/species_image/2_abies_alba_pyramidalis/thumbnail/49255769768_df55596553_b.jpg"}},{"id":57,"common_name":"Green Mist Japanese Maple*","scientific_name":["Acer palmatum 'Green Mist'"],"other_name":null,"cycle":"Perennial","watering":"Frequent","sunlight":[],"default_image":{"image_id":9,"license":5,"license_name":"Attribution-ShareAlike License","license_url":"https://creativecommons.org/licenses/by-sa/2.0/","original_url":"https://perenual.com/storage/species_image/2_abies_alba_pyramidalis/og/49255769768_df55596553_b.jpg","regular_url":"https://perenual.com/storage/species_image/2_abies_alba_pyramidalis/regular/49255769768_df55596553_b.jpg","medium_url":"https://perenual.com/storage/species_image/2_abies_alba_pyramidalis/medium/49255769768_df55596553_b.jpg","small_url":"https://perenual.com/storage/species_image/2_abies_alba_pyramidalis/small/49255769768_df55596553_b.jpg","thumbnail":"https://perenual.com/storage/species_image/2_abies_alba_pyramidalis/thumbnail/49255769768_df55596553_b.jpg"}},{"id":58,"common_name":"Shirazz Japanese Maple","scientific_name":["Acer palmatum 'Gwen's Rose Delight'"],"other_name":null,"cycle":"Perennial","watering":"Frequent","sunlight":[],"default_image":{"image_id":9,"license":5,"license_name":"Attribution-ShareAlike License","license_url":"https://creativecommons.org/licenses/by-sa/2.0/","original_url":"https://perenual.com/storage/species_image/2_abies_alba_pyramidalis/og/49255769768_df55596553_b.jpg","regular_url":"https://perenual.com/storage/species_image/2_abies_alba_pyramidalis/regular/49255769768_df55596553_b.jpg","medium_url":"https://perenual.com/storage/species_image/2_abies_alba_pyramidalis/medium/49255769768_df55596553_b.jpg","small_url":"https://perenual.com/storage/species_image/2_abies_alba_pyramidalis/small/49255769768_df55596553_b.jpg","thumbnail":"https://perenual.com/storage/species_image/2_abies_alba_pyramidalis/thumbnail/49255769768_df55596553_b.jpg"}},{"id":59,"common_name":"Hessei Japanese Maple","scientific_name":["Acer palmatum 'Hessei'"],"other_name":null,"cycle":"Perennial","watering":"Frequent","sunlight":[],"default_image":{"image_id":9,"license":5,"license_name":"Attribution-ShareAlike License","license_url":"https://creativecommons.org/licenses/by-sa/2.0/","original_url":"https://perenual.com/storage/species_image/2_abies_alba_pyramidalis/og/49255769768_df55596553_b.jpg","regular_url":"https://perenual.com/storage/species_image/2_abies_alba_pyramidalis/regular/49255769768_df55596553_b.jpg","medium_url":"https://perenual.com/storage/species_image/2_abies_alba_pyramidalis/medium/49255769768_df55596553_b.jpg","small_url":"https://perenual.com/storage/species_image/2_abies_alba_pyramidalis/small/49255769768_df55596553_b.jpg","thumbnail":"https://perenual.com/storage/species_image/2_abies_alba_pyramidalis/thumbnail/49255769768_df55596553_b.jpg"}},{"id":60,"common_name":"Higasa Yama Japanese Maple","scientific_name":["Acer palmatum 'Higasa Yama'"],"other_name":["Higasayama"],"cycle":"Perennial","watering":"Frequent","sunlight":[],"default_image":{"image_id":21017,"license":4,"license_name":"Attribution License","license_url":"https://creativecommons.org/licenses/by/2.0/","original_url":"https://perenual.com/storage/species_image/60_acer_palmatum_higasa_yama/og/51522802351_37623328e0_b.jpg","regular_url":"https://perenual.com/storage/species_image/60_acer_palmatum_higasa_yama/regular/51522802351_37623328e0_b.jpg","medium_url":"https://perenual.com/storage/species_image/60_acer_palmatum_higasa_yama/medium/51522802351_37623328e0_b.jpg","small_url":"https://perenual.com/storage/species_image/60_acer_palmatum_higasa_yama/small/51522802351_37623328e0_b.jpg","thumbnail":"https://perenual.com/storage/species_image/60_acer_palmatum_higasa_yama/thumbnail/51522802351_37623328e0_b.jpg"}}],"to":60,"per_page":30,"current_page":2,"from":31,"last_page":200,"total":6000}