{"data":[{"id":1051,"common_name":"tartarian aster","scientific_name":["Aster tataricus"],"other_name":null,"cycle":"Perennial","watering":"Average","sunlight":["Full sun"],"default_image":{"image_id":2538,"license":5,"license_name":"Attribution-ShareAlike License","license_url":"https://creativecommons.org/licenses/by-sa/2.0/","original_url":"https://perenual.com/storage/species_image/1051_aster_tataricus/og/51577222466_39fd091818_b.jpg","regular_url":"https://perenual.com/storage/species_image/1051_aster_tataricus/regular/51577222466_39fd091818_b.jpg","medium_url":"https://perenual.com/storage/species_image/1051_aster_tataricus/medium/51577222466_39fd091818_b.jpg","small_url":"https://perenual.com/storage/species_image/1051_aster_tataricus/small/51577222466_39fd091818_b.jpg","thumbnail":"https://perenual.com/storage/species_image/1051_aster_tataricus/thumbnail/51577222466_39fd091818_b.jpg"}},{"id":1052,"common_name":"tatarian aster","scientific_name":["Aster tataricus 'Jindai'"],"other_name":null,"cycle":"Perennial","watering":"Average","sunlight":["Full sun"],"default_image":{"image_id":2539,"license":5,"license_name":"Attribution-ShareAlike License","license_url":"https://creativecommons.org/licenses/by-sa/2.0/","original_url":"https://perenual.com/storage/species_image/1052_aster_tataricus_jindai/og/51577221556_55434310fe_b.jpg","regular_url":"https://perenual.com/storage/species_image/1052_aster_tataricus_jindai/regular/51577221556_55434310fe_b.jpg","medium_url":"https://perenual.com/storage/species_image/1052_aster_tataricus_jindai/medium/51577221556_55434310fe_b.jpg","small_url":"https://perenual.com/storage/species_image/1052_aster_tataricus_jindai/small/51577221556_55434310fe_b.jpg","thumbnail":"https://perenual.com/storage/species_image/1052_aster_tataricus_jindai/thumbnail/51577221556_55434310fe_b.jpg"}},{"id":1053,"common_name":"aster","scientific_name":["Aster 'Wood's Pink'"],"other_name":null,"cycle":"Perennial","watering":"Average","sunlight":["Full sun"],"default_image":{"image_id":2541,"license":5,"license_name":"Attribution-ShareAlike License","license_url":"https://creativecommons.org/licenses/by-sa/2.0/","original_url":"https://perenual.com/storage/species_image/1053_aster_woods_pink/og/51173221868_d7cef2e31e_b.jpg","regular_url":"https://perenual.com/storage/species_image/1053_aster_woods_pink/regular/51173221868_d7cef2e31e_b.jpg","medium_url":"https://perenual.com/storage/species_image/1053_aster_woods_pink/medium/51173221868_d7cef2e31e_b.jpg","small_url":"https://perenual.com/storage/species_image/1053_aster_woods_pink/small/51173221868_d7cef2e31e_b.jpg","thumbnail":"https://perenual.com/storage/species_image/1053_aster_woods_pink/thumbnail/51173221868_d7cef2e31e_b.jpg"}},{"id":1054,"common_name":"aster","scientific_name":["Aster 'Wood's Purple'"],"other_name":null,"cycle":"Perennial","watering":"Average","sunlight":["Full sun"],"default_image":{"image_id":2544,"license":6,"license_name":"Attribution-NoDerivs License","license_url":"https://creativecommons.org/licenses/by-nd/2.0/","original_url":"https://perenual.com/storage/species_image/1054_aster_woods_purple/og/9762158284_5fae38a7b8_b.jpg"}},{"id":1055,"common_name":"astericus","scientific_name":["Asteriscus maritimus"],"other_name":null,"cycle":"Perennial","watering":"Average","sunlight":["Full sun"],"default_image":{"image_id":2547,"license":6,"license_name":"Attribution-NoDerivs License","license_url":"https://creativecommons.org/licenses/by-nd/2.0/","original_url":"https://perenual.com/storage/species_image/1055_asteriscus_maritimus/og/23735474193_ca3e4f8713_b.jpg"}},{"id":1056,"common_name":"astilbe","scientific_name":["Astilbe 'Alive and Kicking'"],"other_name":null,"cycle":"Perennial","watering":"Average","sunlight":["Part shade","full shade"],"default_image":{"image_id":20999,"license":45,"license_name":"Attribution-ShareAlike 3.0 Unported (CC BY-SA 3.0)","license_url":"https://creativecommons.org/licenses/by-sa/3.0/deed.en","original_url":"https://perenual.com/storage/species_image/1056_astilbe_alive_and_kicking/og/Astilbe_%27Alive_%26_Kicking%27.jpg","regular_url":"https://perenual.com/storage/species_image/1056_astilbe_alive_and_kicking/regular/Astilbe_%27Alive_%26_Kicking%27.jpg","medium_url":"https://perenual.com/storage/species_image/1056_astilbe_alive_and_kicking/medium/Astilbe_%27Alive_%26_Kicking%27.jpg","small_url":"https://perenual.com/storage/species_image/1056_astilbe_alive_and_kicking/small/Astilbe_%27Alive_%26_Kicking%27.jpg","thumbnail":"https://perenual.com/storage/species_image/1056_astilbe_alive_and_kicking/thumbnail/Astilbe_%27Alive_%26_Kicking%27.jpg"}},{"id":1057,"common_name":"astilbe","scientific_name":["Astilbe arendsii 'Amethyst'"],"other_name":null,"cycle":"Perennial","watering":"Average","sunlight":["Part shade","full shade"],"default_image":{"image_id":2552,"license":5,"license_name":"Attribution-ShareAlike License","license_url":"https://creativecommons.org/licenses/by-sa/2.0/","original_url":"https://perenual.com/storage/species_image/1057_astilbe_arendsii_amethyst/og/19103372526_2583c0e579_b.jpg","regular_url":"https://perenual.com/storage/species_image/1057_astilbe_arendsii_amethyst/regular/19103372526_2583c0e579_b.jpg","medium_url":"https://perenual.com/storage/species_image/1057_astilbe_arendsii_amethyst/medium/19103372526_2583c0e579_b.jpg","small_url":"https://perenual.com/storage/species_image/1057_astilbe_arendsii_amethyst/small/19103372526_2583c0e579_b.jpg","thumbnail":"https://perenual.com/storage/species_image/1057_astilbe_arendsii_amethyst/thumbnail/19103372526_2583c0e579_b.jpg"}},{"id":1058,"common_name":"astilbe","scientific_name":["Astilbe arendsii ASTARY PINK"],"other_name":null,"cycle":"Perennial","watering":"Average","sunlight":["Part shade","full shade"],"default_image":{"image_id":2554,"license":6,"license_name":"Attribution-NoDerivs License","license_url":"https://creativecommons.org/licenses/by-nd/2.0/","original_url":"https://perenual.com/storage/species_image/1094_astilbe_verscarmine_younique_carmine/og/52275313348_ba0b4b8f3b_b.jpg"}},{"id":1059,"common_name":"astilbe","scientific_name":["Astilbe arendsii 'Augustleuchten' AUGUST LIGHT"],"other_name":null,"cycle":"Perennial","watering":"Average","sunlight":["Part shade","full shade"],"default_image":{"image_id":2557,"license":5,"license_name":"Attribution-ShareAlike License","license_url":"https://creativecommons.org/licenses/by-sa/2.0/","original_url":"https://perenual.com/storage/species_image/1086_astilbe_radius/og/52448177310_6a7615a7fb_b.jpg","regular_url":"https://perenual.com/storage/species_image/1086_astilbe_radius/regular/52448177310_6a7615a7fb_b.jpg","medium_url":"https://perenual.com/storage/species_image/1086_astilbe_radius/medium/52448177310_6a7615a7fb_b.jpg","small_url":"https://perenual.com/storage/species_image/1086_astilbe_radius/small/52448177310_6a7615a7fb_b.jpg","thumbnail":"https://perenual.com/storage/species_image/1086_astilbe_radius/thumbnail/52448177310_6a7615a7fb_b.jpg"}},{"id":1060,"common_name":"astilbe","scientific_name":["Astilbe arendsii 'Beauty of Ernst' COLOR FLASH"],"other_name":null,"cycle":"Perennial","watering":"Average","sunlight":["Part shade","full shade"],"default_image":{"image_id":9,"license":5,"license_name":"Attribution-ShareAlike License","license_url":"https://creativecommons.org/licenses/by-sa/2.0/","original_url":"https://perenual.com/storage/species_image/2_abies_alba_pyramidalis/og/49255769768_df55596553_b.jpg","regular_url":"https://perenual.com/storage/species_image/2_abies_alba_pyramidalis/regular/49255769768_df55596553_b.jpg","medium_url":"https://perenual.com/storage/species_image/2_abies_alba_pyramidalis/medium/49255769768_df55596553_b.jpg","small_url":"https://perenual.com/storage/species_image/2_abies_alba_pyramidalis/small/49255769768_df55596553_b.jpg","thumbnail":"https://perenual.com/storage/species_image/2_abies_alba_pyramidalis/thumbnail/49255769768_df55596553_b.jpg"}},{"id":1061,"common_name":"astilbe","scientific_name":["Astilbe arendsii 'Fanal'"],"other_name":null,"cycle":"Perennial","watering":"Average","sunlight":["Part shade","full shade"],"default_image":{"image_id":9,"license":5,"license_name":"Attribution-ShareAlike License","license_url":"https://creativecommons.org/licenses/by-sa/2.0/","original_url":"https://perenual.com/storage/species_image/2_abies_alba_pyramidalis/og/49255769768_df55596553_b.jpg","regular_url":"https://perenual.com/storage/species_image/2_abies_alba_pyramidalis/regular/49255769768_df55596553_b.jpg","medium_url":"https://perenual.com/storage/species_image/2_abies_alba_pyramidalis/medium/49255769768_df55596553_b.jpg","small_url":"https://perenual.com/storage/species_image/2_abies_alba_pyramidalis/small/49255769768_df55596553_b.jpg","thumbnail":"https://perenual.com/storage/species_image/2_abies_alba_pyramidalis/thumbnail/49255769768_df55596553_b.jpg"}},{"id":1062,"common_name":"astilbe","scientific_name":["Astilbe arendsii 'Irrlicht'"],"other_name":null,"cycle":"Perennial","watering":"Average","sunlight":["Part shade","full shade"],"default_image":{"image_id":9,"license":5,"license_name":"Attribution-ShareAlike License","license_url":"https://creativecommons.org/licenses/by-sa/2.0/","original_url":"https://perenual.com/storage/species_image/2_abies_alba_pyramidalis/og/49255769768_df55596553_b.jpg","regular_url":"https://perenual.com/storage/species_image/2_abies_alba_pyramidalis/regular/49255769768_df55596553_b.jpg","medium_url":"https://perenual.com/storage/species_image/2_abies_alba_pyramidalis/medium/49255769768_df55596553_b.jpg","small_url":"https://perenual.com/storage/species_image/2_abies_alba_pyramidalis/small/49255769768_df55596553_b.jpg","thumbnail":"https://perenual.com/storage/species_image/2_abies_alba_pyramidalis/thumbnail/49255769768_df55596553_b.jpg"}},{"id":1063,"common_name":"astilbe","scientific_name":["Astilbe arendsii 'Rote Cattleya' RED CATTLEYA"],"other_name":null,"cycle":"Perennial","watering":"Average","sunlight":["Part shade","full shade"],"default_image":{"image_id":2555,"license":4,"license_name":"Attribution License","license_url":"https://creativecommons.org/licenses/by/2.0/","original_url":"https://perenual.com/storage/species_image/1093_astilbe_straussenfeder_ostrich_plume/og/52182349570_1e2bff09bb_b.jpg","regular_url":"https://perenual.com/storage/species_image/1093_astilbe_straussenfeder_ostrich_plume/regular/52182349570_1e2bff09bb_b.jpg","medium_url":"https://perenual.com/storage/species_image/1093_astilbe_straussenfeder_ostrich_plume/medium/52182349570_1e2bff09bb_b.jpg","small_url":"https://perenual.com/storage/species_image/1093_astilbe_straussenfeder_ostrich_plume/small/52182349570_1e2bff09bb_b.jpg","thumbnail":"https://perenual.com/storage/species_image/1093_astilbe_straussenfeder_ostrich_plume/thumbnail/52182349570_1e2bff09bb_b.jpg"}},{"id":1064,"common_name":"astilbe","scientific_name":["Astilbe arendsii 'Rotlicht' RED LIGHT"],"other_name":null,"cycle":"Perennial","watering":"Average","sunlight":["Part shade","full shade"],"default_image":{"image_id":2555,"license":4,"license_name":"Attribution License","license_url":"https://creativecommons.org/licenses/by/2.0/","original_url":"https://perenual.com/storage/species_image/1093_astilbe_straussenfeder_ostrich_plume/og/52182349570_1e2bff09bb_b.jpg","regular_url":"https://perenual.com/storage/species_image/1093_astilbe_straussenfeder_ostrich_plume/regular/52182349570_1e2bff09bb_b.jpg","medium_url":"https://perenual.com/storage/species_image/1093_astilbe_straussenfeder_ostrich_plume/medium/52182349570_1e2bff09bb_b.jpg","small_url":"https://perenual.com/storage/species_image/1093_astilbe_straussenfeder_ostrich_plume/small/52182349570_1e2bff09bb_b.jpg","thumbnail":"https://perenual.com/storage/species_image/1093_astilbe_straussenfeder_ostrich_plume/thumbnail/52182349570_1e2bff09bb_b.jpg"}},{"id":1065,"common_name":"astilbe","scientific_name":["Astilbe 'Burgunderrot' BURGUNDY RED"],"other_name":null,"cycle":"Perennial","watering":"Average","sunlight":["Part shade","full shade"],"default_image":{"image_id":2557,"license":5,"license_name":"Attribution-ShareAlike License","license_url":"https://creativecommons.org/licenses/by-sa/2.0/","original_url":"https://perenual.com/storage/species_image/1086_astilbe_radius/og/52448177310_6a7615a7fb_b.jpg","regular_url":"https://perenual.com/storage/species_image/1086_astilbe_radius/regular/52448177310_6a7615a7fb_b.jpg","medium_url":"https://perenual.com/storage/species_image/1086_astilbe_radius/medium/52448177310_6a7615a7fb_b.jpg","small_url":"https://perenual.com/storage/species_image/1086_astilbe_radius/small/52448177310_6a7615a7fb_b.jpg","thumbnail":"https://perenual.com/storage/species_image/1086_astilbe_radius/thumbnail/52448177310_6a7615a7fb_b.jpg"}},{"id":1066,"common_name":"Chinese astilbe","scientific_name":["Astilbe chinensis 'Darwin's Surprise'"],"other_name":null,"cycle":"Perennial","watering":"Average","sunlight":["Part shade","full shade"],"default_image":{"image_id":2565,"license":4,"license_name":"Attribution License","license_url":"https://creativecommons.org/licenses/by/2.0/","original_url":"https://perenual.com/storage/species_image/1071_astilbe_chinensis_var_davidii/og/49081256312_50ab6617f4_b.jpg","regular_url":"https://perenual.com/storage/species_image/1071_astilbe_chinensis_var_davidii/regular/49081256312_50ab6617f4_b.jpg","medium_url":"https://perenual.com/storage/species_image/1071_astilbe_chinensis_var_davidii/medium/49081256312_50ab6617f4_b.jpg","small_url":"https://perenual.com/storage/species_image/1071_astilbe_chinensis_var_davidii/small/49081256312_50ab6617f4_b.jpg","thumbnail":"https://perenual.com/storage/species_image/1071_astilbe_chinensis_var_davidii/thumbnail/49081256312_50ab6617f4_b.jpg"}},{"id":1067,"common_name":"Chinese astilbe","scientific_name":["Astilbe chinensis 'Diamonds and Pearls'"],"other_name":null,"cycle":"Perennial","watering":"Average","sunlight":["Part shade","full shade"],"default_image":{"image_id":2567,"license":4,"license_name":"Attribution License","license_url":"https://creativecommons.org/licenses/by/2.0/","original_url":"https://perenual.com/storage/species_image/1069_astilbe_chinensis_love_and_pride/og/49081062131_6f47f8b994_b.jpg","regular_url":"https://perenual.com/storage/species_image/1069_astilbe_chinensis_love_and_pride/regular/49081062131_6f47f8b994_b.jpg","medium_url":"https://perenual.com/storage/species_image/1069_astilbe_chinensis_love_and_pride/medium/49081062131_6f47f8b994_b.jpg","small_url":"https://perenual.com/storage/species_image/1069_astilbe_chinensis_love_and_pride/small/49081062131_6f47f8b994_b.jpg","thumbnail":"https://perenual.com/storage/species_image/1069_astilbe_chinensis_love_and_pride/thumbnail/49081062131_6f47f8b994_b.jpg"}},{"id":1068,"common_name":"Chinese astilbe","scientific_name":["Astilbe chinensis 'Finale'"],"other_name":null,"cycle":"Perennial","watering":"Average","sunlight":["Part shade","full shade"],"default_image":{"image_id":9,"license":5,"license_name":"Attribution-ShareAlike License","license_url":"https://creativecommons.org/licenses/by-sa/2.0/","original_url":"https://perenual.com/storage/species_image/2_abies_alba_pyramidalis/og/49255769768_df55596553_b.jpg","regular_url":"https://perenual.com/storage/species_image/2_abies_alba_pyramidalis/regular/49255769768_df55596553_b.jpg","medium_url":"https://perenual.com/storage/species_image/2_abies_alba_pyramidalis/medium/49255769768_df55596553_b.jpg","small_url":"https://perenual.com/storage/species_image/2_abies_alba_pyramidalis/small/49255769768_df55596553_b.jpg","thumbnail":"https://perenual.com/storage/species_image/2_abies_alba_pyramidalis/thumbnail/49255769768_df55596553_b.jpg"}},{"id":1069,"common_name":"Chinese astilbe","scientific_name":["Astilbe chinensis 'Love and Pride'"],"other_name":null,"cycle":"Perennial","watering":"Average","sunlight":["Part shade","full shade"],"default_image":{"image_id":2567,"license":4,"license_name":"Attribution License","license_url":"https://creativecommons.org/licenses/by/2.0/","original_url":"https://perenual.com/storage/species_image/1069_astilbe_chinensis_love_and_pride/og/49081062131_6f47f8b994_b.jpg","regular_url":"https://perenual.com/storage/species_image/1069_astilbe_chinensis_love_and_pride/regular/49081062131_6f47f8b994_b.jpg","medium_url":"https://perenual.com/storage/species_image/1069_astilbe_chinensis_love_and_pride/medium/49081062131_6f47f8b994_b.jpg","small_url":"https://perenual.com/storage/species_image/1069_astilbe_chinensis_love_and_pride/small/49081062131_6f47f8b994_b.jpg","thumbnail":"https://perenual.com/storage/species_image/1069_astilbe_chinensis_love_and_pride/thumbnail/49081062131_6f47f8b994_b.jpg"}},{"id":1070,"common_name":"Chinese astilbe","scientific_name":["Astilbe chinensis 'Purpurkerze' PURPLE CANDLE"],"other_name":null,"cycle":"Perennial","watering":"Average","sunlight":["Part shade","full shade"],"default_image":{"image_id":2570,"license":5,"license_name":"Attribution-ShareAlike License","license_url":"https://creativecommons.org/licenses/by-sa/2.0/","original_url":"https://perenual.com/storage/species_image/1083_astilbe_japonica/og/39386513705_e9def738c3_b.jpg","regular_url":"https://perenual.com/storage/species_image/1083_astilbe_japonica/regular/39386513705_e9def738c3_b.jpg","medium_url":"https://perenual.com/storage/species_image/1083_astilbe_japonica/medium/39386513705_e9def738c3_b.jpg","small_url":"https://perenual.com/storage/species_image/1083_astilbe_japonica/small/39386513705_e9def738c3_b.jpg","thumbnail":"https://perenual.com/storage/species_image/1083_astilbe_japonica/thumbnail/39386513705_e9def738c3_b.jpg"}},{"id":1071,"common_name":"Chinese astilbe","scientific_name":["Astilbe chinensis var. davidii"],"other_name":null,"cycle":"Perennial","watering":"Average","sunlight":["Part shade","full shade"],"default_image":{"image_id":2565,"license":4,"license_name":"Attribution License","license_url":"https://creativecommons.org/licenses/by/2.0/","original_url":"https://perenual.com/storage/species_image/1071_astilbe_chinensis_var_davidii/og/49081256312_50ab6617f4_b.jpg","regular_url":"https://perenual.com/storage/species_image/1071_astilbe_chinensis_var_davidii/regular/49081256312_50ab6617f4_b.jpg","medium_url":"https://perenual.com/storage/species_image/1071_astilbe_chinensis_var_davidii/medium/49081256312_50ab6617f4_b.jpg","small_url":"https://perenual.com/storage/species_image/1071_astilbe_chinensis_var_davidii/small/49081256312_50ab6617f4_b.jpg","thumbnail":"https://perenual.com/storage/species_image/1071_astilbe_chinensis_var_davidii/thumbnail/49081256312_50ab6617f4_b.jpg"}},{"id":1072,"common_name":"Chinese astilbe","scientific_name":["Astilbe chinensis var. pumila"],"other_name":null,"cycle":"Perennial","watering":"Average","sunlight":["Part shade","full shade"],"default_image":{"image_id":2572,"license":4,"license_name":"Attribution License","license_url":"https://creativecommons.org/licenses/by/2.0/","original_url":"https://perenual.com/storage/species_image/1072_astilbe_chinensis_var_pumila/og/27622619213_e772f08412_b.jpg","regular_url":"https://perenual.com/storage/species_image/1072_astilbe_chinensis_var_pumila/regular/27622619213_e772f08412_b.jpg","medium_url":"https://perenual.com/storage/species_image/1072_astilbe_chinensis_var_pumila/medium/27622619213_e772f08412_b.jpg","small_url":"https://perenual.com/storage/species_image/1072_astilbe_chinensis_var_pumila/small/27622619213_e772f08412_b.jpg","thumbnail":"https://perenual.com/storage/species_image/1072_astilbe_chinensis_var_pumila/thumbnail/27622619213_e772f08412_b.jpg"}},{"id":1073,"common_name":"Chinese astilbe","scientific_name":["Astilbe chinensis var. taquetii 'Superba'"],"other_name":null,"cycle":"Perennial","watering":"Minimum","sunlight":["Part shade","full shade"],"default_image":{"image_id":2575,"license":4,"license_name":"Attribution License","license_url":"https://creativecommons.org/licenses/by/2.0/","original_url":"https://perenual.com/storage/species_image/1073_astilbe_chinensis_var_taquetii_superba/og/43359629975_a325c83c26_b.jpg","regular_url":"https://perenual.com/storage/species_image/1073_astilbe_chinensis_var_taquetii_superba/regular/43359629975_a325c83c26_b.jpg","medium_url":"https://perenual.com/storage/species_image/1073_astilbe_chinensis_var_taquetii_superba/medium/43359629975_a325c83c26_b.jpg","small_url":"https://perenual.com/storage/species_image/1073_astilbe_chinensis_var_taquetii_superba/small/43359629975_a325c83c26_b.jpg","thumbnail":"https://perenual.com/storage/species_image/1073_astilbe_chinensis_var_taquetii_superba/thumbnail/43359629975_a325c83c26_b.jpg"}},{"id":1074,"common_name":"Chinese astilbe","scientific_name":["Astilbe chinensis 'Vision in Red'"],"other_name":null,"cycle":"Perennial","watering":"Average","sunlight":["Part shade","full shade"],"default_image":{"image_id":9,"license":5,"license_name":"Attribution-ShareAlike License","license_url":"https://creativecommons.org/licenses/by-sa/2.0/","original_url":"https://perenual.com/storage/species_image/2_abies_alba_pyramidalis/og/49255769768_df55596553_b.jpg","regular_url":"https://perenual.com/storage/species_image/2_abies_alba_pyramidalis/regular/49255769768_df55596553_b.jpg","medium_url":"https://perenual.com/storage/species_image/2_abies_alba_pyramidalis/medium/49255769768_df55596553_b.jpg","small_url":"https://perenual.com/storage/species_image/2_abies_alba_pyramidalis/small/49255769768_df55596553_b.jpg","thumbnail":"https://perenual.com/storage/species_image/2_abies_alba_pyramidalis/thumbnail/49255769768_df55596553_b.jpg"}},{"id":1075,"common_name":"Chinese astilbe","scientific_name":["Astilbe chinensis 'Visions'"],"other_name":null,"cycle":"Perennial","watering":"Average","sunlight":["Part shade","full shade"],"default_image":{"image_id":2579,"license":4,"license_name":"Attribution License","license_url":"https://creativecommons.org/licenses/by/2.0/","original_url":"https://perenual.com/storage/species_image/1075_astilbe_chinensis_visions/og/27941793432_c5c390dbc4_b.jpg","regular_url":"https://perenual.com/storage/species_image/1075_astilbe_chinensis_visions/regular/27941793432_c5c390dbc4_b.jpg","medium_url":"https://perenual.com/storage/species_image/1075_astilbe_chinensis_visions/medium/27941793432_c5c390dbc4_b.jpg","small_url":"https://perenual.com/storage/species_image/1075_astilbe_chinensis_visions/small/27941793432_c5c390dbc4_b.jpg","thumbnail":"https://perenual.com/storage/species_image/1075_astilbe_chinensis_visions/thumbnail/27941793432_c5c390dbc4_b.jpg"}},{"id":1076,"common_name":"astilbe","scientific_name":["Astilbe 'Darwin's Dream'"],"other_name":null,"cycle":"Perennial","watering":"Average","sunlight":["Part shade","full shade"],"default_image":{"image_id":2561,"license":6,"license_name":"Attribution-NoDerivs License","license_url":"https://creativecommons.org/licenses/by-nd/2.0/","original_url":"https://perenual.com/storage/species_image/1094_astilbe_verscarmine_younique_carmine/og/52275778975_608b8fe6c2_b.jpg"}},{"id":1077,"common_name":"astilbe","scientific_name":["Astilbe 'Delft Lace'"],"other_name":null,"cycle":"Perennial","watering":"Average","sunlight":["Part shade","full shade"],"default_image":{"image_id":2555,"license":4,"license_name":"Attribution License","license_url":"https://creativecommons.org/licenses/by/2.0/","original_url":"https://perenual.com/storage/species_image/1093_astilbe_straussenfeder_ostrich_plume/og/52182349570_1e2bff09bb_b.jpg","regular_url":"https://perenual.com/storage/species_image/1093_astilbe_straussenfeder_ostrich_plume/regular/52182349570_1e2bff09bb_b.jpg","medium_url":"https://perenual.com/storage/species_image/1093_astilbe_straussenfeder_ostrich_plume/medium/52182349570_1e2bff09bb_b.jpg","small_url":"https://perenual.com/storage/species_image/1093_astilbe_straussenfeder_ostrich_plume/small/52182349570_1e2bff09bb_b.jpg","thumbnail":"https://perenual.com/storage/species_image/1093_astilbe_straussenfeder_ostrich_plume/thumbnail/52182349570_1e2bff09bb_b.jpg"}},{"id":1078,"common_name":"astilbe","scientific_name":["Astilbe 'Deutschland'"],"other_name":null,"cycle":"Perennial","watering":"Average","sunlight":["Part shade","full shade"],"default_image":{"image_id":9,"license":5,"license_name":"Attribution-ShareAlike License","license_url":"https://creativecommons.org/licenses/by-sa/2.0/","original_url":"https://perenual.com/storage/species_image/2_abies_alba_pyramidalis/og/49255769768_df55596553_b.jpg","regular_url":"https://perenual.com/storage/species_image/2_abies_alba_pyramidalis/regular/49255769768_df55596553_b.jpg","medium_url":"https://perenual.com/storage/species_image/2_abies_alba_pyramidalis/medium/49255769768_df55596553_b.jpg","small_url":"https://perenual.com/storage/species_image/2_abies_alba_pyramidalis/small/49255769768_df55596553_b.jpg","thumbnail":"https://perenual.com/storage/species_image/2_abies_alba_pyramidalis/thumbnail/49255769768_df55596553_b.jpg"}},{"id":1079,"common_name":"astilbe","scientific_name":["Astilbe 'Erica'"],"other_name":null,"cycle":"Perennial","watering":"Average","sunlight":["Part shade","full shade"],"default_image":{"image_id":2554,"license":6,"license_name":"Attribution-NoDerivs License","license_url":"https://creativecommons.org/licenses/by-nd/2.0/","original_url":"https://perenual.com/storage/species_image/1094_astilbe_verscarmine_younique_carmine/og/52275313348_ba0b4b8f3b_b.jpg"}},{"id":1080,"common_name":"astilbe","scientific_name":["Astilbe 'Federsee'"],"other_name":null,"cycle":"Perennial","watering":"Average","sunlight":["Part shade","full shade"],"default_image":{"image_id":2561,"license":6,"license_name":"Attribution-NoDerivs License","license_url":"https://creativecommons.org/licenses/by-nd/2.0/","original_url":"https://perenual.com/storage/species_image/1094_astilbe_verscarmine_younique_carmine/og/52275778975_608b8fe6c2_b.jpg"}}],"to":1080,"per_page":30,"current_page":36,"from":1051,"last_page":200,"total":6000}