{"data":[{"id":3001,"common_name":"fortunearia","scientific_name":["Fortunearia sinensis"],"other_name":null,"cycle":"Perennial","watering":"Average","sunlight":["Full sun","part shade"],"default_image":{"image_id":9,"license":5,"license_name":"Attribution-ShareAlike License","license_url":"https://creativecommons.org/licenses/by-sa/2.0/","original_url":"https://perenual.com/storage/species_image/2_abies_alba_pyramidalis/og/49255769768_df55596553_b.jpg","regular_url":"https://perenual.com/storage/species_image/2_abies_alba_pyramidalis/regular/49255769768_df55596553_b.jpg","medium_url":"https://perenual.com/storage/species_image/2_abies_alba_pyramidalis/medium/49255769768_df55596553_b.jpg","small_url":"https://perenual.com/storage/species_image/2_abies_alba_pyramidalis/small/49255769768_df55596553_b.jpg","thumbnail":"https://perenual.com/storage/species_image/2_abies_alba_pyramidalis/thumbnail/49255769768_df55596553_b.jpg"}},{"id":3002,"common_name":"dwarf fothergilla","scientific_name":["Fothergilla gardenii"],"other_name":["witch alder"],"cycle":"Perennial","watering":"Average","sunlight":["Full sun","part shade"],"default_image":{"image_id":6483,"license":4,"license_name":"Attribution License","license_url":"https://creativecommons.org/licenses/by/2.0/","original_url":"https://perenual.com/storage/species_image/3002_fothergilla_gardenii/og/52009389127_9f6df28986_b.jpg","regular_url":"https://perenual.com/storage/species_image/3002_fothergilla_gardenii/regular/52009389127_9f6df28986_b.jpg","medium_url":"https://perenual.com/storage/species_image/3002_fothergilla_gardenii/medium/52009389127_9f6df28986_b.jpg","small_url":"https://perenual.com/storage/species_image/3002_fothergilla_gardenii/small/52009389127_9f6df28986_b.jpg","thumbnail":"https://perenual.com/storage/species_image/3002_fothergilla_gardenii/thumbnail/52009389127_9f6df28986_b.jpg"}},{"id":3003,"common_name":"dwarf fothergilla","scientific_name":["Fothergilla gardenii 'Blue Mist'"],"other_name":null,"cycle":"Perennial","watering":"Average","sunlight":["Full sun","part shade"],"default_image":{"image_id":6485,"license":4,"license_name":"Attribution License","license_url":"https://creativecommons.org/licenses/by/2.0/","original_url":"https://perenual.com/storage/species_image/3003_fothergilla_gardenii_blue_mist/og/52010970779_f55340e107_b.jpg","regular_url":"https://perenual.com/storage/species_image/3003_fothergilla_gardenii_blue_mist/regular/52010970779_f55340e107_b.jpg","medium_url":"https://perenual.com/storage/species_image/3003_fothergilla_gardenii_blue_mist/medium/52010970779_f55340e107_b.jpg","small_url":"https://perenual.com/storage/species_image/3003_fothergilla_gardenii_blue_mist/small/52010970779_f55340e107_b.jpg","thumbnail":"https://perenual.com/storage/species_image/3003_fothergilla_gardenii_blue_mist/thumbnail/52010970779_f55340e107_b.jpg"}},{"id":3004,"common_name":"dwarf fothergilla","scientific_name":["Fothergilla gardenii 'Jane Platt'"],"other_name":null,"cycle":"Perennial","watering":"Average","sunlight":["Full sun","part shade"],"default_image":{"image_id":6491,"license":4,"license_name":"Attribution License","license_url":"https://creativecommons.org/licenses/by/2.0/","original_url":"https://perenual.com/storage/species_image/3004_fothergilla_gardenii_jane_platt/og/52010724836_1638905d61_b.jpg","regular_url":"https://perenual.com/storage/species_image/3004_fothergilla_gardenii_jane_platt/regular/52010724836_1638905d61_b.jpg","medium_url":"https://perenual.com/storage/species_image/3004_fothergilla_gardenii_jane_platt/medium/52010724836_1638905d61_b.jpg","small_url":"https://perenual.com/storage/species_image/3004_fothergilla_gardenii_jane_platt/small/52010724836_1638905d61_b.jpg","thumbnail":"https://perenual.com/storage/species_image/3004_fothergilla_gardenii_jane_platt/thumbnail/52010724836_1638905d61_b.jpg"}},{"id":3005,"common_name":"dwarf fothergilla","scientific_name":["Fothergilla gardenii 'Klmtwo' BEAVER CREEK"],"other_name":null,"cycle":"Perennial","watering":"Average","sunlight":["Full sun","part shade"],"default_image":{"image_id":9,"license":5,"license_name":"Attribution-ShareAlike License","license_url":"https://creativecommons.org/licenses/by-sa/2.0/","original_url":"https://perenual.com/storage/species_image/2_abies_alba_pyramidalis/og/49255769768_df55596553_b.jpg","regular_url":"https://perenual.com/storage/species_image/2_abies_alba_pyramidalis/regular/49255769768_df55596553_b.jpg","medium_url":"https://perenual.com/storage/species_image/2_abies_alba_pyramidalis/medium/49255769768_df55596553_b.jpg","small_url":"https://perenual.com/storage/species_image/2_abies_alba_pyramidalis/small/49255769768_df55596553_b.jpg","thumbnail":"https://perenual.com/storage/species_image/2_abies_alba_pyramidalis/thumbnail/49255769768_df55596553_b.jpg"}},{"id":3006,"common_name":"dwarf fothergilla","scientific_name":["Fothergilla gardenii 'Suzanne'"],"other_name":null,"cycle":"Perennial","watering":"Average","sunlight":["Full sun","part shade"],"default_image":{"image_id":6491,"license":4,"license_name":"Attribution License","license_url":"https://creativecommons.org/licenses/by/2.0/","original_url":"https://perenual.com/storage/species_image/3004_fothergilla_gardenii_jane_platt/og/52010724836_1638905d61_b.jpg","regular_url":"https://perenual.com/storage/species_image/3004_fothergilla_gardenii_jane_platt/regular/52010724836_1638905d61_b.jpg","medium_url":"https://perenual.com/storage/species_image/3004_fothergilla_gardenii_jane_platt/medium/52010724836_1638905d61_b.jpg","small_url":"https://perenual.com/storage/species_image/3004_fothergilla_gardenii_jane_platt/small/52010724836_1638905d61_b.jpg","thumbnail":"https://perenual.com/storage/species_image/3004_fothergilla_gardenii_jane_platt/thumbnail/52010724836_1638905d61_b.jpg"}},{"id":3007,"common_name":"dwarf fothergilla","scientific_name":["Fothergilla gardenii 'Windy City'"],"other_name":null,"cycle":"Perennial","watering":"Average","sunlight":["Full sun","part shade"],"default_image":{"image_id":6495,"license":5,"license_name":"Attribution-ShareAlike License","license_url":"https://creativecommons.org/licenses/by-sa/2.0/","original_url":"https://perenual.com/storage/species_image/3007_fothergilla_gardenii_windy_city/og/5761339905_7475a15261_b.jpg","regular_url":"https://perenual.com/storage/species_image/3007_fothergilla_gardenii_windy_city/regular/5761339905_7475a15261_b.jpg","medium_url":"https://perenual.com/storage/species_image/3007_fothergilla_gardenii_windy_city/medium/5761339905_7475a15261_b.jpg","small_url":"https://perenual.com/storage/species_image/3007_fothergilla_gardenii_windy_city/small/5761339905_7475a15261_b.jpg","thumbnail":"https://perenual.com/storage/species_image/3007_fothergilla_gardenii_windy_city/thumbnail/5761339905_7475a15261_b.jpg"}},{"id":3008,"common_name":"fothergilla","scientific_name":["Fothergilla intermedia 'Blue Shadow'"],"other_name":null,"cycle":"Perennial","watering":"Average","sunlight":["Full sun","part shade"],"default_image":{"image_id":6498,"license":4,"license_name":"Attribution License","license_url":"https://creativecommons.org/licenses/by/2.0/","original_url":"https://perenual.com/storage/species_image/3008_fothergilla_intermedia_blue_shadow/og/33559351733_f553f00e47_b.jpg","regular_url":"https://perenual.com/storage/species_image/3008_fothergilla_intermedia_blue_shadow/regular/33559351733_f553f00e47_b.jpg","medium_url":"https://perenual.com/storage/species_image/3008_fothergilla_intermedia_blue_shadow/medium/33559351733_f553f00e47_b.jpg","small_url":"https://perenual.com/storage/species_image/3008_fothergilla_intermedia_blue_shadow/small/33559351733_f553f00e47_b.jpg","thumbnail":"https://perenual.com/storage/species_image/3008_fothergilla_intermedia_blue_shadow/thumbnail/33559351733_f553f00e47_b.jpg"}},{"id":3009,"common_name":"fothergilla","scientific_name":["Fothergilla intermedia 'Klmsixteen' MAY BOUQUET"],"other_name":null,"cycle":"Perennial","watering":"Average","sunlight":["Full sun","part shade"],"default_image":{"image_id":6499,"license":4,"license_name":"Attribution License","license_url":"https://creativecommons.org/licenses/by/2.0/","original_url":"https://perenual.com/storage/species_image/3009_fothergilla_intermedia_klmsixteen_may_bouquet/og/52011241525_a95828ed5e_b.jpg","regular_url":"https://perenual.com/storage/species_image/3009_fothergilla_intermedia_klmsixteen_may_bouquet/regular/52011241525_a95828ed5e_b.jpg","medium_url":"https://perenual.com/storage/species_image/3009_fothergilla_intermedia_klmsixteen_may_bouquet/medium/52011241525_a95828ed5e_b.jpg","small_url":"https://perenual.com/storage/species_image/3009_fothergilla_intermedia_klmsixteen_may_bouquet/small/52011241525_a95828ed5e_b.jpg","thumbnail":"https://perenual.com/storage/species_image/3009_fothergilla_intermedia_klmsixteen_may_bouquet/thumbnail/52011241525_a95828ed5e_b.jpg"}},{"id":3010,"common_name":"witch-alder","scientific_name":["Fothergilla major"],"other_name":["witch alder"],"cycle":"Perennial","watering":"Average","sunlight":["Full sun only if soil kept moist"," Part sun/part shade"],"default_image":{"image_id":6505,"license":5,"license_name":"Attribution-ShareAlike License","license_url":"https://creativecommons.org/licenses/by-sa/2.0/","original_url":"https://perenual.com/storage/species_image/3011_fothergilla_major_arkansas_beauty/og/41982638285_1ed32e4b37_b.jpg","regular_url":"https://perenual.com/storage/species_image/3011_fothergilla_major_arkansas_beauty/regular/41982638285_1ed32e4b37_b.jpg","medium_url":"https://perenual.com/storage/species_image/3011_fothergilla_major_arkansas_beauty/medium/41982638285_1ed32e4b37_b.jpg","small_url":"https://perenual.com/storage/species_image/3011_fothergilla_major_arkansas_beauty/small/41982638285_1ed32e4b37_b.jpg","thumbnail":"https://perenual.com/storage/species_image/3011_fothergilla_major_arkansas_beauty/thumbnail/41982638285_1ed32e4b37_b.jpg"}},{"id":3011,"common_name":"large fothergilla","scientific_name":["Fothergilla major 'Arkansas Beauty'"],"other_name":["witch alder"],"cycle":"Perennial","watering":"Average","sunlight":["Full sun only if soil kept moist"," Part sun/part shade"],"default_image":{"image_id":6511,"license":4,"license_name":"Attribution License","license_url":"https://creativecommons.org/licenses/by/2.0/","original_url":"https://perenual.com/storage/species_image/3011_fothergilla_major_arkansas_beauty/og/468972109_ce356adfa7_b.jpg","regular_url":"https://perenual.com/storage/species_image/3011_fothergilla_major_arkansas_beauty/regular/468972109_ce356adfa7_b.jpg","medium_url":"https://perenual.com/storage/species_image/3011_fothergilla_major_arkansas_beauty/medium/468972109_ce356adfa7_b.jpg","small_url":"https://perenual.com/storage/species_image/3011_fothergilla_major_arkansas_beauty/small/468972109_ce356adfa7_b.jpg","thumbnail":"https://perenual.com/storage/species_image/3011_fothergilla_major_arkansas_beauty/thumbnail/468972109_ce356adfa7_b.jpg"}},{"id":3012,"common_name":"dwarf fothergilla","scientific_name":["Fothergilla 'Mount Airy'"],"other_name":null,"cycle":"Perennial","watering":"Average","sunlight":["Full sun","part shade"],"default_image":{"image_id":9,"license":5,"license_name":"Attribution-ShareAlike License","license_url":"https://creativecommons.org/licenses/by-sa/2.0/","original_url":"https://perenual.com/storage/species_image/2_abies_alba_pyramidalis/og/49255769768_df55596553_b.jpg","regular_url":"https://perenual.com/storage/species_image/2_abies_alba_pyramidalis/regular/49255769768_df55596553_b.jpg","medium_url":"https://perenual.com/storage/species_image/2_abies_alba_pyramidalis/medium/49255769768_df55596553_b.jpg","small_url":"https://perenual.com/storage/species_image/2_abies_alba_pyramidalis/small/49255769768_df55596553_b.jpg","thumbnail":"https://perenual.com/storage/species_image/2_abies_alba_pyramidalis/thumbnail/49255769768_df55596553_b.jpg"}},{"id":3013,"common_name":"strawberry","scientific_name":["Fragaria 'Allstar'"],"other_name":null,"cycle":"Perennial","watering":"Average","sunlight":["Full sun"],"default_image":{"image_id":6513,"license":4,"license_name":"Attribution License","license_url":"https://creativecommons.org/licenses/by/2.0/","original_url":"https://perenual.com/storage/species_image/3013_fragaria_allstar/og/52154169748_994ac32109_b.jpg","regular_url":"https://perenual.com/storage/species_image/3013_fragaria_allstar/regular/52154169748_994ac32109_b.jpg","medium_url":"https://perenual.com/storage/species_image/3013_fragaria_allstar/medium/52154169748_994ac32109_b.jpg","small_url":"https://perenual.com/storage/species_image/3013_fragaria_allstar/small/52154169748_994ac32109_b.jpg","thumbnail":"https://perenual.com/storage/species_image/3013_fragaria_allstar/thumbnail/52154169748_994ac32109_b.jpg"}},{"id":3014,"common_name":"junebearing strawberry","scientific_name":["Fragaria ananassa BERRIES GALORE"],"other_name":null,"cycle":"Perennial","watering":"Average","sunlight":["Full sun"],"default_image":{"image_id":9,"license":5,"license_name":"Attribution-ShareAlike License","license_url":"https://creativecommons.org/licenses/by-sa/2.0/","original_url":"https://perenual.com/storage/species_image/2_abies_alba_pyramidalis/og/49255769768_df55596553_b.jpg","regular_url":"https://perenual.com/storage/species_image/2_abies_alba_pyramidalis/regular/49255769768_df55596553_b.jpg","medium_url":"https://perenual.com/storage/species_image/2_abies_alba_pyramidalis/medium/49255769768_df55596553_b.jpg","small_url":"https://perenual.com/storage/species_image/2_abies_alba_pyramidalis/small/49255769768_df55596553_b.jpg","thumbnail":"https://perenual.com/storage/species_image/2_abies_alba_pyramidalis/thumbnail/49255769768_df55596553_b.jpg"}},{"id":3015,"common_name":"junebearing strawberry","scientific_name":["Fragaria ananassa 'Honeoye'"],"other_name":null,"cycle":"Perennial","watering":"Average","sunlight":["Full sun"],"default_image":{"image_id":9,"license":5,"license_name":"Attribution-ShareAlike License","license_url":"https://creativecommons.org/licenses/by-sa/2.0/","original_url":"https://perenual.com/storage/species_image/2_abies_alba_pyramidalis/og/49255769768_df55596553_b.jpg","regular_url":"https://perenual.com/storage/species_image/2_abies_alba_pyramidalis/regular/49255769768_df55596553_b.jpg","medium_url":"https://perenual.com/storage/species_image/2_abies_alba_pyramidalis/medium/49255769768_df55596553_b.jpg","small_url":"https://perenual.com/storage/species_image/2_abies_alba_pyramidalis/small/49255769768_df55596553_b.jpg","thumbnail":"https://perenual.com/storage/species_image/2_abies_alba_pyramidalis/thumbnail/49255769768_df55596553_b.jpg"}},{"id":3016,"common_name":"everbearing strawberry","scientific_name":["Fragaria ananassa 'Ruby Ann'"],"other_name":null,"cycle":"Perennial","watering":"Average","sunlight":["Full sun"],"default_image":{"image_id":6519,"license":5,"license_name":"Attribution-ShareAlike License","license_url":"https://creativecommons.org/licenses/by-sa/2.0/","original_url":"https://perenual.com/storage/species_image/3026_fragaria_tribute/og/40926575753_ff5639a6f8_b.jpg","regular_url":"https://perenual.com/storage/species_image/3026_fragaria_tribute/regular/40926575753_ff5639a6f8_b.jpg","medium_url":"https://perenual.com/storage/species_image/3026_fragaria_tribute/medium/40926575753_ff5639a6f8_b.jpg","small_url":"https://perenual.com/storage/species_image/3026_fragaria_tribute/small/40926575753_ff5639a6f8_b.jpg","thumbnail":"https://perenual.com/storage/species_image/3026_fragaria_tribute/thumbnail/40926575753_ff5639a6f8_b.jpg"}},{"id":3017,"common_name":"strawberry","scientific_name":["Fragaria 'Cavendish'"],"other_name":null,"cycle":"Perennial","watering":"Average","sunlight":["Full sun"],"default_image":null},{"id":3018,"common_name":"strawberry","scientific_name":["Fragaria 'Dunlap'"],"other_name":null,"cycle":"Perennial","watering":"Average","sunlight":["Full sun"],"default_image":{"image_id":6522,"license":4,"license_name":"Attribution License","license_url":"https://creativecommons.org/licenses/by/2.0/","original_url":"https://perenual.com/storage/species_image/3018_fragaria_dunlap/og/52610514669_680da8416b_b.jpg","regular_url":"https://perenual.com/storage/species_image/3018_fragaria_dunlap/regular/52610514669_680da8416b_b.jpg","medium_url":"https://perenual.com/storage/species_image/3018_fragaria_dunlap/medium/52610514669_680da8416b_b.jpg","small_url":"https://perenual.com/storage/species_image/3018_fragaria_dunlap/small/52610514669_680da8416b_b.jpg","thumbnail":"https://perenual.com/storage/species_image/3018_fragaria_dunlap/thumbnail/52610514669_680da8416b_b.jpg"}},{"id":3019,"common_name":"strawberry","scientific_name":["Fragaria 'Earliglo'"],"other_name":null,"cycle":"Perennial","watering":"Average","sunlight":["Full sun"],"default_image":null},{"id":3020,"common_name":"everbearing strawberry","scientific_name":["Fragaria EVERSWEET"],"other_name":null,"cycle":"Perennial","watering":"Average","sunlight":["Full sun"],"default_image":{"image_id":6524,"license":4,"license_name":"Attribution License","license_url":"https://creativecommons.org/licenses/by/2.0/","original_url":"https://perenual.com/storage/species_image/3026_fragaria_tribute/og/26156154403_72ee7f623c_b.jpg","regular_url":"https://perenual.com/storage/species_image/3026_fragaria_tribute/regular/26156154403_72ee7f623c_b.jpg","medium_url":"https://perenual.com/storage/species_image/3026_fragaria_tribute/medium/26156154403_72ee7f623c_b.jpg","small_url":"https://perenual.com/storage/species_image/3026_fragaria_tribute/small/26156154403_72ee7f623c_b.jpg","thumbnail":"https://perenual.com/storage/species_image/3026_fragaria_tribute/thumbnail/26156154403_72ee7f623c_b.jpg"}},{"id":3021,"common_name":"strawberry","scientific_name":["Fragaria 'Frel' PINK PANDA"],"other_name":null,"cycle":"Perennial","watering":"Average","sunlight":["Full sun"," Part sun/part shade"],"default_image":{"image_id":6526,"license":4,"license_name":"Attribution License","license_url":"https://creativecommons.org/licenses/by/2.0/","original_url":"https://perenual.com/storage/species_image/3021_fragaria_frel_pink_panda/og/21642757904_1bcc287bd3_b.jpg","regular_url":"https://perenual.com/storage/species_image/3021_fragaria_frel_pink_panda/regular/21642757904_1bcc287bd3_b.jpg","medium_url":"https://perenual.com/storage/species_image/3021_fragaria_frel_pink_panda/medium/21642757904_1bcc287bd3_b.jpg","small_url":"https://perenual.com/storage/species_image/3021_fragaria_frel_pink_panda/small/21642757904_1bcc287bd3_b.jpg","thumbnail":"https://perenual.com/storage/species_image/3021_fragaria_frel_pink_panda/thumbnail/21642757904_1bcc287bd3_b.jpg"}},{"id":3022,"common_name":"strawberry","scientific_name":["Fragaria 'Lipstick'"],"other_name":null,"cycle":"Perennial","watering":"Average","sunlight":["Full sun","part shade"],"default_image":{"image_id":9,"license":5,"license_name":"Attribution-ShareAlike License","license_url":"https://creativecommons.org/licenses/by-sa/2.0/","original_url":"https://perenual.com/storage/species_image/2_abies_alba_pyramidalis/og/49255769768_df55596553_b.jpg","regular_url":"https://perenual.com/storage/species_image/2_abies_alba_pyramidalis/regular/49255769768_df55596553_b.jpg","medium_url":"https://perenual.com/storage/species_image/2_abies_alba_pyramidalis/medium/49255769768_df55596553_b.jpg","small_url":"https://perenual.com/storage/species_image/2_abies_alba_pyramidalis/small/49255769768_df55596553_b.jpg","thumbnail":"https://perenual.com/storage/species_image/2_abies_alba_pyramidalis/thumbnail/49255769768_df55596553_b.jpg"}},{"id":3023,"common_name":"wild strawberry","scientific_name":["Fragaria 'Mara des Bois'"],"other_name":null,"cycle":"Perennial","watering":"Average","sunlight":["Full sun","part shade"],"default_image":{"image_id":6531,"license":4,"license_name":"Attribution License","license_url":"https://creativecommons.org/licenses/by/2.0/","original_url":"https://perenual.com/storage/species_image/3023_fragaria_mara_des_bois/og/52224374666_bc1bcd229b_b.jpg","regular_url":"https://perenual.com/storage/species_image/3023_fragaria_mara_des_bois/regular/52224374666_bc1bcd229b_b.jpg","medium_url":"https://perenual.com/storage/species_image/3023_fragaria_mara_des_bois/medium/52224374666_bc1bcd229b_b.jpg","small_url":"https://perenual.com/storage/species_image/3023_fragaria_mara_des_bois/small/52224374666_bc1bcd229b_b.jpg","thumbnail":"https://perenual.com/storage/species_image/3023_fragaria_mara_des_bois/thumbnail/52224374666_bc1bcd229b_b.jpg"}},{"id":3024,"common_name":"everbearing strawberry","scientific_name":["Fragaria 'Ozark Beauty'"],"other_name":null,"cycle":"Perennial","watering":"Average","sunlight":["Full sun"],"default_image":{"image_id":6519,"license":5,"license_name":"Attribution-ShareAlike License","license_url":"https://creativecommons.org/licenses/by-sa/2.0/","original_url":"https://perenual.com/storage/species_image/3026_fragaria_tribute/og/40926575753_ff5639a6f8_b.jpg","regular_url":"https://perenual.com/storage/species_image/3026_fragaria_tribute/regular/40926575753_ff5639a6f8_b.jpg","medium_url":"https://perenual.com/storage/species_image/3026_fragaria_tribute/medium/40926575753_ff5639a6f8_b.jpg","small_url":"https://perenual.com/storage/species_image/3026_fragaria_tribute/small/40926575753_ff5639a6f8_b.jpg","thumbnail":"https://perenual.com/storage/species_image/3026_fragaria_tribute/thumbnail/40926575753_ff5639a6f8_b.jpg"}},{"id":3025,"common_name":"junebearing strawberry","scientific_name":["Fragaria 'Surecrop'"],"other_name":null,"cycle":"Perennial","watering":"Average","sunlight":["Full sun"],"default_image":{"image_id":9,"license":5,"license_name":"Attribution-ShareAlike License","license_url":"https://creativecommons.org/licenses/by-sa/2.0/","original_url":"https://perenual.com/storage/species_image/2_abies_alba_pyramidalis/og/49255769768_df55596553_b.jpg","regular_url":"https://perenual.com/storage/species_image/2_abies_alba_pyramidalis/regular/49255769768_df55596553_b.jpg","medium_url":"https://perenual.com/storage/species_image/2_abies_alba_pyramidalis/medium/49255769768_df55596553_b.jpg","small_url":"https://perenual.com/storage/species_image/2_abies_alba_pyramidalis/small/49255769768_df55596553_b.jpg","thumbnail":"https://perenual.com/storage/species_image/2_abies_alba_pyramidalis/thumbnail/49255769768_df55596553_b.jpg"}},{"id":3026,"common_name":"everbearing strawberry","scientific_name":["Fragaria 'Tribute'"],"other_name":null,"cycle":"Perennial","watering":"Average","sunlight":["Full sun"],"default_image":{"image_id":6524,"license":4,"license_name":"Attribution License","license_url":"https://creativecommons.org/licenses/by/2.0/","original_url":"https://perenual.com/storage/species_image/3026_fragaria_tribute/og/26156154403_72ee7f623c_b.jpg","regular_url":"https://perenual.com/storage/species_image/3026_fragaria_tribute/regular/26156154403_72ee7f623c_b.jpg","medium_url":"https://perenual.com/storage/species_image/3026_fragaria_tribute/medium/26156154403_72ee7f623c_b.jpg","small_url":"https://perenual.com/storage/species_image/3026_fragaria_tribute/small/26156154403_72ee7f623c_b.jpg","thumbnail":"https://perenual.com/storage/species_image/3026_fragaria_tribute/thumbnail/26156154403_72ee7f623c_b.jpg"}},{"id":3027,"common_name":"wild strawberry","scientific_name":["Fragaria vesca"],"other_name":null,"cycle":"Perennial","watering":"Average","sunlight":["Full sun","part shade"],"default_image":{"image_id":6534,"license":4,"license_name":"Attribution License","license_url":"https://creativecommons.org/licenses/by/2.0/","original_url":"https://perenual.com/storage/species_image/3027_fragaria_vesca/og/51873682859_32e282eddc_b.jpg","regular_url":"https://perenual.com/storage/species_image/3027_fragaria_vesca/regular/51873682859_32e282eddc_b.jpg","medium_url":"https://perenual.com/storage/species_image/3027_fragaria_vesca/medium/51873682859_32e282eddc_b.jpg","small_url":"https://perenual.com/storage/species_image/3027_fragaria_vesca/small/51873682859_32e282eddc_b.jpg","thumbnail":"https://perenual.com/storage/species_image/3027_fragaria_vesca/thumbnail/51873682859_32e282eddc_b.jpg"}},{"id":3028,"common_name":"woodland strawberry","scientific_name":["Fragaria vesca 'Alexandra'"],"other_name":null,"cycle":"Perennial","watering":"Average","sunlight":["Full sun","part shade"],"default_image":{"image_id":9,"license":5,"license_name":"Attribution-ShareAlike License","license_url":"https://creativecommons.org/licenses/by-sa/2.0/","original_url":"https://perenual.com/storage/species_image/2_abies_alba_pyramidalis/og/49255769768_df55596553_b.jpg","regular_url":"https://perenual.com/storage/species_image/2_abies_alba_pyramidalis/regular/49255769768_df55596553_b.jpg","medium_url":"https://perenual.com/storage/species_image/2_abies_alba_pyramidalis/medium/49255769768_df55596553_b.jpg","small_url":"https://perenual.com/storage/species_image/2_abies_alba_pyramidalis/small/49255769768_df55596553_b.jpg","thumbnail":"https://perenual.com/storage/species_image/2_abies_alba_pyramidalis/thumbnail/49255769768_df55596553_b.jpg"}},{"id":3029,"common_name":"scarlet strawberry","scientific_name":["Fragaria virginiana"],"other_name":null,"cycle":"Perennial","watering":"Average","sunlight":["Full sun","part shade"],"default_image":{"image_id":9,"license":5,"license_name":"Attribution-ShareAlike License","license_url":"https://creativecommons.org/licenses/by-sa/2.0/","original_url":"https://perenual.com/storage/species_image/2_abies_alba_pyramidalis/og/49255769768_df55596553_b.jpg","regular_url":"https://perenual.com/storage/species_image/2_abies_alba_pyramidalis/regular/49255769768_df55596553_b.jpg","medium_url":"https://perenual.com/storage/species_image/2_abies_alba_pyramidalis/medium/49255769768_df55596553_b.jpg","small_url":"https://perenual.com/storage/species_image/2_abies_alba_pyramidalis/small/49255769768_df55596553_b.jpg","thumbnail":"https://perenual.com/storage/species_image/2_abies_alba_pyramidalis/thumbnail/49255769768_df55596553_b.jpg"}},{"id":3030,"common_name":"pineberry","scientific_name":["Fragaria WONDERFUL PINEBERRY"],"other_name":null,"cycle":"Perennial","watering":"Average","sunlight":["Full sun"],"default_image":{"image_id":6542,"license":5,"license_name":"Attribution-ShareAlike License","license_url":"https://creativecommons.org/licenses/by-sa/2.0/","original_url":"https://perenual.com/storage/species_image/3030_fragaria_wonderful_pineberry/og/7175944254_d5fe5fe27f_b.jpg","regular_url":"https://perenual.com/storage/species_image/3030_fragaria_wonderful_pineberry/regular/7175944254_d5fe5fe27f_b.jpg","medium_url":"https://perenual.com/storage/species_image/3030_fragaria_wonderful_pineberry/medium/7175944254_d5fe5fe27f_b.jpg","small_url":"https://perenual.com/storage/species_image/3030_fragaria_wonderful_pineberry/small/7175944254_d5fe5fe27f_b.jpg","thumbnail":"https://perenual.com/storage/species_image/3030_fragaria_wonderful_pineberry/thumbnail/7175944254_d5fe5fe27f_b.jpg"}}],"to":3030,"per_page":30,"current_page":101,"from":3001,"last_page":200,"total":6000}