{"data":[{"id":4471,"common_name":"corkscrew rush","scientific_name":["Juncus effusus f. spiralis 'Unicorn'"],"other_name":null,"cycle":"Perennial","watering":"Frequent","sunlight":["Full sun"],"default_image":{"image_id":9,"license":5,"license_name":"Attribution-ShareAlike License","license_url":"https://creativecommons.org/licenses/by-sa/2.0/","original_url":"https://perenual.com/storage/species_image/2_abies_alba_pyramidalis/og/49255769768_df55596553_b.jpg","regular_url":"https://perenual.com/storage/species_image/2_abies_alba_pyramidalis/regular/49255769768_df55596553_b.jpg","medium_url":"https://perenual.com/storage/species_image/2_abies_alba_pyramidalis/medium/49255769768_df55596553_b.jpg","small_url":"https://perenual.com/storage/species_image/2_abies_alba_pyramidalis/small/49255769768_df55596553_b.jpg","thumbnail":"https://perenual.com/storage/species_image/2_abies_alba_pyramidalis/thumbnail/49255769768_df55596553_b.jpg"}},{"id":4472,"common_name":"corkscrew rush","scientific_name":["Juncus effusus 'Quartz Creek'"],"other_name":null,"cycle":"Perennial","watering":"Frequent","sunlight":["Full sun"],"default_image":{"image_id":22024,"license":2,"license_name":null,"license_url":null,"original_url":"https://perenual.com/storage/species_image/4472_juncus_effusus_quartz_creek/og/886230721_0070fd15c6_b.jpg","regular_url":"https://perenual.com/storage/species_image/4472_juncus_effusus_quartz_creek/regular/886230721_0070fd15c6_b.jpg","medium_url":"https://perenual.com/storage/species_image/4472_juncus_effusus_quartz_creek/medium/886230721_0070fd15c6_b.jpg","small_url":"https://perenual.com/storage/species_image/4472_juncus_effusus_quartz_creek/small/886230721_0070fd15c6_b.jpg","thumbnail":"https://perenual.com/storage/species_image/4472_juncus_effusus_quartz_creek/thumbnail/886230721_0070fd15c6_b.jpg"}},{"id":4473,"common_name":"rush","scientific_name":["Juncus inflexus"],"other_name":null,"cycle":"Perennial","watering":"Frequent","sunlight":["Full sun"],"default_image":{"image_id":9324,"license":5,"license_name":"Attribution-ShareAlike License","license_url":"https://creativecommons.org/licenses/by-sa/2.0/","original_url":"https://perenual.com/storage/species_image/4473_juncus_inflexus/og/28222527372_7e4cc3a30a_b.jpg","regular_url":"https://perenual.com/storage/species_image/4473_juncus_inflexus/regular/28222527372_7e4cc3a30a_b.jpg","medium_url":"https://perenual.com/storage/species_image/4473_juncus_inflexus/medium/28222527372_7e4cc3a30a_b.jpg","small_url":"https://perenual.com/storage/species_image/4473_juncus_inflexus/small/28222527372_7e4cc3a30a_b.jpg","thumbnail":"https://perenual.com/storage/species_image/4473_juncus_inflexus/thumbnail/28222527372_7e4cc3a30a_b.jpg"}},{"id":4474,"common_name":"hard rush","scientific_name":["Juncus inflexus 'Afro'"],"other_name":null,"cycle":"Perennial","watering":"Frequent","sunlight":["Full sun"],"default_image":{"image_id":21893,"license":45,"license_name":"Attribution-ShareAlike 3.0 Unported (CC BY-SA 3.0)","license_url":"https://creativecommons.org/licenses/by-sa/3.0/deed.en","original_url":"https://perenual.com/storage/species_image/4474_juncus_inflexus_afro/og/Juncus_inflexus_Afro_0zz.jpg","regular_url":"https://perenual.com/storage/species_image/4474_juncus_inflexus_afro/regular/Juncus_inflexus_Afro_0zz.jpg","medium_url":"https://perenual.com/storage/species_image/4474_juncus_inflexus_afro/medium/Juncus_inflexus_Afro_0zz.jpg","small_url":"https://perenual.com/storage/species_image/4474_juncus_inflexus_afro/small/Juncus_inflexus_Afro_0zz.jpg","thumbnail":"https://perenual.com/storage/species_image/4474_juncus_inflexus_afro/thumbnail/Juncus_inflexus_Afro_0zz.jpg"}},{"id":4475,"common_name":"rush","scientific_name":["Juncus inflexus BLUE MOHAWK"],"other_name":null,"cycle":"Perennial","watering":"Frequent","sunlight":["Full sun"],"default_image":{"image_id":9,"license":5,"license_name":"Attribution-ShareAlike License","license_url":"https://creativecommons.org/licenses/by-sa/2.0/","original_url":"https://perenual.com/storage/species_image/2_abies_alba_pyramidalis/og/49255769768_df55596553_b.jpg","regular_url":"https://perenual.com/storage/species_image/2_abies_alba_pyramidalis/regular/49255769768_df55596553_b.jpg","medium_url":"https://perenual.com/storage/species_image/2_abies_alba_pyramidalis/medium/49255769768_df55596553_b.jpg","small_url":"https://perenual.com/storage/species_image/2_abies_alba_pyramidalis/small/49255769768_df55596553_b.jpg","thumbnail":"https://perenual.com/storage/species_image/2_abies_alba_pyramidalis/thumbnail/49255769768_df55596553_b.jpg"}},{"id":4476,"common_name":"hard rush","scientific_name":["Juncus inflexus 'Lovesick Blues'"],"other_name":null,"cycle":"Perennial","watering":"Frequent","sunlight":["Full sun"],"default_image":{"image_id":9,"license":5,"license_name":"Attribution-ShareAlike License","license_url":"https://creativecommons.org/licenses/by-sa/2.0/","original_url":"https://perenual.com/storage/species_image/2_abies_alba_pyramidalis/og/49255769768_df55596553_b.jpg","regular_url":"https://perenual.com/storage/species_image/2_abies_alba_pyramidalis/regular/49255769768_df55596553_b.jpg","medium_url":"https://perenual.com/storage/species_image/2_abies_alba_pyramidalis/medium/49255769768_df55596553_b.jpg","small_url":"https://perenual.com/storage/species_image/2_abies_alba_pyramidalis/small/49255769768_df55596553_b.jpg","thumbnail":"https://perenual.com/storage/species_image/2_abies_alba_pyramidalis/thumbnail/49255769768_df55596553_b.jpg"}},{"id":4477,"common_name":"rush","scientific_name":["Juncus tenuis"],"other_name":null,"cycle":"Perennial","watering":"Frequent","sunlight":["Full sun","part shade"],"default_image":{"image_id":9331,"license":4,"license_name":"Attribution License","license_url":"https://creativecommons.org/licenses/by/2.0/","original_url":"https://perenual.com/storage/species_image/4477_juncus_tenuis/og/51310022973_d70a0f4628_b.jpg","regular_url":"https://perenual.com/storage/species_image/4477_juncus_tenuis/regular/51310022973_d70a0f4628_b.jpg","medium_url":"https://perenual.com/storage/species_image/4477_juncus_tenuis/medium/51310022973_d70a0f4628_b.jpg","small_url":"https://perenual.com/storage/species_image/4477_juncus_tenuis/small/51310022973_d70a0f4628_b.jpg","thumbnail":"https://perenual.com/storage/species_image/4477_juncus_tenuis/thumbnail/51310022973_d70a0f4628_b.jpg"}},{"id":4478,"common_name":"ashe juniper","scientific_name":["Juniperus ashei"],"other_name":null,"cycle":"Perennial","watering":"Average","sunlight":["Full sun"],"default_image":{"image_id":9,"license":5,"license_name":"Attribution-ShareAlike License","license_url":"https://creativecommons.org/licenses/by-sa/2.0/","original_url":"https://perenual.com/storage/species_image/2_abies_alba_pyramidalis/og/49255769768_df55596553_b.jpg","regular_url":"https://perenual.com/storage/species_image/2_abies_alba_pyramidalis/regular/49255769768_df55596553_b.jpg","medium_url":"https://perenual.com/storage/species_image/2_abies_alba_pyramidalis/medium/49255769768_df55596553_b.jpg","small_url":"https://perenual.com/storage/species_image/2_abies_alba_pyramidalis/small/49255769768_df55596553_b.jpg","thumbnail":"https://perenual.com/storage/species_image/2_abies_alba_pyramidalis/thumbnail/49255769768_df55596553_b.jpg"}},{"id":4479,"common_name":"Chinese juniper","scientific_name":["Juniperus chinensis"],"other_name":null,"cycle":"Perennial","watering":"Average","sunlight":["Full sun"],"default_image":{"image_id":9342,"license":5,"license_name":"Attribution-ShareAlike License","license_url":"https://creativecommons.org/licenses/by-sa/2.0/","original_url":"https://perenual.com/storage/species_image/4479_juniperus_chinensis/og/51930589924_058d4dda63_b.jpg","regular_url":"https://perenual.com/storage/species_image/4479_juniperus_chinensis/regular/51930589924_058d4dda63_b.jpg","medium_url":"https://perenual.com/storage/species_image/4479_juniperus_chinensis/medium/51930589924_058d4dda63_b.jpg","small_url":"https://perenual.com/storage/species_image/4479_juniperus_chinensis/small/51930589924_058d4dda63_b.jpg","thumbnail":"https://perenual.com/storage/species_image/4479_juniperus_chinensis/thumbnail/51930589924_058d4dda63_b.jpg"}},{"id":4480,"common_name":"Chinese juniper","scientific_name":["Juniperus chinensis 'Blue Alps'"],"other_name":null,"cycle":"Perennial","watering":"Average","sunlight":["Full sun"],"default_image":{"image_id":9343,"license":5,"license_name":"Attribution-ShareAlike License","license_url":"https://creativecommons.org/licenses/by-sa/2.0/","original_url":"https://perenual.com/storage/species_image/4527_juniperus_pfitzeriana_old_gold/og/49268518603_86c8682964_b.jpg","regular_url":"https://perenual.com/storage/species_image/4527_juniperus_pfitzeriana_old_gold/regular/49268518603_86c8682964_b.jpg","medium_url":"https://perenual.com/storage/species_image/4527_juniperus_pfitzeriana_old_gold/medium/49268518603_86c8682964_b.jpg","small_url":"https://perenual.com/storage/species_image/4527_juniperus_pfitzeriana_old_gold/small/49268518603_86c8682964_b.jpg","thumbnail":"https://perenual.com/storage/species_image/4527_juniperus_pfitzeriana_old_gold/thumbnail/49268518603_86c8682964_b.jpg"}},{"id":4481,"common_name":"Chinese juniper","scientific_name":["Juniperus chinensis 'Blue Vase'"],"other_name":null,"cycle":"Perennial","watering":"Average","sunlight":["Full sun"],"default_image":{"image_id":9344,"license":5,"license_name":"Attribution-ShareAlike License","license_url":"https://creativecommons.org/licenses/by-sa/2.0/","original_url":"https://perenual.com/storage/species_image/4489_juniperus_chinensis_perfecta/og/49268973386_3d78c6e8d2_b.jpg","regular_url":"https://perenual.com/storage/species_image/4489_juniperus_chinensis_perfecta/regular/49268973386_3d78c6e8d2_b.jpg","medium_url":"https://perenual.com/storage/species_image/4489_juniperus_chinensis_perfecta/medium/49268973386_3d78c6e8d2_b.jpg","small_url":"https://perenual.com/storage/species_image/4489_juniperus_chinensis_perfecta/small/49268973386_3d78c6e8d2_b.jpg","thumbnail":"https://perenual.com/storage/species_image/4489_juniperus_chinensis_perfecta/thumbnail/49268973386_3d78c6e8d2_b.jpg"}},{"id":4482,"common_name":"Chinese juniper","scientific_name":["Juniperus chinensis 'Daniel's Dwarf'"],"other_name":null,"cycle":"Perennial","watering":"Average","sunlight":["Full sun"],"default_image":{"image_id":9343,"license":5,"license_name":"Attribution-ShareAlike License","license_url":"https://creativecommons.org/licenses/by-sa/2.0/","original_url":"https://perenual.com/storage/species_image/4527_juniperus_pfitzeriana_old_gold/og/49268518603_86c8682964_b.jpg","regular_url":"https://perenual.com/storage/species_image/4527_juniperus_pfitzeriana_old_gold/regular/49268518603_86c8682964_b.jpg","medium_url":"https://perenual.com/storage/species_image/4527_juniperus_pfitzeriana_old_gold/medium/49268518603_86c8682964_b.jpg","small_url":"https://perenual.com/storage/species_image/4527_juniperus_pfitzeriana_old_gold/small/49268518603_86c8682964_b.jpg","thumbnail":"https://perenual.com/storage/species_image/4527_juniperus_pfitzeriana_old_gold/thumbnail/49268518603_86c8682964_b.jpg"}},{"id":4483,"common_name":"Chinese juniper","scientific_name":["Juniperus chinensis 'Expansa Aureospicata'"],"other_name":null,"cycle":"Perennial","watering":"Average","sunlight":["Full sun"],"default_image":{"image_id":9344,"license":5,"license_name":"Attribution-ShareAlike License","license_url":"https://creativecommons.org/licenses/by-sa/2.0/","original_url":"https://perenual.com/storage/species_image/4489_juniperus_chinensis_perfecta/og/49268973386_3d78c6e8d2_b.jpg","regular_url":"https://perenual.com/storage/species_image/4489_juniperus_chinensis_perfecta/regular/49268973386_3d78c6e8d2_b.jpg","medium_url":"https://perenual.com/storage/species_image/4489_juniperus_chinensis_perfecta/medium/49268973386_3d78c6e8d2_b.jpg","small_url":"https://perenual.com/storage/species_image/4489_juniperus_chinensis_perfecta/small/49268973386_3d78c6e8d2_b.jpg","thumbnail":"https://perenual.com/storage/species_image/4489_juniperus_chinensis_perfecta/thumbnail/49268973386_3d78c6e8d2_b.jpg"}},{"id":4484,"common_name":"Chinese juniper","scientific_name":["Juniperus chinensis 'Fairview'"],"other_name":null,"cycle":"Perennial","watering":"Average","sunlight":["Full sun"],"default_image":{"image_id":9343,"license":5,"license_name":"Attribution-ShareAlike License","license_url":"https://creativecommons.org/licenses/by-sa/2.0/","original_url":"https://perenual.com/storage/species_image/4527_juniperus_pfitzeriana_old_gold/og/49268518603_86c8682964_b.jpg","regular_url":"https://perenual.com/storage/species_image/4527_juniperus_pfitzeriana_old_gold/regular/49268518603_86c8682964_b.jpg","medium_url":"https://perenual.com/storage/species_image/4527_juniperus_pfitzeriana_old_gold/medium/49268518603_86c8682964_b.jpg","small_url":"https://perenual.com/storage/species_image/4527_juniperus_pfitzeriana_old_gold/small/49268518603_86c8682964_b.jpg","thumbnail":"https://perenual.com/storage/species_image/4527_juniperus_pfitzeriana_old_gold/thumbnail/49268518603_86c8682964_b.jpg"}},{"id":4485,"common_name":"Chinese juniper","scientific_name":["Juniperus chinensis 'Hetzii Glauca'"],"other_name":null,"cycle":"Perennial","watering":"Average","sunlight":["Full sun"],"default_image":{"image_id":9345,"license":5,"license_name":"Attribution-ShareAlike License","license_url":"https://creativecommons.org/licenses/by-sa/2.0/","original_url":"https://perenual.com/storage/species_image/4523_juniperus_pfitzeriana_daubs_frosted/og/26171577435_265e7d09ee_b.jpg","regular_url":"https://perenual.com/storage/species_image/4523_juniperus_pfitzeriana_daubs_frosted/regular/26171577435_265e7d09ee_b.jpg","medium_url":"https://perenual.com/storage/species_image/4523_juniperus_pfitzeriana_daubs_frosted/medium/26171577435_265e7d09ee_b.jpg","small_url":"https://perenual.com/storage/species_image/4523_juniperus_pfitzeriana_daubs_frosted/small/26171577435_265e7d09ee_b.jpg","thumbnail":"https://perenual.com/storage/species_image/4523_juniperus_pfitzeriana_daubs_frosted/thumbnail/26171577435_265e7d09ee_b.jpg"}},{"id":4486,"common_name":"Hollywood juniper","scientific_name":["Juniperus chinensis 'Kaizuka'"],"other_name":null,"cycle":"Perennial","watering":"Average","sunlight":["Full sun"," Part sun/part shade"],"default_image":{"image_id":9346,"license":4,"license_name":"Attribution License","license_url":"https://creativecommons.org/licenses/by/2.0/","original_url":"https://perenual.com/storage/species_image/4486_juniperus_chinensis_kaizuka/og/24988309691_ac84976b70_b.jpg","regular_url":"https://perenual.com/storage/species_image/4486_juniperus_chinensis_kaizuka/regular/24988309691_ac84976b70_b.jpg","medium_url":"https://perenual.com/storage/species_image/4486_juniperus_chinensis_kaizuka/medium/24988309691_ac84976b70_b.jpg","small_url":"https://perenual.com/storage/species_image/4486_juniperus_chinensis_kaizuka/small/24988309691_ac84976b70_b.jpg","thumbnail":"https://perenual.com/storage/species_image/4486_juniperus_chinensis_kaizuka/thumbnail/24988309691_ac84976b70_b.jpg"}},{"id":4487,"common_name":"Chinese juniper","scientific_name":["Juniperus chinensis 'Keteleeri'"],"other_name":null,"cycle":"Perennial","watering":"Average","sunlight":["Full sun"],"default_image":{"image_id":21897,"license":45,"license_name":"Attribution-ShareAlike 3.0 Unported (CC BY-SA 3.0)","license_url":"https://creativecommons.org/licenses/by-sa/3.0/deed.en","original_url":"https://perenual.com/storage/species_image/4487_juniperus_chinensis_keteleeri/og/Juniperus_chinensis_Parsonii_2018-07-09_4629.jpg","regular_url":"https://perenual.com/storage/species_image/4487_juniperus_chinensis_keteleeri/regular/Juniperus_chinensis_Parsonii_2018-07-09_4629.jpg","medium_url":"https://perenual.com/storage/species_image/4487_juniperus_chinensis_keteleeri/medium/Juniperus_chinensis_Parsonii_2018-07-09_4629.jpg","small_url":"https://perenual.com/storage/species_image/4487_juniperus_chinensis_keteleeri/small/Juniperus_chinensis_Parsonii_2018-07-09_4629.jpg","thumbnail":"https://perenual.com/storage/species_image/4487_juniperus_chinensis_keteleeri/thumbnail/Juniperus_chinensis_Parsonii_2018-07-09_4629.jpg"}},{"id":4488,"common_name":"Chinese juniper","scientific_name":["Juniperus chinensis 'Mac's Golden'"],"other_name":null,"cycle":"Perennial","watering":"Average","sunlight":["Full sun"],"default_image":{"image_id":9343,"license":5,"license_name":"Attribution-ShareAlike License","license_url":"https://creativecommons.org/licenses/by-sa/2.0/","original_url":"https://perenual.com/storage/species_image/4527_juniperus_pfitzeriana_old_gold/og/49268518603_86c8682964_b.jpg","regular_url":"https://perenual.com/storage/species_image/4527_juniperus_pfitzeriana_old_gold/regular/49268518603_86c8682964_b.jpg","medium_url":"https://perenual.com/storage/species_image/4527_juniperus_pfitzeriana_old_gold/medium/49268518603_86c8682964_b.jpg","small_url":"https://perenual.com/storage/species_image/4527_juniperus_pfitzeriana_old_gold/small/49268518603_86c8682964_b.jpg","thumbnail":"https://perenual.com/storage/species_image/4527_juniperus_pfitzeriana_old_gold/thumbnail/49268518603_86c8682964_b.jpg"}},{"id":4489,"common_name":"Chinese juniper","scientific_name":["Juniperus chinensis 'Perfecta'"],"other_name":null,"cycle":"Perennial","watering":"Average","sunlight":["Full sun"],"default_image":{"image_id":9348,"license":5,"license_name":"Attribution-ShareAlike License","license_url":"https://creativecommons.org/licenses/by-sa/2.0/","original_url":"https://perenual.com/storage/species_image/4489_juniperus_chinensis_perfecta/og/49296548402_62819e5fb1_b.jpg","regular_url":"https://perenual.com/storage/species_image/4489_juniperus_chinensis_perfecta/regular/49296548402_62819e5fb1_b.jpg","medium_url":"https://perenual.com/storage/species_image/4489_juniperus_chinensis_perfecta/medium/49296548402_62819e5fb1_b.jpg","small_url":"https://perenual.com/storage/species_image/4489_juniperus_chinensis_perfecta/small/49296548402_62819e5fb1_b.jpg","thumbnail":"https://perenual.com/storage/species_image/4489_juniperus_chinensis_perfecta/thumbnail/49296548402_62819e5fb1_b.jpg"}},{"id":4490,"common_name":"Chinese juniper","scientific_name":["Juniperus chinensis 'Robusta Green'"],"other_name":null,"cycle":"Perennial","watering":"Average","sunlight":["Full sun"],"default_image":{"image_id":9350,"license":5,"license_name":"Attribution-ShareAlike License","license_url":"https://creativecommons.org/licenses/by-sa/2.0/","original_url":"https://perenual.com/storage/species_image/4490_juniperus_chinensis_robusta_green/og/47191312591_a5c160e16c_b.jpg","regular_url":"https://perenual.com/storage/species_image/4490_juniperus_chinensis_robusta_green/regular/47191312591_a5c160e16c_b.jpg","medium_url":"https://perenual.com/storage/species_image/4490_juniperus_chinensis_robusta_green/medium/47191312591_a5c160e16c_b.jpg","small_url":"https://perenual.com/storage/species_image/4490_juniperus_chinensis_robusta_green/small/47191312591_a5c160e16c_b.jpg","thumbnail":"https://perenual.com/storage/species_image/4490_juniperus_chinensis_robusta_green/thumbnail/47191312591_a5c160e16c_b.jpg"}},{"id":4491,"common_name":"Chinese juniper","scientific_name":["Juniperus chinensis 'San Jose'"],"other_name":null,"cycle":"Perennial","watering":"Average","sunlight":["Full sun"],"default_image":{"image_id":21899,"license":45,"license_name":"Attribution-ShareAlike 3.0 Unported (CC BY-SA 3.0)","license_url":"https://creativecommons.org/licenses/by-sa/3.0/deed.en","original_url":"https://perenual.com/storage/species_image/4491_juniperus_chinensis_san_jose/og/Juniperus_chinensis_%27San_Jose%27_bonsai.jpg","regular_url":"https://perenual.com/storage/species_image/4491_juniperus_chinensis_san_jose/regular/Juniperus_chinensis_%27San_Jose%27_bonsai.jpg","medium_url":"https://perenual.com/storage/species_image/4491_juniperus_chinensis_san_jose/medium/Juniperus_chinensis_%27San_Jose%27_bonsai.jpg","small_url":"https://perenual.com/storage/species_image/4491_juniperus_chinensis_san_jose/small/Juniperus_chinensis_%27San_Jose%27_bonsai.jpg","thumbnail":"https://perenual.com/storage/species_image/4491_juniperus_chinensis_san_jose/thumbnail/Juniperus_chinensis_%27San_Jose%27_bonsai.jpg"}},{"id":4492,"common_name":"Chinese juniper","scientific_name":["Juniperus chinensis 'Shimpaku'"],"other_name":null,"cycle":"Perennial","watering":"Average","sunlight":["Full sun"],"default_image":{"image_id":9351,"license":5,"license_name":"Attribution-ShareAlike License","license_url":"https://creativecommons.org/licenses/by-sa/2.0/","original_url":"https://perenual.com/storage/species_image/4492_juniperus_chinensis_shimpaku/og/20070650231_737b2a4069_b.jpg","regular_url":"https://perenual.com/storage/species_image/4492_juniperus_chinensis_shimpaku/regular/20070650231_737b2a4069_b.jpg","medium_url":"https://perenual.com/storage/species_image/4492_juniperus_chinensis_shimpaku/medium/20070650231_737b2a4069_b.jpg","small_url":"https://perenual.com/storage/species_image/4492_juniperus_chinensis_shimpaku/small/20070650231_737b2a4069_b.jpg","thumbnail":"https://perenual.com/storage/species_image/4492_juniperus_chinensis_shimpaku/thumbnail/20070650231_737b2a4069_b.jpg"}},{"id":4493,"common_name":"Chinese juniper","scientific_name":["Juniperus chinensis 'Spartan'"],"other_name":null,"cycle":"Perennial","watering":"Average","sunlight":["Full sun"],"default_image":{"image_id":9353,"license":4,"license_name":"Attribution License","license_url":"https://creativecommons.org/licenses/by/2.0/","original_url":"https://perenual.com/storage/species_image/4493_juniperus_chinensis_spartan/og/24606144710_2defba9738_b.jpg","regular_url":"https://perenual.com/storage/species_image/4493_juniperus_chinensis_spartan/regular/24606144710_2defba9738_b.jpg","medium_url":"https://perenual.com/storage/species_image/4493_juniperus_chinensis_spartan/medium/24606144710_2defba9738_b.jpg","small_url":"https://perenual.com/storage/species_image/4493_juniperus_chinensis_spartan/small/24606144710_2defba9738_b.jpg","thumbnail":"https://perenual.com/storage/species_image/4493_juniperus_chinensis_spartan/thumbnail/24606144710_2defba9738_b.jpg"}},{"id":4494,"common_name":"Chinese juniper","scientific_name":["Juniperus chinensis 'Spearmint'"],"other_name":null,"cycle":"Perennial","watering":"Average","sunlight":["Full sun"],"default_image":{"image_id":9354,"license":5,"license_name":"Attribution-ShareAlike License","license_url":"https://creativecommons.org/licenses/by-sa/2.0/","original_url":"https://perenual.com/storage/species_image/8627_juniperus_horizontalis_cvs/og/51919834278_9ffeb2df5e_b.jpg","regular_url":"https://perenual.com/storage/species_image/8627_juniperus_horizontalis_cvs/regular/51919834278_9ffeb2df5e_b.jpg","medium_url":"https://perenual.com/storage/species_image/8627_juniperus_horizontalis_cvs/medium/51919834278_9ffeb2df5e_b.jpg","small_url":"https://perenual.com/storage/species_image/8627_juniperus_horizontalis_cvs/small/51919834278_9ffeb2df5e_b.jpg","thumbnail":"https://perenual.com/storage/species_image/8627_juniperus_horizontalis_cvs/thumbnail/51919834278_9ffeb2df5e_b.jpg"}},{"id":4495,"common_name":"juniper","scientific_name":["Juniperus chinensis var. sargentii"],"other_name":null,"cycle":"Perennial","watering":"Average","sunlight":["Full sun"],"default_image":{"image_id":9355,"license":5,"license_name":"Attribution-ShareAlike License","license_url":"https://creativecommons.org/licenses/by-sa/2.0/","original_url":"https://perenual.com/storage/species_image/4495_juniperus_chinensis_var_sargentii/og/26155642475_08829375da_b.jpg","regular_url":"https://perenual.com/storage/species_image/4495_juniperus_chinensis_var_sargentii/regular/26155642475_08829375da_b.jpg","medium_url":"https://perenual.com/storage/species_image/4495_juniperus_chinensis_var_sargentii/medium/26155642475_08829375da_b.jpg","small_url":"https://perenual.com/storage/species_image/4495_juniperus_chinensis_var_sargentii/small/26155642475_08829375da_b.jpg","thumbnail":"https://perenual.com/storage/species_image/4495_juniperus_chinensis_var_sargentii/thumbnail/26155642475_08829375da_b.jpg"}},{"id":4496,"common_name":"Sargent juniper","scientific_name":["Juniperus chinensis var. sargentii 'Glauca'"],"other_name":null,"cycle":"Perennial","watering":"Average","sunlight":["Full sun"],"default_image":{"image_id":9357,"license":5,"license_name":"Attribution-ShareAlike License","license_url":"https://creativecommons.org/licenses/by-sa/2.0/","original_url":"https://perenual.com/storage/species_image/4512_juniperus_horizontalis_glomerata/og/49554114743_0ec12909ec_b.jpg","regular_url":"https://perenual.com/storage/species_image/4512_juniperus_horizontalis_glomerata/regular/49554114743_0ec12909ec_b.jpg","medium_url":"https://perenual.com/storage/species_image/4512_juniperus_horizontalis_glomerata/medium/49554114743_0ec12909ec_b.jpg","small_url":"https://perenual.com/storage/species_image/4512_juniperus_horizontalis_glomerata/small/49554114743_0ec12909ec_b.jpg","thumbnail":"https://perenual.com/storage/species_image/4512_juniperus_horizontalis_glomerata/thumbnail/49554114743_0ec12909ec_b.jpg"}},{"id":4497,"common_name":"Chinese juniper","scientific_name":["Juniperus chinensis 'Variegated Kaizuka'"],"other_name":null,"cycle":"Perennial","watering":"Average","sunlight":["Full sun"],"default_image":{"image_id":9357,"license":5,"license_name":"Attribution-ShareAlike License","license_url":"https://creativecommons.org/licenses/by-sa/2.0/","original_url":"https://perenual.com/storage/species_image/4512_juniperus_horizontalis_glomerata/og/49554114743_0ec12909ec_b.jpg","regular_url":"https://perenual.com/storage/species_image/4512_juniperus_horizontalis_glomerata/regular/49554114743_0ec12909ec_b.jpg","medium_url":"https://perenual.com/storage/species_image/4512_juniperus_horizontalis_glomerata/medium/49554114743_0ec12909ec_b.jpg","small_url":"https://perenual.com/storage/species_image/4512_juniperus_horizontalis_glomerata/small/49554114743_0ec12909ec_b.jpg","thumbnail":"https://perenual.com/storage/species_image/4512_juniperus_horizontalis_glomerata/thumbnail/49554114743_0ec12909ec_b.jpg"}},{"id":4498,"common_name":"common juniper","scientific_name":["Juniperus communis"],"other_name":null,"cycle":"Perennial","watering":"Minimum","sunlight":["Full sun"],"default_image":{"image_id":9,"license":5,"license_name":"Attribution-ShareAlike License","license_url":"https://creativecommons.org/licenses/by-sa/2.0/","original_url":"https://perenual.com/storage/species_image/2_abies_alba_pyramidalis/og/49255769768_df55596553_b.jpg","regular_url":"https://perenual.com/storage/species_image/2_abies_alba_pyramidalis/regular/49255769768_df55596553_b.jpg","medium_url":"https://perenual.com/storage/species_image/2_abies_alba_pyramidalis/medium/49255769768_df55596553_b.jpg","small_url":"https://perenual.com/storage/species_image/2_abies_alba_pyramidalis/small/49255769768_df55596553_b.jpg","thumbnail":"https://perenual.com/storage/species_image/2_abies_alba_pyramidalis/thumbnail/49255769768_df55596553_b.jpg"}},{"id":4499,"common_name":"common juniper","scientific_name":["Juniperus communis 'Blue Stripe'"],"other_name":null,"cycle":"Perennial","watering":"Minimum","sunlight":["Full sun"],"default_image":{"image_id":9,"license":5,"license_name":"Attribution-ShareAlike License","license_url":"https://creativecommons.org/licenses/by-sa/2.0/","original_url":"https://perenual.com/storage/species_image/2_abies_alba_pyramidalis/og/49255769768_df55596553_b.jpg","regular_url":"https://perenual.com/storage/species_image/2_abies_alba_pyramidalis/regular/49255769768_df55596553_b.jpg","medium_url":"https://perenual.com/storage/species_image/2_abies_alba_pyramidalis/medium/49255769768_df55596553_b.jpg","small_url":"https://perenual.com/storage/species_image/2_abies_alba_pyramidalis/small/49255769768_df55596553_b.jpg","thumbnail":"https://perenual.com/storage/species_image/2_abies_alba_pyramidalis/thumbnail/49255769768_df55596553_b.jpg"}},{"id":4500,"common_name":"common juniper","scientific_name":["Juniperus communis 'Compressa'"],"other_name":null,"cycle":"Perennial","watering":"Minimum","sunlight":["Full sun"],"default_image":{"image_id":9363,"license":5,"license_name":"Attribution-ShareAlike License","license_url":"https://creativecommons.org/licenses/by-sa/2.0/","original_url":"https://perenual.com/storage/species_image/4500_juniperus_communis_compressa/og/49255729613_9ce2499ff1_b.jpg","regular_url":"https://perenual.com/storage/species_image/4500_juniperus_communis_compressa/regular/49255729613_9ce2499ff1_b.jpg","medium_url":"https://perenual.com/storage/species_image/4500_juniperus_communis_compressa/medium/49255729613_9ce2499ff1_b.jpg","small_url":"https://perenual.com/storage/species_image/4500_juniperus_communis_compressa/small/49255729613_9ce2499ff1_b.jpg","thumbnail":"https://perenual.com/storage/species_image/4500_juniperus_communis_compressa/thumbnail/49255729613_9ce2499ff1_b.jpg"}}],"to":4500,"per_page":30,"current_page":150,"from":4471,"last_page":200,"total":6000}