{"data":[{"id":271,"common_name":"Naylor's Blue Leyland Cypress","scientific_name":["Cupressocyparis x leylandii 'Naylor's Blue'"],"other_name":["x Cupressocyparis leylandii"],"cycle":"Perennial","watering":"Frequent","sunlight":[],"default_image":{"image_id":9,"license":5,"license_name":"Attribution-ShareAlike License","license_url":"https://creativecommons.org/licenses/by-sa/2.0/","original_url":"https://perenual.com/storage/species_image/2_abies_alba_pyramidalis/og/49255769768_df55596553_b.jpg","regular_url":"https://perenual.com/storage/species_image/2_abies_alba_pyramidalis/regular/49255769768_df55596553_b.jpg","medium_url":"https://perenual.com/storage/species_image/2_abies_alba_pyramidalis/medium/49255769768_df55596553_b.jpg","small_url":"https://perenual.com/storage/species_image/2_abies_alba_pyramidalis/small/49255769768_df55596553_b.jpg","thumbnail":"https://perenual.com/storage/species_image/2_abies_alba_pyramidalis/thumbnail/49255769768_df55596553_b.jpg"}},{"id":272,"common_name":"Dove Tree","scientific_name":["Davidia involucrata"],"other_name":["Handkerchief Tree","Ghost Tree"],"cycle":"Perennial","watering":"Average","sunlight":["Full sun","part shade"],"default_image":{"image_id":500,"license":5,"license_name":"Attribution-ShareAlike License","license_url":"https://creativecommons.org/licenses/by-sa/2.0/","original_url":"https://perenual.com/storage/species_image/272_davidia_involucrata/og/13974632906_00944d84ab_b.jpg","regular_url":"https://perenual.com/storage/species_image/272_davidia_involucrata/regular/13974632906_00944d84ab_b.jpg","medium_url":"https://perenual.com/storage/species_image/272_davidia_involucrata/medium/13974632906_00944d84ab_b.jpg","small_url":"https://perenual.com/storage/species_image/272_davidia_involucrata/small/13974632906_00944d84ab_b.jpg","thumbnail":"https://perenual.com/storage/species_image/272_davidia_involucrata/thumbnail/13974632906_00944d84ab_b.jpg"}},{"id":273,"common_name":"Japanese Persimmon","scientific_name":["Diospyros kaki"],"other_name":["syn. D. chinensis Blume","Asian Persimmon","Keg Fig"],"cycle":"Perennial","watering":"Average","sunlight":["Full sun"],"default_image":{"image_id":505,"license":4,"license_name":"Attribution License","license_url":"https://creativecommons.org/licenses/by/2.0/","original_url":"https://perenual.com/storage/species_image/273_diospyros_kaki/og/3076409231_18ecb6c96c_b.jpg","regular_url":"https://perenual.com/storage/species_image/273_diospyros_kaki/regular/3076409231_18ecb6c96c_b.jpg","medium_url":"https://perenual.com/storage/species_image/273_diospyros_kaki/medium/3076409231_18ecb6c96c_b.jpg","small_url":"https://perenual.com/storage/species_image/273_diospyros_kaki/small/3076409231_18ecb6c96c_b.jpg","thumbnail":"https://perenual.com/storage/species_image/273_diospyros_kaki/thumbnail/3076409231_18ecb6c96c_b.jpg"}},{"id":274,"common_name":"Common Persimmon","scientific_name":["Diospyros virginiana"],"other_name":["American Persimmon","Eastern Persimmon"],"cycle":"Perennial","watering":"Minimum","sunlight":["Full sun","part shade"],"default_image":{"image_id":512,"license":5,"license_name":"Attribution-ShareAlike License","license_url":"https://creativecommons.org/licenses/by-sa/2.0/","original_url":"https://perenual.com/storage/species_image/274_diospyros_virginiana/og/49014714943_39e9d002d6_b.jpg","regular_url":"https://perenual.com/storage/species_image/274_diospyros_virginiana/regular/49014714943_39e9d002d6_b.jpg","medium_url":"https://perenual.com/storage/species_image/274_diospyros_virginiana/medium/49014714943_39e9d002d6_b.jpg","small_url":"https://perenual.com/storage/species_image/274_diospyros_virginiana/small/49014714943_39e9d002d6_b.jpg","thumbnail":"https://perenual.com/storage/species_image/274_diospyros_virginiana/thumbnail/49014714943_39e9d002d6_b.jpg"}},{"id":275,"common_name":"Mountain Pepper","scientific_name":["Drimys lanceolata"],"other_name":["Cornish Pepper Leaf","Tasmannia lanceolata"],"cycle":"Perennial","watering":"Average","sunlight":["Full sun","part shade"],"default_image":{"image_id":521,"license":5,"license_name":"Attribution-ShareAlike License","license_url":"https://creativecommons.org/licenses/by-sa/2.0/","original_url":"https://perenual.com/storage/species_image/275_drimys_lanceolata/og/7521641388_439c6a4249_b.jpg","regular_url":"https://perenual.com/storage/species_image/275_drimys_lanceolata/regular/7521641388_439c6a4249_b.jpg","medium_url":"https://perenual.com/storage/species_image/275_drimys_lanceolata/medium/7521641388_439c6a4249_b.jpg","small_url":"https://perenual.com/storage/species_image/275_drimys_lanceolata/small/7521641388_439c6a4249_b.jpg","thumbnail":"https://perenual.com/storage/species_image/275_drimys_lanceolata/thumbnail/7521641388_439c6a4249_b.jpg"}},{"id":276,"common_name":"Russian Olive","scientific_name":["Elaeagnus angustifolia"],"other_name":["Oleaster"],"cycle":"Perennial","watering":"Minimum","sunlight":["Full sun"],"default_image":{"image_id":525,"license":4,"license_name":"Attribution License","license_url":"https://creativecommons.org/licenses/by/2.0/","original_url":"https://perenual.com/storage/species_image/276_elaeagnus_angustifolia/og/52137686162_6f2b4ee880_b.jpg","regular_url":"https://perenual.com/storage/species_image/276_elaeagnus_angustifolia/regular/52137686162_6f2b4ee880_b.jpg","medium_url":"https://perenual.com/storage/species_image/276_elaeagnus_angustifolia/medium/52137686162_6f2b4ee880_b.jpg","small_url":"https://perenual.com/storage/species_image/276_elaeagnus_angustifolia/small/52137686162_6f2b4ee880_b.jpg","thumbnail":"https://perenual.com/storage/species_image/276_elaeagnus_angustifolia/thumbnail/52137686162_6f2b4ee880_b.jpg"}},{"id":277,"common_name":"Japanese Blueberry Tree","scientific_name":["Elaeocarpus decipiens"],"other_name":null,"cycle":"Perennial","watering":"Frequent","sunlight":[],"default_image":{"image_id":9,"license":5,"license_name":"Attribution-ShareAlike License","license_url":"https://creativecommons.org/licenses/by-sa/2.0/","original_url":"https://perenual.com/storage/species_image/2_abies_alba_pyramidalis/og/49255769768_df55596553_b.jpg","regular_url":"https://perenual.com/storage/species_image/2_abies_alba_pyramidalis/regular/49255769768_df55596553_b.jpg","medium_url":"https://perenual.com/storage/species_image/2_abies_alba_pyramidalis/medium/49255769768_df55596553_b.jpg","small_url":"https://perenual.com/storage/species_image/2_abies_alba_pyramidalis/small/49255769768_df55596553_b.jpg","thumbnail":"https://perenual.com/storage/species_image/2_abies_alba_pyramidalis/thumbnail/49255769768_df55596553_b.jpg"}},{"id":278,"common_name":"Loquat","scientific_name":["Eriobotrya japonica"],"other_name":["Japanese Plum"],"cycle":"Perennial","watering":"Average","sunlight":["Full sun","part shade"],"default_image":{"image_id":543,"license":4,"license_name":"Attribution License","license_url":"https://creativecommons.org/licenses/by/2.0/","original_url":"https://perenual.com/storage/species_image/278_eriobotrya_japonica/og/24454831223_358eb14c7c_b.jpg","regular_url":"https://perenual.com/storage/species_image/278_eriobotrya_japonica/regular/24454831223_358eb14c7c_b.jpg","medium_url":"https://perenual.com/storage/species_image/278_eriobotrya_japonica/medium/24454831223_358eb14c7c_b.jpg","small_url":"https://perenual.com/storage/species_image/278_eriobotrya_japonica/small/24454831223_358eb14c7c_b.jpg","thumbnail":"https://perenual.com/storage/species_image/278_eriobotrya_japonica/thumbnail/24454831223_358eb14c7c_b.jpg"}},{"id":279,"common_name":"Spindle Tree","scientific_name":["Euonymus europaeus"],"other_name":["European Euonymus","European euonymus"],"cycle":"Perennial","watering":"Average","sunlight":["Filtered shade"," Full sun"," Part sun/part shade"],"default_image":{"image_id":544,"license":4,"license_name":"Attribution License","license_url":"https://creativecommons.org/licenses/by/2.0/","original_url":"https://perenual.com/storage/species_image/279_euonymus_europaeus/og/51874550173_6464be3133_b.jpg","regular_url":"https://perenual.com/storage/species_image/279_euonymus_europaeus/regular/51874550173_6464be3133_b.jpg","medium_url":"https://perenual.com/storage/species_image/279_euonymus_europaeus/medium/51874550173_6464be3133_b.jpg","small_url":"https://perenual.com/storage/species_image/279_euonymus_europaeus/small/51874550173_6464be3133_b.jpg","thumbnail":"https://perenual.com/storage/species_image/279_euonymus_europaeus/thumbnail/51874550173_6464be3133_b.jpg"}},{"id":280,"common_name":"Dawyck Gold Beech","scientific_name":["Fagus sylvatica 'Dawyck Gold'"],"other_name":["Golden Fastigiate Beech","European Beech"],"cycle":"Perennial","watering":"Average","sunlight":["Full sun"],"default_image":{"image_id":551,"license":4,"license_name":"Attribution License","license_url":"https://creativecommons.org/licenses/by/2.0/","original_url":"https://perenual.com/storage/species_image/281_fagus_sylvatica_dawyck_purple/og/28664584202_1248ff5994_b.jpg","regular_url":"https://perenual.com/storage/species_image/281_fagus_sylvatica_dawyck_purple/regular/28664584202_1248ff5994_b.jpg","medium_url":"https://perenual.com/storage/species_image/281_fagus_sylvatica_dawyck_purple/medium/28664584202_1248ff5994_b.jpg","small_url":"https://perenual.com/storage/species_image/281_fagus_sylvatica_dawyck_purple/small/28664584202_1248ff5994_b.jpg","thumbnail":"https://perenual.com/storage/species_image/281_fagus_sylvatica_dawyck_purple/thumbnail/28664584202_1248ff5994_b.jpg"}},{"id":281,"common_name":"Dawyck Purple Beech","scientific_name":["Fagus sylvatica 'Dawyck Purple'"],"other_name":["Golden Fastigiate Beech","European Beech"],"cycle":"Perennial","watering":"Average","sunlight":["Full sun"],"default_image":{"image_id":551,"license":4,"license_name":"Attribution License","license_url":"https://creativecommons.org/licenses/by/2.0/","original_url":"https://perenual.com/storage/species_image/281_fagus_sylvatica_dawyck_purple/og/28664584202_1248ff5994_b.jpg","regular_url":"https://perenual.com/storage/species_image/281_fagus_sylvatica_dawyck_purple/regular/28664584202_1248ff5994_b.jpg","medium_url":"https://perenual.com/storage/species_image/281_fagus_sylvatica_dawyck_purple/medium/28664584202_1248ff5994_b.jpg","small_url":"https://perenual.com/storage/species_image/281_fagus_sylvatica_dawyck_purple/small/28664584202_1248ff5994_b.jpg","thumbnail":"https://perenual.com/storage/species_image/281_fagus_sylvatica_dawyck_purple/thumbnail/28664584202_1248ff5994_b.jpg"}},{"id":282,"common_name":"Pyramidal Beech","scientific_name":["Fagus sylvatica 'Fastigiata'"],"other_name":["Golden Fastigiate Beech","European Beech"],"cycle":"Perennial","watering":"Average","sunlight":["Full sun"],"default_image":{"image_id":552,"license":5,"license_name":"Attribution-ShareAlike License","license_url":"https://creativecommons.org/licenses/by-sa/2.0/","original_url":"https://perenual.com/storage/species_image/282_fagus_sylvatica_fastigiata/og/10193804954_b05a2570a2_b.jpg","regular_url":"https://perenual.com/storage/species_image/282_fagus_sylvatica_fastigiata/regular/10193804954_b05a2570a2_b.jpg","medium_url":"https://perenual.com/storage/species_image/282_fagus_sylvatica_fastigiata/medium/10193804954_b05a2570a2_b.jpg","small_url":"https://perenual.com/storage/species_image/282_fagus_sylvatica_fastigiata/small/10193804954_b05a2570a2_b.jpg","thumbnail":"https://perenual.com/storage/species_image/282_fagus_sylvatica_fastigiata/thumbnail/10193804954_b05a2570a2_b.jpg"}},{"id":283,"common_name":"Weeping Beech","scientific_name":["Fagus sylvatica 'Pendula'"],"other_name":["Golden Fastigiate Beech","European Beech"],"cycle":"Perennial","watering":"Average","sunlight":["Full sun"],"default_image":{"image_id":556,"license":5,"license_name":"Attribution-ShareAlike License","license_url":"https://creativecommons.org/licenses/by-sa/2.0/","original_url":"https://perenual.com/storage/species_image/283_fagus_sylvatica_pendula/og/19587450910_1021b9631b_b.jpg","regular_url":"https://perenual.com/storage/species_image/283_fagus_sylvatica_pendula/regular/19587450910_1021b9631b_b.jpg","medium_url":"https://perenual.com/storage/species_image/283_fagus_sylvatica_pendula/medium/19587450910_1021b9631b_b.jpg","small_url":"https://perenual.com/storage/species_image/283_fagus_sylvatica_pendula/small/19587450910_1021b9631b_b.jpg","thumbnail":"https://perenual.com/storage/species_image/283_fagus_sylvatica_pendula/thumbnail/19587450910_1021b9631b_b.jpg"}},{"id":284,"common_name":"Purple Fountain Beech","scientific_name":["Fagus sylvatica 'Purple Fountain'"],"other_name":["Golden Fastigiate Beech","European Beech"],"cycle":"Perennial","watering":"Average","sunlight":["Full sun"],"default_image":{"image_id":9,"license":5,"license_name":"Attribution-ShareAlike License","license_url":"https://creativecommons.org/licenses/by-sa/2.0/","original_url":"https://perenual.com/storage/species_image/2_abies_alba_pyramidalis/og/49255769768_df55596553_b.jpg","regular_url":"https://perenual.com/storage/species_image/2_abies_alba_pyramidalis/regular/49255769768_df55596553_b.jpg","medium_url":"https://perenual.com/storage/species_image/2_abies_alba_pyramidalis/medium/49255769768_df55596553_b.jpg","small_url":"https://perenual.com/storage/species_image/2_abies_alba_pyramidalis/small/49255769768_df55596553_b.jpg","thumbnail":"https://perenual.com/storage/species_image/2_abies_alba_pyramidalis/thumbnail/49255769768_df55596553_b.jpg"}},{"id":285,"common_name":"Purple Beech","scientific_name":["Fagus sylvatica 'Purpurea'"],"other_name":["Golden Fastigiate Beech","European Beech"],"cycle":"Perennial","watering":"Average","sunlight":["Full sun"],"default_image":{"image_id":563,"license":4,"license_name":"Attribution License","license_url":"https://creativecommons.org/licenses/by/2.0/","original_url":"https://perenual.com/storage/species_image/285_fagus_sylvatica_purpurea/og/51873514672_fc33f7f178_b.jpg","regular_url":"https://perenual.com/storage/species_image/285_fagus_sylvatica_purpurea/regular/51873514672_fc33f7f178_b.jpg","medium_url":"https://perenual.com/storage/species_image/285_fagus_sylvatica_purpurea/medium/51873514672_fc33f7f178_b.jpg","small_url":"https://perenual.com/storage/species_image/285_fagus_sylvatica_purpurea/small/51873514672_fc33f7f178_b.jpg","thumbnail":"https://perenual.com/storage/species_image/285_fagus_sylvatica_purpurea/thumbnail/51873514672_fc33f7f178_b.jpg"}},{"id":286,"common_name":"Weeping Purple Beech","scientific_name":["Fagus sylvatica 'Purpurea Pendula'"],"other_name":["Golden Fastigiate Beech","European Beech"],"cycle":"Perennial","watering":"Average","sunlight":["Full sun"],"default_image":{"image_id":9,"license":5,"license_name":"Attribution-ShareAlike License","license_url":"https://creativecommons.org/licenses/by-sa/2.0/","original_url":"https://perenual.com/storage/species_image/2_abies_alba_pyramidalis/og/49255769768_df55596553_b.jpg","regular_url":"https://perenual.com/storage/species_image/2_abies_alba_pyramidalis/regular/49255769768_df55596553_b.jpg","medium_url":"https://perenual.com/storage/species_image/2_abies_alba_pyramidalis/medium/49255769768_df55596553_b.jpg","small_url":"https://perenual.com/storage/species_image/2_abies_alba_pyramidalis/small/49255769768_df55596553_b.jpg","thumbnail":"https://perenual.com/storage/species_image/2_abies_alba_pyramidalis/thumbnail/49255769768_df55596553_b.jpg"}},{"id":287,"common_name":"Red Obelisk Beech","scientific_name":["Fagus sylvatica 'Red Obelisk'"],"other_name":["Golden Fastigiate Beech","European Beech"],"cycle":"Perennial","watering":"Average","sunlight":["Full sun"],"default_image":{"image_id":9,"license":5,"license_name":"Attribution-ShareAlike License","license_url":"https://creativecommons.org/licenses/by-sa/2.0/","original_url":"https://perenual.com/storage/species_image/2_abies_alba_pyramidalis/og/49255769768_df55596553_b.jpg","regular_url":"https://perenual.com/storage/species_image/2_abies_alba_pyramidalis/regular/49255769768_df55596553_b.jpg","medium_url":"https://perenual.com/storage/species_image/2_abies_alba_pyramidalis/medium/49255769768_df55596553_b.jpg","small_url":"https://perenual.com/storage/species_image/2_abies_alba_pyramidalis/small/49255769768_df55596553_b.jpg","thumbnail":"https://perenual.com/storage/species_image/2_abies_alba_pyramidalis/thumbnail/49255769768_df55596553_b.jpg"}},{"id":288,"common_name":"Common Fig","scientific_name":["Ficus carica"],"other_name":["garden fig"],"cycle":"Perennial","watering":"Average","sunlight":["Full sun"],"default_image":{"image_id":569,"license":4,"license_name":"Attribution License","license_url":"https://creativecommons.org/licenses/by/2.0/","original_url":"https://perenual.com/storage/species_image/288_ficus_carica/og/52377169610_b7a247a378_b.jpg","regular_url":"https://perenual.com/storage/species_image/288_ficus_carica/regular/52377169610_b7a247a378_b.jpg","medium_url":"https://perenual.com/storage/species_image/288_ficus_carica/medium/52377169610_b7a247a378_b.jpg","small_url":"https://perenual.com/storage/species_image/288_ficus_carica/small/52377169610_b7a247a378_b.jpg","thumbnail":"https://perenual.com/storage/species_image/288_ficus_carica/thumbnail/52377169610_b7a247a378_b.jpg"}},{"id":289,"common_name":"Kadota Fig","scientific_name":["Ficus carica 'Kadota'"],"other_name":["garden fig"],"cycle":"Perennial","watering":"Average","sunlight":["Full sun"],"default_image":{"image_id":574,"license":4,"license_name":"Attribution License","license_url":"https://creativecommons.org/licenses/by/2.0/","original_url":"https://perenual.com/storage/species_image/289_ficus_carica_kadota/og/48265972037_27e005c4ab_b.jpg","regular_url":"https://perenual.com/storage/species_image/289_ficus_carica_kadota/regular/48265972037_27e005c4ab_b.jpg","medium_url":"https://perenual.com/storage/species_image/289_ficus_carica_kadota/medium/48265972037_27e005c4ab_b.jpg","small_url":"https://perenual.com/storage/species_image/289_ficus_carica_kadota/small/48265972037_27e005c4ab_b.jpg","thumbnail":"https://perenual.com/storage/species_image/289_ficus_carica_kadota/thumbnail/48265972037_27e005c4ab_b.jpg"}},{"id":290,"common_name":"Mission Fig","scientific_name":["Ficus carica 'Mission'"],"other_name":["garden fig"],"cycle":"Perennial","watering":"Average","sunlight":["Full sun"],"default_image":{"image_id":21091,"license":45,"license_name":"Attribution-ShareAlike 3.0 Unported (CC BY-SA 3.0)","license_url":"https://creativecommons.org/licenses/by-sa/3.0/deed.en","original_url":"https://perenual.com/storage/species_image/290_ficus_carica_mission/og/Fig.jpg","regular_url":"https://perenual.com/storage/species_image/290_ficus_carica_mission/regular/Fig.jpg","medium_url":"https://perenual.com/storage/species_image/290_ficus_carica_mission/medium/Fig.jpg","small_url":"https://perenual.com/storage/species_image/290_ficus_carica_mission/small/Fig.jpg","thumbnail":"https://perenual.com/storage/species_image/290_ficus_carica_mission/thumbnail/Fig.jpg"}},{"id":291,"common_name":"Peter's Honey Fig","scientific_name":["Ficus carica 'Peter's Honey'"],"other_name":["garden fig"],"cycle":"Perennial","watering":"Average","sunlight":["Full sun"],"default_image":{"image_id":9,"license":5,"license_name":"Attribution-ShareAlike License","license_url":"https://creativecommons.org/licenses/by-sa/2.0/","original_url":"https://perenual.com/storage/species_image/2_abies_alba_pyramidalis/og/49255769768_df55596553_b.jpg","regular_url":"https://perenual.com/storage/species_image/2_abies_alba_pyramidalis/regular/49255769768_df55596553_b.jpg","medium_url":"https://perenual.com/storage/species_image/2_abies_alba_pyramidalis/medium/49255769768_df55596553_b.jpg","small_url":"https://perenual.com/storage/species_image/2_abies_alba_pyramidalis/small/49255769768_df55596553_b.jpg","thumbnail":"https://perenual.com/storage/species_image/2_abies_alba_pyramidalis/thumbnail/49255769768_df55596553_b.jpg"}},{"id":292,"common_name":"Franklin Tree","scientific_name":["Franklinia alatamaha"],"other_name":["Franklinia Tree"],"cycle":"Perennial","watering":"Average","sunlight":["Full sun","part shade"],"default_image":{"image_id":582,"license":5,"license_name":"Attribution-ShareAlike License","license_url":"https://creativecommons.org/licenses/by-sa/2.0/","original_url":"https://perenual.com/storage/species_image/292_franklinia_alatamaha/og/36261306500_b5a32c9770_b.jpg","regular_url":"https://perenual.com/storage/species_image/292_franklinia_alatamaha/regular/36261306500_b5a32c9770_b.jpg","medium_url":"https://perenual.com/storage/species_image/292_franklinia_alatamaha/medium/36261306500_b5a32c9770_b.jpg","small_url":"https://perenual.com/storage/species_image/292_franklinia_alatamaha/small/36261306500_b5a32c9770_b.jpg","thumbnail":"https://perenual.com/storage/species_image/292_franklinia_alatamaha/thumbnail/36261306500_b5a32c9770_b.jpg"}},{"id":293,"common_name":"Fallgold Black Ash","scientific_name":["Fraxinus nigra 'Fallgold'"],"other_name":["swamp ash"],"cycle":"Perennial","watering":"Frequent","sunlight":["Full sun"," Part sun/part shade"],"default_image":{"image_id":21093,"license":4,"license_name":"Attribution License","license_url":"https://creativecommons.org/licenses/by/2.0/","original_url":"https://perenual.com/storage/species_image/293_fraxinus_nigra_fallgold/og/8740535204_aa4b907d99_b.jpg","regular_url":"https://perenual.com/storage/species_image/293_fraxinus_nigra_fallgold/regular/8740535204_aa4b907d99_b.jpg","medium_url":"https://perenual.com/storage/species_image/293_fraxinus_nigra_fallgold/medium/8740535204_aa4b907d99_b.jpg","small_url":"https://perenual.com/storage/species_image/293_fraxinus_nigra_fallgold/small/8740535204_aa4b907d99_b.jpg","thumbnail":"https://perenual.com/storage/species_image/293_fraxinus_nigra_fallgold/thumbnail/8740535204_aa4b907d99_b.jpg"}},{"id":294,"common_name":"Leprechaun Green Ash","scientific_name":["Fraxinus pennsylvanica 'Leprechaun'"],"other_name":["Red Ash"],"cycle":"Perennial","watering":"Frequent","sunlight":["Full sun"],"default_image":{"image_id":21094,"license":5,"license_name":"Attribution-ShareAlike License","license_url":"https://creativecommons.org/licenses/by-sa/2.0/","original_url":"https://perenual.com/storage/species_image/294_fraxinus_pennsylvanica_leprechaun/og/5107486573_c4161ac946_b.jpg","regular_url":"https://perenual.com/storage/species_image/294_fraxinus_pennsylvanica_leprechaun/regular/5107486573_c4161ac946_b.jpg","medium_url":"https://perenual.com/storage/species_image/294_fraxinus_pennsylvanica_leprechaun/medium/5107486573_c4161ac946_b.jpg","small_url":"https://perenual.com/storage/species_image/294_fraxinus_pennsylvanica_leprechaun/small/5107486573_c4161ac946_b.jpg","thumbnail":"https://perenual.com/storage/species_image/294_fraxinus_pennsylvanica_leprechaun/thumbnail/5107486573_c4161ac946_b.jpg"}},{"id":295,"common_name":"Patmore Green Ash","scientific_name":["Fraxinus pennsylvanica 'Patmore'"],"other_name":["Red Ash"],"cycle":"Perennial","watering":"Frequent","sunlight":["Full sun"],"default_image":{"image_id":21096,"license":45,"license_name":"Attribution-ShareAlike 3.0 Unported (CC BY-SA 3.0)","license_url":"https://creativecommons.org/licenses/by-sa/3.0/deed.en","original_url":"https://perenual.com/storage/species_image/295_fraxinus_pennsylvanica_patmore/og/Fraxinus_pennsylvanica_%285107486147%29.jpg","regular_url":"https://perenual.com/storage/species_image/295_fraxinus_pennsylvanica_patmore/regular/Fraxinus_pennsylvanica_%285107486147%29.jpg","medium_url":"https://perenual.com/storage/species_image/295_fraxinus_pennsylvanica_patmore/medium/Fraxinus_pennsylvanica_%285107486147%29.jpg","small_url":"https://perenual.com/storage/species_image/295_fraxinus_pennsylvanica_patmore/small/Fraxinus_pennsylvanica_%285107486147%29.jpg","thumbnail":"https://perenual.com/storage/species_image/295_fraxinus_pennsylvanica_patmore/thumbnail/Fraxinus_pennsylvanica_%285107486147%29.jpg"}},{"id":296,"common_name":"Ginkgo","scientific_name":["Ginkgo biloba"],"other_name":["Maidenhair Tree","ginkgo"],"cycle":"Perennial","watering":"Average","sunlight":["Full sun"],"default_image":{"image_id":589,"license":4,"license_name":"Attribution License","license_url":"https://creativecommons.org/licenses/by/2.0/","original_url":"https://perenual.com/storage/species_image/296_ginkgo_biloba/og/45919245951_080f8dcbb6_b.jpg","regular_url":"https://perenual.com/storage/species_image/296_ginkgo_biloba/regular/45919245951_080f8dcbb6_b.jpg","medium_url":"https://perenual.com/storage/species_image/296_ginkgo_biloba/medium/45919245951_080f8dcbb6_b.jpg","small_url":"https://perenual.com/storage/species_image/296_ginkgo_biloba/small/45919245951_080f8dcbb6_b.jpg","thumbnail":"https://perenual.com/storage/species_image/296_ginkgo_biloba/thumbnail/45919245951_080f8dcbb6_b.jpg"}},{"id":297,"common_name":"Autumn Gold Ginkgo","scientific_name":["Ginkgo biloba 'Autumn Gold'"],"other_name":["Maidenhair Tree","ginkgo"],"cycle":"Perennial","watering":"Average","sunlight":["Full sun"],"default_image":{"image_id":9,"license":5,"license_name":"Attribution-ShareAlike License","license_url":"https://creativecommons.org/licenses/by-sa/2.0/","original_url":"https://perenual.com/storage/species_image/2_abies_alba_pyramidalis/og/49255769768_df55596553_b.jpg","regular_url":"https://perenual.com/storage/species_image/2_abies_alba_pyramidalis/regular/49255769768_df55596553_b.jpg","medium_url":"https://perenual.com/storage/species_image/2_abies_alba_pyramidalis/medium/49255769768_df55596553_b.jpg","small_url":"https://perenual.com/storage/species_image/2_abies_alba_pyramidalis/small/49255769768_df55596553_b.jpg","thumbnail":"https://perenual.com/storage/species_image/2_abies_alba_pyramidalis/thumbnail/49255769768_df55596553_b.jpg"}},{"id":298,"common_name":"Magyar Ginkgo","scientific_name":["Ginkgo biloba 'Magyar'"],"other_name":["Maidenhair Tree","ginkgo"],"cycle":"Perennial","watering":"Average","sunlight":["Full sun"],"default_image":{"image_id":21098,"license":45,"license_name":"Attribution-ShareAlike 3.0 Unported (CC BY-SA 3.0)","license_url":"https://creativecommons.org/licenses/by-sa/3.0/deed.en","original_url":"https://perenual.com/storage/species_image/298_ginkgo_biloba_magyar/og/Feuilles_de_Ginkgo_biloba_en_automne.jpg","regular_url":"https://perenual.com/storage/species_image/298_ginkgo_biloba_magyar/regular/Feuilles_de_Ginkgo_biloba_en_automne.jpg","medium_url":"https://perenual.com/storage/species_image/298_ginkgo_biloba_magyar/medium/Feuilles_de_Ginkgo_biloba_en_automne.jpg","small_url":"https://perenual.com/storage/species_image/298_ginkgo_biloba_magyar/small/Feuilles_de_Ginkgo_biloba_en_automne.jpg","thumbnail":"https://perenual.com/storage/species_image/298_ginkgo_biloba_magyar/thumbnail/Feuilles_de_Ginkgo_biloba_en_automne.jpg"}},{"id":299,"common_name":"Princeton Sentry Ginkgo","scientific_name":["Ginkgo biloba 'Princeton Sentry'"],"other_name":["Maidenhair Tree","ginkgo"],"cycle":"Perennial","watering":"Average","sunlight":["Full sun"],"default_image":{"image_id":593,"license":5,"license_name":"Attribution-ShareAlike License","license_url":"https://creativecommons.org/licenses/by-sa/2.0/","original_url":"https://perenual.com/storage/species_image/299_ginkgo_biloba_princeton_sentry/og/10447348824_071fbea762_b.jpg","regular_url":"https://perenual.com/storage/species_image/299_ginkgo_biloba_princeton_sentry/regular/10447348824_071fbea762_b.jpg","medium_url":"https://perenual.com/storage/species_image/299_ginkgo_biloba_princeton_sentry/medium/10447348824_071fbea762_b.jpg","small_url":"https://perenual.com/storage/species_image/299_ginkgo_biloba_princeton_sentry/small/10447348824_071fbea762_b.jpg","thumbnail":"https://perenual.com/storage/species_image/299_ginkgo_biloba_princeton_sentry/thumbnail/10447348824_071fbea762_b.jpg"}},{"id":300,"common_name":"Saratoga Ginkgo","scientific_name":["Ginkgo biloba 'Saratoga'"],"other_name":["Maidenhair Tree","ginkgo"],"cycle":"Perennial","watering":"Average","sunlight":["Full sun"],"default_image":{"image_id":9,"license":5,"license_name":"Attribution-ShareAlike License","license_url":"https://creativecommons.org/licenses/by-sa/2.0/","original_url":"https://perenual.com/storage/species_image/2_abies_alba_pyramidalis/og/49255769768_df55596553_b.jpg","regular_url":"https://perenual.com/storage/species_image/2_abies_alba_pyramidalis/regular/49255769768_df55596553_b.jpg","medium_url":"https://perenual.com/storage/species_image/2_abies_alba_pyramidalis/medium/49255769768_df55596553_b.jpg","small_url":"https://perenual.com/storage/species_image/2_abies_alba_pyramidalis/small/49255769768_df55596553_b.jpg","thumbnail":"https://perenual.com/storage/species_image/2_abies_alba_pyramidalis/thumbnail/49255769768_df55596553_b.jpg"}}],"to":300,"per_page":30,"current_page":10,"from":271,"last_page":200,"total":6000}