{"data":[{"id":931,"common_name":"Japanese cobra lily","scientific_name":["Arisaema kishidae 'Silver Pattern'"],"other_name":null,"cycle":"Perennial","watering":"Frequent","sunlight":["Part shade","full shade"],"default_image":{"image_id":9,"license":5,"license_name":"Attribution-ShareAlike License","license_url":"https://creativecommons.org/licenses/by-sa/2.0/","original_url":"https://perenual.com/storage/species_image/2_abies_alba_pyramidalis/og/49255769768_df55596553_b.jpg","regular_url":"https://perenual.com/storage/species_image/2_abies_alba_pyramidalis/regular/49255769768_df55596553_b.jpg","medium_url":"https://perenual.com/storage/species_image/2_abies_alba_pyramidalis/medium/49255769768_df55596553_b.jpg","small_url":"https://perenual.com/storage/species_image/2_abies_alba_pyramidalis/small/49255769768_df55596553_b.jpg","thumbnail":"https://perenual.com/storage/species_image/2_abies_alba_pyramidalis/thumbnail/49255769768_df55596553_b.jpg"}},{"id":932,"common_name":"arisaema","scientific_name":["Arisaema kiushianum"],"other_name":null,"cycle":"Perennial","watering":"Frequent","sunlight":["Part shade","full shade"],"default_image":{"image_id":9,"license":5,"license_name":"Attribution-ShareAlike License","license_url":"https://creativecommons.org/licenses/by-sa/2.0/","original_url":"https://perenual.com/storage/species_image/2_abies_alba_pyramidalis/og/49255769768_df55596553_b.jpg","regular_url":"https://perenual.com/storage/species_image/2_abies_alba_pyramidalis/regular/49255769768_df55596553_b.jpg","medium_url":"https://perenual.com/storage/species_image/2_abies_alba_pyramidalis/medium/49255769768_df55596553_b.jpg","small_url":"https://perenual.com/storage/species_image/2_abies_alba_pyramidalis/small/49255769768_df55596553_b.jpg","thumbnail":"https://perenual.com/storage/species_image/2_abies_alba_pyramidalis/thumbnail/49255769768_df55596553_b.jpg"}},{"id":933,"common_name":"arisaema","scientific_name":["Arisaema serratum"],"other_name":null,"cycle":"Perennial","watering":"Frequent","sunlight":["Part shade","full shade"],"default_image":{"image_id":9,"license":5,"license_name":"Attribution-ShareAlike License","license_url":"https://creativecommons.org/licenses/by-sa/2.0/","original_url":"https://perenual.com/storage/species_image/2_abies_alba_pyramidalis/og/49255769768_df55596553_b.jpg","regular_url":"https://perenual.com/storage/species_image/2_abies_alba_pyramidalis/regular/49255769768_df55596553_b.jpg","medium_url":"https://perenual.com/storage/species_image/2_abies_alba_pyramidalis/medium/49255769768_df55596553_b.jpg","small_url":"https://perenual.com/storage/species_image/2_abies_alba_pyramidalis/small/49255769768_df55596553_b.jpg","thumbnail":"https://perenual.com/storage/species_image/2_abies_alba_pyramidalis/thumbnail/49255769768_df55596553_b.jpg"}},{"id":934,"common_name":"arisaema","scientific_name":["Arisaema ternatipartitum"],"other_name":null,"cycle":"Perennial","watering":"Frequent","sunlight":["Part shade","full shade"],"default_image":{"image_id":2230,"license":4,"license_name":"Attribution License","license_url":"https://creativecommons.org/licenses/by/2.0/","original_url":"https://perenual.com/storage/species_image/934_arisaema_ternatipartitum/og/52073665938_73d7cb95d7_b.jpg","regular_url":"https://perenual.com/storage/species_image/934_arisaema_ternatipartitum/regular/52073665938_73d7cb95d7_b.jpg","medium_url":"https://perenual.com/storage/species_image/934_arisaema_ternatipartitum/medium/52073665938_73d7cb95d7_b.jpg","small_url":"https://perenual.com/storage/species_image/934_arisaema_ternatipartitum/small/52073665938_73d7cb95d7_b.jpg","thumbnail":"https://perenual.com/storage/species_image/934_arisaema_ternatipartitum/thumbnail/52073665938_73d7cb95d7_b.jpg"}},{"id":935,"common_name":"arisaema","scientific_name":["Arisaema thunbergii"],"other_name":null,"cycle":"Perennial","watering":"Frequent","sunlight":["Part shade","full shade"],"default_image":{"image_id":9,"license":5,"license_name":"Attribution-ShareAlike License","license_url":"https://creativecommons.org/licenses/by-sa/2.0/","original_url":"https://perenual.com/storage/species_image/2_abies_alba_pyramidalis/og/49255769768_df55596553_b.jpg","regular_url":"https://perenual.com/storage/species_image/2_abies_alba_pyramidalis/regular/49255769768_df55596553_b.jpg","medium_url":"https://perenual.com/storage/species_image/2_abies_alba_pyramidalis/medium/49255769768_df55596553_b.jpg","small_url":"https://perenual.com/storage/species_image/2_abies_alba_pyramidalis/small/49255769768_df55596553_b.jpg","thumbnail":"https://perenual.com/storage/species_image/2_abies_alba_pyramidalis/thumbnail/49255769768_df55596553_b.jpg"}},{"id":936,"common_name":"arisaema","scientific_name":["Arisaema thunbergii subsp. urashima"],"other_name":null,"cycle":"Perennial","watering":"Frequent","sunlight":["Part shade","full shade"],"default_image":{"image_id":9,"license":5,"license_name":"Attribution-ShareAlike License","license_url":"https://creativecommons.org/licenses/by-sa/2.0/","original_url":"https://perenual.com/storage/species_image/2_abies_alba_pyramidalis/og/49255769768_df55596553_b.jpg","regular_url":"https://perenual.com/storage/species_image/2_abies_alba_pyramidalis/regular/49255769768_df55596553_b.jpg","medium_url":"https://perenual.com/storage/species_image/2_abies_alba_pyramidalis/medium/49255769768_df55596553_b.jpg","small_url":"https://perenual.com/storage/species_image/2_abies_alba_pyramidalis/small/49255769768_df55596553_b.jpg","thumbnail":"https://perenual.com/storage/species_image/2_abies_alba_pyramidalis/thumbnail/49255769768_df55596553_b.jpg"}},{"id":937,"common_name":"jack-in-the-pulpit","scientific_name":["Arisaema triphyllum"],"other_name":null,"cycle":"Perennial","watering":"Frequent","sunlight":["Deciduous Shade (Spring Sun)"],"default_image":{"image_id":2240,"license":4,"license_name":"Attribution License","license_url":"https://creativecommons.org/licenses/by/2.0/","original_url":"https://perenual.com/storage/species_image/937_arisaema_triphyllum/og/52073665971_07d62b3600_b.jpg","regular_url":"https://perenual.com/storage/species_image/937_arisaema_triphyllum/regular/52073665971_07d62b3600_b.jpg","medium_url":"https://perenual.com/storage/species_image/937_arisaema_triphyllum/medium/52073665971_07d62b3600_b.jpg","small_url":"https://perenual.com/storage/species_image/937_arisaema_triphyllum/small/52073665971_07d62b3600_b.jpg","thumbnail":"https://perenual.com/storage/species_image/937_arisaema_triphyllum/thumbnail/52073665971_07d62b3600_b.jpg"}},{"id":938,"common_name":"aristea","scientific_name":["Aristea platycaulis"],"other_name":null,"cycle":"Perennial","watering":"Average","sunlight":["Full sun","part shade"],"default_image":{"image_id":9,"license":5,"license_name":"Attribution-ShareAlike License","license_url":"https://creativecommons.org/licenses/by-sa/2.0/","original_url":"https://perenual.com/storage/species_image/2_abies_alba_pyramidalis/og/49255769768_df55596553_b.jpg","regular_url":"https://perenual.com/storage/species_image/2_abies_alba_pyramidalis/regular/49255769768_df55596553_b.jpg","medium_url":"https://perenual.com/storage/species_image/2_abies_alba_pyramidalis/medium/49255769768_df55596553_b.jpg","small_url":"https://perenual.com/storage/species_image/2_abies_alba_pyramidalis/small/49255769768_df55596553_b.jpg","thumbnail":"https://perenual.com/storage/species_image/2_abies_alba_pyramidalis/thumbnail/49255769768_df55596553_b.jpg"}},{"id":939,"common_name":"birthwort","scientific_name":["Aristolochia clematitis"],"other_name":null,"cycle":"Perennial","watering":"Average","sunlight":[],"default_image":{"image_id":2243,"license":4,"license_name":"Attribution License","license_url":"https://creativecommons.org/licenses/by/2.0/","original_url":"https://perenual.com/storage/species_image/939_aristolochia_clematitis/og/52149309863_1e7d80c1a7_b.jpg","regular_url":"https://perenual.com/storage/species_image/939_aristolochia_clematitis/regular/52149309863_1e7d80c1a7_b.jpg","medium_url":"https://perenual.com/storage/species_image/939_aristolochia_clematitis/medium/52149309863_1e7d80c1a7_b.jpg","small_url":"https://perenual.com/storage/species_image/939_aristolochia_clematitis/small/52149309863_1e7d80c1a7_b.jpg","thumbnail":"https://perenual.com/storage/species_image/939_aristolochia_clematitis/thumbnail/52149309863_1e7d80c1a7_b.jpg"}},{"id":940,"common_name":"pelican flower","scientific_name":["Aristolochia gigantea"],"other_name":null,"cycle":"Perennial","watering":"Average","sunlight":["Full sun","part shade"],"default_image":{"image_id":2249,"license":4,"license_name":"Attribution License","license_url":"https://creativecommons.org/licenses/by/2.0/","original_url":"https://perenual.com/storage/species_image/940_aristolochia_gigantea/og/50858207652_bf39093230_b.jpg","regular_url":"https://perenual.com/storage/species_image/940_aristolochia_gigantea/regular/50858207652_bf39093230_b.jpg","medium_url":"https://perenual.com/storage/species_image/940_aristolochia_gigantea/medium/50858207652_bf39093230_b.jpg","small_url":"https://perenual.com/storage/species_image/940_aristolochia_gigantea/small/50858207652_bf39093230_b.jpg","thumbnail":"https://perenual.com/storage/species_image/940_aristolochia_gigantea/thumbnail/50858207652_bf39093230_b.jpg"}},{"id":941,"common_name":"birthwort","scientific_name":["Aristolochia leuconeura"],"other_name":null,"cycle":"Perennial","watering":"Average","sunlight":["Full sun","part shade"],"default_image":{"image_id":9,"license":5,"license_name":"Attribution-ShareAlike License","license_url":"https://creativecommons.org/licenses/by-sa/2.0/","original_url":"https://perenual.com/storage/species_image/2_abies_alba_pyramidalis/og/49255769768_df55596553_b.jpg","regular_url":"https://perenual.com/storage/species_image/2_abies_alba_pyramidalis/regular/49255769768_df55596553_b.jpg","medium_url":"https://perenual.com/storage/species_image/2_abies_alba_pyramidalis/medium/49255769768_df55596553_b.jpg","small_url":"https://perenual.com/storage/species_image/2_abies_alba_pyramidalis/small/49255769768_df55596553_b.jpg","thumbnail":"https://perenual.com/storage/species_image/2_abies_alba_pyramidalis/thumbnail/49255769768_df55596553_b.jpg"}},{"id":942,"common_name":"Dutchman's pipe","scientific_name":["Aristolochia macrophylla"],"other_name":null,"cycle":"Perennial","watering":"Average","sunlight":["Full sun","part shade"],"default_image":{"image_id":2253,"license":4,"license_name":"Attribution License","license_url":"https://creativecommons.org/licenses/by/2.0/","original_url":"https://perenual.com/storage/species_image/942_aristolochia_macrophylla/og/40708715130_8a40176d0d_b.jpg","regular_url":"https://perenual.com/storage/species_image/942_aristolochia_macrophylla/regular/40708715130_8a40176d0d_b.jpg","medium_url":"https://perenual.com/storage/species_image/942_aristolochia_macrophylla/medium/40708715130_8a40176d0d_b.jpg","small_url":"https://perenual.com/storage/species_image/942_aristolochia_macrophylla/small/40708715130_8a40176d0d_b.jpg","thumbnail":"https://perenual.com/storage/species_image/942_aristolochia_macrophylla/thumbnail/40708715130_8a40176d0d_b.jpg"}},{"id":943,"common_name":"birthwort","scientific_name":["Aristolochia manshuriensis"],"other_name":null,"cycle":"Perennial","watering":"Average","sunlight":["Full sun","part shade"],"default_image":{"image_id":9,"license":5,"license_name":"Attribution-ShareAlike License","license_url":"https://creativecommons.org/licenses/by-sa/2.0/","original_url":"https://perenual.com/storage/species_image/2_abies_alba_pyramidalis/og/49255769768_df55596553_b.jpg","regular_url":"https://perenual.com/storage/species_image/2_abies_alba_pyramidalis/regular/49255769768_df55596553_b.jpg","medium_url":"https://perenual.com/storage/species_image/2_abies_alba_pyramidalis/medium/49255769768_df55596553_b.jpg","small_url":"https://perenual.com/storage/species_image/2_abies_alba_pyramidalis/small/49255769768_df55596553_b.jpg","thumbnail":"https://perenual.com/storage/species_image/2_abies_alba_pyramidalis/thumbnail/49255769768_df55596553_b.jpg"}},{"id":944,"common_name":"Dutchman's pipe","scientific_name":["Aristolochia tomentosa"],"other_name":null,"cycle":"Perennial","watering":"Average","sunlight":["Full sun","part shade"],"default_image":{"image_id":2259,"license":5,"license_name":"Attribution-ShareAlike License","license_url":"https://creativecommons.org/licenses/by-sa/2.0/","original_url":"https://perenual.com/storage/species_image/944_aristolochia_tomentosa/og/46904066822_917f0778b7_b.jpg","regular_url":"https://perenual.com/storage/species_image/944_aristolochia_tomentosa/regular/46904066822_917f0778b7_b.jpg","medium_url":"https://perenual.com/storage/species_image/944_aristolochia_tomentosa/medium/46904066822_917f0778b7_b.jpg","small_url":"https://perenual.com/storage/species_image/944_aristolochia_tomentosa/small/46904066822_917f0778b7_b.jpg","thumbnail":"https://perenual.com/storage/species_image/944_aristolochia_tomentosa/thumbnail/46904066822_917f0778b7_b.jpg"}},{"id":945,"common_name":"sea thrift","scientific_name":["Armeria maritima"],"other_name":["Thrift Seapink"],"cycle":"Perennial","watering":"Minimum","sunlight":["Full sun"],"default_image":{"image_id":9,"license":5,"license_name":"Attribution-ShareAlike License","license_url":"https://creativecommons.org/licenses/by-sa/2.0/","original_url":"https://perenual.com/storage/species_image/2_abies_alba_pyramidalis/og/49255769768_df55596553_b.jpg","regular_url":"https://perenual.com/storage/species_image/2_abies_alba_pyramidalis/regular/49255769768_df55596553_b.jpg","medium_url":"https://perenual.com/storage/species_image/2_abies_alba_pyramidalis/medium/49255769768_df55596553_b.jpg","small_url":"https://perenual.com/storage/species_image/2_abies_alba_pyramidalis/small/49255769768_df55596553_b.jpg","thumbnail":"https://perenual.com/storage/species_image/2_abies_alba_pyramidalis/thumbnail/49255769768_df55596553_b.jpg"}},{"id":946,"common_name":"sea thrift","scientific_name":["Armeria maritima 'Bloodstone'"],"other_name":null,"cycle":"Perennial","watering":"Minimum","sunlight":["Full sun"],"default_image":{"image_id":9,"license":5,"license_name":"Attribution-ShareAlike License","license_url":"https://creativecommons.org/licenses/by-sa/2.0/","original_url":"https://perenual.com/storage/species_image/2_abies_alba_pyramidalis/og/49255769768_df55596553_b.jpg","regular_url":"https://perenual.com/storage/species_image/2_abies_alba_pyramidalis/regular/49255769768_df55596553_b.jpg","medium_url":"https://perenual.com/storage/species_image/2_abies_alba_pyramidalis/medium/49255769768_df55596553_b.jpg","small_url":"https://perenual.com/storage/species_image/2_abies_alba_pyramidalis/small/49255769768_df55596553_b.jpg","thumbnail":"https://perenual.com/storage/species_image/2_abies_alba_pyramidalis/thumbnail/49255769768_df55596553_b.jpg"}},{"id":947,"common_name":"thrift","scientific_name":["Armeria maritima 'Little Penny'"],"other_name":null,"cycle":"Perennial","watering":"Minimum","sunlight":["Full sun"],"default_image":{"image_id":9,"license":5,"license_name":"Attribution-ShareAlike License","license_url":"https://creativecommons.org/licenses/by-sa/2.0/","original_url":"https://perenual.com/storage/species_image/2_abies_alba_pyramidalis/og/49255769768_df55596553_b.jpg","regular_url":"https://perenual.com/storage/species_image/2_abies_alba_pyramidalis/regular/49255769768_df55596553_b.jpg","medium_url":"https://perenual.com/storage/species_image/2_abies_alba_pyramidalis/medium/49255769768_df55596553_b.jpg","small_url":"https://perenual.com/storage/species_image/2_abies_alba_pyramidalis/small/49255769768_df55596553_b.jpg","thumbnail":"https://perenual.com/storage/species_image/2_abies_alba_pyramidalis/thumbnail/49255769768_df55596553_b.jpg"}},{"id":948,"common_name":"sea thrift","scientific_name":["Armeria maritima 'Morning Star White'"],"other_name":null,"cycle":"Perennial","watering":"Minimum","sunlight":["Full sun"],"default_image":{"image_id":9,"license":5,"license_name":"Attribution-ShareAlike License","license_url":"https://creativecommons.org/licenses/by-sa/2.0/","original_url":"https://perenual.com/storage/species_image/2_abies_alba_pyramidalis/og/49255769768_df55596553_b.jpg","regular_url":"https://perenual.com/storage/species_image/2_abies_alba_pyramidalis/regular/49255769768_df55596553_b.jpg","medium_url":"https://perenual.com/storage/species_image/2_abies_alba_pyramidalis/medium/49255769768_df55596553_b.jpg","small_url":"https://perenual.com/storage/species_image/2_abies_alba_pyramidalis/small/49255769768_df55596553_b.jpg","thumbnail":"https://perenual.com/storage/species_image/2_abies_alba_pyramidalis/thumbnail/49255769768_df55596553_b.jpg"}},{"id":949,"common_name":"sea thrift","scientific_name":["Armeria maritima 'Rubrifolia'"],"other_name":null,"cycle":"Perennial","watering":"Minimum","sunlight":["Full sun"],"default_image":{"image_id":2268,"license":4,"license_name":"Attribution License","license_url":"https://creativecommons.org/licenses/by/2.0/","original_url":"https://perenual.com/storage/species_image/949_armeria_maritima_rubrifolia/og/22265552175_4cb03fac49_b.jpg","regular_url":"https://perenual.com/storage/species_image/949_armeria_maritima_rubrifolia/regular/22265552175_4cb03fac49_b.jpg","medium_url":"https://perenual.com/storage/species_image/949_armeria_maritima_rubrifolia/medium/22265552175_4cb03fac49_b.jpg","small_url":"https://perenual.com/storage/species_image/949_armeria_maritima_rubrifolia/small/22265552175_4cb03fac49_b.jpg","thumbnail":"https://perenual.com/storage/species_image/949_armeria_maritima_rubrifolia/thumbnail/22265552175_4cb03fac49_b.jpg"}},{"id":950,"common_name":"thrift","scientific_name":["Armeria maritima 'Splendens'"],"other_name":null,"cycle":"Perennial","watering":"Minimum","sunlight":["Full sun"],"default_image":{"image_id":9,"license":5,"license_name":"Attribution-ShareAlike License","license_url":"https://creativecommons.org/licenses/by-sa/2.0/","original_url":"https://perenual.com/storage/species_image/2_abies_alba_pyramidalis/og/49255769768_df55596553_b.jpg","regular_url":"https://perenual.com/storage/species_image/2_abies_alba_pyramidalis/regular/49255769768_df55596553_b.jpg","medium_url":"https://perenual.com/storage/species_image/2_abies_alba_pyramidalis/medium/49255769768_df55596553_b.jpg","small_url":"https://perenual.com/storage/species_image/2_abies_alba_pyramidalis/small/49255769768_df55596553_b.jpg","thumbnail":"https://perenual.com/storage/species_image/2_abies_alba_pyramidalis/thumbnail/49255769768_df55596553_b.jpg"}},{"id":951,"common_name":"sea thrift","scientific_name":["Armeria 'Nifty Thrifty'"],"other_name":null,"cycle":"Perennial","watering":"Minimum","sunlight":["Full sun"],"default_image":{"image_id":9,"license":5,"license_name":"Attribution-ShareAlike License","license_url":"https://creativecommons.org/licenses/by-sa/2.0/","original_url":"https://perenual.com/storage/species_image/2_abies_alba_pyramidalis/og/49255769768_df55596553_b.jpg","regular_url":"https://perenual.com/storage/species_image/2_abies_alba_pyramidalis/regular/49255769768_df55596553_b.jpg","medium_url":"https://perenual.com/storage/species_image/2_abies_alba_pyramidalis/medium/49255769768_df55596553_b.jpg","small_url":"https://perenual.com/storage/species_image/2_abies_alba_pyramidalis/small/49255769768_df55596553_b.jpg","thumbnail":"https://perenual.com/storage/species_image/2_abies_alba_pyramidalis/thumbnail/49255769768_df55596553_b.jpg"}},{"id":952,"common_name":"thrift","scientific_name":["Armeria pseudarmeria 'Ballerina Lilac'"],"other_name":null,"cycle":"Perennial","watering":"Minimum","sunlight":["Full sun"],"default_image":{"image_id":21281,"license":45,"license_name":"Attribution-ShareAlike 3.0 Unported (CC BY-SA 3.0)","license_url":"https://creativecommons.org/licenses/by-sa/3.0/deed.en","original_url":"https://perenual.com/storage/species_image/952_armeria_pseudarmeria_ballerina_lilac/og/542px-Armeria_pseudarmeria_ballerina_lilac.jpg","regular_url":"https://perenual.com/storage/species_image/952_armeria_pseudarmeria_ballerina_lilac/regular/542px-Armeria_pseudarmeria_ballerina_lilac.jpg","medium_url":"https://perenual.com/storage/species_image/952_armeria_pseudarmeria_ballerina_lilac/medium/542px-Armeria_pseudarmeria_ballerina_lilac.jpg","small_url":"https://perenual.com/storage/species_image/952_armeria_pseudarmeria_ballerina_lilac/small/542px-Armeria_pseudarmeria_ballerina_lilac.jpg","thumbnail":"https://perenual.com/storage/species_image/952_armeria_pseudarmeria_ballerina_lilac/thumbnail/542px-Armeria_pseudarmeria_ballerina_lilac.jpg"}},{"id":953,"common_name":"thrift","scientific_name":["Armeria pseudarmeria 'Dream Weaver'"],"other_name":null,"cycle":"Perennial","watering":"Minimum","sunlight":["Full sun"],"default_image":{"image_id":21282,"license":45,"license_name":"Attribution-ShareAlike 3.0 Unported (CC BY-SA 3.0)","license_url":"https://creativecommons.org/licenses/by-sa/3.0/deed.en","original_url":"https://perenual.com/storage/species_image/953_armeria_pseudarmeria_dream_weaver/og/Armeria_rothmaleri.001_-_Serra_de_Enci%C3%B1a_de_Lastra.jpg","regular_url":"https://perenual.com/storage/species_image/953_armeria_pseudarmeria_dream_weaver/regular/Armeria_rothmaleri.001_-_Serra_de_Enci%C3%B1a_de_Lastra.jpg","medium_url":"https://perenual.com/storage/species_image/953_armeria_pseudarmeria_dream_weaver/medium/Armeria_rothmaleri.001_-_Serra_de_Enci%C3%B1a_de_Lastra.jpg","small_url":"https://perenual.com/storage/species_image/953_armeria_pseudarmeria_dream_weaver/small/Armeria_rothmaleri.001_-_Serra_de_Enci%C3%B1a_de_Lastra.jpg","thumbnail":"https://perenual.com/storage/species_image/953_armeria_pseudarmeria_dream_weaver/thumbnail/Armeria_rothmaleri.001_-_Serra_de_Enci%C3%B1a_de_Lastra.jpg"}},{"id":954,"common_name":"horseradish","scientific_name":["Armoracia rusticana"],"other_name":null,"cycle":"Perennial","watering":"Average","sunlight":[],"default_image":{"image_id":2276,"license":6,"license_name":"Attribution-NoDerivs License","license_url":"https://creativecommons.org/licenses/by-nd/2.0/","original_url":"https://perenual.com/storage/species_image/954_armoracia_rusticana/og/52242383797_8e201bc77e_b.jpg"}},{"id":955,"common_name":"pale Indian plantain","scientific_name":["Arnoglossum atriplicifolium"],"other_name":null,"cycle":"Perennial","watering":"Average","sunlight":["Full sun","part shade"],"default_image":{"image_id":2281,"license":5,"license_name":"Attribution-ShareAlike License","license_url":"https://creativecommons.org/licenses/by-sa/2.0/","original_url":"https://perenual.com/storage/species_image/955_arnoglossum_atriplicifolium/og/20292435404_1cc094815d_b.jpg","regular_url":"https://perenual.com/storage/species_image/955_arnoglossum_atriplicifolium/regular/20292435404_1cc094815d_b.jpg","medium_url":"https://perenual.com/storage/species_image/955_arnoglossum_atriplicifolium/medium/20292435404_1cc094815d_b.jpg","small_url":"https://perenual.com/storage/species_image/955_arnoglossum_atriplicifolium/small/20292435404_1cc094815d_b.jpg","thumbnail":"https://perenual.com/storage/species_image/955_arnoglossum_atriplicifolium/thumbnail/20292435404_1cc094815d_b.jpg"}},{"id":956,"common_name":"great Indian plantain","scientific_name":["Arnoglossum reniforme"],"other_name":null,"cycle":"Perennial","watering":"Average","sunlight":["Full sun","part shade"],"default_image":{"image_id":21284,"license":5,"license_name":"Attribution-ShareAlike License","license_url":"https://creativecommons.org/licenses/by-sa/2.0/","original_url":"https://perenual.com/storage/species_image/956_arnoglossum_reniforme/og/3248063045_a4ea59d977_b.jpg","regular_url":"https://perenual.com/storage/species_image/956_arnoglossum_reniforme/regular/3248063045_a4ea59d977_b.jpg","medium_url":"https://perenual.com/storage/species_image/956_arnoglossum_reniforme/medium/3248063045_a4ea59d977_b.jpg","small_url":"https://perenual.com/storage/species_image/956_arnoglossum_reniforme/small/3248063045_a4ea59d977_b.jpg","thumbnail":"https://perenual.com/storage/species_image/956_arnoglossum_reniforme/thumbnail/3248063045_a4ea59d977_b.jpg"}},{"id":957,"common_name":"chokeberry","scientific_name":["Aronia arbutifolia"],"other_name":null,"cycle":"Perennial","watering":"Average","sunlight":[],"default_image":{"image_id":2285,"license":4,"license_name":"Attribution License","license_url":"https://creativecommons.org/licenses/by/2.0/","original_url":"https://perenual.com/storage/species_image/957_aronia_arbutifolia/og/24298367308_97698a9858_b.jpg","regular_url":"https://perenual.com/storage/species_image/957_aronia_arbutifolia/regular/24298367308_97698a9858_b.jpg","medium_url":"https://perenual.com/storage/species_image/957_aronia_arbutifolia/medium/24298367308_97698a9858_b.jpg","small_url":"https://perenual.com/storage/species_image/957_aronia_arbutifolia/small/24298367308_97698a9858_b.jpg","thumbnail":"https://perenual.com/storage/species_image/957_aronia_arbutifolia/thumbnail/24298367308_97698a9858_b.jpg"}},{"id":958,"common_name":"chokeberry","scientific_name":["Aronia arbutifolia 'Brilliantissima'"],"other_name":null,"cycle":"Perennial","watering":"Average","sunlight":[],"default_image":{"image_id":2290,"license":4,"license_name":"Attribution License","license_url":"https://creativecommons.org/licenses/by/2.0/","original_url":"https://perenual.com/storage/species_image/958_aronia_arbutifolia_brilliantissima/og/5594457378_7d7d1237d6_b.jpg","regular_url":"https://perenual.com/storage/species_image/958_aronia_arbutifolia_brilliantissima/regular/5594457378_7d7d1237d6_b.jpg","medium_url":"https://perenual.com/storage/species_image/958_aronia_arbutifolia_brilliantissima/medium/5594457378_7d7d1237d6_b.jpg","small_url":"https://perenual.com/storage/species_image/958_aronia_arbutifolia_brilliantissima/small/5594457378_7d7d1237d6_b.jpg","thumbnail":"https://perenual.com/storage/species_image/958_aronia_arbutifolia_brilliantissima/thumbnail/5594457378_7d7d1237d6_b.jpg"}},{"id":959,"common_name":"black chokeberry","scientific_name":["Aronia melanocarpa"],"other_name":["Chokeberry"],"cycle":"Perennial","watering":"Frequent","sunlight":["Sun"," Partial Shade"],"default_image":{"image_id":2293,"license":5,"license_name":"Attribution-ShareAlike License","license_url":"https://creativecommons.org/licenses/by-sa/2.0/","original_url":"https://perenual.com/storage/species_image/959_aronia_melanocarpa/og/52081254678_796dc2a7a1_b.jpg","regular_url":"https://perenual.com/storage/species_image/959_aronia_melanocarpa/regular/52081254678_796dc2a7a1_b.jpg","medium_url":"https://perenual.com/storage/species_image/959_aronia_melanocarpa/medium/52081254678_796dc2a7a1_b.jpg","small_url":"https://perenual.com/storage/species_image/959_aronia_melanocarpa/small/52081254678_796dc2a7a1_b.jpg","thumbnail":"https://perenual.com/storage/species_image/959_aronia_melanocarpa/thumbnail/52081254678_796dc2a7a1_b.jpg"}},{"id":960,"common_name":"black chokeberry","scientific_name":["Aronia melanocarpa 'Autumn Magic'"],"other_name":["Chokeberry"],"cycle":"Perennial","watering":"Frequent","sunlight":["Sun"," Partial Shade"],"default_image":{"image_id":2295,"license":5,"license_name":"Attribution-ShareAlike License","license_url":"https://creativecommons.org/licenses/by-sa/2.0/","original_url":"https://perenual.com/storage/species_image/960_aronia_melanocarpa_autumn_magic/og/52081730540_31bc452351_b.jpg","regular_url":"https://perenual.com/storage/species_image/960_aronia_melanocarpa_autumn_magic/regular/52081730540_31bc452351_b.jpg","medium_url":"https://perenual.com/storage/species_image/960_aronia_melanocarpa_autumn_magic/medium/52081730540_31bc452351_b.jpg","small_url":"https://perenual.com/storage/species_image/960_aronia_melanocarpa_autumn_magic/small/52081730540_31bc452351_b.jpg","thumbnail":"https://perenual.com/storage/species_image/960_aronia_melanocarpa_autumn_magic/thumbnail/52081730540_31bc452351_b.jpg"}}],"to":960,"per_page":30,"current_page":32,"from":931,"last_page":200,"total":6000}