{"data":[{"id":1111,"common_name":"greater masterwort","scientific_name":["Astrantia 'Superstar'"],"other_name":null,"cycle":"Perennial","watering":"Frequent","sunlight":["Part shade"],"default_image":{"image_id":2626,"license":4,"license_name":"Attribution License","license_url":"https://creativecommons.org/licenses/by/2.0/","original_url":"https://perenual.com/storage/species_image/1111_astrantia_superstar/og/52263383879_ca05314c09_b.jpg","regular_url":"https://perenual.com/storage/species_image/1111_astrantia_superstar/regular/52263383879_ca05314c09_b.jpg","medium_url":"https://perenual.com/storage/species_image/1111_astrantia_superstar/medium/52263383879_ca05314c09_b.jpg","small_url":"https://perenual.com/storage/species_image/1111_astrantia_superstar/small/52263383879_ca05314c09_b.jpg","thumbnail":"https://perenual.com/storage/species_image/1111_astrantia_superstar/thumbnail/52263383879_ca05314c09_b.jpg"}},{"id":1112,"common_name":"bishop's hat","scientific_name":["Astrophytum myriostigma"],"other_name":null,"cycle":"Perennial","watering":"Minimum","sunlight":["Full sun"],"default_image":{"image_id":2650,"license":4,"license_name":"Attribution License","license_url":"https://creativecommons.org/licenses/by/2.0/","original_url":"https://perenual.com/storage/species_image/1112_astrophytum_myriostigma/og/23699641203_dea4f5b6ea_b.jpg","regular_url":"https://perenual.com/storage/species_image/1112_astrophytum_myriostigma/regular/23699641203_dea4f5b6ea_b.jpg","medium_url":"https://perenual.com/storage/species_image/1112_astrophytum_myriostigma/medium/23699641203_dea4f5b6ea_b.jpg","small_url":"https://perenual.com/storage/species_image/1112_astrophytum_myriostigma/small/23699641203_dea4f5b6ea_b.jpg","thumbnail":"https://perenual.com/storage/species_image/1112_astrophytum_myriostigma/thumbnail/23699641203_dea4f5b6ea_b.jpg"}},{"id":1113,"common_name":"southern lady fern","scientific_name":["Athyrium asplenioides"],"other_name":null,"cycle":"Perennial","watering":"Average","sunlight":["Part shade","full shade"],"default_image":{"image_id":9,"license":5,"license_name":"Attribution-ShareAlike License","license_url":"https://creativecommons.org/licenses/by-sa/2.0/","original_url":"https://perenual.com/storage/species_image/2_abies_alba_pyramidalis/og/49255769768_df55596553_b.jpg","regular_url":"https://perenual.com/storage/species_image/2_abies_alba_pyramidalis/regular/49255769768_df55596553_b.jpg","medium_url":"https://perenual.com/storage/species_image/2_abies_alba_pyramidalis/medium/49255769768_df55596553_b.jpg","small_url":"https://perenual.com/storage/species_image/2_abies_alba_pyramidalis/small/49255769768_df55596553_b.jpg","thumbnail":"https://perenual.com/storage/species_image/2_abies_alba_pyramidalis/thumbnail/49255769768_df55596553_b.jpg"}},{"id":1114,"common_name":"Japanese painted fern","scientific_name":["Athyrium 'Branford Rambler'"],"other_name":null,"cycle":"Perennial","watering":"Average","sunlight":["Part shade","full shade"],"default_image":{"image_id":9,"license":5,"license_name":"Attribution-ShareAlike License","license_url":"https://creativecommons.org/licenses/by-sa/2.0/","original_url":"https://perenual.com/storage/species_image/2_abies_alba_pyramidalis/og/49255769768_df55596553_b.jpg","regular_url":"https://perenual.com/storage/species_image/2_abies_alba_pyramidalis/regular/49255769768_df55596553_b.jpg","medium_url":"https://perenual.com/storage/species_image/2_abies_alba_pyramidalis/medium/49255769768_df55596553_b.jpg","small_url":"https://perenual.com/storage/species_image/2_abies_alba_pyramidalis/small/49255769768_df55596553_b.jpg","thumbnail":"https://perenual.com/storage/species_image/2_abies_alba_pyramidalis/thumbnail/49255769768_df55596553_b.jpg"}},{"id":1115,"common_name":"lady fern","scientific_name":["Athyrium filix-femina"],"other_name":["Ladyfern"],"cycle":"Perennial","watering":"Average","sunlight":["Partial Shade"," Shade"],"default_image":{"image_id":9,"license":5,"license_name":"Attribution-ShareAlike License","license_url":"https://creativecommons.org/licenses/by-sa/2.0/","original_url":"https://perenual.com/storage/species_image/2_abies_alba_pyramidalis/og/49255769768_df55596553_b.jpg","regular_url":"https://perenual.com/storage/species_image/2_abies_alba_pyramidalis/regular/49255769768_df55596553_b.jpg","medium_url":"https://perenual.com/storage/species_image/2_abies_alba_pyramidalis/medium/49255769768_df55596553_b.jpg","small_url":"https://perenual.com/storage/species_image/2_abies_alba_pyramidalis/small/49255769768_df55596553_b.jpg","thumbnail":"https://perenual.com/storage/species_image/2_abies_alba_pyramidalis/thumbnail/49255769768_df55596553_b.jpg"}},{"id":1116,"common_name":"lady fern","scientific_name":["Athyrium filix-femina 'Cruciato-cristatum'"],"other_name":["Ladyfern"],"cycle":"Perennial","watering":"Average","sunlight":["Partial Shade"," Shade"],"default_image":{"image_id":9,"license":5,"license_name":"Attribution-ShareAlike License","license_url":"https://creativecommons.org/licenses/by-sa/2.0/","original_url":"https://perenual.com/storage/species_image/2_abies_alba_pyramidalis/og/49255769768_df55596553_b.jpg","regular_url":"https://perenual.com/storage/species_image/2_abies_alba_pyramidalis/regular/49255769768_df55596553_b.jpg","medium_url":"https://perenual.com/storage/species_image/2_abies_alba_pyramidalis/medium/49255769768_df55596553_b.jpg","small_url":"https://perenual.com/storage/species_image/2_abies_alba_pyramidalis/small/49255769768_df55596553_b.jpg","thumbnail":"https://perenual.com/storage/species_image/2_abies_alba_pyramidalis/thumbnail/49255769768_df55596553_b.jpg"}},{"id":1117,"common_name":"lady fern","scientific_name":["Athyrium filix-femina 'Dre's Dagger'"],"other_name":["Ladyfern"],"cycle":"Perennial","watering":"Average","sunlight":["Partial Shade"," Shade"],"default_image":{"image_id":2664,"license":5,"license_name":"Attribution-ShareAlike License","license_url":"https://creativecommons.org/licenses/by-sa/2.0/","original_url":"https://perenual.com/storage/species_image/1121_athyrium_filix-femina_minutissimum/og/52345779831_2ee17d3997_b.jpg","regular_url":"https://perenual.com/storage/species_image/1121_athyrium_filix-femina_minutissimum/regular/52345779831_2ee17d3997_b.jpg","medium_url":"https://perenual.com/storage/species_image/1121_athyrium_filix-femina_minutissimum/medium/52345779831_2ee17d3997_b.jpg","small_url":"https://perenual.com/storage/species_image/1121_athyrium_filix-femina_minutissimum/small/52345779831_2ee17d3997_b.jpg","thumbnail":"https://perenual.com/storage/species_image/1121_athyrium_filix-femina_minutissimum/thumbnail/52345779831_2ee17d3997_b.jpg"}},{"id":1118,"common_name":"lady fern","scientific_name":["Athyrium filix-femina 'Encourage'"],"other_name":["Ladyfern"],"cycle":"Perennial","watering":"Average","sunlight":["Partial Shade"," Shade"],"default_image":{"image_id":21987,"license":2,"license_name":null,"license_url":null,"original_url":"https://perenual.com/storage/species_image/1125_athyrium_filix-femina_veroniae_cristatum/og/51997980559_eb4c7fb744_b.jpg","regular_url":"https://perenual.com/storage/species_image/1125_athyrium_filix-femina_veroniae_cristatum/regular/51997980559_eb4c7fb744_b.jpg","medium_url":"https://perenual.com/storage/species_image/1125_athyrium_filix-femina_veroniae_cristatum/medium/51997980559_eb4c7fb744_b.jpg","small_url":"https://perenual.com/storage/species_image/1125_athyrium_filix-femina_veroniae_cristatum/small/51997980559_eb4c7fb744_b.jpg","thumbnail":"https://perenual.com/storage/species_image/1125_athyrium_filix-femina_veroniae_cristatum/thumbnail/51997980559_eb4c7fb744_b.jpg"}},{"id":1119,"common_name":"lady fern","scientific_name":["Athyrium filix-femina 'Fancy Fronds'"],"other_name":["Ladyfern"],"cycle":"Perennial","watering":"Average","sunlight":["Partial Shade"," Shade"],"default_image":{"image_id":21987,"license":2,"license_name":null,"license_url":null,"original_url":"https://perenual.com/storage/species_image/1125_athyrium_filix-femina_veroniae_cristatum/og/51997980559_eb4c7fb744_b.jpg","regular_url":"https://perenual.com/storage/species_image/1125_athyrium_filix-femina_veroniae_cristatum/regular/51997980559_eb4c7fb744_b.jpg","medium_url":"https://perenual.com/storage/species_image/1125_athyrium_filix-femina_veroniae_cristatum/medium/51997980559_eb4c7fb744_b.jpg","small_url":"https://perenual.com/storage/species_image/1125_athyrium_filix-femina_veroniae_cristatum/small/51997980559_eb4c7fb744_b.jpg","thumbnail":"https://perenual.com/storage/species_image/1125_athyrium_filix-femina_veroniae_cristatum/thumbnail/51997980559_eb4c7fb744_b.jpg"}},{"id":1120,"common_name":"tatting fern","scientific_name":["Athyrium filix-femina 'Frizelliae'"],"other_name":["Ladyfern"],"cycle":"Perennial","watering":"Average","sunlight":["Partial Shade"," Shade"],"default_image":{"image_id":9,"license":5,"license_name":"Attribution-ShareAlike License","license_url":"https://creativecommons.org/licenses/by-sa/2.0/","original_url":"https://perenual.com/storage/species_image/2_abies_alba_pyramidalis/og/49255769768_df55596553_b.jpg","regular_url":"https://perenual.com/storage/species_image/2_abies_alba_pyramidalis/regular/49255769768_df55596553_b.jpg","medium_url":"https://perenual.com/storage/species_image/2_abies_alba_pyramidalis/medium/49255769768_df55596553_b.jpg","small_url":"https://perenual.com/storage/species_image/2_abies_alba_pyramidalis/small/49255769768_df55596553_b.jpg","thumbnail":"https://perenual.com/storage/species_image/2_abies_alba_pyramidalis/thumbnail/49255769768_df55596553_b.jpg"}},{"id":1121,"common_name":"lady fern","scientific_name":["Athyrium filix-femina 'Minutissimum'"],"other_name":["Ladyfern"],"cycle":"Perennial","watering":"Average","sunlight":["Partial Shade"," Shade"],"default_image":{"image_id":2664,"license":5,"license_name":"Attribution-ShareAlike License","license_url":"https://creativecommons.org/licenses/by-sa/2.0/","original_url":"https://perenual.com/storage/species_image/1121_athyrium_filix-femina_minutissimum/og/52345779831_2ee17d3997_b.jpg","regular_url":"https://perenual.com/storage/species_image/1121_athyrium_filix-femina_minutissimum/regular/52345779831_2ee17d3997_b.jpg","medium_url":"https://perenual.com/storage/species_image/1121_athyrium_filix-femina_minutissimum/medium/52345779831_2ee17d3997_b.jpg","small_url":"https://perenual.com/storage/species_image/1121_athyrium_filix-femina_minutissimum/small/52345779831_2ee17d3997_b.jpg","thumbnail":"https://perenual.com/storage/species_image/1121_athyrium_filix-femina_minutissimum/thumbnail/52345779831_2ee17d3997_b.jpg"}},{"id":1122,"common_name":"lady fern","scientific_name":["Athyrium filix-femina 'Rotstiel'"],"other_name":["Ladyfern"],"cycle":"Perennial","watering":"Average","sunlight":["Partial Shade"," Shade"],"default_image":{"image_id":21988,"license":2,"license_name":null,"license_url":null,"original_url":"https://perenual.com/storage/species_image/1122_athyrium_filix-femina_rotstiel/og/51643725396_448a54b80f_b.jpg","regular_url":"https://perenual.com/storage/species_image/1122_athyrium_filix-femina_rotstiel/regular/51643725396_448a54b80f_b.jpg","medium_url":"https://perenual.com/storage/species_image/1122_athyrium_filix-femina_rotstiel/medium/51643725396_448a54b80f_b.jpg","small_url":"https://perenual.com/storage/species_image/1122_athyrium_filix-femina_rotstiel/small/51643725396_448a54b80f_b.jpg","thumbnail":"https://perenual.com/storage/species_image/1122_athyrium_filix-femina_rotstiel/thumbnail/51643725396_448a54b80f_b.jpg"}},{"id":1123,"common_name":"northern lady fern","scientific_name":["Athyrium filix-femina var. angustum"],"other_name":["Ladyfern"],"cycle":"Perennial","watering":"Average","sunlight":[],"default_image":{"image_id":2673,"license":4,"license_name":"Attribution License","license_url":"https://creativecommons.org/licenses/by/2.0/","original_url":"https://perenual.com/storage/species_image/1123_athyrium_filix-femina_var_angustum/og/27158096570_9104fea11d_b.jpg","regular_url":"https://perenual.com/storage/species_image/1123_athyrium_filix-femina_var_angustum/regular/27158096570_9104fea11d_b.jpg","medium_url":"https://perenual.com/storage/species_image/1123_athyrium_filix-femina_var_angustum/medium/27158096570_9104fea11d_b.jpg","small_url":"https://perenual.com/storage/species_image/1123_athyrium_filix-femina_var_angustum/small/27158096570_9104fea11d_b.jpg","thumbnail":"https://perenual.com/storage/species_image/1123_athyrium_filix-femina_var_angustum/thumbnail/27158096570_9104fea11d_b.jpg"}},{"id":1124,"common_name":"northern lady fern","scientific_name":["Athyrium filix-femina var. angustum 'Lady in Red'"],"other_name":["Ladyfern"],"cycle":"Perennial","watering":"Average","sunlight":[],"default_image":{"image_id":9,"license":5,"license_name":"Attribution-ShareAlike License","license_url":"https://creativecommons.org/licenses/by-sa/2.0/","original_url":"https://perenual.com/storage/species_image/2_abies_alba_pyramidalis/og/49255769768_df55596553_b.jpg","regular_url":"https://perenual.com/storage/species_image/2_abies_alba_pyramidalis/regular/49255769768_df55596553_b.jpg","medium_url":"https://perenual.com/storage/species_image/2_abies_alba_pyramidalis/medium/49255769768_df55596553_b.jpg","small_url":"https://perenual.com/storage/species_image/2_abies_alba_pyramidalis/small/49255769768_df55596553_b.jpg","thumbnail":"https://perenual.com/storage/species_image/2_abies_alba_pyramidalis/thumbnail/49255769768_df55596553_b.jpg"}},{"id":1125,"common_name":"lady fern","scientific_name":["Athyrium filix-femina 'Veroniae Cristatum'"],"other_name":["Ladyfern"],"cycle":"Perennial","watering":"Average","sunlight":["Partial Shade"," Shade"],"default_image":{"image_id":21987,"license":2,"license_name":null,"license_url":null,"original_url":"https://perenual.com/storage/species_image/1125_athyrium_filix-femina_veroniae_cristatum/og/51997980559_eb4c7fb744_b.jpg","regular_url":"https://perenual.com/storage/species_image/1125_athyrium_filix-femina_veroniae_cristatum/regular/51997980559_eb4c7fb744_b.jpg","medium_url":"https://perenual.com/storage/species_image/1125_athyrium_filix-femina_veroniae_cristatum/medium/51997980559_eb4c7fb744_b.jpg","small_url":"https://perenual.com/storage/species_image/1125_athyrium_filix-femina_veroniae_cristatum/small/51997980559_eb4c7fb744_b.jpg","thumbnail":"https://perenual.com/storage/species_image/1125_athyrium_filix-femina_veroniae_cristatum/thumbnail/51997980559_eb4c7fb744_b.jpg"}},{"id":1126,"common_name":"lady fern","scientific_name":["Athyrium filix-femina 'Victoriae'"],"other_name":["Ladyfern"],"cycle":"Perennial","watering":"Average","sunlight":["Partial Shade"," Shade"],"default_image":{"image_id":9,"license":5,"license_name":"Attribution-ShareAlike License","license_url":"https://creativecommons.org/licenses/by-sa/2.0/","original_url":"https://perenual.com/storage/species_image/2_abies_alba_pyramidalis/og/49255769768_df55596553_b.jpg","regular_url":"https://perenual.com/storage/species_image/2_abies_alba_pyramidalis/regular/49255769768_df55596553_b.jpg","medium_url":"https://perenual.com/storage/species_image/2_abies_alba_pyramidalis/medium/49255769768_df55596553_b.jpg","small_url":"https://perenual.com/storage/species_image/2_abies_alba_pyramidalis/small/49255769768_df55596553_b.jpg","thumbnail":"https://perenual.com/storage/species_image/2_abies_alba_pyramidalis/thumbnail/49255769768_df55596553_b.jpg"}},{"id":1127,"common_name":"lady fern","scientific_name":["Athyrium 'Ghost'"],"other_name":null,"cycle":"Perennial","watering":"Average","sunlight":["Part shade","full shade"],"default_image":{"image_id":9,"license":5,"license_name":"Attribution-ShareAlike License","license_url":"https://creativecommons.org/licenses/by-sa/2.0/","original_url":"https://perenual.com/storage/species_image/2_abies_alba_pyramidalis/og/49255769768_df55596553_b.jpg","regular_url":"https://perenual.com/storage/species_image/2_abies_alba_pyramidalis/regular/49255769768_df55596553_b.jpg","medium_url":"https://perenual.com/storage/species_image/2_abies_alba_pyramidalis/medium/49255769768_df55596553_b.jpg","small_url":"https://perenual.com/storage/species_image/2_abies_alba_pyramidalis/small/49255769768_df55596553_b.jpg","thumbnail":"https://perenual.com/storage/species_image/2_abies_alba_pyramidalis/thumbnail/49255769768_df55596553_b.jpg"}},{"id":1128,"common_name":"Japanese painted fern","scientific_name":["Athyrium niponicum 'Crested Surf'"],"other_name":null,"cycle":"Perennial","watering":"Average","sunlight":["Part shade","full shade"],"default_image":{"image_id":9,"license":5,"license_name":"Attribution-ShareAlike License","license_url":"https://creativecommons.org/licenses/by-sa/2.0/","original_url":"https://perenual.com/storage/species_image/2_abies_alba_pyramidalis/og/49255769768_df55596553_b.jpg","regular_url":"https://perenual.com/storage/species_image/2_abies_alba_pyramidalis/regular/49255769768_df55596553_b.jpg","medium_url":"https://perenual.com/storage/species_image/2_abies_alba_pyramidalis/medium/49255769768_df55596553_b.jpg","small_url":"https://perenual.com/storage/species_image/2_abies_alba_pyramidalis/small/49255769768_df55596553_b.jpg","thumbnail":"https://perenual.com/storage/species_image/2_abies_alba_pyramidalis/thumbnail/49255769768_df55596553_b.jpg"}},{"id":1129,"common_name":"painted lady fern","scientific_name":["Athyrium niponicum var. niponicum"],"other_name":null,"cycle":"Perennial","watering":"Average","sunlight":["Part shade","full shade"],"default_image":{"image_id":2681,"license":5,"license_name":"Attribution-ShareAlike License","license_url":"https://creativecommons.org/licenses/by-sa/2.0/","original_url":"https://perenual.com/storage/species_image/1129_athyrium_niponicum_var_niponicum/og/14366846512_ffbde9e55f_b.jpg","regular_url":"https://perenual.com/storage/species_image/1129_athyrium_niponicum_var_niponicum/regular/14366846512_ffbde9e55f_b.jpg","medium_url":"https://perenual.com/storage/species_image/1129_athyrium_niponicum_var_niponicum/medium/14366846512_ffbde9e55f_b.jpg","small_url":"https://perenual.com/storage/species_image/1129_athyrium_niponicum_var_niponicum/small/14366846512_ffbde9e55f_b.jpg","thumbnail":"https://perenual.com/storage/species_image/1129_athyrium_niponicum_var_niponicum/thumbnail/14366846512_ffbde9e55f_b.jpg"}},{"id":1130,"common_name":"Japanese painted fern","scientific_name":["Athyrium niponicum var. pictum"],"other_name":null,"cycle":"Perennial","watering":"Average","sunlight":["Deep shade"," Filtered shade"," Part sun/part shade"],"default_image":{"image_id":9,"license":5,"license_name":"Attribution-ShareAlike License","license_url":"https://creativecommons.org/licenses/by-sa/2.0/","original_url":"https://perenual.com/storage/species_image/2_abies_alba_pyramidalis/og/49255769768_df55596553_b.jpg","regular_url":"https://perenual.com/storage/species_image/2_abies_alba_pyramidalis/regular/49255769768_df55596553_b.jpg","medium_url":"https://perenual.com/storage/species_image/2_abies_alba_pyramidalis/medium/49255769768_df55596553_b.jpg","small_url":"https://perenual.com/storage/species_image/2_abies_alba_pyramidalis/small/49255769768_df55596553_b.jpg","thumbnail":"https://perenual.com/storage/species_image/2_abies_alba_pyramidalis/thumbnail/49255769768_df55596553_b.jpg"}},{"id":1131,"common_name":"Japanese painted fern","scientific_name":["Athyrium niponicum var. pictum 'Apple Court'"],"other_name":null,"cycle":"Perennial","watering":"Average","sunlight":["Deep shade"," Filtered shade"," Part sun/part shade"],"default_image":{"image_id":9,"license":5,"license_name":"Attribution-ShareAlike License","license_url":"https://creativecommons.org/licenses/by-sa/2.0/","original_url":"https://perenual.com/storage/species_image/2_abies_alba_pyramidalis/og/49255769768_df55596553_b.jpg","regular_url":"https://perenual.com/storage/species_image/2_abies_alba_pyramidalis/regular/49255769768_df55596553_b.jpg","medium_url":"https://perenual.com/storage/species_image/2_abies_alba_pyramidalis/medium/49255769768_df55596553_b.jpg","small_url":"https://perenual.com/storage/species_image/2_abies_alba_pyramidalis/small/49255769768_df55596553_b.jpg","thumbnail":"https://perenual.com/storage/species_image/2_abies_alba_pyramidalis/thumbnail/49255769768_df55596553_b.jpg"}},{"id":1132,"common_name":"Japanese painted fern","scientific_name":["Athyrium niponicum var. pictum 'Burgundy Lace'"],"other_name":null,"cycle":"Perennial","watering":"Average","sunlight":["Deep shade"," Filtered shade"," Part sun/part shade"],"default_image":{"image_id":9,"license":5,"license_name":"Attribution-ShareAlike License","license_url":"https://creativecommons.org/licenses/by-sa/2.0/","original_url":"https://perenual.com/storage/species_image/2_abies_alba_pyramidalis/og/49255769768_df55596553_b.jpg","regular_url":"https://perenual.com/storage/species_image/2_abies_alba_pyramidalis/regular/49255769768_df55596553_b.jpg","medium_url":"https://perenual.com/storage/species_image/2_abies_alba_pyramidalis/medium/49255769768_df55596553_b.jpg","small_url":"https://perenual.com/storage/species_image/2_abies_alba_pyramidalis/small/49255769768_df55596553_b.jpg","thumbnail":"https://perenual.com/storage/species_image/2_abies_alba_pyramidalis/thumbnail/49255769768_df55596553_b.jpg"}},{"id":1133,"common_name":"Japanese painted fern","scientific_name":["Athyrium niponicum var. pictum 'Metallicum'"],"other_name":null,"cycle":"Perennial","watering":"Average","sunlight":["Deep shade"," Filtered shade"," Part sun/part shade"],"default_image":{"image_id":21990,"license":3,"license_name":null,"license_url":null,"original_url":"https://perenual.com/storage/species_image/1141_athyrium_silver_slippers/og/45815421711_dfdea8f2a2_b.jpg","regular_url":"https://perenual.com/storage/species_image/1141_athyrium_silver_slippers/regular/45815421711_dfdea8f2a2_b.jpg","medium_url":"https://perenual.com/storage/species_image/1141_athyrium_silver_slippers/medium/45815421711_dfdea8f2a2_b.jpg","small_url":"https://perenual.com/storage/species_image/1141_athyrium_silver_slippers/small/45815421711_dfdea8f2a2_b.jpg","thumbnail":"https://perenual.com/storage/species_image/1141_athyrium_silver_slippers/thumbnail/45815421711_dfdea8f2a2_b.jpg"}},{"id":1134,"common_name":"Japanese painted fern","scientific_name":["Athyrium niponicum var. pictum 'Pewter Lace'"],"other_name":null,"cycle":"Perennial","watering":"Average","sunlight":["Deep shade"," Filtered shade"," Part sun/part shade"],"default_image":{"image_id":21991,"license":3,"license_name":null,"license_url":null,"original_url":"https://perenual.com/storage/species_image/1141_athyrium_silver_slippers/og/45106562114_c721a39ebf_b.jpg","regular_url":"https://perenual.com/storage/species_image/1141_athyrium_silver_slippers/regular/45106562114_c721a39ebf_b.jpg","medium_url":"https://perenual.com/storage/species_image/1141_athyrium_silver_slippers/medium/45106562114_c721a39ebf_b.jpg","small_url":"https://perenual.com/storage/species_image/1141_athyrium_silver_slippers/small/45106562114_c721a39ebf_b.jpg","thumbnail":"https://perenual.com/storage/species_image/1141_athyrium_silver_slippers/thumbnail/45106562114_c721a39ebf_b.jpg"}},{"id":1135,"common_name":"Japanese painted fern","scientific_name":["Athyrium niponicum var. pictum 'Red Beauty'"],"other_name":null,"cycle":"Perennial","watering":"Average","sunlight":["Deep shade"," Filtered shade"," Part sun/part shade"],"default_image":{"image_id":9,"license":5,"license_name":"Attribution-ShareAlike License","license_url":"https://creativecommons.org/licenses/by-sa/2.0/","original_url":"https://perenual.com/storage/species_image/2_abies_alba_pyramidalis/og/49255769768_df55596553_b.jpg","regular_url":"https://perenual.com/storage/species_image/2_abies_alba_pyramidalis/regular/49255769768_df55596553_b.jpg","medium_url":"https://perenual.com/storage/species_image/2_abies_alba_pyramidalis/medium/49255769768_df55596553_b.jpg","small_url":"https://perenual.com/storage/species_image/2_abies_alba_pyramidalis/small/49255769768_df55596553_b.jpg","thumbnail":"https://perenual.com/storage/species_image/2_abies_alba_pyramidalis/thumbnail/49255769768_df55596553_b.jpg"}},{"id":1136,"common_name":"Japanese painted fern","scientific_name":["Athyrium niponicum var. pictum 'Silver Falls'"],"other_name":null,"cycle":"Perennial","watering":"Average","sunlight":["Deep shade"," Filtered shade"," Part sun/part shade"],"default_image":{"image_id":9,"license":5,"license_name":"Attribution-ShareAlike License","license_url":"https://creativecommons.org/licenses/by-sa/2.0/","original_url":"https://perenual.com/storage/species_image/2_abies_alba_pyramidalis/og/49255769768_df55596553_b.jpg","regular_url":"https://perenual.com/storage/species_image/2_abies_alba_pyramidalis/regular/49255769768_df55596553_b.jpg","medium_url":"https://perenual.com/storage/species_image/2_abies_alba_pyramidalis/medium/49255769768_df55596553_b.jpg","small_url":"https://perenual.com/storage/species_image/2_abies_alba_pyramidalis/small/49255769768_df55596553_b.jpg","thumbnail":"https://perenual.com/storage/species_image/2_abies_alba_pyramidalis/thumbnail/49255769768_df55596553_b.jpg"}},{"id":1137,"common_name":"Japanese painted fern","scientific_name":["Athyrium niponicum var. pictum 'Ursula's Red'"],"other_name":null,"cycle":"Perennial","watering":"Average","sunlight":["Deep shade"," Filtered shade"," Part sun/part shade"],"default_image":{"image_id":21990,"license":3,"license_name":null,"license_url":null,"original_url":"https://perenual.com/storage/species_image/1141_athyrium_silver_slippers/og/45815421711_dfdea8f2a2_b.jpg","regular_url":"https://perenual.com/storage/species_image/1141_athyrium_silver_slippers/regular/45815421711_dfdea8f2a2_b.jpg","medium_url":"https://perenual.com/storage/species_image/1141_athyrium_silver_slippers/medium/45815421711_dfdea8f2a2_b.jpg","small_url":"https://perenual.com/storage/species_image/1141_athyrium_silver_slippers/small/45815421711_dfdea8f2a2_b.jpg","thumbnail":"https://perenual.com/storage/species_image/1141_athyrium_silver_slippers/thumbnail/45815421711_dfdea8f2a2_b.jpg"}},{"id":1138,"common_name":"Japanese painted fern","scientific_name":["Athyrium niponicum var. pictum 'Wildwood Twist'"],"other_name":null,"cycle":"Perennial","watering":"Average","sunlight":["Deep shade"," Filtered shade"," Part sun/part shade"],"default_image":{"image_id":21990,"license":3,"license_name":null,"license_url":null,"original_url":"https://perenual.com/storage/species_image/1141_athyrium_silver_slippers/og/45815421711_dfdea8f2a2_b.jpg","regular_url":"https://perenual.com/storage/species_image/1141_athyrium_silver_slippers/regular/45815421711_dfdea8f2a2_b.jpg","medium_url":"https://perenual.com/storage/species_image/1141_athyrium_silver_slippers/medium/45815421711_dfdea8f2a2_b.jpg","small_url":"https://perenual.com/storage/species_image/1141_athyrium_silver_slippers/small/45815421711_dfdea8f2a2_b.jpg","thumbnail":"https://perenual.com/storage/species_image/1141_athyrium_silver_slippers/thumbnail/45815421711_dfdea8f2a2_b.jpg"}},{"id":1139,"common_name":"hybrid painted fern","scientific_name":["Athyrium 'Ocean's Fury'"],"other_name":null,"cycle":"Perennial","watering":"Average","sunlight":["Part shade","full shade"],"default_image":{"image_id":2696,"license":4,"license_name":"Attribution License","license_url":"https://creativecommons.org/licenses/by/2.0/","original_url":"https://perenual.com/storage/species_image/1139_athyrium_oceans_fury/og/20329327985_06f7a01734_b.jpg","regular_url":"https://perenual.com/storage/species_image/1139_athyrium_oceans_fury/regular/20329327985_06f7a01734_b.jpg","medium_url":"https://perenual.com/storage/species_image/1139_athyrium_oceans_fury/medium/20329327985_06f7a01734_b.jpg","small_url":"https://perenual.com/storage/species_image/1139_athyrium_oceans_fury/small/20329327985_06f7a01734_b.jpg","thumbnail":"https://perenual.com/storage/species_image/1139_athyrium_oceans_fury/thumbnail/20329327985_06f7a01734_b.jpg"}},{"id":1140,"common_name":"eared lady fern","scientific_name":["Athyrium otophorum"],"other_name":null,"cycle":"Perennial","watering":"Average","sunlight":["Part shade","full shade"],"default_image":{"image_id":9,"license":5,"license_name":"Attribution-ShareAlike License","license_url":"https://creativecommons.org/licenses/by-sa/2.0/","original_url":"https://perenual.com/storage/species_image/2_abies_alba_pyramidalis/og/49255769768_df55596553_b.jpg","regular_url":"https://perenual.com/storage/species_image/2_abies_alba_pyramidalis/regular/49255769768_df55596553_b.jpg","medium_url":"https://perenual.com/storage/species_image/2_abies_alba_pyramidalis/medium/49255769768_df55596553_b.jpg","small_url":"https://perenual.com/storage/species_image/2_abies_alba_pyramidalis/small/49255769768_df55596553_b.jpg","thumbnail":"https://perenual.com/storage/species_image/2_abies_alba_pyramidalis/thumbnail/49255769768_df55596553_b.jpg"}}],"to":1140,"per_page":30,"current_page":38,"from":1111,"last_page":200,"total":6000}