{"data":[{"id":901,"common_name":"columbine","scientific_name":["Aquilegia vulgaris var. stellata 'Ruby Port'"],"other_name":null,"cycle":"Perennial","watering":"Average","sunlight":["Sun"],"default_image":{"image_id":21271,"license":45,"license_name":"Attribution-ShareAlike 3.0 Unported (CC BY-SA 3.0)","license_url":"https://creativecommons.org/licenses/by-sa/3.0/deed.en","original_url":"https://perenual.com/storage/species_image/901_aquilegia_vulgaris_var_stellata_ruby_port/og/Aquilegia_vulgaris_Woodside_Gold_1zz.jpg","regular_url":"https://perenual.com/storage/species_image/901_aquilegia_vulgaris_var_stellata_ruby_port/regular/Aquilegia_vulgaris_Woodside_Gold_1zz.jpg","medium_url":"https://perenual.com/storage/species_image/901_aquilegia_vulgaris_var_stellata_ruby_port/medium/Aquilegia_vulgaris_Woodside_Gold_1zz.jpg","small_url":"https://perenual.com/storage/species_image/901_aquilegia_vulgaris_var_stellata_ruby_port/small/Aquilegia_vulgaris_Woodside_Gold_1zz.jpg","thumbnail":"https://perenual.com/storage/species_image/901_aquilegia_vulgaris_var_stellata_ruby_port/thumbnail/Aquilegia_vulgaris_Woodside_Gold_1zz.jpg"}},{"id":902,"common_name":"columbine","scientific_name":["Aquilegia vulgaris (Vervaeneana Group)"],"other_name":null,"cycle":"Perennial","watering":"Average","sunlight":["Sun"],"default_image":{"image_id":21272,"license":45,"license_name":"Attribution-ShareAlike 3.0 Unported (CC BY-SA 3.0)","license_url":"https://creativecommons.org/licenses/by-sa/3.0/deed.en","original_url":"https://perenual.com/storage/species_image/902_aquilegia_vulgaris_vervaeneana_group/og/Aquilegia_vulgaris_Leprechaun_Gold_2zz.jpg","regular_url":"https://perenual.com/storage/species_image/902_aquilegia_vulgaris_vervaeneana_group/regular/Aquilegia_vulgaris_Leprechaun_Gold_2zz.jpg","medium_url":"https://perenual.com/storage/species_image/902_aquilegia_vulgaris_vervaeneana_group/medium/Aquilegia_vulgaris_Leprechaun_Gold_2zz.jpg","small_url":"https://perenual.com/storage/species_image/902_aquilegia_vulgaris_vervaeneana_group/small/Aquilegia_vulgaris_Leprechaun_Gold_2zz.jpg","thumbnail":"https://perenual.com/storage/species_image/902_aquilegia_vulgaris_vervaeneana_group/thumbnail/Aquilegia_vulgaris_Leprechaun_Gold_2zz.jpg"}},{"id":903,"common_name":"columbine","scientific_name":["Aquilegia vulgaris 'William Guiness'"],"other_name":null,"cycle":"Perennial","watering":"Average","sunlight":["Sun"],"default_image":{"image_id":21273,"license":4,"license_name":"Attribution License","license_url":"https://creativecommons.org/licenses/by/2.0/","original_url":"https://perenual.com/storage/species_image/903_aquilegia_vulgaris_william_guiness/og/9067606317_d947017f11_b.jpg","regular_url":"https://perenual.com/storage/species_image/903_aquilegia_vulgaris_william_guiness/regular/9067606317_d947017f11_b.jpg","medium_url":"https://perenual.com/storage/species_image/903_aquilegia_vulgaris_william_guiness/medium/9067606317_d947017f11_b.jpg","small_url":"https://perenual.com/storage/species_image/903_aquilegia_vulgaris_william_guiness/small/9067606317_d947017f11_b.jpg","thumbnail":"https://perenual.com/storage/species_image/903_aquilegia_vulgaris_william_guiness/thumbnail/9067606317_d947017f11_b.jpg"}},{"id":904,"common_name":"columbine","scientific_name":["Aquilegia vulgaris 'Woodside Golden'"],"other_name":null,"cycle":"Perennial","watering":"Average","sunlight":["Sun"],"default_image":{"image_id":2119,"license":4,"license_name":"Attribution License","license_url":"https://creativecommons.org/licenses/by/2.0/","original_url":"https://perenual.com/storage/species_image/904_aquilegia_vulgaris_woodside_golden/og/51886394905_341d50294f_b.jpg","regular_url":"https://perenual.com/storage/species_image/904_aquilegia_vulgaris_woodside_golden/regular/51886394905_341d50294f_b.jpg","medium_url":"https://perenual.com/storage/species_image/904_aquilegia_vulgaris_woodside_golden/medium/51886394905_341d50294f_b.jpg","small_url":"https://perenual.com/storage/species_image/904_aquilegia_vulgaris_woodside_golden/small/51886394905_341d50294f_b.jpg","thumbnail":"https://perenual.com/storage/species_image/904_aquilegia_vulgaris_woodside_golden/thumbnail/51886394905_341d50294f_b.jpg"}},{"id":905,"common_name":"columbine","scientific_name":["Aquilegia 'Winky Blue and White'"],"other_name":null,"cycle":"Perennial","watering":"Average","sunlight":["Full sun","part shade"],"default_image":{"image_id":9,"license":5,"license_name":"Attribution-ShareAlike License","license_url":"https://creativecommons.org/licenses/by-sa/2.0/","original_url":"https://perenual.com/storage/species_image/2_abies_alba_pyramidalis/og/49255769768_df55596553_b.jpg","regular_url":"https://perenual.com/storage/species_image/2_abies_alba_pyramidalis/regular/49255769768_df55596553_b.jpg","medium_url":"https://perenual.com/storage/species_image/2_abies_alba_pyramidalis/medium/49255769768_df55596553_b.jpg","small_url":"https://perenual.com/storage/species_image/2_abies_alba_pyramidalis/small/49255769768_df55596553_b.jpg","thumbnail":"https://perenual.com/storage/species_image/2_abies_alba_pyramidalis/thumbnail/49255769768_df55596553_b.jpg"}},{"id":906,"common_name":"mountain rockcress","scientific_name":["Arabis alpina"],"other_name":null,"cycle":"Perennial","watering":"Minimum","sunlight":["Sun"],"default_image":{"image_id":2128,"license":6,"license_name":"Attribution-NoDerivs License","license_url":"https://creativecommons.org/licenses/by-nd/2.0/","original_url":"https://perenual.com/storage/species_image/908_arabis_caucasica/og/51978738030_d6cb037a44_b.jpg"}},{"id":907,"common_name":"mountain rockcress","scientific_name":["Arabis alpina subsp. caucasica 'Schneehaube' SNOWCAP"],"other_name":null,"cycle":"Perennial","watering":"Minimum","sunlight":["Sun"],"default_image":{"image_id":21275,"license":45,"license_name":"Attribution-ShareAlike 3.0 Unported (CC BY-SA 3.0)","license_url":"https://creativecommons.org/licenses/by-sa/3.0/deed.en","original_url":"https://perenual.com/storage/species_image/907_arabis_alpina_subsp_caucasica_schneehaube_snowcap/og/Arabis_alpina_a3.jpg","regular_url":"https://perenual.com/storage/species_image/907_arabis_alpina_subsp_caucasica_schneehaube_snowcap/regular/Arabis_alpina_a3.jpg","medium_url":"https://perenual.com/storage/species_image/907_arabis_alpina_subsp_caucasica_schneehaube_snowcap/medium/Arabis_alpina_a3.jpg","small_url":"https://perenual.com/storage/species_image/907_arabis_alpina_subsp_caucasica_schneehaube_snowcap/small/Arabis_alpina_a3.jpg","thumbnail":"https://perenual.com/storage/species_image/907_arabis_alpina_subsp_caucasica_schneehaube_snowcap/thumbnail/Arabis_alpina_a3.jpg"}},{"id":908,"common_name":"garden rockcress","scientific_name":["Arabis caucasica"],"other_name":null,"cycle":"Perennial","watering":"Minimum","sunlight":[],"default_image":{"image_id":2128,"license":6,"license_name":"Attribution-NoDerivs License","license_url":"https://creativecommons.org/licenses/by-nd/2.0/","original_url":"https://perenual.com/storage/species_image/908_arabis_caucasica/og/51978738030_d6cb037a44_b.jpg"}},{"id":909,"common_name":"peanut","scientific_name":["Arachis hypogaea"],"other_name":null,"cycle":"Perennial","watering":"Average","sunlight":["Full sun"],"default_image":{"image_id":2139,"license":4,"license_name":"Attribution License","license_url":"https://creativecommons.org/licenses/by/2.0/","original_url":"https://perenual.com/storage/species_image/909_arachis_hypogaea/og/51118802774_79812c9f6c_b.jpg","regular_url":"https://perenual.com/storage/species_image/909_arachis_hypogaea/regular/51118802774_79812c9f6c_b.jpg","medium_url":"https://perenual.com/storage/species_image/909_arachis_hypogaea/medium/51118802774_79812c9f6c_b.jpg","small_url":"https://perenual.com/storage/species_image/909_arachis_hypogaea/small/51118802774_79812c9f6c_b.jpg","thumbnail":"https://perenual.com/storage/species_image/909_arachis_hypogaea/thumbnail/51118802774_79812c9f6c_b.jpg"}},{"id":910,"common_name":"arachnoides","scientific_name":["Arachniodes simplicior 'Variegata'"],"other_name":null,"cycle":"Perennial","watering":"Frequent","sunlight":["Part shade","full shade"],"default_image":{"image_id":9,"license":5,"license_name":"Attribution-ShareAlike License","license_url":"https://creativecommons.org/licenses/by-sa/2.0/","original_url":"https://perenual.com/storage/species_image/2_abies_alba_pyramidalis/og/49255769768_df55596553_b.jpg","regular_url":"https://perenual.com/storage/species_image/2_abies_alba_pyramidalis/regular/49255769768_df55596553_b.jpg","medium_url":"https://perenual.com/storage/species_image/2_abies_alba_pyramidalis/medium/49255769768_df55596553_b.jpg","small_url":"https://perenual.com/storage/species_image/2_abies_alba_pyramidalis/small/49255769768_df55596553_b.jpg","thumbnail":"https://perenual.com/storage/species_image/2_abies_alba_pyramidalis/thumbnail/49255769768_df55596553_b.jpg"}},{"id":911,"common_name":"Chinese angelica tree","scientific_name":["Aralia chinensis"],"other_name":null,"cycle":"Perennial","watering":"Average","sunlight":["Full sun","part shade"],"default_image":{"image_id":9,"license":5,"license_name":"Attribution-ShareAlike License","license_url":"https://creativecommons.org/licenses/by-sa/2.0/","original_url":"https://perenual.com/storage/species_image/2_abies_alba_pyramidalis/og/49255769768_df55596553_b.jpg","regular_url":"https://perenual.com/storage/species_image/2_abies_alba_pyramidalis/regular/49255769768_df55596553_b.jpg","medium_url":"https://perenual.com/storage/species_image/2_abies_alba_pyramidalis/medium/49255769768_df55596553_b.jpg","small_url":"https://perenual.com/storage/species_image/2_abies_alba_pyramidalis/small/49255769768_df55596553_b.jpg","thumbnail":"https://perenual.com/storage/species_image/2_abies_alba_pyramidalis/thumbnail/49255769768_df55596553_b.jpg"}},{"id":912,"common_name":"Japanese spikenard","scientific_name":["Aralia cordata"],"other_name":null,"cycle":"Perennial","watering":"Average","sunlight":["Part shade"],"default_image":{"image_id":2147,"license":5,"license_name":"Attribution-ShareAlike License","license_url":"https://creativecommons.org/licenses/by-sa/2.0/","original_url":"https://perenual.com/storage/species_image/912_aralia_cordata/og/52302626006_4fbf74f5a0_b.jpg","regular_url":"https://perenual.com/storage/species_image/912_aralia_cordata/regular/52302626006_4fbf74f5a0_b.jpg","medium_url":"https://perenual.com/storage/species_image/912_aralia_cordata/medium/52302626006_4fbf74f5a0_b.jpg","small_url":"https://perenual.com/storage/species_image/912_aralia_cordata/small/52302626006_4fbf74f5a0_b.jpg","thumbnail":"https://perenual.com/storage/species_image/912_aralia_cordata/thumbnail/52302626006_4fbf74f5a0_b.jpg"}},{"id":913,"common_name":"Japanese spikenard","scientific_name":["Aralia cordata 'Sun King'"],"other_name":null,"cycle":"Perennial","watering":"Average","sunlight":["Part shade"],"default_image":{"image_id":9,"license":5,"license_name":"Attribution-ShareAlike License","license_url":"https://creativecommons.org/licenses/by-sa/2.0/","original_url":"https://perenual.com/storage/species_image/2_abies_alba_pyramidalis/og/49255769768_df55596553_b.jpg","regular_url":"https://perenual.com/storage/species_image/2_abies_alba_pyramidalis/regular/49255769768_df55596553_b.jpg","medium_url":"https://perenual.com/storage/species_image/2_abies_alba_pyramidalis/medium/49255769768_df55596553_b.jpg","small_url":"https://perenual.com/storage/species_image/2_abies_alba_pyramidalis/small/49255769768_df55596553_b.jpg","thumbnail":"https://perenual.com/storage/species_image/2_abies_alba_pyramidalis/thumbnail/49255769768_df55596553_b.jpg"}},{"id":914,"common_name":"American spikenard","scientific_name":["Aralia racemosa"],"other_name":["Life Of Man"],"cycle":"Perennial","watering":"Average","sunlight":["Partial sun Shade"],"default_image":{"image_id":9,"license":5,"license_name":"Attribution-ShareAlike License","license_url":"https://creativecommons.org/licenses/by-sa/2.0/","original_url":"https://perenual.com/storage/species_image/2_abies_alba_pyramidalis/og/49255769768_df55596553_b.jpg","regular_url":"https://perenual.com/storage/species_image/2_abies_alba_pyramidalis/regular/49255769768_df55596553_b.jpg","medium_url":"https://perenual.com/storage/species_image/2_abies_alba_pyramidalis/medium/49255769768_df55596553_b.jpg","small_url":"https://perenual.com/storage/species_image/2_abies_alba_pyramidalis/small/49255769768_df55596553_b.jpg","thumbnail":"https://perenual.com/storage/species_image/2_abies_alba_pyramidalis/thumbnail/49255769768_df55596553_b.jpg"}},{"id":915,"common_name":"Devil's walking stick","scientific_name":["Aralia spinosa"],"other_name":null,"cycle":"Perennial","watering":"Average","sunlight":["Full sun","part shade"],"default_image":{"image_id":2164,"license":5,"license_name":"Attribution-ShareAlike License","license_url":"https://creativecommons.org/licenses/by-sa/2.0/","original_url":"https://perenual.com/storage/species_image/915_aralia_spinosa/og/33510919603_2564d403a0_b.jpg","regular_url":"https://perenual.com/storage/species_image/915_aralia_spinosa/regular/33510919603_2564d403a0_b.jpg","medium_url":"https://perenual.com/storage/species_image/915_aralia_spinosa/medium/33510919603_2564d403a0_b.jpg","small_url":"https://perenual.com/storage/species_image/915_aralia_spinosa/small/33510919603_2564d403a0_b.jpg","thumbnail":"https://perenual.com/storage/species_image/915_aralia_spinosa/thumbnail/33510919603_2564d403a0_b.jpg"}},{"id":916,"common_name":"New Caledonian pine","scientific_name":["Araucaria columnaris"],"other_name":null,"cycle":"Perennial","watering":"Average","sunlight":["Full sun"],"default_image":{"image_id":9,"license":5,"license_name":"Attribution-ShareAlike License","license_url":"https://creativecommons.org/licenses/by-sa/2.0/","original_url":"https://perenual.com/storage/species_image/2_abies_alba_pyramidalis/og/49255769768_df55596553_b.jpg","regular_url":"https://perenual.com/storage/species_image/2_abies_alba_pyramidalis/regular/49255769768_df55596553_b.jpg","medium_url":"https://perenual.com/storage/species_image/2_abies_alba_pyramidalis/medium/49255769768_df55596553_b.jpg","small_url":"https://perenual.com/storage/species_image/2_abies_alba_pyramidalis/small/49255769768_df55596553_b.jpg","thumbnail":"https://perenual.com/storage/species_image/2_abies_alba_pyramidalis/thumbnail/49255769768_df55596553_b.jpg"}},{"id":917,"common_name":"Norfolk Island pine","scientific_name":["Araucaria heterophylla"],"other_name":null,"cycle":"Perennial","watering":"Average","sunlight":["Part shade"],"default_image":{"image_id":2176,"license":4,"license_name":"Attribution License","license_url":"https://creativecommons.org/licenses/by/2.0/","original_url":"https://perenual.com/storage/species_image/917_araucaria_heterophylla/og/49833684212_2aff9d7b3c_b.jpg","regular_url":"https://perenual.com/storage/species_image/917_araucaria_heterophylla/regular/49833684212_2aff9d7b3c_b.jpg","medium_url":"https://perenual.com/storage/species_image/917_araucaria_heterophylla/medium/49833684212_2aff9d7b3c_b.jpg","small_url":"https://perenual.com/storage/species_image/917_araucaria_heterophylla/small/49833684212_2aff9d7b3c_b.jpg","thumbnail":"https://perenual.com/storage/species_image/917_araucaria_heterophylla/thumbnail/49833684212_2aff9d7b3c_b.jpg"}},{"id":918,"common_name":"hybrid strawberry tree","scientific_name":["Arbutus andrachnoides"],"other_name":null,"cycle":"Perennial","watering":"Average","sunlight":["Full sun"],"default_image":{"image_id":263,"license":4,"license_name":"Attribution License","license_url":"https://creativecommons.org/licenses/by/2.0/","original_url":"https://perenual.com/storage/species_image/918_arbutus_andrachnoides/og/50783640608_7dfdc41b15_b.jpg","regular_url":"https://perenual.com/storage/species_image/918_arbutus_andrachnoides/regular/50783640608_7dfdc41b15_b.jpg","medium_url":"https://perenual.com/storage/species_image/918_arbutus_andrachnoides/medium/50783640608_7dfdc41b15_b.jpg","small_url":"https://perenual.com/storage/species_image/918_arbutus_andrachnoides/small/50783640608_7dfdc41b15_b.jpg","thumbnail":"https://perenual.com/storage/species_image/918_arbutus_andrachnoides/thumbnail/50783640608_7dfdc41b15_b.jpg"}},{"id":919,"common_name":"strawberry tree","scientific_name":["Arbutus unedo 'Oktoberfest'"],"other_name":["Apple of Cain; Cane Apple"],"cycle":"Perennial","watering":"Minimum","sunlight":["Full sun"," Part sun/part shade"," Sheltered"],"default_image":{"image_id":2189,"license":5,"license_name":"Attribution-ShareAlike License","license_url":"https://creativecommons.org/licenses/by-sa/2.0/","original_url":"https://perenual.com/storage/species_image/919_arbutus_unedo_oktoberfest/og/52160426443_867db2703f_b.jpg","regular_url":"https://perenual.com/storage/species_image/919_arbutus_unedo_oktoberfest/regular/52160426443_867db2703f_b.jpg","medium_url":"https://perenual.com/storage/species_image/919_arbutus_unedo_oktoberfest/medium/52160426443_867db2703f_b.jpg","small_url":"https://perenual.com/storage/species_image/919_arbutus_unedo_oktoberfest/small/52160426443_867db2703f_b.jpg","thumbnail":"https://perenual.com/storage/species_image/919_arbutus_unedo_oktoberfest/thumbnail/52160426443_867db2703f_b.jpg"}},{"id":920,"common_name":"common bearberry","scientific_name":["Arctostaphylos uva-ursi"],"other_name":["kinnikinnick"],"cycle":"Perennial","watering":"Minimum","sunlight":["Full sun Partial sun"],"default_image":{"image_id":2191,"license":5,"license_name":"Attribution-ShareAlike License","license_url":"https://creativecommons.org/licenses/by-sa/2.0/","original_url":"https://perenual.com/storage/species_image/920_arctostaphylos_uva-ursi/og/48737727506_a4d2d95f99_b.jpg","regular_url":"https://perenual.com/storage/species_image/920_arctostaphylos_uva-ursi/regular/48737727506_a4d2d95f99_b.jpg","medium_url":"https://perenual.com/storage/species_image/920_arctostaphylos_uva-ursi/medium/48737727506_a4d2d95f99_b.jpg","small_url":"https://perenual.com/storage/species_image/920_arctostaphylos_uva-ursi/small/48737727506_a4d2d95f99_b.jpg","thumbnail":"https://perenual.com/storage/species_image/920_arctostaphylos_uva-ursi/thumbnail/48737727506_a4d2d95f99_b.jpg"}},{"id":921,"common_name":"common bearberry","scientific_name":["Arctostaphylos uva-ursi 'Big Bear'"],"other_name":["kinnikinnick"],"cycle":"Perennial","watering":"Minimum","sunlight":["Full sun Partial sun"],"default_image":{"image_id":2195,"license":4,"license_name":"Attribution License","license_url":"https://creativecommons.org/licenses/by/2.0/","original_url":"https://perenual.com/storage/species_image/921_arctostaphylos_uva-ursi_big_bear/og/17998226283_5c86cf5c5e_b.jpg","regular_url":"https://perenual.com/storage/species_image/921_arctostaphylos_uva-ursi_big_bear/regular/17998226283_5c86cf5c5e_b.jpg","medium_url":"https://perenual.com/storage/species_image/921_arctostaphylos_uva-ursi_big_bear/medium/17998226283_5c86cf5c5e_b.jpg","small_url":"https://perenual.com/storage/species_image/921_arctostaphylos_uva-ursi_big_bear/small/17998226283_5c86cf5c5e_b.jpg","thumbnail":"https://perenual.com/storage/species_image/921_arctostaphylos_uva-ursi_big_bear/thumbnail/17998226283_5c86cf5c5e_b.jpg"}},{"id":922,"common_name":"common bearberry","scientific_name":["Arctostaphylos uva-ursi 'Massachusetts'"],"other_name":["kinnikinnick"],"cycle":"Perennial","watering":"Minimum","sunlight":["Full sun Partial sun"],"default_image":{"image_id":9,"license":5,"license_name":"Attribution-ShareAlike License","license_url":"https://creativecommons.org/licenses/by-sa/2.0/","original_url":"https://perenual.com/storage/species_image/2_abies_alba_pyramidalis/og/49255769768_df55596553_b.jpg","regular_url":"https://perenual.com/storage/species_image/2_abies_alba_pyramidalis/regular/49255769768_df55596553_b.jpg","medium_url":"https://perenual.com/storage/species_image/2_abies_alba_pyramidalis/medium/49255769768_df55596553_b.jpg","small_url":"https://perenual.com/storage/species_image/2_abies_alba_pyramidalis/small/49255769768_df55596553_b.jpg","thumbnail":"https://perenual.com/storage/species_image/2_abies_alba_pyramidalis/thumbnail/49255769768_df55596553_b.jpg"}},{"id":923,"common_name":"bearberry","scientific_name":["Arctostaphylos uva-ursi 'Wood's Red'"],"other_name":["kinnikinnick"],"cycle":"Perennial","watering":"Minimum","sunlight":["Full sun Partial sun"],"default_image":{"image_id":21279,"license":4,"license_name":"Attribution License","license_url":"https://creativecommons.org/licenses/by/2.0/","original_url":"https://perenual.com/storage/species_image/923_arctostaphylos_uva-ursi_woods_red/og/5188484321_5cf1761bf4_b.jpg","regular_url":"https://perenual.com/storage/species_image/923_arctostaphylos_uva-ursi_woods_red/regular/5188484321_5cf1761bf4_b.jpg","medium_url":"https://perenual.com/storage/species_image/923_arctostaphylos_uva-ursi_woods_red/medium/5188484321_5cf1761bf4_b.jpg","small_url":"https://perenual.com/storage/species_image/923_arctostaphylos_uva-ursi_woods_red/small/5188484321_5cf1761bf4_b.jpg","thumbnail":"https://perenual.com/storage/species_image/923_arctostaphylos_uva-ursi_woods_red/thumbnail/5188484321_5cf1761bf4_b.jpg"}},{"id":924,"common_name":"African daisy","scientific_name":["Arctotis hybrida"],"other_name":null,"cycle":"Perennial","watering":"Average","sunlight":["Full sun"],"default_image":{"image_id":2199,"license":4,"license_name":"Attribution License","license_url":"https://creativecommons.org/licenses/by/2.0/","original_url":"https://perenual.com/storage/species_image/924_arctotis_hybrida/og/50811071336_f9b50120cc_b.jpg","regular_url":"https://perenual.com/storage/species_image/924_arctotis_hybrida/regular/50811071336_f9b50120cc_b.jpg","medium_url":"https://perenual.com/storage/species_image/924_arctotis_hybrida/medium/50811071336_f9b50120cc_b.jpg","small_url":"https://perenual.com/storage/species_image/924_arctotis_hybrida/small/50811071336_f9b50120cc_b.jpg","thumbnail":"https://perenual.com/storage/species_image/924_arctotis_hybrida/thumbnail/50811071336_f9b50120cc_b.jpg"}},{"id":925,"common_name":"hen's eyes","scientific_name":["Ardisia crenata"],"other_name":null,"cycle":"Perennial","watering":"Average","sunlight":["Part shade","full shade"],"default_image":{"image_id":2201,"license":4,"license_name":"Attribution License","license_url":"https://creativecommons.org/licenses/by/2.0/","original_url":"https://perenual.com/storage/species_image/925_ardisia_crenata/og/50950278062_f6dbb4e8ba_b.jpg","regular_url":"https://perenual.com/storage/species_image/925_ardisia_crenata/regular/50950278062_f6dbb4e8ba_b.jpg","medium_url":"https://perenual.com/storage/species_image/925_ardisia_crenata/medium/50950278062_f6dbb4e8ba_b.jpg","small_url":"https://perenual.com/storage/species_image/925_ardisia_crenata/small/50950278062_f6dbb4e8ba_b.jpg","thumbnail":"https://perenual.com/storage/species_image/925_ardisia_crenata/thumbnail/50950278062_f6dbb4e8ba_b.jpg"}},{"id":926,"common_name":"marlberry","scientific_name":["Ardisia japonica"],"other_name":null,"cycle":"Perennial","watering":"Average","sunlight":["Part shade","full shade"],"default_image":{"image_id":9,"license":5,"license_name":"Attribution-ShareAlike License","license_url":"https://creativecommons.org/licenses/by-sa/2.0/","original_url":"https://perenual.com/storage/species_image/2_abies_alba_pyramidalis/og/49255769768_df55596553_b.jpg","regular_url":"https://perenual.com/storage/species_image/2_abies_alba_pyramidalis/regular/49255769768_df55596553_b.jpg","medium_url":"https://perenual.com/storage/species_image/2_abies_alba_pyramidalis/medium/49255769768_df55596553_b.jpg","small_url":"https://perenual.com/storage/species_image/2_abies_alba_pyramidalis/small/49255769768_df55596553_b.jpg","thumbnail":"https://perenual.com/storage/species_image/2_abies_alba_pyramidalis/thumbnail/49255769768_df55596553_b.jpg"}},{"id":927,"common_name":"Argan tree","scientific_name":["Argania spinosa"],"other_name":null,"cycle":"Perennial","watering":"Minimum","sunlight":["Full sun"],"default_image":{"image_id":9,"license":5,"license_name":"Attribution-ShareAlike License","license_url":"https://creativecommons.org/licenses/by-sa/2.0/","original_url":"https://perenual.com/storage/species_image/2_abies_alba_pyramidalis/og/49255769768_df55596553_b.jpg","regular_url":"https://perenual.com/storage/species_image/2_abies_alba_pyramidalis/regular/49255769768_df55596553_b.jpg","medium_url":"https://perenual.com/storage/species_image/2_abies_alba_pyramidalis/medium/49255769768_df55596553_b.jpg","small_url":"https://perenual.com/storage/species_image/2_abies_alba_pyramidalis/small/49255769768_df55596553_b.jpg","thumbnail":"https://perenual.com/storage/species_image/2_abies_alba_pyramidalis/thumbnail/49255769768_df55596553_b.jpg"}},{"id":928,"common_name":"prickly poppy","scientific_name":["Argemone polyanthemos"],"other_name":null,"cycle":"Perennial","watering":"Minimum","sunlight":["Full sun"],"default_image":{"image_id":2211,"license":4,"license_name":"Attribution License","license_url":"https://creativecommons.org/licenses/by/2.0/","original_url":"https://perenual.com/storage/species_image/928_argemone_polyanthemos/og/19283239043_f1233f717c_b.jpg","regular_url":"https://perenual.com/storage/species_image/928_argemone_polyanthemos/regular/19283239043_f1233f717c_b.jpg","medium_url":"https://perenual.com/storage/species_image/928_argemone_polyanthemos/medium/19283239043_f1233f717c_b.jpg","small_url":"https://perenual.com/storage/species_image/928_argemone_polyanthemos/small/19283239043_f1233f717c_b.jpg","thumbnail":"https://perenual.com/storage/species_image/928_argemone_polyanthemos/thumbnail/19283239043_f1233f717c_b.jpg"}},{"id":929,"common_name":"cobbitty daisy","scientific_name":["Argyranthemum frutescens"],"other_name":null,"cycle":"Perennial","watering":"Average","sunlight":["Full sun"],"default_image":{"image_id":2216,"license":6,"license_name":"Attribution-NoDerivs License","license_url":"https://creativecommons.org/licenses/by-nd/2.0/","original_url":"https://perenual.com/storage/species_image/929_argyranthemum_frutescens/og/32691525056_36eebc3722_b.jpg"}},{"id":930,"common_name":"arisaema","scientific_name":["Arisaema engleri"],"other_name":null,"cycle":"Perennial","watering":"Frequent","sunlight":["Part shade","full shade"],"default_image":{"image_id":2219,"license":5,"license_name":"Attribution-ShareAlike License","license_url":"https://creativecommons.org/licenses/by-sa/2.0/","original_url":"https://perenual.com/storage/species_image/930_arisaema_engleri/og/13624809174_bd9588966f_b.jpg","regular_url":"https://perenual.com/storage/species_image/930_arisaema_engleri/regular/13624809174_bd9588966f_b.jpg","medium_url":"https://perenual.com/storage/species_image/930_arisaema_engleri/medium/13624809174_bd9588966f_b.jpg","small_url":"https://perenual.com/storage/species_image/930_arisaema_engleri/small/13624809174_bd9588966f_b.jpg","thumbnail":"https://perenual.com/storage/species_image/930_arisaema_engleri/thumbnail/13624809174_bd9588966f_b.jpg"}}],"to":930,"per_page":30,"current_page":31,"from":901,"last_page":200,"total":6000}