{"data":[{"id":1528,"common_name":"camellia","scientific_name":["Camellia japonica"],"other_name":["Japanese camellia"],"cycle":"Perennial","watering":"Average","sunlight":["Part shade"],"default_image":{"image_id":3554,"license":4,"license_name":"Attribution License","license_url":"https://creativecommons.org/licenses/by/2.0/","original_url":"https://perenual.com/storage/species_image/1528_camellia_japonica/og/52004427553_97092899b4_b.jpg","regular_url":"https://perenual.com/storage/species_image/1528_camellia_japonica/regular/52004427553_97092899b4_b.jpg","medium_url":"https://perenual.com/storage/species_image/1528_camellia_japonica/medium/52004427553_97092899b4_b.jpg","small_url":"https://perenual.com/storage/species_image/1528_camellia_japonica/small/52004427553_97092899b4_b.jpg","thumbnail":"https://perenual.com/storage/species_image/1528_camellia_japonica/thumbnail/52004427553_97092899b4_b.jpg"}},{"id":1529,"common_name":"camellia","scientific_name":["Camellia japonica 'April Dawn'"],"other_name":null,"cycle":"Perennial","watering":"Average","sunlight":["Part shade"],"default_image":{"image_id":3558,"license":4,"license_name":"Attribution License","license_url":"https://creativecommons.org/licenses/by/2.0/","original_url":"https://perenual.com/storage/species_image/1531_camellia_japonica_april_snow/og/52568079741_735cbbc79d_b.jpg","regular_url":"https://perenual.com/storage/species_image/1531_camellia_japonica_april_snow/regular/52568079741_735cbbc79d_b.jpg","medium_url":"https://perenual.com/storage/species_image/1531_camellia_japonica_april_snow/medium/52568079741_735cbbc79d_b.jpg","small_url":"https://perenual.com/storage/species_image/1531_camellia_japonica_april_snow/small/52568079741_735cbbc79d_b.jpg","thumbnail":"https://perenual.com/storage/species_image/1531_camellia_japonica_april_snow/thumbnail/52568079741_735cbbc79d_b.jpg"}},{"id":1530,"common_name":"camellia","scientific_name":["Camellia japonica 'April Rose'"],"other_name":null,"cycle":"Perennial","watering":"Average","sunlight":["Part shade"],"default_image":{"image_id":3560,"license":5,"license_name":"Attribution-ShareAlike License","license_url":"https://creativecommons.org/licenses/by-sa/2.0/","original_url":"https://perenual.com/storage/species_image/1530_camellia_japonica_april_rose/og/52456500562_32f0b718f8_b.jpg","regular_url":"https://perenual.com/storage/species_image/1530_camellia_japonica_april_rose/regular/52456500562_32f0b718f8_b.jpg","medium_url":"https://perenual.com/storage/species_image/1530_camellia_japonica_april_rose/medium/52456500562_32f0b718f8_b.jpg","small_url":"https://perenual.com/storage/species_image/1530_camellia_japonica_april_rose/small/52456500562_32f0b718f8_b.jpg","thumbnail":"https://perenual.com/storage/species_image/1530_camellia_japonica_april_rose/thumbnail/52456500562_32f0b718f8_b.jpg"}},{"id":1531,"common_name":"camellia","scientific_name":["Camellia japonica 'April Snow'"],"other_name":null,"cycle":"Perennial","watering":"Average","sunlight":["Part shade"],"default_image":{"image_id":3558,"license":4,"license_name":"Attribution License","license_url":"https://creativecommons.org/licenses/by/2.0/","original_url":"https://perenual.com/storage/species_image/1531_camellia_japonica_april_snow/og/52568079741_735cbbc79d_b.jpg","regular_url":"https://perenual.com/storage/species_image/1531_camellia_japonica_april_snow/regular/52568079741_735cbbc79d_b.jpg","medium_url":"https://perenual.com/storage/species_image/1531_camellia_japonica_april_snow/medium/52568079741_735cbbc79d_b.jpg","small_url":"https://perenual.com/storage/species_image/1531_camellia_japonica_april_snow/small/52568079741_735cbbc79d_b.jpg","thumbnail":"https://perenual.com/storage/species_image/1531_camellia_japonica_april_snow/thumbnail/52568079741_735cbbc79d_b.jpg"}},{"id":1532,"common_name":"camellia","scientific_name":["Camellia japonica 'April Tryst'"],"other_name":null,"cycle":"Perennial","watering":"Average","sunlight":["Part shade"],"default_image":{"image_id":9,"license":5,"license_name":"Attribution-ShareAlike License","license_url":"https://creativecommons.org/licenses/by-sa/2.0/","original_url":"https://perenual.com/storage/species_image/2_abies_alba_pyramidalis/og/49255769768_df55596553_b.jpg","regular_url":"https://perenual.com/storage/species_image/2_abies_alba_pyramidalis/regular/49255769768_df55596553_b.jpg","medium_url":"https://perenual.com/storage/species_image/2_abies_alba_pyramidalis/medium/49255769768_df55596553_b.jpg","small_url":"https://perenual.com/storage/species_image/2_abies_alba_pyramidalis/small/49255769768_df55596553_b.jpg","thumbnail":"https://perenual.com/storage/species_image/2_abies_alba_pyramidalis/thumbnail/49255769768_df55596553_b.jpg"}},{"id":1533,"common_name":"camellia","scientific_name":["Camellia japonica 'Korean Fire'"],"other_name":null,"cycle":"Perennial","watering":"Average","sunlight":["Part shade"],"default_image":{"image_id":3565,"license":451,"license_name":"CC0 1.0 Universal (CC0 1.0) Public Domain Dedication","license_url":"https://creativecommons.org/publicdomain/zero/1.0/","original_url":"https://perenual.com/storage/species_image/1533_camellia_japonica_korean_fire/og/g458756b85c225fbf67e01ed6d607780747f5a079ff9085f1c201d1033e424ccc60ebb37465bfbf57681cb3d3ab31821915fb21ffebe0b075094c00401016ad35_1280.jpg","regular_url":"https://perenual.com/storage/species_image/1533_camellia_japonica_korean_fire/regular/g458756b85c225fbf67e01ed6d607780747f5a079ff9085f1c201d1033e424ccc60ebb37465bfbf57681cb3d3ab31821915fb21ffebe0b075094c00401016ad35_1280.jpg","medium_url":"https://perenual.com/storage/species_image/1533_camellia_japonica_korean_fire/medium/g458756b85c225fbf67e01ed6d607780747f5a079ff9085f1c201d1033e424ccc60ebb37465bfbf57681cb3d3ab31821915fb21ffebe0b075094c00401016ad35_1280.jpg","small_url":"https://perenual.com/storage/species_image/1533_camellia_japonica_korean_fire/small/g458756b85c225fbf67e01ed6d607780747f5a079ff9085f1c201d1033e424ccc60ebb37465bfbf57681cb3d3ab31821915fb21ffebe0b075094c00401016ad35_1280.jpg","thumbnail":"https://perenual.com/storage/species_image/1533_camellia_japonica_korean_fire/thumbnail/g458756b85c225fbf67e01ed6d607780747f5a079ff9085f1c201d1033e424ccc60ebb37465bfbf57681cb3d3ab31821915fb21ffebe0b075094c00401016ad35_1280.jpg"}},{"id":1534,"common_name":"camellia","scientific_name":["Camellia oleifera"],"other_name":null,"cycle":"Perennial","watering":"Average","sunlight":["Full sun","part shade"],"default_image":{"image_id":3568,"license":5,"license_name":"Attribution-ShareAlike License","license_url":"https://creativecommons.org/licenses/by-sa/2.0/","original_url":"https://perenual.com/storage/species_image/1534_camellia_oleifera/og/9227117593_12ca8c9c50_b.jpg","regular_url":"https://perenual.com/storage/species_image/1534_camellia_oleifera/regular/9227117593_12ca8c9c50_b.jpg","medium_url":"https://perenual.com/storage/species_image/1534_camellia_oleifera/medium/9227117593_12ca8c9c50_b.jpg","small_url":"https://perenual.com/storage/species_image/1534_camellia_oleifera/small/9227117593_12ca8c9c50_b.jpg","thumbnail":"https://perenual.com/storage/species_image/1534_camellia_oleifera/thumbnail/9227117593_12ca8c9c50_b.jpg"}},{"id":1535,"common_name":"yellow camellia","scientific_name":["Camellia petelotii var. petelotii"],"other_name":null,"cycle":"Perennial","watering":"Average","sunlight":["Part shade"],"default_image":{"image_id":3569,"license":4,"license_name":"Attribution License","license_url":"https://creativecommons.org/licenses/by/2.0/","original_url":"https://perenual.com/storage/species_image/1535_camellia_petelotii_var_petelotii/og/52219180804_4f356e559f_b.jpg","regular_url":"https://perenual.com/storage/species_image/1535_camellia_petelotii_var_petelotii/regular/52219180804_4f356e559f_b.jpg","medium_url":"https://perenual.com/storage/species_image/1535_camellia_petelotii_var_petelotii/medium/52219180804_4f356e559f_b.jpg","small_url":"https://perenual.com/storage/species_image/1535_camellia_petelotii_var_petelotii/small/52219180804_4f356e559f_b.jpg","thumbnail":"https://perenual.com/storage/species_image/1535_camellia_petelotii_var_petelotii/thumbnail/52219180804_4f356e559f_b.jpg"}},{"id":1539,"common_name":"tea","scientific_name":["Camellia sinensis"],"other_name":null,"cycle":"Perennial","watering":"Average","sunlight":["Part shade"],"default_image":{"image_id":3574,"license":4,"license_name":"Attribution License","license_url":"https://creativecommons.org/licenses/by/2.0/","original_url":"https://perenual.com/storage/species_image/1539_camellia_sinensis/og/30876009547_674c0fcc3f_b.jpg","regular_url":"https://perenual.com/storage/species_image/1539_camellia_sinensis/regular/30876009547_674c0fcc3f_b.jpg","medium_url":"https://perenual.com/storage/species_image/1539_camellia_sinensis/medium/30876009547_674c0fcc3f_b.jpg","small_url":"https://perenual.com/storage/species_image/1539_camellia_sinensis/small/30876009547_674c0fcc3f_b.jpg","thumbnail":"https://perenual.com/storage/species_image/1539_camellia_sinensis/thumbnail/30876009547_674c0fcc3f_b.jpg"}},{"id":1540,"common_name":"camellia","scientific_name":["Camellia transnokoensis"],"other_name":null,"cycle":"Perennial","watering":"Average","sunlight":["Part shade"],"default_image":{"image_id":3577,"license":5,"license_name":"Attribution-ShareAlike License","license_url":"https://creativecommons.org/licenses/by-sa/2.0/","original_url":"https://perenual.com/storage/species_image/1540_camellia_transnokoensis/og/9229897364_8c236432b9_b.jpg","regular_url":"https://perenual.com/storage/species_image/1540_camellia_transnokoensis/regular/9229897364_8c236432b9_b.jpg","medium_url":"https://perenual.com/storage/species_image/1540_camellia_transnokoensis/medium/9229897364_8c236432b9_b.jpg","small_url":"https://perenual.com/storage/species_image/1540_camellia_transnokoensis/small/9229897364_8c236432b9_b.jpg","thumbnail":"https://perenual.com/storage/species_image/1540_camellia_transnokoensis/thumbnail/9229897364_8c236432b9_b.jpg"}},{"id":1541,"common_name":"tall bellflower","scientific_name":["Campanula americana"],"other_name":null,"cycle":"Perennial","watering":"Average","sunlight":["Full sun","part shade"],"default_image":{"image_id":3579,"license":5,"license_name":"Attribution-ShareAlike License","license_url":"https://creativecommons.org/licenses/by-sa/2.0/","original_url":"https://perenual.com/storage/species_image/1541_campanula_americana/og/35281868914_cd6441792f_b.jpg","regular_url":"https://perenual.com/storage/species_image/1541_campanula_americana/regular/35281868914_cd6441792f_b.jpg","medium_url":"https://perenual.com/storage/species_image/1541_campanula_americana/medium/35281868914_cd6441792f_b.jpg","small_url":"https://perenual.com/storage/species_image/1541_campanula_americana/small/35281868914_cd6441792f_b.jpg","thumbnail":"https://perenual.com/storage/species_image/1541_campanula_americana/thumbnail/35281868914_cd6441792f_b.jpg"}},{"id":1542,"common_name":"bellflower","scientific_name":["Campanula bononiensis"],"other_name":null,"cycle":"Perennial","watering":"Average","sunlight":["Full sun","part shade"],"default_image":{"image_id":3587,"license":5,"license_name":"Attribution-ShareAlike License","license_url":"https://creativecommons.org/licenses/by-sa/2.0/","original_url":"https://perenual.com/storage/species_image/1542_campanula_bononiensis/og/29412975490_5b5a92ac59_b.jpg","regular_url":"https://perenual.com/storage/species_image/1542_campanula_bononiensis/regular/29412975490_5b5a92ac59_b.jpg","medium_url":"https://perenual.com/storage/species_image/1542_campanula_bononiensis/medium/29412975490_5b5a92ac59_b.jpg","small_url":"https://perenual.com/storage/species_image/1542_campanula_bononiensis/small/29412975490_5b5a92ac59_b.jpg","thumbnail":"https://perenual.com/storage/species_image/1542_campanula_bononiensis/thumbnail/29412975490_5b5a92ac59_b.jpg"}},{"id":1543,"common_name":"tussock bellflower","scientific_name":["Campanula carpatica f. alba 'Weisse Clips' WHITE CLIPS"],"other_name":null,"cycle":"Perennial","watering":"Average","sunlight":["Full sun","part shade"],"default_image":{"image_id":3588,"license":4,"license_name":"Attribution License","license_url":"https://creativecommons.org/licenses/by/2.0/","original_url":"https://perenual.com/storage/species_image/1543_campanula_carpatica_f_alba_weisse_clips_white_clips/og/51393550582_3dcdd0baca_b.jpg","regular_url":"https://perenual.com/storage/species_image/1543_campanula_carpatica_f_alba_weisse_clips_white_clips/regular/51393550582_3dcdd0baca_b.jpg","medium_url":"https://perenual.com/storage/species_image/1543_campanula_carpatica_f_alba_weisse_clips_white_clips/medium/51393550582_3dcdd0baca_b.jpg","small_url":"https://perenual.com/storage/species_image/1543_campanula_carpatica_f_alba_weisse_clips_white_clips/small/51393550582_3dcdd0baca_b.jpg","thumbnail":"https://perenual.com/storage/species_image/1543_campanula_carpatica_f_alba_weisse_clips_white_clips/thumbnail/51393550582_3dcdd0baca_b.jpg"}},{"id":1544,"common_name":"bellflower","scientific_name":["Campanula collina"],"other_name":null,"cycle":"Perennial","watering":"Average","sunlight":["Full sun","part shade"],"default_image":{"image_id":3591,"license":6,"license_name":"Attribution-NoDerivs License","license_url":"https://creativecommons.org/licenses/by-nd/2.0/","original_url":"https://perenual.com/storage/species_image/1544_campanula_collina/og/13627089744_435b4c94bb_b.jpg"}},{"id":1545,"common_name":"Adriatic bellflower","scientific_name":["Campanula garganica 'Dickson's Gold'"],"other_name":null,"cycle":"Perennial","watering":"Average","sunlight":["Full sun","part shade"],"default_image":{"image_id":3592,"license":5,"license_name":"Attribution-ShareAlike License","license_url":"https://creativecommons.org/licenses/by-sa/2.0/","original_url":"https://perenual.com/storage/species_image/1545_campanula_garganica_dicksons_gold/og/51765369977_d73847f8f2_b.jpg","regular_url":"https://perenual.com/storage/species_image/1545_campanula_garganica_dicksons_gold/regular/51765369977_d73847f8f2_b.jpg","medium_url":"https://perenual.com/storage/species_image/1545_campanula_garganica_dicksons_gold/medium/51765369977_d73847f8f2_b.jpg","small_url":"https://perenual.com/storage/species_image/1545_campanula_garganica_dicksons_gold/small/51765369977_d73847f8f2_b.jpg","thumbnail":"https://perenual.com/storage/species_image/1545_campanula_garganica_dicksons_gold/thumbnail/51765369977_d73847f8f2_b.jpg"}},{"id":1546,"common_name":"clustered bellflower","scientific_name":["Campanula glomerata"],"other_name":null,"cycle":"Perennial","watering":"Average","sunlight":[],"default_image":{"image_id":3596,"license":5,"license_name":"Attribution-ShareAlike License","license_url":"https://creativecommons.org/licenses/by-sa/2.0/","original_url":"https://perenual.com/storage/species_image/1547_campanula_glomerata_bellefleur_blue/og/50495282711_fd1083601a_b.jpg","regular_url":"https://perenual.com/storage/species_image/1547_campanula_glomerata_bellefleur_blue/regular/50495282711_fd1083601a_b.jpg","medium_url":"https://perenual.com/storage/species_image/1547_campanula_glomerata_bellefleur_blue/medium/50495282711_fd1083601a_b.jpg","small_url":"https://perenual.com/storage/species_image/1547_campanula_glomerata_bellefleur_blue/small/50495282711_fd1083601a_b.jpg","thumbnail":"https://perenual.com/storage/species_image/1547_campanula_glomerata_bellefleur_blue/thumbnail/50495282711_fd1083601a_b.jpg"}},{"id":1547,"common_name":"clustered bellflower","scientific_name":["Campanula glomerata BELLEFLEUR BLUE"],"other_name":null,"cycle":"Perennial","watering":"Average","sunlight":[],"default_image":{"image_id":3596,"license":5,"license_name":"Attribution-ShareAlike License","license_url":"https://creativecommons.org/licenses/by-sa/2.0/","original_url":"https://perenual.com/storage/species_image/1547_campanula_glomerata_bellefleur_blue/og/50495282711_fd1083601a_b.jpg","regular_url":"https://perenual.com/storage/species_image/1547_campanula_glomerata_bellefleur_blue/regular/50495282711_fd1083601a_b.jpg","medium_url":"https://perenual.com/storage/species_image/1547_campanula_glomerata_bellefleur_blue/medium/50495282711_fd1083601a_b.jpg","small_url":"https://perenual.com/storage/species_image/1547_campanula_glomerata_bellefleur_blue/small/50495282711_fd1083601a_b.jpg","thumbnail":"https://perenual.com/storage/species_image/1547_campanula_glomerata_bellefleur_blue/thumbnail/50495282711_fd1083601a_b.jpg"}},{"id":1548,"common_name":"clustered bellflower","scientific_name":["Campanula glomerata 'Caroline'"],"other_name":null,"cycle":"Perennial","watering":"Average","sunlight":[],"default_image":{"image_id":3607,"license":5,"license_name":"Attribution-ShareAlike License","license_url":"https://creativecommons.org/licenses/by-sa/2.0/","original_url":"https://perenual.com/storage/species_image/1548_campanula_glomerata_caroline/og/50125955698_3d318997cc_b.jpg","regular_url":"https://perenual.com/storage/species_image/1548_campanula_glomerata_caroline/regular/50125955698_3d318997cc_b.jpg","medium_url":"https://perenual.com/storage/species_image/1548_campanula_glomerata_caroline/medium/50125955698_3d318997cc_b.jpg","small_url":"https://perenual.com/storage/species_image/1548_campanula_glomerata_caroline/small/50125955698_3d318997cc_b.jpg","thumbnail":"https://perenual.com/storage/species_image/1548_campanula_glomerata_caroline/thumbnail/50125955698_3d318997cc_b.jpg"}},{"id":1549,"common_name":"clustered bellflower","scientific_name":["Campanula glomerata 'Church Bells'"],"other_name":null,"cycle":"Perennial","watering":"Average","sunlight":[],"default_image":{"image_id":9,"license":5,"license_name":"Attribution-ShareAlike License","license_url":"https://creativecommons.org/licenses/by-sa/2.0/","original_url":"https://perenual.com/storage/species_image/2_abies_alba_pyramidalis/og/49255769768_df55596553_b.jpg","regular_url":"https://perenual.com/storage/species_image/2_abies_alba_pyramidalis/regular/49255769768_df55596553_b.jpg","medium_url":"https://perenual.com/storage/species_image/2_abies_alba_pyramidalis/medium/49255769768_df55596553_b.jpg","small_url":"https://perenual.com/storage/species_image/2_abies_alba_pyramidalis/small/49255769768_df55596553_b.jpg","thumbnail":"https://perenual.com/storage/species_image/2_abies_alba_pyramidalis/thumbnail/49255769768_df55596553_b.jpg"}},{"id":1550,"common_name":"clustered bellflower","scientific_name":["Campanula glomerata 'Superba'"],"other_name":null,"cycle":"Perennial","watering":"Average","sunlight":[],"default_image":{"image_id":9,"license":5,"license_name":"Attribution-ShareAlike License","license_url":"https://creativecommons.org/licenses/by-sa/2.0/","original_url":"https://perenual.com/storage/species_image/2_abies_alba_pyramidalis/og/49255769768_df55596553_b.jpg","regular_url":"https://perenual.com/storage/species_image/2_abies_alba_pyramidalis/regular/49255769768_df55596553_b.jpg","medium_url":"https://perenual.com/storage/species_image/2_abies_alba_pyramidalis/medium/49255769768_df55596553_b.jpg","small_url":"https://perenual.com/storage/species_image/2_abies_alba_pyramidalis/small/49255769768_df55596553_b.jpg","thumbnail":"https://perenual.com/storage/species_image/2_abies_alba_pyramidalis/thumbnail/49255769768_df55596553_b.jpg"}},{"id":1551,"common_name":"Odessa bellflower","scientific_name":["Campanula glomerata var. dahurica 'Odessa'"],"other_name":null,"cycle":"Perennial","watering":"Average","sunlight":[],"default_image":{"image_id":3612,"license":45,"license_name":"Attribution-ShareAlike 3.0 Unported (CC BY-SA 3.0)","license_url":"https://creativecommons.org/licenses/by-sa/3.0/deed.en","original_url":"https://perenual.com/storage/species_image/1551_campanula_glomerata_var_dahurica_odessa/og/Campanula_glomerata_Superba_2zz.jpg","regular_url":"https://perenual.com/storage/species_image/1551_campanula_glomerata_var_dahurica_odessa/regular/Campanula_glomerata_Superba_2zz.jpg","medium_url":"https://perenual.com/storage/species_image/1551_campanula_glomerata_var_dahurica_odessa/medium/Campanula_glomerata_Superba_2zz.jpg","small_url":"https://perenual.com/storage/species_image/1551_campanula_glomerata_var_dahurica_odessa/small/Campanula_glomerata_Superba_2zz.jpg","thumbnail":"https://perenual.com/storage/species_image/1551_campanula_glomerata_var_dahurica_odessa/thumbnail/Campanula_glomerata_Superba_2zz.jpg"}},{"id":1552,"common_name":"bellflower","scientific_name":["Campanula incurva"],"other_name":null,"cycle":"Perennial","watering":"Average","sunlight":["Full sun","part shade"],"default_image":{"image_id":3614,"license":4,"license_name":"Attribution License","license_url":"https://creativecommons.org/licenses/by/2.0/","original_url":"https://perenual.com/storage/species_image/1552_campanula_incurva/og/7744228562_1196319ea7_b.jpg","regular_url":"https://perenual.com/storage/species_image/1552_campanula_incurva/regular/7744228562_1196319ea7_b.jpg","medium_url":"https://perenual.com/storage/species_image/1552_campanula_incurva/medium/7744228562_1196319ea7_b.jpg","small_url":"https://perenual.com/storage/species_image/1552_campanula_incurva/small/7744228562_1196319ea7_b.jpg","thumbnail":"https://perenual.com/storage/species_image/1552_campanula_incurva/thumbnail/7744228562_1196319ea7_b.jpg"}},{"id":1553,"common_name":"bellflower","scientific_name":["Campanula kemulariae"],"other_name":null,"cycle":"Perennial","watering":"Average","sunlight":["Full sun","part shade"],"default_image":{"image_id":9,"license":5,"license_name":"Attribution-ShareAlike License","license_url":"https://creativecommons.org/licenses/by-sa/2.0/","original_url":"https://perenual.com/storage/species_image/2_abies_alba_pyramidalis/og/49255769768_df55596553_b.jpg","regular_url":"https://perenual.com/storage/species_image/2_abies_alba_pyramidalis/regular/49255769768_df55596553_b.jpg","medium_url":"https://perenual.com/storage/species_image/2_abies_alba_pyramidalis/medium/49255769768_df55596553_b.jpg","small_url":"https://perenual.com/storage/species_image/2_abies_alba_pyramidalis/small/49255769768_df55596553_b.jpg","thumbnail":"https://perenual.com/storage/species_image/2_abies_alba_pyramidalis/thumbnail/49255769768_df55596553_b.jpg"}},{"id":1554,"common_name":"bellflower","scientific_name":["Campanula 'Kent Belle'"],"other_name":null,"cycle":"Perennial","watering":"Average","sunlight":["Full sun","part shade"],"default_image":{"image_id":3618,"license":5,"license_name":"Attribution-ShareAlike License","license_url":"https://creativecommons.org/licenses/by-sa/2.0/","original_url":"https://perenual.com/storage/species_image/1575_campanula_summertime_blues/og/52524376869_6ed3cd8d33_b.jpg","regular_url":"https://perenual.com/storage/species_image/1575_campanula_summertime_blues/regular/52524376869_6ed3cd8d33_b.jpg","medium_url":"https://perenual.com/storage/species_image/1575_campanula_summertime_blues/medium/52524376869_6ed3cd8d33_b.jpg","small_url":"https://perenual.com/storage/species_image/1575_campanula_summertime_blues/small/52524376869_6ed3cd8d33_b.jpg","thumbnail":"https://perenual.com/storage/species_image/1575_campanula_summertime_blues/thumbnail/52524376869_6ed3cd8d33_b.jpg"}},{"id":1555,"common_name":"milky bellflower","scientific_name":["Campanula lactiflora 'Pouffe'"],"other_name":null,"cycle":"Perennial","watering":"Average","sunlight":["Full sun","part shade"],"default_image":{"image_id":3623,"license":5,"license_name":"Attribution-ShareAlike License","license_url":"https://creativecommons.org/licenses/by-sa/2.0/","original_url":"https://perenual.com/storage/species_image/1555_campanula_lactiflora_pouffe/og/36323598651_92faaba614_b.jpg","regular_url":"https://perenual.com/storage/species_image/1555_campanula_lactiflora_pouffe/regular/36323598651_92faaba614_b.jpg","medium_url":"https://perenual.com/storage/species_image/1555_campanula_lactiflora_pouffe/medium/36323598651_92faaba614_b.jpg","small_url":"https://perenual.com/storage/species_image/1555_campanula_lactiflora_pouffe/small/36323598651_92faaba614_b.jpg","thumbnail":"https://perenual.com/storage/species_image/1555_campanula_lactiflora_pouffe/thumbnail/36323598651_92faaba614_b.jpg"}},{"id":1556,"common_name":"bellflower","scientific_name":["Campanula latifolia"],"other_name":null,"cycle":"Perennial","watering":"Average","sunlight":[],"default_image":{"image_id":3625,"license":5,"license_name":"Attribution-ShareAlike License","license_url":"https://creativecommons.org/licenses/by-sa/2.0/","original_url":"https://perenual.com/storage/species_image/1556_campanula_latifolia/og/37020798861_8acb332e21_b.jpg","regular_url":"https://perenual.com/storage/species_image/1556_campanula_latifolia/regular/37020798861_8acb332e21_b.jpg","medium_url":"https://perenual.com/storage/species_image/1556_campanula_latifolia/medium/37020798861_8acb332e21_b.jpg","small_url":"https://perenual.com/storage/species_image/1556_campanula_latifolia/small/37020798861_8acb332e21_b.jpg","thumbnail":"https://perenual.com/storage/species_image/1556_campanula_latifolia/thumbnail/37020798861_8acb332e21_b.jpg"}},{"id":1557,"common_name":"willow bell","scientific_name":["Campanula persicifolia"],"other_name":["peach-leaved bellflower"],"cycle":"Perennial","watering":"Average","sunlight":[],"default_image":{"image_id":9,"license":5,"license_name":"Attribution-ShareAlike License","license_url":"https://creativecommons.org/licenses/by-sa/2.0/","original_url":"https://perenual.com/storage/species_image/2_abies_alba_pyramidalis/og/49255769768_df55596553_b.jpg","regular_url":"https://perenual.com/storage/species_image/2_abies_alba_pyramidalis/regular/49255769768_df55596553_b.jpg","medium_url":"https://perenual.com/storage/species_image/2_abies_alba_pyramidalis/medium/49255769768_df55596553_b.jpg","small_url":"https://perenual.com/storage/species_image/2_abies_alba_pyramidalis/small/49255769768_df55596553_b.jpg","thumbnail":"https://perenual.com/storage/species_image/2_abies_alba_pyramidalis/thumbnail/49255769768_df55596553_b.jpg"}},{"id":1558,"common_name":"willow bell","scientific_name":["Campanula persicifolia 'Alba'"],"other_name":["peach-leaved bellflower"],"cycle":"Perennial","watering":"Average","sunlight":[],"default_image":{"image_id":3637,"license":5,"license_name":"Attribution-ShareAlike License","license_url":"https://creativecommons.org/licenses/by-sa/2.0/","original_url":"https://perenual.com/storage/species_image/1558_campanula_persicifolia_alba/og/33702550795_3be331a09e_b.jpg","regular_url":"https://perenual.com/storage/species_image/1558_campanula_persicifolia_alba/regular/33702550795_3be331a09e_b.jpg","medium_url":"https://perenual.com/storage/species_image/1558_campanula_persicifolia_alba/medium/33702550795_3be331a09e_b.jpg","small_url":"https://perenual.com/storage/species_image/1558_campanula_persicifolia_alba/small/33702550795_3be331a09e_b.jpg","thumbnail":"https://perenual.com/storage/species_image/1558_campanula_persicifolia_alba/thumbnail/33702550795_3be331a09e_b.jpg"}},{"id":1559,"common_name":"peach-leaved bellflower","scientific_name":["Campanula persicifolia 'Chettle Charm'"],"other_name":["peach-leaved bellflower"],"cycle":"Perennial","watering":"Average","sunlight":[],"default_image":{"image_id":3643,"license":4,"license_name":"Attribution License","license_url":"https://creativecommons.org/licenses/by/2.0/","original_url":"https://perenual.com/storage/species_image/1559_campanula_persicifolia_chettle_charm/og/52253762173_c0575455ce_b.jpg","regular_url":"https://perenual.com/storage/species_image/1559_campanula_persicifolia_chettle_charm/regular/52253762173_c0575455ce_b.jpg","medium_url":"https://perenual.com/storage/species_image/1559_campanula_persicifolia_chettle_charm/medium/52253762173_c0575455ce_b.jpg","small_url":"https://perenual.com/storage/species_image/1559_campanula_persicifolia_chettle_charm/small/52253762173_c0575455ce_b.jpg","thumbnail":"https://perenual.com/storage/species_image/1559_campanula_persicifolia_chettle_charm/thumbnail/52253762173_c0575455ce_b.jpg"}},{"id":1560,"common_name":"willow bell","scientific_name":["Campanula persicifolia 'Grandiflora Caerulea'"],"other_name":["peach-leaved bellflower"],"cycle":"Perennial","watering":"Average","sunlight":[],"default_image":null}],"to":1560,"per_page":30,"current_page":52,"from":1531,"last_page":200,"total":6000}