{"data":[{"id":3691,"common_name":"coral bells","scientific_name":["Heuchera 'Inheuredfu' DOLCE CINNAMON CURLS"],"other_name":null,"cycle":"Perennial","watering":"Average","sunlight":["Full sun","part shade"],"default_image":{"image_id":9,"license":5,"license_name":"Attribution-ShareAlike License","license_url":"https://creativecommons.org/licenses/by-sa/2.0/","original_url":"https://perenual.com/storage/species_image/2_abies_alba_pyramidalis/og/49255769768_df55596553_b.jpg","regular_url":"https://perenual.com/storage/species_image/2_abies_alba_pyramidalis/regular/49255769768_df55596553_b.jpg","medium_url":"https://perenual.com/storage/species_image/2_abies_alba_pyramidalis/medium/49255769768_df55596553_b.jpg","small_url":"https://perenual.com/storage/species_image/2_abies_alba_pyramidalis/small/49255769768_df55596553_b.jpg","thumbnail":"https://perenual.com/storage/species_image/2_abies_alba_pyramidalis/thumbnail/49255769768_df55596553_b.jpg"}},{"id":3692,"common_name":"coral bells","scientific_name":["Heuchera 'Jade Gloss'"],"other_name":null,"cycle":"Perennial","watering":"Average","sunlight":["Full sun","part shade"],"default_image":{"image_id":7562,"license":5,"license_name":"Attribution-ShareAlike License","license_url":"https://creativecommons.org/licenses/by-sa/2.0/","original_url":"https://perenual.com/storage/species_image/3692_heuchera_jade_gloss/og/6240939989_f9ae87e902_b.jpg","regular_url":"https://perenual.com/storage/species_image/3692_heuchera_jade_gloss/regular/6240939989_f9ae87e902_b.jpg","medium_url":"https://perenual.com/storage/species_image/3692_heuchera_jade_gloss/medium/6240939989_f9ae87e902_b.jpg","small_url":"https://perenual.com/storage/species_image/3692_heuchera_jade_gloss/small/6240939989_f9ae87e902_b.jpg","thumbnail":"https://perenual.com/storage/species_image/3692_heuchera_jade_gloss/thumbnail/6240939989_f9ae87e902_b.jpg"}},{"id":3693,"common_name":"coral bells","scientific_name":["Heuchera 'Leuchtkafer' FIREFLY"],"other_name":null,"cycle":"Perennial","watering":"Average","sunlight":["Full sun","part shade"],"default_image":{"image_id":7563,"license":4,"license_name":"Attribution License","license_url":"https://creativecommons.org/licenses/by/2.0/","original_url":"https://perenual.com/storage/species_image/3742_heuchera_spellbound/og/52211844910_5b40e09428_b.jpg","regular_url":"https://perenual.com/storage/species_image/3742_heuchera_spellbound/regular/52211844910_5b40e09428_b.jpg","medium_url":"https://perenual.com/storage/species_image/3742_heuchera_spellbound/medium/52211844910_5b40e09428_b.jpg","small_url":"https://perenual.com/storage/species_image/3742_heuchera_spellbound/small/52211844910_5b40e09428_b.jpg","thumbnail":"https://perenual.com/storage/species_image/3742_heuchera_spellbound/thumbnail/52211844910_5b40e09428_b.jpg"}},{"id":3694,"common_name":"coral bells","scientific_name":["Heuchera 'Lime Marmalade'"],"other_name":null,"cycle":"Perennial","watering":"Average","sunlight":["Full sun","part shade"],"default_image":{"image_id":7565,"license":5,"license_name":"Attribution-ShareAlike License","license_url":"https://creativecommons.org/licenses/by-sa/2.0/","original_url":"https://perenual.com/storage/species_image/3694_heuchera_lime_marmalade/og/35359463100_30326c50cc_b.jpg","regular_url":"https://perenual.com/storage/species_image/3694_heuchera_lime_marmalade/regular/35359463100_30326c50cc_b.jpg","medium_url":"https://perenual.com/storage/species_image/3694_heuchera_lime_marmalade/medium/35359463100_30326c50cc_b.jpg","small_url":"https://perenual.com/storage/species_image/3694_heuchera_lime_marmalade/small/35359463100_30326c50cc_b.jpg","thumbnail":"https://perenual.com/storage/species_image/3694_heuchera_lime_marmalade/thumbnail/35359463100_30326c50cc_b.jpg"}},{"id":3695,"common_name":"coral bells","scientific_name":["Heuchera 'Lime Rickey'"],"other_name":null,"cycle":"Perennial","watering":"Average","sunlight":["Full sun","part shade"],"default_image":{"image_id":9,"license":5,"license_name":"Attribution-ShareAlike License","license_url":"https://creativecommons.org/licenses/by-sa/2.0/","original_url":"https://perenual.com/storage/species_image/2_abies_alba_pyramidalis/og/49255769768_df55596553_b.jpg","regular_url":"https://perenual.com/storage/species_image/2_abies_alba_pyramidalis/regular/49255769768_df55596553_b.jpg","medium_url":"https://perenual.com/storage/species_image/2_abies_alba_pyramidalis/medium/49255769768_df55596553_b.jpg","small_url":"https://perenual.com/storage/species_image/2_abies_alba_pyramidalis/small/49255769768_df55596553_b.jpg","thumbnail":"https://perenual.com/storage/species_image/2_abies_alba_pyramidalis/thumbnail/49255769768_df55596553_b.jpg"}},{"id":3696,"common_name":"coral bells","scientific_name":["Heuchera 'Mahogany'"],"other_name":null,"cycle":"Perennial","watering":"Average","sunlight":["Full sun","part shade"],"default_image":{"image_id":9,"license":5,"license_name":"Attribution-ShareAlike License","license_url":"https://creativecommons.org/licenses/by-sa/2.0/","original_url":"https://perenual.com/storage/species_image/2_abies_alba_pyramidalis/og/49255769768_df55596553_b.jpg","regular_url":"https://perenual.com/storage/species_image/2_abies_alba_pyramidalis/regular/49255769768_df55596553_b.jpg","medium_url":"https://perenual.com/storage/species_image/2_abies_alba_pyramidalis/medium/49255769768_df55596553_b.jpg","small_url":"https://perenual.com/storage/species_image/2_abies_alba_pyramidalis/small/49255769768_df55596553_b.jpg","thumbnail":"https://perenual.com/storage/species_image/2_abies_alba_pyramidalis/thumbnail/49255769768_df55596553_b.jpg"}},{"id":3697,"common_name":"coral bells","scientific_name":["Heuchera 'Marmalade'"],"other_name":null,"cycle":"Perennial","watering":"Average","sunlight":["Full sun","part shade"],"default_image":{"image_id":7572,"license":4,"license_name":"Attribution License","license_url":"https://creativecommons.org/licenses/by/2.0/","original_url":"https://perenual.com/storage/species_image/3697_heuchera_marmalade/og/7316691816_24dde63d9e_b.jpg","regular_url":"https://perenual.com/storage/species_image/3697_heuchera_marmalade/regular/7316691816_24dde63d9e_b.jpg","medium_url":"https://perenual.com/storage/species_image/3697_heuchera_marmalade/medium/7316691816_24dde63d9e_b.jpg","small_url":"https://perenual.com/storage/species_image/3697_heuchera_marmalade/small/7316691816_24dde63d9e_b.jpg","thumbnail":"https://perenual.com/storage/species_image/3697_heuchera_marmalade/thumbnail/7316691816_24dde63d9e_b.jpg"}},{"id":3698,"common_name":"coral bells","scientific_name":["Heuchera 'Melting Fire'"],"other_name":null,"cycle":"Perennial","watering":"Average","sunlight":["Full sun","part shade"],"default_image":{"image_id":7575,"license":4,"license_name":"Attribution License","license_url":"https://creativecommons.org/licenses/by/2.0/","original_url":"https://perenual.com/storage/species_image/3698_heuchera_melting_fire/og/23531628988_de045a6698_b.jpg","regular_url":"https://perenual.com/storage/species_image/3698_heuchera_melting_fire/regular/23531628988_de045a6698_b.jpg","medium_url":"https://perenual.com/storage/species_image/3698_heuchera_melting_fire/medium/23531628988_de045a6698_b.jpg","small_url":"https://perenual.com/storage/species_image/3698_heuchera_melting_fire/small/23531628988_de045a6698_b.jpg","thumbnail":"https://perenual.com/storage/species_image/3698_heuchera_melting_fire/thumbnail/23531628988_de045a6698_b.jpg"}},{"id":3699,"common_name":"coral bells","scientific_name":["Heuchera micrantha var. diversifolia 'Absi' BRESSINGHAM BRONZE"],"other_name":null,"cycle":"Perennial","watering":"Average","sunlight":["Full sun","part shade"],"default_image":{"image_id":9,"license":5,"license_name":"Attribution-ShareAlike License","license_url":"https://creativecommons.org/licenses/by-sa/2.0/","original_url":"https://perenual.com/storage/species_image/2_abies_alba_pyramidalis/og/49255769768_df55596553_b.jpg","regular_url":"https://perenual.com/storage/species_image/2_abies_alba_pyramidalis/regular/49255769768_df55596553_b.jpg","medium_url":"https://perenual.com/storage/species_image/2_abies_alba_pyramidalis/medium/49255769768_df55596553_b.jpg","small_url":"https://perenual.com/storage/species_image/2_abies_alba_pyramidalis/small/49255769768_df55596553_b.jpg","thumbnail":"https://perenual.com/storage/species_image/2_abies_alba_pyramidalis/thumbnail/49255769768_df55596553_b.jpg"}},{"id":3700,"common_name":"coral bells","scientific_name":["Heuchera micrantha var. diversifolia 'Palace Purple'"],"other_name":null,"cycle":"Perennial","watering":"Average","sunlight":["Full sun","part shade"],"default_image":{"image_id":7579,"license":5,"license_name":"Attribution-ShareAlike License","license_url":"https://creativecommons.org/licenses/by-sa/2.0/","original_url":"https://perenual.com/storage/species_image/3700_heuchera_micrantha_var_diversifolia_palace_purple/og/22014222420_fa7dc5a334_b.jpg","regular_url":"https://perenual.com/storage/species_image/3700_heuchera_micrantha_var_diversifolia_palace_purple/regular/22014222420_fa7dc5a334_b.jpg","medium_url":"https://perenual.com/storage/species_image/3700_heuchera_micrantha_var_diversifolia_palace_purple/medium/22014222420_fa7dc5a334_b.jpg","small_url":"https://perenual.com/storage/species_image/3700_heuchera_micrantha_var_diversifolia_palace_purple/small/22014222420_fa7dc5a334_b.jpg","thumbnail":"https://perenual.com/storage/species_image/3700_heuchera_micrantha_var_diversifolia_palace_purple/thumbnail/22014222420_fa7dc5a334_b.jpg"}},{"id":3701,"common_name":"coral bells","scientific_name":["Heuchera 'Midnight Rose'"],"other_name":null,"cycle":"Perennial","watering":"Average","sunlight":["Full sun","part shade"],"default_image":{"image_id":7581,"license":4,"license_name":"Attribution License","license_url":"https://creativecommons.org/licenses/by/2.0/","original_url":"https://perenual.com/storage/species_image/3701_heuchera_midnight_rose/og/33534347363_0266204f40_b.jpg","regular_url":"https://perenual.com/storage/species_image/3701_heuchera_midnight_rose/regular/33534347363_0266204f40_b.jpg","medium_url":"https://perenual.com/storage/species_image/3701_heuchera_midnight_rose/medium/33534347363_0266204f40_b.jpg","small_url":"https://perenual.com/storage/species_image/3701_heuchera_midnight_rose/small/33534347363_0266204f40_b.jpg","thumbnail":"https://perenual.com/storage/species_image/3701_heuchera_midnight_rose/thumbnail/33534347363_0266204f40_b.jpg"}},{"id":3702,"common_name":"coral bells","scientific_name":["Heuchera 'Miracle'"],"other_name":null,"cycle":"Perennial","watering":"Average","sunlight":["Full sun","part shade"],"default_image":{"image_id":9,"license":5,"license_name":"Attribution-ShareAlike License","license_url":"https://creativecommons.org/licenses/by-sa/2.0/","original_url":"https://perenual.com/storage/species_image/2_abies_alba_pyramidalis/og/49255769768_df55596553_b.jpg","regular_url":"https://perenual.com/storage/species_image/2_abies_alba_pyramidalis/regular/49255769768_df55596553_b.jpg","medium_url":"https://perenual.com/storage/species_image/2_abies_alba_pyramidalis/medium/49255769768_df55596553_b.jpg","small_url":"https://perenual.com/storage/species_image/2_abies_alba_pyramidalis/small/49255769768_df55596553_b.jpg","thumbnail":"https://perenual.com/storage/species_image/2_abies_alba_pyramidalis/thumbnail/49255769768_df55596553_b.jpg"}},{"id":3703,"common_name":"coral bells","scientific_name":["Heuchera 'Mocha'"],"other_name":null,"cycle":"Perennial","watering":"Average","sunlight":["Full sun","part shade"],"default_image":{"image_id":7583,"license":5,"license_name":"Attribution-ShareAlike License","license_url":"https://creativecommons.org/licenses/by-sa/2.0/","original_url":"https://perenual.com/storage/species_image/3741_heuchera_sparkling_burgundy/og/52334343166_a4176ab522_b.jpg","regular_url":"https://perenual.com/storage/species_image/3741_heuchera_sparkling_burgundy/regular/52334343166_a4176ab522_b.jpg","medium_url":"https://perenual.com/storage/species_image/3741_heuchera_sparkling_burgundy/medium/52334343166_a4176ab522_b.jpg","small_url":"https://perenual.com/storage/species_image/3741_heuchera_sparkling_burgundy/small/52334343166_a4176ab522_b.jpg","thumbnail":"https://perenual.com/storage/species_image/3741_heuchera_sparkling_burgundy/thumbnail/52334343166_a4176ab522_b.jpg"}},{"id":3704,"common_name":"coral bells","scientific_name":["Heuchera 'Molly Bush'"],"other_name":null,"cycle":"Perennial","watering":"Average","sunlight":["Full sun","part shade"],"default_image":{"image_id":7584,"license":5,"license_name":"Attribution-ShareAlike License","license_url":"https://creativecommons.org/licenses/by-sa/2.0/","original_url":"https://perenual.com/storage/species_image/3704_heuchera_molly_bush/og/51699359310_414d13675d_b.jpg","regular_url":"https://perenual.com/storage/species_image/3704_heuchera_molly_bush/regular/51699359310_414d13675d_b.jpg","medium_url":"https://perenual.com/storage/species_image/3704_heuchera_molly_bush/medium/51699359310_414d13675d_b.jpg","small_url":"https://perenual.com/storage/species_image/3704_heuchera_molly_bush/small/51699359310_414d13675d_b.jpg","thumbnail":"https://perenual.com/storage/species_image/3704_heuchera_molly_bush/thumbnail/51699359310_414d13675d_b.jpg"}},{"id":3705,"common_name":"coral bells","scientific_name":["Heuchera 'Montrose Ruby'"],"other_name":null,"cycle":"Perennial","watering":"Average","sunlight":["Full sun","part shade"],"default_image":{"image_id":7586,"license":5,"license_name":"Attribution-ShareAlike License","license_url":"https://creativecommons.org/licenses/by-sa/2.0/","original_url":"https://perenual.com/storage/species_image/3705_heuchera_montrose_ruby/og/51623653223_bcb6d522fe_b.jpg","regular_url":"https://perenual.com/storage/species_image/3705_heuchera_montrose_ruby/regular/51623653223_bcb6d522fe_b.jpg","medium_url":"https://perenual.com/storage/species_image/3705_heuchera_montrose_ruby/medium/51623653223_bcb6d522fe_b.jpg","small_url":"https://perenual.com/storage/species_image/3705_heuchera_montrose_ruby/small/51623653223_bcb6d522fe_b.jpg","thumbnail":"https://perenual.com/storage/species_image/3705_heuchera_montrose_ruby/thumbnail/51623653223_bcb6d522fe_b.jpg"}},{"id":3706,"common_name":"coral bells","scientific_name":["Heuchera 'Mt. St. Helens'"],"other_name":null,"cycle":"Perennial","watering":"Average","sunlight":["Full sun","part shade"],"default_image":{"image_id":7529,"license":5,"license_name":"Attribution-ShareAlike License","license_url":"https://creativecommons.org/licenses/by-sa/2.0/","original_url":"https://perenual.com/storage/species_image/3706_heuchera_mt_st_helens/og/52334638154_44fc86b726_b.jpg","regular_url":"https://perenual.com/storage/species_image/3706_heuchera_mt_st_helens/regular/52334638154_44fc86b726_b.jpg","medium_url":"https://perenual.com/storage/species_image/3706_heuchera_mt_st_helens/medium/52334638154_44fc86b726_b.jpg","small_url":"https://perenual.com/storage/species_image/3706_heuchera_mt_st_helens/small/52334638154_44fc86b726_b.jpg","thumbnail":"https://perenual.com/storage/species_image/3706_heuchera_mt_st_helens/thumbnail/52334638154_44fc86b726_b.jpg"}},{"id":3707,"common_name":"coral bells","scientific_name":["Heuchera 'Oakington Jewel'"],"other_name":null,"cycle":"Perennial","watering":"Average","sunlight":["Full sun","part shade"],"default_image":{"image_id":7521,"license":5,"license_name":"Attribution-ShareAlike License","license_url":"https://creativecommons.org/licenses/by-sa/2.0/","original_url":"https://perenual.com/storage/species_image/3752_heuchera_vesuvius/og/52334767830_64b85b2d5e_b.jpg","regular_url":"https://perenual.com/storage/species_image/3752_heuchera_vesuvius/regular/52334767830_64b85b2d5e_b.jpg","medium_url":"https://perenual.com/storage/species_image/3752_heuchera_vesuvius/medium/52334767830_64b85b2d5e_b.jpg","small_url":"https://perenual.com/storage/species_image/3752_heuchera_vesuvius/small/52334767830_64b85b2d5e_b.jpg","thumbnail":"https://perenual.com/storage/species_image/3752_heuchera_vesuvius/thumbnail/52334767830_64b85b2d5e_b.jpg"}},{"id":3708,"common_name":"coral bells","scientific_name":["Heuchera 'Obsidian'"],"other_name":null,"cycle":"Perennial","watering":"Average","sunlight":["Full sun","part shade"],"default_image":{"image_id":9,"license":5,"license_name":"Attribution-ShareAlike License","license_url":"https://creativecommons.org/licenses/by-sa/2.0/","original_url":"https://perenual.com/storage/species_image/2_abies_alba_pyramidalis/og/49255769768_df55596553_b.jpg","regular_url":"https://perenual.com/storage/species_image/2_abies_alba_pyramidalis/regular/49255769768_df55596553_b.jpg","medium_url":"https://perenual.com/storage/species_image/2_abies_alba_pyramidalis/medium/49255769768_df55596553_b.jpg","small_url":"https://perenual.com/storage/species_image/2_abies_alba_pyramidalis/small/49255769768_df55596553_b.jpg","thumbnail":"https://perenual.com/storage/species_image/2_abies_alba_pyramidalis/thumbnail/49255769768_df55596553_b.jpg"}},{"id":3709,"common_name":"coral bells","scientific_name":["Heuchera 'Palace Passion'"],"other_name":null,"cycle":"Perennial","watering":"Average","sunlight":["Full sun","part shade"],"default_image":{"image_id":7521,"license":5,"license_name":"Attribution-ShareAlike License","license_url":"https://creativecommons.org/licenses/by-sa/2.0/","original_url":"https://perenual.com/storage/species_image/3752_heuchera_vesuvius/og/52334767830_64b85b2d5e_b.jpg","regular_url":"https://perenual.com/storage/species_image/3752_heuchera_vesuvius/regular/52334767830_64b85b2d5e_b.jpg","medium_url":"https://perenual.com/storage/species_image/3752_heuchera_vesuvius/medium/52334767830_64b85b2d5e_b.jpg","small_url":"https://perenual.com/storage/species_image/3752_heuchera_vesuvius/small/52334767830_64b85b2d5e_b.jpg","thumbnail":"https://perenual.com/storage/species_image/3752_heuchera_vesuvius/thumbnail/52334767830_64b85b2d5e_b.jpg"}},{"id":3710,"common_name":"littleflower alumroot","scientific_name":["Heuchera parviflora"],"other_name":null,"cycle":"Perennial","watering":"Minimum","sunlight":["Part shade","full shade"],"default_image":{"image_id":7588,"license":4,"license_name":"Attribution License","license_url":"https://creativecommons.org/licenses/by/2.0/","original_url":"https://perenual.com/storage/species_image/3710_heuchera_parviflora/og/1130713800_7885c4fc3d_b.jpg","regular_url":"https://perenual.com/storage/species_image/3710_heuchera_parviflora/regular/1130713800_7885c4fc3d_b.jpg","medium_url":"https://perenual.com/storage/species_image/3710_heuchera_parviflora/medium/1130713800_7885c4fc3d_b.jpg","small_url":"https://perenual.com/storage/species_image/3710_heuchera_parviflora/small/1130713800_7885c4fc3d_b.jpg","thumbnail":"https://perenual.com/storage/species_image/3710_heuchera_parviflora/thumbnail/1130713800_7885c4fc3d_b.jpg"}},{"id":3711,"common_name":"littleflower alumroot","scientific_name":["Heuchera parviflora var. puberula"],"other_name":null,"cycle":"Perennial","watering":"Minimum","sunlight":["Part shade","full shade"],"default_image":{"image_id":9,"license":5,"license_name":"Attribution-ShareAlike License","license_url":"https://creativecommons.org/licenses/by-sa/2.0/","original_url":"https://perenual.com/storage/species_image/2_abies_alba_pyramidalis/og/49255769768_df55596553_b.jpg","regular_url":"https://perenual.com/storage/species_image/2_abies_alba_pyramidalis/regular/49255769768_df55596553_b.jpg","medium_url":"https://perenual.com/storage/species_image/2_abies_alba_pyramidalis/medium/49255769768_df55596553_b.jpg","small_url":"https://perenual.com/storage/species_image/2_abies_alba_pyramidalis/small/49255769768_df55596553_b.jpg","thumbnail":"https://perenual.com/storage/species_image/2_abies_alba_pyramidalis/thumbnail/49255769768_df55596553_b.jpg"}},{"id":3712,"common_name":"coral bells","scientific_name":["Heuchera 'Peach Crisp'"],"other_name":null,"cycle":"Perennial","watering":"Average","sunlight":["Full sun","part shade"],"default_image":{"image_id":9,"license":5,"license_name":"Attribution-ShareAlike License","license_url":"https://creativecommons.org/licenses/by-sa/2.0/","original_url":"https://perenual.com/storage/species_image/2_abies_alba_pyramidalis/og/49255769768_df55596553_b.jpg","regular_url":"https://perenual.com/storage/species_image/2_abies_alba_pyramidalis/regular/49255769768_df55596553_b.jpg","medium_url":"https://perenual.com/storage/species_image/2_abies_alba_pyramidalis/medium/49255769768_df55596553_b.jpg","small_url":"https://perenual.com/storage/species_image/2_abies_alba_pyramidalis/small/49255769768_df55596553_b.jpg","thumbnail":"https://perenual.com/storage/species_image/2_abies_alba_pyramidalis/thumbnail/49255769768_df55596553_b.jpg"}},{"id":3713,"common_name":"coral bells","scientific_name":["Heuchera 'Peach Flambe'"],"other_name":null,"cycle":"Perennial","watering":"Average","sunlight":["Full sun","part shade"],"default_image":{"image_id":7592,"license":5,"license_name":"Attribution-ShareAlike License","license_url":"https://creativecommons.org/licenses/by-sa/2.0/","original_url":"https://perenual.com/storage/species_image/3713_heuchera_peach_flambe/og/4886593202_8a02b6c471_b.jpg","regular_url":"https://perenual.com/storage/species_image/3713_heuchera_peach_flambe/regular/4886593202_8a02b6c471_b.jpg","medium_url":"https://perenual.com/storage/species_image/3713_heuchera_peach_flambe/medium/4886593202_8a02b6c471_b.jpg","small_url":"https://perenual.com/storage/species_image/3713_heuchera_peach_flambe/small/4886593202_8a02b6c471_b.jpg","thumbnail":"https://perenual.com/storage/species_image/3713_heuchera_peach_flambe/thumbnail/4886593202_8a02b6c471_b.jpg"}},{"id":3714,"common_name":"coral bells","scientific_name":["Heuchera 'Peach Pie' DOLCE PEACH MELBA"],"other_name":null,"cycle":"Perennial","watering":"Average","sunlight":["Full sun","part shade"],"default_image":{"image_id":7596,"license":4,"license_name":"Attribution License","license_url":"https://creativecommons.org/licenses/by/2.0/","original_url":"https://perenual.com/storage/species_image/3714_heuchera_peach_pie_dolce_peach_melba/og/26964005177_f5a54206fc_b.jpg","regular_url":"https://perenual.com/storage/species_image/3714_heuchera_peach_pie_dolce_peach_melba/regular/26964005177_f5a54206fc_b.jpg","medium_url":"https://perenual.com/storage/species_image/3714_heuchera_peach_pie_dolce_peach_melba/medium/26964005177_f5a54206fc_b.jpg","small_url":"https://perenual.com/storage/species_image/3714_heuchera_peach_pie_dolce_peach_melba/small/26964005177_f5a54206fc_b.jpg","thumbnail":"https://perenual.com/storage/species_image/3714_heuchera_peach_pie_dolce_peach_melba/thumbnail/26964005177_f5a54206fc_b.jpg"}},{"id":3715,"common_name":"coral bells","scientific_name":["Heuchera 'Pewter Veil'"],"other_name":null,"cycle":"Perennial","watering":"Average","sunlight":["Full sun","part shade"],"default_image":{"image_id":7521,"license":5,"license_name":"Attribution-ShareAlike License","license_url":"https://creativecommons.org/licenses/by-sa/2.0/","original_url":"https://perenual.com/storage/species_image/3752_heuchera_vesuvius/og/52334767830_64b85b2d5e_b.jpg","regular_url":"https://perenual.com/storage/species_image/3752_heuchera_vesuvius/regular/52334767830_64b85b2d5e_b.jpg","medium_url":"https://perenual.com/storage/species_image/3752_heuchera_vesuvius/medium/52334767830_64b85b2d5e_b.jpg","small_url":"https://perenual.com/storage/species_image/3752_heuchera_vesuvius/small/52334767830_64b85b2d5e_b.jpg","thumbnail":"https://perenual.com/storage/species_image/3752_heuchera_vesuvius/thumbnail/52334767830_64b85b2d5e_b.jpg"}},{"id":3716,"common_name":"coral bells","scientific_name":["Heuchera 'Pinot Gris'"],"other_name":null,"cycle":"Perennial","watering":"Average","sunlight":["Full sun","part shade"],"default_image":{"image_id":7598,"license":5,"license_name":"Attribution-ShareAlike License","license_url":"https://creativecommons.org/licenses/by-sa/2.0/","original_url":"https://perenual.com/storage/species_image/3716_heuchera_pinot_gris/og/52210062470_777b630a0d_b.jpg","regular_url":"https://perenual.com/storage/species_image/3716_heuchera_pinot_gris/regular/52210062470_777b630a0d_b.jpg","medium_url":"https://perenual.com/storage/species_image/3716_heuchera_pinot_gris/medium/52210062470_777b630a0d_b.jpg","small_url":"https://perenual.com/storage/species_image/3716_heuchera_pinot_gris/small/52210062470_777b630a0d_b.jpg","thumbnail":"https://perenual.com/storage/species_image/3716_heuchera_pinot_gris/thumbnail/52210062470_777b630a0d_b.jpg"}},{"id":3717,"common_name":"coral bells","scientific_name":["Heuchera 'Pinot Noir'"],"other_name":null,"cycle":"Perennial","watering":"Average","sunlight":["Full sun","part shade"],"default_image":{"image_id":7603,"license":5,"license_name":"Attribution-ShareAlike License","license_url":"https://creativecommons.org/licenses/by-sa/2.0/","original_url":"https://perenual.com/storage/species_image/3717_heuchera_pinot_noir/og/6240941297_805b41b32a_b.jpg","regular_url":"https://perenual.com/storage/species_image/3717_heuchera_pinot_noir/regular/6240941297_805b41b32a_b.jpg","medium_url":"https://perenual.com/storage/species_image/3717_heuchera_pinot_noir/medium/6240941297_805b41b32a_b.jpg","small_url":"https://perenual.com/storage/species_image/3717_heuchera_pinot_noir/small/6240941297_805b41b32a_b.jpg","thumbnail":"https://perenual.com/storage/species_image/3717_heuchera_pinot_noir/thumbnail/6240941297_805b41b32a_b.jpg"}},{"id":3718,"common_name":"coral bells","scientific_name":["Heuchera 'Plum Pudding'"],"other_name":null,"cycle":"Perennial","watering":"Average","sunlight":["Full sun","part shade"],"default_image":{"image_id":9,"license":5,"license_name":"Attribution-ShareAlike License","license_url":"https://creativecommons.org/licenses/by-sa/2.0/","original_url":"https://perenual.com/storage/species_image/2_abies_alba_pyramidalis/og/49255769768_df55596553_b.jpg","regular_url":"https://perenual.com/storage/species_image/2_abies_alba_pyramidalis/regular/49255769768_df55596553_b.jpg","medium_url":"https://perenual.com/storage/species_image/2_abies_alba_pyramidalis/medium/49255769768_df55596553_b.jpg","small_url":"https://perenual.com/storage/species_image/2_abies_alba_pyramidalis/small/49255769768_df55596553_b.jpg","thumbnail":"https://perenual.com/storage/species_image/2_abies_alba_pyramidalis/thumbnail/49255769768_df55596553_b.jpg"}},{"id":3719,"common_name":"coral bells","scientific_name":["Heuchera 'Purple Petticoats'"],"other_name":null,"cycle":"Perennial","watering":"Average","sunlight":["Full sun","part shade"],"default_image":{"image_id":7607,"license":5,"license_name":"Attribution-ShareAlike License","license_url":"https://creativecommons.org/licenses/by-sa/2.0/","original_url":"https://perenual.com/storage/species_image/3719_heuchera_purple_petticoats/og/14426308471_b4c8455654_b.jpg","regular_url":"https://perenual.com/storage/species_image/3719_heuchera_purple_petticoats/regular/14426308471_b4c8455654_b.jpg","medium_url":"https://perenual.com/storage/species_image/3719_heuchera_purple_petticoats/medium/14426308471_b4c8455654_b.jpg","small_url":"https://perenual.com/storage/species_image/3719_heuchera_purple_petticoats/small/14426308471_b4c8455654_b.jpg","thumbnail":"https://perenual.com/storage/species_image/3719_heuchera_purple_petticoats/thumbnail/14426308471_b4c8455654_b.jpg"}},{"id":3720,"common_name":"coral bells","scientific_name":["Heuchera 'Purple Sails'"],"other_name":null,"cycle":"Perennial","watering":"Average","sunlight":["Full sun","part shade"],"default_image":{"image_id":7585,"license":5,"license_name":"Attribution-ShareAlike License","license_url":"https://creativecommons.org/licenses/by-sa/2.0/","original_url":"https://perenual.com/storage/species_image/3720_heuchera_purple_sails/og/51622600887_8074433a05_b.jpg","regular_url":"https://perenual.com/storage/species_image/3720_heuchera_purple_sails/regular/51622600887_8074433a05_b.jpg","medium_url":"https://perenual.com/storage/species_image/3720_heuchera_purple_sails/medium/51622600887_8074433a05_b.jpg","small_url":"https://perenual.com/storage/species_image/3720_heuchera_purple_sails/small/51622600887_8074433a05_b.jpg","thumbnail":"https://perenual.com/storage/species_image/3720_heuchera_purple_sails/thumbnail/51622600887_8074433a05_b.jpg"}}],"to":3720,"per_page":30,"current_page":124,"from":3691,"last_page":200,"total":6000}