{"data":[{"id":2821,"common_name":"escallonia","scientific_name":["Escallonia rigida"],"other_name":null,"cycle":"Perennial","watering":"Average","sunlight":["Full sun","part shade"],"default_image":{"image_id":6154,"license":5,"license_name":"Attribution-ShareAlike License","license_url":"https://creativecommons.org/licenses/by-sa/2.0/","original_url":"https://perenual.com/storage/species_image/2821_escallonia_rigida/og/9252385535_9521f01616_b.jpg","regular_url":"https://perenual.com/storage/species_image/2821_escallonia_rigida/regular/9252385535_9521f01616_b.jpg","medium_url":"https://perenual.com/storage/species_image/2821_escallonia_rigida/medium/9252385535_9521f01616_b.jpg","small_url":"https://perenual.com/storage/species_image/2821_escallonia_rigida/small/9252385535_9521f01616_b.jpg","thumbnail":"https://perenual.com/storage/species_image/2821_escallonia_rigida/thumbnail/9252385535_9521f01616_b.jpg"}},{"id":2822,"common_name":"California poppy","scientific_name":["Eschscholzia californica"],"other_name":null,"cycle":"Perennial","watering":"Average","sunlight":["Full sun"],"default_image":{"image_id":9,"license":5,"license_name":"Attribution-ShareAlike License","license_url":"https://creativecommons.org/licenses/by-sa/2.0/","original_url":"https://perenual.com/storage/species_image/2_abies_alba_pyramidalis/og/49255769768_df55596553_b.jpg","regular_url":"https://perenual.com/storage/species_image/2_abies_alba_pyramidalis/regular/49255769768_df55596553_b.jpg","medium_url":"https://perenual.com/storage/species_image/2_abies_alba_pyramidalis/medium/49255769768_df55596553_b.jpg","small_url":"https://perenual.com/storage/species_image/2_abies_alba_pyramidalis/small/49255769768_df55596553_b.jpg","thumbnail":"https://perenual.com/storage/species_image/2_abies_alba_pyramidalis/thumbnail/49255769768_df55596553_b.jpg"}},{"id":2823,"common_name":"torch ginger","scientific_name":["Etlingera elatior"],"other_name":null,"cycle":"Perennial","watering":"Average","sunlight":["Full sun","part shade"],"default_image":{"image_id":9,"license":5,"license_name":"Attribution-ShareAlike License","license_url":"https://creativecommons.org/licenses/by-sa/2.0/","original_url":"https://perenual.com/storage/species_image/2_abies_alba_pyramidalis/og/49255769768_df55596553_b.jpg","regular_url":"https://perenual.com/storage/species_image/2_abies_alba_pyramidalis/regular/49255769768_df55596553_b.jpg","medium_url":"https://perenual.com/storage/species_image/2_abies_alba_pyramidalis/medium/49255769768_df55596553_b.jpg","small_url":"https://perenual.com/storage/species_image/2_abies_alba_pyramidalis/small/49255769768_df55596553_b.jpg","thumbnail":"https://perenual.com/storage/species_image/2_abies_alba_pyramidalis/thumbnail/49255769768_df55596553_b.jpg"}},{"id":2824,"common_name":"Eubotrys","scientific_name":["Eubotrys racemosa"],"other_name":null,"cycle":"Perennial","watering":"Frequent","sunlight":["Part shade"],"default_image":{"image_id":9,"license":5,"license_name":"Attribution-ShareAlike License","license_url":"https://creativecommons.org/licenses/by-sa/2.0/","original_url":"https://perenual.com/storage/species_image/2_abies_alba_pyramidalis/og/49255769768_df55596553_b.jpg","regular_url":"https://perenual.com/storage/species_image/2_abies_alba_pyramidalis/regular/49255769768_df55596553_b.jpg","medium_url":"https://perenual.com/storage/species_image/2_abies_alba_pyramidalis/medium/49255769768_df55596553_b.jpg","small_url":"https://perenual.com/storage/species_image/2_abies_alba_pyramidalis/small/49255769768_df55596553_b.jpg","thumbnail":"https://perenual.com/storage/species_image/2_abies_alba_pyramidalis/thumbnail/49255769768_df55596553_b.jpg"}},{"id":2825,"common_name":"argyle-apple","scientific_name":["Eucalyptus cinerea"],"other_name":null,"cycle":"Perennial","watering":"Average","sunlight":["Full sun"],"default_image":{"image_id":9,"license":5,"license_name":"Attribution-ShareAlike License","license_url":"https://creativecommons.org/licenses/by-sa/2.0/","original_url":"https://perenual.com/storage/species_image/2_abies_alba_pyramidalis/og/49255769768_df55596553_b.jpg","regular_url":"https://perenual.com/storage/species_image/2_abies_alba_pyramidalis/regular/49255769768_df55596553_b.jpg","medium_url":"https://perenual.com/storage/species_image/2_abies_alba_pyramidalis/medium/49255769768_df55596553_b.jpg","small_url":"https://perenual.com/storage/species_image/2_abies_alba_pyramidalis/small/49255769768_df55596553_b.jpg","thumbnail":"https://perenual.com/storage/species_image/2_abies_alba_pyramidalis/thumbnail/49255769768_df55596553_b.jpg"}},{"id":2826,"common_name":"mountain gum","scientific_name":["Eucalyptus dalrympleana"],"other_name":null,"cycle":"Perennial","watering":"Minimum","sunlight":["Full sun"],"default_image":{"image_id":6159,"license":5,"license_name":"Attribution-ShareAlike License","license_url":"https://creativecommons.org/licenses/by-sa/2.0/","original_url":"https://perenual.com/storage/species_image/2826_eucalyptus_dalrympleana/og/14406450326_8f72aa6962_b.jpg","regular_url":"https://perenual.com/storage/species_image/2826_eucalyptus_dalrympleana/regular/14406450326_8f72aa6962_b.jpg","medium_url":"https://perenual.com/storage/species_image/2826_eucalyptus_dalrympleana/medium/14406450326_8f72aa6962_b.jpg","small_url":"https://perenual.com/storage/species_image/2826_eucalyptus_dalrympleana/small/14406450326_8f72aa6962_b.jpg","thumbnail":"https://perenual.com/storage/species_image/2826_eucalyptus_dalrympleana/thumbnail/14406450326_8f72aa6962_b.jpg"}},{"id":2827,"common_name":"Indonesian gum","scientific_name":["Eucalyptus deglupta"],"other_name":null,"cycle":"Perennial","watering":"Frequent","sunlight":["Full sun"],"default_image":{"image_id":6163,"license":4,"license_name":"Attribution License","license_url":"https://creativecommons.org/licenses/by/2.0/","original_url":"https://perenual.com/storage/species_image/2827_eucalyptus_deglupta/og/52433263296_9f00f1313f_b.jpg","regular_url":"https://perenual.com/storage/species_image/2827_eucalyptus_deglupta/regular/52433263296_9f00f1313f_b.jpg","medium_url":"https://perenual.com/storage/species_image/2827_eucalyptus_deglupta/medium/52433263296_9f00f1313f_b.jpg","small_url":"https://perenual.com/storage/species_image/2827_eucalyptus_deglupta/small/52433263296_9f00f1313f_b.jpg","thumbnail":"https://perenual.com/storage/species_image/2827_eucalyptus_deglupta/thumbnail/52433263296_9f00f1313f_b.jpg"}},{"id":2828,"common_name":"silver-dollar gum","scientific_name":["Eucalyptus perriniana"],"other_name":null,"cycle":"Perennial","watering":"Minimum","sunlight":["Full sun"],"default_image":{"image_id":9,"license":5,"license_name":"Attribution-ShareAlike License","license_url":"https://creativecommons.org/licenses/by-sa/2.0/","original_url":"https://perenual.com/storage/species_image/2_abies_alba_pyramidalis/og/49255769768_df55596553_b.jpg","regular_url":"https://perenual.com/storage/species_image/2_abies_alba_pyramidalis/regular/49255769768_df55596553_b.jpg","medium_url":"https://perenual.com/storage/species_image/2_abies_alba_pyramidalis/medium/49255769768_df55596553_b.jpg","small_url":"https://perenual.com/storage/species_image/2_abies_alba_pyramidalis/small/49255769768_df55596553_b.jpg","thumbnail":"https://perenual.com/storage/species_image/2_abies_alba_pyramidalis/thumbnail/49255769768_df55596553_b.jpg"}},{"id":2829,"common_name":"Amazon lily","scientific_name":["Eucharis amazonica"],"other_name":null,"cycle":"Perennial","watering":"Average","sunlight":["Part shade"],"default_image":{"image_id":9,"license":5,"license_name":"Attribution-ShareAlike License","license_url":"https://creativecommons.org/licenses/by-sa/2.0/","original_url":"https://perenual.com/storage/species_image/2_abies_alba_pyramidalis/og/49255769768_df55596553_b.jpg","regular_url":"https://perenual.com/storage/species_image/2_abies_alba_pyramidalis/regular/49255769768_df55596553_b.jpg","medium_url":"https://perenual.com/storage/species_image/2_abies_alba_pyramidalis/medium/49255769768_df55596553_b.jpg","small_url":"https://perenual.com/storage/species_image/2_abies_alba_pyramidalis/small/49255769768_df55596553_b.jpg","thumbnail":"https://perenual.com/storage/species_image/2_abies_alba_pyramidalis/thumbnail/49255769768_df55596553_b.jpg"}},{"id":2830,"common_name":"pineapple lily","scientific_name":["Eucomis comosa"],"other_name":null,"cycle":"Perennial","watering":"Average","sunlight":["Full sun","part shade"],"default_image":{"image_id":9,"license":5,"license_name":"Attribution-ShareAlike License","license_url":"https://creativecommons.org/licenses/by-sa/2.0/","original_url":"https://perenual.com/storage/species_image/2_abies_alba_pyramidalis/og/49255769768_df55596553_b.jpg","regular_url":"https://perenual.com/storage/species_image/2_abies_alba_pyramidalis/regular/49255769768_df55596553_b.jpg","medium_url":"https://perenual.com/storage/species_image/2_abies_alba_pyramidalis/medium/49255769768_df55596553_b.jpg","small_url":"https://perenual.com/storage/species_image/2_abies_alba_pyramidalis/small/49255769768_df55596553_b.jpg","thumbnail":"https://perenual.com/storage/species_image/2_abies_alba_pyramidalis/thumbnail/49255769768_df55596553_b.jpg"}},{"id":2831,"common_name":"pineapple lily","scientific_name":["Eucomis comosa 'Sparkling Burgundy'"],"other_name":null,"cycle":"Perennial","watering":"Average","sunlight":["Full sun"],"default_image":{"image_id":9,"license":5,"license_name":"Attribution-ShareAlike License","license_url":"https://creativecommons.org/licenses/by-sa/2.0/","original_url":"https://perenual.com/storage/species_image/2_abies_alba_pyramidalis/og/49255769768_df55596553_b.jpg","regular_url":"https://perenual.com/storage/species_image/2_abies_alba_pyramidalis/regular/49255769768_df55596553_b.jpg","medium_url":"https://perenual.com/storage/species_image/2_abies_alba_pyramidalis/medium/49255769768_df55596553_b.jpg","small_url":"https://perenual.com/storage/species_image/2_abies_alba_pyramidalis/small/49255769768_df55596553_b.jpg","thumbnail":"https://perenual.com/storage/species_image/2_abies_alba_pyramidalis/thumbnail/49255769768_df55596553_b.jpg"}},{"id":2832,"common_name":"pineapple lily","scientific_name":["Eucomis 'Dark Star'"],"other_name":null,"cycle":"Perennial","watering":"Average","sunlight":["Full sun"],"default_image":{"image_id":9,"license":5,"license_name":"Attribution-ShareAlike License","license_url":"https://creativecommons.org/licenses/by-sa/2.0/","original_url":"https://perenual.com/storage/species_image/2_abies_alba_pyramidalis/og/49255769768_df55596553_b.jpg","regular_url":"https://perenual.com/storage/species_image/2_abies_alba_pyramidalis/regular/49255769768_df55596553_b.jpg","medium_url":"https://perenual.com/storage/species_image/2_abies_alba_pyramidalis/medium/49255769768_df55596553_b.jpg","small_url":"https://perenual.com/storage/species_image/2_abies_alba_pyramidalis/small/49255769768_df55596553_b.jpg","thumbnail":"https://perenual.com/storage/species_image/2_abies_alba_pyramidalis/thumbnail/49255769768_df55596553_b.jpg"}},{"id":2833,"common_name":"pineapple lily","scientific_name":["Eucomis 'Freckles'"],"other_name":null,"cycle":"Perennial","watering":"Average","sunlight":["Full sun"],"default_image":{"image_id":9,"license":5,"license_name":"Attribution-ShareAlike License","license_url":"https://creativecommons.org/licenses/by-sa/2.0/","original_url":"https://perenual.com/storage/species_image/2_abies_alba_pyramidalis/og/49255769768_df55596553_b.jpg","regular_url":"https://perenual.com/storage/species_image/2_abies_alba_pyramidalis/regular/49255769768_df55596553_b.jpg","medium_url":"https://perenual.com/storage/species_image/2_abies_alba_pyramidalis/medium/49255769768_df55596553_b.jpg","small_url":"https://perenual.com/storage/species_image/2_abies_alba_pyramidalis/small/49255769768_df55596553_b.jpg","thumbnail":"https://perenual.com/storage/species_image/2_abies_alba_pyramidalis/thumbnail/49255769768_df55596553_b.jpg"}},{"id":2834,"common_name":"hardy rubber tree","scientific_name":["Eucommia ulmoides"],"other_name":null,"cycle":"Perennial","watering":"Average","sunlight":["Full sun","part shade"],"default_image":{"image_id":6179,"license":5,"license_name":"Attribution-ShareAlike License","license_url":"https://creativecommons.org/licenses/by-sa/2.0/","original_url":"https://perenual.com/storage/species_image/2834_eucommia_ulmoides/og/28064522623_c1864b2c73_b.jpg","regular_url":"https://perenual.com/storage/species_image/2834_eucommia_ulmoides/regular/28064522623_c1864b2c73_b.jpg","medium_url":"https://perenual.com/storage/species_image/2834_eucommia_ulmoides/medium/28064522623_c1864b2c73_b.jpg","small_url":"https://perenual.com/storage/species_image/2834_eucommia_ulmoides/small/28064522623_c1864b2c73_b.jpg","thumbnail":"https://perenual.com/storage/species_image/2834_eucommia_ulmoides/thumbnail/28064522623_c1864b2c73_b.jpg"}},{"id":2835,"common_name":"winged spindle tree","scientific_name":["Euonymus alatus"],"other_name":["winged euonymus","winged burning bush"],"cycle":"Perennial","watering":"Average","sunlight":["Full sun","part shade"],"default_image":{"image_id":6180,"license":5,"license_name":"Attribution-ShareAlike License","license_url":"https://creativecommons.org/licenses/by-sa/2.0/","original_url":"https://perenual.com/storage/species_image/2835_euonymus_alatus/og/24015828458_d2e56cca3b_b.jpg","regular_url":"https://perenual.com/storage/species_image/2835_euonymus_alatus/regular/24015828458_d2e56cca3b_b.jpg","medium_url":"https://perenual.com/storage/species_image/2835_euonymus_alatus/medium/24015828458_d2e56cca3b_b.jpg","small_url":"https://perenual.com/storage/species_image/2835_euonymus_alatus/small/24015828458_d2e56cca3b_b.jpg","thumbnail":"https://perenual.com/storage/species_image/2835_euonymus_alatus/thumbnail/24015828458_d2e56cca3b_b.jpg"}},{"id":2836,"common_name":"dwarf-winged burning bush","scientific_name":["Euonymus alatus 'Compactus'"],"other_name":null,"cycle":"Perennial","watering":"Average","sunlight":["Full sun","part shade"],"default_image":{"image_id":6185,"license":5,"license_name":"Attribution-ShareAlike License","license_url":"https://creativecommons.org/licenses/by-sa/2.0/","original_url":"https://perenual.com/storage/species_image/2836_euonymus_alatus_compactus/og/48996178963_572296deff_b.jpg","regular_url":"https://perenual.com/storage/species_image/2836_euonymus_alatus_compactus/regular/48996178963_572296deff_b.jpg","medium_url":"https://perenual.com/storage/species_image/2836_euonymus_alatus_compactus/medium/48996178963_572296deff_b.jpg","small_url":"https://perenual.com/storage/species_image/2836_euonymus_alatus_compactus/small/48996178963_572296deff_b.jpg","thumbnail":"https://perenual.com/storage/species_image/2836_euonymus_alatus_compactus/thumbnail/48996178963_572296deff_b.jpg"}},{"id":2837,"common_name":"winged spindle tree","scientific_name":["Euonymus alatus 'Odom' LITTLE MOSES"],"other_name":null,"cycle":"Perennial","watering":"Average","sunlight":["Full sun","part shade"],"default_image":{"image_id":6182,"license":5,"license_name":"Attribution-ShareAlike License","license_url":"https://creativecommons.org/licenses/by-sa/2.0/","original_url":"https://perenual.com/storage/species_image/2837_euonymus_alatus_odom_little_moses/og/48996924512_6cbcc33026_b.jpg","regular_url":"https://perenual.com/storage/species_image/2837_euonymus_alatus_odom_little_moses/regular/48996924512_6cbcc33026_b.jpg","medium_url":"https://perenual.com/storage/species_image/2837_euonymus_alatus_odom_little_moses/medium/48996924512_6cbcc33026_b.jpg","small_url":"https://perenual.com/storage/species_image/2837_euonymus_alatus_odom_little_moses/small/48996924512_6cbcc33026_b.jpg","thumbnail":"https://perenual.com/storage/species_image/2837_euonymus_alatus_odom_little_moses/thumbnail/48996924512_6cbcc33026_b.jpg"}},{"id":2838,"common_name":"winged spindle tree","scientific_name":["Euonymus alatus 'Rudy Haag'"],"other_name":null,"cycle":"Perennial","watering":"Average","sunlight":["Full sun","part shade"],"default_image":{"image_id":6181,"license":5,"license_name":"Attribution-ShareAlike License","license_url":"https://creativecommons.org/licenses/by-sa/2.0/","original_url":"https://perenual.com/storage/species_image/2838_euonymus_alatus_rudy_haag/og/51585637749_1e749a2af9_b.jpg","regular_url":"https://perenual.com/storage/species_image/2838_euonymus_alatus_rudy_haag/regular/51585637749_1e749a2af9_b.jpg","medium_url":"https://perenual.com/storage/species_image/2838_euonymus_alatus_rudy_haag/medium/51585637749_1e749a2af9_b.jpg","small_url":"https://perenual.com/storage/species_image/2838_euonymus_alatus_rudy_haag/small/51585637749_1e749a2af9_b.jpg","thumbnail":"https://perenual.com/storage/species_image/2838_euonymus_alatus_rudy_haag/thumbnail/51585637749_1e749a2af9_b.jpg"}},{"id":2839,"common_name":"strawberry bush","scientific_name":["Euonymus americanus"],"other_name":null,"cycle":"Perennial","watering":"Average","sunlight":["Part shade"],"default_image":{"image_id":9,"license":5,"license_name":"Attribution-ShareAlike License","license_url":"https://creativecommons.org/licenses/by-sa/2.0/","original_url":"https://perenual.com/storage/species_image/2_abies_alba_pyramidalis/og/49255769768_df55596553_b.jpg","regular_url":"https://perenual.com/storage/species_image/2_abies_alba_pyramidalis/regular/49255769768_df55596553_b.jpg","medium_url":"https://perenual.com/storage/species_image/2_abies_alba_pyramidalis/medium/49255769768_df55596553_b.jpg","small_url":"https://perenual.com/storage/species_image/2_abies_alba_pyramidalis/small/49255769768_df55596553_b.jpg","thumbnail":"https://perenual.com/storage/species_image/2_abies_alba_pyramidalis/thumbnail/49255769768_df55596553_b.jpg"}},{"id":2840,"common_name":"eastern wahoo","scientific_name":["Euonymus atropurpureus"],"other_name":null,"cycle":"Perennial","watering":"Average","sunlight":["Full sun","part shade"],"default_image":{"image_id":9,"license":5,"license_name":"Attribution-ShareAlike License","license_url":"https://creativecommons.org/licenses/by-sa/2.0/","original_url":"https://perenual.com/storage/species_image/2_abies_alba_pyramidalis/og/49255769768_df55596553_b.jpg","regular_url":"https://perenual.com/storage/species_image/2_abies_alba_pyramidalis/regular/49255769768_df55596553_b.jpg","medium_url":"https://perenual.com/storage/species_image/2_abies_alba_pyramidalis/medium/49255769768_df55596553_b.jpg","small_url":"https://perenual.com/storage/species_image/2_abies_alba_pyramidalis/small/49255769768_df55596553_b.jpg","thumbnail":"https://perenual.com/storage/species_image/2_abies_alba_pyramidalis/thumbnail/49255769768_df55596553_b.jpg"}},{"id":2841,"common_name":"spindletree","scientific_name":["Euonymus bungeanus"],"other_name":null,"cycle":"Perennial","watering":"Average","sunlight":["Full sun","part shade"],"default_image":{"image_id":9,"license":5,"license_name":"Attribution-ShareAlike License","license_url":"https://creativecommons.org/licenses/by-sa/2.0/","original_url":"https://perenual.com/storage/species_image/2_abies_alba_pyramidalis/og/49255769768_df55596553_b.jpg","regular_url":"https://perenual.com/storage/species_image/2_abies_alba_pyramidalis/regular/49255769768_df55596553_b.jpg","medium_url":"https://perenual.com/storage/species_image/2_abies_alba_pyramidalis/medium/49255769768_df55596553_b.jpg","small_url":"https://perenual.com/storage/species_image/2_abies_alba_pyramidalis/small/49255769768_df55596553_b.jpg","thumbnail":"https://perenual.com/storage/species_image/2_abies_alba_pyramidalis/thumbnail/49255769768_df55596553_b.jpg"}},{"id":2842,"common_name":"spindletree","scientific_name":["Euonymus bungeanus 'Verona' PRAIRIE RADIANCE"],"other_name":null,"cycle":"Perennial","watering":"Average","sunlight":["Full sun","part shade"],"default_image":{"image_id":9,"license":5,"license_name":"Attribution-ShareAlike License","license_url":"https://creativecommons.org/licenses/by-sa/2.0/","original_url":"https://perenual.com/storage/species_image/2_abies_alba_pyramidalis/og/49255769768_df55596553_b.jpg","regular_url":"https://perenual.com/storage/species_image/2_abies_alba_pyramidalis/regular/49255769768_df55596553_b.jpg","medium_url":"https://perenual.com/storage/species_image/2_abies_alba_pyramidalis/medium/49255769768_df55596553_b.jpg","small_url":"https://perenual.com/storage/species_image/2_abies_alba_pyramidalis/small/49255769768_df55596553_b.jpg","thumbnail":"https://perenual.com/storage/species_image/2_abies_alba_pyramidalis/thumbnail/49255769768_df55596553_b.jpg"}},{"id":2843,"common_name":"euonymus","scientific_name":["Euonymus carnosus"],"other_name":null,"cycle":"Perennial","watering":"Average","sunlight":["Full sun","part shade"],"default_image":{"image_id":9,"license":5,"license_name":"Attribution-ShareAlike License","license_url":"https://creativecommons.org/licenses/by-sa/2.0/","original_url":"https://perenual.com/storage/species_image/2_abies_alba_pyramidalis/og/49255769768_df55596553_b.jpg","regular_url":"https://perenual.com/storage/species_image/2_abies_alba_pyramidalis/regular/49255769768_df55596553_b.jpg","medium_url":"https://perenual.com/storage/species_image/2_abies_alba_pyramidalis/medium/49255769768_df55596553_b.jpg","small_url":"https://perenual.com/storage/species_image/2_abies_alba_pyramidalis/small/49255769768_df55596553_b.jpg","thumbnail":"https://perenual.com/storage/species_image/2_abies_alba_pyramidalis/thumbnail/49255769768_df55596553_b.jpg"}},{"id":2844,"common_name":"winter creeper","scientific_name":["Euonymus fortunei"],"other_name":["winter creeper"],"cycle":"Perennial","watering":"Average","sunlight":["Full sun","part shade"],"default_image":{"image_id":6206,"license":6,"license_name":"Attribution-NoDerivs License","license_url":"https://creativecommons.org/licenses/by-nd/2.0/","original_url":"https://perenual.com/storage/species_image/2844_euonymus_fortunei/og/52002678608_63a0f5259f_b.jpg"}},{"id":2845,"common_name":"wintercreeper euonymus","scientific_name":["Euonymus fortunei 'Canadale Gold'"],"other_name":null,"cycle":"Perennial","watering":"Average","sunlight":["Full sun","part shade"],"default_image":{"image_id":9,"license":5,"license_name":"Attribution-ShareAlike License","license_url":"https://creativecommons.org/licenses/by-sa/2.0/","original_url":"https://perenual.com/storage/species_image/2_abies_alba_pyramidalis/og/49255769768_df55596553_b.jpg","regular_url":"https://perenual.com/storage/species_image/2_abies_alba_pyramidalis/regular/49255769768_df55596553_b.jpg","medium_url":"https://perenual.com/storage/species_image/2_abies_alba_pyramidalis/medium/49255769768_df55596553_b.jpg","small_url":"https://perenual.com/storage/species_image/2_abies_alba_pyramidalis/small/49255769768_df55596553_b.jpg","thumbnail":"https://perenual.com/storage/species_image/2_abies_alba_pyramidalis/thumbnail/49255769768_df55596553_b.jpg"}},{"id":2846,"common_name":"wintercreeper euonymus","scientific_name":["Euonymus fortunei 'Emerald Gaiety'"],"other_name":null,"cycle":"Perennial","watering":"Average","sunlight":["Full sun","part shade"],"default_image":{"image_id":9,"license":5,"license_name":"Attribution-ShareAlike License","license_url":"https://creativecommons.org/licenses/by-sa/2.0/","original_url":"https://perenual.com/storage/species_image/2_abies_alba_pyramidalis/og/49255769768_df55596553_b.jpg","regular_url":"https://perenual.com/storage/species_image/2_abies_alba_pyramidalis/regular/49255769768_df55596553_b.jpg","medium_url":"https://perenual.com/storage/species_image/2_abies_alba_pyramidalis/medium/49255769768_df55596553_b.jpg","small_url":"https://perenual.com/storage/species_image/2_abies_alba_pyramidalis/small/49255769768_df55596553_b.jpg","thumbnail":"https://perenual.com/storage/species_image/2_abies_alba_pyramidalis/thumbnail/49255769768_df55596553_b.jpg"}},{"id":2847,"common_name":"wintercreeper euonymus","scientific_name":["Euonymus fortunei 'Emerald 'n' Gold'"],"other_name":null,"cycle":"Perennial","watering":"Average","sunlight":["Full sun","part shade"],"default_image":{"image_id":9,"license":5,"license_name":"Attribution-ShareAlike License","license_url":"https://creativecommons.org/licenses/by-sa/2.0/","original_url":"https://perenual.com/storage/species_image/2_abies_alba_pyramidalis/og/49255769768_df55596553_b.jpg","regular_url":"https://perenual.com/storage/species_image/2_abies_alba_pyramidalis/regular/49255769768_df55596553_b.jpg","medium_url":"https://perenual.com/storage/species_image/2_abies_alba_pyramidalis/medium/49255769768_df55596553_b.jpg","small_url":"https://perenual.com/storage/species_image/2_abies_alba_pyramidalis/small/49255769768_df55596553_b.jpg","thumbnail":"https://perenual.com/storage/species_image/2_abies_alba_pyramidalis/thumbnail/49255769768_df55596553_b.jpg"}},{"id":2848,"common_name":"wintercreeper euonymus","scientific_name":["Euonymus fortunei 'Kewensis'"],"other_name":null,"cycle":"Perennial","watering":"Average","sunlight":["Full sun","part shade"],"default_image":{"image_id":9,"license":5,"license_name":"Attribution-ShareAlike License","license_url":"https://creativecommons.org/licenses/by-sa/2.0/","original_url":"https://perenual.com/storage/species_image/2_abies_alba_pyramidalis/og/49255769768_df55596553_b.jpg","regular_url":"https://perenual.com/storage/species_image/2_abies_alba_pyramidalis/regular/49255769768_df55596553_b.jpg","medium_url":"https://perenual.com/storage/species_image/2_abies_alba_pyramidalis/medium/49255769768_df55596553_b.jpg","small_url":"https://perenual.com/storage/species_image/2_abies_alba_pyramidalis/small/49255769768_df55596553_b.jpg","thumbnail":"https://perenual.com/storage/species_image/2_abies_alba_pyramidalis/thumbnail/49255769768_df55596553_b.jpg"}},{"id":2849,"common_name":"wintercreeper","scientific_name":["Euonymus fortunei 'Variegatus'"],"other_name":null,"cycle":"Perennial","watering":"Average","sunlight":["Full sun","part shade"],"default_image":{"image_id":6216,"license":5,"license_name":"Attribution-ShareAlike License","license_url":"https://creativecommons.org/licenses/by-sa/2.0/","original_url":"https://perenual.com/storage/species_image/2849_euonymus_fortunei_variegatus/og/634528085_98ff30955b_b.jpg","regular_url":"https://perenual.com/storage/species_image/2849_euonymus_fortunei_variegatus/regular/634528085_98ff30955b_b.jpg","medium_url":"https://perenual.com/storage/species_image/2849_euonymus_fortunei_variegatus/medium/634528085_98ff30955b_b.jpg","small_url":"https://perenual.com/storage/species_image/2849_euonymus_fortunei_variegatus/small/634528085_98ff30955b_b.jpg","thumbnail":"https://perenual.com/storage/species_image/2849_euonymus_fortunei_variegatus/thumbnail/634528085_98ff30955b_b.jpg"}},{"id":2850,"common_name":"spindletree","scientific_name":["Euonymus grandiflorus"],"other_name":null,"cycle":"Perennial","watering":"Average","sunlight":["Full sun","part shade"],"default_image":{"image_id":6218,"license":5,"license_name":"Attribution-ShareAlike License","license_url":"https://creativecommons.org/licenses/by-sa/2.0/","original_url":"https://perenual.com/storage/species_image/2850_euonymus_grandiflorus/og/6301491227_f2e7041018_b.jpg","regular_url":"https://perenual.com/storage/species_image/2850_euonymus_grandiflorus/regular/6301491227_f2e7041018_b.jpg","medium_url":"https://perenual.com/storage/species_image/2850_euonymus_grandiflorus/medium/6301491227_f2e7041018_b.jpg","small_url":"https://perenual.com/storage/species_image/2850_euonymus_grandiflorus/small/6301491227_f2e7041018_b.jpg","thumbnail":"https://perenual.com/storage/species_image/2850_euonymus_grandiflorus/thumbnail/6301491227_f2e7041018_b.jpg"}}],"to":2850,"per_page":30,"current_page":95,"from":2821,"last_page":200,"total":6000}