{"data":[{"id":991,"common_name":"Italian arum","scientific_name":["Arum italicum subsp. italicum 'Marmoratum'"],"other_name":null,"cycle":"Perennial","watering":"Average","sunlight":["Part shade","full shade"],"default_image":{"image_id":9,"license":5,"license_name":"Attribution-ShareAlike License","license_url":"https://creativecommons.org/licenses/by-sa/2.0/","original_url":"https://perenual.com/storage/species_image/2_abies_alba_pyramidalis/og/49255769768_df55596553_b.jpg","regular_url":"https://perenual.com/storage/species_image/2_abies_alba_pyramidalis/regular/49255769768_df55596553_b.jpg","medium_url":"https://perenual.com/storage/species_image/2_abies_alba_pyramidalis/medium/49255769768_df55596553_b.jpg","small_url":"https://perenual.com/storage/species_image/2_abies_alba_pyramidalis/small/49255769768_df55596553_b.jpg","thumbnail":"https://perenual.com/storage/species_image/2_abies_alba_pyramidalis/thumbnail/49255769768_df55596553_b.jpg"}},{"id":992,"common_name":"goat's beard","scientific_name":["Aruncus aethusifolius"],"other_name":null,"cycle":"Perennial","watering":"Frequent","sunlight":["Full sun","part shade"],"default_image":{"image_id":2366,"license":5,"license_name":"Attribution-ShareAlike License","license_url":"https://creativecommons.org/licenses/by-sa/2.0/","original_url":"https://perenual.com/storage/species_image/992_aruncus_aethusifolius/og/40742872042_8643b5f713_b.jpg","regular_url":"https://perenual.com/storage/species_image/992_aruncus_aethusifolius/regular/40742872042_8643b5f713_b.jpg","medium_url":"https://perenual.com/storage/species_image/992_aruncus_aethusifolius/medium/40742872042_8643b5f713_b.jpg","small_url":"https://perenual.com/storage/species_image/992_aruncus_aethusifolius/small/40742872042_8643b5f713_b.jpg","thumbnail":"https://perenual.com/storage/species_image/992_aruncus_aethusifolius/thumbnail/40742872042_8643b5f713_b.jpg"}},{"id":993,"common_name":"goat's beard","scientific_name":["Aruncus dioicus"],"other_name":["Bride's Feathers"],"cycle":"Perennial","watering":"Frequent","sunlight":["Full sun","part shade"],"default_image":{"image_id":2369,"license":5,"license_name":"Attribution-ShareAlike License","license_url":"https://creativecommons.org/licenses/by-sa/2.0/","original_url":"https://perenual.com/storage/species_image/997_aruncus_misty_lace/og/52549666244_6097630ffb_b.jpg","regular_url":"https://perenual.com/storage/species_image/997_aruncus_misty_lace/regular/52549666244_6097630ffb_b.jpg","medium_url":"https://perenual.com/storage/species_image/997_aruncus_misty_lace/medium/52549666244_6097630ffb_b.jpg","small_url":"https://perenual.com/storage/species_image/997_aruncus_misty_lace/small/52549666244_6097630ffb_b.jpg","thumbnail":"https://perenual.com/storage/species_image/997_aruncus_misty_lace/thumbnail/52549666244_6097630ffb_b.jpg"}},{"id":994,"common_name":"goatsbeard","scientific_name":["Aruncus dioicus 'Kneiffii'"],"other_name":null,"cycle":"Perennial","watering":"Frequent","sunlight":["Full sun","part shade"],"default_image":{"image_id":2369,"license":5,"license_name":"Attribution-ShareAlike License","license_url":"https://creativecommons.org/licenses/by-sa/2.0/","original_url":"https://perenual.com/storage/species_image/997_aruncus_misty_lace/og/52549666244_6097630ffb_b.jpg","regular_url":"https://perenual.com/storage/species_image/997_aruncus_misty_lace/regular/52549666244_6097630ffb_b.jpg","medium_url":"https://perenual.com/storage/species_image/997_aruncus_misty_lace/medium/52549666244_6097630ffb_b.jpg","small_url":"https://perenual.com/storage/species_image/997_aruncus_misty_lace/small/52549666244_6097630ffb_b.jpg","thumbnail":"https://perenual.com/storage/species_image/997_aruncus_misty_lace/thumbnail/52549666244_6097630ffb_b.jpg"}},{"id":995,"common_name":"goatsbeard","scientific_name":["Aruncus dioicus 'Zweiweltenkind'"],"other_name":null,"cycle":"Perennial","watering":"Frequent","sunlight":["Full sun","part shade"],"default_image":{"image_id":9,"license":5,"license_name":"Attribution-ShareAlike License","license_url":"https://creativecommons.org/licenses/by-sa/2.0/","original_url":"https://perenual.com/storage/species_image/2_abies_alba_pyramidalis/og/49255769768_df55596553_b.jpg","regular_url":"https://perenual.com/storage/species_image/2_abies_alba_pyramidalis/regular/49255769768_df55596553_b.jpg","medium_url":"https://perenual.com/storage/species_image/2_abies_alba_pyramidalis/medium/49255769768_df55596553_b.jpg","small_url":"https://perenual.com/storage/species_image/2_abies_alba_pyramidalis/small/49255769768_df55596553_b.jpg","thumbnail":"https://perenual.com/storage/species_image/2_abies_alba_pyramidalis/thumbnail/49255769768_df55596553_b.jpg"}},{"id":996,"common_name":"aruncus","scientific_name":["Aruncus 'Horatio'"],"other_name":null,"cycle":"Perennial","watering":"Frequent","sunlight":["Full sun","part shade"],"default_image":{"image_id":9,"license":5,"license_name":"Attribution-ShareAlike License","license_url":"https://creativecommons.org/licenses/by-sa/2.0/","original_url":"https://perenual.com/storage/species_image/2_abies_alba_pyramidalis/og/49255769768_df55596553_b.jpg","regular_url":"https://perenual.com/storage/species_image/2_abies_alba_pyramidalis/regular/49255769768_df55596553_b.jpg","medium_url":"https://perenual.com/storage/species_image/2_abies_alba_pyramidalis/medium/49255769768_df55596553_b.jpg","small_url":"https://perenual.com/storage/species_image/2_abies_alba_pyramidalis/small/49255769768_df55596553_b.jpg","thumbnail":"https://perenual.com/storage/species_image/2_abies_alba_pyramidalis/thumbnail/49255769768_df55596553_b.jpg"}},{"id":997,"common_name":"aruncus","scientific_name":["Aruncus 'Misty Lace'"],"other_name":null,"cycle":"Perennial","watering":"Frequent","sunlight":["Full sun","part shade"],"default_image":{"image_id":2369,"license":5,"license_name":"Attribution-ShareAlike License","license_url":"https://creativecommons.org/licenses/by-sa/2.0/","original_url":"https://perenual.com/storage/species_image/997_aruncus_misty_lace/og/52549666244_6097630ffb_b.jpg","regular_url":"https://perenual.com/storage/species_image/997_aruncus_misty_lace/regular/52549666244_6097630ffb_b.jpg","medium_url":"https://perenual.com/storage/species_image/997_aruncus_misty_lace/medium/52549666244_6097630ffb_b.jpg","small_url":"https://perenual.com/storage/species_image/997_aruncus_misty_lace/small/52549666244_6097630ffb_b.jpg","thumbnail":"https://perenual.com/storage/species_image/997_aruncus_misty_lace/thumbnail/52549666244_6097630ffb_b.jpg"}},{"id":998,"common_name":"bamboo orchid","scientific_name":["Arundina graminifolia"],"other_name":null,"cycle":"Perennial","watering":"Average","sunlight":["Part shade"],"default_image":{"image_id":2385,"license":6,"license_name":"Attribution-NoDerivs License","license_url":"https://creativecommons.org/licenses/by-nd/2.0/","original_url":"https://perenual.com/storage/species_image/998_arundina_graminifolia/og/27347429227_11fd47bde8_b.jpg"}},{"id":999,"common_name":"giant cane bamboo","scientific_name":["Arundinaria gigantea"],"other_name":null,"cycle":"Perennial","watering":"Average","sunlight":["Full sun"],"default_image":{"image_id":9,"license":5,"license_name":"Attribution-ShareAlike License","license_url":"https://creativecommons.org/licenses/by-sa/2.0/","original_url":"https://perenual.com/storage/species_image/2_abies_alba_pyramidalis/og/49255769768_df55596553_b.jpg","regular_url":"https://perenual.com/storage/species_image/2_abies_alba_pyramidalis/regular/49255769768_df55596553_b.jpg","medium_url":"https://perenual.com/storage/species_image/2_abies_alba_pyramidalis/medium/49255769768_df55596553_b.jpg","small_url":"https://perenual.com/storage/species_image/2_abies_alba_pyramidalis/small/49255769768_df55596553_b.jpg","thumbnail":"https://perenual.com/storage/species_image/2_abies_alba_pyramidalis/thumbnail/49255769768_df55596553_b.jpg"}},{"id":1000,"common_name":"giant reed","scientific_name":["Arundo donax"],"other_name":null,"cycle":"Perennial","watering":"Frequent","sunlight":["Full sun","part shade"],"default_image":{"image_id":2396,"license":5,"license_name":"Attribution-ShareAlike License","license_url":"https://creativecommons.org/licenses/by-sa/2.0/","original_url":"https://perenual.com/storage/species_image/1000_arundo_donax/og/30461658446_3f6dc7a285_b.jpg","regular_url":"https://perenual.com/storage/species_image/1000_arundo_donax/regular/30461658446_3f6dc7a285_b.jpg","medium_url":"https://perenual.com/storage/species_image/1000_arundo_donax/medium/30461658446_3f6dc7a285_b.jpg","small_url":"https://perenual.com/storage/species_image/1000_arundo_donax/small/30461658446_3f6dc7a285_b.jpg","thumbnail":"https://perenual.com/storage/species_image/1000_arundo_donax/thumbnail/30461658446_3f6dc7a285_b.jpg"}},{"id":1001,"common_name":"trailing snapdragon","scientific_name":["Asarina procumbens"],"other_name":null,"cycle":"Perennial","watering":"Average","sunlight":["Full sun","part shade"],"default_image":{"image_id":2399,"license":5,"license_name":"Attribution-ShareAlike License","license_url":"https://creativecommons.org/licenses/by-sa/2.0/","original_url":"https://perenual.com/storage/species_image/1001_asarina_procumbens/og/9240253872_46be573382_b.jpg","regular_url":"https://perenual.com/storage/species_image/1001_asarina_procumbens/regular/9240253872_46be573382_b.jpg","medium_url":"https://perenual.com/storage/species_image/1001_asarina_procumbens/medium/9240253872_46be573382_b.jpg","small_url":"https://perenual.com/storage/species_image/1001_asarina_procumbens/small/9240253872_46be573382_b.jpg","thumbnail":"https://perenual.com/storage/species_image/1001_asarina_procumbens/thumbnail/9240253872_46be573382_b.jpg"}},{"id":1002,"common_name":"wild ginger","scientific_name":["Asarum canadense"],"other_name":["Canada Wild Ginger","Canadian Wildginger","Canada Snakeroot","Canadian Wildginger","Canada Snakeroot"],"cycle":"Perennial","watering":"Frequent","sunlight":["Partial Shade"," Shade"],"default_image":{"image_id":9,"license":5,"license_name":"Attribution-ShareAlike License","license_url":"https://creativecommons.org/licenses/by-sa/2.0/","original_url":"https://perenual.com/storage/species_image/2_abies_alba_pyramidalis/og/49255769768_df55596553_b.jpg","regular_url":"https://perenual.com/storage/species_image/2_abies_alba_pyramidalis/regular/49255769768_df55596553_b.jpg","medium_url":"https://perenual.com/storage/species_image/2_abies_alba_pyramidalis/medium/49255769768_df55596553_b.jpg","small_url":"https://perenual.com/storage/species_image/2_abies_alba_pyramidalis/small/49255769768_df55596553_b.jpg","thumbnail":"https://perenual.com/storage/species_image/2_abies_alba_pyramidalis/thumbnail/49255769768_df55596553_b.jpg"}},{"id":1003,"common_name":"wild ginger","scientific_name":["Asarum caudatum"],"other_name":["British Columbia Wild Ginger"],"cycle":"Perennial","watering":"Average","sunlight":["Shade"],"default_image":{"image_id":9,"license":5,"license_name":"Attribution-ShareAlike License","license_url":"https://creativecommons.org/licenses/by-sa/2.0/","original_url":"https://perenual.com/storage/species_image/2_abies_alba_pyramidalis/og/49255769768_df55596553_b.jpg","regular_url":"https://perenual.com/storage/species_image/2_abies_alba_pyramidalis/regular/49255769768_df55596553_b.jpg","medium_url":"https://perenual.com/storage/species_image/2_abies_alba_pyramidalis/medium/49255769768_df55596553_b.jpg","small_url":"https://perenual.com/storage/species_image/2_abies_alba_pyramidalis/small/49255769768_df55596553_b.jpg","thumbnail":"https://perenual.com/storage/species_image/2_abies_alba_pyramidalis/thumbnail/49255769768_df55596553_b.jpg"}},{"id":1004,"common_name":"European wild ginger","scientific_name":["Asarum europaeum"],"other_name":null,"cycle":"Perennial","watering":"Frequent","sunlight":["Part shade","full shade"],"default_image":{"image_id":2409,"license":4,"license_name":"Attribution License","license_url":"https://creativecommons.org/licenses/by/2.0/","original_url":"https://perenual.com/storage/species_image/1004_asarum_europaeum/og/51882112892_9bd923fc35_b.jpg","regular_url":"https://perenual.com/storage/species_image/1004_asarum_europaeum/regular/51882112892_9bd923fc35_b.jpg","medium_url":"https://perenual.com/storage/species_image/1004_asarum_europaeum/medium/51882112892_9bd923fc35_b.jpg","small_url":"https://perenual.com/storage/species_image/1004_asarum_europaeum/small/51882112892_9bd923fc35_b.jpg","thumbnail":"https://perenual.com/storage/species_image/1004_asarum_europaeum/thumbnail/51882112892_9bd923fc35_b.jpg"}},{"id":1005,"common_name":"wild ginger","scientific_name":["Asarum shuttleworthii"],"other_name":null,"cycle":"Perennial","watering":"Frequent","sunlight":["Part shade","full shade"],"default_image":{"image_id":9,"license":5,"license_name":"Attribution-ShareAlike License","license_url":"https://creativecommons.org/licenses/by-sa/2.0/","original_url":"https://perenual.com/storage/species_image/2_abies_alba_pyramidalis/og/49255769768_df55596553_b.jpg","regular_url":"https://perenual.com/storage/species_image/2_abies_alba_pyramidalis/regular/49255769768_df55596553_b.jpg","medium_url":"https://perenual.com/storage/species_image/2_abies_alba_pyramidalis/medium/49255769768_df55596553_b.jpg","small_url":"https://perenual.com/storage/species_image/2_abies_alba_pyramidalis/small/49255769768_df55596553_b.jpg","thumbnail":"https://perenual.com/storage/species_image/2_abies_alba_pyramidalis/thumbnail/49255769768_df55596553_b.jpg"}},{"id":1006,"common_name":"wild ginger","scientific_name":["Asarum splendens 'Quicksilver'"],"other_name":null,"cycle":"Perennial","watering":"Frequent","sunlight":["Part shade","full shade"],"default_image":{"image_id":9,"license":5,"license_name":"Attribution-ShareAlike License","license_url":"https://creativecommons.org/licenses/by-sa/2.0/","original_url":"https://perenual.com/storage/species_image/2_abies_alba_pyramidalis/og/49255769768_df55596553_b.jpg","regular_url":"https://perenual.com/storage/species_image/2_abies_alba_pyramidalis/regular/49255769768_df55596553_b.jpg","medium_url":"https://perenual.com/storage/species_image/2_abies_alba_pyramidalis/medium/49255769768_df55596553_b.jpg","small_url":"https://perenual.com/storage/species_image/2_abies_alba_pyramidalis/small/49255769768_df55596553_b.jpg","thumbnail":"https://perenual.com/storage/species_image/2_abies_alba_pyramidalis/thumbnail/49255769768_df55596553_b.jpg"}},{"id":1007,"common_name":"blood flower","scientific_name":["Asclepias curassavica"],"other_name":null,"cycle":"Perennial","watering":"Average","sunlight":["Full sun"],"default_image":{"image_id":2417,"license":4,"license_name":"Attribution License","license_url":"https://creativecommons.org/licenses/by/2.0/","original_url":"https://perenual.com/storage/species_image/1007_asclepias_curassavica/og/51757177616_7ca0baaa87_b.jpg","regular_url":"https://perenual.com/storage/species_image/1007_asclepias_curassavica/regular/51757177616_7ca0baaa87_b.jpg","medium_url":"https://perenual.com/storage/species_image/1007_asclepias_curassavica/medium/51757177616_7ca0baaa87_b.jpg","small_url":"https://perenual.com/storage/species_image/1007_asclepias_curassavica/small/51757177616_7ca0baaa87_b.jpg","thumbnail":"https://perenual.com/storage/species_image/1007_asclepias_curassavica/thumbnail/51757177616_7ca0baaa87_b.jpg"}},{"id":1008,"common_name":"prairie milkweed","scientific_name":["Asclepias hirtella"],"other_name":["Green Milkweed"],"cycle":"Perennial","watering":"Minimum","sunlight":["Sun"],"default_image":{"image_id":2420,"license":5,"license_name":"Attribution-ShareAlike License","license_url":"https://creativecommons.org/licenses/by-sa/2.0/","original_url":"https://perenual.com/storage/species_image/1008_asclepias_hirtella/og/28839708963_b77ab4a5cd_b.jpg","regular_url":"https://perenual.com/storage/species_image/1008_asclepias_hirtella/regular/28839708963_b77ab4a5cd_b.jpg","medium_url":"https://perenual.com/storage/species_image/1008_asclepias_hirtella/medium/28839708963_b77ab4a5cd_b.jpg","small_url":"https://perenual.com/storage/species_image/1008_asclepias_hirtella/small/28839708963_b77ab4a5cd_b.jpg","thumbnail":"https://perenual.com/storage/species_image/1008_asclepias_hirtella/thumbnail/28839708963_b77ab4a5cd_b.jpg"}},{"id":1009,"common_name":"swamp milkweed","scientific_name":["Asclepias incarnata"],"other_name":["Rose Milkweed","Pink Milkweed","Pink Milkweed"],"cycle":"Perennial","watering":"Frequent","sunlight":["Sun"],"default_image":{"image_id":2427,"license":4,"license_name":"Attribution License","license_url":"https://creativecommons.org/licenses/by/2.0/","original_url":"https://perenual.com/storage/species_image/1012_asclepias_incarnata_soulmate/og/51803934774_8983de9bea_b.jpg","regular_url":"https://perenual.com/storage/species_image/1012_asclepias_incarnata_soulmate/regular/51803934774_8983de9bea_b.jpg","medium_url":"https://perenual.com/storage/species_image/1012_asclepias_incarnata_soulmate/medium/51803934774_8983de9bea_b.jpg","small_url":"https://perenual.com/storage/species_image/1012_asclepias_incarnata_soulmate/small/51803934774_8983de9bea_b.jpg","thumbnail":"https://perenual.com/storage/species_image/1012_asclepias_incarnata_soulmate/thumbnail/51803934774_8983de9bea_b.jpg"}},{"id":1010,"common_name":"swamp milkweed","scientific_name":["Asclepias incarnata 'Cinderella'"],"other_name":["Rose Milkweed","Pink Milkweed","Pink Milkweed"],"cycle":"Perennial","watering":"Frequent","sunlight":["Sun"],"default_image":{"image_id":2428,"license":5,"license_name":"Attribution-ShareAlike License","license_url":"https://creativecommons.org/licenses/by-sa/2.0/","original_url":"https://perenual.com/storage/species_image/1010_asclepias_incarnata_cinderella/og/7634473196_8f5a237db9_b.jpg","regular_url":"https://perenual.com/storage/species_image/1010_asclepias_incarnata_cinderella/regular/7634473196_8f5a237db9_b.jpg","medium_url":"https://perenual.com/storage/species_image/1010_asclepias_incarnata_cinderella/medium/7634473196_8f5a237db9_b.jpg","small_url":"https://perenual.com/storage/species_image/1010_asclepias_incarnata_cinderella/small/7634473196_8f5a237db9_b.jpg","thumbnail":"https://perenual.com/storage/species_image/1010_asclepias_incarnata_cinderella/thumbnail/7634473196_8f5a237db9_b.jpg"}},{"id":1011,"common_name":"swamp milkweed","scientific_name":["Asclepias incarnata 'Ice Ballet'"],"other_name":["Rose Milkweed","Pink Milkweed","Pink Milkweed"],"cycle":"Perennial","watering":"Frequent","sunlight":["Sun"],"default_image":{"image_id":2431,"license":4,"license_name":"Attribution License","license_url":"https://creativecommons.org/licenses/by/2.0/","original_url":"https://perenual.com/storage/species_image/1011_asclepias_incarnata_ice_ballet/og/50075697802_cdd4df63b9_b.jpg","regular_url":"https://perenual.com/storage/species_image/1011_asclepias_incarnata_ice_ballet/regular/50075697802_cdd4df63b9_b.jpg","medium_url":"https://perenual.com/storage/species_image/1011_asclepias_incarnata_ice_ballet/medium/50075697802_cdd4df63b9_b.jpg","small_url":"https://perenual.com/storage/species_image/1011_asclepias_incarnata_ice_ballet/small/50075697802_cdd4df63b9_b.jpg","thumbnail":"https://perenual.com/storage/species_image/1011_asclepias_incarnata_ice_ballet/thumbnail/50075697802_cdd4df63b9_b.jpg"}},{"id":1012,"common_name":"swamp milkweed","scientific_name":["Asclepias incarnata 'Soulmate'"],"other_name":["Rose Milkweed","Pink Milkweed","Pink Milkweed"],"cycle":"Perennial","watering":"Frequent","sunlight":["Sun"],"default_image":{"image_id":2427,"license":4,"license_name":"Attribution License","license_url":"https://creativecommons.org/licenses/by/2.0/","original_url":"https://perenual.com/storage/species_image/1012_asclepias_incarnata_soulmate/og/51803934774_8983de9bea_b.jpg","regular_url":"https://perenual.com/storage/species_image/1012_asclepias_incarnata_soulmate/regular/51803934774_8983de9bea_b.jpg","medium_url":"https://perenual.com/storage/species_image/1012_asclepias_incarnata_soulmate/medium/51803934774_8983de9bea_b.jpg","small_url":"https://perenual.com/storage/species_image/1012_asclepias_incarnata_soulmate/small/51803934774_8983de9bea_b.jpg","thumbnail":"https://perenual.com/storage/species_image/1012_asclepias_incarnata_soulmate/thumbnail/51803934774_8983de9bea_b.jpg"}},{"id":1013,"common_name":"purple milkweed","scientific_name":["Asclepias purpurascens"],"other_name":null,"cycle":"Perennial","watering":"Minimum","sunlight":["Full sun"],"default_image":{"image_id":2438,"license":4,"license_name":"Attribution License","license_url":"https://creativecommons.org/licenses/by/2.0/","original_url":"https://perenual.com/storage/species_image/1013_asclepias_purpurascens/og/50066872228_65e918b71a_b.jpg","regular_url":"https://perenual.com/storage/species_image/1013_asclepias_purpurascens/regular/50066872228_65e918b71a_b.jpg","medium_url":"https://perenual.com/storage/species_image/1013_asclepias_purpurascens/medium/50066872228_65e918b71a_b.jpg","small_url":"https://perenual.com/storage/species_image/1013_asclepias_purpurascens/small/50066872228_65e918b71a_b.jpg","thumbnail":"https://perenual.com/storage/species_image/1013_asclepias_purpurascens/thumbnail/50066872228_65e918b71a_b.jpg"}},{"id":1014,"common_name":"fourleaf milkweed","scientific_name":["Asclepias quadrifolia"],"other_name":["Whorled Milkweed"],"cycle":"Perennial","watering":"Minimum","sunlight":["Full sun","part shade"],"default_image":{"image_id":2439,"license":4,"license_name":"Attribution License","license_url":"https://creativecommons.org/licenses/by/2.0/","original_url":"https://perenual.com/storage/species_image/1014_asclepias_quadrifolia/og/32020637552_bef6ec13d8_b.jpg","regular_url":"https://perenual.com/storage/species_image/1014_asclepias_quadrifolia/regular/32020637552_bef6ec13d8_b.jpg","medium_url":"https://perenual.com/storage/species_image/1014_asclepias_quadrifolia/medium/32020637552_bef6ec13d8_b.jpg","small_url":"https://perenual.com/storage/species_image/1014_asclepias_quadrifolia/small/32020637552_bef6ec13d8_b.jpg","thumbnail":"https://perenual.com/storage/species_image/1014_asclepias_quadrifolia/thumbnail/32020637552_bef6ec13d8_b.jpg"}},{"id":1015,"common_name":"showy milkweed","scientific_name":["Asclepias speciosa"],"other_name":null,"cycle":"Perennial","watering":"Minimum","sunlight":["Full sun"],"default_image":{"image_id":2442,"license":4,"license_name":"Attribution License","license_url":"https://creativecommons.org/licenses/by/2.0/","original_url":"https://perenual.com/storage/species_image/1015_asclepias_speciosa/og/42796339951_9b834a57c4_b.jpg","regular_url":"https://perenual.com/storage/species_image/1015_asclepias_speciosa/regular/42796339951_9b834a57c4_b.jpg","medium_url":"https://perenual.com/storage/species_image/1015_asclepias_speciosa/medium/42796339951_9b834a57c4_b.jpg","small_url":"https://perenual.com/storage/species_image/1015_asclepias_speciosa/small/42796339951_9b834a57c4_b.jpg","thumbnail":"https://perenual.com/storage/species_image/1015_asclepias_speciosa/thumbnail/42796339951_9b834a57c4_b.jpg"}},{"id":1016,"common_name":"prairie milkweed","scientific_name":["Asclepias sullivantii"],"other_name":["Prairie Milkweed","Smooth Milkweed"],"cycle":"Perennial","watering":"Frequent","sunlight":["Full sun"],"default_image":{"image_id":2450,"license":5,"license_name":"Attribution-ShareAlike License","license_url":"https://creativecommons.org/licenses/by-sa/2.0/","original_url":"https://perenual.com/storage/species_image/1016_asclepias_sullivantii/og/28340679636_deca37befd_b.jpg","regular_url":"https://perenual.com/storage/species_image/1016_asclepias_sullivantii/regular/28340679636_deca37befd_b.jpg","medium_url":"https://perenual.com/storage/species_image/1016_asclepias_sullivantii/medium/28340679636_deca37befd_b.jpg","small_url":"https://perenual.com/storage/species_image/1016_asclepias_sullivantii/small/28340679636_deca37befd_b.jpg","thumbnail":"https://perenual.com/storage/species_image/1016_asclepias_sullivantii/thumbnail/28340679636_deca37befd_b.jpg"}},{"id":1017,"common_name":"common milkweed","scientific_name":["Asclepias syriaca"],"other_name":["Silkweed","Silky Swallowwort","Algodoncillo","Silky Swallowwort","Algodoncillo"],"cycle":"Perennial","watering":"Minimum","sunlight":["Sun"],"default_image":{"image_id":9,"license":5,"license_name":"Attribution-ShareAlike License","license_url":"https://creativecommons.org/licenses/by-sa/2.0/","original_url":"https://perenual.com/storage/species_image/2_abies_alba_pyramidalis/og/49255769768_df55596553_b.jpg","regular_url":"https://perenual.com/storage/species_image/2_abies_alba_pyramidalis/regular/49255769768_df55596553_b.jpg","medium_url":"https://perenual.com/storage/species_image/2_abies_alba_pyramidalis/medium/49255769768_df55596553_b.jpg","small_url":"https://perenual.com/storage/species_image/2_abies_alba_pyramidalis/small/49255769768_df55596553_b.jpg","thumbnail":"https://perenual.com/storage/species_image/2_abies_alba_pyramidalis/thumbnail/49255769768_df55596553_b.jpg"}},{"id":1024,"common_name":"asparagus fern","scientific_name":["Asparagus densiflorus 'Myersii'"],"other_name":null,"cycle":"Perennial","watering":"Average","sunlight":["Part shade"],"default_image":{"image_id":2475,"license":4,"license_name":"Attribution License","license_url":"https://creativecommons.org/licenses/by/2.0/","original_url":"https://perenual.com/storage/species_image/1024_asparagus_densiflorus_myersii/og/24611964210_ce3afbb0e8_b.jpg","regular_url":"https://perenual.com/storage/species_image/1024_asparagus_densiflorus_myersii/regular/24611964210_ce3afbb0e8_b.jpg","medium_url":"https://perenual.com/storage/species_image/1024_asparagus_densiflorus_myersii/medium/24611964210_ce3afbb0e8_b.jpg","small_url":"https://perenual.com/storage/species_image/1024_asparagus_densiflorus_myersii/small/24611964210_ce3afbb0e8_b.jpg","thumbnail":"https://perenual.com/storage/species_image/1024_asparagus_densiflorus_myersii/thumbnail/24611964210_ce3afbb0e8_b.jpg"}},{"id":1025,"common_name":"asparagus fern","scientific_name":["Asparagus densiflorus 'Sprengeri'"],"other_name":null,"cycle":"Perennial","watering":"Average","sunlight":["Part shade"],"default_image":{"image_id":2478,"license":4,"license_name":"Attribution License","license_url":"https://creativecommons.org/licenses/by/2.0/","original_url":"https://perenual.com/storage/species_image/1025_asparagus_densiflorus_sprengeri/og/24818361201_11881d4f76_b.jpg","regular_url":"https://perenual.com/storage/species_image/1025_asparagus_densiflorus_sprengeri/regular/24818361201_11881d4f76_b.jpg","medium_url":"https://perenual.com/storage/species_image/1025_asparagus_densiflorus_sprengeri/medium/24818361201_11881d4f76_b.jpg","small_url":"https://perenual.com/storage/species_image/1025_asparagus_densiflorus_sprengeri/small/24818361201_11881d4f76_b.jpg","thumbnail":"https://perenual.com/storage/species_image/1025_asparagus_densiflorus_sprengeri/thumbnail/24818361201_11881d4f76_b.jpg"}},{"id":1026,"common_name":"asparagus","scientific_name":["Asparagus officinalis"],"other_name":null,"cycle":"Perennial","watering":"Average","sunlight":["Full sun"],"default_image":{"image_id":2479,"license":4,"license_name":"Attribution License","license_url":"https://creativecommons.org/licenses/by/2.0/","original_url":"https://perenual.com/storage/species_image/1026_asparagus_officinalis/og/52041907263_69f432ed57_b.jpg","regular_url":"https://perenual.com/storage/species_image/1026_asparagus_officinalis/regular/52041907263_69f432ed57_b.jpg","medium_url":"https://perenual.com/storage/species_image/1026_asparagus_officinalis/medium/52041907263_69f432ed57_b.jpg","small_url":"https://perenual.com/storage/species_image/1026_asparagus_officinalis/small/52041907263_69f432ed57_b.jpg","thumbnail":"https://perenual.com/storage/species_image/1026_asparagus_officinalis/thumbnail/52041907263_69f432ed57_b.jpg"}}],"to":1020,"per_page":30,"current_page":34,"from":991,"last_page":200,"total":6000}