{"data":[{"id":1591,"common_name":"canna","scientific_name":["Canna 'Striata'"],"other_name":null,"cycle":"Perennial","watering":"Average","sunlight":["Full sun"],"default_image":{"image_id":9,"license":5,"license_name":"Attribution-ShareAlike License","license_url":"https://creativecommons.org/licenses/by-sa/2.0/","original_url":"https://perenual.com/storage/species_image/2_abies_alba_pyramidalis/og/49255769768_df55596553_b.jpg","regular_url":"https://perenual.com/storage/species_image/2_abies_alba_pyramidalis/regular/49255769768_df55596553_b.jpg","medium_url":"https://perenual.com/storage/species_image/2_abies_alba_pyramidalis/medium/49255769768_df55596553_b.jpg","small_url":"https://perenual.com/storage/species_image/2_abies_alba_pyramidalis/small/49255769768_df55596553_b.jpg","thumbnail":"https://perenual.com/storage/species_image/2_abies_alba_pyramidalis/thumbnail/49255769768_df55596553_b.jpg"}},{"id":1592,"common_name":"caper","scientific_name":["Capparis sandwichiana"],"other_name":null,"cycle":"Perennial","watering":"Minimum","sunlight":["Full sun"],"default_image":{"image_id":3722,"license":4,"license_name":"Attribution License","license_url":"https://creativecommons.org/licenses/by/2.0/","original_url":"https://perenual.com/storage/species_image/1592_capparis_sandwichiana/og/32156706087_b5c9f4dfb3_b.jpg","regular_url":"https://perenual.com/storage/species_image/1592_capparis_sandwichiana/regular/32156706087_b5c9f4dfb3_b.jpg","medium_url":"https://perenual.com/storage/species_image/1592_capparis_sandwichiana/medium/32156706087_b5c9f4dfb3_b.jpg","small_url":"https://perenual.com/storage/species_image/1592_capparis_sandwichiana/small/32156706087_b5c9f4dfb3_b.jpg","thumbnail":"https://perenual.com/storage/species_image/1592_capparis_sandwichiana/thumbnail/32156706087_b5c9f4dfb3_b.jpg"}},{"id":1593,"common_name":"caper","scientific_name":["Capparis spinosa"],"other_name":null,"cycle":"Perennial","watering":"Minimum","sunlight":["Full sun"],"default_image":{"image_id":3727,"license":4,"license_name":"Attribution License","license_url":"https://creativecommons.org/licenses/by/2.0/","original_url":"https://perenual.com/storage/species_image/1593_capparis_spinosa/og/52460679758_6aeaa14f25_b.jpg","regular_url":"https://perenual.com/storage/species_image/1593_capparis_spinosa/regular/52460679758_6aeaa14f25_b.jpg","medium_url":"https://perenual.com/storage/species_image/1593_capparis_spinosa/medium/52460679758_6aeaa14f25_b.jpg","small_url":"https://perenual.com/storage/species_image/1593_capparis_spinosa/small/52460679758_6aeaa14f25_b.jpg","thumbnail":"https://perenual.com/storage/species_image/1593_capparis_spinosa/thumbnail/52460679758_6aeaa14f25_b.jpg"}},{"id":1594,"common_name":"caper","scientific_name":["Capparis spinosa var. inermis"],"other_name":null,"cycle":"Perennial","watering":"Minimum","sunlight":["Full sun"],"default_image":{"image_id":3733,"license":5,"license_name":"Attribution-ShareAlike License","license_url":"https://creativecommons.org/licenses/by-sa/2.0/","original_url":"https://perenual.com/storage/species_image/1594_capparis_spinosa_var_inermis/og/52073023350_1a1f4fcf5b_b.jpg","regular_url":"https://perenual.com/storage/species_image/1594_capparis_spinosa_var_inermis/regular/52073023350_1a1f4fcf5b_b.jpg","medium_url":"https://perenual.com/storage/species_image/1594_capparis_spinosa_var_inermis/medium/52073023350_1a1f4fcf5b_b.jpg","small_url":"https://perenual.com/storage/species_image/1594_capparis_spinosa_var_inermis/small/52073023350_1a1f4fcf5b_b.jpg","thumbnail":"https://perenual.com/storage/species_image/1594_capparis_spinosa_var_inermis/thumbnail/52073023350_1a1f4fcf5b_b.jpg"}},{"id":1595,"common_name":"cayenne pepper","scientific_name":["Capsicum annuum"],"other_name":null,"cycle":"Annual","watering":"Average","sunlight":["Full sun"],"default_image":{"image_id":3736,"license":5,"license_name":"Attribution-ShareAlike License","license_url":"https://creativecommons.org/licenses/by-sa/2.0/","original_url":"https://perenual.com/storage/species_image/1595_capsicum_annuum/og/51677548162_b86511d0e5_b.jpg","regular_url":"https://perenual.com/storage/species_image/1595_capsicum_annuum/regular/51677548162_b86511d0e5_b.jpg","medium_url":"https://perenual.com/storage/species_image/1595_capsicum_annuum/medium/51677548162_b86511d0e5_b.jpg","small_url":"https://perenual.com/storage/species_image/1595_capsicum_annuum/small/51677548162_b86511d0e5_b.jpg","thumbnail":"https://perenual.com/storage/species_image/1595_capsicum_annuum/thumbnail/51677548162_b86511d0e5_b.jpg"}},{"id":1596,"common_name":"sweet pepper","scientific_name":["Capsicum annuum 'Bananarama'"],"other_name":null,"cycle":"Perennial","watering":"Average","sunlight":["Full sun"],"default_image":{"image_id":3737,"license":4,"license_name":"Attribution License","license_url":"https://creativecommons.org/licenses/by/2.0/","original_url":"https://perenual.com/storage/species_image/1596_capsicum_annuum_bananarama/og/52253428433_0748cd6ff6_b.jpg","regular_url":"https://perenual.com/storage/species_image/1596_capsicum_annuum_bananarama/regular/52253428433_0748cd6ff6_b.jpg","medium_url":"https://perenual.com/storage/species_image/1596_capsicum_annuum_bananarama/medium/52253428433_0748cd6ff6_b.jpg","small_url":"https://perenual.com/storage/species_image/1596_capsicum_annuum_bananarama/small/52253428433_0748cd6ff6_b.jpg","thumbnail":"https://perenual.com/storage/species_image/1596_capsicum_annuum_bananarama/thumbnail/52253428433_0748cd6ff6_b.jpg"}},{"id":1597,"common_name":"ornamental pepper","scientific_name":["Capsicum annuum 'Black Pearl'"],"other_name":null,"cycle":"Perennial","watering":"Average","sunlight":["Full sun"],"default_image":{"image_id":3741,"license":451,"license_name":"CC0 1.0 Universal (CC0 1.0) Public Domain Dedication","license_url":"https://creativecommons.org/publicdomain/zero/1.0/","original_url":"https://perenual.com/storage/species_image/1597_capsicum_annuum_black_pearl/og/gb1517347f3071d382169cec4a60e87005e5159f29874542a14b3e3401d6c35e1e865bb672fab9ce704b466618ea4e64f_1280.jpg","regular_url":"https://perenual.com/storage/species_image/1597_capsicum_annuum_black_pearl/regular/gb1517347f3071d382169cec4a60e87005e5159f29874542a14b3e3401d6c35e1e865bb672fab9ce704b466618ea4e64f_1280.jpg","medium_url":"https://perenual.com/storage/species_image/1597_capsicum_annuum_black_pearl/medium/gb1517347f3071d382169cec4a60e87005e5159f29874542a14b3e3401d6c35e1e865bb672fab9ce704b466618ea4e64f_1280.jpg","small_url":"https://perenual.com/storage/species_image/1597_capsicum_annuum_black_pearl/small/gb1517347f3071d382169cec4a60e87005e5159f29874542a14b3e3401d6c35e1e865bb672fab9ce704b466618ea4e64f_1280.jpg","thumbnail":"https://perenual.com/storage/species_image/1597_capsicum_annuum_black_pearl/thumbnail/gb1517347f3071d382169cec4a60e87005e5159f29874542a14b3e3401d6c35e1e865bb672fab9ce704b466618ea4e64f_1280.jpg"}},{"id":1598,"common_name":"ornamental pepper","scientific_name":["Capsicum annuum 'Chinese Five Color'"],"other_name":null,"cycle":"Perennial","watering":"Average","sunlight":["Full sun"],"default_image":{"image_id":9,"license":5,"license_name":"Attribution-ShareAlike License","license_url":"https://creativecommons.org/licenses/by-sa/2.0/","original_url":"https://perenual.com/storage/species_image/2_abies_alba_pyramidalis/og/49255769768_df55596553_b.jpg","regular_url":"https://perenual.com/storage/species_image/2_abies_alba_pyramidalis/regular/49255769768_df55596553_b.jpg","medium_url":"https://perenual.com/storage/species_image/2_abies_alba_pyramidalis/medium/49255769768_df55596553_b.jpg","small_url":"https://perenual.com/storage/species_image/2_abies_alba_pyramidalis/small/49255769768_df55596553_b.jpg","thumbnail":"https://perenual.com/storage/species_image/2_abies_alba_pyramidalis/thumbnail/49255769768_df55596553_b.jpg"}},{"id":1599,"common_name":"hot pepper","scientific_name":["Capsicum annuum 'Holy Mole'"],"other_name":null,"cycle":"Annual","watering":"Average","sunlight":["Full sun"],"default_image":{"image_id":9,"license":5,"license_name":"Attribution-ShareAlike License","license_url":"https://creativecommons.org/licenses/by-sa/2.0/","original_url":"https://perenual.com/storage/species_image/2_abies_alba_pyramidalis/og/49255769768_df55596553_b.jpg","regular_url":"https://perenual.com/storage/species_image/2_abies_alba_pyramidalis/regular/49255769768_df55596553_b.jpg","medium_url":"https://perenual.com/storage/species_image/2_abies_alba_pyramidalis/medium/49255769768_df55596553_b.jpg","small_url":"https://perenual.com/storage/species_image/2_abies_alba_pyramidalis/small/49255769768_df55596553_b.jpg","thumbnail":"https://perenual.com/storage/species_image/2_abies_alba_pyramidalis/thumbnail/49255769768_df55596553_b.jpg"}},{"id":1600,"common_name":"pepper","scientific_name":["Capsicum annuum (Hot Pepper Group)"],"other_name":null,"cycle":"Annual","watering":"Average","sunlight":["Full sun"],"default_image":{"image_id":3748,"license":4,"license_name":"Attribution License","license_url":"https://creativecommons.org/licenses/by/2.0/","original_url":"https://perenual.com/storage/species_image/1600_capsicum_annuum_hot_pepper_group/og/4783962793_3faa4051c3_b.jpg","regular_url":"https://perenual.com/storage/species_image/1600_capsicum_annuum_hot_pepper_group/regular/4783962793_3faa4051c3_b.jpg","medium_url":"https://perenual.com/storage/species_image/1600_capsicum_annuum_hot_pepper_group/medium/4783962793_3faa4051c3_b.jpg","small_url":"https://perenual.com/storage/species_image/1600_capsicum_annuum_hot_pepper_group/small/4783962793_3faa4051c3_b.jpg","thumbnail":"https://perenual.com/storage/species_image/1600_capsicum_annuum_hot_pepper_group/thumbnail/4783962793_3faa4051c3_b.jpg"}},{"id":1601,"common_name":"ornamental pepper","scientific_name":["Capsicum annuum 'Onyx Red'"],"other_name":null,"cycle":"Annual","watering":"Average","sunlight":["Full sun"],"default_image":{"image_id":9,"license":5,"license_name":"Attribution-ShareAlike License","license_url":"https://creativecommons.org/licenses/by-sa/2.0/","original_url":"https://perenual.com/storage/species_image/2_abies_alba_pyramidalis/og/49255769768_df55596553_b.jpg","regular_url":"https://perenual.com/storage/species_image/2_abies_alba_pyramidalis/regular/49255769768_df55596553_b.jpg","medium_url":"https://perenual.com/storage/species_image/2_abies_alba_pyramidalis/medium/49255769768_df55596553_b.jpg","small_url":"https://perenual.com/storage/species_image/2_abies_alba_pyramidalis/small/49255769768_df55596553_b.jpg","thumbnail":"https://perenual.com/storage/species_image/2_abies_alba_pyramidalis/thumbnail/49255769768_df55596553_b.jpg"}},{"id":1602,"common_name":"sweet bell pepper","scientific_name":["Capsicum annuum 'Park's Early Thickset'"],"other_name":null,"cycle":"Perennial","watering":"Average","sunlight":["Full sun"],"default_image":{"image_id":9,"license":5,"license_name":"Attribution-ShareAlike License","license_url":"https://creativecommons.org/licenses/by-sa/2.0/","original_url":"https://perenual.com/storage/species_image/2_abies_alba_pyramidalis/og/49255769768_df55596553_b.jpg","regular_url":"https://perenual.com/storage/species_image/2_abies_alba_pyramidalis/regular/49255769768_df55596553_b.jpg","medium_url":"https://perenual.com/storage/species_image/2_abies_alba_pyramidalis/medium/49255769768_df55596553_b.jpg","small_url":"https://perenual.com/storage/species_image/2_abies_alba_pyramidalis/small/49255769768_df55596553_b.jpg","thumbnail":"https://perenual.com/storage/species_image/2_abies_alba_pyramidalis/thumbnail/49255769768_df55596553_b.jpg"}},{"id":1603,"common_name":"ornamental pepper","scientific_name":["Capsicum annuum 'Purple Flash'"],"other_name":null,"cycle":"Annual","watering":"Average","sunlight":["Full sun"],"default_image":{"image_id":9,"license":5,"license_name":"Attribution-ShareAlike License","license_url":"https://creativecommons.org/licenses/by-sa/2.0/","original_url":"https://perenual.com/storage/species_image/2_abies_alba_pyramidalis/og/49255769768_df55596553_b.jpg","regular_url":"https://perenual.com/storage/species_image/2_abies_alba_pyramidalis/regular/49255769768_df55596553_b.jpg","medium_url":"https://perenual.com/storage/species_image/2_abies_alba_pyramidalis/medium/49255769768_df55596553_b.jpg","small_url":"https://perenual.com/storage/species_image/2_abies_alba_pyramidalis/small/49255769768_df55596553_b.jpg","thumbnail":"https://perenual.com/storage/species_image/2_abies_alba_pyramidalis/thumbnail/49255769768_df55596553_b.jpg"}},{"id":1604,"common_name":"pepper","scientific_name":["Capsicum chinense"],"other_name":null,"cycle":"Perennial","watering":"Average","sunlight":["Full sun"],"default_image":{"image_id":3756,"license":5,"license_name":"Attribution-ShareAlike License","license_url":"https://creativecommons.org/licenses/by-sa/2.0/","original_url":"https://perenual.com/storage/species_image/1604_capsicum_chinense/og/23921637290_889e0bb5a1_b.jpg","regular_url":"https://perenual.com/storage/species_image/1604_capsicum_chinense/regular/23921637290_889e0bb5a1_b.jpg","medium_url":"https://perenual.com/storage/species_image/1604_capsicum_chinense/medium/23921637290_889e0bb5a1_b.jpg","small_url":"https://perenual.com/storage/species_image/1604_capsicum_chinense/small/23921637290_889e0bb5a1_b.jpg","thumbnail":"https://perenual.com/storage/species_image/1604_capsicum_chinense/thumbnail/23921637290_889e0bb5a1_b.jpg"}},{"id":1605,"common_name":"habanero pepper","scientific_name":["Capsicum chinense 'Roulette'"],"other_name":null,"cycle":"Perennial","watering":"Average","sunlight":["Full sun"],"default_image":{"image_id":3764,"license":4,"license_name":"Attribution License","license_url":"https://creativecommons.org/licenses/by/2.0/","original_url":"https://perenual.com/storage/species_image/1605_capsicum_chinense_roulette/og/51050016636_03ee376ee8_b.jpg","regular_url":"https://perenual.com/storage/species_image/1605_capsicum_chinense_roulette/regular/51050016636_03ee376ee8_b.jpg","medium_url":"https://perenual.com/storage/species_image/1605_capsicum_chinense_roulette/medium/51050016636_03ee376ee8_b.jpg","small_url":"https://perenual.com/storage/species_image/1605_capsicum_chinense_roulette/small/51050016636_03ee376ee8_b.jpg","thumbnail":"https://perenual.com/storage/species_image/1605_capsicum_chinense_roulette/thumbnail/51050016636_03ee376ee8_b.jpg"}},{"id":1606,"common_name":"Siberian peashrub","scientific_name":["Caragana arborescens"],"other_name":null,"cycle":"Perennial","watering":"Minimum","sunlight":["Full sun"],"default_image":{"image_id":3771,"license":5,"license_name":"Attribution-ShareAlike License","license_url":"https://creativecommons.org/licenses/by-sa/2.0/","original_url":"https://perenual.com/storage/species_image/1606_caragana_arborescens/og/36200941416_a244616720_b.jpg","regular_url":"https://perenual.com/storage/species_image/1606_caragana_arborescens/regular/36200941416_a244616720_b.jpg","medium_url":"https://perenual.com/storage/species_image/1606_caragana_arborescens/medium/36200941416_a244616720_b.jpg","small_url":"https://perenual.com/storage/species_image/1606_caragana_arborescens/small/36200941416_a244616720_b.jpg","thumbnail":"https://perenual.com/storage/species_image/1606_caragana_arborescens/thumbnail/36200941416_a244616720_b.jpg"}},{"id":1607,"common_name":"rose peashrub","scientific_name":["Caragana rosea"],"other_name":null,"cycle":"Perennial","watering":"Minimum","sunlight":["Full sun"],"default_image":{"image_id":21007,"license":5,"license_name":null,"license_url":null,"original_url":"https://perenual.com/storage/species_image/1607_caragana_rosea/og/9216111658_14dbc2a85c_b.jpg","regular_url":"https://perenual.com/storage/species_image/1607_caragana_rosea/regular/9216111658_14dbc2a85c_b.jpg","medium_url":"https://perenual.com/storage/species_image/1607_caragana_rosea/medium/9216111658_14dbc2a85c_b.jpg","small_url":"https://perenual.com/storage/species_image/1607_caragana_rosea/small/9216111658_14dbc2a85c_b.jpg","thumbnail":"https://perenual.com/storage/species_image/1607_caragana_rosea/thumbnail/9216111658_14dbc2a85c_b.jpg"}},{"id":1608,"common_name":"cutleaf toothwort","scientific_name":["Cardamine concatenata"],"other_name":null,"cycle":"Perennial","watering":"Average","sunlight":["Sun"," Partial Shade"],"default_image":{"image_id":3780,"license":4,"license_name":"Attribution License","license_url":"https://creativecommons.org/licenses/by/2.0/","original_url":"https://perenual.com/storage/species_image/1608_cardamine_concatenata/og/51972744827_9ab3bf0ba7_b.jpg","regular_url":"https://perenual.com/storage/species_image/1608_cardamine_concatenata/regular/51972744827_9ab3bf0ba7_b.jpg","medium_url":"https://perenual.com/storage/species_image/1608_cardamine_concatenata/medium/51972744827_9ab3bf0ba7_b.jpg","small_url":"https://perenual.com/storage/species_image/1608_cardamine_concatenata/small/51972744827_9ab3bf0ba7_b.jpg","thumbnail":"https://perenual.com/storage/species_image/1608_cardamine_concatenata/thumbnail/51972744827_9ab3bf0ba7_b.jpg"}},{"id":1609,"common_name":"bitter cress","scientific_name":["Cardamine pratensis"],"other_name":["Cuckoo Bittercress","Lady's Smock","Lady's Smock"],"cycle":"Perennial","watering":"Frequent","sunlight":[],"default_image":{"image_id":3788,"license":6,"license_name":"Attribution-NoDerivs License","license_url":"https://creativecommons.org/licenses/by-nd/2.0/","original_url":"https://perenual.com/storage/species_image/1609_cardamine_pratensis/og/49762212497_7458a6b5bf_b.jpg"}},{"id":1610,"common_name":"trifoliate bittercress","scientific_name":["Cardamine trifolia"],"other_name":null,"cycle":"Perennial","watering":"Average","sunlight":["Part shade","full shade"],"default_image":{"image_id":9,"license":5,"license_name":"Attribution-ShareAlike License","license_url":"https://creativecommons.org/licenses/by-sa/2.0/","original_url":"https://perenual.com/storage/species_image/2_abies_alba_pyramidalis/og/49255769768_df55596553_b.jpg","regular_url":"https://perenual.com/storage/species_image/2_abies_alba_pyramidalis/regular/49255769768_df55596553_b.jpg","medium_url":"https://perenual.com/storage/species_image/2_abies_alba_pyramidalis/medium/49255769768_df55596553_b.jpg","small_url":"https://perenual.com/storage/species_image/2_abies_alba_pyramidalis/small/49255769768_df55596553_b.jpg","thumbnail":"https://perenual.com/storage/species_image/2_abies_alba_pyramidalis/thumbnail/49255769768_df55596553_b.jpg"}},{"id":1611,"common_name":"Cardiandra","scientific_name":["Cardiandra alternifolia"],"other_name":null,"cycle":"Perennial","watering":"Average","sunlight":["Part shade"],"default_image":{"image_id":3794,"license":45,"license_name":"Attribution-ShareAlike 3.0 Unported (CC BY-SA 3.0)","license_url":"https://creativecommons.org/licenses/by-sa/3.0/deed.en","original_url":"https://perenual.com/storage/species_image/1611_cardiandra_alternifolia/og/Cardiandra_alternifolia_kusaazsi03.jpg","regular_url":"https://perenual.com/storage/species_image/1611_cardiandra_alternifolia/regular/Cardiandra_alternifolia_kusaazsi03.jpg","medium_url":"https://perenual.com/storage/species_image/1611_cardiandra_alternifolia/medium/Cardiandra_alternifolia_kusaazsi03.jpg","small_url":"https://perenual.com/storage/species_image/1611_cardiandra_alternifolia/small/Cardiandra_alternifolia_kusaazsi03.jpg","thumbnail":"https://perenual.com/storage/species_image/1611_cardiandra_alternifolia/thumbnail/Cardiandra_alternifolia_kusaazsi03.jpg"}},{"id":1612,"common_name":"giant lily","scientific_name":["Cardiocrinum giganteum"],"other_name":null,"cycle":"Perennial","watering":"Average","sunlight":["Part shade"],"default_image":{"image_id":3796,"license":5,"license_name":"Attribution-ShareAlike License","license_url":"https://creativecommons.org/licenses/by-sa/2.0/","original_url":"https://perenual.com/storage/species_image/1612_cardiocrinum_giganteum/og/9096639732_43a0cdfbd4_b.jpg","regular_url":"https://perenual.com/storage/species_image/1612_cardiocrinum_giganteum/regular/9096639732_43a0cdfbd4_b.jpg","medium_url":"https://perenual.com/storage/species_image/1612_cardiocrinum_giganteum/medium/9096639732_43a0cdfbd4_b.jpg","small_url":"https://perenual.com/storage/species_image/1612_cardiocrinum_giganteum/small/9096639732_43a0cdfbd4_b.jpg","thumbnail":"https://perenual.com/storage/species_image/1612_cardiocrinum_giganteum/thumbnail/9096639732_43a0cdfbd4_b.jpg"}},{"id":1613,"common_name":"giant lily","scientific_name":["Cardiocrinum giganteum var. yunnanense"],"other_name":null,"cycle":"Perennial","watering":"Average","sunlight":["Part shade"],"default_image":{"image_id":3798,"license":4,"license_name":"Attribution License","license_url":"https://creativecommons.org/licenses/by/2.0/","original_url":"https://perenual.com/storage/species_image/2211_crinum_group/og/51498623574_67c4f06230_b.jpg","regular_url":"https://perenual.com/storage/species_image/2211_crinum_group/regular/51498623574_67c4f06230_b.jpg","medium_url":"https://perenual.com/storage/species_image/2211_crinum_group/medium/51498623574_67c4f06230_b.jpg","small_url":"https://perenual.com/storage/species_image/2211_crinum_group/small/51498623574_67c4f06230_b.jpg","thumbnail":"https://perenual.com/storage/species_image/2211_crinum_group/thumbnail/51498623574_67c4f06230_b.jpg"}},{"id":1614,"common_name":"broadwing sedge","scientific_name":["Carex alata"],"other_name":["Broadwing Sedge"],"cycle":"Perennial","watering":"Frequent","sunlight":["Sun"," Partial Shade"],"default_image":{"image_id":9,"license":5,"license_name":"Attribution-ShareAlike License","license_url":"https://creativecommons.org/licenses/by-sa/2.0/","original_url":"https://perenual.com/storage/species_image/2_abies_alba_pyramidalis/og/49255769768_df55596553_b.jpg","regular_url":"https://perenual.com/storage/species_image/2_abies_alba_pyramidalis/regular/49255769768_df55596553_b.jpg","medium_url":"https://perenual.com/storage/species_image/2_abies_alba_pyramidalis/medium/49255769768_df55596553_b.jpg","small_url":"https://perenual.com/storage/species_image/2_abies_alba_pyramidalis/small/49255769768_df55596553_b.jpg","thumbnail":"https://perenual.com/storage/species_image/2_abies_alba_pyramidalis/thumbnail/49255769768_df55596553_b.jpg"}},{"id":1615,"common_name":"white-tinged sedge","scientific_name":["Carex albicans"],"other_name":["White Tinge Sedge"],"cycle":"Perennial","watering":"Average","sunlight":["Sun"," Partial Shade"],"default_image":{"image_id":3802,"license":4,"license_name":"Attribution License","license_url":"https://creativecommons.org/licenses/by/2.0/","original_url":"https://perenual.com/storage/species_image/1615_carex_albicans/og/41217983275_125d4e9e3d_b.jpg","regular_url":"https://perenual.com/storage/species_image/1615_carex_albicans/regular/41217983275_125d4e9e3d_b.jpg","medium_url":"https://perenual.com/storage/species_image/1615_carex_albicans/medium/41217983275_125d4e9e3d_b.jpg","small_url":"https://perenual.com/storage/species_image/1615_carex_albicans/small/41217983275_125d4e9e3d_b.jpg","thumbnail":"https://perenual.com/storage/species_image/1615_carex_albicans/thumbnail/41217983275_125d4e9e3d_b.jpg"}},{"id":1616,"common_name":"sedge","scientific_name":["Carex annectens"],"other_name":["Yellow Fruit Sedge"],"cycle":"Perennial","watering":"Frequent","sunlight":["Sun"],"default_image":{"image_id":9,"license":5,"license_name":"Attribution-ShareAlike License","license_url":"https://creativecommons.org/licenses/by-sa/2.0/","original_url":"https://perenual.com/storage/species_image/2_abies_alba_pyramidalis/og/49255769768_df55596553_b.jpg","regular_url":"https://perenual.com/storage/species_image/2_abies_alba_pyramidalis/regular/49255769768_df55596553_b.jpg","medium_url":"https://perenual.com/storage/species_image/2_abies_alba_pyramidalis/medium/49255769768_df55596553_b.jpg","small_url":"https://perenual.com/storage/species_image/2_abies_alba_pyramidalis/small/49255769768_df55596553_b.jpg","thumbnail":"https://perenual.com/storage/species_image/2_abies_alba_pyramidalis/thumbnail/49255769768_df55596553_b.jpg"}},{"id":1617,"common_name":"prairie sedge","scientific_name":["Carex bicknellii"],"other_name":["Copper Shouldered Oval Sedge"],"cycle":"Perennial","watering":"Average","sunlight":["Sun"," Partial Shade"," Shade"],"default_image":{"image_id":3808,"license":5,"license_name":"Attribution-ShareAlike License","license_url":"https://creativecommons.org/licenses/by-sa/2.0/","original_url":"https://perenual.com/storage/species_image/1617_carex_bicknellii/og/6467477919_0cd519e1e0_b.jpg","regular_url":"https://perenual.com/storage/species_image/1617_carex_bicknellii/regular/6467477919_0cd519e1e0_b.jpg","medium_url":"https://perenual.com/storage/species_image/1617_carex_bicknellii/medium/6467477919_0cd519e1e0_b.jpg","small_url":"https://perenual.com/storage/species_image/1617_carex_bicknellii/small/6467477919_0cd519e1e0_b.jpg","thumbnail":"https://perenual.com/storage/species_image/1617_carex_bicknellii/thumbnail/6467477919_0cd519e1e0_b.jpg"}},{"id":1618,"common_name":"brome-like sedge","scientific_name":["Carex bromoides"],"other_name":null,"cycle":"Perennial","watering":"Frequent","sunlight":["Part shade"],"default_image":{"image_id":9,"license":5,"license_name":"Attribution-ShareAlike License","license_url":"https://creativecommons.org/licenses/by-sa/2.0/","original_url":"https://perenual.com/storage/species_image/2_abies_alba_pyramidalis/og/49255769768_df55596553_b.jpg","regular_url":"https://perenual.com/storage/species_image/2_abies_alba_pyramidalis/regular/49255769768_df55596553_b.jpg","medium_url":"https://perenual.com/storage/species_image/2_abies_alba_pyramidalis/medium/49255769768_df55596553_b.jpg","small_url":"https://perenual.com/storage/species_image/2_abies_alba_pyramidalis/small/49255769768_df55596553_b.jpg","thumbnail":"https://perenual.com/storage/species_image/2_abies_alba_pyramidalis/thumbnail/49255769768_df55596553_b.jpg"}},{"id":1619,"common_name":"leatherleaf sedge","scientific_name":["Carex buchananii"],"other_name":null,"cycle":"Perennial","watering":"Frequent","sunlight":["Full sun","part shade"],"default_image":{"image_id":3813,"license":5,"license_name":"Attribution-ShareAlike License","license_url":"https://creativecommons.org/licenses/by-sa/2.0/","original_url":"https://perenual.com/storage/species_image/1619_carex_buchananii/og/369731358_7bc6e3f67d_b.jpg","regular_url":"https://perenual.com/storage/species_image/1619_carex_buchananii/regular/369731358_7bc6e3f67d_b.jpg","medium_url":"https://perenual.com/storage/species_image/1619_carex_buchananii/medium/369731358_7bc6e3f67d_b.jpg","small_url":"https://perenual.com/storage/species_image/1619_carex_buchananii/small/369731358_7bc6e3f67d_b.jpg","thumbnail":"https://perenual.com/storage/species_image/1619_carex_buchananii/thumbnail/369731358_7bc6e3f67d_b.jpg"}},{"id":1620,"common_name":"leatherleaf sedge","scientific_name":["Carex buchananii 'Red Rooster'"],"other_name":null,"cycle":"Perennial","watering":"Frequent","sunlight":["Full sun","part shade"],"default_image":{"image_id":3816,"license":4,"license_name":"Attribution License","license_url":"https://creativecommons.org/licenses/by/2.0/","original_url":"https://perenual.com/storage/species_image/1620_carex_buchananii_red_rooster/og/25027206262_b6361b5dc9_b.jpg","regular_url":"https://perenual.com/storage/species_image/1620_carex_buchananii_red_rooster/regular/25027206262_b6361b5dc9_b.jpg","medium_url":"https://perenual.com/storage/species_image/1620_carex_buchananii_red_rooster/medium/25027206262_b6361b5dc9_b.jpg","small_url":"https://perenual.com/storage/species_image/1620_carex_buchananii_red_rooster/small/25027206262_b6361b5dc9_b.jpg","thumbnail":"https://perenual.com/storage/species_image/1620_carex_buchananii_red_rooster/thumbnail/25027206262_b6361b5dc9_b.jpg"}}],"to":1620,"per_page":30,"current_page":54,"from":1591,"last_page":200,"total":6000}