{"data":[{"id":5101,"common_name":"sweet bay magnolia","scientific_name":["Magnolia virginiana 'Jim Wilson' MOONGLOW"],"other_name":null,"cycle":"Perennial","watering":"Frequent","sunlight":["Full sun","part shade"],"default_image":{"image_id":9,"license":5,"license_name":"Attribution-ShareAlike License","license_url":"https://creativecommons.org/licenses/by-sa/2.0/","original_url":"https://perenual.com/storage/species_image/2_abies_alba_pyramidalis/og/49255769768_df55596553_b.jpg","regular_url":"https://perenual.com/storage/species_image/2_abies_alba_pyramidalis/regular/49255769768_df55596553_b.jpg","medium_url":"https://perenual.com/storage/species_image/2_abies_alba_pyramidalis/medium/49255769768_df55596553_b.jpg","small_url":"https://perenual.com/storage/species_image/2_abies_alba_pyramidalis/small/49255769768_df55596553_b.jpg","thumbnail":"https://perenual.com/storage/species_image/2_abies_alba_pyramidalis/thumbnail/49255769768_df55596553_b.jpg"}},{"id":5102,"common_name":"sweet bay magnolia","scientific_name":["Magnolia virginiana 'JN8' EMERALD TOWER"],"other_name":null,"cycle":"Perennial","watering":"Frequent","sunlight":["Full sun","part shade"],"default_image":{"image_id":9,"license":5,"license_name":"Attribution-ShareAlike License","license_url":"https://creativecommons.org/licenses/by-sa/2.0/","original_url":"https://perenual.com/storage/species_image/2_abies_alba_pyramidalis/og/49255769768_df55596553_b.jpg","regular_url":"https://perenual.com/storage/species_image/2_abies_alba_pyramidalis/regular/49255769768_df55596553_b.jpg","medium_url":"https://perenual.com/storage/species_image/2_abies_alba_pyramidalis/medium/49255769768_df55596553_b.jpg","small_url":"https://perenual.com/storage/species_image/2_abies_alba_pyramidalis/small/49255769768_df55596553_b.jpg","thumbnail":"https://perenual.com/storage/species_image/2_abies_alba_pyramidalis/thumbnail/49255769768_df55596553_b.jpg"}},{"id":5103,"common_name":"swamp magnolia","scientific_name":["Magnolia virginiana var. australis"],"other_name":null,"cycle":"Perennial","watering":"Frequent","sunlight":["Full sun","part shade"],"default_image":{"image_id":10908,"license":5,"license_name":"Attribution-ShareAlike License","license_url":"https://creativecommons.org/licenses/by-sa/2.0/","original_url":"https://perenual.com/storage/species_image/5103_magnolia_virginiana_var_australis/og/36279091321_fa5c82d34a_b.jpg","regular_url":"https://perenual.com/storage/species_image/5103_magnolia_virginiana_var_australis/regular/36279091321_fa5c82d34a_b.jpg","medium_url":"https://perenual.com/storage/species_image/5103_magnolia_virginiana_var_australis/medium/36279091321_fa5c82d34a_b.jpg","small_url":"https://perenual.com/storage/species_image/5103_magnolia_virginiana_var_australis/small/36279091321_fa5c82d34a_b.jpg","thumbnail":"https://perenual.com/storage/species_image/5103_magnolia_virginiana_var_australis/thumbnail/36279091321_fa5c82d34a_b.jpg"}},{"id":5104,"common_name":"magnolia","scientific_name":["Magnolia wieseneri"],"other_name":null,"cycle":"Perennial","watering":"Average","sunlight":["Full sun","part shade"],"default_image":{"image_id":10909,"license":4,"license_name":"Attribution License","license_url":"https://creativecommons.org/licenses/by/2.0/","original_url":"https://perenual.com/storage/species_image/5104_magnolia_wieseneri/og/5868836476_89751532cc_b.jpg","regular_url":"https://perenual.com/storage/species_image/5104_magnolia_wieseneri/regular/5868836476_89751532cc_b.jpg","medium_url":"https://perenual.com/storage/species_image/5104_magnolia_wieseneri/medium/5868836476_89751532cc_b.jpg","small_url":"https://perenual.com/storage/species_image/5104_magnolia_wieseneri/small/5868836476_89751532cc_b.jpg","thumbnail":"https://perenual.com/storage/species_image/5104_magnolia_wieseneri/thumbnail/5868836476_89751532cc_b.jpg"}},{"id":5105,"common_name":"magnolia","scientific_name":["Magnolia wilsonii"],"other_name":null,"cycle":"Perennial","watering":"Average","sunlight":["Full sun","part shade"],"default_image":{"image_id":10910,"license":4,"license_name":"Attribution License","license_url":"https://creativecommons.org/licenses/by/2.0/","original_url":"https://perenual.com/storage/species_image/5105_magnolia_wilsonii/og/5803654746_1ab84274f1_b.jpg","regular_url":"https://perenual.com/storage/species_image/5105_magnolia_wilsonii/regular/5803654746_1ab84274f1_b.jpg","medium_url":"https://perenual.com/storage/species_image/5105_magnolia_wilsonii/medium/5803654746_1ab84274f1_b.jpg","small_url":"https://perenual.com/storage/species_image/5105_magnolia_wilsonii/small/5803654746_1ab84274f1_b.jpg","thumbnail":"https://perenual.com/storage/species_image/5105_magnolia_wilsonii/thumbnail/5803654746_1ab84274f1_b.jpg"}},{"id":5106,"common_name":"magnolia","scientific_name":["Magnolia 'Yellow Fever'"],"other_name":null,"cycle":"Perennial","watering":"Average","sunlight":["Full sun","part shade"],"default_image":{"image_id":9,"license":5,"license_name":"Attribution-ShareAlike License","license_url":"https://creativecommons.org/licenses/by-sa/2.0/","original_url":"https://perenual.com/storage/species_image/2_abies_alba_pyramidalis/og/49255769768_df55596553_b.jpg","regular_url":"https://perenual.com/storage/species_image/2_abies_alba_pyramidalis/regular/49255769768_df55596553_b.jpg","medium_url":"https://perenual.com/storage/species_image/2_abies_alba_pyramidalis/medium/49255769768_df55596553_b.jpg","small_url":"https://perenual.com/storage/species_image/2_abies_alba_pyramidalis/small/49255769768_df55596553_b.jpg","thumbnail":"https://perenual.com/storage/species_image/2_abies_alba_pyramidalis/thumbnail/49255769768_df55596553_b.jpg"}},{"id":5107,"common_name":"magnolia","scientific_name":["Magnolia 'Yellow Lantern'"],"other_name":null,"cycle":"Perennial","watering":"Average","sunlight":["Full sun","part shade"],"default_image":{"image_id":9,"license":5,"license_name":"Attribution-ShareAlike License","license_url":"https://creativecommons.org/licenses/by-sa/2.0/","original_url":"https://perenual.com/storage/species_image/2_abies_alba_pyramidalis/og/49255769768_df55596553_b.jpg","regular_url":"https://perenual.com/storage/species_image/2_abies_alba_pyramidalis/regular/49255769768_df55596553_b.jpg","medium_url":"https://perenual.com/storage/species_image/2_abies_alba_pyramidalis/medium/49255769768_df55596553_b.jpg","small_url":"https://perenual.com/storage/species_image/2_abies_alba_pyramidalis/small/49255769768_df55596553_b.jpg","thumbnail":"https://perenual.com/storage/species_image/2_abies_alba_pyramidalis/thumbnail/49255769768_df55596553_b.jpg"}},{"id":5108,"common_name":"leatherleaf mahonia","scientific_name":["Mahonia bealei"],"other_name":null,"cycle":"Perennial","watering":"Average","sunlight":["Part shade","full shade"],"default_image":{"image_id":10915,"license":4,"license_name":"Attribution License","license_url":"https://creativecommons.org/licenses/by/2.0/","original_url":"https://perenual.com/storage/species_image/5108_mahonia_bealei/og/7213200872_b586477681_b.jpg","regular_url":"https://perenual.com/storage/species_image/5108_mahonia_bealei/regular/7213200872_b586477681_b.jpg","medium_url":"https://perenual.com/storage/species_image/5108_mahonia_bealei/medium/7213200872_b586477681_b.jpg","small_url":"https://perenual.com/storage/species_image/5108_mahonia_bealei/small/7213200872_b586477681_b.jpg","thumbnail":"https://perenual.com/storage/species_image/5108_mahonia_bealei/thumbnail/7213200872_b586477681_b.jpg"}},{"id":5109,"common_name":"Oregon grape","scientific_name":["Mahonia gracilipes"],"other_name":null,"cycle":"Perennial","watering":"Average","sunlight":["Part shade","full shade"],"default_image":{"image_id":10916,"license":5,"license_name":"Attribution-ShareAlike License","license_url":"https://creativecommons.org/licenses/by-sa/2.0/","original_url":"https://perenual.com/storage/species_image/5109_mahonia_gracilipes/og/6334981408_381b6275e4_b.jpg","regular_url":"https://perenual.com/storage/species_image/5109_mahonia_gracilipes/regular/6334981408_381b6275e4_b.jpg","medium_url":"https://perenual.com/storage/species_image/5109_mahonia_gracilipes/medium/6334981408_381b6275e4_b.jpg","small_url":"https://perenual.com/storage/species_image/5109_mahonia_gracilipes/small/6334981408_381b6275e4_b.jpg","thumbnail":"https://perenual.com/storage/species_image/5109_mahonia_gracilipes/thumbnail/6334981408_381b6275e4_b.jpg"}},{"id":5110,"common_name":"Oregon grape-holly","scientific_name":["Mahonia japonica"],"other_name":null,"cycle":"Perennial","watering":"Minimum","sunlight":["Part shade","full shade"],"default_image":{"image_id":10918,"license":5,"license_name":"Attribution-ShareAlike License","license_url":"https://creativecommons.org/licenses/by-sa/2.0/","original_url":"https://perenual.com/storage/species_image/5110_mahonia_japonica/og/51002609875_1e34f0bc8b_b.jpg","regular_url":"https://perenual.com/storage/species_image/5110_mahonia_japonica/regular/51002609875_1e34f0bc8b_b.jpg","medium_url":"https://perenual.com/storage/species_image/5110_mahonia_japonica/medium/51002609875_1e34f0bc8b_b.jpg","small_url":"https://perenual.com/storage/species_image/5110_mahonia_japonica/small/51002609875_1e34f0bc8b_b.jpg","thumbnail":"https://perenual.com/storage/species_image/5110_mahonia_japonica/thumbnail/51002609875_1e34f0bc8b_b.jpg"}},{"id":5111,"common_name":"creeping mahonia","scientific_name":["Mahonia repens"],"other_name":null,"cycle":"Perennial","watering":"Minimum","sunlight":["Partial sun"],"default_image":{"image_id":10921,"license":5,"license_name":"Attribution-ShareAlike License","license_url":"https://creativecommons.org/licenses/by-sa/2.0/","original_url":"https://perenual.com/storage/species_image/5111_mahonia_repens/og/3626416094_f656a16e7c_b.jpg","regular_url":"https://perenual.com/storage/species_image/5111_mahonia_repens/regular/3626416094_f656a16e7c_b.jpg","medium_url":"https://perenual.com/storage/species_image/5111_mahonia_repens/medium/3626416094_f656a16e7c_b.jpg","small_url":"https://perenual.com/storage/species_image/5111_mahonia_repens/small/3626416094_f656a16e7c_b.jpg","thumbnail":"https://perenual.com/storage/species_image/5111_mahonia_repens/thumbnail/3626416094_f656a16e7c_b.jpg"}},{"id":5112,"common_name":"mahonia","scientific_name":["Mahonia trifoliolata"],"other_name":null,"cycle":"Perennial","watering":"Minimum","sunlight":["Full sun","part shade"],"default_image":{"image_id":9,"license":5,"license_name":"Attribution-ShareAlike License","license_url":"https://creativecommons.org/licenses/by-sa/2.0/","original_url":"https://perenual.com/storage/species_image/2_abies_alba_pyramidalis/og/49255769768_df55596553_b.jpg","regular_url":"https://perenual.com/storage/species_image/2_abies_alba_pyramidalis/regular/49255769768_df55596553_b.jpg","medium_url":"https://perenual.com/storage/species_image/2_abies_alba_pyramidalis/medium/49255769768_df55596553_b.jpg","small_url":"https://perenual.com/storage/species_image/2_abies_alba_pyramidalis/small/49255769768_df55596553_b.jpg","thumbnail":"https://perenual.com/storage/species_image/2_abies_alba_pyramidalis/thumbnail/49255769768_df55596553_b.jpg"}},{"id":5113,"common_name":"false lily of the valley","scientific_name":["Maianthemum bifolium"],"other_name":null,"cycle":"Perennial","watering":"Average","sunlight":["Part shade"],"default_image":{"image_id":9,"license":5,"license_name":"Attribution-ShareAlike License","license_url":"https://creativecommons.org/licenses/by-sa/2.0/","original_url":"https://perenual.com/storage/species_image/2_abies_alba_pyramidalis/og/49255769768_df55596553_b.jpg","regular_url":"https://perenual.com/storage/species_image/2_abies_alba_pyramidalis/regular/49255769768_df55596553_b.jpg","medium_url":"https://perenual.com/storage/species_image/2_abies_alba_pyramidalis/medium/49255769768_df55596553_b.jpg","small_url":"https://perenual.com/storage/species_image/2_abies_alba_pyramidalis/small/49255769768_df55596553_b.jpg","thumbnail":"https://perenual.com/storage/species_image/2_abies_alba_pyramidalis/thumbnail/49255769768_df55596553_b.jpg"}},{"id":5114,"common_name":"false Solomon's seal","scientific_name":["Maianthemum henryi"],"other_name":null,"cycle":"Perennial","watering":"Average","sunlight":["Part shade"],"default_image":{"image_id":9,"license":5,"license_name":"Attribution-ShareAlike License","license_url":"https://creativecommons.org/licenses/by-sa/2.0/","original_url":"https://perenual.com/storage/species_image/2_abies_alba_pyramidalis/og/49255769768_df55596553_b.jpg","regular_url":"https://perenual.com/storage/species_image/2_abies_alba_pyramidalis/regular/49255769768_df55596553_b.jpg","medium_url":"https://perenual.com/storage/species_image/2_abies_alba_pyramidalis/medium/49255769768_df55596553_b.jpg","small_url":"https://perenual.com/storage/species_image/2_abies_alba_pyramidalis/small/49255769768_df55596553_b.jpg","thumbnail":"https://perenual.com/storage/species_image/2_abies_alba_pyramidalis/thumbnail/49255769768_df55596553_b.jpg"}},{"id":5115,"common_name":"false Solomon's seal","scientific_name":["Maianthemum racemosum"],"other_name":null,"cycle":"Perennial","watering":"Average","sunlight":["Part shade"],"default_image":{"image_id":10928,"license":6,"license_name":"Attribution-NoDerivs License","license_url":"https://creativecommons.org/licenses/by-nd/2.0/","original_url":"https://perenual.com/storage/species_image/5115_maianthemum_racemosum/og/52038950429_8ac322189f_b.jpg"}},{"id":5120,"common_name":"flowering crabapple","scientific_name":["Malus 'Adams'"],"other_name":null,"cycle":"Perennial","watering":"Average","sunlight":["Full sun"],"default_image":{"image_id":9,"license":5,"license_name":"Attribution-ShareAlike License","license_url":"https://creativecommons.org/licenses/by-sa/2.0/","original_url":"https://perenual.com/storage/species_image/2_abies_alba_pyramidalis/og/49255769768_df55596553_b.jpg","regular_url":"https://perenual.com/storage/species_image/2_abies_alba_pyramidalis/regular/49255769768_df55596553_b.jpg","medium_url":"https://perenual.com/storage/species_image/2_abies_alba_pyramidalis/medium/49255769768_df55596553_b.jpg","small_url":"https://perenual.com/storage/species_image/2_abies_alba_pyramidalis/small/49255769768_df55596553_b.jpg","thumbnail":"https://perenual.com/storage/species_image/2_abies_alba_pyramidalis/thumbnail/49255769768_df55596553_b.jpg"}},{"id":5121,"common_name":"flowering crabapple","scientific_name":["Malus 'Amberina'"],"other_name":null,"cycle":"Perennial","watering":"Average","sunlight":["Full sun"],"default_image":{"image_id":10945,"license":5,"license_name":"Attribution-ShareAlike License","license_url":"https://creativecommons.org/licenses/by-sa/2.0/","original_url":"https://perenual.com/storage/species_image/5121_malus_amberina/og/51210055525_f76c03cf36_b.jpg","regular_url":"https://perenual.com/storage/species_image/5121_malus_amberina/regular/51210055525_f76c03cf36_b.jpg","medium_url":"https://perenual.com/storage/species_image/5121_malus_amberina/medium/51210055525_f76c03cf36_b.jpg","small_url":"https://perenual.com/storage/species_image/5121_malus_amberina/small/51210055525_f76c03cf36_b.jpg","thumbnail":"https://perenual.com/storage/species_image/5121_malus_amberina/thumbnail/51210055525_f76c03cf36_b.jpg"}},{"id":5122,"common_name":"crabapple","scientific_name":["Malus 'Amerspirzam' AMERICAN SPIRIT"],"other_name":null,"cycle":"Perennial","watering":"Average","sunlight":["Full sun"],"default_image":{"image_id":10948,"license":4,"license_name":"Attribution License","license_url":"https://creativecommons.org/licenses/by/2.0/","original_url":"https://perenual.com/storage/species_image/5122_malus_amerspirzam_american_spirit/og/52432875923_f43b842518_b.jpg","regular_url":"https://perenual.com/storage/species_image/5122_malus_amerspirzam_american_spirit/regular/52432875923_f43b842518_b.jpg","medium_url":"https://perenual.com/storage/species_image/5122_malus_amerspirzam_american_spirit/medium/52432875923_f43b842518_b.jpg","small_url":"https://perenual.com/storage/species_image/5122_malus_amerspirzam_american_spirit/small/52432875923_f43b842518_b.jpg","thumbnail":"https://perenual.com/storage/species_image/5122_malus_amerspirzam_american_spirit/thumbnail/52432875923_f43b842518_b.jpg"}},{"id":5123,"common_name":"apple","scientific_name":["Malus baccata"],"other_name":null,"cycle":"Perennial","watering":"Average","sunlight":["Full sun"],"default_image":{"image_id":9,"license":5,"license_name":"Attribution-ShareAlike License","license_url":"https://creativecommons.org/licenses/by-sa/2.0/","original_url":"https://perenual.com/storage/species_image/2_abies_alba_pyramidalis/og/49255769768_df55596553_b.jpg","regular_url":"https://perenual.com/storage/species_image/2_abies_alba_pyramidalis/regular/49255769768_df55596553_b.jpg","medium_url":"https://perenual.com/storage/species_image/2_abies_alba_pyramidalis/medium/49255769768_df55596553_b.jpg","small_url":"https://perenual.com/storage/species_image/2_abies_alba_pyramidalis/small/49255769768_df55596553_b.jpg","thumbnail":"https://perenual.com/storage/species_image/2_abies_alba_pyramidalis/thumbnail/49255769768_df55596553_b.jpg"}},{"id":5124,"common_name":"Siberian crabapple","scientific_name":["Malus baccata 'Halward'"],"other_name":null,"cycle":"Perennial","watering":"Average","sunlight":["Full sun"],"default_image":{"image_id":10953,"license":4,"license_name":"Attribution License","license_url":"https://creativecommons.org/licenses/by/2.0/","original_url":"https://perenual.com/storage/species_image/5124_malus_baccata_halward/og/6090648653_b01f9b6626_b.jpg","regular_url":"https://perenual.com/storage/species_image/5124_malus_baccata_halward/regular/6090648653_b01f9b6626_b.jpg","medium_url":"https://perenual.com/storage/species_image/5124_malus_baccata_halward/medium/6090648653_b01f9b6626_b.jpg","small_url":"https://perenual.com/storage/species_image/5124_malus_baccata_halward/small/6090648653_b01f9b6626_b.jpg","thumbnail":"https://perenual.com/storage/species_image/5124_malus_baccata_halward/thumbnail/6090648653_b01f9b6626_b.jpg"}},{"id":5116,"common_name":"false Solomon's seal","scientific_name":["Maianthemum stellatum"],"other_name":null,"cycle":"Perennial","watering":"Average","sunlight":["Part shade"],"default_image":{"image_id":10929,"license":4,"license_name":"Attribution License","license_url":"https://creativecommons.org/licenses/by/2.0/","original_url":"https://perenual.com/storage/species_image/5116_maianthemum_stellatum/og/31355934433_33a2073048_b.jpg","regular_url":"https://perenual.com/storage/species_image/5116_maianthemum_stellatum/regular/31355934433_33a2073048_b.jpg","medium_url":"https://perenual.com/storage/species_image/5116_maianthemum_stellatum/medium/31355934433_33a2073048_b.jpg","small_url":"https://perenual.com/storage/species_image/5116_maianthemum_stellatum/small/31355934433_33a2073048_b.jpg","thumbnail":"https://perenual.com/storage/species_image/5116_maianthemum_stellatum/thumbnail/31355934433_33a2073048_b.jpg"}},{"id":5117,"common_name":"mallotus","scientific_name":["Mallotus japonicus"],"other_name":null,"cycle":"Perennial","watering":"Average","sunlight":["Full sun","part shade"],"default_image":{"image_id":10932,"license":5,"license_name":"Attribution-ShareAlike License","license_url":"https://creativecommons.org/licenses/by-sa/2.0/","original_url":"https://perenual.com/storage/species_image/5117_mallotus_japonicus/og/19574015503_89756fd9cd_b.jpg","regular_url":"https://perenual.com/storage/species_image/5117_mallotus_japonicus/regular/19574015503_89756fd9cd_b.jpg","medium_url":"https://perenual.com/storage/species_image/5117_mallotus_japonicus/medium/19574015503_89756fd9cd_b.jpg","small_url":"https://perenual.com/storage/species_image/5117_mallotus_japonicus/small/19574015503_89756fd9cd_b.jpg","thumbnail":"https://perenual.com/storage/species_image/5117_mallotus_japonicus/thumbnail/19574015503_89756fd9cd_b.jpg"}},{"id":5118,"common_name":"Singapore holly","scientific_name":["Malpighia coccigera"],"other_name":null,"cycle":"Perennial","watering":"Average","sunlight":["Full sun","part shade"],"default_image":{"image_id":9,"license":5,"license_name":"Attribution-ShareAlike License","license_url":"https://creativecommons.org/licenses/by-sa/2.0/","original_url":"https://perenual.com/storage/species_image/2_abies_alba_pyramidalis/og/49255769768_df55596553_b.jpg","regular_url":"https://perenual.com/storage/species_image/2_abies_alba_pyramidalis/regular/49255769768_df55596553_b.jpg","medium_url":"https://perenual.com/storage/species_image/2_abies_alba_pyramidalis/medium/49255769768_df55596553_b.jpg","small_url":"https://perenual.com/storage/species_image/2_abies_alba_pyramidalis/small/49255769768_df55596553_b.jpg","thumbnail":"https://perenual.com/storage/species_image/2_abies_alba_pyramidalis/thumbnail/49255769768_df55596553_b.jpg"}},{"id":5119,"common_name":"flowering crabapple","scientific_name":["Malus (5-28)"],"other_name":null,"cycle":"Perennial","watering":"Average","sunlight":["Full sun"],"default_image":{"image_id":10937,"license":5,"license_name":"Attribution-ShareAlike License","license_url":"https://creativecommons.org/licenses/by-sa/2.0/","original_url":"https://perenual.com/storage/species_image/5119_malus_5-28/og/52350548073_df08508a5d_b.jpg","regular_url":"https://perenual.com/storage/species_image/5119_malus_5-28/regular/52350548073_df08508a5d_b.jpg","medium_url":"https://perenual.com/storage/species_image/5119_malus_5-28/medium/52350548073_df08508a5d_b.jpg","small_url":"https://perenual.com/storage/species_image/5119_malus_5-28/small/52350548073_df08508a5d_b.jpg","thumbnail":"https://perenual.com/storage/species_image/5119_malus_5-28/thumbnail/52350548073_df08508a5d_b.jpg"}},{"id":5125,"common_name":"flowering crabapple","scientific_name":["Malus 'Beverly'"],"other_name":null,"cycle":"Annual","watering":"Average","sunlight":["Full sun"],"default_image":{"image_id":9,"license":5,"license_name":"Attribution-ShareAlike License","license_url":"https://creativecommons.org/licenses/by-sa/2.0/","original_url":"https://perenual.com/storage/species_image/2_abies_alba_pyramidalis/og/49255769768_df55596553_b.jpg","regular_url":"https://perenual.com/storage/species_image/2_abies_alba_pyramidalis/regular/49255769768_df55596553_b.jpg","medium_url":"https://perenual.com/storage/species_image/2_abies_alba_pyramidalis/medium/49255769768_df55596553_b.jpg","small_url":"https://perenual.com/storage/species_image/2_abies_alba_pyramidalis/small/49255769768_df55596553_b.jpg","thumbnail":"https://perenual.com/storage/species_image/2_abies_alba_pyramidalis/thumbnail/49255769768_df55596553_b.jpg"}},{"id":5126,"common_name":"flowering crabapple","scientific_name":["Malus 'Branzam' BRANDYWINE"],"other_name":null,"cycle":"Perennial","watering":"Average","sunlight":["Full sun"],"default_image":{"image_id":10956,"license":5,"license_name":"Attribution-ShareAlike License","license_url":"https://creativecommons.org/licenses/by-sa/2.0/","original_url":"https://perenual.com/storage/species_image/5126_malus_branzam_brandywine/og/4170519422_aec13aaa0f_b.jpg","regular_url":"https://perenual.com/storage/species_image/5126_malus_branzam_brandywine/regular/4170519422_aec13aaa0f_b.jpg","medium_url":"https://perenual.com/storage/species_image/5126_malus_branzam_brandywine/medium/4170519422_aec13aaa0f_b.jpg","small_url":"https://perenual.com/storage/species_image/5126_malus_branzam_brandywine/small/4170519422_aec13aaa0f_b.jpg","thumbnail":"https://perenual.com/storage/species_image/5126_malus_branzam_brandywine/thumbnail/4170519422_aec13aaa0f_b.jpg"}},{"id":5127,"common_name":"crabapple","scientific_name":["Malus 'Callaway'"],"other_name":null,"cycle":"Perennial","watering":"Average","sunlight":["Full sun"],"default_image":{"image_id":9,"license":5,"license_name":"Attribution-ShareAlike License","license_url":"https://creativecommons.org/licenses/by-sa/2.0/","original_url":"https://perenual.com/storage/species_image/2_abies_alba_pyramidalis/og/49255769768_df55596553_b.jpg","regular_url":"https://perenual.com/storage/species_image/2_abies_alba_pyramidalis/regular/49255769768_df55596553_b.jpg","medium_url":"https://perenual.com/storage/species_image/2_abies_alba_pyramidalis/medium/49255769768_df55596553_b.jpg","small_url":"https://perenual.com/storage/species_image/2_abies_alba_pyramidalis/small/49255769768_df55596553_b.jpg","thumbnail":"https://perenual.com/storage/species_image/2_abies_alba_pyramidalis/thumbnail/49255769768_df55596553_b.jpg"}},{"id":5128,"common_name":"flowering crabapple","scientific_name":["Malus 'Camzam' CAMELOT"],"other_name":null,"cycle":"Perennial","watering":"Average","sunlight":["Full sun"],"default_image":{"image_id":9,"license":5,"license_name":"Attribution-ShareAlike License","license_url":"https://creativecommons.org/licenses/by-sa/2.0/","original_url":"https://perenual.com/storage/species_image/2_abies_alba_pyramidalis/og/49255769768_df55596553_b.jpg","regular_url":"https://perenual.com/storage/species_image/2_abies_alba_pyramidalis/regular/49255769768_df55596553_b.jpg","medium_url":"https://perenual.com/storage/species_image/2_abies_alba_pyramidalis/medium/49255769768_df55596553_b.jpg","small_url":"https://perenual.com/storage/species_image/2_abies_alba_pyramidalis/small/49255769768_df55596553_b.jpg","thumbnail":"https://perenual.com/storage/species_image/2_abies_alba_pyramidalis/thumbnail/49255769768_df55596553_b.jpg"}},{"id":5129,"common_name":"crabapple","scientific_name":["Malus 'Cardinal'"],"other_name":null,"cycle":"Perennial","watering":"Average","sunlight":["Full sun"],"default_image":{"image_id":9,"license":5,"license_name":"Attribution-ShareAlike License","license_url":"https://creativecommons.org/licenses/by-sa/2.0/","original_url":"https://perenual.com/storage/species_image/2_abies_alba_pyramidalis/og/49255769768_df55596553_b.jpg","regular_url":"https://perenual.com/storage/species_image/2_abies_alba_pyramidalis/regular/49255769768_df55596553_b.jpg","medium_url":"https://perenual.com/storage/species_image/2_abies_alba_pyramidalis/medium/49255769768_df55596553_b.jpg","small_url":"https://perenual.com/storage/species_image/2_abies_alba_pyramidalis/small/49255769768_df55596553_b.jpg","thumbnail":"https://perenual.com/storage/species_image/2_abies_alba_pyramidalis/thumbnail/49255769768_df55596553_b.jpg"}},{"id":5130,"common_name":"apple","scientific_name":["Malus domestica 'Co-op 38' GOLDRUSH"],"other_name":null,"cycle":"Perennial","watering":"Average","sunlight":["Full sun"],"default_image":{"image_id":10961,"license":45,"license_name":"Attribution-ShareAlike 3.0 Unported (CC BY-SA 3.0)","license_url":"https://creativecommons.org/licenses/by-sa/3.0/deed.en","original_url":"https://perenual.com/storage/species_image/364_malus_golden_russet/og/Malus_sylvestris_005.jpg","regular_url":"https://perenual.com/storage/species_image/364_malus_golden_russet/regular/Malus_sylvestris_005.jpg","medium_url":"https://perenual.com/storage/species_image/364_malus_golden_russet/medium/Malus_sylvestris_005.jpg","small_url":"https://perenual.com/storage/species_image/364_malus_golden_russet/small/Malus_sylvestris_005.jpg","thumbnail":"https://perenual.com/storage/species_image/364_malus_golden_russet/thumbnail/Malus_sylvestris_005.jpg"}}],"to":5130,"per_page":30,"current_page":171,"from":5101,"last_page":200,"total":6000}